,timeStamp,x_gaze,y_gaze,z_gaze,x_head,y_head,z_head,fixations_head
0,0.033366700033366704,-0.9981704625367526,0.0476860201614518,0.037172183152557374,-0.9998710826709776,-0.011952788326299467,-0.010721421994950549,1
1,0.2333667000333667,-0.9984706054782828,0.03478990034917391,0.04296641513468212,-0.9997767427115587,-0.02090092924608509,-0.003100949808763512,1
2,0.43336670003336675,-0.9975910572918416,0.042288652179866985,0.05498865617703721,-0.9999623552080568,-0.00826804354574982,0.0026320377432677796,1
3,0.6333667000333668,-0.9982627275487642,0.030691049171465038,0.050294992669816144,-0.9998554201212565,-0.016643140835310734,-0.0034849271559052983,1
4,0.8333667000333668,-0.9293727707485371,0.016721781826624624,-0.3687636573792626,-0.9991091071907381,-0.04212617211740426,-0.0025253814091145787,1
5,1.0333667000333666,-0.9312620836214384,0.002098898418057433,-0.36434396692478405,-0.9983804248210187,-0.056866303900004835,0.0016585580949222526,1
6,1.2333667000333668,-0.9329305215423206,-0.018511660823403293,-0.3595802558377384,-0.9972600961960001,-0.07359933661576774,0.007445682296713979,1
7,1.4333667000333667,-0.9339134570054848,-0.01451123988875724,-0.35720453348320674,-0.9976542392223496,-0.06771433798211605,0.010039292471019081,1
8,1.6333667000333667,-0.9339590334384924,-0.007344749954996433,-0.357304601854966,-0.9981423373419122,-0.060100675192796355,0.009989156470635991,1
9,1.8333667000333667,-0.9197543653642168,-0.05675955537528228,-0.3883687169006627,-0.998541872498458,-0.053346643112315566,0.008262235528012698,1
10,2.033366700033367,-0.9253286775094937,-0.03690320556853408,-0.377365859607488,-0.9988600264633267,-0.046645555868316445,0.010140988680511121,1
11,2.233366700033367,-0.9257504092106519,-0.04070154714631659,-0.37593824480385957,-0.9985862189617711,-0.051941977661984676,0.011295762754050543,1
12,2.433366700033367,-0.9254290331759342,-0.04967453260372123,-0.3756508290496078,-0.9978974765216225,-0.06376454281057778,0.011606439244492783,1
13,2.633366700033367,-0.9249690508961743,-0.06191382565069888,-0.3749652424925887,-0.9970580869779948,-0.07567832101423601,0.012164000996715774,1
14,2.833366700033367,-0.9246541944277498,-0.06200938782078256,-0.37572524076678804,-0.997120822102453,-0.07492305640995649,0.011687675043334558,1
15,3.033366700033367,-0.9284763339781724,-0.04800980518164392,-0.3682753804544556,-0.9978511649150646,-0.06391251717648619,0.014430621116714904,1
16,3.233366700033367,-0.9292937262407305,-0.031820992451700156,-0.36796819809462816,-0.9988288339506173,-0.046045833556277435,0.014857377997410283,1
17,3.433366700033367,-0.9301527026224397,-0.025313976217312906,-0.3662992661912397,-0.9991271254106899,-0.038308068794363416,0.016657704938501345,1
18,3.633366700033367,-0.9305120807037661,-0.022786448602456145,-0.3655517000705036,-0.9992471013031688,-0.034669891672189104,0.017413476064636352,1
19,3.833366700033367,-0.9702738172904731,-0.0033133440649434293,-0.24198706831498532,-0.9993550071283397,-0.03192726095108001,0.016438361709062065,1
20,4.033366700033366,-0.9698837950219675,-0.0030874649477294226,-0.24354854077572152,-0.999287256296201,-0.032015858947931214,0.01999910447588172,1
21,4.233366700033367,-0.9669552746548878,0.004169098399450691,-0.2549119758576002,-0.9991023669227082,-0.03440383343720957,0.024715109837252117,1
22,4.433366700033367,-0.9987530931441675,0.021282972194892707,-0.045158543261600195,-0.9988323059211086,-0.03751432916711155,0.030441743633744536,1
23,4.633366700033367,-0.9322454102374305,0.04022233954087686,-0.3595840075602693,-0.998464810289643,-0.038947329076976914,0.03938436455038055,1
24,4.833366700033367,-0.9620244706943768,0.04322523154020763,-0.26951901072744405,-0.9985052617956309,-0.02777170918477418,0.04707413658682885,1
25,5.033366700033366,-0.9959376683742307,0.020240091646995195,-0.08774109301474443,-0.998555677198341,-0.03181554741138142,0.043293538523397485,1
26,5.233366700033367,-0.9937854609452876,0.037458417792375465,-0.10482043956335237,-0.999178802594864,-0.018062085902624075,0.03626956710439437,1
27,5.433366700033367,-0.9817248781190641,-0.05843856995876769,-0.18111100801244362,-0.9995166632133918,-0.000920540814834608,0.031073985315293096,1
28,5.633366700033367,-0.9876604353928301,0.026473245075537007,0.15435683222590424,-0.9994628009492679,0.005339911667220289,0.03233565929481643,1
29,5.833366700033367,-0.9880864690985072,0.028728776560415534,0.1511945335711129,-0.9994922135063736,0.0018201204096046871,0.03181198361976715,1
30,6.033366700033366,-0.9884936481167581,0.027235464236574934,0.14879024538134675,-0.9994323323407477,-0.0009803087013516081,0.03367568955171601,1
31,6.233366700033367,-0.9886075768153969,0.025066444745188727,0.14841405732283522,-0.9993379503257626,-0.003924861290166673,0.03616982862216428,1
32,6.433366700033367,-0.9891330106497237,0.02935165546859191,0.14406376214810943,-0.9993429554384008,0.0012062347528296882,0.036224334546877374,1
33,6.633366700033367,-0.9987276934716688,0.006242621008477314,0.050040223577687185,-0.9993956620497865,-0.003134576654576934,0.03461914362409767,1
34,6.833366700033367,-0.9990654572988831,-0.02552080653552338,-0.03488410047500267,-0.999428032287485,-0.00854989855951192,0.032718611104204515,1
35,7.033366700033366,-0.9989138294035154,-0.02838365435845229,-0.03695307283115335,-0.9993468191556967,-0.011192868712658517,0.03436065676573979,1
36,7.233366700033367,-0.9994449352463621,-0.02725201142990995,-0.01916113993006002,-0.9992284689939573,-0.01785440978075952,0.03498123501782853,1
37,7.433366700033367,-0.9998312400376261,-0.017634444587780834,0.005149544533592476,-0.9991529286583143,-0.01706248439959877,0.03744725329883252,1
38,7.633366700033367,-0.9997547305439842,-0.009819593773355955,0.019850801823894693,-0.9990842083615221,-0.013727468147998486,0.04052531580230358,1
39,7.833366700033367,-0.996420330224957,-0.02162818407155808,-0.08172360227103727,-0.9990915258784645,-0.014178452812655683,0.04018823700637847,1
40,8.033366700033367,-0.9967942707581985,-0.022947735557956712,-0.07664582973908851,-0.9986868984787266,-0.017641281379923494,0.048096403173381146,1
41,8.233366700033368,-0.9972809217027472,-0.013946596923835073,-0.07236197649292873,-0.998634386108317,-0.006500087176053518,0.051837358620677315,1
42,8.433366700033368,-0.9971626837420738,-0.007592457097024241,-0.07489283508811219,-0.9987720995854348,-0.0005162054297253738,0.049538133005359045,1
43,8.633366700033367,-0.9930563088218093,-0.03059039529701003,0.1135931125763189,-0.9987653595764787,-0.006673895756753906,0.049226168096808964,1
44,8.833366700033368,-0.993819374073348,-0.03796436312790478,0.10431566923886176,-0.9992107798488111,-0.017716273289715746,0.03555208987746079,1
45,9.033366700033367,-0.9900323130214489,-0.008617783828617975,0.14057650221599333,-0.99821922465827,-0.057455260103039585,0.016039719733669612,1
46,9.233366700033368,-0.9961945935289098,-0.04714945246728713,0.07330253035063332,-0.9938016380747707,-0.10931355226287905,0.020220075459134783,1
47,9.433366700033368,-0.9959478010700362,-0.04319496113543671,0.07888075098696774,-0.9916743914720175,-0.11974052804440474,0.0473720090586326,1
48,9.633366700033369,-0.9774151224245462,-0.13179700903528796,-0.16519451221260925,-0.9888057097737255,-0.1217507187774025,0.08625561312787122,1
49,9.833366700033368,-0.9667552955256553,-0.14338131603714102,-0.21172150760978614,-0.9884363650217192,-0.12342512733788975,0.08808967160954091,1
50,10.033366700033367,-0.9608272644948405,-0.1224693902958173,-0.2486206271489409,-0.9933554372837656,-0.0832805657783287,0.07943124437159901,1
51,10.233366700033368,-0.9580593803991329,-0.10550974110270193,-0.26643933298533556,-0.9952413538172097,-0.056217402740044456,0.07958800965755725,1
52,10.433366700033368,-0.9995842175564368,-0.0010551728666637335,-0.028814555736773172,-0.996073600871412,-0.04930078086646278,0.07353104550471469,1
53,10.633366700033369,-0.9927222649300238,-0.06314037278513135,0.10254656521189832,-0.9955646786076073,-0.06029342163850672,0.07221962348318392,1
54,10.833366700033368,-0.987506010421617,-0.06981508023120146,0.14127184416398172,-0.9946947225007495,-0.06727925850681676,0.07781973017127534,1
55,11.033366700033367,-0.9858418863610399,-0.08560995022338881,0.14417597413874303,-0.9947605874387134,-0.07453857756052186,0.06996695029683929,1
56,11.233366700033368,-0.985608363021834,-0.07477923738362484,0.15160547614695258,-0.9953705413221473,-0.06047720637910753,0.07469935057705875,1
57,11.433366700033368,-0.9858527284846601,-0.06436525971161508,0.1547627574114889,-0.9955784569490561,-0.05026072362934837,0.07935613220911718,1
58,11.633366700033369,-0.9860311755894586,-0.05579709202855678,0.1569369468507242,-0.9954877934935034,-0.04208956538144017,0.08504423255834324,1
59,11.833366700033368,-0.9871766588607352,-0.05270275641952767,0.15068066785868597,-0.9957796324595327,-0.041186366854432326,0.08201589336275071,1
60,12.033366700033367,-0.9880480403327413,-0.04770624348268212,0.1465782532553893,-0.9961281772449754,-0.03907198502606049,0.07875299667140498,1
61,12.233366700033368,-0.9878511785978089,-0.0467264926329403,0.14821161840133762,-0.9958806275460799,-0.041416901036830704,0.08066235793064465,1
62,12.433366700033368,-0.9880543886169415,-0.04610453909657763,0.14704725978233743,-0.9959333765887967,-0.04281373379080649,0.0792697520831764,1
63,12.633366700033369,-0.9890591019615248,-0.045639190478672695,0.1402824191390838,-0.9963906599408681,-0.044356936653011124,0.07237482264822596,1
64,12.833366700033368,-0.9890342897108504,-0.039645610429052965,0.14226524294381163,-0.9964875226964391,-0.03921901283213387,0.07398977052800561,1
65,13.033366700033367,-0.9894362856420348,-0.026954524396395684,0.1424404797431496,-0.9965499414964605,-0.03356405222188605,0.07590565526920572,1
66,13.233366700033368,-0.9895827900762111,-0.02297966473000332,0.14211909299555303,-0.9962138959170022,-0.03502107580755669,0.07957008125639722,1
67,13.433366700033368,-0.9891934641216202,-0.020767120025015587,0.1451379249711661,-0.9961379303717908,-0.03382945432600312,0.08102340214166602,1
68,13.633366700033369,-0.9886913772041565,-0.01666415711022566,0.14903578935931605,-0.9960689478312007,-0.030380610798811217,0.08320859122672698,1
69,13.833366700033368,-0.9877012507913067,-0.017780033114104067,0.15533869320858157,-0.9956381614059058,-0.03208462430692556,0.08760838107938937,1
70,14.033366700033367,-0.9873070090090019,-0.016180024484550505,0.1579970783570964,-0.9955573362856448,-0.03093809525532987,0.0889293226658341,1
71,14.233366700033368,-0.9872121667606898,-0.017451027511136037,0.15845377697760935,-0.9955806237449852,-0.033398724988796834,0.0877709906100487,1
72,14.433366700033368,-0.9607787049084549,0.1543262723424454,-0.23040764279710438,-0.9956833235138369,-0.03140013602419949,0.08734271998341943,1
73,14.633366700033369,-0.9640407141034772,0.14425445550905544,-0.22319532615322435,-0.9952672111749565,-0.0341154968315957,0.09099072060357553,1
74,14.833366700033368,-0.9946343352082379,0.09354621265099472,0.04417743002395957,-0.9949371971127126,-0.03807219138048371,0.09300796764249553,1
75,15.033366700033367,-0.9899532448029971,0.07404274194803219,0.1204584802694869,-0.9950135680389797,-0.036263819441527956,0.0929135879075354,1
76,15.233366700033368,-0.9879645468427759,0.06880917949737007,0.1385328516946331,-0.9953121368354292,-0.031844566312846975,0.09132181483325086,1
77,15.433366700033368,-0.9860160265626858,0.0662100076298954,0.15293341770581936,-0.9956591391569959,-0.028647611819362866,0.08855615704284293,1
78,15.633366700033369,-0.9828301045673772,-0.01476184471329697,0.18392137857448512,-0.9959152611962909,-0.019227405149938977,0.08822187601453339,1
79,15.833366700033368,-0.9837863545700765,0.006141328297089128,0.17923920511000754,-0.9954322732113363,0.0021527050349381726,0.09544608588278734,1
80,16.033366700033366,-0.9851892477348875,0.0023678370667552704,0.17145419066092374,-0.9953335933777263,-0.0007873854449059095,0.09649050687992437,1
81,16.233366700033365,-0.9861507877759716,0.0010183432620841167,0.1658480833348138,-0.9952811408971166,-0.0021876199701525035,0.09700858154514219,1
82,16.433366700033368,-0.9865408228170219,-0.006999035320238668,0.16336529135682326,-0.9949681993241721,-0.008259559242687939,0.09985019787026395,1
83,16.633366700033367,-0.9867233299593514,-0.012221368960464716,0.1619497090292577,-0.9945034682421882,-0.01132196442209579,0.10408969581992311,1
84,16.833366700033366,-0.9733707791000792,0.13507293835765055,0.18521508501613734,-0.9952270911223821,-0.007205480893521984,0.09731966985751249,1
85,17.033366700033366,-0.9781704370846096,0.13768025735664627,0.15564942257493697,-0.9958495095979404,-0.012252235576128099,0.09018667837839715,1
86,17.233366700033365,-0.9818598240303968,0.14652128306672538,0.12034450366958481,-0.9971499180168312,-0.004555405624003133,0.07530796291646691,1
87,17.433366700033368,-0.9852777848342226,0.14718900616883443,0.08696598861163161,-0.9986089214039792,0.002252431133918121,0.05267967963426085,1
88,17.633366700033367,-0.9884631048649808,0.13011163093604355,0.077534855489934,-0.9991446355479672,-0.0025577113225492055,0.04127293748342494,1
89,17.833366700033366,-0.9916874936888047,0.10652562262511565,0.07216790550894896,-0.9994023480999287,-0.01070948284379615,0.032867211466256006,1
90,18.033366700033366,-0.9925313627921335,0.0983404572569325,0.07218482070690473,-0.9994120068118715,-0.010854158290376436,0.032524266141992546,1
91,18.233366700033365,-0.9920254595359461,0.09893341310188054,0.07808756241878483,-0.999552212915172,-0.0029895772387670766,0.029773076500690592,1
92,18.433366700033368,-0.991814412045243,0.10488726094752031,0.07282056406177678,-0.9997244181705761,0.006911409160033684,0.022434797456764386,1
93,18.633366700033367,-0.9929100732879761,0.09810660951993021,0.0671169094324967,-0.999805667028477,0.004713640208300002,0.01914183308173472,1
94,18.833366700033366,-0.9941106942465407,0.09066149485909741,0.05936683362429201,-0.999928635212813,0.002396165247689506,0.011703968282013429,1
95,19.033366700033366,-0.9950306153072265,0.08644796742547474,0.0494046913696136,-0.9999732316893071,0.004357784086173605,0.005877552441427015,1
96,19.23336670003337,-0.9959609582591082,0.08205658196052681,0.03644841533667514,-0.9999793564630818,0.0063992749867829,-0.0005795923781402737,1
97,19.433366700033368,-0.9959613797191442,0.08284802923076462,0.03459962659505362,-0.9999300760399873,0.011751553291839339,-0.0013206157255246783,1
98,19.633366700033367,-0.9966118852598931,0.07594527293304063,0.031576346809721274,-0.9999593357353047,0.008188513942998027,-0.0037782423444499736,1
99,19.833366700033366,-0.9973794590017179,0.06382310844490503,0.0340708906527347,-0.9999954292207458,-0.0023577009645593945,-0.0018928242861255091,1
100,20.033366700033366,-0.997589587365413,0.05695756561868239,0.039633961433331144,-0.9999614227085689,-0.008232111781333875,0.0030635649617103433,1
101,20.23336670003337,-0.9970282101019559,0.06382028782112682,0.043147643311293955,-0.9999774381686495,-0.001123184210246098,0.006622809894235083,1
102,20.433366700033368,-0.9965734008013367,0.06421201293208084,0.05213707136451562,-0.9998794815455806,-0.001847071783086722,0.015414626494644165,1
103,20.633366700033367,-0.977986696953384,-0.04674438538414786,0.20336416355215808,-0.9995801620771256,-0.012235142355400063,0.026264060489774685,1
104,20.833366700033366,-0.9867163530659533,-0.06224258883608031,0.15005565210017335,-0.9986932604365699,-0.03580781142762809,0.03646329934793289,1
105,21.033366700033366,-0.9912666012276501,-0.07491478607944735,0.10852787714340316,-0.9982345210709526,-0.052842068365078605,0.027121149554305626,1
106,21.23336670003337,-0.9932211237618317,-0.04366725511860311,0.10772636698455684,-0.9993958160134353,-0.028388186289681556,0.020052775718641377,1
107,21.433366700033368,-0.9942732812496049,-0.006375226626367533,0.1066770766313318,-0.9997963719455013,0.0068286217780682505,0.018989064464192712,1
108,21.633366700033367,-0.99403448755809,0.013422434362497257,0.10823712764532442,-0.9994502809068269,0.023584892133858264,0.02329997549996706,1
109,21.833366700033366,-0.9934191020608766,0.0012587434950459921,0.1145290497008322,-0.9995933650328933,0.006528439118155064,0.027757594724656408,1
110,22.033366700033366,-0.9936445695452777,-0.016648244179081437,0.11132522346231277,-0.9996116100665129,-0.016608871745295573,0.022377989176468802,1
111,22.23336670003337,-0.9929281942573844,-0.012124689128175943,0.11809569408879993,-0.9995537338568069,-0.014121565964173884,0.02632326931889801,1
112,22.433366700033368,-0.9924122260021059,-0.008408689194439328,0.12266730463973138,-0.9994745305021606,-0.012248097376135575,0.03001078119860685,1
113,22.633366700033367,-0.9924801675774629,-0.006631013253646593,0.1222258018122254,-0.9995570298298985,-0.010597169766286985,0.027810863175676673,1
114,22.833366700033366,-0.9919622119041713,-0.023198796264716413,0.12438965393493269,-0.9991684509414638,-0.02491369404854898,0.03227560211817575,1
115,23.033366700033366,-0.9924638123689934,-0.019107462198426947,0.12103919210875211,-0.9992608672179297,-0.01940637562964015,0.0331830051651797,1
116,23.23336670003337,-0.9918610315843472,-0.00851063379257292,0.12704039962501495,-0.9992382867430505,-0.010869132007614411,0.03747943804560636,1
117,23.433366700033368,-0.9915807355978717,0.002440258434880581,0.12946694531792646,-0.9992972516875286,-0.0026983522420555663,0.03738611593800683,1
118,23.633366700033367,-0.9925165337319681,0.054519662706934,0.10926361080891164,-0.9993503851535129,-0.00023629258218516087,0.03603820000140123,1
119,23.833366700033366,-0.999736153810184,0.02245824961104949,0.004821803524439424,-0.9994425393327876,0.001244710455822786,0.033362572861080096,1
120,24.033366700033366,-0.9999057053923313,0.012751708560479542,0.005096494153172953,-0.99954873062175,-0.007791877444756347,0.029010717990670086,1
121,24.23336670003337,-0.9997971378804829,0.012676497564886363,0.015652140284385743,-0.9995356929397906,-0.008648173040818465,0.029216564521319918,1
122,24.433366700033368,-0.9995894334302803,0.011148025235111199,0.026394812139675067,-0.9995359560263402,-0.003137642303416971,0.030298973766220937,1
123,24.633366700033367,-0.9992099883886915,0.010655009185328032,0.03828668023649942,-0.9994424852267803,-0.0008060539400541917,0.03337767218910229,1
124,24.833366700033366,-0.9941642310658263,0.04791384162354481,0.09665270534324713,-0.9992434474658789,0.0031534134358106973,0.03876323877345643,1
125,25.033366700033366,-0.9561711877376128,0.219627372280684,0.19365039913598164,-0.9980876249220041,0.03611037418849426,0.05017104596796641,1
126,25.23336670003337,-0.936666018652761,0.28463033718020736,0.20406455022337322,-0.9859555654383352,0.15304410991536058,0.06685150261129706,0
127,25.433366700033368,-0.7142627843836227,0.6877694409159869,0.1296220312549749,-0.9009635473987153,0.4265642918153387,0.07942034504332822,0
128,25.633366700033367,-0.3857522318866576,0.9225014413209041,0.013649408606850672,-0.7133143932187634,0.6987621887729336,0.05398129276153911,0
129,25.833366700033366,-0.08852445133624226,0.9960636107143621,-0.0045502666169201485,-0.47928292167024567,0.8766766201764672,0.04154497119026141,0
130,26.033366700033366,0.1393754214808508,0.9902346364220732,0.0031395409027247063,-0.2456799189861823,0.968427888928583,0.04229422362771922,0
131,26.23336670003337,0.13563955553985985,0.9904416210145084,0.02504608422692661,-0.09456524453974963,0.9950202190833185,0.03149885935272502,1
132,26.433366700033368,0.17827718539784315,0.9838326129950148,0.017048013785334146,-0.02974807674207075,0.9992239816682645,0.02581639767992373,1
133,26.633366700033367,0.1857236958294025,0.9825284732935989,0.012021146984272152,-0.005965310403276636,0.999614302692552,0.027123069964061605,1
134,26.833366700033366,0.17952614915025306,0.9837341644913856,0.0061200803684847375,-0.006548151652047696,0.9995919911705456,0.027802390142684395,1
135,27.033366700033366,0.16676108810176699,0.9859960103280035,0.0016146554971010886,-0.016422740159863225,0.9995586379180837,0.024755261440490842,1
136,27.23336670003337,0.1526498274375132,0.9882799380387118,-0.0008912090091026647,-0.03252996417902859,0.9993051059351961,0.018196337058805898,1
137,27.433366700033368,0.17156636371995054,0.9851433302732715,-0.007589575614065568,-0.011705986313770289,0.9999051405016133,0.00725809085581383,1
138,27.633366700033367,0.18308650152811884,0.9830963789043685,0.0009180105188328727,-0.0016194425623461406,0.9999099968778209,0.01331824123461532,1
139,27.833366700033366,0.1883152273910183,0.9821080679010783,-0.0010574007187438123,0.005692919730797608,0.9999408373255574,0.009268900344827831,1
140,28.033366700033366,0.19879351173987564,0.9800413888445823,0.00012586385743097812,0.016444560455178725,0.9998245121729559,0.008973365564112327,1
141,28.23336670003337,0.19937368437528907,0.9798403103195504,-0.012771070883444645,0.016767330998700924,0.9998532984245463,-0.0034983197017496334,1
142,28.433366700033368,0.19210056444481838,0.9811617348305591,-0.020470057261033535,0.008467194204481499,0.9999251584912829,-0.008830857177342315,1
143,28.633366700033367,0.43628965596903635,0.8997823076529063,0.006567718723484107,-0.03114495340694806,0.9994938310676594,-0.006486411563590246,1
144,28.833366700033366,0.34893920198672684,0.9370036869250336,0.016294907356595088,-0.12774320676344592,0.9916703417973889,-0.01648048316165838,1
145,29.033366700033366,-0.005549493559270258,0.9934613304628495,0.11403415276232469,-0.26606085345789815,0.963007954414755,-0.0427469530044436,1
146,29.23336670003337,-0.04035522461350638,0.994982603931531,0.09154820435171576,-0.3290007437432797,0.9434519016053118,-0.040706510212617605,1
147,29.433366700033368,-0.05541178377488354,0.9880825206685956,0.14360524561477614,-0.3432751376896284,0.939126123261817,0.01429351081425715,1
148,29.633366700033367,-0.04772513031191289,0.9850292552482407,0.16564926272642258,-0.31343115358954693,0.9487894131538436,0.0394912831737751,1
149,29.833366700033366,-0.01173268706950703,0.9847138742973581,0.17378414720686067,-0.26884952336938106,0.9624218076868553,0.03826483859658559,1
150,30.033366700033366,0.019916328709392084,0.9882631456414397,0.1514572375874674,-0.23551451519694455,0.9713660835659425,0.03131844231935411,1
151,30.23336670003337,-0.009980199716526472,0.9874360212647091,0.15770383483777325,-0.26693334579478534,0.9625350098935566,0.047675398603602856,1
152,30.433366700033368,-0.060305218623539325,0.9832889085029786,0.1717736971185887,-0.3131819568638872,0.9476259236749008,0.06262723588182509,1
153,30.633366700033367,-0.07327892148520926,0.9850539249607584,0.15588125155184365,-0.3297310204402151,0.9422496339485115,0.058677776741717334,1
154,30.833366700033366,-0.10805510408148455,0.898069295097627,0.42637499420673236,-0.3340420665447834,0.9406868129230259,0.059365122514914735,1
155,31.033366700033366,-0.06526558165505764,0.977030739432781,0.2028579257871387,-0.33210956165283995,0.940785735873023,0.06801057444701439,1
156,31.23336670003337,-0.1068543780147983,0.9795956138067281,0.1702191978294174,-0.36721448062936807,0.926192926318597,0.08555809987077752,1
157,31.433366700033368,-0.10726522983709802,0.9892494859420161,0.09939630290635229,-0.35997603945206463,0.929362139090222,0.08187347217537774,1
158,31.633366700033367,-0.6371942530215007,0.6574155749095054,0.4022290961414611,-0.43337549892187643,0.8962323131320779,0.09462197330504256,0
159,31.833366700033366,-0.8248509952535745,0.5287521418793685,0.2001049926592733,-0.5724797940712743,0.812437627112988,0.11050786139967218,0
160,32.03336670003337,-0.8864926925269525,0.4246034639686834,0.18396359553484784,-0.6628992515200739,0.739718880947631,0.1156743683955551,0
161,32.23336670003337,-0.9242881713128781,0.3300187401537835,0.19177853768971503,-0.7467776998837001,0.6530429450719016,0.12592846718763626,0
162,32.43336670003337,-0.6931562673142119,0.7099712431586042,0.12439944923855238,-0.801177253513521,0.5853172269154853,0.12457428437883118,0
163,32.63336670003337,-0.9857637828951351,0.1282623100881243,0.10871312774053885,-0.8637659032951817,0.492378927834545,0.10710488191097202,1
164,32.83336670003337,-0.9839884659073268,0.03803508072124475,0.174126481604248,-0.8915492195007338,0.43918315898681276,0.11071649411897133,1
165,33.03336670003337,-0.9866056923866637,0.03898890012851917,0.1583953074336504,-0.902949616197955,0.4152340263129041,0.1107370489038797,1
166,33.23336670003337,-0.9862515004298036,0.015601842031173084,0.16451310107464198,-0.9123223566781413,0.39358580808778915,0.1129518887718345,1
167,33.43336670003337,-0.9873252093037073,-0.004690783878970225,0.1586408762582711,-0.9227907774851234,0.36882157556716216,0.11148016139456261,1
168,33.63336670003337,-0.9881122349134664,-0.016188383408280632,0.15287951941624287,-0.9295642227856481,0.3505895676106415,0.11400574897564521,1
169,33.83336670003337,-0.8007179366970438,0.5346264593595444,-0.2702320018138232,-0.9299217034011461,0.35129743313396106,0.10879218270170503,1
170,34.03336670003337,-0.7496897853765665,0.619958071715047,0.23155391384599455,-0.9223429717022563,0.3707937029381265,0.108606963003684,1
171,34.23336670003337,-0.8121224803723318,0.5496757627154826,0.19573868487614893,-0.9232765812865898,0.36993040619674566,0.10349806287490596,1
172,34.43336670003337,-0.8221173312132094,0.5340938619552176,0.19714674823752887,-0.9289886140522704,0.35757972137251537,0.09548244772939259,1
173,34.63336670003337,-0.8384620102768918,0.5086898603087299,0.19548934329399692,-0.9392705012548191,0.3309611535431347,0.09075042874785144,1
174,34.83336670003337,-0.9599130742020219,-0.0021278228054248957,0.28028978280724465,-0.9448528163477359,0.3148442771199026,0.09014564107375192,1
175,35.03336670003337,-0.9800242120864032,-0.045398989281846144,0.19362715588628432,-0.951958388147174,0.2927253615552801,0.08992824883519551,1
176,35.23336670003337,-0.8082254544346038,0.5361728220548094,0.24349603629989516,-0.9442292985422798,0.31474895717792567,0.09676841287198529,1
177,35.43336670003337,-0.7055048931125397,0.6703172299967427,0.23008184840129783,-0.922421801445761,0.37721967312181187,0.08272447296556432,1
178,35.63336670003337,-0.6960687956267507,0.6800954493070362,0.23012694667636333,-0.8967969922254369,0.4332024067903297,0.08994903827432281,1
179,35.83336670003337,-0.7947979521237258,0.6056754243244459,-0.038124738285451605,-0.8861551733791109,0.4565066300187297,0.0795657303264458,0
180,36.03336670003337,-0.8216667486716609,0.5668284692111134,-0.0597431219399149,-0.8897775558614612,0.4485497037061758,0.0842559457267358,0
181,36.23336670003337,-0.8390874908142253,0.5397888261978612,-0.06752929639069698,-0.8965536329233328,0.43458923023308715,0.08557911110420964,0
182,36.43336670003337,-0.8826683327794353,0.4666083314109413,-0.056331868123374054,-0.9254396669807198,0.3641459053363691,0.10468611371796693,0
183,36.63336670003337,-0.9156057880482295,-0.19434431440888264,0.3519891026005241,-0.967576889372445,0.17576591106689618,0.18138717611553243,1
184,36.83336670003337,-0.9345393655592646,-0.17919519098461353,0.3074496019644105,-0.9616291291901864,0.20938731762182905,0.17727484060649804,1
185,37.03336670003337,-0.9192418359196246,0.3130921769420446,0.23867914829915346,-0.9737468257046171,0.15967504117960993,0.1622374822735869,1
186,37.23336670003337,-0.9597209556223627,-0.23435082922140196,0.1549689523180068,-0.9781991812542488,0.1443622118985026,0.14928467292153416,1
187,37.43336670003337,-0.9951290419079397,0.09834049058387453,0.006880251674833367,-0.988463631593504,0.09146853443715852,0.12071932829874311,1
188,37.63336670003337,-0.9904788593934655,0.13569858017232764,0.023184573186372376,-0.9906619621252376,0.06890494669864487,0.11764771616411268,1
189,37.83336670003337,-0.9929045685313442,0.11697557199069601,0.02138301538686032,-0.992226719175524,0.053987458354572,0.11212266539192518,1
190,38.03336670003337,-0.9962361096911544,0.0862866278588329,0.00826024213845545,-0.9952842169338536,0.02782921381607644,0.09292396020803964,1
191,38.23336670003337,-0.9978027940300406,0.06554128909386922,0.009691421451912527,-0.9961371208093186,0.008093854472863137,0.0874375552351135,1
192,38.433366700033375,-0.9972872164477179,0.07252859098715998,0.012562300720005158,-0.9962981338388697,0.013435255344350224,0.0849089066177301,1
193,38.63336670003337,-0.9968998232809292,0.07757169140392917,0.013167195418389491,-0.996348691177948,0.01530059866350547,0.08399510264609686,1
194,38.83336670003337,-0.9962237444543173,0.08493251376091245,0.018019963697851617,-0.9960130358743784,0.02041549695024839,0.08684031237034424,1
195,39.03336670003337,-0.9955389670094419,0.09302481913226174,0.015765411227857237,-0.9961592347100492,0.0260262411496842,0.08360271451040192,1
196,39.23336670003337,-0.989707508904788,0.047633143369512375,0.13494491642969977,-0.9962999837253268,0.0034812441876422772,0.08587329834016903,1
197,39.433366700033375,-0.9904150504479412,0.04319521533180295,0.1311952789495183,-0.9953846749161711,-0.015263853081715293,0.09474367383170496,1
198,39.63336670003337,-0.9866550329385614,0.04893482096141612,0.15529722880489805,-0.9954754854444081,-0.014796426001053525,0.0938595954434876,1
199,39.83336670003337,-0.9844423881492826,0.06126569179699815,0.16468059820018935,-0.9954407026376675,-0.005694702415069818,0.09521227807710084,1
200,40.03336670003337,-0.9843398317332087,0.06990227608265026,0.16182943941663822,-0.9951075161064991,-0.0007548371965984556,0.09879504850527826,1
201,40.23336670003337,-0.9854474565651695,0.07513837039453883,0.15247142566294788,-0.9951379627365036,0.004216085739333603,0.0984005068161737,1
202,40.433366700033375,-0.9868598252558536,0.0829623456624449,0.1386540100327828,-0.9952970746263482,0.011629775450423064,0.09616902600737157,1
203,40.63336670003337,-0.9874321155844152,0.08874143620306728,0.13077757687426206,-0.9954873547531915,0.016159057629942762,0.09350834926896089,1
204,40.83336670003337,-0.9874529816981393,0.08450046948685057,0.13340269709400748,-0.9951224437570337,0.014992935170323136,0.09750145550712723,1
205,41.03336670003337,-0.9874609655206769,0.08021151484512555,0.13596674026843064,-0.9944973450139247,0.01191831143436709,0.10408162476060892,1
206,41.23336670003337,-0.9864740086627264,0.07964969850049416,0.1432653334260311,-0.9936069007832764,0.011955443704196508,0.11226038518412576,1
207,41.433366700033375,-0.9860175573827143,0.07862182333105432,0.14692850448134998,-0.9934850053773298,0.009504444112838873,0.11356588234374164,1
208,41.63336670003337,-0.9856883414388553,0.0709786080715813,0.15290693492363117,-0.9934238064195945,0.0008752170978159499,0.11449181120864667,1
209,41.83336670003337,-0.9843744243440242,0.06939020128500277,0.16183940392561438,-0.9930946798383298,-0.001469331983777725,0.11730642753202841,1
210,42.03336670003337,-0.9813188368287551,0.07409135622438136,0.17754946189130166,-0.9918879283134778,0.0027385468595398223,0.1270859474021239,1
211,42.23336670003337,-0.8747282637038534,-0.42407155877825214,0.234550160334684,-0.9908728351411547,0.004785369090189255,0.1347149762350164,1
212,42.433366700033375,-0.8707214217289324,-0.42622142038620603,0.24531511683202845,-0.9897761676505764,0.001544662112088177,0.14262100816463671,1
213,42.63336670003337,-0.9588367119598725,0.09872533117693787,0.2662432511482397,-0.9876839782964237,0.002799810304560362,0.15643695240833638,1
214,42.83336670003337,-0.8787283670416393,0.2732525488938672,0.39136875383624914,-0.9844286035348148,0.024864862771855612,0.17401742194915834,1
215,43.03336670003337,-0.8707641214717972,0.29673738937459765,0.39206729843816085,-0.9817495666536101,0.03948661313677997,0.18603385648433945,1
216,43.23336670003337,-0.9468706655163388,0.14401188827495576,0.28757002420302374,-0.9804439705111929,0.04323141810745561,0.19199131536781933,1
217,43.433366700033375,-0.9510966032933618,0.13699286263148616,0.2768541254737967,-0.9800927863715608,0.04059256984243596,0.1943460145617023,1
218,43.63336670003337,-0.9883618586536,0.08173095093424974,-0.12829999227663444,-0.9806797233748566,0.03102945258761563,0.19314360779877635,1
219,43.83336670003337,-0.9591324058700517,0.10287659267330096,0.2635933130598323,-0.9817359199527954,0.024272484137896535,0.18869401153246684,1
220,44.03336670003337,-0.964462230815454,0.10735434582103418,0.2414283532723858,-0.9826590646105339,0.01911585646082551,0.1844335836297721,1
221,44.23336670003337,-0.9655161033867636,0.11143807693690451,0.23528750308812565,-0.982874958454509,0.02110629233979867,0.1830610293500892,1
222,44.433366700033375,-0.9673963573727548,0.11251142247166807,0.2269040932978673,-0.9840492953658946,0.02149916593349393,0.17659210105225662,1
223,44.63336670003337,-0.9687848153124652,0.09866570421883526,0.2274226471374257,-0.9843188140111793,0.008809786076377389,0.17617848918898804,1
224,44.83336670003337,-0.9768143124824484,0.015052886635107027,-0.213558445240155,-0.9841184707691849,-0.011533262375144083,0.17713785408519306,1
225,45.03336670003337,-0.9689997675012421,0.24656741620163244,-0.015619214134846616,-0.9839195802459547,-0.025178511933340187,0.17682845400400632,1
226,45.23336670003337,-0.9688946693481666,0.24717471612864123,-0.012156455710151786,-0.9832601202934791,-0.024819759746473123,0.18050904511015556,1
227,45.433366700033375,-0.9637605285537199,0.023402850620710677,0.2657403811705693,-0.9829473430149437,-0.03627981742655901,0.18027283685391526,1
228,45.63336670003337,-0.9635360505800078,0.022196082311523372,0.2666563578141364,-0.9836012269066748,-0.04042941988247855,0.17576714265086726,1
229,45.83336670003337,-0.9642291788895467,0.024696124762408643,0.2639170172605593,-0.9843431632766311,-0.04276858627048002,0.17099527753414756,1
230,46.03336670003337,-0.9655357295304944,0.031950552196040045,0.25830198840578855,-0.9845486689482478,-0.04061765111115349,0.1703353307169314,1
231,46.23336670003337,-0.9682924401652759,0.0412217873034495,0.246395037633238,-0.9849841505921525,-0.036479150326501696,0.16874683604059842,1
232,46.433366700033375,-0.9705613401425656,0.04818176475785003,0.23598559821626144,-0.9850758395413295,-0.03287443475110315,0.16895224737108558,1
233,46.63336670003337,-0.9719670134837399,0.08566992271666064,-0.2189538513961807,-0.9854266473978257,-0.02604809372861048,0.16809467395306382,1
234,46.83336670003337,-0.9702703831724575,0.08818392756233775,-0.22538628720056042,-0.9865715186322865,-0.023868909556383724,0.16157634040964453,1
235,47.03336670003337,-0.9694228063114998,0.08921391334885745,-0.22860511863936797,-0.9870899731220724,-0.023552280628954102,0.15842561358265825,1
236,47.23336670003337,-0.9694311654929354,0.08893994287252727,-0.22867641315369797,-0.9871579876992238,-0.026061165220819735,0.15760686212520159,1
237,47.433366700033375,-0.9689150057667678,0.08593172545273363,-0.23199019410462238,-0.9875997120653918,-0.029876679669389433,0.15412395251967947,1
238,47.63336670003337,-0.9682879883031812,0.09287184067498759,-0.23193359592223506,-0.9877727224807629,-0.022965942793876024,0.15419991632465332,1
239,47.83336670003337,-0.8607180634978191,-0.4450456260714076,0.24718172643477002,-0.987832171203648,-0.022891224499339953,0.15382975452105352,1
240,48.03336670003337,-0.9101147324821275,0.22063550164428183,0.350729452902322,-0.9871824483198504,-0.029726886930615454,0.15680282498297232,1
241,48.23336670003337,-0.9239872772842479,0.22047456867803183,0.31247156027881773,-0.9854894625319266,-0.023365290533895737,0.168120737676234,1
242,48.433366700033375,-0.9240475149886721,0.22840017579395488,0.30654453141517746,-0.9848281634756468,-0.0230479734758362,0.17199499801983073,1
243,48.63336670003337,-0.9767146980389252,0.08507714380012618,0.19695247710436073,-0.984085364260447,-0.023666405507473058,0.17611330755720597,1
244,48.83336670003337,-0.9786380591449128,0.08003430438944482,0.1893728051066899,-0.9839471850722252,-0.02207922882304605,0.17708880439774805,1
245,49.03336670003337,-0.9792074711633595,0.07728661826739837,0.18756200855889754,-0.983809523119452,-0.022019833328500844,0.17785935218498286,1
246,49.23336670003337,-0.978148640365586,0.03562856527769472,0.20483125417574408,-0.9838867477213705,-0.01768676336298952,0.17791583982323259,1
247,49.433366700033375,-0.9811350496466053,-0.007219248252753859,0.19318875953227407,-0.9842927808322556,-0.02253873653668774,0.1750991917652254,1
248,49.63336670003337,-0.981730809452228,0.0003990512406966709,0.19027469230136898,-0.984007411203826,-0.026192685969342502,0.17619125374903258,1
249,49.83336670003337,-0.935719429570304,0.1964403242304539,0.29298523536325083,-0.9843315177937387,-0.01510240222446997,0.1756797669765226,1
250,50.03336670003337,-0.9324468212893959,0.19843243692054252,0.3019395526344252,-0.9851051494839858,-0.019994956150420115,0.17078655154512998,1
251,50.23336670003337,-0.9283061755264725,0.2092795680248159,0.3073267103373225,-0.9855939427087866,-0.02017851072002393,0.1679208378995035,1
252,50.433366700033375,-0.9457350032369682,0.15123526389690248,0.28759902400113607,-0.9861448319731844,-0.020763268651914052,0.16458206781866858,1
253,50.63336670003337,-0.9773451943855597,0.04404743069931933,0.20701737816000293,-0.9855876210516926,-0.01968829710533603,0.16801610692656085,1
254,50.83336670003337,-0.9739681851586767,0.04186728904104318,0.22278488370414076,-0.9851620051929999,-0.016896002635102842,0.17079329207864904,1
255,51.03336670003337,-0.9742876242420787,0.03620866620269324,0.2223793105047052,-0.9859413906398738,-0.020482033766616146,0.16583142197995712,1
256,51.23336670003337,-0.9737973331907522,0.026919244233644127,0.22581875068396937,-0.9853100418717508,-0.026633920201975803,0.1686853748294854,1
257,51.433366700033375,-0.9737151382199953,0.02181551929172115,0.22672210461101516,-0.9850238960834655,-0.029367950678856506,0.16989834495213446,1
258,51.63336670003337,-0.9776330012253295,0.036661107575085054,0.2070982329874477,-0.9852637924281541,-0.02467637452076145,0.16925228468355402,1
259,51.83336670003337,-0.9774318137826425,-0.016903822348791307,0.21057376426225125,-0.9853894547617145,-0.018877549917053916,0.16926683240830337,1
260,52.03336670003337,-0.9805317061916319,-0.023621989568935457,0.1949347961799857,-0.9856473664324963,-0.022712841223855394,0.1672823836757006,1
261,52.23336670003337,-0.984025084564314,-0.030225824488993944,0.17544524069394257,-0.9856917270577084,-0.02743724989598374,0.1663100012871681,1
262,52.433366700033375,-0.987164308635107,-0.02529601723629343,0.15769191250331283,-0.986388949622959,-0.022270549211468697,0.16291366639890975,1
263,52.63336670003337,-0.98825798044423,-0.013280425365843188,0.15221627505097485,-0.987654197435113,-0.020371274453541144,0.15531966220006296,1
264,52.83336670003337,-0.9878054151467659,-0.007240493588054703,0.15552503676041018,-0.9880675252924174,-0.021188554571917047,0.1525569094393026,1
265,53.03336670003337,-0.987488156863871,-0.004925040861356152,0.15761625558967113,-0.9881687019981101,-0.019479891835435192,0.15212872906012928,1
266,53.23336670003337,-0.9689788369517718,0.02051019002743447,0.2462911806066768,-0.9885189477196608,-0.01620733423289076,0.1502252053294586,1
267,53.433366700033375,-0.9666707562175401,0.02296361486934475,0.25499082623879166,-0.9881820686879239,-0.014288045921112345,0.15261733475398948,1
268,53.63336670003337,-0.967090625383055,0.024668454292778377,0.2532334686786425,-0.9888424636861517,-0.01300123861890482,0.14839659634060398,1
269,53.83336670003337,-0.9689489746171704,0.020073654147642526,0.24644458402954414,-0.9892633272381032,-0.01860244440481009,0.1449552291018272,1
270,54.03336670003337,-0.9718459338926445,0.029120159286591882,0.2338108147615448,-0.9886102693439407,-0.013439011639344465,0.14989705905673678,1
271,54.23336670003337,-0.9731442463238733,0.041243534550518615,0.2264712933343228,-0.9876296468135309,-0.003653999967910878,0.15676201395495895,1
272,54.433366700033375,-0.9739404771489264,0.04998713942652347,0.2212266549556702,-0.9864015329625497,0.003739115626549535,0.1643107871792461,1
273,54.63336670003337,-0.9744873773987835,0.058514988862247465,0.21668028837181322,-0.9855387730698448,0.013895698326123754,0.16887935440430402,1
274,54.83336670003337,-0.9758999363386806,0.055499650823108905,0.2110428937743985,-0.9850675066402178,0.01443392259791569,0.17156243539907698,1
275,55.03336670003337,-0.9780118607589996,0.04636728391014495,0.20332947449279273,-0.9849159234949124,0.009284809459912351,0.17278430472545062,1
276,55.23336670003337,-0.9812835982591315,0.03769662633186323,0.1888424320718412,-0.9861728693972472,0.003947300685840928,0.16567284171552055,1
277,55.433366700033375,-0.9836331986299521,0.03486424815650212,0.17677730271019237,-0.9867788773849838,0.004133320924066554,0.16201963709677272,1
278,55.63336670003337,-0.7675686939904169,-0.35957160752513506,0.5306096107946371,-0.9877975066238113,0.005536364923916647,0.1556452202003352,1
279,55.83336670003337,-0.996173758828203,0.006582261867135969,0.0871465205891881,-0.990490351125311,0.000857551265058733,0.1375795367541487,1
280,56.03336670003337,-0.9949578721080667,-0.0008872546314409236,0.10028980760479758,-0.9914682250303674,-0.007645502714214912,0.13012419084620788,1
281,56.23336670003337,-0.994215234471706,0.005713425968042954,0.1072540176780279,-0.9916548047471122,-0.0033602879750534195,0.12887768110379602,1
282,56.433366700033375,-0.9941449056804269,0.009187969091947102,0.10766377168583993,-0.9918439214981176,-0.00191407816640564,0.12744399433480194,1
283,56.63336670003337,-0.9760321544855909,0.06249069322923458,0.20846137932467357,-0.9909421741058183,0.0013598293350242283,0.13428238321765829,1
284,56.83336670003337,-0.9765783448424463,0.07509860363468177,0.2016306923980296,-0.9905749993185899,0.014950432263761033,0.1361530583575061,1
285,57.03336670003337,-0.9768638804017022,0.07706656284666648,0.19949361908975924,-0.9899705958795016,0.01616106746851411,0.14034614063900083,1
286,57.23336670003337,-0.9766333303087213,0.07467680924362939,0.20152099714741034,-0.9886864145186695,0.013822351436767546,0.14935901829811363,1
287,57.433366700033375,-0.9768477820704411,0.0923597974845718,0.19297170381345752,-0.9884892721917127,0.031106414524052283,0.14805860237539853,1
288,57.63336670003337,-0.9766399650743937,0.10594267720267565,0.1869506024772764,-0.988007373426137,0.042421360147493405,0.14846500684950228,1
289,57.83336670003337,-0.9767007169746434,0.10894869970544788,0.18489426787683175,-0.9875238787437586,0.04462947142594756,0.15101257957906372,1
290,58.03336670003337,-0.9794698240294346,0.09680308161135211,0.17682767658456316,-0.9888044065509758,0.03144461210431149,0.14586665813331753,1
291,58.23336670003337,-0.9806794794651347,0.08561439492900229,0.17589182453125393,-0.9890487680840824,0.019595622175799694,0.1462824184340096,1
292,58.433366700033375,-0.9805309282427885,0.07615973342186452,0.18099390532403575,-0.9888379485612326,0.014240144668513675,0.1483129453723882,1
293,58.63336670003337,-0.9818984806971284,0.06661855717189223,0.17730578514252412,-0.9895073780146055,0.006159607056048482,0.1443509892434953,1
