,timeStamp,x_gaze,y_gaze,z_gaze,x_head,y_head,z_head,fixations_head
0,0.033366700033366704,-0.9942193175044172,-0.045607196890993434,0.09720047475602832,-0.9925609096925918,-0.10079664762667646,0.06828525739454071,1
1,0.2333667000333667,-0.9964783634876299,-0.009630425250733309,0.08329541410249108,-0.9954441143111723,-0.07459250867240334,0.05938832320585796,1
2,0.43336670003336675,-0.9971234076778098,0.02035124553567691,0.07301189400460026,-0.9974268322607334,-0.04800349624081612,0.05324827353987092,1
3,0.6333667000333668,-0.9953380150352658,0.049984020282485,0.08248535350022554,-0.9975781031762944,-0.018884688947521332,0.06694248715533467,1
4,0.8333667000333668,-0.9903508792787015,0.07073375890465554,0.1191716042651167,-0.9940403682660498,0.001733302661230766,0.1089988161375196,1
5,1.0333667000333666,-0.9381320249886284,0.1546693385164196,0.30981558936507503,-0.9892037858343118,0.021168158697663805,0.14500958295373303,1
6,1.2333667000333668,-0.9992552178116846,-0.035370270715859985,0.015425745544711095,-0.9922169557909912,0.02968143825293359,0.12093190176332998,1
7,1.4333667000333667,-0.9995983341255741,-0.02833401461505358,-0.0005950035051411809,-0.994420573524096,0.031893557419928824,0.10055110117303487,1
8,1.6333667000333667,-0.999968799172692,0.004507379255397718,0.006487234647573691,-0.9924884416991768,0.07335639888826,0.09790572933024269,0
9,1.8333667000333667,-0.9975118110828904,0.05338036182438842,0.046051316176956354,-0.9853997563512765,0.11037144940673202,0.12963588754161331,0
10,2.033366700033367,-0.7930086338644766,0.31496420382687,0.5214737356033406,-0.9583748521262156,0.13044558231582534,0.2539716379171892,0
11,2.233366700033367,-0.7835725765400237,0.3416101697541822,0.5189571362019674,-0.940047082957354,0.17018753899735695,0.2955464149560821,0
12,2.433366700033367,-0.6983869950721318,0.38386245156304155,0.6040738559101283,-0.9056996545059603,0.22614140668982619,0.35856408075563057,0
13,2.633366700033367,-0.6600517480087079,0.4036852953168735,0.6335375855429393,-0.8813195587501266,0.2702768961503169,0.3875902924117599,0
14,2.833366700033367,-0.6074176407424068,0.41384786101820575,0.6780661897230865,-0.8499067906606186,0.3054235782680571,0.4293889670530708,0
15,3.033366700033367,-0.5808329748581412,0.39644053516993916,0.7109626976091039,-0.8345467820577186,0.29538300732932865,0.46505972470016055,0
16,3.233366700033367,-0.926279780640161,7.537818524397325e-05,0.3768365193228284,-0.8775043007774848,0.24209503496573967,0.41397608163027383,0
17,3.433366700033367,-0.9975758491802762,-0.06957333330139094,0.001405854041060278,-0.9324904995413174,0.16827717152974683,0.3196001592726964,0
18,3.633366700033367,-0.996903614892769,0.039139240911868205,0.06820045772993202,-0.9558966455814808,0.10593533230691866,0.273933036224359,0
19,3.833366700033367,-0.9967854115367493,0.031880002130143636,0.07350176060269016,-0.9582521725403954,0.09587437740534145,0.26937126346132456,0
20,4.033366700033366,-0.9942895320093543,-0.05257642108717802,0.09286574439632327,-0.9685313853151543,0.09555993739661559,0.22981569577438177,0
21,4.233366700033367,-0.9934567724960275,-0.09553422388042387,0.06258476850913247,-0.9818953071919969,0.06517588139061936,0.17785868041591346,0
22,4.433366700033367,-0.98561101636412,-0.16092080410398021,0.05172445483729339,-0.9890786508341548,-0.018202954714017797,0.14626029845370728,1
23,4.633366700033367,-0.9885472424563517,-0.14013506936680606,0.05600456914845346,-0.9833262452899453,-0.11341924791243974,0.14214629621258004,1
24,4.833366700033367,-0.9598907711105369,-0.08064210345365784,-0.26852664427834455,-0.9843295632655156,-0.12451575427910182,0.12486447780624321,1
25,5.033366700033366,-0.9961629791844988,0.056177391299214674,0.06710752274580668,-0.988796409852696,-0.08397322997861158,0.12341052025406002,1
26,5.233366700033367,-0.9937075885805223,0.08932846851614036,0.06756961676703892,-0.9919573643645724,-0.03567561056742945,0.12144067726067953,1
27,5.433366700033367,-0.9246385498302736,0.07336189187273028,-0.3737132389795983,-0.9941266092562987,0.022128183138199753,0.10593690707009,1
28,5.633366700033367,-0.996643168638255,0.0405900117740833,0.07109743561394402,-0.9948272978935493,0.05452974036761439,0.08570387844934264,1
29,5.833366700033367,-0.9873776546426567,0.09377319709836744,0.12763994131273265,-0.9952440180956105,0.059300312688490446,0.07728400455431723,1
30,6.033366700033366,-0.9880516315965067,0.08370877506047841,0.1294094829498801,-0.9953327597707811,0.05423283483213129,0.07982165716866561,1
31,6.233366700033367,-0.9892527640934319,0.07795043200834441,0.12370407787626791,-0.9953941667665334,0.05199744781139393,0.08054016506228903,1
32,6.433366700033367,-0.9810122841132456,0.07186517363568504,-0.18013965481599492,-0.9958432974143099,0.05499280140657505,0.07260798019812803,1
33,6.633366700033367,-0.9803973290290375,0.07951094352616542,-0.18027503180504048,-0.9952604204946701,0.06750453018857469,0.06999881285273549,1
34,6.833366700033367,-0.978497949247733,0.0890981612987358,-0.18601957147344936,-0.9951792090235008,0.07907923106608139,0.058007043894313846,1
35,7.033366700033366,-0.9789271720144972,0.08894383591250352,-0.1838221584708128,-0.9950303033097627,0.08331620582888749,0.05452618950156454,1
36,7.233366700033367,-0.9777602359136531,0.0955480708902533,-0.18669624317384806,-0.9943543947238915,0.09530390542549563,0.04665300959136336,1
37,7.433366700033367,-0.9976214014151761,0.026154692133083877,0.06377673179024115,-0.9934531306450486,0.10597122368455911,0.04267290665456636,1
38,7.633366700033367,-0.9978897991129907,-0.009545125540075609,0.06422491264812939,-0.995682886237141,0.08253467090895907,0.042469025800301985,1
39,7.833366700033367,-0.9972169078165991,-0.047112830341216,0.057782523153119894,-0.9979484865091985,0.05145341664631772,0.038096774002802376,1
40,8.033366700033367,-0.9320075167744284,-0.078821821348232,-0.3537641999345204,-0.9990948590865663,0.034606552354988405,0.02473558329404131,1
41,8.233366700033368,-0.9121098994614882,-0.10525161003392738,-0.3962040255848245,-0.9993775748238258,-0.009686716173610482,-0.033920944400475286,1
42,8.433366700033368,-0.8708122801116684,-0.4861558562917798,-0.07306473978550324,-0.9399549840202599,-0.33523111945261447,-0.06406812441471624,0
43,8.633366700033367,-0.2628548646081763,-0.9643993423647321,-0.029003941082029645,-0.5613187898686635,-0.823573503680424,-0.08153465628755519,0
44,8.833366700033368,0.21067001170085925,-0.9769365124364842,-0.034830975272007944,-0.048841530035750425,-0.9923856515770687,-0.11307176255689874,0
45,9.033366700033367,0.6649469203337939,-0.7456822082830773,0.0424692522735773,0.4086820408991117,-0.9041785191690556,-0.12425858086985775,0
46,9.233366700033368,0.9543162929499096,-0.28258117262883975,0.09709940208905643,0.7906715868863008,-0.6054832359802,-0.0907110392270099,0
47,9.433366700033368,0.9688412719004722,0.24767603189662288,0.0017813158671346515,0.9958776467935717,-0.0743993006206279,-0.051888887866860293,0
48,9.633366700033369,0.9115026074920766,0.41106946495950436,0.013597481864397352,0.9633148772714345,0.26001969341076464,-0.06643949327089592,0
49,9.833366700033368,0.9497738945568073,0.3124706758080429,0.01707706000633837,0.9756613643654837,0.203980984586562,-0.08047769884620042,0
50,10.033366700033367,0.9613931796974263,0.26957295432639616,0.05525917414340239,0.9855941849446948,0.1574917333956609,-0.061647842745979994,0
51,10.233366700033368,0.9979497979810458,0.02382471896397019,0.05940188108029933,0.989314880613594,-0.13305276173675454,-0.05960729477784483,0
52,10.433366700033368,0.10103649396017533,-0.9593070045500887,0.2636696757486002,0.6700617213219565,-0.7399570941748701,-0.05899820674680987,0
53,10.633366700033369,-0.21794889633502662,-0.9677672883305733,0.12619332083606052,0.14353807498661836,-0.9883208219073041,-0.05117395835390165,0
54,10.833366700033368,-0.5111965122806883,-0.8568915734441196,0.06644514423583665,-0.37275386508313885,-0.9237979836740189,-0.08747480451763553,0
55,11.033366700033367,-0.8409311893805295,-0.5398425126806452,-0.03748061138369457,-0.7157821490579322,-0.6808922937371772,-0.15505353726804907,0
56,11.233366700033368,-0.9937101582905945,-0.03903064205600535,0.10496061304497963,-0.8999909664179803,-0.4160753487068292,-0.1299906326029701,0
57,11.433366700033368,-0.9898498862861741,-0.02905811903176401,0.13911444331047912,-0.9704671395502037,-0.22442068646080285,-0.08848099537023484,0
58,11.633366700033369,-0.9866601516904551,0.007017461553746798,0.162642246355338,-0.989493888838402,-0.12392247991466591,-0.07446517926692905,0
59,11.833366700033368,-0.9874733013046116,0.03777059311675354,0.15319876470187516,-0.9955636494161719,-0.0544378011140195,-0.07674337607262188,1
60,12.033366700033367,-0.9891596207888599,0.040163832420504496,0.14124486244156764,-0.9958541246951796,-0.02077346809337757,-0.08856085676511498,1
61,12.233366700033368,-0.9901166638204956,0.029601914926917033,0.137086537112991,-0.9957026064632042,-0.008222828666703362,-0.0922426396581293,1
62,12.433366700033368,-0.9874227743421574,0.05608516517297696,0.14781988688250708,-0.9969648655752151,0.025334773225356537,-0.07361525707496615,1
63,12.633366700033369,-0.9864431856227547,0.08558859609691323,0.1400158339495604,-0.9964195656610126,0.0522959621566238,-0.06643178087355633,1
64,12.833366700033368,-0.9879300448840389,0.07497293163091771,0.13554809455719785,-0.9973194006871275,0.04195775739367969,-0.05994630603766952,1
65,13.033366700033367,-0.9886959541311291,0.06568173487074445,0.13478212043555915,-0.9980368567283769,0.03497164301073263,-0.05195591204926696,1
66,13.233366700033368,-0.9783369383274032,-0.10891544156351024,0.1760518721660994,-0.9992899176721804,-0.0026012779933259227,-0.037588479505408,1
67,13.433366700033368,-0.9767719492130922,-0.1144567379554371,0.18115246166435806,-0.99927713582061,-0.020547846715022137,-0.03198424333221203,1
68,13.633366700033369,-0.976438963564408,-0.11722881944031231,0.18117492742069977,-0.9990089988735915,-0.031625485533691454,-0.03131850625976188,1
69,13.833366700033368,-0.9956592135641931,0.041822302017268165,0.08314821404401457,-0.9991426168472763,-0.02813821495117919,-0.030368932462934466,1
70,14.033366700033367,-0.9802112220468691,-0.0725277278973126,0.18418927455049233,-0.9998568910250196,-0.012285831799649701,-0.011629952999597574,1
71,14.233366700033368,-0.9795329390656575,-0.06879492685436528,0.1891625737943358,-0.9999356992006065,-0.010746377765909192,-0.00362116405406979,1
72,14.433366700033368,-0.9778704124290274,-0.07451367958021167,0.19549211761935886,-0.9997230765643279,-0.02227488516807086,0.00758944500636712,1
73,14.633366700033369,-0.9743503128268118,-0.06488360593589153,0.2154798959881176,-0.9992199273346367,-0.017086186780699297,0.03560335712623864,1
74,14.833366700033368,-0.9859549541891125,0.06127353183009454,0.15536531983364787,-0.9979230322518265,-0.043069874611537586,0.047902062609730296,1
75,15.033366700033367,-0.9859706777238726,0.06594908708639872,0.15333799457798417,-0.9980296263283912,-0.0395106786047159,0.04874188390907909,1
76,15.233366700033368,-0.980114169670897,-0.09693649098376536,0.1731459821251508,-0.9988024994322645,-0.02262095497784626,0.04338040483618846,1
77,15.433366700033368,-0.9775999384085183,-0.10199957087016534,0.18410444852301514,-0.9980748992028288,-0.027956496554147777,0.05536180887291639,1
78,15.633366700033369,-0.9770808010842204,-0.09369863585753233,0.1911378397676819,-0.9975521276671607,-0.02946671578243279,0.06341502383282835,1
79,15.833366700033368,-0.976321476715341,-0.0747415759659468,0.20300263773287067,-0.9969460399149576,-0.014888897438902253,0.07666103463258292,1
80,16.033366700033366,-0.9686990438582745,0.10178788825211245,0.22640977945583676,-0.9947183453035925,-0.0001542796113111654,0.10264204652229286,1
81,16.233366700033365,-0.9665345097684973,0.10428252025918923,0.2343847209076624,-0.9913508807210726,0.008089114030729028,0.13098853968096452,1
82,16.433366700033368,-0.9680426595248278,0.11937180300246185,0.2205533540620953,-0.9914346710159719,0.0200673395328479,0.1290526830078545,1
83,16.633366700033367,-0.970647065887027,0.12460711730710383,0.20571178819241143,-0.9922779855932735,0.020408213540674815,0.12234338611888,1
84,16.833366700033366,-0.9752229124682773,0.13014162942938223,0.1788950175000865,-0.9943631886588886,0.01903039397069646,0.10430576755600694,1
85,17.033366700033366,-0.9933828402651784,-0.056989489978825525,0.09971324234343519,-0.9962089823093461,-0.004405961860902756,0.08688067141923624,1
86,17.233366700033365,-0.9919653356862114,-0.09332259382791748,0.08541467249935217,-0.9962984686656058,-0.025186980129152332,0.08218866933186456,1
87,17.433366700033368,-0.9962364029674593,0.0677872540748347,0.05401775252129731,-0.9968833688745298,-0.04883971448922355,0.0619534595481129,1
88,17.633366700033367,-0.9965919274601238,0.03960254023450778,0.07236137732443836,-0.9959584134689221,-0.05549996281797144,0.0706158110317479,1
89,17.833366700033366,-0.9952126638587145,0.009125154714090972,0.09730614187545161,-0.992341146116135,-0.07191251410965988,0.10043724428389711,1
90,18.033366700033366,-0.9959197032193342,0.010007285641074122,0.0896872285981216,-0.9916488089803707,-0.07439177171265209,0.10534943734669472,1
91,18.233366700033365,-0.9965624094393402,0.06518234409030484,0.05113341482191616,-0.9966579267958222,-0.024087836674174187,0.07805608931666917,1
92,18.433366700033368,-0.9955729909366262,0.0832865491709367,0.043563407175036,-0.997380204795837,-0.009508949250673122,0.07170988052955177,1
93,18.633366700033367,-0.9961689723003824,0.08048804280609047,0.03419142569775879,-0.9978625306460167,-0.005278734561479727,0.06513451384755073,1
94,18.833366700033366,-0.9919176864368577,0.12530084577841144,-0.019975018922803442,-0.9985847901783966,0.04636668810573899,0.026048935841474125,1
95,19.033366700033366,-0.9961996555849814,0.052688906494199175,-0.06935506718914251,-0.9988841353359693,0.0449080393771816,0.014620265846090589,1
96,19.23336670003337,-0.9968368566882471,0.031758909988790975,-0.07285363947133366,-0.999824899468178,0.01699478360204366,0.007832479413796792,1
97,19.433366700033368,-0.9963527433629142,0.036518948278897054,-0.07712053688738296,-0.9998742062787204,0.015838586790736055,0.0008430818297127654,1
98,19.633366700033367,-0.9965147049775556,0.03697075306225208,-0.07477704314497507,-0.9999075342670564,0.013595130327443623,0.00030878367107612455,1
99,19.833366700033366,-0.9970273152475453,0.04393541256163452,-0.06329464569227951,-0.9998861955732268,0.015079458400771595,0.00045369200884834833,1
100,20.033366700033366,-0.9972509896118162,0.060046935555276786,-0.04341462021801026,-0.9996851504481686,0.025089116876284043,0.00036903630056616077,1
101,20.23336670003337,-0.9978445397582646,0.0620040568485223,-0.021488867093044844,-0.9997053350447183,0.022643077425293697,0.008748378583501198,1
102,20.433366700033368,-0.9847828844126498,-0.12421537422726367,0.12154510016237859,-0.9999461708140238,-0.003141120490353106,0.009888823814595004,1
103,20.633366700033367,-0.9809615082534748,-0.14954696466400674,0.12389602368457846,-0.9992202620359087,-0.035668460982283615,0.016930116008024743,1
104,20.833366700033366,-0.9764241044994115,-0.17885710307555422,0.12085571907006817,-0.9966592236128652,-0.07905737061090079,0.02050180820054966,1
105,21.033366700033366,-0.9988870356158339,0.04695022303010464,-0.0045129409518984845,-0.9954958260558714,-0.09330556242424548,0.016796795111973118,1
106,21.23336670003337,-0.9984952463048686,0.05483704005171295,0.00037702114900270623,-0.9960569734080726,-0.08790457324897535,0.01197045224983034,1
107,21.433366700033368,-0.998261105459892,0.058784087309656154,0.00438137023834081,-0.9964471129113335,-0.08381171940946683,0.008291372642529505,1
108,21.633366700033367,-0.9987463014593481,0.05002171735225228,0.001911312220571759,-0.9958317578780752,-0.09113266627540001,-0.003734586857898796,1
109,21.833366700033366,-0.9985346554052711,0.05311277380074224,-0.010371847177220546,-0.9962692231147824,-0.0860609795915785,-0.00641427049681621,1
110,22.033366700033366,-0.9982768747291957,0.05344063529996144,-0.0242359212667221,-0.9964134553135164,-0.08383669647580642,-0.011473203310437247,1
111,22.23336670003337,-0.9979137958041768,0.05778012656466192,-0.028801269379522074,-0.996959375784474,-0.07771464727183677,-0.005695316922353502,1
112,22.433366700033368,-0.9561575889400697,-0.1554739095215936,0.24817439144759465,-0.9982481496841873,-0.05903661418196068,-0.00391277881138408,1
113,22.633366700033367,-0.9753673308881147,-0.12972101169061848,0.1784125246785035,-0.9971460625043242,-0.07421148508324381,0.01387031051786336,1
114,22.833366700033366,-0.976353050341412,-0.13061813758151022,0.17226033560793333,-0.9963574288887735,-0.08363868888231131,0.016626593764238265,1
115,23.033366700033366,-0.9774096025531795,-0.12016435209434177,0.1738706338706542,-0.9969177553814103,-0.07497152644554858,0.023114048276209196,1
116,23.23336670003337,-0.9774491411572703,-0.1214790824686225,0.17273103071971874,-0.9966981295631188,-0.0777198852878638,0.02350442418401435,1
117,23.433366700033368,-0.9764180690480035,-0.13044366742845734,0.17202384737117873,-0.9956925227956843,-0.0895346526756032,0.02408206841250632,1
118,23.633366700033367,-0.9767557140408698,-0.13307037191893883,0.1680492523216512,-0.9948959195141578,-0.0985536594646746,0.021662999335262844,1
119,23.833366700033366,-0.9994776305114844,0.019307358473645373,0.02591702174091127,-0.9951876436168231,-0.09621010966176402,0.018578718773546568,1
120,24.033366700033366,-0.9993597236529356,0.03394197852012887,0.011317457067191835,-0.9963317042481261,-0.0840288507762668,0.016195287809869688,1
121,24.23336670003337,-0.9989892682220525,0.04494891564017932,-0.00019224968252935134,-0.9968517498052959,-0.07772001530405889,0.015690383400581605,1
122,24.433366700033368,-0.9989552059573178,0.045655124161793646,0.0020263584442299313,-0.9969084924817782,-0.07723375467375901,0.014436230695797742,1
123,24.633366700033367,-0.9987796040341553,0.04821421784170136,0.010709424040971964,-0.9969070969303718,-0.07693284092773607,0.016049239129814336,1
124,24.833366700033366,-0.9834144703433995,0.17350031040116554,0.052854723629120366,-0.9980825859900235,-0.05978734758873636,0.016019507226230578,1
125,25.033366700033366,-0.7053416630728654,0.7050822252913328,0.07315868992694384,-0.895960427966831,0.4441325754378743,0.0010802557171235166,0
126,25.23336670003337,-0.18049511876203922,0.9800681588050542,-0.08299347082481148,-0.32112428348040606,0.9413306670917733,-0.10380640515764501,0
127,25.433366700033368,0.19016012718439795,0.9809933992871747,0.0386144608172593,-0.1394362655840417,0.9858196790374207,-0.09336534829653534,0
128,25.633366700033367,0.17433347583361036,0.9842974706544176,0.027682638369347926,0.034245534412987555,0.9975605993977791,-0.06082839716705499,1
129,25.833366700033366,0.18600422093745123,0.9816085519307093,0.04297767525062341,0.11082625040726668,0.9931327920175208,-0.03748065687991624,1
130,26.033366700033366,0.007010350270693966,0.9999012927080365,0.012176199319989195,0.044075751825775666,0.9984024562726795,-0.03535340732762353,1
131,26.23336670003337,0.03094817700418795,0.9994118556688866,0.014770006384227267,0.0457474895970954,0.9984512209733861,-0.03165954093663176,1
132,26.433366700033368,0.05865245051867257,0.9982141216859808,0.011333901130696045,0.06075607557643986,0.9975925331146024,-0.033434071761320704,1
133,26.633366700033367,0.06247958010037408,0.9979317175429085,0.01511916639045042,0.05664183854336774,0.9980690626230024,-0.025492123514307838,1
134,26.833366700033366,0.04775099504699315,0.9986563983945569,0.02013058413544198,0.0347740286435298,0.999220217125071,-0.01870092565691256,1
135,27.033366700033366,0.02322467349775903,0.9995484741514098,0.019064688891009526,-0.001910033429518898,0.9998504506542224,-0.01718802195852285,1
136,27.23336670003337,0.002723326174596641,0.9996033771974348,0.028029837495603064,-0.05375427530148402,0.998467112487357,-0.0131872350389316,1
137,27.433366700033368,0.07059022864493286,0.9965480113740292,0.043693027433724156,-0.08537533447240025,0.9962487801002403,-0.014121629244150934,1
138,27.633366700033367,0.07714154944208451,0.9961802471101713,0.040915725793303125,-0.09216726671953279,0.9956786667567131,-0.011366068406649346,1
139,27.833366700033366,0.07940454794133395,0.9965766235508152,0.02302066806783412,-0.09647236412087651,0.995204715139073,-0.016144904022197756,1
140,28.033366700033366,-0.15245534899994767,0.9881510875829368,0.01774245388788499,-0.11800366354626113,0.9929750469111774,-0.008700092034347068,1
141,28.23336670003337,-0.15189340657530526,0.97454759625513,0.16487988255787045,-0.1505637727187798,0.9885567021663563,-0.009284231075631175,1
142,28.433366700033368,0.07208498030680455,0.9970431225782465,0.02662268456763222,-0.1777402220327694,0.9840265338926247,-0.010009698647267787,1
143,28.633366700033367,-0.059311007844152774,0.9946201171115077,0.08492954130101915,-0.22294869725769406,0.9747060383132332,-0.015556904152800758,1
144,28.833366700033366,0.04790700260072667,0.9937012349604666,0.1013053539545567,-0.23971982608560505,0.9708127800998518,-0.007546587062007299,1
145,29.033366700033366,0.06244597912059774,0.9951700302935578,0.07574371589240568,-0.23588988062474514,0.9717529463316601,-0.007223262045725541,1
146,29.23336670003337,0.0687018665923772,0.9956863797934024,0.06235933467117673,-0.2333820748314488,0.9723851085252739,-8.868855447774005e-05,1
147,29.433366700033368,0.10214925280007026,0.9942757725670895,0.03132440324259957,-0.19938363420629324,0.9799125164856586,-0.004198386051241322,1
148,29.633366700033367,0.1463736565203751,0.9890343758989462,0.019640671247112024,-0.14948760574949177,0.9887250672609039,-0.008729094867491852,1
149,29.833366700033366,0.12578738271876883,0.9914979328146359,0.03330741018250438,-0.15778971882017978,0.9874220982765712,0.010000223484591078,1
150,30.033366700033366,0.13478672230673178,0.9906359385610916,0.02174802797941504,-0.134548604398455,0.9908954637028691,0.004780488207766696,1
151,30.23336670003337,0.1413146502839241,0.9893259605283052,0.0355571854887107,-0.11915422223618477,0.9924928623076533,0.027571535895768762,1
152,30.433366700033368,0.029882813726886504,0.9968229185673508,0.07383147338793128,-0.1048988897582418,0.9922373062508985,0.06679334556263203,1
153,30.633366700033367,0.014065761449871872,0.9942472415119977,0.10618181153388959,-0.10263337598528804,0.9890890684350636,0.10568445882020862,1
154,30.833366700033366,0.014051347958310256,0.9943530341808603,0.10518841683318345,-0.08598775392237523,0.9892802783806767,0.118028119456493,1
155,31.033366700033366,0.024664234988093836,0.9948981490463404,0.09782304706263169,-0.05850351861193864,0.991769865567306,0.11388534612771838,1
156,31.23336670003337,-0.021609997248268176,0.9969726004127879,0.07469030757128546,-0.08747159940270999,0.9892451005566589,0.11722990370454753,1
157,31.433366700033368,-0.08914041101912895,0.9939388534253841,0.0643392786311277,-0.14250395415534228,0.9815105438945138,0.12778761784299741,1
158,31.633366700033367,-0.11676597609161887,0.9920901794738245,0.04607366513493615,-0.16209255607059592,0.978477116938432,0.12770487419967574,1
159,31.833366700033366,-0.15817700305500154,0.9843579584081571,0.07758508505546055,-0.2023755850315883,0.9653737917785853,0.16461337955998248,1
160,32.03336670003337,-0.21970327033765585,0.9706937275969326,0.09738665312511362,-0.26074116427049293,0.9490465312602192,0.17698792828273358,0
161,32.23336670003337,-0.24709910905431953,0.9633238639909338,0.10463825003381166,-0.2884062492525415,0.940721301131185,0.1785084563546824,0
162,32.43336670003337,-0.2713857272707833,0.9570740851387616,0.1017790871913809,-0.31355677794412656,0.9339788032899965,0.17136435454984117,0
163,32.63336670003337,-0.29555877652157175,0.9493965845102964,0.10625975221717653,-0.3361379224140003,0.9261668169735028,0.1709570830716579,0
164,32.83336670003337,-0.33138945691464894,0.9386088250948224,0.09588796222640032,-0.37202488108641474,0.9141504091970987,0.16101713330393147,0
165,33.03336670003337,-0.3863623372548944,0.9202630053604615,0.06196890604058054,-0.42772967647025756,0.8930911731365693,0.13941119156005838,0
166,33.23336670003337,-0.4280583310181233,0.9023644750685474,0.050044174288759694,-0.46937078213437267,0.8728542026230538,0.13347887414059278,0
167,33.43336670003337,-0.4603200690618009,0.8868871978942677,0.03919862536100829,-0.49897126701045147,0.8570541540887854,0.12839724162590693,0
168,33.63336670003337,-0.5010961316322201,0.8648908912168374,0.029434896863578634,-0.5373849906863593,0.8345706311210528,0.12128162867981875,0
169,33.83336670003337,-0.5896553704236079,0.731797019345692,0.3417304004728862,-0.541512412828837,0.8327415411671345,0.11535090969245598,0
170,34.03336670003337,-0.64199745478121,0.7241823399618452,0.25179199062288493,-0.5805328469707802,0.8056575581225505,0.11788771194662401,0
171,34.23336670003337,-0.6851439894721957,0.6846083310984786,0.24877529354958078,-0.6357241357454912,0.7607376466034887,0.1308933010922773,0
172,34.43336670003337,-0.6869872207642298,0.6925845460691008,0.21994364062845145,-0.6537532590979873,0.7449866967448959,0.13267063688657196,0
173,34.63336670003337,-0.7611127033818889,0.646369293463632,0.0539832308966238,-0.7129290152188341,0.6862264080635287,0.14431055448348432,0
174,34.83336670003337,-0.8648715169379644,0.4601065211905902,0.2007467268657639,-0.7952991708667683,0.579558309726241,0.17779593484074258,0
175,35.03336670003337,-0.8969670994165411,0.38265168953382794,0.22142201123913657,-0.8569291488728881,0.47515179550286735,0.1997578660338292,0
176,35.23336670003337,-0.9673080049138358,-0.05141650822162747,0.24833760551295825,-0.9335666584270548,0.2772813219511667,0.22708668558582756,0
177,35.43336670003337,-0.9651220346211505,-0.05313849179857433,0.2563508513309521,-0.9629714872545898,0.09063177620403323,0.25391296909922767,0
178,35.63336670003337,-0.9632054274284083,-0.08826516098575507,0.2538593428034836,-0.9664509280364615,0.0024922074193681346,0.2568392349304153,1
179,35.83336670003337,-0.9719802262577895,-0.0014742140036669066,0.23505800657907375,-0.9709860781311082,-0.03932467627811801,0.23588049073882925,1
180,36.03336670003337,-0.978348562948309,-0.01001214182501848,0.20672166406319076,-0.976039288430979,-0.06336269177158534,0.20816454244324925,1
181,36.23336670003337,-0.9836345755697926,-0.005446128768248554,0.1800926467823535,-0.9757613992980921,-0.07770281049057479,0.20457752780228664,1
182,36.43336670003337,-0.9826959929065491,0.028855571218474985,0.1829643176552948,-0.975250548709124,-0.04807679594218674,0.21581239291219276,1
183,36.63336670003337,-0.9794267113465203,0.04543798052743657,0.1966181757278017,-0.9750708674086268,-0.030651891419784843,0.21976638751951622,1
184,36.83336670003337,-0.9793190572295735,0.028321221125463293,0.20032995926955688,-0.9763283970432944,-0.04264978386828424,0.212046827523687,1
185,37.03336670003337,-0.9844548092887366,0.0591668107272356,0.16537235856286628,-0.984565309391637,-0.010838779824858497,0.1746816315313617,1
186,37.23336670003337,-0.9959591672822287,0.03220725550637024,0.08383334538974963,-0.9948093532172608,-0.03980550525221441,0.09364759742284577,1
187,37.43336670003337,-0.9982459062960499,0.027320702642403445,0.05252323076795091,-0.9972830125795389,-0.0464812408710794,0.057149690002348014,1
188,37.63336670003337,-0.9988711516592792,0.03803491434675216,0.02845641708825035,-0.9986326970183219,-0.03596220138487755,0.037940170235071166,1
189,37.83336670003337,-0.9989417000744043,0.04490307931437993,0.00995958435607753,-0.999277079478861,-0.03170525380423103,0.020978448689241175,1
190,38.03336670003337,-0.9975671900851093,0.06971155277856232,-2.597886392176561e-05,-0.9998947117418604,-0.009285941421777123,0.011150637765325072,1
191,38.23336670003337,-0.9965742789275256,0.08239555865094869,0.007118882965778677,-0.9998861284210538,-0.0017667491271278729,0.014986953949268217,1
192,38.433366700033375,-0.9953805641324965,0.09555355572024897,0.009330087700048905,-0.9998881437817466,0.0076057994541858295,0.012878343812590617,1
193,38.63336670003337,-0.9954502941705995,0.09504764687894332,0.006682563762733206,-0.9998559150727121,0.006509172129387426,0.015677364966724665,1
194,38.83336670003337,-0.9954286480948521,0.09548741801893723,0.001989862340024839,-0.999827448325626,0.007980133558478757,0.016774714395682278,1
195,39.03336670003337,-0.9954617394467062,0.0950852012214945,0.003837942991520488,-0.9997380799118258,0.007319662204596481,0.021683959957231377,1
196,39.23336670003337,-0.99550444610976,0.09394145639217029,0.01207892986228064,-0.9995571027167494,0.0044406666915986735,0.029425820087679792,1
197,39.433366700033375,-0.9960583005122016,0.08624861588877449,0.02071323823103324,-0.9992707406762111,-0.005496096367032598,0.03778597296802913,1
198,39.63336670003337,-0.9958655378746107,0.08720516885835136,0.025437944061955826,-0.9991074514846774,-0.005436814971867098,0.04188963392958706,1
199,39.83336670003337,-0.9951062593442492,0.09462747299929011,0.028445983330956146,-0.9989385961570016,0.0005209880091876072,0.04605876332874177,1
200,40.03336670003337,-0.9954302604802326,0.08852892180481484,0.03579422473435965,-0.9986030609179231,-0.007389384179073149,0.05231943928224816,1
201,40.23336670003337,-0.9952087360820234,0.08911656967964308,0.04022199192674531,-0.9984175886686735,-0.006512148432200604,0.05585615955137902,1
202,40.433366700033375,-0.9946531372010621,0.09429361946635538,0.04211709847579033,-0.9984563589707982,-0.001094566669523204,0.05553108277877036,1
203,40.63336670003337,-0.9942521659455053,0.09517758665555927,0.04902914960607919,-0.9981579167976043,0.0012117372782891821,0.06065727348830801,1
204,40.83336670003337,-0.9935603892902247,0.09496676978801283,0.06179858792470681,-0.9975256951448742,0.0025644455340671306,0.07025603991713832,1
205,41.03336670003337,-0.9923191281133277,0.09376758102918152,0.08068697991832988,-0.9962434205383476,0.004370063990418019,0.08648670172213212,1
206,41.23336670003337,-0.9483873232925792,-0.19279240262687372,0.2517788206090699,-0.995369948803638,0.0077695583492148725,0.09580343929996228,1
207,41.433366700033375,-0.9462386377747861,-0.19896853255582875,0.25503718049472257,-0.9950583882754256,0.00664130186751127,0.09906915277833402,1
208,41.63336670003337,-0.9385143771041617,-0.2138009470245033,0.2710717967996919,-0.9939378537348789,0.00249626635773587,0.10991501975241484,1
209,41.83336670003337,-0.8345098023934832,0.3404194648818498,0.43325278722559346,-0.9901254542294724,0.012578873623707862,0.13961861203020265,1
210,42.03336670003337,-0.8444813235828458,0.33706449466456195,0.4162196782424983,-0.9889671587707469,0.019268986653902753,0.14687635965752896,1
211,42.23336670003337,-0.9729777891243543,0.03402126239011379,0.22837857950356644,-0.9899346875681472,0.018089454881479516,0.1403641192450756,1
212,42.433366700033375,-0.9394870376512153,-0.2083286446247274,0.27196191261676295,-0.9905534417236308,0.012483033743675792,0.1365578740242524,1
213,42.63336670003337,-0.9384258025675427,-0.2162185122331941,0.26945605957767566,-0.9906092167588847,0.0020069685765627325,0.1367090039078686,1
214,42.83336670003337,-0.9357990942612129,-0.22399917821145235,0.2722212764287312,-0.9902570569305134,-0.007830783888757806,0.139031075745697,1
215,43.03336670003337,-0.9367188788359088,-0.2218224698453181,0.2708367292376007,-0.9903915570839366,-0.008627490435300342,0.13802220859573486,1
216,43.23336670003337,-0.972719144673492,0.06730411117974108,0.22200815796716797,-0.9910150181930941,-0.005400647443752855,0.13364156061244623,1
217,43.433366700033375,-0.9702330212509782,0.0665227873593656,0.23285747408262375,-0.9909090639037608,-0.0033811304371536843,0.1344908734090888,1
218,43.63336670003337,-0.964444249223054,0.07655914569190567,0.2529545163690604,-0.9904844787614547,0.01077916338244118,0.13720170177306215,1
219,43.83336670003337,-0.9622303569275393,0.07707652624958496,0.2610975857958036,-0.99025383883409,0.01430509531169983,0.13853771660624084,1
220,44.03336670003337,-0.9631170852583093,0.06895460008888318,0.26009756479083224,-0.9907420126914138,0.008981824162227188,0.13546066264006612,1
221,44.23336670003337,-0.965028271401302,0.07084148517731391,0.2523923916723479,-0.991114828278452,0.011265908106391925,0.1325310396892493,1
222,44.433366700033375,-0.966128865012674,0.07273039438163277,0.247599083040334,-0.9911018847946301,0.01445554925418523,0.13231814332241804,1
223,44.63336670003337,-0.9678715945783479,0.07609636213848217,0.2396537503934692,-0.9916106674163624,0.020410342458407615,0.12763895246674165,1
224,44.83336670003337,-0.9961214831214563,-0.08766072480438741,-0.007588688337234303,-0.9919406686576402,0.02225509920355621,0.1247333973820719,1
225,45.03336670003337,-0.9896813272173628,-0.13845753779740944,-0.03688334020067186,-0.9924091523816292,-0.025487501585356752,0.120309856338179,1
226,45.23336670003337,-0.9866901637785164,-0.1529611938895913,-0.055185087356960545,-0.9920599372634705,-0.0517910691880334,0.11460700689381813,1
227,45.433366700033375,-0.9543910653312326,-0.15373188830388448,0.2559378849143614,-0.9905236858937247,-0.05793508912358221,0.12452450815703946,1
228,45.63336670003337,-0.9765871801317328,-0.18489897445582484,0.10995384871633654,-0.9896375093719239,-0.06193203855603559,0.12954544625122444,1
229,45.83336670003337,-0.9907622264934622,-0.13542805896217697,0.007032168901196045,-0.9897878061400733,-0.055636349104441284,0.13124288733013284,1
230,46.03336670003337,-0.9525521830505526,-0.15954736907100556,0.2592083632681381,-0.9903745004046272,-0.04868850300610432,0.12956766040686993,1
231,46.23336670003337,-0.9532901512267098,-0.16304934755256023,0.25426914448442417,-0.9909155223305064,-0.04377844537443179,0.12716082464760003,1
232,46.433366700033375,-0.9674203529886101,-0.08559044745466197,0.23826904106052865,-0.9908820496932329,-0.04585653997323849,0.1266883630702537,1
233,46.63336670003337,-0.9755335436352778,0.027689420750594957,0.21809997987366736,-0.9905187077421362,-0.04950820508850231,0.12814689712109245,1
234,46.83336670003337,-0.9756640662730355,0.029533998943674887,0.21727257693957006,-0.990176095226921,-0.05329150320768478,0.12927225582866947,1
235,47.03336670003337,-0.9744343163965137,0.029354194852200265,0.22274670429310064,-0.9899748671328988,-0.04850335926060529,0.13265438773608795,1
236,47.23336670003337,-0.9749809221752439,0.026740056779028278,0.22067435455386575,-0.9898440804357331,-0.038241985140022604,0.13691693466802687,1
237,47.433366700033375,-0.9375196481608095,0.20219791882428229,0.28314821372482896,-0.9894789286575679,-0.024156419965737586,0.14264612548930625,1
238,47.63336670003337,-0.938462303045948,0.1929706531127911,0.2864451654312186,-0.9878165621863784,-0.03075442219526984,0.15255361347972066,1
239,47.83336670003337,-0.9374722572664436,0.19600000386560124,0.287627824350225,-0.9863944667000776,-0.039444611464776805,0.15959347947163474,1
240,48.03336670003337,-0.9374482652891275,0.20098332660767776,0.2842471676765089,-0.9867547394720515,-0.039298740927868746,0.15738708044477004,1
241,48.23336670003337,-0.9623034005779003,-0.13267920931921814,0.23742028693992523,-0.9864186122575753,-0.03491726017303765,0.16049643713755113,1
242,48.433366700033375,-0.9551337798294794,-0.17425443334797427,0.23948873686924826,-0.9854627151966332,-0.04089472476857965,0.16489650828135075,1
243,48.63336670003337,-0.9789520744818495,0.006573161469162446,0.20398438522588916,-0.9854697988095896,-0.053740454086880426,0.16112491808755838,1
244,48.83336670003337,-0.9777079494790094,0.006187034938078082,0.20987826501147275,-0.9855692767627116,-0.05736787298136711,0.1592549146840353,1
245,49.03336670003337,-0.9789786955286782,0.02841501944650077,0.2019735140329616,-0.9873971148695987,-0.04261497331678797,0.1524168678211236,1
246,49.23336670003337,-0.9771254911784836,0.03377676145517695,0.2099640561496364,-0.9870032869989913,-0.03847518379493425,0.1560261891002055,1
247,49.433366700033375,-0.9603715430441551,-0.1796881142044178,0.21306966214045678,-0.9873796672736443,-0.03738666848403481,0.15389486565266833,1
248,49.63336670003337,-0.966961422082108,0.10619124614780888,0.2317520818601707,-0.9869471783000463,-0.03068770908734579,0.15809342730343726,1
249,49.83336670003337,-0.9691079396228068,0.08270840056588927,0.2323555935110469,-0.9866297382644826,-0.031249531242721784,0.15995382574127076,1
250,50.03336670003337,-0.9707466452406995,0.052401019543102514,0.23431833881446537,-0.9859498451045929,-0.03343119744755653,0.1636620236201789,1
251,50.23336670003337,-0.9710060358505379,0.048752622345381316,0.23403089573018582,-0.9865192164381184,-0.028695917388468207,0.1611098380719049,1
252,50.433366700033375,-0.9439847895492934,-0.1915463086315255,0.2687056544794181,-0.9865226025842675,-0.03614877803269345,0.15958201790022192,1
253,50.63336670003337,-0.945961001227374,-0.18830069361971857,0.2640087743603184,-0.9865616876967475,-0.03967296524939767,0.15849950219879447,1
254,50.83336670003337,-0.9476343586668976,-0.18779780193764048,0.25830429315318915,-0.9874794466991236,-0.03635135130370665,0.15350218762345944,1
255,51.03336670003337,-0.9500169733556882,-0.18442017846637657,0.2519066257773443,-0.9877515315134187,-0.029232528638557,0.1532722129490268,1
256,51.23336670003337,-0.9502022385128603,-0.190640862100478,0.24651930476685963,-0.9875061115904771,-0.032583287707199766,0.15417525396005055,1
257,51.433366700033375,-0.9508480000079285,-0.19229660158590609,0.24271402493352914,-0.9874956402496858,-0.031170917628083137,0.15453392631421337,1
258,51.63336670003337,-0.9502143216783203,-0.19785984679210017,0.2407160649080506,-0.9872922569623531,-0.03280746870862796,0.1554917018336197,1
259,51.83336670003337,-0.9499577056257809,-0.1985100615338523,0.24119310311870135,-0.9868442286148369,-0.030826720938845545,0.15870785023352282,1
260,52.03336670003337,-0.9505300253545672,-0.20238048335330075,0.2356582501359337,-0.986916493841044,-0.03343558825845891,0.1577272824285998,1
261,52.23336670003337,-0.951390907702278,-0.2048115791358011,0.23001642939871686,-0.9860710509315771,-0.03602946782669724,0.16237536747555198,1
262,52.433366700033375,-0.9519976052005759,-0.21535289992658396,0.21754008408929912,-0.9860698052447856,-0.045846705744085496,0.15988876995250842,1
263,52.63336670003337,-0.9797659175799306,-0.016872970006550574,0.19943432410674697,-0.9860302586638384,-0.04729180897681781,0.15971165831906053,1
264,52.83336670003337,-0.9590408253026844,0.06856477498246485,0.27484462344086397,-0.9862884785968811,-0.043747982747818805,0.15912621089106005,1
265,53.03336670003337,-0.9320665979365811,0.23349364679161874,0.27700645104199034,-0.9861047059080832,-0.0442506687817133,0.1601230379998575,1
266,53.23336670003337,-0.9457570991060102,-0.20873002503237414,0.2489483603893963,-0.9861772059599142,-0.03841067729776955,0.16118045264430755,1
267,53.433366700033375,-0.9480218951957537,-0.20345998849773195,0.24466000758185635,-0.9860864219799153,-0.04054470518500091,0.1612131981827473,1
268,53.63336670003337,-0.9478866540458976,-0.20273959939875227,0.24577946602046843,-0.9862124523769221,-0.0427395736050219,0.15986972078776773,1
269,53.83336670003337,-0.9819099963053914,0.08021733064432364,0.17151658526173266,-0.9858567112014428,-0.04519307267894067,0.1613819418674573,1
270,54.03336670003337,-0.9836153401192322,0.07136465946493346,0.165553459829691,-0.9862415766175723,-0.03706697942062064,0.16110118431444437,1
271,54.23336670003337,-0.9848521973676436,0.05012157296872521,0.16599390730766383,-0.9866791605305778,-0.03637449899059849,0.15855954716716728,1
272,54.433366700033375,-0.9856404633379023,0.029114680996233176,0.16632862766683534,-0.9868335746572827,-0.04615648303522214,0.15501314461344595,1
273,54.63336670003337,-0.9855944264357653,0.019724750009071552,0.1679719048407636,-0.9872800781448299,-0.0501832260135302,0.150863153636711,1
274,54.83336670003337,-0.9850339576756884,0.027935358909958952,0.17008150383960624,-0.9879891426462437,-0.038124783695084506,0.14974630172843648,1
275,55.03336670003337,-0.9818260736516687,-0.00810098869371034,0.18960995511821735,-0.9892218357219589,-0.029822985233574656,0.1433553252677966,1
276,55.23336670003337,-0.9779642482246707,-0.11467332860666735,0.17445904075347451,-0.9896088983557532,-0.03374066802935566,0.13977051053797312,1
277,55.433366700033375,-0.9775767315252875,-0.11768471300021928,0.17462543430552216,-0.9894600080407918,-0.037851016129589216,0.13977193232503468,1
278,55.63336670003337,-0.9795007990485203,-0.11371746931940012,0.16627243257648588,-0.9898081258220857,-0.03571134918891771,0.13785707669785377,1
279,55.83336670003337,-0.9812657914608078,-0.11044795267190424,0.15785656862918013,-0.9902270549752153,-0.03587624946143538,0.13477119246965466,1
280,56.03336670003337,-0.9817068369233646,-0.10922475857787999,0.15595396260283656,-0.9899589309964282,-0.040772225754805345,0.13534748075752503,1
281,56.23336670003337,-0.9811349545877339,0.00879391937493544,0.1931239702060627,-0.9890985714826386,-0.04724231951650991,0.13947106917817698,1
282,56.433366700033375,-0.9799274569393096,0.016625787087517163,0.19865991628956864,-0.9890647532452406,-0.04229569053484354,0.1412869011979259,1
283,56.63336670003337,-0.9794066039210918,0.01749281548261355,0.20113852341668667,-0.9886607660882438,-0.04173592404470925,0.144249791133094,1
284,56.83336670003337,-0.9788308534946867,0.01690923542423561,0.203971169541755,-0.9882930394289637,-0.044200000212710436,0.14602475200272508,1
285,57.03336670003337,-0.9782674020267283,0.017137120798865448,0.20663786976883283,-0.9876826334668992,-0.04641451190513463,0.14942793792493972,1
286,57.23336670003337,-0.9792139573884429,0.016092727648409057,0.20219062731120543,-0.9874995845458698,-0.05038326654664902,0.1493522580138102,1
287,57.433366700033375,-0.9788849247470317,0.023747788017598928,0.20302794553279943,-0.9871414832266205,-0.044253590525228,0.15360114523913418,1
288,57.63336670003337,-0.9790973078174608,0.02682224782862486,0.20161604312658318,-0.9870028963973086,-0.0416884021159425,0.15520102973995878,1
289,57.83336670003337,-0.979547021148412,0.027541258002953872,0.19932163070496822,-0.986916491036075,-0.0414133781495336,0.15582288609599276,1
290,58.03336670003337,-0.9803192086354947,0.020722606683714454,0.19632835442826302,-0.986680847182868,-0.047694140203104966,0.1555190496138169,1
291,58.23336670003337,-0.9808741942180549,0.021450388902820902,0.19345721990403872,-0.9867316308212938,-0.045922370186965905,0.15572997352199566,1
292,58.433366700033375,-0.982097626225677,0.02200445590022026,0.1870830202942695,-0.9874748462767746,-0.04277688882208194,0.15186693436480314,1
293,58.63336670003337,-0.9827813937436274,0.025448760885182515,0.1830111818461976,-0.9881197343384349,-0.03709948477848901,0.149140936164795,1
