,timeStamp,x_gaze,y_gaze,z_gaze,x_head,y_head,z_head,fixations_head
0,0.033366700033366704,-0.9962873641335208,0.028703127107732696,0.0811641457918376,-0.9998189374701407,-0.014966211599514688,0.011751799285113995,1
1,0.2333667000333667,-0.9986212900498479,0.02843800974702046,0.04412254141372723,-0.9995160047343936,-0.017848298540646887,0.02547929588901793,1
2,0.43336670003336675,-0.9365700962968477,-0.3439105527452455,0.06754247872985526,-0.9964629188554983,-0.06780844697152107,0.04963532880208177,1
3,0.6333667000333668,-0.9289932848366358,-0.36510879324358597,0.060556137795024265,-0.9898654353941858,-0.12817614039524455,0.0611334347575653,1
4,0.8333667000333668,-0.9185295536066113,-0.38793564642251105,0.07621937670952106,-0.9830251004067477,-0.16105291713520725,0.08788407052784772,1
5,1.0333667000333666,-0.9533178570098483,0.2596940885952548,0.15409102457583604,-0.9909567050793774,-0.03655957581800215,0.12910540683577879,1
6,1.2333667000333668,-0.9722417955781182,0.2278878707191483,0.053037810193572205,-0.9856036351028035,0.1043254959208704,0.13304760566430687,0
7,1.4333667000333667,-0.9935989381425818,0.11275676471084443,0.0068601846824646665,-0.9592594944427115,0.25439749962726,0.12289481073223595,0
8,1.6333667000333667,-0.9582056096439232,0.2857662489428327,0.013403753655627432,-0.9446014417271152,0.30815170079853876,0.11300728110180869,0
9,1.8333667000333667,-0.979451292484302,0.20167671857401898,-0.0012910600475712517,-0.9699599643930155,0.2207969694709898,0.10210957715673465,0
10,2.033366700033367,-0.9201042169285873,-0.3915451971414037,-0.010029386109343555,-0.9942674241392836,0.02242454111706118,0.1045439106362657,0
11,2.233366700033367,-0.9025359125012633,-0.43033806450575113,-0.015429740210251373,-0.9763015683122488,-0.18327946508960016,0.11508208108786519,0
12,2.433366700033367,-0.8820576425541614,-0.46914700105402146,-0.04330596510659246,-0.9476810118384497,-0.3046980458869044,0.095182985000229,0
13,2.633366700033367,-0.9140367222078238,-0.4029765221440756,-0.04633349820856869,-0.905838251409402,-0.4164757116629023,0.0774922181798687,0
14,2.833366700033367,-0.8219233360080078,-0.5682926932026612,-0.03854146569519079,-0.8463405676530327,-0.5303141981014048,0.049744294515115146,0
15,3.033366700033367,-0.6336998098857259,-0.7720369455785997,-0.0488211594747772,-0.7412806030023531,-0.6702125926340846,0.03630631194664065,0
16,3.233366700033367,-0.5760485085501043,-0.8157902458981456,-0.051520777310167264,-0.683626720762975,-0.7291808107604988,0.030819667057307317,0
17,3.433366700033367,-0.8085115415332573,-0.37475664097940187,-0.4537251891281241,-0.6819540219888659,-0.7313781124746579,-0.004976794773316421,0
18,3.633366700033367,-0.2400150677059451,-0.8598018529195419,-0.4507033847113125,-0.5871323942910176,-0.7782606819111478,-0.2226788327733299,0
19,3.833366700033367,-0.14927267615097484,-0.8701152458160124,-0.469698975039617,-0.3653678229997055,-0.8823815963278804,-0.2964946413989938,0
20,4.033366700033366,-0.24663868280164286,-0.8781203063457897,-0.40996839845169425,-0.20717025215119378,-0.9232555650064819,-0.3235423439183394,0
21,4.233366700033367,-0.29280535529544627,-0.8868965265454941,-0.35732278840265086,-0.1877478537354731,-0.9263136919314577,-0.3266399968742902,0
22,4.433366700033367,-0.4581211581387622,-0.8328773805668688,-0.31054834310566015,-0.3675074370111202,-0.8794118819866286,-0.3026103527017108,0
23,4.633366700033367,-0.5546191172140065,-0.8176892196005262,-0.15421405568183172,-0.5618203189670551,-0.7921894324306461,-0.2383145659437697,0
24,4.833366700033367,-0.9097542785459882,-0.4130948704716031,-0.041228396249647824,-0.6610032330152359,-0.739324864366711,-0.1283490197568746,0
25,5.033366700033366,0.016931061213077303,-0.9998378582451996,-0.006131589178316162,-0.14638740777702425,-0.9875575917489905,-0.05745197841030181,0
26,5.233366700033367,0.7015377561066629,-0.697688289291886,-0.14517516227575,0.4421265276908222,-0.8942977394768298,-0.06896148692342224,0
27,5.433366700033367,0.7959836821384039,-0.5953259674297636,-0.10953068188048656,0.7472590028419019,-0.6604853734420932,-0.07323287609253593,0
28,5.633366700033367,0.968379135680384,-0.085638609896299,-0.23432430107426344,0.9018930800790967,-0.42008710873479665,-0.10057680239637357,0
29,5.833366700033367,0.9642498799566028,0.04600602471934649,-0.26097052456781417,0.9692836203191326,-0.20522533462294051,-0.1355427069596071,0
30,6.033366700033366,0.9578796787878032,0.26132035158461725,-0.11907222519574778,0.9892101845335466,0.12397431624027005,-0.0780613843578497,0
31,6.233366700033367,0.9930148048201514,-0.0916736155886725,0.07428018317759398,0.9969525813059287,0.07415967375021276,0.02420523531610391,0
32,6.433366700033367,0.7448074800635269,-0.628575400145923,0.22395263778935923,0.9127262041063454,-0.3724105231611022,0.16805141646679528,0
33,6.633366700033367,0.5568372406425827,-0.7727884197824304,0.30451657702615936,0.6332352130432948,-0.73882497727291,0.23054461156075057,0
34,6.833366700033367,0.35143136445007683,-0.8706354869615175,0.3442235391777244,0.167222276226608,-0.9654862698816266,0.1996821799852327,0
35,7.033366700033366,-0.6874405663259864,-0.7109165985825849,0.14840167663869275,-0.5312495031969767,-0.841066755509955,0.10188561296337661,0
36,7.233366700033367,-0.6662867678217614,-0.7302927028374305,0.15077967770237183,-0.738162547569939,-0.6383685910694903,0.2181778982871817,0
37,7.433366700033367,-0.4990555075896716,-0.3901931468170543,0.7737524853087193,-0.6959894792614256,-0.48294484317134123,0.5313783239948902,0
38,7.633366700033367,-0.34547502107205524,-0.5293169567352463,0.7749003607740808,-0.64015423926524,-0.4467252227646143,0.625011300135164,0
39,7.833366700033367,-0.4600820866575936,-0.5985661111251999,0.6557767029631728,-0.7596653990376399,-0.44484373589394893,0.4743653993925974,0
40,8.033366700033367,-0.9993777929335178,-0.01888240328421676,0.029790633386066807,-0.933876804011037,-0.2633167995053001,0.24194705625077711,0
41,8.233366700033368,-0.9991798346324837,-0.04039769207251038,-0.0027721001095821216,-0.9872630706929839,-0.11172829595999628,0.1132626025117554,0
42,8.433366700033368,-0.9227126804607482,0.13205938207761014,-0.36216243444374624,-0.9849618323949045,0.10186462187494999,-0.13954851319718717,0
43,8.633366700033367,-0.7360688884829403,0.16463777568275417,-0.6565797698876533,-0.8774353042829272,0.23790983615349345,-0.416540750298629,0
44,8.833366700033368,-0.5352865341232322,0.30684453873474504,-0.7869655363705576,-0.7747060664106866,0.28989522383079547,-0.5619530851117146,0
45,9.033366700033367,-0.4796143594202462,0.22101122269586296,-0.849190264711264,-0.663059847136173,0.3492741226890275,-0.6620870232345331,0
46,9.233366700033368,-0.4783419859491387,0.22377540102150711,-0.8491840285685417,-0.591905958404296,0.3948583382589981,-0.7026622439784528,0
47,9.433366700033368,-0.28629359273015687,0.6154978591856828,-0.7343012761118565,-0.5147776638971953,0.5215955715237898,-0.6803984248360054,0
48,9.633366700033369,0.012630478008443913,0.8858501018442674,-0.4637995990595289,-0.31930945241135184,0.7660776187591634,-0.557823050471252,0
49,9.833366700033368,0.09643375066405063,0.9196525853849874,-0.380709408772061,-0.1382506629704327,0.8930178801506362,-0.42825905701981404,0
50,10.033366700033367,0.49514391523855245,0.8357444149051769,-0.23741056454387316,0.06784181828837027,0.95421297769225,-0.29133328147504484,0
51,10.233366700033368,0.4967376669748581,0.8316793755050893,-0.248115107496178,0.23812904118443845,0.9440862078278401,-0.22802585803769818,0
52,10.433366700033368,-0.29405985052181205,0.9250843071536501,-0.24030777966836767,0.00928308527784727,0.9732302991538135,-0.22964452777434727,0
53,10.633366700033369,-0.30099988041923886,0.9189958128858405,-0.2546483219773831,-0.39218797064468636,0.8771824343189969,-0.27701908346502324,0
54,10.833366700033368,-0.741514458944337,0.47242991729054323,-0.4764097820420334,-0.7056729714571299,0.624623778838666,-0.3344709139285057,0
55,11.033366700033367,-0.8322770364467899,0.1152912693954968,-0.5422387461298982,-0.8323710963509402,0.3844166994427341,-0.3992269519322169,0
56,11.233366700033368,-0.8254300737886099,0.09387439133207867,-0.5566442238426283,-0.8929624233916732,0.14269856940951114,-0.4269136080039487,0
57,11.433366700033368,-0.7782568607302863,-0.11060074517780501,-0.6181292210309706,-0.9083364073690944,-0.07859420953902523,-0.4107893879772734,0
58,11.633366700033369,-0.7542653275511784,-0.10233604937621381,-0.6485454098613164,-0.8785906673503523,-0.14357612441968323,-0.4554825306655417,0
59,11.833366700033368,-0.4822088652152909,-0.8094925254218784,-0.3349574026557568,-0.9169287716529301,-0.25051537676721775,-0.31061821214833385,0
60,12.033366700033367,-0.7234476281620383,-0.6258026707190966,0.2915382421356879,-0.8719498805619244,-0.489100361528739,0.022005502505117683,0
61,12.233366700033368,-0.7496692135586155,-0.6124661176347915,0.25076149024874744,-0.7315009085826445,-0.6609369110711384,0.16753751916065684,0
62,12.433366700033368,-0.6806892740087835,-0.6674546545381307,0.30193773594034296,-0.6042721050635125,-0.7681682337373833,0.2115958121487768,0
63,12.633366700033369,-0.15901025579849043,-0.9727480147637434,0.16875140984328194,-0.3476483263926369,-0.9248499406382791,0.15425053794969582,0
64,12.833366700033368,0.4421205716396839,-0.8873421148549601,-0.13097087973181923,0.139153044599494,-0.9902457135041461,0.007060953572715761,0
65,13.033366700033367,0.4292974198320391,-0.8793422160604829,-0.2060606521861778,0.3597941803076074,-0.9261259053343149,-0.11330911386765334,0
66,13.233366700033368,0.4538990910437677,-0.837575570447162,-0.304044041118639,0.4165751312967244,-0.8763534830609511,-0.2418051544364931,0
67,13.433366700033368,0.3554108612425705,-0.9277992552685306,-0.11345334562706436,0.3885428239494415,-0.8514902451492364,-0.3521346849901141,0
68,13.633366700033369,0.29091515428442044,-0.9364252066871291,-0.19615352479280007,0.37076195666923595,-0.849556751736422,-0.37521846578474727,0
69,13.833366700033368,0.2992194701238909,-0.9321349988669589,-0.20394129691181412,0.38967633148415587,-0.8444884660187695,-0.36741201319814804,0
70,14.033366700033367,0.2627011541250069,-0.9542459877616283,-0.14283801476576125,0.4427133840084797,-0.8349299903920403,-0.3269507161082666,0
71,14.233366700033368,0.7974208947321143,-0.5777739735690106,-0.17406077131539582,0.5715915181402776,-0.7755130782652737,-0.26807200866485886,0
72,14.433366700033368,0.9548342904334377,-0.21507847396581609,-0.20501884754580477,0.7309994241118742,-0.6428697142658617,-0.22881951933311537,0
73,14.633366700033369,0.9816676450005403,-0.09036677232834445,-0.1678168085087141,0.8807032293451721,-0.439590156747116,-0.17641518050335553,0
74,14.833366700033368,0.9857218232742814,-0.12923050082024232,-0.10794426700189184,0.9319066597401118,-0.3323822698143991,-0.14516199311478073,0
75,15.033366700033367,0.9879114320103687,-0.15500101436890834,-0.0023849628576027427,0.9251526007455904,-0.3574236065594746,-0.12783204139685778,0
76,15.233366700033368,0.8852669256555121,-0.464919584512198,-0.01233897392182225,0.8806240096481655,-0.4517663372565638,-0.14285842695821768,0
77,15.433366700033368,0.7563325099757634,-0.5637448624343929,-0.3318928508307905,0.7871315579417888,-0.5686607758556761,-0.2388489742396918,0
78,15.633366700033369,0.49587930520589224,-0.5499967232688634,-0.6720173502686038,0.5626463122637628,-0.610313115817558,-0.5576262439636898,0
79,15.833366700033368,0.3843046715298478,-0.36556169795847415,-0.8477467572489166,0.4935640625944816,-0.5724722055255147,-0.6547290202946435,0
80,16.033366700033366,-0.10068869508878461,-0.5113673115100609,-0.8534431787765897,0.2749483992556523,-0.6363924001451164,-0.7206997230360868,0
81,16.233366700033365,-0.17692339809332222,-0.46023244615914416,-0.8699909233489063,-0.08161220984433395,-0.6364236746531208,-0.7670100087647769,0
82,16.433366700033368,-0.37132589274401506,-0.2228154409532206,-0.901371377763174,-0.3264098971708286,-0.518608610565136,-0.7902541920652039,0
83,16.633366700033367,-0.41566208726765835,-0.11308355070085656,-0.9024617109712636,-0.4599221069174396,-0.38853121997918777,-0.7984454562899758,0
84,16.833366700033366,-0.44296894891426003,-0.0564257243911494,-0.894759547546004,-0.5421401727373577,-0.24559672694225199,-0.8035958442025201,0
85,17.033366700033366,-0.4664801277078214,-0.11749877853910648,-0.8766928353166307,-0.5734900341290347,-0.1762482945551988,-0.8000285741278638,1
86,17.233366700033365,-0.4600582887624678,-0.0874323345415291,-0.8835734026200475,-0.5782367766291678,-0.13356073470071636,-0.804862572306425,1
87,17.433366700033368,-0.46722019984545643,-0.034041687738564766,-0.8834853979281614,-0.5897404413767855,-0.09514555775495523,-0.8019685371909627,1
88,17.633366700033367,-0.5530941863968075,-0.19745912238731092,-0.8093804519260931,-0.6122443860170352,-0.09597978834644313,-0.7848214395769242,1
89,17.833366700033366,-0.5752922634527059,-0.2083710181140884,-0.7909616491471384,-0.6503044462330897,-0.11324172831889492,-0.7511860210206422,1
90,18.033366700033366,-0.3428564590228346,0.3330447224585866,-0.8783681809747016,-0.689902596944312,-0.1314161667996398,-0.7118737232355076,1
91,18.233366700033365,-0.39696279521772126,0.3145987803529511,-0.8622343919221559,-0.7186967781397656,-0.16012934947453833,-0.6766339723427889,1
92,18.433366700033368,-0.4093858719978482,0.29654096704026345,-0.8628248157507912,-0.71655780387086,-0.183270878075484,-0.6730205784084254,1
93,18.633366700033367,-0.7308189403973981,-0.2279667804967089,-0.6433776677398663,-0.7204391334974503,-0.18302832179401068,-0.6689305556982066,1
94,18.833366700033366,-0.721019148042577,-0.23530628990610009,-0.6517379366636432,-0.7138490145181872,-0.19111713245816786,-0.6737164285902344,1
95,19.033366700033366,-0.716322541494822,-0.2291292072851164,-0.6590764924614542,-0.7080386981301398,-0.18539568651216196,-0.6814027013248926,1
96,19.23336670003337,-0.4574131446105168,-0.10375608780618259,-0.8831805531037659,-0.7006853692926658,-0.1752033065246086,-0.6916240413996936,1
97,19.433366700033368,-0.44048599950656525,-0.09353064325907913,-0.8928740689538728,-0.6943052256416535,-0.1684115320872375,-0.6996983703759231,1
98,19.633366700033367,-0.6479424162142796,0.11830750357084936,-0.7524453201856164,-0.6884812940004308,-0.15623300796652687,-0.7082264856902936,1
99,19.833366700033366,-0.6721743930368393,0.13328959082044747,-0.7282962792191614,-0.6866730497421392,-0.12653927051118904,-0.715868658188306,1
100,20.033366700033366,-0.6809171037838946,0.14348273351451224,-0.7181675312611653,-0.6840858737388062,-0.10424344509149204,-0.721913998691306,1
101,20.23336670003337,-0.6816785820020704,-0.07179809091461958,-0.7281204192856171,-0.6877468536625853,-0.09118221516287132,-0.7202014085762443,1
102,20.433366700033368,-0.6827222163570013,-0.08572422821825863,-0.7256319535335857,-0.6967782947834005,-0.09648749578414942,-0.7107673114852995,1
103,20.633366700033367,-0.6878940717347818,-0.08934154256643817,-0.7202914929693341,-0.7068491207058359,-0.10104547239014798,-0.7001100863913038,1
104,20.833366700033366,-0.6947108282636273,-0.10929921648045021,-0.7109363870066188,-0.7262990993693795,-0.11267551816013771,-0.6780810024344973,1
105,21.033366700033366,-0.6972663261748886,-0.13935916020409667,-0.7031349051567439,-0.7416082030555485,-0.1421198598604057,-0.6556059934091351,1
106,21.23336670003337,-0.6926970630255258,-0.1473708337798633,-0.7060117677679592,-0.7490493178681943,-0.15092731285504143,-0.6450938425032049,1
107,21.433366700033368,-0.684934731650892,-0.15624140234016,-0.7116551394974263,-0.7525846414771435,-0.1603196484988093,-0.638681428975305,1
108,21.633366700033367,-0.5110295347624558,-0.1410934187715364,-0.8479041583692276,-0.7450734133949797,-0.1730108106667194,-0.6441528297262994,1
109,21.833366700033366,-0.5033086589154804,-0.05863309561208615,-0.8621151628173841,-0.7394271586534918,-0.17761796526043597,-0.6493838121345243,1
110,22.033366700033366,-0.47324509843297924,-0.08080793761643996,-0.8772167087027798,-0.7291681907982552,-0.1873349279628159,-0.6581940248081607,1
111,22.23336670003337,-0.4553550931590598,-0.0950489168187386,-0.88522169118571,-0.7239077831888173,-0.1885024411206242,-0.6636447476852493,1
112,22.433366700033368,-0.449834243058122,-0.09885502701167403,-0.8876242658956819,-0.7242298838790591,-0.1846456703105886,-0.664377190857782,1
113,22.633366700033367,-0.44377104674192785,-0.10548506882806705,-0.8899101967771311,-0.721779008710598,-0.18749261704615117,-0.6662443854457101,1
114,22.833366700033366,-0.45299409425363973,-0.12005005591939007,-0.883393646482176,-0.7252619135457639,-0.18635809138216217,-0.6627713169233673,1
115,23.033366700033366,-0.4574604167156271,-0.1354643793757072,-0.878851164338262,-0.7248295236424591,-0.18885550217815672,-0.6625373657034612,1
116,23.23336670003337,-0.4645101899036763,-0.1417784844878113,-0.8741448076903449,-0.726395228120537,-0.18939076011712547,-0.6606671722932588,1
117,23.433366700033368,-0.472649371630808,-0.1390645539557046,-0.8702089526832641,-0.7275352185321243,-0.19096508812855922,-0.6589573892987814,1
118,23.633366700033367,-0.4750379933191922,-0.1342142856508636,-0.8696697249131441,-0.7281712417419005,-0.18919351147356195,-0.6587658597076522,1
119,23.833366700033366,-0.4733280068769624,-0.1326340301141765,-0.8708437356733724,-0.727656499630047,-0.18973505662696497,-0.6591787518062985,1
120,24.033366700033366,-0.4715486910051224,-0.13202588807718735,-0.8719007953252399,-0.727311888684701,-0.19159486001246673,-0.6590211121008924,1
121,24.23336670003337,-0.4710898615889395,-0.12875343536689596,-0.8726378946558171,-0.7284178784357271,-0.18908591360234275,-0.6585240402994879,1
122,24.433366700033368,-0.4700764793044897,-0.13584756376558876,-0.8721086761543255,-0.7281288994815864,-0.18994285200861183,-0.6585970078208436,1
123,24.633366700033367,-0.4693189216818257,-0.1445743671640369,-0.8711130822749287,-0.7274058280388348,-0.1916419965651452,-0.6589037156426287,1
124,24.833366700033366,-0.46816389718562146,-0.15275649553421417,-0.8703378760252116,-0.7266547973098205,-0.19182385890928258,-0.6596790224797024,1
125,25.033366700033366,-0.4676867838416265,-0.15817101544047518,-0.8696269327098863,-0.7269877242760747,-0.18876126137374538,-0.6601954520870973,1
126,25.23336670003337,-0.46662924322578075,-0.15982385306469676,-0.8698928010726894,-0.7264238852896787,-0.18313772638126602,-0.6623963406122865,1
127,25.433366700033368,-0.4621279078897065,-0.15849157883153875,-0.8725355099873983,-0.7224847165952872,-0.18331745107764819,-0.6666412426610145,1
128,25.633366700033367,-0.6535748994662218,-0.03148962173796296,-0.7562064893337788,-0.7300860574691743,-0.18891285349506998,-0.6567239012503412,1
129,25.833366700033366,-0.698119095068835,-0.02267935391387569,-0.715622369693905,-0.7392033168067893,-0.17906700542055676,-0.6492406826374603,1
130,26.033366700033366,-0.7049966146571855,-0.021061665362880858,-0.7088978625825089,-0.747363320081176,-0.17186022653600405,-0.6418038098455282,1
131,26.23336670003337,-0.7074999039767387,-0.025432064463441064,-0.7062556873895127,-0.7494174843747131,-0.17236565478431565,-0.6392679525553046,1
132,26.433366700033368,-0.6974716459935342,-0.04247205400448855,-0.7153526596467717,-0.753035350340919,-0.17549431516494624,-0.6341447046863329,1
133,26.633366700033367,-0.6891886987349155,-0.05226804286310515,-0.7226942570903235,-0.7557845545286197,-0.17635727197578,-0.6306249438114835,1
134,26.833366700033366,-0.6836773228853354,-0.05845354093771865,-0.7274396894067462,-0.7581980379280044,-0.1776392316831255,-0.6273595768370428,1
135,27.033366700033366,-0.6781990461456551,-0.06738660036438064,-0.7317821396416117,-0.7574256313221739,-0.18541980188751944,-0.6260398630152871,1
136,27.23336670003337,-0.6761712782702813,-0.07199794069532804,-0.7332180432708718,-0.7588941429451688,-0.1894757827966581,-0.6230398121605965,1
137,27.433366700033368,-0.6768812097834944,-0.0749643361014675,-0.7322650996428134,-0.7625621156436225,-0.19309027846426807,-0.6174262418683822,1
138,27.633366700033367,-0.7280530489408457,-0.1655894484134486,-0.6652209351050735,-0.798768605954197,-0.28627621538591663,-0.5291640980322693,0
139,27.833366700033366,-0.6443733444174933,-0.07050875201041115,-0.7614535500568299,-0.8449565156727838,-0.4232445661131432,-0.32697480618207575,0
140,28.033366700033366,-0.7926482551760059,-0.20536695816462733,-0.5740497853502269,-0.8396176904426487,-0.5365564392225022,-0.08455366003090718,0
141,28.23336670003337,-0.6510977545845934,-0.7464762152578015,-0.1372769974514641,-0.707518253214559,-0.7065397138382581,0.014817359331937953,0
142,28.433366700033368,-0.12862107289577224,-0.9806068978186386,-0.1478740394986438,-0.3685658279194304,-0.9296007151549891,-0.0013194216149557333,0
143,28.633366700033367,0.2018724572345339,-0.9681123307580808,-0.14834428214207493,0.0007958563335695445,-0.9998159473152257,-0.019168675146026996,0
144,28.833366700033366,0.37222456342861154,-0.9092875357765792,-0.18613181259993147,0.23460156180934616,-0.9703165461825989,-0.05871888453375183,0
145,29.033366700033366,0.8392238536188484,-0.5311920143059827,-0.11635449047923568,0.44510682868497153,-0.8916605657423691,-0.08259144361255277,0
146,29.23336670003337,0.8637048654898445,-0.5006659009871676,-0.05785811021695925,0.6112097329480186,-0.7877705822417975,-0.07642101873196386,0
147,29.433366700033368,0.8680484730244423,-0.49629331754086625,-0.0135938016836799,0.6694738714648317,-0.7396831538782888,-0.0683634938732502,0
148,29.633366700033367,0.8169296487474779,-0.5763841656057804,-0.020180253622068923,0.6207946793179906,-0.7812581764895533,-0.0651891693357982,0
149,29.833366700033366,0.2422341955377627,-0.9479884529751612,-0.20649573249327383,0.46617325111066693,-0.878398795438317,-0.1053473118851393,0
150,30.033366700033366,0.11029113700528859,-0.9260216237673957,-0.36099836206453434,0.29938197003365585,-0.9407060118544354,-0.1595074771905386,0
151,30.23336670003337,0.16033780264761777,-0.8898637903863836,-0.42712319487627,0.08585929639239503,-0.9707040144371049,-0.2244145663246751,0
152,30.433366700033368,-0.07500510242834166,-0.7584262705827001,-0.6474286267224606,-0.08810136007178526,-0.9507655998496407,-0.2971244259498949,0
153,30.633366700033367,-0.1599200388693784,-0.7093967902868503,-0.6864268170014416,-0.3754860239905521,-0.8187508765503255,-0.43434692117688656,0
154,30.833366700033366,-0.8930142493102704,-0.158647760805672,-0.42113707806385436,-0.6905972592514917,-0.5414775120887976,-0.4794554509195346,0
155,31.033366700033366,-0.8329801455448538,-0.15541297860706804,-0.5310281378689391,-0.8342258414427856,-0.29258057252816305,-0.4674011703538718,0
156,31.23336670003337,-0.8063359923136006,0.28214737449660127,-0.5198222066863973,-0.8920133633012075,-0.03462146324460035,-0.4506811666520705,0
157,31.433366700033368,-0.781336821305617,0.4968351912833325,-0.37771360099219237,-0.875414779217923,0.24500737968125447,-0.41667775106017035,0
158,31.633366700033367,-0.7962704791174493,0.4654294397012518,-0.38643079683877,-0.8135160503784908,0.4442284168904682,-0.37530354302027236,1
