,timeStamp,x_gaze,y_gaze,z_gaze,x_head,y_head,z_head,fixations_head
0,0.04,-0.9993065551499826,-0.012006953160595519,-0.03524545233181967,-0.9936210037158086,0.10497180499894714,0.04120947864329317,1
1,0.24000000000000002,-0.9999323371647677,-0.009931485552800674,0.006056953600582608,-0.9923929161646576,0.11233780049092106,0.05036386132008995,1
2,0.44,-0.9999009639813556,-0.009190392011422667,0.0106582795906643,-0.9940146879618295,0.09531576383325871,0.0533826308927299,1
3,0.6400000000000001,-0.9998605149518531,0.0006715789220582783,0.016688307941991946,-0.9945693120554743,0.08368476699210185,0.06187683969772753,1
4,0.8400000000000001,-0.9998545534174093,0.011935626176722058,0.01218248079180307,-0.9949131901195224,0.08016975607290207,0.06099634691854003,1
5,1.04,-0.9565448939119554,-0.24739870875614078,-0.15432350707769876,-0.9985610172381583,0.048065013462068845,0.023783383552096887,1
6,1.2400000000000002,-0.843277042782201,-0.4581655835037606,-0.2810126815806801,-0.978077200963716,-0.14776507857783222,-0.14673264976776676,0
7,1.4400000000000002,-0.77531163532007,-0.5986103726727133,-0.20138890204267507,-0.9049756202367669,-0.3712143832524498,-0.20789181908767507,0
8,1.6400000000000001,-0.7378188313016429,-0.6445138795730448,-0.20056228761753844,-0.8576627946813791,-0.45321113865269136,-0.24292837302476128,0
9,1.84,-0.7200595434296668,-0.5682744629110795,-0.398219021041165,-0.8345744349533952,-0.47133641597990866,-0.2851797599645445,0
10,2.04,-0.49073817138606024,-0.7129122043859668,-0.5009313685348598,-0.7266366188468678,-0.5721126780340956,-0.3803765342176712,0
11,2.24,-0.48963220582583533,-0.6984965630983515,-0.5218839472123253,-0.6138357073834089,-0.6085033227539136,-0.5029208988882412,0
12,2.4400000000000004,-0.4220106701403295,-0.5942681008171307,-0.6846549632032989,-0.576746275865489,-0.5465125040987588,-0.6071966865349263,0
13,2.64,-0.388303142090948,-0.3788379340113577,-0.8400610034969507,-0.529913887701771,-0.44106128901169744,-0.7243315614800553,1
14,2.8400000000000003,-0.2861485655372412,-0.28247251021623887,-0.915602686438346,-0.486412323145901,-0.3740845242349197,-0.7895972521607088,1
15,3.04,-0.31364553054559574,-0.3050147049309145,-0.8992177216584865,-0.4700768434575925,-0.3824513297007101,-0.7954613388814727,1
16,3.24,-0.48642202799020096,-0.32167073984367883,-0.8123555538151509,-0.47904415068576583,-0.42991796931188686,-0.7653020588999466,1
17,3.4400000000000004,-0.37312425339914634,-0.4254048364474809,-0.8245053163275674,-0.48350023184856084,-0.44344858134249515,-0.7547058244824383,1
18,3.64,-0.408367567410865,-0.41860792734518815,-0.8111740460904174,-0.4959596061679301,-0.43633643882384976,-0.7507560064390246,1
19,3.8400000000000003,-0.44139018817539005,-0.42215626619669866,-0.7918072926497681,-0.5149856686821667,-0.4422849323668525,-0.7342845495128099,1
20,4.04,-0.4692564380321332,-0.4130904131861483,-0.7804836358944961,-0.5345617577942595,-0.4344895184003317,-0.7248879813489525,1
21,4.24,-0.3972841276776956,-0.25234797931233643,-0.8823184341451522,-0.536268917233504,-0.39125494165698566,-0.7478871699917002,1
22,4.44,-0.3976563349846023,-0.2671459108520043,-0.877782718878463,-0.5184674193773187,-0.39371724304141104,-0.7590640734326016,1
23,4.640000000000001,-0.30887327986048074,-0.4319000981124792,-0.8473839756796562,-0.4927060267100447,-0.4194344864374859,-0.76244047822143,1
24,4.840000000000001,-0.29818368112446547,-0.45048091170872046,-0.8415185324739695,-0.46237018993585166,-0.45456577352747496,-0.7613039898726743,1
25,5.04,-0.17411462113316895,-0.6679589495651115,-0.7235433231006463,-0.3824020784354806,-0.5450445633123684,-0.7461200134106141,0
26,5.24,0.03248154049113547,-0.5477580764610042,-0.836006004284098,-0.24279406894298192,-0.6058706600333431,-0.7576092550892392,0
27,5.44,0.14492225321924762,-0.3923703297398659,-0.9083188123460206,-0.009021618552579186,-0.6269042364241153,-0.7790440865266796,0
28,5.640000000000001,0.2190110826828208,-0.3140259366026449,-0.9238083441942547,0.19403591241231502,-0.5663052086236817,-0.801029634520477,0
29,5.840000000000001,0.3262624325064487,-0.22894221194814987,-0.9171359161668806,0.3977901326257213,-0.46682283478758385,-0.7898350785489938,0
30,6.04,0.3718818880794876,-0.12021374247272894,-0.9204632080855464,0.504197257771368,-0.3336934797720484,-0.7965135195421698,0
31,6.24,0.37497609752409666,-0.07227770697987687,-0.9242125617839927,0.5385629717301278,-0.28088598782148205,-0.7943884360479854,0
32,6.44,0.39567224436330467,-0.07886458358838783,-0.9149993729483837,0.5667523966278033,-0.2853948799035343,-0.7728786990475857,0
33,6.640000000000001,0.4063516361841059,-0.09647566797622965,-0.9086092632474315,0.6881908088270676,-0.3572493307445125,-0.6314794741941694,0
34,6.840000000000001,0.5321577855310193,-0.18524817904132782,-0.8261302581679199,0.7572358381130492,-0.42533754598309675,-0.4956630483042945,0
35,7.04,0.5539695650295007,-0.22107379829616225,-0.8026481774276533,0.7533667676496074,-0.4656501270996366,-0.4643365940061957,0
36,7.24,0.49186984855261207,-0.5649856146671158,-0.6624615515666188,0.6271196486631334,-0.5709627861206399,-0.5298324670365011,0
37,7.44,0.06583287644350357,-0.1683802881624499,-0.9835212813851589,0.19363359627748805,-0.47067919021636745,-0.8607944762194465,0
38,7.640000000000001,-0.029025691560033783,-0.23906777579951619,-0.9705689608697231,0.07851155856841213,-0.4154394615402422,-0.906226234980158,0
39,7.840000000000001,-0.1967199969012417,-0.2870660521474912,-0.9374936397243608,0.012644413593746448,-0.42206587447779287,-0.9064769806267373,0
40,8.04,0.037994362977010414,-0.358193933316372,-0.9328738041757406,-0.039877833582786,-0.4333727090159291,-0.9003320795511727,0
41,8.24,-0.022659648602847388,-0.37421791128825393,-0.9270639110634455,-0.15703779857481867,-0.43301524771419847,-0.8876017829329697,0
42,8.44,-0.785361351994324,-0.1857643925579254,-0.5905075251436116,-0.5279121454379716,-0.3787302434815823,-0.760179037708525,0
43,8.639999999999999,-0.963324923682362,0.06412589363170729,-0.26056277780662823,-0.8381652436847646,-0.0903232963959468,-0.5378854212627718,0
44,8.84,-0.9501042393203767,0.24553102439251054,-0.19239659686754548,-0.9214163959356931,0.1920814097411009,-0.3377818191270058,0
45,9.04,-0.8714163459498039,0.4051019916641628,-0.27663320184175366,-0.9024214212895876,0.34345205856630323,-0.2601466160922521,0
46,9.24,-0.8495247298685622,0.44270151581852896,-0.28692002584992765,-0.86690134694038,0.4302450846547655,-0.25173641334413377,0
47,9.44,-0.6526277543499907,0.6746749146006455,-0.3448054144886655,-0.7928752079397827,0.5449578622929676,-0.2727083294648791,0
48,9.64,-0.5395520627173818,0.7489892859898176,-0.38457589769755735,-0.6777990136241734,0.6328055011292952,-0.3743603810108643,0
49,9.84,-0.5538901703963492,0.7527082894500468,-0.3558593965760748,-0.6719476393556789,0.6261133288567683,-0.3955609553434552,0
50,10.04,-0.5396296541746095,0.7792194627626203,-0.31877400331163286,-0.6788945830978927,0.6339033958317438,-0.37049781347981264,0
51,10.24,-0.6347317062588127,0.7326744247518786,-0.24556841894730697,-0.7876728468486672,0.5510380709649539,-0.275551321326062,0
52,10.44,-0.900623121901772,0.15540249300441258,0.4058670440722178,-0.9474666107928547,0.3069859735682669,0.08981443906769626,0
53,10.64,-0.8998019430224159,0.15836920124969087,0.4065410919312093,-0.9432995166391915,0.1565470276300085,0.2927098393434652,0
54,10.84,-0.9094267002055155,0.15972860814971848,0.3839659473076506,-0.9447085017766039,0.13135629195689014,0.30045194496681166,0
55,11.04,-0.9097057672628872,0.13298460132844964,0.39338341706044955,-0.9446271430450285,0.0940337662517658,0.31438385999776763,0
56,11.24,-0.9099743046247237,0.1193046535983574,0.39713116794395076,-0.9434289317827852,0.06622824667470147,0.32489332098026863,0
57,11.44,-0.9235843868386073,0.07262577461054542,0.37645368539857865,-0.9515531905701211,0.0001799614314275588,0.3074841347609768,0
58,11.64,-0.9569774717717308,-0.23076262951115473,-0.17590545000790572,-0.9657068877180064,-0.20664180311022,0.15719215063532638,0
59,11.84,-0.9020999592318899,-0.3510092778020206,-0.2510142435216106,-0.8942713521388989,-0.4475121419469469,-0.003410506373120807,0
60,12.04,-0.80784751819914,-0.5198164425088455,-0.27780074412596195,-0.7565117813708743,-0.6437336277887888,-0.1153123631747761,0
61,12.24,-0.15912141539900554,-0.9326254487308073,-0.3238674845381632,-0.38994686613242474,-0.8875635180996015,-0.24530071938777268,0
62,12.44,-0.018008831727970798,-0.860386732562816,-0.5093234261347844,0.1268038632401861,-0.8961647902158854,-0.425216943506115,0
63,12.64,0.48373690856545126,-0.7580464167532358,-0.4374519783234728,0.33867955372868536,-0.8314401544915109,-0.44045820390278906,0
64,12.84,0.5438177815423427,-0.6653537620254059,-0.5114358139952699,0.481631398190213,-0.7549038345880903,-0.4451419962231576,0
65,13.04,0.6365251888773442,-0.5350566851782895,-0.5554727964272256,0.5513805098974156,-0.6749181590743963,-0.49037231962753974,0
66,13.24,0.6870595873131908,-0.39899618003925214,-0.6072488549146163,0.5630763019191813,-0.6119243019748288,-0.5554221159349321,1
67,13.44,0.655583529169663,-0.38941192612521347,-0.6469687690089074,0.5492450355948953,-0.5679389371451579,-0.6130051015683234,1
68,13.64,0.6398302310932952,-0.40560155960326544,-0.6527669187592914,0.5546314741162988,-0.5549723974327351,-0.6199915854326927,1
69,13.84,0.5422666935760658,-0.4868342010300174,-0.6847914235338713,0.5413810826960008,-0.5797047396829286,-0.6089736760222512,1
70,14.04,0.5788916918791895,-0.4663765623775712,-0.6688626997659003,0.5449178961313449,-0.5856126965402264,-0.6001018714573997,1
71,14.24,0.712021050985342,-0.4067323896467297,-0.5723589661794338,0.565994501478402,-0.5861016796193861,-0.5797715459071355,1
72,14.44,0.695675633470229,-0.5400127995746103,-0.47373155825993674,0.6009216135261555,-0.5904430495210196,-0.5387673149602163,1
73,14.64,0.689107249998542,-0.565129323844381,-0.45360781004149425,0.6166104612951512,-0.6019257540992259,-0.5074218418372028,1
74,14.84,0.6548373467698888,-0.6251609593180205,-0.4246902685722205,0.5999130495701005,-0.6354943704146702,-0.4860568260263035,1
75,15.04,0.3259227857182003,-0.8864304407242479,-0.3286569815280124,0.5433020510592299,-0.7090367343061004,-0.4495439808510111,0
76,15.24,0.2791551636637846,-0.9200805919765546,-0.2748164821620403,0.4557723758198837,-0.8023317324831961,-0.38540281847699587,1
77,15.44,0.23826990224069872,-0.9271679945356202,-0.28911410134236676,0.3591683797593957,-0.858837234401985,-0.3652351020722965,1
78,15.64,0.18768242423630743,-0.9484882670681636,-0.25523580247844235,0.3091906787228818,-0.8826470493946973,-0.3540272735054725,1
79,15.84,0.18019378651510554,-0.9582358792365296,-0.22206800545135627,0.3111231588582952,-0.8797398373231661,-0.3595277439206129,1
80,16.04,0.33030300086057923,-0.8705531550300316,-0.3647425556330852,0.34085567008162515,-0.8673563026898384,-0.36264370442270166,1
81,16.24,0.35033657828675935,-0.8448052696543364,-0.40443582714516013,0.37733821083336244,-0.8374716250319639,-0.3952937539493876,1
82,16.44,0.5425561822189675,-0.6739854588949349,-0.501374501080941,0.39638955201759674,-0.808581290036607,-0.4348236659314045,1
83,16.64,0.6862981876579892,-0.46193872989739554,-0.5617894689633657,0.4960021120949415,-0.7137909922343104,-0.4944535612193687,0
84,16.84,0.7148174427060285,-0.4051399836984342,-0.569997909831296,0.5893480629792651,-0.6092988675336823,-0.5304938743140781,0
85,17.04,0.8075148731150554,-0.23000830467081337,-0.5431536702264237,0.6606077592346613,-0.5130404556516169,-0.5480756145859264,1
86,17.24,0.8279902825259485,-0.17717991825644702,-0.5320144439855359,0.7020223792629812,-0.4457709837354505,-0.5553852798494681,1
87,17.44,0.8300861871933496,-0.1811026497549392,-0.5274075768156421,0.7035112047135044,-0.43658324036457785,-0.5607736255168564,1
88,17.64,0.8228046962161369,-0.1988253474477557,-0.5324104742554847,0.6918450161125053,-0.44554739026201695,-0.5681883461590828,1
89,17.84,0.8032252989172223,-0.19797319485644516,-0.5618146787844469,0.6681813545296036,-0.4496651550021949,-0.5927351228296133,1
90,18.04,0.7744335224866113,-0.1918151734231146,-0.6028761551874814,0.6361107449390953,-0.44688032738274974,-0.629015972111453,1
91,18.24,0.7429771056767854,-0.1753362079697143,-0.645942903525496,0.6054913104084538,-0.43277042903923835,-0.6678997146047054,1
92,18.44,0.40331545997088997,-0.15248793687935394,-0.9022660743121996,0.5749893348530192,-0.43875453264674863,-0.6905662349747606,0
93,18.64,0.4056432535751903,-0.14507138747975648,-0.9024454794410753,0.5722294469483595,-0.4331640946246581,-0.6963636457865785,0
94,18.84,0.24205379733535934,-0.2928609325871012,-0.9250094233897005,0.5431955250501331,-0.4311293554196557,-0.720462421269106,0
95,19.04,0.599774464403865,-0.10403382492769252,-0.7933773094309992,0.4902325609766216,-0.39481185265597796,-0.7770428798725703,0
96,19.240000000000002,0.785515389743588,-0.02998525047060854,-0.6181152459130856,0.6331221450606492,-0.2859417106735648,-0.7193008324274883,0
97,19.44,0.896656957774137,-0.08496907345372678,-0.4344957498430167,0.7266883247881688,-0.25288327408850625,-0.6387285247292799,0
98,19.64,0.8987840744671801,-0.09524146678801691,-0.42792084605478353,0.770943148726278,-0.2629555128051807,-0.5800871139039172,1
99,19.84,0.9427130956978855,-0.11265829144583421,-0.31400657408438926,0.8099409479379465,-0.2668101776452948,-0.5223102430148842,1
100,20.04,0.9343150308267149,-0.11484636263839537,-0.33743997415837507,0.8182692741007849,-0.27195797337161587,-0.5064328739153673,1
101,20.240000000000002,0.9604708660959523,-0.09105250240727115,-0.26306873091697003,0.8329616449937058,-0.27058228736917783,-0.4826594283047244,1
102,20.44,0.9585288747631423,-0.07873850685763246,-0.2739026173353134,0.8463937409237753,-0.2720745897834028,-0.45781333851172396,1
103,20.64,0.9531696245258443,-0.08293309996463215,-0.2908432014187675,0.8479327970026675,-0.2754277833440205,-0.4529343307030638,1
104,20.84,0.9450872566224685,-0.10315571181845468,-0.310111232445786,0.8436735670346468,-0.27922305943541165,-0.458529601407111,1
105,21.04,0.9384352240106274,-0.1125077120000654,-0.3266211032322228,0.8434651769530445,-0.2814144643323211,-0.4575722833958832,1
106,21.240000000000002,0.9373663513256878,-0.11706765883944066,-0.3280845724142172,0.8398336301140386,-0.2849781588245104,-0.4620248074751707,1
107,21.44,0.9271081112388359,-0.13246251597763323,-0.35060552182764304,0.8253235233131233,-0.30156017419792513,-0.477391394145024,1
108,21.64,0.850428296223712,-0.12838362482729493,-0.5101856111830664,0.7984056995490463,-0.32415780345577366,-0.5074150740629674,1
109,21.84,0.6431863083837064,-0.1775636251347804,-0.7448372518454855,0.7332453456065738,-0.3376836670906752,-0.5901872619148012,0
110,22.04,0.5104970152343911,-0.1582494398345358,-0.845192233890512,0.6660376388675914,-0.3337990881269105,-0.6670622402574795,0
111,22.240000000000002,0.9028938415575221,-0.28561135619204414,-0.32126136414396606,0.7372506463928727,-0.30871062689849155,-0.600965251269349,0
112,22.44,0.9308595106338875,-0.27842514747489966,-0.23660094825680617,0.794179535426481,-0.30949552940899017,-0.5229640358434107,0
113,22.64,0.9443385829099769,-0.273190343599712,-0.1832803235250525,0.8210130350154857,-0.32476283686830604,-0.4695388121592412,0
114,22.84,0.9456880808584177,-0.2770696729065441,-0.17001896975862413,0.8300953913093327,-0.34173004445732835,-0.44063842097824224,1
115,23.04,0.9419968843550307,-0.29377770685553445,-0.16228533150016605,0.8317490201778515,-0.3644069104519087,-0.41880922989838526,1
116,23.240000000000002,0.945589636366527,-0.29004517778103256,-0.14742467379034188,0.8474983229701852,-0.3672844893250867,-0.3832084243123234,1
117,23.44,0.9598317535211359,-0.2668766081928829,-0.08660185293632183,0.8813826363033337,-0.3521563034154669,-0.31488186100145477,1
118,23.64,0.964171816690463,-0.2523475836261916,-0.08181323204613437,0.8894423096585924,-0.3395995555347937,-0.30588317977580876,1
119,23.84,0.965041231675788,-0.24489288858746175,-0.09339643614703542,0.8913851048567893,-0.33177013262404187,-0.3088060458250074,1
120,24.04,0.9911219288092858,-0.13124327542354916,-0.021272632405506094,0.8947312530871443,-0.32734722546859946,-0.30380878645476805,1
121,24.240000000000002,0.9330742659359379,-0.31876387918946947,-0.16661933732971118,0.8968825294643241,-0.3249517007880326,-0.3000135338557931,1
122,24.44,0.8060387712991622,-0.5252447408773696,-0.27279930598005797,0.8778142128247071,-0.3709888122098098,-0.30300083989668136,1
123,24.64,0.5301622768385159,-0.7430705789374377,-0.40837981700248394,0.7692390873946781,-0.5355034042459433,-0.34857901609994996,0
124,24.84,0.19364825662631296,-0.8777577559340467,-0.4382255978411303,0.45136333264488643,-0.7813072389931877,-0.43108020163369093,0
125,25.04,0.22442947209898956,-0.863993453909043,-0.45071800902081927,0.2903561005218798,-0.8344902671578516,-0.4683154160483573,0
126,25.240000000000002,0.19167972841156922,-0.867420317081689,-0.4591741229968967,0.22274758047334708,-0.8449251069605341,-0.4862973154573238,0
127,25.44,0.11871857620190657,-0.8724374561052938,-0.4740873177476026,0.13257588336165022,-0.8563113943709236,-0.4991537148228018,0
128,25.64,-0.03614242906939724,-0.8181066779465126,-0.5739296022338323,0.07578080122148778,-0.8468995793305573,-0.5263253487111891,0
129,25.84,-0.12173867449447201,-0.7278071851361634,-0.6748899142797318,0.04036071213499698,-0.8222041774171214,-0.5677598995647638,0
130,26.04,-0.15985134139549206,-0.6723651858436669,-0.7227534887632666,-0.04030287126746884,-0.770788286723393,-0.6358152999241324,0
131,26.240000000000002,-0.49540242066649426,-0.14218391015598492,-0.8569481765489283,-0.2351824875668704,-0.5511134160862763,-0.8006017737624457,0
132,26.44,-0.4415304845530737,0.052620092117995364,-0.8957019354203841,-0.4084215985089421,-0.26303142357965237,-0.8740745208968524,0
133,26.64,-0.5394273070144717,0.3952928903804789,-0.7434794625689146,-0.5283068293147574,0.07142890932301484,-0.8460436188591652,0
134,26.84,-0.4393428178298952,0.6803674310819479,-0.5865816628093984,-0.5206089672301263,0.4443072645067398,-0.7290798021795141,0
135,27.04,-0.30262391267900424,0.7303677039828831,-0.6123575625838408,-0.3291144056413013,0.7168413237652664,-0.614672453052708,0
136,27.240000000000002,-0.5772535699550951,0.743264647629158,-0.3381360370602368,-0.41020709721429405,0.7404671460761171,-0.5323894655014437,0
137,27.44,-0.5850485164968168,0.722999705933834,-0.3674093882366966,-0.5671239186042594,0.6843435610526756,-0.45830595827753795,0
138,27.64,-0.9036596698396917,-0.021875392723102557,-0.42769225887129353,-0.7476609111286653,0.5158438935140335,-0.4182203241050543,0
139,27.84,-0.9648992348055045,0.10091566377577557,-0.24245720339153995,-0.8872444399968615,0.2917076973570258,-0.3573568566535668,0
140,28.04,-0.9466249532242674,-0.17167941350605287,-0.2728138136373811,-0.9480401238429683,0.0383439886145283,-0.3158316990438708,0
141,28.240000000000002,-0.9365200326500911,-0.21707368795862347,-0.27533478247601595,-0.933181032936653,-0.15877636074123117,-0.3224332908324642,0
142,28.44,-0.6998520729907199,-0.5592159335012763,-0.44439241178139843,-0.8793241724985358,-0.3370837463677472,-0.33639790069863623,0
143,28.64,-0.6297389644345601,-0.619378009872842,-0.46882802556891356,-0.7506098057573051,-0.5565096274502742,-0.3562049326667699,0
144,28.84,-0.4266429566392642,-0.6922956869458392,-0.5819815026152428,-0.5175332532789813,-0.7336342787536515,-0.44038628133501617,0
145,29.04,-0.12567707184803395,-0.7973844758606223,-0.5902400115784978,-0.2776846195768068,-0.8241922851634715,-0.4935568144879565,0
146,29.240000000000002,0.14853446358852368,-0.7387944170817654,-0.6573585949961286,-0.05923269224568306,-0.8533783297360297,-0.5179159338215736,0
147,29.44,0.34453783697097273,-0.6174058684030613,-0.7071800849549045,0.1302343872537129,-0.8059347586185956,-0.5775016616660388,0
148,29.64,0.40757357998012683,-0.5891200967022827,-0.6977257975477734,0.26954546627368553,-0.7171527040285497,-0.6426797341723488,0
149,29.84,0.6456018233589914,-0.4879055613145406,-0.5874916585909022,0.4654692860697385,-0.6612239934109577,-0.5883206389915233,0
150,30.04,0.7711066254707022,-0.5065430465558006,-0.3857573254536511,0.6311958855155932,-0.6196580369352563,-0.4664929488960478,0
151,30.240000000000002,0.9172465793113537,-0.33707257671663465,-0.21222815733834569,0.7195753561104372,-0.5984647613919458,-0.35220908030688153,0
152,30.44,0.8870393862278402,-0.40151286503494765,-0.22792223781799908,0.7716891381529795,-0.5876986458126582,-0.2431176171458571,0
153,30.64,0.9410542386137773,-0.3266067298332528,-0.088005477185644,0.796500790558908,-0.5818003279949936,-0.16460519124241685,0
154,30.84,0.9569144616816252,-0.2865797466381151,-0.04676282542147866,0.8289790604167767,-0.5483761809389573,-0.10989668588871283,0
155,31.04,0.9718332034361684,-0.23562280032874033,0.004703261021640075,0.8625238983432749,-0.5044281147752296,-0.040059977671335276,1
156,31.240000000000002,0.9815033589699239,-0.18963513052285394,0.02626163746488581,0.8879220289038202,-0.4598209084192502,0.012617557918200597,1
157,31.44,0.9678837828656937,-0.24550444691790624,-0.054116073482173024,0.8943001204332515,-0.44715793517055474,0.016645588216641485,1
158,31.64,0.9661564678803817,-0.2500931188291726,-0.06320689430119598,0.8909832670510296,-0.45398302163665727,0.006945063046832329,1
159,31.84,0.9570068627102846,-0.27300466446455957,-0.09801182533761812,0.8809223741225201,-0.4731972799163035,-0.0077527446852435865,1
160,32.04,0.9534493348278746,-0.27783774516382787,-0.11722010611905802,0.8770635073237543,-0.4797200700793259,-0.025065084959792365,1
161,32.24,0.9534965448857563,-0.2743627492175135,-0.1247774848790157,0.8757693600893325,-0.4811110892415272,-0.039498705517429504,1
162,32.44,0.9488860903741576,-0.28535787606333335,-0.13485573796865022,0.8693379504405736,-0.49138316689953465,-0.05285935311340059,1
163,32.64,0.9385437429698177,-0.3130511057605333,-0.1453776038952105,0.8591305964539597,-0.5081799356266656,-0.060396781893916604,1
164,32.84,0.9742458883605477,-0.21668850439404438,-0.062378209945773325,0.8595918333370632,-0.5074990219895303,-0.059553528358082156,1
165,33.04,0.9759232215196703,-0.2073392059893766,-0.0677076019244821,0.8716653200171102,-0.4862893896114545,-0.06100983060776432,1
166,33.24,0.959915924401208,-0.2742844187862975,-0.05770160909400479,0.8793133607307927,-0.47337743540535343,-0.0521710387990263,1
167,33.44,0.9539270791703365,-0.29508650437809286,-0.05428703859549569,0.8688873203289095,-0.4926767571717336,-0.04800455722524424,1
168,33.64,0.8517488980140943,-0.5184347507452846,-0.0758236371552499,0.8519837763635909,-0.5220828546729235,-0.03940986767049748,1
169,33.84,0.6716167977152148,-0.730650773679151,0.12280197045983506,0.8200641800471077,-0.5718747981403348,-0.021306239828192273,1
170,34.04,0.6410318054387082,-0.753020212662331,0.1484546521263922,0.723828247461108,-0.6892774855260289,0.031132236095349,0
171,34.24,0.5090386482275124,-0.8073172201127199,0.29852731988911363,0.6417142431077498,-0.759638914475125,0.10560089870688369,0
172,34.44,0.8979049544117432,-0.38455540135710686,0.2142051262923463,0.6547029622898866,-0.7438697719726813,0.13424527371255343,0
173,34.64,0.9624207180623268,-0.26337892690353537,0.06616571852204274,0.7456737467137865,-0.651323419890736,0.14052923597479566,0
174,34.84,0.9583877347371718,-0.2852717410057495,0.01062937857551009,0.8220318246127905,-0.5525811102936322,0.1375419785753537,0
175,35.04,0.9609934785822437,-0.2765150421257395,-0.005564674347989241,0.8527163361189232,-0.5060697138020848,0.12949245108575133,0
176,35.24,0.9590150301961761,-0.2756123266516599,-0.06578766795902197,0.8666232074827578,-0.48872402393301784,0.10056363499305151,0
177,35.44,0.9562322067045615,-0.26106180075007157,-0.1321616549913585,0.8810126124344196,-0.4704604940061089,0.0498367365605653,0
178,35.64,0.9351874345001217,-0.25683477939261173,-0.24384494755362354,0.8839081066262047,-0.4650346859960291,-0.0494893913990912,0
179,35.84,0.9044330693767484,-0.24047147845216155,-0.35238372702039705,0.8724048812494654,-0.45651921686327607,-0.17464228527664072,0
180,36.04,0.8791133488609155,-0.22691856142531816,-0.4191272913271224,0.8569863716407738,-0.4534490077985099,-0.24486395436757985,0
181,36.24,0.8729218908222528,-0.20065156645061874,-0.44468676774131266,0.860231319280394,-0.43170753556284097,-0.27134973939064616,0
182,36.44,0.895294034895956,-0.3481567434473465,-0.27791270764730697,0.8624276042163928,-0.43297710517281274,-0.2622011706338177,0
183,36.64,0.9768118791960057,-0.19275887679348713,-0.09318029877007845,0.8690683658434859,-0.43416321210782866,-0.23711280172598395,0
184,36.84,0.9851947941343732,-0.1516214988414316,0.08001336575602894,0.9060809748608019,-0.41273826650500517,-0.09308270708215496,0
185,37.04,0.9821406570070668,-0.15992107539079034,0.0991210345970069,0.9162084888366535,-0.4006608438257623,0.0057352601060770645,0
186,37.24,0.8144920348522537,-0.4723995754710293,0.3368105791940429,0.8767052221633801,-0.4562708652655969,0.15233138527973183,0
187,37.44,0.7851038122179842,-0.4906748442140695,0.3779552900758068,0.832004795453493,-0.5065606039579741,0.2261954351001006,0
188,37.64,0.741012702756371,-0.5166227132392763,0.4289535482065477,0.788320605776365,-0.5524864239910744,0.27075703834607867,0
189,37.84,0.6377900519297439,-0.6748155990829882,0.371278543540726,0.7454442182698044,-0.6096091676573684,0.2696100520310966,0
190,38.04,0.7717514668642943,-0.6189234947098332,0.1460595121482244,0.7425686624573242,-0.6277466063181792,0.2335079865708006,0
191,38.24,0.9140324611942894,-0.4056295234678806,0.0030577073650086767,0.7823688898514288,-0.5930075106737784,0.19037072379210776,0
192,38.440000000000005,0.9698252915159514,-0.24299218377100285,-0.01984193947674884,0.8410746724849366,-0.5230332848833757,0.13794773723574583,0
193,38.64,0.9779825324824694,-0.2026151662776564,-0.04997259802585236,0.8804819400876247,-0.46519788808270146,0.09133716714967073,1
194,38.84,0.9815201788877781,-0.16717650012104338,-0.0931136737723448,0.9036235996732825,-0.42383134346902557,0.06189816157803502,1
195,39.04,0.9936819237209472,-0.11223293213558024,-5.843362332335343e-05,0.9167371966533249,-0.39588846721983134,0.053527878666502667,1
196,39.24,0.9948983538564498,-0.10086280710692155,-0.001989883473579009,0.9257056036576433,-0.37482798001278106,0.05072593770820369,1
197,39.440000000000005,0.9979388325275487,-0.05836825458241377,0.026668959307698057,0.9333811635709623,-0.35406442640382224,0.05863433675116224,1
198,39.64,0.9973892123365455,-0.05923901211028324,0.04129768224589598,0.9295763542236244,-0.36269048239339335,0.06590459505650695,1
199,39.84,0.986596297752171,-0.16316786770538078,0.001998051598240414,0.9176278404729169,-0.3931551821561852,0.0582078098947876,1
200,40.04,0.9404775733768055,-0.29804604672172097,-0.16331101618944563,0.9085551850084017,-0.4168132714466991,0.02818106705305967,1
201,40.24,0.9351926012012689,-0.30536080175278346,-0.1793588007634466,0.9059632543436256,-0.4232482834100365,0.009564118859817766,1
202,40.440000000000005,0.9758701115397398,-0.19619650493385313,-0.0958355719717723,0.9118112846601849,-0.4106011344402862,0.0026247976481135428,1
203,40.64,0.978714747273528,-0.1879031688821786,-0.08252177042059926,0.9183596578389551,-0.39574648227710024,0.000510508784033613,1
204,40.84,0.9766177936827519,-0.19430052508968904,-0.09200538577770954,0.9225404557950667,-0.38590031980332956,0.00022493803210011612,1
205,41.04,0.9807994904929316,-0.16978666743355947,-0.095941893928627,0.9277026209326003,-0.3733134667615175,0.0022141926930110568,1
206,41.24,0.981047234385757,-0.15809483370455935,-0.11203725924881179,0.9280634614451537,-0.37239616053039576,-0.004394445660083318,1
207,41.440000000000005,0.9786242669670184,-0.15840344155553404,-0.1311598025563789,0.9243367807284549,-0.38137723011554253,-0.012366250116867886,1
208,41.64,0.9812886289953469,-0.14562872444964997,-0.12595594952046,0.9279058289179254,-0.37267898098857427,-0.010057325164097315,1
209,41.84,0.9808011831346831,-0.15109073657931563,-0.12329082886219017,0.9247392587333475,-0.3805457861599556,-0.006496767904166162,1
210,42.04,0.9730085379323137,-0.21813645604003817,-0.07530519010741557,0.9201538382406702,-0.3914914490484306,-0.007166539815214758,1
211,42.24,0.9736809846826157,-0.2170933802349523,-0.0693959964670469,0.9180390526571273,-0.39644060682907833,-0.006256440952871047,1
212,42.440000000000005,0.9681391087554626,-0.24054861784273587,-0.06959187130784598,0.9126852429086466,-0.40864816162295864,-0.003511036735964841,1
213,42.64,0.9565208563420943,-0.27967334178076925,-0.082768794118097,0.9055798898258729,-0.42411627922654077,-0.007102452956198554,1
214,42.84,0.9673023650442941,-0.20483641119284995,-0.1495599519568954,0.90782399921237,-0.41920892321391723,-0.01093001152275491,1
215,43.04,0.9636098665204407,-0.2139240036396591,-0.16028894475676822,0.9084417272050324,-0.417813128455355,-0.012877032386627052,1
216,43.24,0.9604830461329594,-0.22178273465763523,-0.16818066684055066,0.9073518595824919,-0.42017999555129953,-0.01270331652380992,1
217,43.440000000000005,0.9615027919304435,-0.21855826905732864,-0.16656729611969617,0.9075933501728257,-0.4196064011905021,-0.01431009440995566,1
218,43.64,0.9641133477893349,-0.22063105797277557,-0.147673250361245,0.906737773819849,-0.4211311582036757,-0.021798098959664124,1
219,43.84,0.9659094577199094,-0.22205999500415785,-0.13307245434718673,0.906472614194062,-0.42166258516298644,-0.022540274839735638,1
220,44.04,0.9668942459436872,-0.2195161728466883,-0.1301082895888326,0.9068976417413945,-0.42070888905861,-0.023252915321903614,1
221,44.24,0.9671379322228165,-0.21496645096917424,-0.1357705601870029,0.9072125918002583,-0.41987946665508397,-0.025817566897375233,1
222,44.440000000000005,0.9673625334230934,-0.20811043052901784,-0.14456755387804524,0.9094384595368454,-0.41475041032023674,-0.030063024705520337,1
223,44.64,0.9677298573430171,-0.2020049003515254,-0.15064177189888123,0.9117769049428697,-0.40942734642883005,-0.03212668064161826,1
224,44.84,0.9679413933448582,-0.1978356031062692,-0.1547595980648494,0.9138265527690023,-0.40483356929499653,-0.0321062708235578,1
225,45.04,0.9677534274017551,-0.19519510089117195,-0.15922366765101661,0.9141438702108737,-0.40391440575863585,-0.03455629286444893,1
226,45.24,0.9679520641905329,-0.19053098710770877,-0.1636054533964212,0.9148104486409375,-0.40220304690818437,-0.03680424045052602,1
227,45.440000000000005,0.9672388587258546,-0.1953361494139703,-0.16215048227751233,0.911545584574987,-0.4097764119780748,-0.03417512879596121,1
228,45.64,0.9656296578219554,-0.20126507411104413,-0.16447411309300144,0.908553175216273,-0.4164081783649197,-0.03369505594650067,1
229,45.84,0.964503173062212,-0.19809571475187282,-0.17461877605191703,0.9093130695913884,-0.41412017899713705,-0.04067208892676337,1
230,46.04,0.9654365670294656,-0.19469742761317121,-0.17327765788806815,0.9093664797902214,-0.41418023938045373,-0.038824409083596294,1
231,46.24,0.9649791009085835,-0.19227418277955635,-0.17845440158795614,0.9083106856035025,-0.4159906648958825,-0.04385732707287479,1
232,46.440000000000005,0.9639432219782451,-0.19417101059775238,-0.18196451150058607,0.9060649583420304,-0.42055148139367987,-0.04671983264349772,1
233,46.64,0.9641441903992999,-0.1973900277175913,-0.17737856994836598,0.9041582524839502,-0.42518025484237526,-0.04146812459398708,1
234,46.84,0.963510366375822,-0.20019168093776527,-0.17768248301293382,0.9027045845131342,-0.4281716076787513,-0.04234982262965572,1
235,47.04,0.9628169589766566,-0.19976717751183004,-0.1818696739313629,0.9030303574368743,-0.4271659152681124,-0.04544727033152472,1
236,47.24,0.9613772906508201,-0.20158499999893623,-0.18739581851342746,0.9024230511953546,-0.4280233456587797,-0.049281357959487536,1
237,47.440000000000005,0.9618481831670334,-0.19952198590697043,-0.18718720489930876,0.9029240114565842,-0.4270549321597407,-0.048500664461317386,1
238,47.64,0.9635864127193281,-0.1891230644907647,-0.189033572944911,0.9061602958783624,-0.4199010115925789,-0.050563412040404786,1
239,47.84,0.9648358874096198,-0.17253936615242627,-0.19829744701889299,0.9121216413783689,-0.4059218078149227,-0.057110395459107115,1
240,48.04,0.9627808705721528,-0.17496080682645732,-0.20601386199710675,0.9102087042282223,-0.4095003742755614,-0.06188342439907222,1
241,48.24,0.9616918807964019,-0.1744152515788087,-0.21149006224165673,0.9099291883205541,-0.40959256103746633,-0.06529016913032887,1
242,48.440000000000005,0.9477234759907665,-0.2516590524533988,-0.1961834202327932,0.9066979005574064,-0.41567065392255637,-0.0715319830033141,1
243,48.64,0.9483900239839494,-0.25330744041347825,-0.1907660950978886,0.9027103475909996,-0.4239740777457242,-0.07321208747057828,1
244,48.84,0.9491110882877181,-0.2553922039941353,-0.18429043444607063,0.9009819046473476,-0.4278426683325008,-0.07198790629101381,1
245,49.04,0.9548511960240283,-0.24611982798581483,-0.16638576779194703,0.9024934476763542,-0.42420524193668396,-0.0745351569038867,1
246,49.24,0.9578332441098488,-0.23849429674161177,-0.1602371582989633,0.9066877809616188,-0.4144601353096312,-0.07835856107674334,1
247,49.440000000000005,0.9587484044574164,-0.2357650206036585,-0.15879657430220281,0.9101559376292111,-0.4056813967269106,-0.08389739893461952,1
248,49.64,0.9581502037295747,-0.24129974992078346,-0.1540214848037177,0.9098192228623974,-0.4060937418628277,-0.08553861426227719,1
249,49.84,0.8617400798741394,-0.5068296002987389,-0.02297370234708631,0.9082988700135891,-0.4102791485941814,-0.08163444714623334,1
250,50.04,0.8432487503079518,-0.5367619809569603,-0.02860281285534013,0.9023269732616573,-0.42401818286073456,-0.07755394205285093,1
251,50.24,0.8173075588282401,-0.5760846806879099,0.011610123123037795,0.89519432361745,-0.4403248025855837,-0.0688563082880795,1
252,50.440000000000005,0.9760880745051572,-0.21358801425014762,-0.040400878424775445,0.9006011611795414,-0.4292400840578584,-0.0683410471098049,1
253,50.64,0.9629017372520501,-0.18655411601397287,-0.19498155347424248,0.90522447256763,-0.41873993370529444,-0.07228777341391528,1
254,50.84,0.9628915033262772,-0.1739279564668022,-0.2063710706018273,0.9071494024635032,-0.4131072033754765,-0.0801398785212584,1
255,51.04,0.9631697127914883,-0.16673358391576626,-0.21095975055864633,0.9073127665531676,-0.41190285566887513,-0.08437761042754605,1
256,51.24,0.9620832900128795,-0.17626317239111963,-0.20815147642188958,0.904999331574073,-0.41670726383616585,-0.08562281306204218,1
257,51.440000000000005,0.8833457242413963,-0.4518810629868995,-0.12451440229255914,0.8979069180159082,-0.4318659407836639,-0.08517614554682604,1
258,51.64,0.7586746789690055,-0.6509819223906732,-0.02520452760558011,0.8802521767248225,-0.46698561315881165,-0.08414595934387345,1
259,51.84,0.7471445517298962,-0.6642922079755224,-0.022155839937534744,0.8595903755576795,-0.5046723460623599,-0.08006378312646635,1
260,52.04,0.5683126677482572,-0.8155669264866104,0.10895549595152676,0.7731382412081663,-0.6334485186587856,-0.03162647926237439,0
261,52.24,0.4359992834930676,-0.8880495645287741,0.1458512795068536,0.54078760596465,-0.8406802578009545,0.02838079242627728,0
262,52.440000000000005,0.2208937157472448,-0.943413233327743,0.24734073163445786,0.36976315455837905,-0.9263023006558763,0.07238271430850797,0
263,52.64,0.008710536070141939,-0.9910560314231368,0.13316181562742924,0.3039852511315149,-0.9506031453338651,0.06282218697142407,0
264,52.84,-0.21260254193894196,-0.9719073516423544,0.1009765268993009,0.16900514868137423,-0.9845057411429712,0.04675152805755031,0
265,53.04,-0.6207903934364738,-0.782668242474124,-0.04527371908131694,-0.24778259454047108,-0.9683374868905447,-0.030435133075057946,0
266,53.24,-0.7759760380482448,-0.6241273369644557,-0.09124831849741505,-0.7118328878036511,-0.6858935160148386,-0.15114239818766104,0
267,53.440000000000005,-0.9510865840941409,-0.13188679977516937,-0.2793567282189628,-0.9393298562491674,-0.25047873944393767,-0.23434978610080862,0
268,53.64,-0.9596968832364178,0.24609849877397028,-0.13571079989265256,-0.9770965833630076,0.03565985895266991,-0.20978713316076533,0
269,53.84,-0.8881798341437699,0.45830342386369466,0.033084042908331605,-0.9540040171904504,0.2909682790038157,-0.07220661879662173,0
270,54.04,-0.8964705156163433,0.4276959138619673,0.11583099713092689,-0.9134248364541628,0.40687504866180063,0.01038089230959328,0
271,54.24,-0.7257443778830647,0.4802610014714512,0.49258955372273433,-0.8674386364078814,0.4722598050046275,0.1565914705334438,1
272,54.440000000000005,-0.679645438312279,0.513330405461153,0.5239980658460472,-0.8280547012211381,0.506726484414421,0.23990348429852648,1
273,54.64,-0.7159744564205951,0.5036006395458187,0.4834945435082761,-0.842542088755531,0.495096426289609,0.21213759061214205,1
274,54.84,-0.7408332234879891,0.5049968003338794,0.4428818878989516,-0.8516690052905856,0.4950201284943479,0.17209002822006805,1
275,55.04,-0.7601933947177892,0.5159073228536237,0.39489952754270374,-0.8554695905946005,0.500624837106444,0.13246339886947406,1
276,55.24,-0.7499048651748867,0.5550142499538343,0.3600026049006004,-0.8358243513304833,0.540167260297893,0.09806622571122726,1
277,55.440000000000005,-0.8208643356699216,0.5589912656184239,0.11709187583898026,-0.8287919601645345,0.5584913908624726,0.034514534606883335,0
278,55.64,-0.7119137907736248,0.5177230872437653,-0.47449084231533095,-0.8459091376473982,0.5183467362277115,-0.1255165004559748,0
279,55.84,-0.6124709723179773,0.4447933855218176,-0.6534815622983645,-0.8334643581413146,0.42916201054392594,-0.3480763313038994,0
280,56.04,-0.5414043211977796,0.7017331094067981,-0.46308962863644254,-0.8035997150170922,0.38537867973724255,-0.4535534932380397,0
281,56.24,-0.5257843452875727,0.7013347730068664,-0.48133185893095237,-0.7848968624695278,0.37375367072044186,-0.494211603372975,0
282,56.440000000000005,-0.8112180643337377,0.15026831343719355,-0.5651059069549401,-0.8047266261907304,0.3363532325356455,-0.4891641442936173,0
283,56.64,-0.8227004647267937,-0.12124639916657677,-0.5553946849110609,-0.8544368533589892,0.1581824508348097,-0.49488986236321536,0
284,56.84,-0.8308602911938866,-0.19951276608370289,-0.5194861236711142,-0.8732617014053614,-0.031256644978107234,-0.4862479028266609,0
285,57.04,-0.7959578846378361,-0.26058887925063706,-0.5463922417949935,-0.8605506345112832,-0.14895462601938775,-0.487098680792355,0
286,57.24,-0.7766585690179849,-0.1925898865928818,-0.5997587871411948,-0.8314617832389424,-0.22689516657320136,-0.5071389221888196,0
287,57.440000000000005,-0.7561097458204327,-0.1539948236573241,-0.6360689007977911,-0.7937806376244111,-0.22529407684894126,-0.5649379419629796,0
288,57.64,-0.6744061342480712,-0.12452589113880519,-0.7277840809777715,-0.6934711152148536,-0.21521879085678908,-0.6875890374524665,0
289,57.84,-0.4622911425813127,-0.07513819277224147,-0.8835389926187671,-0.5717890313732195,-0.21602576261614798,-0.7914481495887062,0
290,58.04,-0.31104321198552787,-0.06363331870032632,-0.9482631074912222,-0.5014188007397079,-0.2244995010505013,-0.8355711581264814,0
291,58.24,-0.16593004960472985,-0.2449361553075724,-0.9552347870870892,-0.4452989116743433,-0.2657463317360522,-0.8550367047270415,0
292,58.440000000000005,-0.00478142845244818,-0.3260770647267151,-0.9453310985052612,-0.32618196519360354,-0.4002465221572612,-0.8563924608983057,0
293,58.64,0.1446650042346935,-0.3316905088998381,-0.9322303593294645,-0.08301042012257093,-0.5609341383710558,-0.8236881464249657,0
294,58.84,0.3684626578733933,-0.3165500329357922,-0.874088866421043,0.22781738139246643,-0.5939835198809545,-0.7715457334761897,0
295,59.04,0.6238120676638168,-0.347551263586061,-0.7000475865373199,0.4659123237783467,-0.5364920179449485,-0.7036348635711696,0
296,59.24,0.7794983849796712,-0.28817813300881384,-0.5561794957292467,0.6276793257727464,-0.46886868622940825,-0.6214344849386616,0
297,59.440000000000005,0.8299151297503956,0.0024560416386449715,-0.5578842579521788,0.6979801087708991,-0.4269176056216711,-0.5749479330951834,0
298,59.64,0.6934028946241897,-0.5231023443342623,-0.4955364397083168,0.7311879130823078,-0.44709656964885325,-0.515236735074827,0
299,59.84,0.811507669774188,-0.14513471704279504,-0.5660311085148726,0.7709727492623448,-0.3974733618657335,-0.4976102355277807,0
300,60.04,0.8315979861109026,-0.04478640523818918,-0.5535692977416034,0.8099572192714689,-0.2781543611743045,-0.5163326973083769,1
301,60.24,0.8343871943267276,-0.012475361964391633,-0.5510375443537668,0.8156892925202646,-0.22601741175431012,-0.5325101948805049,1
302,60.440000000000005,0.8220165170206521,0.001933218934960437,-0.5694603659692091,0.8095031226629702,-0.19805658312487448,-0.5527008994743902,1
303,60.64,0.8175063166241765,0.06399545785209468,-0.572353041097776,0.8145873592500597,-0.14125141887306153,-0.5625793018022982,1
304,60.84,0.8271449010923134,0.05834615374521094,-0.5589517322096134,0.8212686850025552,-0.14698411797674757,-0.5512834262852201,1
305,61.04,0.8255147628210513,0.04154444043007922,-0.5628493900093122,0.8157509910827541,-0.1620297001119241,-0.5552447179660013,1
306,61.24,0.8207788634268129,0.012957272860937409,-0.5710990863517434,0.8041076161332912,-0.18929173574378694,-0.5635419952900937,1
307,61.440000000000005,0.814681838887468,-0.0021680306200475403,-0.5799041308959303,0.7934968031042123,-0.20726224734077264,-0.5721933102463254,1
308,61.64,0.8096538457071428,-0.008667315984820808,-0.586843699604293,0.7843362723578773,-0.21818005720335648,-0.5807013643022463,1
309,61.84,0.7983770207829594,-0.027158522311774427,-0.6015451332623075,0.7722827187890151,-0.22962822355240575,-0.5923261611713716,1
310,62.04,0.7907740540133144,-0.0642203555536556,-0.6087299412973789,0.757968533095582,-0.260649046565431,-0.5979513168824561,1
311,62.24,0.943603011037967,-0.18747724291872628,-0.2728839331065055,0.7647222133661311,-0.2990014063936503,-0.5707872592823222,1
312,62.440000000000005,0.9271722646093957,-0.20458866808394058,-0.3138392401066576,0.7637209125941901,-0.33070635719591646,-0.5544038897559295,1
313,62.64,0.9164021458441985,-0.21663075332277623,-0.3365683048163552,0.7617322786563324,-0.34194936066486226,-0.5503040708498562,1
314,62.84,0.8545469288210458,-0.30451776751143506,-0.42073563637083344,0.7534542400397559,-0.3425647475199031,-0.5612094991380131,1
315,63.04,0.8619121939472708,-0.2961225989382166,-0.41160512183776166,0.7428450552727786,-0.3455475034882809,-0.5733917916135521,1
316,63.24,0.779950737686211,-0.2255447487270979,-0.5837862734805999,0.740141620489835,-0.354484307245009,-0.5714291360577507,1
317,63.440000000000005,0.7848530844026191,-0.22035840280224211,-0.5791785650541119,0.7354751832185951,-0.36040723345890713,-0.5737446129943801,1
318,63.64,0.8906964672841242,-0.12858196137692482,-0.4360349554520189,0.7470164019281572,-0.3347735441899261,-0.574363272990906,1
319,63.84,0.825193663898667,-0.10589558105836959,-0.5548346987831635,0.7522198821896056,-0.32532939467599475,-0.5729974116856085,1
320,64.04,0.824018122316549,-0.09923715580363793,-0.5578047337571752,0.7588373581062348,-0.32012744006855104,-0.5671721837832906,1
321,64.24000000000001,0.8216170741927907,-0.10432245893260134,-0.5604125337259457,0.757354671853277,-0.32771923144218995,-0.564813249105362,1
322,64.44000000000001,0.9070859005934366,-0.1939031989577152,-0.3736264422903699,0.7543574731081152,-0.34324804134129683,-0.5595762547511312,1
323,64.64000000000001,0.908270211712949,-0.19625574752629865,-0.3694981787205571,0.7549832232282684,-0.3469875886809775,-0.5564170611557625,1
324,64.84,0.8268316028862749,-0.11785169951877066,-0.5499640691800248,0.7618279572660717,-0.32335995402916073,-0.5612989432183741,1
325,65.04,0.8272124061645193,-0.11572215679554605,-0.5498436300568491,0.7628854282977617,-0.31544055131721777,-0.5643607728001928,1
326,65.24000000000001,0.8145565307491178,-0.13500192125538765,-0.5641561304030257,0.7566581075013489,-0.3298076511947971,-0.5645311519888414,1
327,65.44000000000001,0.8090869909141268,-0.1534394764827643,-0.5673046520082654,0.7522638689056056,-0.3466396536887143,-0.5603035088501035,1
328,65.64000000000001,0.8075953203807749,-0.15317036108068013,-0.569498585586907,0.7560038005689901,-0.3399882033336156,-0.5593445048619167,1
329,65.84,0.7559342375389752,-0.21617240482297603,-0.6179263062124964,0.7610988225411872,-0.3153208779924196,-0.566834478687128,1
330,66.04,0.7534810122985122,-0.21923189183415773,-0.6198417069772135,0.7690070962509631,-0.30427768597604543,-0.5621771746813679,1
331,66.24000000000001,0.747900884217082,-0.22619676780315048,-0.6240827586327912,0.7711258526929017,-0.30524660039172136,-0.5587391450918244,1
332,66.44000000000001,0.7419797471148734,-0.23880814772027997,-0.6264477020899334,0.7631077718338891,-0.32834086935589174,-0.5566496223634169,1
333,66.64000000000001,0.6638305890817155,-0.20593686059047625,-0.7189707632787034,0.7552572767733736,-0.32999015090407396,-0.5662975774159507,1
334,66.84,0.6356168959343028,-0.19400848183576225,-0.7472294631360735,0.7535915977707706,-0.3242397423953428,-0.5718114140349936,1
335,67.04,0.6136891852554339,-0.1920387326936412,-0.7658372601577583,0.7568839132643812,-0.3230454587601984,-0.5681270750598051,1
336,67.24000000000001,0.8832801049077822,-0.2145795821271424,-0.41685951975244473,0.7936631671475037,-0.308540459307325,-0.5243105588139712,1
337,67.44000000000001,0.9122908350240232,-0.20174910272277294,-0.35640248579622297,0.8371839066420262,-0.30784854090286096,-0.45205351710121094,1
338,67.64000000000001,0.9259239603025787,-0.22713085106598874,-0.30178866153589745,0.8636701392278079,-0.3149155079369065,-0.39357605804603923,1
339,67.84,0.9167872340041645,-0.26024104599440545,-0.3029451527038039,0.8665300441457514,-0.3301373579348211,-0.37434610654924416,1
340,68.04,0.9202975469330457,-0.2637212802376978,-0.2889697414242684,0.8772429304385788,-0.3289048297884413,-0.34966620359618944,1
341,68.24000000000001,0.9203680552988316,-0.2616665374814658,-0.29060844094400906,0.8765917647644986,-0.3331902067935227,-0.34723358714840946,1
342,68.44000000000001,0.9123448031153634,-0.27591665271457816,-0.3024846458635081,0.8708039667047169,-0.34435859682717457,-0.3508811883851138,1
343,68.64000000000001,0.9046597804305295,-0.2888783247257162,-0.31327303614427177,0.8675384638796996,-0.34862125950707246,-0.3547396666697339,1
344,68.84,0.8356173610613101,-0.40919598493156056,-0.36647274360970206,0.8613679662582139,-0.36497322143685323,-0.35332672463060966,1
345,69.04,0.8098422184513315,-0.4534599099281414,-0.3721957701288234,0.8564481609299456,-0.3829492796119129,-0.3461883835203477,1
346,69.24000000000001,0.9923660060432531,-0.11949858386273285,-0.030492597537164323,0.8904402992717728,-0.37025510181937565,-0.2646265916523128,1
347,69.44000000000001,0.9984431759714107,-0.04687020236558393,0.03023918792447892,0.938832568690179,-0.30000915521216365,-0.16907961070301913,1
348,69.64000000000001,0.999300138682374,-0.0372040060608353,0.003885197860270424,0.9569598918664846,-0.25036367767497963,-0.14678485705257638,1
349,69.84,0.9982659407321777,-0.05743609539085018,-0.012892110779609363,0.9597332867915577,-0.2428686273955799,-0.14116248811657126,1
350,70.04,0.9971759830079789,-0.07156789721437176,-0.022761700296419364,0.9603371731065867,-0.24056983040051083,-0.1409917396542068,1
351,70.24000000000001,0.9963308725125832,0.06746434476246468,0.052662649611334586,0.9636098760201024,-0.23207527164532438,-0.1326539676273259,1
352,70.44000000000001,0.9949726519296539,0.07457633395457686,0.0668415464061654,0.9671532728899856,-0.22336044906563396,-0.12134519574910071,1
353,70.64000000000001,0.9951726798536197,0.07588300399537051,0.062234291010694005,0.9687844348313864,-0.21729034806409026,-0.11933827326812693,1
354,70.84,0.9946425149882684,0.0807222580788119,0.06457696515376206,0.9721185616674626,-0.20540558008453905,-0.11311078521395636,1
355,71.04,0.9863142305534685,-0.11301494816218637,-0.12004940691072907,0.9676516667284558,-0.2196356432735465,-0.12413877750911229,1
356,71.24000000000001,0.9828973227971651,-0.13005420477356514,-0.1303792800213342,0.9601812123577697,-0.24207788844410988,-0.1394644591342356,1
357,71.44000000000001,0.8824673954203871,-0.272225437713852,-0.3835943261851769,0.9523401194345711,-0.25967068832935797,-0.1600607089135399,1
358,71.64000000000001,0.8750275066121549,-0.27601255610232056,-0.397673146624183,0.951880218150997,-0.25814017325637884,-0.165189894497144,1
359,71.84,0.9599952038722802,-0.2493937668469393,-0.1273261858382393,0.9474262651844675,-0.2706058694412249,-0.17075109212701928,1
360,72.04,0.9576260664325421,-0.2544431229311232,-0.13494819036205707,0.9414204045501399,-0.29214204386011905,-0.16846556949680772,1
361,72.24000000000001,0.9508469009000988,-0.27269677417567445,-0.1467195978826937,0.9345724782343873,-0.3128502436239699,-0.1694078156144468,1
362,72.44000000000001,0.9296936104018738,-0.3238852696723455,-0.17540844582630913,0.8991654972666677,-0.3869414812809314,-0.2043959358434145,0
363,72.64000000000001,0.5786860664481884,-0.6538999588239002,-0.4873779645704395,0.49304860312663856,-0.6917517382059877,-0.5276197566845512,0
364,72.84,0.028053440419146758,-0.7172934262161875,-0.6962062519021877,0.10749524849270925,-0.7519880911596665,-0.6503527368325066,1
365,73.0,-0.19209233836258044,-0.76102817598986,-0.619626217079251,-0.03364676139339717,-0.7759792546139268,-0.6298603748899835,1
