,timeStamp,x_gaze,y_gaze,z_gaze,x_head,y_head,z_head,fixations_head
0,0.03333333333333333,-0.9987238688423241,-0.0013673597738593575,-0.050485286290851264,-0.9964598454145852,0.07856672589547672,-0.02991732037475535,0
1,0.23333333333333334,-0.998786631819155,-0.01300181508557195,-0.047499651617971234,-0.9972880125862151,0.07069238763077508,-0.020474527659940355,0
2,0.43333333333333335,-0.9975400818277741,-0.0700860300149062,-0.0013166411007098791,-0.9998038685051946,0.01589719331796981,0.011811171265312318,0
3,0.6333333333333334,-0.9974509158838811,-0.06954885472184773,0.015957042623432404,-0.9996725822457759,0.014194418937680742,0.021289593163884936,0
4,0.8333333333333334,-0.9999183567083321,0.002802079192762941,0.012467087466875268,-0.996112013856184,0.08696694987804367,0.014057221641839894,0
5,1.0333333333333334,-0.7625717825176539,0.6395985013750906,0.09694345540874084,-0.9415999743879302,0.3366556128082921,-0.007244763441449417,0
6,1.2333333333333336,-0.595578156304462,0.802544529133808,0.03476979278587522,-0.7843700901512102,0.6201955989705757,0.010999122406430651,0
7,1.4333333333333336,-0.2590133569356919,0.9615589053437424,0.09119513409742723,-0.567479308821732,0.8223771450752828,0.040780697848818555,0
8,1.6333333333333335,-0.05528577978379473,0.9984698553927601,-0.0011960040380894232,-0.2006621658434985,0.9775630139823005,0.06407221623166505,0
9,1.8333333333333335,-0.04551375679429598,0.9964358693628089,-0.07102151920124918,0.037612056645815295,0.9985007191751454,0.03976992584339957,0
10,2.033333333333333,0.5080508733269309,0.8613048849301275,-0.006181044187145827,0.26272148444991056,0.963992815563507,0.04117369488372193,0
11,2.2333333333333334,0.7084189108076377,0.7057505952756227,-0.007664468554622573,0.5560691577258821,0.830847062383916,0.021914624204984332,0
12,2.4333333333333336,0.824756127108804,0.5646716480596989,0.03038520485416565,0.6947517110692272,0.7191644205335478,0.011072317057753306,0
13,2.6333333333333333,0.8207460440719367,0.5711145472333627,0.014286534873700298,0.7159948449517236,0.6980283891944014,-0.010380264024916425,0
14,2.8333333333333335,0.7610856327242584,0.6486015763768186,0.008040819748100574,0.647495675766804,0.7615560890988965,-0.02795841590082647,0
15,3.033333333333333,0.37369659831425617,0.927546585692661,0.002860730368414024,0.17567381313770275,0.9836586356930759,-0.039425877340855585,0
16,3.2333333333333334,-0.8043772866251466,0.5941183769840497,-0.0007313627045558154,-0.6398490194705482,0.7682508873931785,-0.019590975018409732,0
17,3.4333333333333336,-0.9861223349525899,0.16232979401492165,-0.034810608766947394,-0.9565221653347286,0.2916581361950624,0.0009374511105236939,0
18,3.6333333333333333,-0.9970370874043762,-0.07689854287250741,0.001913228758822947,-0.998525682802633,0.05243222111934216,0.014047169537960364,0
19,3.8333333333333335,-0.9999805857853614,-0.0014048938835895628,0.006070776354118725,-0.9991862059216327,-0.03708714982615446,0.015857780856887594,0
20,4.033333333333333,-0.9990221242886208,0.04253568103227479,0.012062794907163022,-0.9997510534134542,-0.008383019859331991,0.020677431579555778,0
21,4.233333333333333,-0.9967013378533606,0.07972137906422248,0.015196869461174562,-0.9991467136300776,0.03585610534859075,0.02049839875323829,0
22,4.433333333333334,-0.9954777773723331,0.09410477274666047,0.012972528825922472,-0.9973402249149114,0.07118671684017047,0.0156501473536641,0
23,4.633333333333334,-0.5699855513114134,0.8088319621859584,0.14459366598380627,-0.9124885065072174,0.4084156834701072,0.023692931179441545,0
24,4.833333333333334,-0.6360982990646709,0.7715592739222953,0.008674142697307667,-0.7736791492099874,0.6327672666536578,0.0320337373618671,0
25,5.033333333333333,-0.40093904314639217,0.9144014896542301,0.0558372581613791,-0.7185982534666889,0.6946369703891743,0.0331063359974168,0
26,5.233333333333333,-0.21931624782473863,0.9746899070966506,0.04335860288340691,-0.5409368634949356,0.8398043322725738,0.045999926179043554,0
27,5.433333333333334,-0.22874634775854974,0.9733465444872336,-0.016480677227793436,-0.4480984536590344,0.8934922632859965,0.02965385769928597,0
28,5.633333333333334,-0.2713913093792714,0.9618576462883788,-0.0343019747242753,-0.4665171852138099,0.884303561809429,0.01920745874240168,0
29,5.833333333333334,-0.5317852849345213,0.8452336419147183,-0.05276837407663964,-0.4961768447685785,0.8679077572531674,0.0233380293785793,0
30,6.033333333333333,-0.5744921942791217,0.8178259735459351,-0.03345737147481006,-0.6380674775802607,0.7696296192844623,0.0232409804960403,0
31,6.233333333333333,-0.8973687375018887,0.4396506672765894,-0.03790303045294078,-0.9607796553821395,0.2773061510834172,0.0019371048187440698,0
32,6.433333333333334,-0.49530710286637525,-0.8685559882435447,0.01677406141629724,-0.7824821846487167,-0.6225569743607214,0.01201850166185576,0
33,6.633333333333334,-0.4483455345996737,-0.8936584265057356,-0.01899732454388752,-0.23439096840686524,-0.9716545585487394,0.030794362807926842,0
34,6.833333333333334,0.06552736986255414,-0.9936287940121378,-0.09169505716711737,0.012454315635446467,-0.9998806420373891,0.0091428497172242,0
35,7.033333333333333,0.1844339032016366,-0.9797163468772209,-0.07835824788343804,0.0065700064194264,-0.9999368376641298,0.009118974608396075,0
36,7.233333333333333,-0.2179514771254662,-0.9759402137944065,-0.0061524562375972185,-0.1234504500539852,-0.9921471965705535,0.020097928218111325,0
37,7.433333333333334,-0.5994615107444599,-0.8001068251795641,0.021793701774787795,-0.36942555766455876,-0.9291610438842532,0.013583514720214584,0
38,7.633333333333334,-0.508185898973552,-0.8609650518956088,-0.02205156454392596,-0.5586036918121978,-0.8294252177426198,0.003965307855757795,0
39,7.833333333333334,-0.7680673821991388,-0.6400501758346305,-0.020205662964148895,-0.6882228822275229,-0.725467740943215,-0.006769137994586815,0
40,8.033333333333333,-0.7305579684705217,-0.6818225647434183,-0.03745724110144875,-0.7802602472920503,-0.6254323902111333,-0.005317120511813791,0
41,8.233333333333334,-0.9868479806703354,0.10232431900914225,0.12514310522836222,-0.9548198802588534,-0.29710072546089716,0.007082033117528429,0
42,8.433333333333334,-0.9966489377037776,0.07608186082580333,0.03004072947208806,-0.9982187408085592,-0.056061458515222116,0.020407311624046423,0
43,8.633333333333333,-0.9957355121884698,0.09163194165320097,-0.01069471998839337,-0.9989006521818224,0.043906329544394974,0.016423193863222264,0
44,8.833333333333334,-0.974208381869325,0.06889398870204058,-0.21487588747059336,-0.9898392988456617,0.1421887185999181,-0.0007285352719209912,0
45,9.033333333333333,-0.8877824104683143,0.3965390314269804,-0.23366469185142602,-0.9218585000095763,0.38750249882704496,-0.00432658790391522,0
46,9.233333333333334,0.0646527245421834,0.9910053906360587,0.11716800305350127,-0.4474968730648054,0.8938184073199724,0.028899884657371103,0
47,9.433333333333334,0.04916086122227664,0.997979828033058,-0.04024267092269436,-0.09141915614701229,0.9956924988223499,0.015459161629047634,0
48,9.633333333333335,0.14344825891876217,0.9882639028319179,-0.05250766965502544,0.028136741790689868,0.9996024347854185,0.0018155253971394775,0
49,9.833333333333334,-0.33792510895154126,0.9372758491169204,-0.08556052478944215,-0.09396937938200367,0.9954406789987601,-0.016358799865777016,0
50,10.033333333333333,-0.3653491624266674,0.9254259724215244,-0.10053237827590031,-0.2702640003325501,0.9625001848024964,-0.023468369764590904,0
51,10.233333333333334,-0.38683325798590135,0.9193688003545369,-0.07156143829376807,-0.46019852230022856,0.8876724915252716,-0.015964581485364147,0
52,10.433333333333334,-0.8116155609657373,0.5806826584598203,-0.06393615066851888,-0.6818918231985527,0.7313633090646159,-0.011456509460091328,0
53,10.633333333333335,-0.9857964502444827,0.1353265437444034,-0.09945896261057183,-0.9485947904537364,0.3139026613476779,-0.040410923311363936,0
54,10.833333333333334,-0.9854745575338681,-0.15432169081939773,-0.07088520435231632,-0.9988353126370082,-0.032389172617811636,-0.0357625464203034,1
55,11.033333333333333,-0.999639424770014,-0.026819678680232936,-0.00131349951077281,-0.9955532387881366,-0.07713900218176328,-0.054067763786316565,1
56,11.233333333333334,-0.999885361623802,-0.006400034509396147,0.013722360172994838,-0.9976290462149715,-0.052891769634454605,-0.0440312031761813,1
57,11.433333333333334,-0.9977447031141555,0.05086250542799155,0.04380083274588943,-0.9998970312535861,0.010765545392573725,-0.009488409912400646,1
58,11.633333333333335,-0.9969098216830317,0.07162126238876403,0.032267665018495206,-0.9986259256467241,0.0517334524354851,-0.008361251421217502,1
59,11.833333333333334,-0.9978097726177997,0.06598129351229402,0.004703889333220878,-0.9973297002112778,0.06699565172682825,-0.029069773411231438,1
60,12.033333333333333,-0.9986781958828045,0.05086227962936092,0.007408750176089693,-0.997318420072721,0.06849757067130065,-0.025769202466942757,1
61,12.233333333333334,-0.999342637903478,0.03520425947418457,0.008657492881449553,-0.9975776351956809,0.06531062310095384,-0.02394544356570562,1
62,12.433333333333334,-0.9993347785171285,0.029698388333974663,0.021166156393785784,-0.9976015712925503,0.06882057265367435,-0.007404980368318844,1
63,12.633333333333335,-0.9991258980398319,0.024509890057666767,0.033863035236983904,-0.997573135567436,0.06892000573338819,0.009893028043231968,1
64,12.833333333333334,-0.9999947496794197,-0.0015173824494666799,-0.002863243632219019,-0.9988372792422187,0.04304463474681621,-0.02170827067076761,1
65,13.033333333333333,-0.9900048469201318,-0.11089329165339834,-0.0871382863092955,-0.9914455429164488,-0.07012548603811838,-0.1100824765302196,1
66,13.233333333333334,-0.9979832654717591,-0.024011293615199217,0.0587610382587726,-0.9887819446592674,-0.09720147219814795,-0.11341137384914497,1
67,13.433333333333334,-0.9976357222325829,-0.03940815705618342,0.05630242341948936,-0.9882683375801937,-0.11177782584295524,-0.10407406298546604,1
68,13.633333333333335,-0.8912003638479077,-0.45085301815905104,0.04993463221283878,-0.9893689481952503,-0.11401761527651184,-0.09027218704385877,1
69,13.833333333333334,-0.8700386364925842,-0.4915325611996558,0.03779566497141893,-0.9844539428554263,-0.1552279585145981,-0.08218707496800146,1
70,14.033333333333333,-0.9992064258512788,-0.016199172751817002,0.036388258266504395,-0.9858815802324213,-0.147507476658814,-0.07924048263465917,1
71,14.233333333333334,-0.9989502137844419,0.00817104618279917,0.045074431602585154,-0.9890560861687905,-0.12898645965444325,-0.07162786914523805,1
72,14.433333333333334,-0.9987989246078399,0.02299360809887156,0.043266640600095184,-0.9922981075532809,-0.10528598373491184,-0.06526352254628583,1
73,14.633333333333335,-0.9985441647056614,0.02838072058551971,0.045870315361021284,-0.9945913098838977,-0.08712195529766195,-0.0565499001638802,1
74,14.833333333333334,-0.9984272199185273,0.042916977176268446,0.03607242154073876,-0.9962469015948991,-0.06203693282342762,-0.060361660252391355,1
75,15.033333333333333,-0.998585579858897,0.03936335661272248,0.0357402553719278,-0.997003444809815,-0.057828358664549696,-0.051381046812289284,1
76,15.233333333333334,-0.9988472889857152,0.04067550781403587,0.025487180109967856,-0.9975358827139622,-0.048379416536058754,-0.05080939631315043,1
77,15.433333333333334,-0.9992847088557897,0.03520976256469854,0.013796494740962962,-0.9973282232722227,-0.0496463803427143,-0.053587796964776106,1
78,15.633333333333335,-0.9997369239189915,0.020510195450117966,0.01026717271651696,-0.9966003212594936,-0.06274729864997157,-0.05339078738514796,1
79,15.833333333333334,-0.9999965695097014,-0.000179698485261948,-0.002613173795131922,-0.9941813623936165,-0.08637921055963402,-0.06435876515492955,1
80,16.033333333333335,-0.9990324223318033,-0.042978837216655685,-0.00932945236085906,-0.9885379863191076,-0.13174544275330527,-0.07372779610092692,1
81,16.233333333333334,-0.9994126155858492,0.013957712198727724,0.03129865936472676,-0.9849158903479329,-0.15745028382770018,-0.07176417673683518,1
82,16.433333333333337,-0.999960097666972,-0.008795078627883287,0.0015651408210046417,-0.9800132605731218,-0.18440372565305174,-0.07462757577539644,1
83,16.633333333333336,-0.9241118775855908,-0.37146878525704646,-0.08960010761650347,-0.9441666184607018,-0.3121451068045052,-0.10542688880208688,0
84,16.833333333333336,-0.5841097341860065,-0.8104863084845493,-0.043906288709490905,-0.7925011897693904,-0.6026670984837449,-0.09345711647212858,0
85,17.033333333333335,-0.45213354240929937,-0.8894001648522823,-0.06739886192771764,-0.6064607067207622,-0.7920638147944115,-0.06957244064338963,0
86,17.233333333333334,-0.42396867006505623,-0.9038329253646605,-0.057763395243246814,-0.5184887157115011,-0.8534591150710232,-0.052697159145670185,0
87,17.433333333333337,-0.42318306028864333,-0.9042497239479969,-0.05699591410539792,-0.4846512366841462,-0.8730431583711155,-0.05393349981148456,0
88,17.633333333333336,-0.4579895721237977,-0.8876400283855597,-0.048381110296721,-0.5067425690109326,-0.8606543206929718,-0.0498608967500553,0
89,17.833333333333336,-0.5164290461824919,-0.8548694658651775,-0.04999236532140028,-0.5648018425421958,-0.8235257792667927,-0.05295441005206968,0
90,18.033333333333335,-0.49929395515098973,-0.8618502715778551,-0.08899244760573145,-0.6462733859779901,-0.7604437447665017,-0.06368690306525673,0
91,18.233333333333334,-0.8334348768778421,-0.552601034516192,-0.004289831610985433,-0.746484699776756,-0.6618836820768768,-0.06834167395932442,0
92,18.433333333333337,-0.8652633381601662,-0.5012567176399639,-0.007814003886324545,-0.7930543924279567,-0.6057645074705768,-0.06414118910383809,0
93,18.633333333333336,-0.8895919871041817,-0.4567476779511096,0.0027667971199553123,-0.8230815643725622,-0.5658647043338775,-0.048310193325521514,0
94,18.833333333333336,-0.9047075550398065,-0.4260223485203882,-0.0030328888981271465,-0.848356916571865,-0.5275395208888705,-0.04463850361536225,0
95,19.033333333333335,-0.9869017366468781,-0.05270671282279494,0.15246955311402985,-0.8593528824579755,-0.5104927080913704,-0.030163196062552165,0
96,19.233333333333338,-0.983934364869699,-0.0039084339139334005,0.17848778606056617,-0.8824700828747648,-0.47016346903381273,-0.013887592199395211,0
97,19.433333333333337,-0.9989277279474318,0.005335659206483738,0.04598831458766962,-0.9343862077696389,-0.35611498394504615,0.010224135156244997,0
98,19.633333333333336,-0.9958754817859999,0.05562228957924436,0.07168113893811424,-0.9627853971155311,-0.26895971820742115,0.02655087725243521,0
99,19.833333333333336,-0.9965973780243436,-0.011110782690583845,0.08167139415368474,-0.9458448335170999,-0.3236896685229475,0.024546881686155677,0
100,20.033333333333335,-0.9915755577370682,-0.0052540215035462405,0.12942298310757233,-0.9139055204756777,-0.4047392812754472,0.031029241639385047,0
101,20.233333333333338,-0.990582885265557,0.05491337840746274,0.12541956901075343,-0.9414989726143839,-0.3341210035580127,0.044077653606406,0
102,20.433333333333337,-0.9985928423137831,0.039258698966707715,0.03565234683890221,-0.9819122292490412,-0.18336307749882333,0.04718427557289516,0
103,20.633333333333336,-0.9376936201159112,0.3443913943150801,0.04610035049359658,-0.9966464838062784,-0.07145883166571909,0.039867551888125054,0
104,20.833333333333336,-0.9169136603098577,0.39908362706936135,-0.0012641765470941025,-0.9883260880341788,0.14499904540944716,0.04676345305263295,0
105,21.033333333333335,-0.9997846087178552,-0.012625897017683253,-0.016471881962421674,-0.9904456032885236,0.13353590887541691,0.0344335296948968,0
106,21.233333333333338,-0.9977919355897705,-0.0636733409877376,-0.018893356490539904,-0.9973636854970787,0.06309987371849216,0.035834128821484915,0
107,21.433333333333337,-0.9995117139363969,-0.020477931003110596,-0.02360059418230073,-0.999300268661944,-0.013114003081487614,0.035028502328037815,0
108,21.633333333333336,-0.9973645925209473,-0.0715033908182044,-0.01229368484319495,-0.9950171774646469,-0.09382974194622538,0.03371640663819329,0
109,21.833333333333336,-0.99734994729285,-0.061046942166054274,0.039577183921091275,-0.9797247936996479,-0.19805095132068593,0.03025143453051513,0
110,22.033333333333335,-0.9947008785269756,-0.09558340174294183,0.03786786987553547,-0.9641680730379344,-0.263864862272056,0.027482019439363334,0
111,22.233333333333338,-0.9923435973189375,-0.1199699446033007,0.02934956987745512,-0.9507838490159874,-0.30860876650368607,0.027761514501512218,0
112,22.433333333333337,-0.9054855418815133,-0.42162308847417523,0.0482690864740625,-0.8285218019328442,-0.5596024136940931,0.019918893284969322,0
113,22.633333333333336,-0.4220036556129353,-0.905165626626634,-0.050873401920179896,-0.5640183668090728,-0.8255132736097907,0.020276020222753367,0
114,22.833333333333336,-0.417414035360704,-0.907454280415288,-0.047877469021088394,-0.5392436955123368,-0.8419530412374922,0.01820201090913289,0
115,23.033333333333335,-0.5553910562063675,-0.8305980291905509,-0.04059173057099941,-0.5213905748225143,-0.853232155922665,0.012114313261993928,0
116,23.233333333333338,-0.5579634567996481,-0.8285139084252776,-0.04734431773780074,-0.5155346580713493,-0.8568544740312726,-0.0049423334416230395,0
117,23.433333333333337,0.011076500448747584,-0.9994373667434749,-0.031658507461315044,-0.42856886732644456,-0.9034597253313076,-0.009447256893241137,0
118,23.633333333333336,0.07827286003585976,-0.995030567931815,-0.0615428977469923,-0.19450189015761638,-0.9807929386070304,-0.014636471695751052,1
119,23.833333333333336,-0.03896425615685728,-0.9977792242279085,-0.0540222772686956,-0.16786991869809997,-0.985170631474032,-0.03547558706139322,1
120,24.033333333333335,-0.025443975499220062,-0.997353374245079,-0.068109110937896,-0.15577615366476444,-0.987104178073369,-0.03686640177058321,1
121,24.233333333333338,-0.041202724462837736,-0.9968191415900235,-0.06821975122036464,-0.17215209055405217,-0.9845825369743255,-0.030998154833322984,1
122,24.433333333333337,-0.24501763266961457,-0.969036158341984,-0.0305824051831601,-0.22330632204080753,-0.974453260131289,-0.023981875575309772,1
123,24.633333333333336,-0.037718224727395055,-0.997868853180836,-0.053245538545282106,-0.25547592026715543,-0.966659918010824,-0.01733946582099943,1
124,24.833333333333336,-0.10516534852411868,-0.9932667289177117,-0.048594801109889556,-0.3386296633414546,-0.9408063451735194,-0.014607258007501121,1
125,25.033333333333335,-0.5238365618538704,-0.8515186777449829,0.02260968634351976,-0.4364817647069967,-0.8997092013243282,0.002649930301933809,1
126,25.233333333333338,-0.18692158012414312,-0.9817572166849897,-0.034829446892478085,-0.35000195471491397,-0.936747905957193,-0.0014115171105438782,1
127,25.433333333333337,-0.200895497662328,-0.9790682620730414,-0.03265481925045979,-0.3145832462463825,-0.9492294773961244,-0.0008834157392830399,1
128,25.633333333333336,-0.2004860677665689,-0.9788219129415007,-0.04138839664737217,-0.29225471302323625,-0.9563308847821073,-0.00429203070559843,1
129,25.833333333333336,-0.20607115494009098,-0.977620632960519,-0.04233883691755581,-0.28553614944112765,-0.9583576383994882,-0.004443454026971476,1
130,26.033333333333335,-0.21577988502476414,-0.9756791665255353,-0.038590221905763805,-0.2897865528411531,-0.9570904364809473,-0.001284596882747935,1
131,26.233333333333338,-0.22534708967364575,-0.9735820510816848,-0.036833123505854944,-0.29616731504745947,-0.9551360685301932,-0.00010995574265404216,1
132,26.433333333333337,-0.23103685396348383,-0.972194899813512,-0.03819749844231566,-0.3018210214651532,-0.953363609291686,-0.001378216260813311,1
133,26.633333333333336,-0.2336551098743188,-0.9715894770819937,-0.037671974372975335,-0.3045563895335427,-0.9524923151916938,-0.001948100372284628,1
134,26.833333333333336,-0.4253613492905942,-0.9046602553665744,-0.025642638120325578,-0.313785400821897,-0.9494884296389369,-0.003231750737205883,1
135,27.033333333333335,0.13516406667538888,-0.9907198334438557,0.0143138639350194,-0.2643697251687137,-0.9644085416341962,-0.00498128871098535,0
136,27.233333333333338,0.24327853532115906,-0.9699320293441832,0.006885688365459028,-0.14439052294058358,-0.9895197325828303,-0.0014407338925105607,0
137,27.433333333333337,0.2310291091200512,-0.9729123353172482,-0.008193810269597866,-0.15286281530111828,-0.9881829726507716,-0.011285932008507516,0
138,27.633333333333336,-0.5686974851575943,-0.8208635784474694,0.05259425780295039,-0.33634063271905074,-0.9415437532149945,-0.019244208582593146,0
139,27.833333333333336,-0.5652439971525794,-0.824881425225004,-0.008358109938339811,-0.5002520361867329,-0.8654473794745825,-0.027362997854875427,0
140,28.033333333333335,-0.9647591264720512,-0.2554541748290977,0.06311095349675792,-0.8491593174433505,-0.5270638583019568,-0.03364733081536317,0
141,28.233333333333338,-0.9977571470345905,0.030228779947962674,0.059723499598165364,-0.9695601979757887,-0.24457207605249212,0.011726982413377171,1
142,28.433333333333337,-0.9988830144711273,0.03027356933182011,0.0362799448867467,-0.9949162345093248,-0.09770540699308936,0.024399585121500613,1
143,28.633333333333336,-0.9998726170863037,0.012889026546857115,0.009413957491976734,-0.99657678255172,-0.07837811003297333,0.026298067353347138,1
144,28.833333333333336,-0.9997045141926825,-0.012949683363923374,0.02057158242690843,-0.9947782755745763,-0.09831286510238828,0.02740005474870421,1
145,29.033333333333335,-0.9995468742016919,0.0009188137424021879,0.03008657599219584,-0.9956433965226519,-0.08678925234519659,0.034085959546412435,1
146,29.233333333333338,-0.9996799423601064,-0.019754351437202854,0.015804380474725432,-0.9940841283401334,-0.10507378453261261,0.02749991974954165,1
147,29.433333333333337,-0.9983980821325559,-0.055427789428158514,0.011359126425118903,-0.9892687278992275,-0.14383212115921326,0.025684721596427342,1
148,29.633333333333336,-0.9736385217386113,-0.22308935386677067,0.04753071825628608,-0.9405032423908484,-0.33453166442679877,0.05951652332030863,0
149,29.833333333333336,-0.4436185614644393,-0.8961993502734111,-0.005412623554040764,-0.705939316549802,-0.7048171283216541,0.06987486653737075,0
150,30.033333333333335,-0.34993466554277786,-0.9367598948317218,-0.00516035718974037,-0.5482444425340222,-0.831371972913812,0.09082221030097534,0
151,30.233333333333338,-0.37115155705504593,-0.928074556814063,-0.03039964950449061,-0.5360805091081348,-0.8412174566997563,0.07050445587306321,0
152,30.433333333333337,-0.50895795357287,-0.85839233867967,-0.06422144806031099,-0.5510228860807979,-0.8325986007520129,0.05615468850397674,0
153,30.633333333333336,-0.7022196032108432,-0.7108487932275964,0.03976961193267412,-0.5895074071599742,-0.805320167530344,0.06277296131634391,0
154,30.833333333333336,-0.9788645217238794,-0.18502447848976353,0.08712169919068473,-0.7988590680843762,-0.5998246866714658,0.04510581557670918,0
155,31.033333333333335,-0.9968650053908024,-0.07270226690292658,0.031217645881322188,-0.9535236255348537,-0.2967302407061478,0.05238186515713066,1
156,31.233333333333338,-0.9980210544464977,0.05736391633046274,0.025755698102213377,-0.9832840758953928,-0.17043491720081158,0.06406531892760792,1
157,31.433333333333337,-0.999111909642568,0.042094252083015135,-0.0018617067310843587,-0.9872736420705452,-0.15265990453385678,0.04456129733832774,1
158,31.633333333333336,-0.9975263832364579,-0.018844029816372627,0.06772013945253343,-0.986102603213992,-0.16061898510666575,0.04246407373172289,1
159,31.833333333333336,-0.9988341954496065,-0.03766169837456359,0.03019679579162518,-0.9865268905663759,-0.16010657183647706,0.03362409618427049,1
160,32.03333333333333,-0.9987518282351127,-0.042183437313109716,0.026745900872300832,-0.9863573943541721,-0.16057778269133025,0.03624729381324914,1
161,32.233333333333334,-0.9986831731013416,-0.046470979042464784,0.021734025652668444,-0.9862738439906614,-0.16209314971964062,0.03145974370287572,1
162,32.43333333333333,-0.9973494801936801,-0.06957956404528677,0.02127671555160188,-0.9835859506804001,-0.17829710573424004,0.027727598362046687,1
163,32.63333333333333,-0.99731646644421,-0.07102567715749768,0.01775440631375856,-0.9831011843054095,-0.18189866696167284,0.020613984934208046,1
164,32.833333333333336,-0.9982271613068876,-0.054682239222068364,0.023502917751924375,-0.9855797904572811,-0.16717632441987695,0.026163967505752617,1
165,33.03333333333333,-0.9981936112051739,-0.056966086407530904,0.01908872831237844,-0.9871759188483865,-0.15751579737734928,0.02593219663703919,1
166,33.233333333333334,-0.998339813378808,-0.054693443492951445,0.018062233019487315,-0.9878523848178196,-0.15299280989779349,0.0272188524615597,1
167,33.43333333333333,-0.9990349631228981,-0.04052344810694786,0.016940856281581318,-0.9899859259859757,-0.1385713503902588,0.026941551564647802,1
168,33.63333333333333,-0.9994973306266128,-0.027322407832066402,0.016080177254414938,-0.9917320780095288,-0.12603388708068303,0.024144248885310207,1
169,33.833333333333336,-0.9994015707039555,-0.03071668413033638,0.015905527042640498,-0.9918243045706379,-0.1253706244729195,0.02380662475532737,1
170,34.03333333333333,-0.9993859214660767,-0.027228872680895917,0.022053763123981784,-0.9917974449032854,-0.12443158509266994,0.029233694850984975,1
171,34.233333333333334,-0.9992200724994684,-0.027526566196764655,0.02831139112746323,-0.9913427047073591,-0.12655029146656346,0.03499522186278784,1
172,34.43333333333333,-0.9991830398492427,-0.026726389175482847,0.030314237566986344,-0.9912271074041992,-0.1269602709050239,0.03674113714662869,1
173,34.63333333333333,-0.9990611314210931,-0.02921213943138543,0.03199228959370212,-0.990852682188214,-0.1290586749163263,0.039431213895392864,1
174,34.833333333333336,-0.9989585557785468,-0.03428454299964948,0.030106045043238328,-0.9901448723970911,-0.13456348763259426,0.038804631964511,1
175,35.03333333333333,-0.9982387739297699,0.014697891688707863,0.05747453525777276,-0.989491510102332,-0.137062218723912,0.046048883090526994,1
176,35.233333333333334,-0.9991878916757054,-0.002709627126913126,0.04020217717353784,-0.9896531607878583,-0.1364002262340614,0.044515161753030386,1
177,35.43333333333333,-0.9993518597127812,-0.005442788894902299,0.03558421753602669,-0.9908341392004131,-0.12736682656408613,0.04500444518012035,1
178,35.63333333333333,-0.9997532501192254,0.0013643719542355518,0.022171544042221582,-0.9924944803906842,-0.11498698967929633,0.041625696372788366,1
179,35.833333333333336,-0.999526407111641,0.01673832309668804,0.025822277715292198,-0.9921289557217879,-0.1189036887203552,0.03926891935217787,1
180,36.03333333333333,-0.9999603634703963,0.0024629159956560624,0.008556023197240085,-0.9914842661481702,-0.1253789092223357,0.03520055543371347,1
181,36.233333333333334,-0.9468996793383003,0.32140303099695217,0.009004939477650188,-0.9944342463032774,-0.09726380910433717,0.04050038540246163,1
182,36.43333333333333,-0.9228270234262093,0.38383870956220273,-0.032528908311619496,-0.9932817061643862,0.10332828202907834,0.05210295895710714,0
183,36.63333333333333,-0.8869970093911337,0.4609095111531269,-0.02826177382562715,-0.9603159339535681,0.27267882192825726,0.058647822352617125,0
184,36.833333333333336,-0.6515800008900878,0.7585718184344175,0.003506952690659193,-0.8917203695922667,0.44899582511066327,0.05689931007864532,0
185,37.03333333333333,-0.620988885173319,0.7833500692444768,-0.027119614781040448,-0.7702161547669664,0.6360443622146711,0.04706000670336608,0
186,37.233333333333334,-0.42567853207009015,0.90459669912203,-0.022418725926791935,-0.6057507853570282,0.7946788850970498,0.039388521427616764,0
187,37.43333333333333,-0.2491219203975648,0.9679703342698583,-0.03117211495757001,-0.45193252142239454,0.8914339523525675,0.033203985813117044,0
188,37.63333333333333,0.0013702917367418577,0.9981170085280723,0.061323401630441206,-0.34773688380563544,0.9366764152279979,0.04142888843275312,0
189,37.833333333333336,-0.13735377422085815,0.9897933824244133,-0.03798685056864918,-0.3142365551156784,0.9477167181814272,0.05557346046861584,0
190,38.03333333333333,-0.41293967377659335,0.9064145741861954,-0.0888450647145838,-0.49929728264776674,0.8643884510457971,0.059454429937592625,0
191,38.233333333333334,-0.9740706894020339,0.2261341257608041,-0.007046219854886964,-0.8491085771576051,0.5247802052397638,0.06016943065958568,0
192,38.43333333333334,-0.997669201810744,0.027040953300944706,-0.06264942619760515,-0.9900761074946585,0.1347854035641366,0.03977683187834524,0
193,38.63333333333333,-0.9916080613924032,-0.1251989689003894,-0.032228415534736696,-0.9988463189368813,-0.019771153948748316,0.04376222820855006,1
194,38.833333333333336,-0.9904060027386459,-0.11989354742119163,-0.06871307754729156,-0.9981116991326795,-0.06061454678502166,-0.009945490059436811,1
195,39.03333333333333,-0.9919453031217731,-0.09013367934512785,-0.08899682838373299,-0.9962456700335662,-0.060883220223334505,-0.061545092693145176,1
196,39.233333333333334,-0.9984004458767917,-0.052440742021838994,-0.021130978425589638,-0.9991114812534682,-0.040319680673614196,-0.012270752946691724,1
197,39.43333333333334,-0.9991160724651029,-0.015633833569651194,0.039021237676733135,-0.9989642470013993,-0.01214345834251621,0.04385167764648362,1
198,39.63333333333333,-0.9991572064030685,0.0008368429165271743,0.04103872057885156,-0.9986084657293975,0.0014230444178168144,0.05271723739123672,1
199,39.833333333333336,-0.999355500733299,0.004373446003236897,0.03562942778314191,-0.9985725872020181,0.0029677131930266553,0.05332898618080065,1
200,40.03333333333333,-0.9993657179638133,-0.0214442466563564,0.028430723592857286,-0.9984224275720772,-0.025717950297676817,0.04991235471871333,1
201,40.233333333333334,-0.9987139691529067,-0.03935899032474058,0.03195743574606637,-0.9972477426205607,-0.04938232667393961,0.055302130614149396,1
202,40.43333333333334,-0.9990859528522444,-0.034466148765928004,0.025285240805025228,-0.997522692081631,-0.048395739196694515,0.05105224000787323,1
203,40.63333333333333,-0.9995559515780452,-0.016045275720709393,0.02510873935416903,-0.998049729377558,-0.03373916662471288,0.05252053241212572,1
