,timeStamp,x_gaze,y_gaze,z_gaze,x_head,y_head,z_head,fixations_head
0,0.033366700033366704,-0.9991348127124764,-0.031828275978694566,-0.0267691403341466,-0.9999460256045012,-0.006653003983250459,-0.007980188955267578,0
1,0.2333667000333667,-0.9971410744878869,-0.07438481017216317,-0.013288249877012128,-0.9995047971427276,-0.029275216688094866,-0.011537858403544926,0
2,0.43336670003336675,-0.9903188869655393,0.13494258777775628,-0.032542282083134554,-0.9997366987383276,-0.017525799149969136,-0.014811467177334975,0
3,0.6333667000333668,-0.988441188809736,0.1514194377539176,-0.007494673754314475,-0.9997375167775082,-0.004572074655059553,-0.02244980358243374,0
4,0.8333667000333668,-0.9917730181463819,0.12791229065101278,-0.0049725624407846135,-0.997714561998326,-0.06466443455182713,-0.01960009389214789,0
5,1.0333667000333666,-0.7259491238854885,-0.6877472684912475,0.0012506849004711236,-0.9555477834838282,-0.29479997678037845,-0.004626788241508686,0
6,1.2333667000333668,-0.6243549627437601,-0.780096257704486,-0.04038204071978967,-0.8999025365780575,-0.4356459044903978,-0.01969950662126136,1
7,1.4333667000333667,-0.6480145830087538,-0.7600722976808388,-0.048653905353643494,-0.8786795480110823,-0.47658086398057736,-0.028159048182893852,1
8,1.6333667000333667,-0.6609682074673188,-0.7494227080176604,-0.03855688557075352,-0.8772116752511855,-0.4773021100238716,-0.051791626444522176,1
9,1.8333667000333667,-0.6726439027774945,-0.7385841163528846,-0.04520711368235292,-0.8720535649237842,-0.4854173724940802,-0.06239033887279955,1
10,2.033366700033367,-0.6924690604154093,-0.7201011716394761,-0.04405568034719039,-0.883870078923936,-0.4596838846437998,-0.08639681580811495,1
11,2.233366700033367,-0.7521562107533549,-0.656885093473303,-0.052564328186758304,-0.9175516178436313,-0.3868524479944556,-0.09189239399010275,1
12,2.433366700033367,-0.7633971173123254,-0.6405572673560069,-0.08313379888250481,-0.9428443208256193,-0.3306304169283134,-0.041570591632628835,1
13,2.633366700033367,-0.7565782665733394,-0.645485958004535,-0.10458109087138541,-0.9441091970369695,-0.32786547849391123,-0.0340888850238242,1
14,2.833366700033367,-0.756938022963568,-0.6450982340005641,-0.10437000470134286,-0.9460193928269067,-0.32272112789146734,-0.029973021333696934,1
15,3.033366700033367,-0.7826973809508897,-0.6118413101090894,-0.11417101688524468,-0.9593915224190822,-0.27891213297378464,-0.04214177013854537,1
16,3.233366700033367,-0.8114319897779722,-0.5723499118758808,-0.11829498865392717,-0.9724816027760943,-0.22903132699011935,-0.04271046147238194,1
17,3.433366700033367,-0.8266123470086721,-0.5481706581607205,-0.1273615220718465,-0.9783916792904048,-0.20101814517412397,-0.04838829616814906,1
18,3.633366700033367,-0.8341721247485515,-0.5402250245782396,-0.11096751376834536,-0.9812189706844344,-0.17518107152646703,-0.08075223679761533,1
19,3.833366700033367,-0.8506041750686941,-0.5042877894735079,-0.1488837222251969,-0.9869560411229346,-0.14278020517674508,-0.07437463210417472,1
20,4.033366700033366,-0.8625044394262624,-0.4751411053184424,-0.17414655324397887,-0.9923722059287194,-0.1012152669219349,-0.07037666262397461,1
21,4.233366700033367,-0.8626543600408437,-0.4733112234098319,-0.1783365943849176,-0.9939711092319456,-0.09291769356687325,-0.05820426302624484,1
22,4.433366700033367,-0.8494127915818093,-0.49821190072303445,-0.1740195721036549,-0.9913608631180801,-0.11691688480877385,-0.059448138106985494,1
23,4.633366700033367,-0.8333891483284396,-0.5224265957619904,-0.180369009225355,-0.9868248276990805,-0.14339087297714956,-0.07493875488377873,1
24,4.833366700033367,-0.8248462502488709,-0.5355719210387168,-0.18108390553905002,-0.9829734352169914,-0.16398445704705097,-0.08289947831374596,1
25,5.033366700033366,-0.8256602526057238,-0.5333702300426797,-0.18385142091175502,-0.9817503851065261,-0.16632955600534546,-0.09219902462744588,1
26,5.233366700033367,-0.8431998156745066,-0.5047457881057154,-0.18505610023994992,-0.9864058461583107,-0.13862775015222914,-0.08823748382880309,1
27,5.433366700033367,-0.8681918051664343,-0.45733579916885175,-0.19257973995318478,-0.9911937795775274,-0.08985472769252138,-0.09726777080882934,1
28,5.633366700033367,-0.879819893015607,-0.3501969025415843,-0.32137063541071437,-0.9918758944372347,-0.012681570125543187,-0.12657562092870295,1
29,5.833366700033367,-0.9015056653660316,-0.2841106167707137,-0.3264486066000485,-0.9890105551411286,0.06129304643067138,-0.13454101337021573,1
30,6.033366700033366,-0.9244283360219194,-0.21005432089250595,-0.31829142909310915,-0.983232949148126,0.13471281611877184,-0.12290412882742731,1
31,6.233366700033367,-0.9271295585749459,-0.1945381597611792,-0.3202900029869177,-0.9809774737294559,0.14303336423844926,-0.1312427245602814,1
32,6.433366700033367,-0.9262779382060493,-0.2251800402597414,-0.30216407903880915,-0.9867319448613587,0.1169444738026035,-0.11262352790226701,1
33,6.633366700033367,-0.912465493301547,-0.2872269200576103,-0.29138877797228896,-0.9935174184239612,0.052552438839881456,-0.10080367285058743,1
34,6.833366700033367,-0.9077208111480308,-0.31630657165087495,-0.2756684271715408,-0.9956390711068838,0.02088570027831572,-0.09092099652613823,1
35,7.033366700033366,-0.9497019869572914,-0.2686197636166878,-0.16096446366787703,-0.9959721505633856,0.03547583639277376,-0.08234646522090525,1
36,7.233366700033367,-0.9573865213670897,-0.2611923595615656,-0.12324609531861573,-0.9953402229693784,0.07037570917013398,-0.06591737326432774,1
37,7.433366700033367,-0.9659369842686699,-0.23439202662590555,-0.10966366889789986,-0.9909791095452666,0.12297469582399581,-0.05326939676649704,1
38,7.633366700033367,-0.9118347495336235,0.3987180436540893,0.09788417240601123,-0.9778335913119408,0.20554312409075223,-0.03991856511707588,0
39,7.833366700033367,-0.8762020906787784,0.4817314544176587,-0.01430741467859419,-0.9195505645915991,0.38864919228589295,-0.05812542038380932,0
40,8.033366700033367,-0.8387634839402244,0.5444122389487012,-0.00954631296988902,-0.8083810804340505,0.5843351762597692,-0.07122099817990016,0
41,8.233366700033368,-0.8002464237417231,0.5987760529792938,0.03275514718514763,-0.635668588264593,0.7691878176743598,-0.06538766730091523,0
42,8.433366700033368,-0.11916110797421542,0.9927817661881668,0.013601289301454048,-0.29000693312848674,0.9540882178431951,-0.07491095587566536,0
43,8.633366700033367,0.2591600959116658,0.9654694867336552,-0.0265464663054986,0.11113255596219995,0.9909249347698031,-0.07561301909572275,0
44,8.833366700033368,0.7461593192839782,0.6590634189487319,-0.09424266575855551,0.4887883573498608,0.8687344689054969,-0.07991473114957692,0
45,9.033366700033367,0.875745721221261,0.4826014967752016,-0.012854068343868562,0.7916729724069979,0.6053518273008273,-0.08248072468048821,0
46,9.233366700033368,0.9993996392828391,0.031224150546355186,-0.01501377447511452,0.9777707744692871,0.19630881794192476,-0.07366926490725145,0
47,9.433366700033368,0.9025380579124476,-0.4265707799954676,-0.05884236291725779,0.9793508385522409,-0.18682888988592417,-0.0772457178814188,0
48,9.633366700033369,0.9162445070511724,-0.40061195202877065,-0.0024631667122240806,0.9309621887127241,-0.358192386996554,-0.07076451854514261,0
49,9.833366700033368,0.9763511502282042,-0.21562679428581608,0.01560503233208098,0.9863860399441773,-0.15239918362032964,-0.061782433062330645,0
50,10.033366700033367,0.48688755941527107,0.8723540187246391,-0.04403374276180319,0.8748838322010759,0.4788164758513299,-0.07289075803195154,0
51,10.233366700033368,0.1108677898167773,0.9887518949102717,0.10038935945851293,0.27151371477927094,0.9610279083853102,-0.05201597823089328,0
52,10.433366700033368,-0.5342316867652066,0.8418612678014876,0.07659053878694431,-0.4673790579753283,0.883886464348567,-0.017364743231154785,0
53,10.633366700033369,-0.989163784969328,0.14677704583012338,0.0033919496657359638,-0.8602431706827885,0.5098821886195116,-0.0013568427320296097,0
54,10.833366700033368,-0.9645095218465456,-0.2564992435616883,-0.06268588612782044,-0.9809342446290943,0.1943395752931061,-0.0003703901234093681,0
55,11.033366700033367,-0.9237935253690281,-0.3828899268251418,0.0009090776097910777,-0.9973194198514753,-0.07253182173186182,-0.009649332794269959,0
56,11.233366700033368,-0.878591261102396,-0.47739878263404834,0.012953696539218018,-0.9651358335918222,-0.26046459345966044,-0.02590402036195439,0
57,11.433366700033368,-0.6715039767565756,-0.7398350790120952,-0.04155075286045691,-0.9184547210495421,-0.3948703175929797,-0.022767469464726624,0
58,11.633366700033369,-0.5402301834961328,-0.8415131591622085,-0.00263662598302587,-0.8388350661893232,-0.5443820618448759,-0.001975467710601212,0
59,11.833366700033368,-0.46020592390527354,-0.8877811462358215,-0.007425899992915425,-0.7467272900640118,-0.665091567111842,-0.007180642754748355,0
60,12.033366700033367,-0.399748089242285,-0.9154979882311429,0.04544115636592733,-0.655471901637223,-0.7550635986720496,-0.015347577153958718,0
61,12.233366700033368,-0.4040040992649453,-0.9141568854000641,0.03313422177709843,-0.5120940632629303,-0.8586791881264517,-0.020729743108875168,0
62,12.433366700033368,0.10944680840052612,-0.9937860298924599,-0.02026630014386963,-0.33103228356381126,-0.9430026561265686,-0.03411184217782347,0
63,12.633366700033369,0.2527163530978763,-0.9672271547825296,-0.024618609388066214,-0.1814321516566979,-0.9826548031236475,-0.0383655085102077,0
64,12.833366700033368,0.1534408763104782,-0.9880038666934144,-0.01744296064132563,-0.2764578516338528,-0.9605432901065779,-0.03045725038845965,0
65,13.033366700033367,-0.6841026870894354,-0.7290261519546082,-0.022899416657867693,-0.5199905047264363,-0.8531893207399542,-0.04096166463465471,0
66,13.233366700033368,-0.9036538998595749,-0.42809348915641393,-0.01206622602427404,-0.7485103793512369,-0.6603252480662224,-0.06085046236266029,0
67,13.433366700033368,-0.940908026104476,-0.33710914772744366,-0.03239612524138667,-0.8752707522957638,-0.48059362349371265,-0.054137595373189455,0
68,13.633366700033369,-0.9613451442021799,-0.2578635049009687,-0.0965501245938003,-0.9115105569813584,-0.4056558307756684,-0.06776320143880618,0
69,13.833366700033368,-0.9687900362056971,-0.19545641214653364,-0.15245542528676537,-0.9336349792354868,-0.3446066449940318,-0.0978365257657369,0
70,14.033366700033367,-0.9734554945527218,-0.14946587286933966,-0.17333306947181976,-0.9517459739826369,-0.28451783471565667,-0.11501827131615396,0
71,14.233366700033368,-0.9392277019651238,-0.2573778518440258,-0.2271738656656341,-0.9676938691190147,-0.20611648726409626,-0.14520526625223,0
72,14.433366700033368,-0.9420206158542581,-0.2383039193620555,-0.23623801836759295,-0.9765208384704767,-0.14917395696816585,-0.15541615937661488,0
73,14.633366700033369,-0.9537552969561942,-0.2023971190967273,-0.22223015031571877,-0.9862046660525505,-0.0768350415582002,-0.1466176423385916,0
74,14.833366700033368,-0.9795211611002618,-0.1880000013068673,-0.07207145388719047,-0.9906726801996918,-0.01634268080482694,-0.13527955311158846,0
75,15.033366700033367,-0.9830493585959317,-0.16992587868992923,-0.06884151593030818,-0.9920401111874783,0.020219693172730792,-0.12428830115154371,1
76,15.233366700033368,-0.9962633763954315,0.03809973316415124,0.07750932321982874,-0.9949142329879272,0.05312066991443863,-0.08557957364865594,1
77,15.433366700033368,-0.9948423249115339,0.06052435801973224,0.08139748553188123,-0.9935422251199282,0.09538058199620736,-0.06145235131227439,1
78,15.633366700033369,-0.9925809539590197,0.06200475578824605,0.10458709335975705,-0.992087797824789,0.12226035464770332,-0.02853431423003672,1
79,15.833366700033368,-0.9667542486417007,0.22468829288166492,0.12207126514927166,-0.9890931879322422,0.14582627715137,-0.020721063635983042,1
80,16.033366700033366,-0.9799676083584952,0.18079947213115075,0.08351668962086746,-0.9903348329125549,0.1383960343770391,-0.009135446829356027,1
81,16.233366700033365,-0.9474246447028367,-0.31471339735329057,0.05781020788799659,-0.9959248477667937,0.09002116755184256,-0.005466899788014911,1
82,16.433366700033368,-0.94528412297297,-0.32494932615546096,0.029083711701477544,-0.9993180068821488,0.03690119774349172,0.0013500837699990443,1
83,16.633366700033367,-0.9342705398279968,-0.3561030252967252,0.018143698190373876,-0.9999926616584678,-0.0005764508589263029,0.00378739140050403,1
84,16.833366700033366,-0.938068828511847,-0.34590361441331785,0.019430967814649605,-0.9999265877539415,-0.0036292287668167962,0.011560614227510974,1
85,17.033366700033366,-0.9380957726764145,-0.3460347171966985,0.015371915340717968,-0.9998560775198919,-0.011587252838163729,0.012391925524313709,1
86,17.233366700033365,-0.9391988355412147,-0.3430868525488591,0.01403420557579621,-0.9999629520387465,-0.007836140471744578,0.003562225773660064,1
87,17.433366700033368,-0.9876796749926317,0.1365537823261696,0.07643248091529427,-0.9996371989791797,0.02691793001835344,0.0009462877928725143,1
88,17.633366700033367,-0.9781591884156288,0.20534021795040402,0.03224898463764755,-0.9986357137398824,0.051924978262929834,-0.005523393488643486,1
89,17.833366700033366,-0.9507099458099509,0.30904280645452403,0.025360258609723223,-0.9947658819870662,0.10189766386188735,-0.0075964553565510615,1
90,18.033366700033366,-0.9505619978927475,0.3077143150974357,0.041758693062221484,-0.9922956377651369,0.12373657897432944,-0.006215005712797105,1
91,18.233366700033365,-0.9994713285293995,-0.02852784836035472,-0.01559568259506149,-0.9955287790522559,0.0940507213495392,-0.008769942551468355,1
92,18.433366700033368,-0.9659881380616744,-0.2576818709502124,0.021609500404634302,-0.9987078115002541,0.05080795884849911,-0.0011218582896528203,1
93,18.633366700033367,-0.9250564996318091,-0.3798065761756837,0.004175785273415723,-0.9997151056502747,0.02196300571058881,0.009345261623788681,1
94,18.833366700033366,-0.9234968423447465,-0.38360525734756157,0.0007672773903598015,-0.9998669721320363,0.01456079838692129,0.007349910873563104,1
95,19.033366700033366,-0.9289356016813276,-0.36599795320959816,-0.05589406207581495,-0.9997896638225849,0.002758889272601711,0.02032281091542078,1
96,19.23336670003337,-0.9202216758153595,-0.38829462697290085,-0.049186888736198725,-0.9994199328998589,-0.02280030191186167,0.02529711357387927,1
97,19.433366700033368,-0.9237083480025259,-0.3816781719483924,-0.0329341902675378,-0.9995779918277659,-0.018073375312466864,0.022741841578599917,1
98,19.633366700033367,-0.9237775329143264,-0.3826570135939323,-0.014445747820513678,-0.999386047290939,-0.01815071812154506,0.02996798144461929,1
99,19.833366700033366,-0.9351665115451381,-0.35366313791328957,-0.019646388111384434,-0.9997170952729055,0.008218153828638134,0.022320200867232052,1
100,20.033366700033366,-0.9443924314756861,-0.32848855178213937,-0.014771821807569875,-0.9991793746212786,0.03578379171662571,0.01897623729330782,1
101,20.23336670003337,-0.9541965046204659,-0.2986706466190382,-0.017460682067174743,-0.9981720271920727,0.05782669626275422,0.017569215423681273,1
102,20.433366700033368,-0.9617182626041745,-0.273691879564561,-0.013810808594211462,-0.9968244490991659,0.07730118601605417,0.019119213337792366,1
103,20.633366700033367,-0.9678718374756637,-0.25082371003712145,-0.017651422172075357,-0.994968745522429,0.09893990827413497,0.015750872491069857,1
104,20.833366700033366,-0.970654825016471,-0.23890537002222317,-0.027448767673408796,-0.9936170141495712,0.11216063693915035,0.012050755739591483,1
105,21.033366700033366,-0.9703064294716613,-0.24185862819997828,0.003136381861446377,-0.9914345567505071,0.12951923548880737,0.016801408254101046,1
106,21.23336670003337,-0.9904882036591941,-0.1366657317577154,0.015987375491647218,-0.9888408027336119,0.14854538903318354,0.011319639840847788,1
107,21.433366700033368,-0.9996910349314512,-0.018670915631470525,0.01640827800735681,-0.9878881848068587,0.1551351029374416,-0.003167673531074545,1
108,21.633366700033367,-0.9892257711257815,-0.07664497174958214,0.12473139959973718,-0.986617671632353,0.1620760429184249,-0.017802424965716896,1
109,21.833366700033366,-0.9877792186452363,-0.15581477247697437,0.0037378992168254567,-0.984845631653704,0.17299024755875037,0.012387738380316034,1
110,22.033366700033366,-0.9341561079555178,-0.29666133259203625,0.19835427828538668,-0.9908472503804205,0.13418289803428535,0.01471992828383168,1
111,22.23336670003337,-0.9304882676637225,0.29899634707347406,-0.21164302061935164,-0.9927369028144484,0.1194809982446783,0.014061751271882361,1
112,22.433366700033368,-0.9905202107790365,0.1094635379523409,0.08299063740693433,-0.9914405429904148,0.13000883521080325,0.011972989685194975,1
113,22.633366700033367,-0.9878090219106058,0.14361376661367073,0.060070144589857474,-0.9888507160606469,0.14884915236039947,0.004265112886751272,1
114,22.833366700033366,-0.97819177841665,-0.1965179130331821,-0.06724250512254033,-0.9888595775519636,0.1487576482297412,-0.005281853548640447,1
115,23.033366700033366,-0.9730076200659623,-0.22099352590359805,-0.06646828418326901,-0.9914252312994436,0.13025549207391074,-0.01046506222762181,1
116,23.23336670003337,-0.9690775349329132,-0.2432139030168164,-0.041662077092665915,-0.9931461076295189,0.11637758709475383,-0.010819709900881642,1
117,23.433366700033368,-0.9661931450816073,-0.25117157098671716,-0.05816913550480927,-0.9947539776255946,0.10118208147092876,-0.015056904969768066,1
118,23.633366700033367,-0.9654923393286561,-0.2521210606748533,-0.06526494818711416,-0.995279469600901,0.09626247776503412,-0.012341505803010218,1
119,23.833366700033366,-0.97087332801838,-0.2357089282643414,-0.0429683846448866,-0.9934274086951511,0.11413030033919709,-0.008732593985894857,1
120,24.033366700033366,-0.9762476362969184,-0.21410704590932447,-0.033147028775777874,-0.9902260154936849,0.1390070830221839,-0.01137844933039864,1
121,24.23336670003337,-0.9546132224612214,-0.29097421375527327,0.06362077044254905,-0.9873846874147048,0.157569468200826,-0.01559941504911758,1
122,24.433366700033368,-0.971143820267871,-0.2384842890733941,0.0022190585127826023,-0.9900141485718217,0.1403313896188562,-0.01338232846899066,1
123,24.633366700033367,-0.9722773003561481,-0.23233578548010753,-0.02639950752385804,-0.9912263517211025,0.13135075335974136,-0.014741073417563071,1
124,24.833366700033366,-0.9740302706319437,-0.22524687366127855,-0.022997343291839167,-0.9912418180250956,0.13191567039823854,-0.006157442787970377,1
125,25.033366700033366,-0.9718237373906797,-0.234925713949609,-0.019197196911998893,-0.9936481999363994,0.11252920783143117,0.0006573796346317027,1
126,25.23336670003337,-0.9755256702681594,-0.219681431132768,-0.009472880412911205,-0.9933624103117951,0.11494306950067813,0.0043832126692101864,1
127,25.433366700033368,-0.9778573749296581,-0.20927201801592432,-0.0004204416976868645,-0.9930537323411905,0.1176054858080014,0.0036379102649093556,1
128,25.633366700033367,-0.9804087656610357,-0.1969666881849724,0.0016661213786228434,-0.9919980894238479,0.1262338011251654,0.0021950018058392385,1
129,25.833366700033366,-0.982535703748291,-0.18607408625541022,-0.00015900963695542967,-0.9910055244379198,0.13381917000760968,-0.0006930165929374367,1
130,26.033366700033366,-0.9844835348959403,-0.17542013122413266,-0.00446621541148401,-0.9897677641229901,0.14263256150146783,-0.003965539371548379,1
131,26.23336670003337,-0.9104880714462917,-0.41216927654472374,-0.03358510423702163,-0.9875441997838563,0.1572703109724205,0.004743707400463039,1
132,26.433366700033368,-0.9765921350564214,-0.21335619204140088,-0.02733014935072559,-0.9906043418939467,0.13633993246055076,0.0106986278331964,1
133,26.633366700033367,-0.9752453284343908,-0.22015668087410875,-0.020678134185493247,-0.9918488173823956,0.12569229894052047,0.020913379549714985,1
134,26.833366700033366,-0.9747419358196849,-0.22333271101370908,-0.0008116315422873084,-0.991803962409963,0.12327901094084533,0.03357358499391832,1
135,27.033366700033366,-0.9740105771899021,-0.22618471737029686,0.011994546690595782,-0.991995723942895,0.11844744665145447,0.0437571258284017,1
136,27.23336670003337,-0.9736570272292141,-0.2262859544935593,0.0280474620261593,-0.9911772552996121,0.11741126499021753,0.061499946586355415,1
137,27.433366700033368,-0.9699787107234564,-0.24064935841389062,0.03505976380759385,-0.9921033474562673,0.10491593654659052,0.06872840915241023,1
138,27.633366700033367,-0.9598215083232192,-0.2767957339154505,0.04611717517745142,-0.9945023508298318,0.07165732502281226,0.07635641403650088,1
139,27.833366700033366,-0.9436347191931105,-0.32832873414308517,0.04187790669719722,-0.9970500071500975,0.026873940903497446,0.0718962762756614,1
140,28.033366700033366,-0.9291752889038838,-0.3681324582820459,0.03334329992069944,-0.9974114647889942,-0.015876971160185098,0.07013053325229791,1
141,28.23336670003337,-0.9542543445925675,-0.2875120199021332,0.0820699959668866,-0.9976376126660613,-0.017026840180624437,0.06655283996513664,1
142,28.433366700033368,-0.9493149415656593,-0.29835046006686555,0.09893505292907481,-0.9979863899700565,0.004590131084208833,0.06326212240483746,1
143,28.633366700033367,-0.9539412257677016,-0.2879458924835742,0.08416234777293742,-0.9982904824468077,0.010771318604852144,0.057446421573781985,1
144,28.833366700033366,-0.9894370479764415,-0.13561449585814894,0.051215589470443176,-0.9982353733229221,0.02386187732991463,0.05437600810227592,1
145,29.033366700033366,-0.9881458542271782,-0.14281962440842336,0.05630564498767041,-0.998442607278438,0.01874634311957399,0.05254459620815651,1
146,29.23336670003337,-0.9439559454781722,-0.3064868688991608,0.12252743443326883,-0.9977740698171798,0.016916325049945176,0.06450382583433717,1
147,29.433366700033368,-0.9372564514661299,-0.32197425610149305,0.13372704510684466,-0.9975624495212613,0.0026836117593997243,0.06972773862005004,1
148,29.633366700033367,-0.9393349571371064,-0.31844794141696414,0.12743918905708826,-0.9974733308000082,-0.010788342437900193,0.07021798922057154,1
149,29.833366700033366,-0.9638052416918532,-0.26263308060842805,0.04586197834192642,-0.9971978492293894,-0.03655105459531729,0.06527227512696739,1
150,30.033366700033366,-0.9515105605031497,-0.29655740729931396,0.08173957075303681,-0.9966028530316632,-0.05976502746443791,0.05666475819523691,1
