,timeStamp,x_gaze,y_gaze,z_gaze,x_head,y_head,z_head,fixations_head
0,0.033366700033366704,-0.9549949665416403,-0.0014863028418096035,0.29661828127071643,-0.9068833866180923,0.03825303478946834,0.41964178581916184,0
1,0.2333667000333667,-0.9551137145718113,-0.0018491857678218857,0.29623364553816833,-0.9155537835796825,0.038823018226305316,0.4003174273357677,0
2,0.43336670003336675,-0.9830560081122011,0.06560710756061731,0.17116247355081557,-0.9462808818844269,0.043676015239701625,0.32038242503734915,1
3,0.6333667000333668,-0.9862513944982713,-0.011699198530132848,0.16483723973655912,-0.9574014356139123,0.01904070688160902,0.2881318145673407,1
4,0.8333667000333668,-0.9861653937052615,-0.036530631197449925,0.16168898924312214,-0.9658254508732596,0.01519378508757245,0.258747651854423,1
5,1.0333667000333666,-0.9894911200192616,-0.03854267785848102,0.13936206580890184,-0.9755486898255835,0.018618454881519787,0.2189933946890012,1
6,1.2333667000333668,-0.9913977438883049,-0.046599786638351175,0.12230688164792397,-0.9819536195456551,0.009475700629178544,0.1888843565750567,1
7,1.4333667000333667,-0.9012189796520269,0.25406428631197,0.35107789610818463,-0.9788109698407944,0.029212934100843857,0.20267138377319924,1
8,1.6333667000333667,-0.905435787855926,0.258916128384917,0.33637549335806827,-0.9804935709363668,0.03916905990950241,0.19260877990958306,1
9,1.8333667000333667,-0.9319266861668443,0.3626461229697956,-0.0006641574059687695,-0.9796162868081055,0.06874366160774402,0.18874914465782203,1
10,2.033366700033367,-0.9301798997802548,0.36709678278789104,-0.0023034998536120336,-0.9793887808123182,0.08067817742513951,0.1851719409260456,1
11,2.233366700033367,-0.9754542422752294,-0.033664117016314096,0.21761375979650355,-0.9811597249673749,0.06697995745436484,0.18121611242203836,1
12,2.433366700033367,-0.9686543212808902,-0.04867190080788282,0.24359772563717733,-0.9814251436461455,0.04490750842362742,0.18651542323980821,1
13,2.633366700033367,-0.964123690161758,-0.10642762164128067,0.2431844391005622,-0.9813989993385621,-0.011743092972535006,0.1916196854832696,1
14,2.833366700033367,-0.9088579367001556,-0.3007182719684805,0.28904285461057044,-0.9706881590103127,-0.10496838376525214,0.21620854832055197,1
15,3.033366700033367,-0.9496877581870572,-0.11059303562078433,0.2930227677533295,-0.9527916856039449,-0.20365605730522396,0.2251937258603908,1
16,3.233366700033367,-0.9636055319326393,-0.04684630867644136,0.26319156937904953,-0.9562666064996337,-0.19157571670247242,0.22102697134876842,1
17,3.433366700033367,-0.9674121000718802,-0.03674656518243951,0.25052648279534717,-0.960935604548522,-0.18091466485095734,0.20945798612808478,1
18,3.633366700033367,-0.947532121287693,-0.21075060908756477,0.24034778945783064,-0.9631747314955743,-0.16917994318840304,0.20897986369791102,1
19,3.833366700033367,-0.8588599063583875,-0.48839554548474556,0.15436791247121268,-0.9478418501679927,-0.24637000245576313,0.20223167150588445,1
20,4.033366700033366,-0.7759004716406372,-0.6307454674860853,-0.011773417243811994,-0.9086814829660237,-0.37733874005539547,0.17864332556262746,1
21,4.233366700033367,-0.7603800026393862,-0.6491306961531011,-0.021250668175790022,-0.8770306476373955,-0.45318660379414216,0.15949653678454057,1
22,4.433366700033367,-0.7591488287527228,-0.6508333349257504,-0.01044154934841696,-0.854910830016261,-0.49207470965487954,0.1642861918694742,1
23,4.633366700033367,-0.7741751633559586,-0.632853608895482,0.012211721858101968,-0.8488088494354064,-0.49437283665505477,0.1874007350513236,1
24,4.833366700033367,-0.7933341415533088,-0.6086670221310524,0.012058027035617345,-0.8543994963126209,-0.48321433031334643,0.1910638942358385,1
25,5.033366700033366,-0.9283371528544077,-0.3707133765811825,0.027599330679397467,-0.8674504007383812,-0.46311579856703916,0.18180637881118214,1
26,5.233366700033367,-0.94187777104636,-0.3355652644235499,0.016193138086667606,-0.8827669195416928,-0.4402047445677886,0.1641412459526199,1
27,5.433366700033367,-0.9606683810140169,-0.2772619999392333,0.015557798996135923,-0.9089130182992957,-0.3845651727899358,0.16120407266291703,1
28,5.633366700033367,-0.9753421654284995,-0.22063772621676775,0.005162761580826234,-0.9288626705981289,-0.33665150820407974,0.15453123047860182,1
29,5.833366700033367,-0.9789652709328879,-0.20395364500927937,-0.00546891165828444,-0.9385243351650674,-0.31237710960281617,0.14694425371261668,1
30,6.033366700033366,-0.9852406033025531,-0.17084085816945346,-0.01069367962611858,-0.9521296813722009,-0.2707370977233961,0.14195243487303727,1
31,6.233366700033367,-0.9692737738886071,-0.23816789756811502,0.061517508237260585,-0.9556643373626008,-0.2576835865570414,0.14249506487033414,1
32,6.433366700033367,-0.966015994654111,-0.244866236248577,0.0827866197998506,-0.9538337451592476,-0.26127288333332627,0.1481136962950224,1
33,6.633366700033367,-0.9643501507027704,-0.2483749443224532,0.09131633956944528,-0.9515227366678926,-0.26775555952863417,0.15136526003529543,1
34,6.833366700033367,-0.937820181532292,-0.07109383638179033,0.33976311385913904,-0.9532785856436458,-0.2585303539519311,0.1562753795027852,1
35,7.033366700033366,-0.9412760834306207,0.007676739859670686,0.33755059239562646,-0.9727398640059076,-0.1576901667155811,0.17003225663085433,1
36,7.233366700033367,-0.9831425855152816,-0.08787148540890567,0.160341069593413,-0.9811316299358721,-0.08874249597721322,0.17177163370915888,1
37,7.433366700033367,-0.987131215938966,-0.08846047233695287,0.13321676828681164,-0.9843638449417087,-0.07413779041143546,0.15978550874370887,1
38,7.633366700033367,-0.9855062599742115,-0.09684511110284948,0.13927826825143547,-0.9824313827222984,-0.07992979248719925,0.16864105821331477,1
39,7.833366700033367,-0.9818801584610117,-0.11908499980415602,0.14741138776303067,-0.9782901483074662,-0.1063309959318053,0.1778822785684573,1
40,8.033366700033367,-0.978334991877157,-0.13730321188333997,0.15494667365013626,-0.9734447050822039,-0.1331767954431408,0.18619706577418854,1
41,8.233366700033368,-0.9773579696866229,-0.15364942755583905,0.14547595162708354,-0.9701849438792038,-0.16184390747592442,0.1804098785627624,1
42,8.433366700033368,-0.9286503118237246,-0.34171313830936473,0.1443631859459479,-0.9575806001579963,-0.2256117362660889,0.17927280513243693,1
43,8.633366700033367,-0.5882887976403058,-0.8068630124141094,0.05374355560392598,-0.8383385061233376,-0.5170792897618511,0.17267761073824878,0
44,8.833366700033368,-0.5097279938721131,-0.8584415336998019,0.05705703709660343,-0.722249070999802,-0.6756285372178816,0.14792687090839407,1
45,9.033366700033367,-0.45019873841446273,-0.8926352572740418,0.022877792754798496,-0.6520637750611614,-0.7469454920897088,0.12994331494867184,1
46,9.233366700033368,-0.46507976123199823,-0.8846858667528407,0.032120598689356426,-0.6396885423226442,-0.7585914545412117,0.12384495919568031,1
47,9.433366700033368,-0.46374860132042106,-0.8849398516407453,0.04264614579781707,-0.6270963094364083,-0.7691612128783621,0.12304977567929028,1
48,9.633366700033369,-0.4942348640527369,-0.8677937870666595,0.051631795274596264,-0.646978403774868,-0.7519080175287741,0.126701532054165,1
49,9.833366700033368,-0.647074653551321,-0.7215946349616296,0.2461616857393345,-0.6822390012449103,-0.7192386297432501,0.13132303174005303,1
50,10.033366700033367,-0.8899300264197034,-0.24837863419304432,0.3825344457078654,-0.8123851014292736,-0.5620741532403941,0.1552517092815505,0
51,10.233366700033368,-0.9524633651064576,-0.18821185406028476,0.2395617584700722,-0.8995966166076448,-0.4067649307107459,0.1589598016228004,0
52,10.433366700033368,-0.9526868746931973,-0.1241907718128151,0.2774245320512324,-0.9364941851007037,-0.300582878633671,0.1806338128503753,0
53,10.633366700033369,-0.9254945303339712,0.09269455980293693,0.36724323398102526,-0.9505593170815061,-0.19786196740258666,0.23934833729340718,1
54,10.833366700033368,-0.9293938333593913,0.18999430391781558,0.3164320890686042,-0.9526590646930867,-0.09820233166351003,0.287744693285459,1
55,11.033366700033367,-0.9372737760316501,0.18185362816645345,0.29740061648569166,-0.9538301299656855,-0.060287617290069095,0.29423372745341425,1
56,11.233366700033368,-0.946727243451803,0.15953306582800997,0.27974403910301043,-0.9567852215702277,-0.05925731509031097,0.28469388892826286,1
57,11.433366700033368,-0.9658969127895518,-0.07521397798286157,0.24776200552063363,-0.958812628858013,-0.06544711142238922,0.27639648758414453,1
58,11.633366700033369,-0.9676758799350003,-0.07010315077506075,0.24225800222785773,-0.9611385978956282,-0.04885207721954071,0.271709532748783,1
59,11.833366700033368,-0.9681436877356677,-0.05668231866804321,0.2438952944359458,-0.9618119533730379,-0.027608802849942122,0.2723151122393573,1
60,12.033366700033367,-0.9715397101002575,-0.05601280260484769,0.2301589834063811,-0.9649222076080457,-0.02009302401852225,0.26176593294507705,1
61,12.233366700033368,-0.9710119427143133,-0.04269280230537591,0.2351874395827492,-0.9632892981062156,0.0016086463138927408,0.26846068690046887,1
62,12.433366700033368,-0.9714542803221342,-0.03908783079286496,0.23398444975620153,-0.9631895307018202,0.010563475561691838,0.2686156006833284,1
63,12.633366700033369,-0.9679538639188877,-0.06964812919559604,0.24127671960644967,-0.9606327915434337,-0.014799005172072693,0.2774267998182348,1
64,12.833366700033368,-0.9651166322351459,-0.0740818180546175,0.25112102742863396,-0.9576304242530467,-0.01510720249190605,0.28760344743726324,1
65,13.033366700033367,-0.9633797967744999,-0.08216421942008953,0.2552418621891999,-0.9556704569487053,-0.02323770239838335,0.29351999404247875,1
66,13.233366700033368,-0.9624917176738779,0.0846202732025073,0.2577772347829061,-0.955443982770567,-0.04076463059883457,0.2923440450559187,1
67,13.433366700033368,-0.9675907260592561,-0.08433970650382122,0.23802310969939797,-0.9567235938504279,-0.05486592435010168,0.28577910230653764,1
68,13.633366700033369,-0.9696004173878194,-0.09239811897784636,0.22657806206851197,-0.9604596402601802,-0.05927498205290886,0.272036313630943,1
69,13.833366700033368,-0.9694479066759769,-0.10885705589645245,0.21982014835570204,-0.9620510329733185,-0.08230672807472353,0.2601603591414435,1
70,14.033366700033367,-0.9678572864618249,-0.11126210803497157,0.2255504740814517,-0.96075279147977,-0.09407544076645237,0.26096721079175395,1
71,14.233366700033368,-0.9518027430568385,-0.20041590778052656,0.23217450811401577,-0.9420467048648715,-0.20538189694247566,0.26526643636455133,0
72,14.433366700033368,-0.6745531939830784,-0.7306370112216981,0.10558194126010134,-0.838505575778069,-0.4890169842190527,0.2403555460861933,0
73,14.633366700033369,-0.48196815982597363,-0.8750678391589101,-0.044305414835219346,-0.7633626153011464,-0.6086880876900486,0.216278361064685,0
74,14.833366700033368,-0.487638361266739,-0.8723649878775984,0.034469646740388424,-0.6675493662735742,-0.7180175212402432,0.1970499499613403,0
75,15.033366700033367,-0.163626630088252,-0.9848528694478508,0.05736855816818904,-0.5899419999183351,-0.7845274289440617,0.19101086347843016,0
76,15.233366700033368,-0.09170383211824723,-0.9930424000021127,0.07387285680730205,-0.5233637700676708,-0.8308154959241415,0.1893039247159899,1
77,15.433366700033368,-0.11486195512294106,-0.9900583539694756,0.08118612566558646,-0.4714813901329791,-0.8662714706674288,0.16516366993368714,1
78,15.633366700033369,0.11572438552316949,-0.9694549787683956,0.21625196123146453,-0.4100422831184921,-0.8946671167527506,0.17730221729097165,1
79,15.833366700033368,0.11612239774801392,-0.9673722370572575,0.22518113533795328,-0.3949445115943065,-0.8983874573704644,0.19214267928018205,1
80,16.033366700033366,0.03935932990807678,-0.8847096651222758,0.4644778267995339,-0.4360918802515489,-0.8779161794225416,0.19770446096837774,1
81,16.233366700033365,0.01819190533341475,-0.8868976886800752,0.46160756535641884,-0.46035382273168457,-0.8628288735119547,0.20880778943903475,1
82,16.433366700033368,-0.0012117502596681873,-0.8770362497210419,0.48042267675096123,-0.46368792196738695,-0.8556286074763243,0.22998521058905647,1
83,16.633366700033367,-0.03362353976466137,-0.887052019412206,0.4604434519356546,-0.48554432362934696,-0.8417595366506888,0.2359821862957836,1
84,16.833366700033366,-0.05001626819392102,-0.878906385616156,0.4743647733960635,-0.49631734964831,-0.8285519553510517,0.25917319638038594,1
85,17.033366700033366,-0.07986837689454557,-0.8792197227978873,0.4696740586996876,-0.5155458600761946,-0.815889898793179,0.2617940778657019,1
86,17.233366700033365,-0.4774273000514963,-0.8116395621538728,0.33660718101699566,-0.5431628517281594,-0.8014964852583516,0.25015495322108355,0
87,17.433366700033368,-0.7130414948753203,-0.6944574256576859,0.09644019149124752,-0.5910394632302554,-0.7656645495188916,0.2538309486932676,0
88,17.633366700033367,-0.7488019653735819,-0.659827398215668,0.06263721910017674,-0.6829570804412437,-0.6923043990272941,0.23298979669210726,0
89,17.833366700033366,-0.7385684456695587,-0.6720447493055534,0.05359576468423659,-0.7682279778355535,-0.6078983583862281,0.2007121320250111,0
90,18.033366700033366,-0.9194181087465813,-0.383296056832974,0.08805949196510972,-0.86426021465996,-0.4665499661653568,0.18811010187394211,0
91,18.233366700033365,-0.9882925446650948,-0.14144025755421763,0.05720576633861467,-0.9246467794953257,-0.32534724494563994,0.19793307802185264,1
92,18.433366700033368,-0.9909792387161581,-0.12897536488266978,0.03640746746103068,-0.9484428059365629,-0.2533137865787461,0.19049506396837987,1
93,18.633366700033367,-0.9876527990301959,-0.15550706731835304,0.01896050057000381,-0.9540579887513175,-0.24285075576987286,0.17549035449788314,1
94,18.833366700033366,-0.9853880088606931,-0.17032460566970806,-2.6401085031903085e-05,-0.9554166084801973,-0.24387563891982075,0.16644451622581868,1
95,19.033366700033366,-0.9835499768386263,-0.17996796136409163,-0.01552339985926709,-0.956100450782612,-0.24741044503446183,0.15703502698804397,1
96,19.23336670003337,-0.9524116815300704,-0.011565767338504817,0.3045951770973002,-0.9584042389967307,-0.23159745108143404,0.16680508183409903,1
97,19.433366700033368,-0.9485299325397636,-0.008378878436085419,0.31657662812068865,-0.9593706064923606,-0.22376215723752102,0.17186778751962598,1
98,19.633366700033367,-0.9468359376708678,-0.011596404218792693,0.32150774569848717,-0.9577477522566747,-0.22325610373403318,0.18131727770068215,1
99,19.833366700033366,-0.9462020459866187,-0.012543391864260588,0.3233331895912895,-0.956015460530653,-0.2220107887920434,0.1916915462045685,1
100,20.033366700033366,-0.9467752612121579,-0.009449057640420078,0.3217566161967125,-0.9558491012187996,-0.21630833232705954,0.19890500512832637,1
101,20.23336670003337,-0.9501708568083757,-0.0029568751830617917,0.3117155751020298,-0.9581241345297524,-0.20520001151139447,0.19972755970906209,1
102,20.433366700033368,-0.9462479703211384,-0.07001917836783486,0.3157722174666731,-0.9594978332516144,-0.20234310718509727,0.19601320098436606,1
103,20.633366700033367,-0.9454678564315995,-0.16917175057659845,0.27833693837054063,-0.9605752257855125,-0.19616132598351432,0.19701768904212988,1
104,20.833366700033366,-0.9470531947533447,-0.16686134534341582,0.2743128464685329,-0.9620004645801475,-0.19567022973118708,0.19044229400142396,1
105,21.033366700033366,-0.9448755177490342,-0.16753127720754535,0.2813245938692583,-0.9599878854386805,-0.201525222370157,0.19445010815021394,1
106,21.23336670003337,-0.9460269324300257,-0.15531214105508737,0.28444890922258914,-0.9594022396596044,-0.20369835079680723,0.19507517632645227,1
107,21.433366700033368,-0.9506895051897516,-0.13768054360270737,0.2779092165354165,-0.9612651143801554,-0.2031679666852952,0.18625830770376225,1
108,21.633366700033367,-0.9538577425443222,-0.11627558230045142,0.2768309880575888,-0.9627387727561918,-0.20158819660086885,0.18026717511269522,1
109,21.833366700033366,-0.9952532368419111,-0.03369652326576365,0.09129917237028444,-0.9661498276039436,-0.18480873148315316,0.18000067607778056,1
110,22.033366700033366,-0.9922181704638388,-0.05427657078211842,0.11205871704390545,-0.9583188026746795,-0.21754816196577867,0.1851968403226157,1
111,22.23336670003337,-0.9803240363718736,-0.15046963431809002,0.12776412978507692,-0.9177248227010975,-0.34668644321354203,0.19388052994094873,1
112,22.433366700033368,-0.6761342602545849,-0.7115252180379336,0.19124415339052017,-0.6633347890545347,-0.7103182291864,0.23544632279029876,0
113,22.633366700033367,-0.07388381199441879,-0.9733459620098663,0.2171147635796831,-0.38940620591321934,-0.8940829954753141,0.2213106504399659,0
114,22.833366700033366,-0.10548991005796599,-0.9679009743169668,0.22812185952299552,-0.3308736805287865,-0.919819940184429,0.2108409001414292,0
115,23.033366700033366,-0.2649823997741975,-0.8744671382130456,0.4063145973200982,-0.3475919896022351,-0.9134996046955973,0.21141967974942044,0
116,23.23336670003337,-0.6282695013096553,-0.6446521586718575,0.43554681498529085,-0.6370523590882102,-0.7433786449473645,0.20384425921856789,0
117,23.433366700033368,-0.9604259501804056,0.2428759360035562,0.13635715577285176,-0.9097169126250058,-0.36334119420023453,0.2009933219815399,0
118,23.633366700033367,-0.9824238446020759,0.1277778462372504,0.13607428694741058,-0.9676525176638221,-0.15737788359468696,0.19718216657224236,1
119,23.833366700033366,-0.9931513653241009,0.02822097889016046,0.11337522615349369,-0.9749057688121973,-0.09949708340887059,0.19914585692358078,1
120,24.033366700033366,-0.9932808523562945,0.02416974986316121,0.11317672699767141,-0.9782602871359041,-0.07750622979616718,0.1923527877509501,1
121,24.23336670003337,-0.9942131675909069,0.04749209846235064,0.0963570338506619,-0.9847323159219507,-0.03521391626432878,0.17047652647892647,1
122,24.433366700033368,-0.9927884847064817,0.059237327303927056,0.10422074499875464,-0.9860331843315281,-0.006864017777292764,0.16640746574892662,1
123,24.633366700033367,-0.9904213432988104,0.06235328300439461,0.12319752772176071,-0.9855900128115621,0.00607097431962863,0.16904280498416818,1
124,24.833366700033366,-0.9811565983453744,-0.05195534208541808,0.1860977483800411,-0.9838293547166216,0.005444615340294189,0.17902557627800686,1
125,25.033366700033366,-0.9800221429754007,-0.059071971464232265,0.1899134051751797,-0.9817623295556466,-0.004665421162847449,0.19005515544400103,1
126,25.23336670003337,-0.979905697456299,-0.06421466813800882,0.18884199874130114,-0.9793537390587987,-0.01748854004674332,0.20139613888698016,1
127,25.433366700033368,-0.9826722899105921,-0.06716126050380963,0.17275571113399693,-0.978105371569831,-0.031174440050311805,0.20576208687168937,1
128,25.633366700033367,-0.9858887560288067,-0.04137557679819473,0.1622079602873715,-0.9781238609258737,-0.011327283003959287,0.2077147210652406,1
129,25.833366700033366,-0.9878874830070209,0.007379727896580045,0.1549963242603703,-0.9776887325600959,0.029015747565594892,0.2080452561781769,1
130,26.033366700033366,-0.9875879215198277,0.03339140755971835,0.15347674471830483,-0.9756356762267292,0.05784008398575839,0.21163542226700519,1
131,26.23336670003337,-0.9883963617682472,0.032001801473997525,0.1484874295882011,-0.9757942631093705,0.06359284986387527,0.2092403056990494,1
132,26.433366700033368,-0.9894449751908932,0.01589113499577599,0.14403510994906535,-0.9766200418997719,0.05393947797505212,0.20809571469750862,1
133,26.633366700033367,-0.9898774342265054,0.007759653312268203,0.14171257174162163,-0.9763009635318991,0.05506583057060114,0.20929448848513885,1
134,26.833366700033366,-0.9914755808916405,-0.0025724194588967104,0.13026724512981666,-0.9782319347659152,0.04985834393883002,0.20143591373886513,1
135,27.033366700033366,-0.9929582306996207,-0.0069787331803256554,0.11825924644219847,-0.9796133901371151,0.050318162151312594,0.19448827322433185,1
136,27.23336670003337,-0.9935735132848107,-0.006411212121193166,0.11300694694581913,-0.9796535991080155,0.053644240007521875,0.19339369500768885,1
137,27.433366700033368,-0.9943050183666073,-0.0103301894106841,0.10606987148912744,-0.9801011878339925,0.050016957532049745,0.19209363749389172,1
138,27.633366700033367,-0.9937342586884415,-0.017011386260141082,0.11046644669963045,-0.9796614557412622,0.04073406685417707,0.19647943386632255,1
139,27.833366700033366,-0.9931161674320498,-0.009599616405935523,0.11673956205989404,-0.9783857747710626,0.04795375609589041,0.20115097067109472,1
140,28.033366700033366,-0.9928349445616467,0.0065597878822414996,0.11931362889549488,-0.9776889764588393,0.06654189147202864,0.19923965968198284,1
141,28.23336670003337,-0.9758287357238232,-0.0346153495192356,0.21577779337389094,-0.9724598030508671,0.10026276412127069,0.21040273187634978,1
142,28.433366700033368,-0.9541703550701285,-0.05282113997511443,0.2945655456381047,-0.9694211533310213,0.10321439174640873,0.22264190263912967,1
143,28.633366700033367,-0.9533245393067105,-0.07212830359387347,0.29320612301982774,-0.9718942678127914,0.08547764055242789,0.21935155608800133,1
144,28.833366700033366,-0.9538489441115164,-0.0864185281211441,0.28758308332501137,-0.9745938555550665,0.06667940410421314,0.21382393173500774,1
145,29.033366700033366,-0.9517501602486482,-0.09914361266233884,0.2904172455880205,-0.9753623599503285,0.04528947333265046,0.21591000532021953,1
146,29.23336670003337,-0.9504919790998687,-0.11900719070717351,0.2870579840847502,-0.9767830565283323,0.016433163821725622,0.2135996526354319,1
147,29.433366700033368,-0.9487370647276263,-0.10795315686598292,0.2970590815556329,-0.9751139022111177,0.019191350755417277,0.22087229289974178,1
148,29.633366700033367,-0.9466380319091934,-0.09889151609716139,0.3067521875832255,-0.9726137538408706,0.021577117161892843,0.2314236674468555,1
149,29.833366700033366,-0.943858409285664,-0.07578870874773763,0.3215390720380439,-0.9674640714752266,0.03913058061567646,0.24996413355771213,1
150,30.033366700033366,-0.9463233723597309,-0.06544938670656887,0.31652559565608657,-0.9670595188871597,0.046830176374642145,0.2502055585123073,1
151,30.23336670003337,-0.949011555526302,-0.0700338479180235,0.3073635105593116,-0.968507157133201,0.04091704160837007,0.2456006561224625,1
152,30.433366700033368,-0.8987504468916673,0.16486073105754626,0.4062863196899446,-0.968074582394574,0.04203946095134846,0.24711189094111088,1
153,30.633366700033367,-0.8986797942795526,0.16470919731079997,0.4065040069604398,-0.9667487163445165,0.04572858245852816,0.2516064708877001,1
154,30.833366700033366,-0.8980051275126463,0.15537323592065752,0.4116381281180593,-0.9659194717863862,0.04829077808651632,0.25429820049640045,1
155,31.033366700033366,-0.8965489085576679,0.15282802102853435,0.4157446939559865,-0.9648114045508067,0.05537004414638071,0.2570469059528388,1
156,31.23336670003337,-0.9022952644803757,-0.24606834550892037,0.3539966455134734,-0.9643351387404807,0.043210315914891904,0.26113331612207863,1
157,31.433366700033368,-0.902419091197098,-0.27978068171736314,0.3276622559599619,-0.9659693092391438,0.02839150456795228,0.2570937884827624,1
158,31.633366700033367,-0.9012509358558431,-0.3069303149921695,0.3058439673391885,-0.9692066915804354,0.00519572048149042,0.24619381284749087,1
159,31.833366700033366,-0.9014460192222367,-0.2946305085598351,0.3171560150054803,-0.9667600483776093,0.017312846392116582,0.25509855783740937,1
160,32.03336670003337,-0.9451035722359947,-0.05156978705989796,0.32267599044453,-0.9665819936431854,0.034311284217322054,0.2540511470946806,1
161,32.23336670003337,-0.9575616235026891,-0.08909272763407128,0.27411352224510066,-0.9752664969813737,0.014429981568628845,0.22056072972677987,1
162,32.43336670003337,-0.8872783175644429,0.45703457513514184,0.06210140345477039,-0.9675498466822983,0.16731779725414117,0.18934637283846661,1
163,32.63336670003337,-0.8901524954110607,0.45165748031169056,0.060283126925837344,-0.9359716421303035,0.2982853659078809,0.18703723055345142,0
164,32.83336670003337,-0.7469491296659925,0.6647482573556474,-0.013294812290754581,-0.9115469101487288,0.3697399899246974,0.17992934849209602,0
165,33.03336670003337,-0.7121175626539904,0.7019473531331808,-0.012589296607117243,-0.8774156276730342,0.44893918166865865,0.16910182576722974,0
166,33.23336670003337,-0.8160393758424563,0.5774235449934156,0.02572521645956306,-0.8932146712943286,0.4174511097577169,0.1670392826451774,0
167,33.43336670003337,-0.9747260594184182,-0.07285550885861143,0.21118992381170898,-0.963169021069334,0.18749111713334646,0.19274988417228847,1
168,33.63336670003337,-0.9840618277442197,-0.06074073814626459,0.16713133131209315,-0.976106963084229,0.08437375036939807,0.2002405225399847,1
169,33.83336670003337,-0.9794842474583825,-0.08130621467338053,0.1843906408589461,-0.9770613477220723,0.0470090038683995,0.20770478170429496,1
170,34.00066733400067,-0.9792673462137538,-0.0791604551352171,0.18646470706881108,-0.9779273385119053,0.037615493039070046,0.20553149460471873,1
