,timeStamp,x_gaze,y_gaze,z_gaze,x_head,y_head,z_head,fixations_head
0,0.041701417848206836,-0.9810364577030721,0.036789391358331,-0.19029978807369316,-0.9915403544450858,-0.09671031579933294,0.08657274585518768,1
1,0.24170141784820684,-0.9932476747238912,0.08429881751742929,-0.07970424092070894,-0.9946145882860511,-0.06834684834292186,0.07791360016171212,1
2,0.4417014178482069,-0.9964541228509547,0.07822694893394723,-0.030979436951311085,-0.9943292410412292,-0.05195912892469345,0.09278798053498334,1
3,0.6417014178482069,-0.9949583105244099,0.09957596682836738,-0.011940986081885908,-0.996616725140282,-0.01859530928943026,0.08005821408881295,1
4,0.8417014178482068,-0.920135887997859,-0.3143799868807008,-0.2334848420503624,-0.9980754605551578,0.008967166677132966,0.06135931029105726,1
5,1.041701417848207,-0.898921109262711,-0.34441895020059354,-0.27077006124130154,-0.9981470668916232,-0.04310817505519653,0.04294319619054819,1
6,1.241701417848207,-0.8604619763152066,-0.44277491920588274,-0.25210227733591206,-0.9876577504289404,-0.1499868600491493,0.04512327370927336,1
7,1.441701417848207,-0.8246321616827029,-0.5211240736556277,-0.2200261297552549,-0.972772648881898,-0.22485124802786974,0.056171966741476516,0
8,1.641701417848207,-0.9962150075631814,0.08680328836109438,0.004565943012292049,-0.9782165871203807,-0.1988541074482465,0.059576443612521734,0
9,1.841701417848207,-0.9848187614216923,0.17302834957892385,0.013899546533528881,-0.993895683788705,-0.09468501724779262,0.056622586085128886,0
10,2.041701417848207,-0.842657874958521,0.5298907642454932,-0.09562156523356576,-0.9962449098995811,0.05204909680707989,0.069187939850401,0
11,2.241701417848207,-0.7337862554523242,0.6582707922554535,-0.16803956490253724,-0.9453551819405612,0.32280742423164965,0.04581426458054764,0
12,2.4417014178482073,-0.5837359844078919,0.7966015530261222,-0.15709317688467594,-0.8116966535753938,0.5820162463610219,0.04904723790728296,0
13,2.641701417848207,-0.19596065662341977,0.9770683031208124,-0.08328836708889635,-0.4398712307878163,0.8922138297229518,0.10231218097721988,0
14,2.841701417848207,0.1421024206032202,0.9845926908581119,-0.101902576844202,0.03286567293067283,0.9932398958589843,0.11132994573271217,0
15,3.041701417848207,0.30884887917228837,0.9487457332627413,-0.06703658292130303,0.17926846141284286,0.9758707537208735,0.12465588945142551,0
16,3.241701417848207,0.4122668738839767,0.9091522964639634,0.058975643550830945,0.1396290612190006,0.9720067672431989,0.1889618207377529,0
17,3.4417014178482073,-0.04759716311071632,0.8876477209918752,0.45805680158877915,-0.023880725486650045,0.9368557821474003,0.3488996337160797,0
18,3.641701417848207,-0.4338860299000562,0.7970885084719826,0.4199914555315116,-0.22063620541350842,0.884664525442347,0.4107168638911669,0
19,3.841701417848207,-0.3912986320812725,0.8371623161833265,0.3821578690723162,-0.22133694854193292,0.895176306140095,0.38687121388844725,0
20,4.0417014178482065,0.6458994048350142,0.6478766425693676,0.4038190372516114,0.23443115170932366,0.9102716864646548,0.3412440357413351,0
21,4.241701417848207,0.8850379551770762,0.446050247490556,0.13321784643805717,0.7304475892149919,0.6474529408804172,0.217372971538105,0
22,4.441701417848207,0.9708595454430473,0.20982946178934203,0.11577279467696519,0.91091110414364,0.3653024310289482,0.19182047396499458,0
23,4.641701417848207,0.9810719209370425,0.14708727112671677,0.1259492779709246,0.9216087407089987,0.33294524139513876,0.1994612626078228,0
24,4.841701417848207,0.8512376876039784,0.4390704100392865,-0.28742229250801776,0.8803812854091919,0.4598959891688746,0.11586402136833393,0
25,5.0417014178482065,0.7639614321553654,0.4892414853233898,-0.420720452578296,0.8225778722061613,0.5669556253124837,-0.043897187646990334,0
26,5.241701417848207,0.6368177921628349,0.6307533674396164,-0.44341097082552716,0.7446984198049834,0.6577511717956768,-0.11308253420124073,0
27,5.441701417848207,0.43482181664000574,0.6564951623730365,-0.6163960492692062,0.6316816997528434,0.7558396878700419,-0.1722921833336523,0
28,5.641701417848207,0.24570656561954873,0.7031860154005285,-0.6672014023940406,0.4285218511763758,0.8698617260232505,-0.24435548011907435,0
29,5.841701417848207,0.02807313585695992,0.7694191688358666,-0.6381269792690801,0.17537829383896214,0.959967664541506,-0.21841368337368727,0
30,6.0417014178482065,-0.35730100307789164,0.8038450981750392,-0.47557234080578586,-0.13898159588940395,0.9720758586054026,-0.1890836881399454,0
31,6.241701417848207,-0.6616752035837592,0.6338414402222651,-0.40053832977551085,-0.5209984168999939,0.8439861629839971,-0.12746766758378447,0
32,6.441701417848207,-0.8736093761860422,0.29639978044138043,-0.38594536918343175,-0.809767458519368,0.5749092839744873,-0.11728588288036142,0
33,6.641701417848207,-0.9270984100311261,0.06162598284190269,-0.36971715723851334,-0.9362246010241158,0.3331445648202256,-0.11179532802393091,0
34,6.841701417848207,-0.9239148861550045,-0.08711406669241242,-0.37254855056152786,-0.9821752023694283,0.15897791405985434,-0.10028905569278493,0
35,7.0417014178482065,-0.9922200702532398,-0.11348096191132497,0.05119964326376129,-0.9985830504558502,0.03503974397985686,-0.040051313138460345,0
36,7.241701417848207,-0.9919087711220924,-0.12358187117246089,0.02906046951743946,-0.9997941950348261,-0.007690945601434208,-0.01877277098407057,0
37,7.441701417848207,-0.9930901277070772,-0.11217553860111795,0.0344767572473201,-0.9998196750437031,-0.018822857998641716,-0.002513446292861616,0
38,7.641701417848207,-0.8809350131152285,-0.4110579091259546,-0.23448858823548535,-0.9967143050905906,-0.08086194805221594,-0.004683949720262701,0
39,7.841701417848207,-0.8154989727792864,-0.5384526298612557,-0.21220318280229958,-0.9709113322978564,-0.23939789420832427,0.004453432858133815,0
40,8.041701417848207,-0.7238418276129339,-0.6627162876801449,-0.19198992328092424,-0.9208762599080654,-0.38956290677411176,0.015088260451025966,0
41,8.241701417848208,-0.7116964785647182,-0.6814673392498636,-0.17055904530188698,-0.9181301096624457,-0.3957910227966668,0.019661332731899357,0
42,8.441701417848208,-0.9516056099227814,-0.028615642208706323,-0.3059867777935417,-0.954595437623699,-0.2978643593619632,-0.004936991989681229,0
43,8.641701417848207,-0.8319528084133341,0.08513494622604224,-0.548275993915706,-0.9846473439459497,-0.14849031923969355,-0.09176182840528002,0
44,8.841701417848208,-0.7625161396803192,0.12089571472995875,-0.6355732553269975,-0.9778230164325631,-0.034209622147619606,-0.20662006264455748,0
45,9.041701417848207,-0.6943857155231871,0.30768930295135877,-0.6505042435885092,-0.9559597666525188,0.09760195168055537,-0.27679375637793635,0
46,9.241701417848208,-0.6372391779095901,0.3787564027613128,-0.671170483189197,-0.9171987013916288,0.26865989991383615,-0.2942250844911043,0
47,9.441701417848208,-0.5872509256517247,0.597393409918105,-0.5461295305214797,-0.8683079229241002,0.4255896976121548,-0.2547837519812232,0
48,9.641701417848209,-0.5967717212749309,0.6316500765138353,-0.49485522481491734,-0.8503922958884298,0.5002239828381967,-0.16312237764052304,0
49,9.841701417848208,-0.8011113748230541,0.45721767535218916,-0.3862286401532862,-0.87119780760551,0.4741675218984257,-0.12719882546650707,0
50,10.041701417848207,-0.8564265091670802,0.37303507301587036,-0.35690120299031464,-0.9145963717250831,0.38997825844809136,-0.10691321136841385,0
51,10.241701417848208,-0.9668052928494278,0.1228590456931157,-0.22403834629301525,-0.9570141144235005,0.2821689895749404,-0.06711666049842158,0
52,10.441701417848208,-0.9828389604236709,0.12785719947526136,-0.13296659135159183,-0.9869256230819516,0.1575954906433389,-0.03378573416676117,0
53,10.641701417848209,-0.9927779549180313,-0.1119949180229204,0.04300082052485977,-0.9979899881003381,0.06255529084819135,0.01013998216890638,0
54,10.841701417848208,-0.9895562651719078,-0.13955522667740874,0.0360934449179134,-0.9994935160991512,-0.026670948686690128,0.017360062554848187,1
55,11.041701417848207,-0.981865066420318,-0.18540985685022845,0.039549669103579946,-0.9931924451051389,-0.11337483982162282,0.026737851100961076,1
56,11.241701417848208,-0.9820996558482995,-0.18117153634790922,0.0515474577451675,-0.9889292363870213,-0.14342606629629404,0.0380516612745685,1
57,11.441701417848208,-0.9856314622410867,-0.16001316995169307,0.05409626680749981,-0.9890053587368476,-0.1423137970533148,0.040189346325455434,1
58,11.641701417848209,-0.9547752635432066,-0.11144247072554574,-0.2756533544954355,-0.9914461203797508,-0.1277087769478686,0.02692691357025845,1
59,11.841701417848208,-0.9829255672833428,-0.10046118544231038,-0.15415861766454864,-0.9927136002391421,-0.11847703542028654,0.02197498528466121,1
60,12.041701417848207,-0.9925247773363592,-0.11884010708030689,0.02777760469427989,-0.9918667400962248,-0.12267552231961176,0.03392766002097926,1
61,12.241701417848208,-0.9918387155452255,-0.11945521293592277,0.04456920964108237,-0.9912399839519134,-0.12403306902090254,0.04537721900102682,1
62,12.441701417848208,-0.8652926096477164,-0.4676483518718906,-0.18048190679552756,-0.9900532393162133,-0.13055649153926666,0.05243649336512201,1
63,12.641701417848209,-0.8777798802299295,-0.4466644004690652,-0.17318601334155548,-0.9892750800639053,-0.13573695749609374,0.05394714389341999,1
64,12.841701417848208,-0.9405865703224046,-0.33810264107293686,-0.03136092837658256,-0.9879130078862618,-0.14503869506558859,0.05469612219152263,1
65,13.041701417848207,-0.99506528845627,-0.09846012369142919,0.012275005177543348,-0.9881929018852136,-0.1449929846592698,0.049515886978598815,1
66,13.241701417848208,-0.9966374097288679,-0.08089571104644151,0.013029100629873395,-0.9890796678100475,-0.13683030561810042,0.05476201410853409,1
67,13.441701417848208,-0.9974841941952656,-0.0703511389349865,0.008717773865624836,-0.990063281655799,-0.12990082694111704,0.05385604401517141,1
68,13.641701417848209,-0.9973266816289855,-0.07039879500334366,0.019583150231612098,-0.9906557490640152,-0.12675750107569134,0.05033609805558453,1
69,13.841701417848208,-0.9970040754109557,-0.07328577090843874,0.024740036303552104,-0.9903295722690254,-0.13140206581250308,0.04450657692584018,1
70,14.041701417848207,-0.9967995761636701,-0.07062179963893943,0.03745886244516394,-0.989588966930235,-0.13523359276306884,0.04924989257189459,1
71,14.241701417848208,-0.9969411621837835,-0.06956128079882282,0.03563070806586041,-0.9896974059358914,-0.13539000705245163,0.046568129381635306,1
72,14.441701417848208,-0.9973349724032625,-0.0676187757446871,0.027398065409318804,-0.9902908821158414,-0.13363061310860996,0.03829919109389004,1
73,14.641701417848209,-0.9973339458798066,-0.06922968441177745,0.023070569825228607,-0.9902018769738804,-0.13529947646701118,0.03455856630644287,1
74,14.841701417848208,-0.9975876616916587,-0.06552802268763569,0.022911470559903196,-0.9904889242193426,-0.13305149120622123,0.035056977716427136,1
75,15.041701417848207,-0.998106381074416,-0.05700352962803037,0.02311384149116623,-0.99108835829737,-0.12844213809002247,0.03530556911151109,1
76,15.241701417848208,-0.9982390754547217,-0.05104245144769748,0.030222779248650036,-0.9910755145481212,-0.12670098284428816,0.04142686820734146,1
77,15.441701417848208,-0.9982224171411725,-0.04787060042554132,0.035502275021934954,-0.9910006919067365,-0.12659175082665222,0.04349893404455551,1
78,15.641701417848209,-0.998204447470703,-0.04764511761150448,0.036301843169388566,-0.9905025100637442,-0.1307708651900432,0.04247067664718718,1
79,15.841701417848208,-0.9978227889147753,-0.0475039479544761,0.04574993826311347,-0.98927031359391,-0.13717612530420148,0.050268850079674715,1
80,16.041701417848206,-0.9972924761370094,-0.059289483675222215,0.04350257654482182,-0.9870795975878773,-0.1540159788160472,0.04419215196264285,1
81,16.241701417848205,-0.9975606543621471,-0.052272812301173595,0.04626331119463015,-0.9875636592949225,-0.15058583465344405,0.0451876669208364,1
82,16.441701417848208,-0.997965813134066,-0.043971183278841496,0.04616027357719227,-0.9882520564675005,-0.14662852321434963,0.0431039333209354,1
83,16.641701417848207,-0.9983597695324034,-0.03296707975002095,0.04680750187697341,-0.9895029111274575,-0.13812924638864657,0.04247705453997648,1
84,16.841701417848206,-0.998400319827669,-0.02598240395979542,0.05021669097500132,-0.9902798629678289,-0.13150670154694696,0.045296583189691,1
85,17.041701417848206,-0.998329849879924,-0.024330748880583872,0.05239776233426769,-0.9905005860235566,-0.1300998864913959,0.04452649348328302,1
86,17.241701417848205,-0.9975093489613428,-0.03479230436754934,0.06135628974697104,-0.9895958507410936,-0.1367253647539045,0.044790923510500014,1
87,17.441701417848208,-0.9973248436597717,-0.03969645453555744,0.061378723645236166,-0.9892901200103746,-0.13941693312020428,0.043220101911209924,1
88,17.641701417848207,-0.9973444013841217,-0.03819602022892016,0.06200974976904656,-0.989840654432608,-0.13566721039459553,0.042542765027387255,1
89,17.841701417848206,-0.9973651508865808,-0.04126723080530571,0.05966382034909857,-0.989744677153042,-0.13727385715417645,0.039514075836786955,1
90,18.041701417848206,-0.8747582727586001,-0.22298821355645906,-0.4302025346918473,-0.9893759946931144,-0.13871498560303452,0.04351199712907178,1
91,18.241701417848205,-0.8775184115465449,-0.2201044243363358,-0.42604633525521424,-0.9898982940483028,-0.13347647075369332,0.0478058489663984,1
92,18.441701417848208,-0.9938488297121497,-0.09443152630438349,0.057854909209292545,-0.989767775703764,-0.13285461274086374,0.05205191688976266,1
93,18.641701417848207,-0.7548902117981275,-0.5194705381018716,0.4003637448315349,-0.9666974152547705,-0.2232413788896778,0.12513750073891144,0
94,18.841701417848206,-0.503833447317795,-0.854322084095383,0.12761517931181934,-0.8485776838591539,-0.49267198168652515,0.19284769357528345,0
95,19.041701417848206,-0.4866106054044925,-0.8654484396710023,0.11920200073363255,-0.7542688671083703,-0.6298944441828209,0.18523354258521987,0
96,19.24170141784821,-0.3947730655402082,-0.7437482295278833,0.5394374827522889,-0.6723356228162998,-0.6828131843370823,0.28588628086648765,0
97,19.441701417848208,-0.3396428456599959,-0.6363791290274445,0.6925780400288846,-0.6095601703551382,-0.628402611276535,0.4832665484569021,0
98,19.641701417848207,-0.5876894835866782,-0.4560336818761167,0.6683220420397163,-0.5950166164991054,-0.5661209330220418,0.5704930457807612,0
99,19.841701417848206,-0.6114009802959339,-0.3370811198749698,0.7159365613774782,-0.6269257291107893,-0.5272879755796521,0.5735255190381836,0
100,20.041701417848206,-0.6232502211369446,-0.20641687342337323,0.7542885629643798,-0.6626495463674185,-0.4757112126431749,0.5784413720202028,0
101,20.24170141784821,-0.6311388263182527,-0.10756648870034698,0.7681752615271444,-0.7232512363138333,-0.396542724847931,0.5653861658554179,0
102,20.441701417848208,-0.6323724901335176,-0.04819599041170604,0.7731637473592312,-0.7503024243608716,-0.16237650506345574,0.6408433058100682,0
103,20.641701417848207,-0.6677644477373033,0.24480523793083403,0.7029658866685656,-0.7348177960172322,0.10108024438797748,0.6706903837471091,0
104,20.841701417848206,-0.647699733596976,0.1317259847552246,0.7504220945832238,-0.7339129536707683,0.24238048805500595,0.6345261818431653,0
105,21.041701417848206,-0.6007987883125073,0.001989823423354536,0.7993978087066332,-0.7715456510921472,0.2096217002475043,0.6006463610695902,0
106,21.24170141784821,-0.5459320100078737,-0.1555466160064637,0.8232639252983824,-0.7994692987275901,0.00013751604241353746,0.6007069347704865,0
107,21.441701417848208,-0.5073323150865382,-0.2374726108125542,0.8283843800934461,-0.7735318450047193,-0.16402701956442853,0.6121630678311176,0
108,21.641701417848207,-0.40724741191193325,-0.0851867376676576,0.909336442256976,-0.7785525294922371,-0.19575284041754337,0.5962690536072651,0
109,21.841701417848206,-0.3951924215251428,-0.06333215948011157,0.9164125640478092,-0.8069812102973232,-0.12465829151478869,0.5772708520128845,0
110,22.041701417848206,-0.8922250399491668,-0.19696163150498724,0.4063749423901546,-0.8704004865164585,-0.06131060827243687,0.4885120289053039,0
111,22.24170141784821,-0.990546674475304,0.0573170022231547,-0.1246276331399538,-0.950861348987541,-0.030385336337566276,0.3081224210232788,0
112,22.441701417848208,-0.985152424692022,0.04662303016536558,-0.16523012189558517,-0.9794687336882261,-0.016311744087518638,0.20093513065665353,0
113,22.641701417848207,-0.9651614279153959,0.06844634326345612,-0.25254408755339225,-0.9907085250628034,0.026192414258302574,0.13345626925403842,0
114,22.841701417848206,-0.973191754801124,0.17116397864187952,-0.15362519585859355,-0.9884241763042692,0.11614368862323192,0.09761296681392899,0
115,23.041701417848206,-0.9649681236134655,0.24875395542554302,-0.08341456749306289,-0.9641527711176008,0.24823357473172605,0.09375247368555169,0
116,23.24170141784821,-0.6071054188576654,0.7878313987391115,-0.10365663294953231,-0.89203393857492,0.4434523705770561,0.08732380809438718,0
117,23.441701417848208,-0.4523659157172973,0.8841402121728654,-0.11688098013009504,-0.7715366533025697,0.6307119284127605,0.08326857731778288,0
118,23.641701417848207,-0.3768449034021998,0.9182324338939439,-0.12180770141904422,-0.6422150393031061,0.7633350815194867,0.06985267793398262,0
119,23.841701417848206,-0.17341816860640524,0.9785979253798127,-0.11078013919257798,-0.509505212244127,0.858192108148461,0.06253594332675726,0
120,24.041701417848206,-0.20858107551355187,0.9722534036203573,-0.10591153896644505,-0.42978818837852223,0.900986553977143,0.0592059345226577,0
121,24.24170141784821,-0.24159373232792392,0.9652096355823518,-0.10001413839476342,-0.4321143004051871,0.8994148543352484,0.06580388428078722,0
122,24.441701417848208,-0.6956717898254625,0.6921035571265733,-0.1924407104897032,-0.5011938660525072,0.8630182802071263,0.06327840595080889,0
123,24.641701417848207,-0.799810967698109,0.5388638519602187,-0.2644393408712294,-0.6175172487467259,0.7848820223795941,0.05130943817264895,0
124,24.841701417848206,-0.8306469135224338,0.4556662172985417,-0.3199906302823448,-0.7169510701325352,0.6966667968232477,0.02522968965026138,1
125,25.041701417848206,-0.8171882626927003,0.4534522383180919,-0.35578703023241115,-0.7368360297599248,0.6760439977120515,0.006097409707312508,1
126,25.24170141784821,-0.7850035598948277,0.502849318336391,-0.361817597694024,-0.7078416304093563,0.7063692594552884,0.0016418148531691574,1
127,25.441701417848208,-0.7995511572317274,0.4814785518264323,-0.3590213797262319,-0.7383471087588117,0.6744194448641222,0.0013997773653421667,1
128,25.641701417848207,-0.7385697698801509,0.5298935206535209,-0.4168063720585347,-0.7672198322874999,0.64136408656302,0.005083051438255471,1
129,25.841701417848206,-0.7076786471574281,0.5460200112614084,-0.44838942857690534,-0.7659362119934102,0.6429133627690139,0.0020315339584571135,1
130,26.041701417848206,-0.6975494589734608,0.5582494981545629,-0.44920179217809336,-0.747946307147828,0.663744010039969,-0.004495637884531059,1
131,26.24170141784821,-0.6460196560228207,0.6665897491619668,-0.3719095459172066,-0.7319234866024087,0.6813863338051668,0.0008208917880357131,1
132,26.441701417848208,-0.6531919665608801,0.6617171065309579,-0.3680634805908171,-0.7384830410531423,0.6742277655865986,0.007727754460743283,1
133,26.641701417848207,-0.6653200883527206,0.6503835708253496,-0.36653838930567145,-0.7589434672215614,0.651084623601047,0.009676077304259198,1
134,26.841701417848206,-0.5571779735821594,0.7770499076041935,-0.29282443007234454,-0.7307492549267406,0.6821951725941133,0.024804695388211468,1
135,27.041701417848206,-0.48420480276455174,0.837141804795897,-0.2544392022523462,-0.6748523314782688,0.7373770533271383,0.029144672325007462,1
136,27.24170141784821,-0.5202974584573653,0.8429157309613314,-0.13705336632396387,-0.6228585579347993,0.7817904585971365,0.029170115767023948,1
137,27.441701417848208,-0.5467815403191671,0.8310634101247565,-0.10180154968373477,-0.6312777301191349,0.7722772510321538,0.0712479823844324,1
138,27.641701417848207,-0.5396469850353717,0.831787239701132,-0.13004275993920283,-0.624643305509753,0.7784052674893671,0.06249784337604398,1
139,27.841701417848206,-0.5353862464302056,0.8326208486717002,-0.14178889057536617,-0.6208681863277763,0.7818545942548312,0.05679866766633771,1
140,28.041701417848206,-0.5270648148306513,0.837746586444212,-0.14277022752871754,-0.6119709223007741,0.7887756859022098,0.057658543060319395,1
141,28.24170141784821,-0.5292224395080265,0.8352837371007799,-0.1490794689289185,-0.6118623652992188,0.789149279898774,0.05355240392075668,1
142,28.441701417848208,-0.5439874372605832,0.8268985382560753,-0.14253587454612715,-0.6245659666627983,0.7785570154274516,0.06137040830289157,1
143,28.641701417848207,-0.5689579322283368,0.8092966975008986,-0.14603330705217146,-0.6483769598757054,0.7590129315219274,0.05921729210988912,1
144,28.841701417848206,-0.545821139572559,0.8249261622090619,-0.14688808834872116,-0.629072845177177,0.7752359520539949,0.05724136706637228,1
145,29.041701417848206,-0.5148029297104761,0.8451370510632013,-0.1439489787449238,-0.5991938414328095,0.7984246947054175,0.05903174801370736,1
146,29.24170141784821,-0.5121678543282032,0.8471653076231478,-0.14140378549608354,-0.5958227673022348,0.8009014933410626,0.05959889200616296,1
147,29.441701417848208,-0.5315858114004904,0.8352060513639998,-0.14088071863331028,-0.6148297309169329,0.7865416108635398,0.05776414424883238,1
148,29.641701417848207,-0.5528097756429553,0.8220892591607944,-0.13627399578071295,-0.6353977291294164,0.7698121675874259,0.060489275508391956,1
149,29.841701417848206,-0.5593392824722323,0.817707252419855,-0.13599417790265927,-0.6450873489479485,0.7616808366444207,0.0608655511431833,1
150,30.041701417848206,-0.5576762660858882,0.81895998984306,-0.13528383968810484,-0.6476605766555348,0.7593613948212208,0.06249839599054288,1
151,30.24170141784821,-0.37521204194101154,0.8834958617327164,-0.2804478309483277,-0.6522214607092226,0.7554056663479652,0.06300353513664984,1
152,30.441701417848208,-0.35923845813405375,0.8737334554049145,-0.32792922880349645,-0.6634505637223311,0.7456752595576002,0.06165838775241259,1
153,30.641701417848207,-0.3595709804769984,0.8717506709985666,-0.33280546511792586,-0.6739090308220739,0.7364384233739809,0.05920360423908802,1
154,30.841701417848206,-0.33657932610260016,0.8846703902018386,-0.3226029416177825,-0.6610718955772829,0.7472930010051161,0.06735814372906779,1
155,31.041701417848206,-0.30834850097177136,0.8944864649497706,-0.32375170419647953,-0.635648568750544,0.7689849040744469,0.06791991129999114,1
156,31.24170141784821,-0.39873384354146113,0.913047612322799,-0.08576350999282416,-0.6039814861742265,0.794369460112835,0.06468017624292417,1
157,31.441701417848208,-0.38902162947125474,0.9179591038510907,-0.07754518334772575,-0.5895089078102838,0.8053244928533478,0.06270333980598304,1
