,timeStamp,x_gaze,y_gaze,z_gaze,x_head,y_head,z_head,fixations_head
0,0.041701417848206836,-0.9919856227832022,0.05448474333010965,0.11399972340174822,-0.9934713927497338,-0.029965855989145973,0.11007560702872213,0
1,0.24170141784820684,-0.9929036462738541,0.03092880619661157,0.1148292565652946,-0.9925568735486097,-0.05202368579653875,0.11011080277408089,0
2,0.4417014178482069,-0.9946516922670484,0.040992131797856095,0.09480324994937743,-0.9941329136848944,-0.045666062362005336,0.09805284634691594,0
3,0.6417014178482069,-0.9886409320582006,0.1470616903079539,0.031015588062459482,-0.9971827478602205,-0.01903978413653487,0.07255380065836725,0
4,0.8417014178482068,-0.9762662528664954,0.13778834895058253,-0.1670885226683294,-0.9984344347399977,0.05579228194422559,-0.003987580830255168,0
5,1.041701417848207,-0.7425416661585287,0.6083066214994358,-0.28034787008011747,-0.9234174434853537,0.36133622627938444,-0.1293690714396105,0
6,1.241701417848207,-0.4895554413564138,0.8154137929896087,-0.30892687814534153,-0.7152350641313798,0.663834683394532,-0.21854591316120017,0
7,1.441701417848207,-0.3804985255084134,0.8809705431865454,-0.2812681534115205,-0.48179951934972026,0.8461959776848055,-0.2276435602085751,0
8,1.641701417848207,-0.07744180541290335,0.9841011199675581,-0.15983664302339456,-0.19144570951396495,0.9625317839709454,-0.19204453950686595,0
9,1.841701417848207,0.37102975431801266,0.8963206081649505,-0.2427885680783356,0.041714990521783846,0.9789013351099375,-0.20003008695131239,0
10,2.041701417848207,0.5297693842048874,0.824547410759201,-0.19866043131301225,0.18855189618626028,0.9648051045011277,-0.18330109866864844,0
11,2.241701417848207,0.6482056531850922,0.7555718894679572,-0.09455448706808774,0.28055418228703183,0.9547286294539213,-0.09890700128045456,0
12,2.4417014178482073,0.7177005494048857,0.6921363316625316,-0.07650633814697665,0.38580622176578644,0.9177279979570292,-0.09449275640276354,0
13,2.641701417848207,0.2873314867487159,0.9524831457774023,-0.1010765736100937,-0.08087051261715972,0.9841467784531487,-0.15784510967821322,0
14,2.841701417848207,-0.9376538055642589,0.33533288759530566,-0.09141769745436193,-0.8618944420447905,0.4884300923019867,-0.13628652063271793,0
15,3.041701417848207,-0.9992512441671227,0.034563029498723016,0.017388157531142347,-0.9946238343012737,0.03834684454568801,-0.09619224372693314,0
16,3.241701417848207,-0.9961101484229926,-0.05455164561822118,0.06920036249231713,-0.991189908590034,-0.1272285586455313,-0.03681655842498703,0
17,3.4417014178482073,-0.9963853083893713,0.03909711134169497,0.07541706113707286,-0.9889026037101469,-0.14801367560663287,-0.012790316990093519,0
18,3.641701417848207,-0.9953295716999018,0.06657577141378908,0.0699050095511714,-0.9934227345884417,-0.11431309113490346,-0.006617219809411116,0
19,3.841701417848207,-0.9951984009927836,0.05748704995791594,0.07921730712756449,-0.9933388068858745,-0.11418538754266655,0.015482635637343842,0
20,4.0417014178482065,-0.995090949755558,-0.03763653362001637,0.0915286460713332,-0.974616115433737,-0.2210428048617879,0.03554582894920861,0
21,4.241701417848207,-0.8040620130281024,-0.5938780549688565,-0.028162653135021483,-0.8567011849649411,-0.5151009441042793,0.02709422563104814,0
22,4.441701417848207,-0.4462570705174889,-0.8944260228086224,0.029269723878074118,-0.6293870298356734,-0.7768404407772094,0.019771096269556827,0
23,4.641701417848207,0.09140825133958846,-0.9952549646398263,-0.03334796765646849,-0.21396069969931025,-0.9768194385536364,0.006678581281986484,0
24,4.841701417848207,0.6012870470505502,-0.7962820554874621,-0.0662478313448225,0.3655008743017882,-0.9307834443633978,-0.007161744454990163,0
25,5.0417014178482065,0.7167280362958248,-0.6887189169249871,-0.1093945860506983,0.6898950149465457,-0.7216126000592029,-0.05762051533700736,0
26,5.241701417848207,0.9178199599868232,-0.3774368620532061,-0.12307695240464452,0.866261402668498,-0.4962950505443198,-0.05729227742041026,0
27,5.441701417848207,0.9931377540767294,0.010217082464103178,0.11650327314437163,0.9845271092108195,-0.175231575518127,0.000515917069131555,0
28,5.641701417848207,0.9857080564350116,0.1313151829689344,0.1055270117123908,0.9990334692323849,-0.009179220016246032,0.0429868500055434,1
29,5.841701417848207,0.985253125251425,0.15065615443605573,0.0811110492648145,0.9986755018091544,0.02778796335804985,0.043302092081629655,1
30,6.0417014178482065,0.9913517519495229,0.0460662652577631,0.1228804423487041,0.9984237073174166,0.050253962461853784,0.024992797431030632,1
31,6.241701417848207,0.9935782387644632,0.01226764143111495,0.11248016904070185,0.9998097657976083,0.011474295560921024,0.015772531728060844,1
32,6.441701417848207,0.9924804263527723,0.10006218858208041,0.07049937391767028,0.9999851791591252,-0.0028239665824301885,0.004654747558534991,1
33,6.641701417848207,0.9182354308329161,0.09884083599180433,-0.3835025198137946,0.9971592106952917,0.007580334298903924,-0.07494028994779767,1
34,6.841701417848207,0.8250119947423595,0.11052803823373415,-0.5542010116333564,0.9651757284770984,0.02581822925988772,-0.2603252431029049,0
35,7.0417014178482065,0.7787887602470877,0.1790624916853628,-0.601186070184792,0.9573203346578074,0.021420220366896125,-0.2882341947273038,0
36,7.241701417848207,0.7734256856363373,0.23656118456243014,-0.5880914170062185,0.9533654629824482,0.10156562991364955,-0.28421596860927045,0
37,7.441701417848207,0.7261703370882941,0.24966660232154214,-0.6405803846655705,0.9204330978171185,0.141261267098388,-0.36448342467187805,0
38,7.641701417848207,0.588462375837562,0.09138587520297949,-0.8033434222280021,0.8193955537687501,0.1065023010243909,-0.5632478906667235,0
39,7.841701417848207,0.5760216619905426,0.0821304484391815,-0.8132979984955282,0.771990318911727,0.05427872687167204,-0.6333125352586672,0
40,8.041701417848207,0.5607547447664747,-0.15454892766702866,-0.8134302337501709,0.7696452042527651,-0.007477959959707006,-0.6384280223216716,0
41,8.241701417848208,0.5407422702376726,-0.2905571656752453,-0.7894139159230578,0.7618109693936999,-0.12221665700553404,-0.6361659655010027,0
42,8.441701417848208,0.6381390289804121,-0.4704662349386411,-0.6094588595422958,0.7411843969787323,-0.2947470480855319,-0.6031333744041516,0
43,8.641701417848207,0.9476873681558047,-0.3158421852723274,0.04617755125951574,0.8418320301603502,-0.3637868052995223,-0.39872044503144144,0
44,8.841701417848208,0.9745074174190509,-0.21002540312112553,0.07889628279621719,0.9580277412538616,-0.2760459434677926,-0.07734005484223896,0
45,9.041701417848207,0.959314913924545,-0.06253186603839585,0.27532646376928416,0.9836743884369676,-0.1692358939015335,0.06118749666808324,0
46,9.241701417848208,0.9165021917974916,0.011255447274086915,0.39987128846299286,0.980174417257008,-0.1144679768532124,0.1617256752343837,0
47,9.441701417848208,0.8093113228225373,-0.4343624997751722,0.39540409904336943,0.9473813935400633,-0.281686192692638,0.15205717352500642,0
48,9.641701417848209,0.579208207854522,-0.7338887767988524,0.3548592893565529,0.7270196544563858,-0.6756276325065451,0.12235082438512147,0
49,9.841701417848208,0.20480160967572858,-0.9480108239783144,0.2435811534051609,0.39565114622008585,-0.8986221868960445,0.18957409029955355,0
50,10.041701417848207,0.23476008498783268,-0.9182323143085315,0.3189625674841865,0.2709914810077117,-0.9282516897495284,0.2547791547564136,0
51,10.241701417848208,0.17195149424004535,-0.8906359675215377,0.42095160884071964,0.2831133146748291,-0.9112591638510955,0.2990879257864379,0
52,10.441701417848208,-0.10177341197395162,-0.7197617661474756,0.6867205928231997,0.010736665198805062,-0.8797994886220157,0.4752237197792726,0
53,10.641701417848209,-0.2879303378678645,-0.7064021538225066,0.6466004311862321,-0.17577984126096705,-0.8011505358006384,0.5720657885179108,0
54,10.841701417848208,-0.46889974589157235,-0.6089220466799488,0.6398022892815574,-0.3152270761046126,-0.7388796730518588,0.5955574860929171,0
55,11.041701417848207,-0.6336884081253992,-0.3514606098764307,0.689140363868483,-0.4467131251505546,-0.6494345568553798,0.6153715464500142,0
56,11.241701417848208,-0.6562436319428091,-0.1603721562771391,0.7373093428307633,-0.5953966623138964,-0.490850548791937,0.6360570361658823,0
57,11.441701417848208,-0.6209367899562054,-0.0637021577234233,0.7812679041022126,-0.6886122340066894,-0.3104791454900507,0.655298322439547,0
58,11.641701417848209,-0.6002954119731329,0.014357931598537859,0.7996494658062484,-0.7119026363524031,-0.2062389518391997,0.6713122456046563,0
59,11.841701417848208,-0.5683626579619708,-0.12587216094435028,0.8130929148219185,-0.7160582213460515,-0.17789477450864152,0.6749919057627649,0
60,12.041701417848207,-0.5726066473606014,-0.12446483066865727,0.81032717671634,-0.7106216235158198,-0.172674618862959,0.6820559978420191,0
61,12.241701417848208,-0.5484205631617446,0.12072366485252287,0.8274422533602758,-0.7122253598485859,-0.12234537029661541,0.6912066602366735,0
62,12.441701417848208,-0.5469556384975445,0.23264430422595903,0.8041866432781406,-0.7418194805730808,-0.07917893379693647,0.6659088185968596,1
63,12.641701417848209,-0.5737310507863197,0.16332750108067942,0.8025938005955231,-0.7598456356268749,-0.005659967527206297,0.6500788988933431,1
64,12.841701417848208,-0.5684465412575691,0.2298347416621819,0.7899648860913915,-0.7723805822963632,0.08362528368143057,0.6296308823594434,1
65,13.041701417848207,-0.6232598677590696,-0.002820074373948261,0.782009708649114,-0.7734413375305434,0.07387500234139202,0.6295482359819806,1
66,13.241701417848208,-0.6211613366371107,-0.1934207957584188,0.759438601623185,-0.7752642570474311,0.019575359039975194,0.6313336178781793,1
67,13.441701417848208,-0.6363214264957016,-0.21766336470962155,0.7400795240011456,-0.7890820139135271,-0.028599582871114113,0.613621739492475,1
68,13.641701417848209,-0.6145022374817143,0.054309727720810254,0.787043489017512,-0.7709765255232491,0.007971359972831235,0.6368136733081997,1
69,13.841701417848208,-0.6094980326609305,0.046237691119937356,0.7914380734475394,-0.7626093000622588,0.06906743407743504,0.6431615232649658,1
70,14.041701417848207,-0.6355291864382154,-0.12684437363166945,0.7615859492290872,-0.7644104242437121,0.07738615171511243,0.6400688141366316,1
71,14.241701417848208,-0.6308897552331946,-0.16989410440432592,0.7570430040826294,-0.7702963422290299,0.04247768634370404,0.6362697472860572,1
72,14.441701417848208,-0.6291253844573823,-0.006426024165695421,0.777277271534922,-0.7804918980691092,0.031706458656117244,0.624361351725079,1
73,14.641701417848209,-0.6327027068473774,0.015383636818366032,0.7742419702303941,-0.7825060722492803,0.03761528321271062,0.6215057017935006,1
74,14.841701417848208,-0.6204692136348839,0.19552453090770006,0.7594656758173028,-0.7677273771146198,0.12558340904132462,0.6283498084683928,0
75,15.041701417848207,-0.5997532775716007,0.25227246628664685,0.7593777773913163,-0.7672648433455811,0.23623829615416472,0.5962349600585812,0
76,15.241701417848208,-0.5877676425911622,0.2981400303127903,0.7520915640052857,-0.7504960973295642,0.2935994189380754,0.5920768439082192,0
77,15.441701417848208,-0.5735434100242991,0.34561877136082825,0.7426948375347242,-0.7289420773052728,0.3554493163607662,0.5850634422287362,0
78,15.641701417848209,-0.5248469497622681,0.4715644705261445,0.7086343411539131,-0.6690598268947064,0.49415040838876,0.555134507957168,0
79,15.841701417848208,-0.5703245410598015,0.5090952317682891,0.6446332002431452,-0.6166207959903885,0.5932569854398551,0.5175180607273485,1
80,16.041701417848206,-0.5814496533907666,0.5027509908198199,0.6396543924663122,-0.6210859605918089,0.5955181384450928,0.5095197506855268,1
81,16.241701417848205,-0.5722545616268264,0.5231535325827511,0.6315339246972226,-0.6201710815852058,0.6019482449243324,0.5030369171322836,1
82,16.441701417848208,-0.5170513815400501,0.5848802473079078,0.6249583707388568,-0.6396007200035279,0.5902152878387319,0.4925005918498092,1
83,16.641701417848207,-0.4893333041587878,0.631003614863306,0.6019861754812019,-0.6093915493317503,0.6408642671106886,0.4668350144791292,1
84,16.841701417848206,-0.5173735464817277,0.6442240996666809,0.563293815703292,-0.5466282187864744,0.7176472215473667,0.43148586979375225,1
85,17.041701417848206,-0.5194423376754849,0.6559495284947284,0.547640277826395,-0.5343545301151922,0.7417642794438567,0.40527890382612836,1
86,17.241701417848205,-0.5492074329232062,0.6348279337764292,0.5434746453322837,-0.5709707703239606,0.7168641007722655,0.4001227817303515,1
87,17.441701417848208,-0.5468124471439418,0.6400314813284242,0.5397738883615963,-0.584366202201025,0.7092794572674812,0.3942572678131603,1
88,17.641701417848207,-0.47150347701559386,0.5638957200362749,0.6780162889540166,-0.5883883290108647,0.7076198252460693,0.39124590375175156,1
89,17.841701417848206,-0.4664673560061319,0.5707256608366448,0.6757813446990261,-0.5703712583671089,0.7199891007327056,0.39533823803779844,1
90,18.041701417848206,-0.4162882529904228,0.749004491485685,0.5154574300138202,-0.5287376653431253,0.750688147163196,0.3961108266081458,1
91,18.241701417848205,-0.3989657892016599,0.7744252350355111,0.4910110532227257,-0.4866614644239861,0.7905108905490882,0.37182408605144107,1
92,18.441701417848208,-0.3885865912706053,0.7930790258750275,0.4690694189582276,-0.4584895705413937,0.8166328501966186,0.3505682553861887,0
93,18.641701417848207,-0.38418859841884456,0.8134091195972729,0.43676621320902714,-0.4414489516247453,0.8386638650027153,0.31900743666585735,0
94,18.841701417848206,-0.3821199616609817,0.8219660729234505,0.42232228198736005,-0.4377069959500076,0.8456189882192188,0.30551777764890353,0
95,19.041701417848206,-0.3789369161137384,0.8248488974509937,0.41956061538243794,-0.43493545545774204,0.8478195390839245,0.30336970635396127,0
96,19.24170141784821,-0.3595441281358139,0.9289430002879043,0.08827752907260267,-0.41384581424706957,0.8683718899235954,0.27324330334100316,0
97,19.441701417848208,-0.6278833179157205,0.7765762301550364,-0.051883502593198134,-0.4610335407112716,0.868384872651812,0.18263566817225163,0
98,19.641701417848207,-0.8815647829038824,0.4312230847265006,-0.19206817732928108,-0.7021955038510099,0.7111447850802355,0.03456253787863166,0
99,19.841701417848206,-0.9484001107340898,0.2801426809964094,-0.14851703014708564,-0.8935571508075142,0.44736806377465493,-0.03764882143273454,0
100,20.041701417848206,-0.9997250904072549,0.02340877464074417,0.0013314954093927027,-0.9817758782681675,0.18892676490341268,-0.02056215829865789,0
101,20.24170141784821,-0.9819190536369168,-0.18858741973747792,0.016424287550513842,-0.9978256846491729,-0.06570328078414733,0.005194415136354522,1
102,20.441701417848208,-0.9624838469849809,-0.2675780897589293,0.04502010855111932,-0.9885473452326863,-0.14663685494215195,0.03566201068480398,1
103,20.641701417848207,-0.9812728897239449,-0.1275068944256135,-0.1443797346124257,-0.9893337612625186,-0.14260089319252564,0.029726992563189197,1
104,20.841701417848206,-0.9854941428071464,-0.11498916837484977,-0.1248150057055181,-0.9912254660973194,-0.12822854751157925,0.03208605558841369,1
105,21.041701417848206,-0.9887340284057184,-0.08833697805645119,-0.12083707783811179,-0.9949343192997698,-0.09439072797485855,0.034584544985872004,1
106,21.24170141784821,-0.9988565844088719,-0.028604674821283798,0.038305304611905684,-0.9971129650601291,-0.05727873374589027,0.04984858643397485,1
107,21.441701417848208,-0.9989721116936031,-0.016903894504623766,0.04205922501664217,-0.9974261439129072,-0.05027063826449206,0.05112680674078275,1
108,21.641701417848207,-0.9076907289652146,0.1652268744739677,-0.38574294614699206,-0.9975867206609356,-0.042621838114814854,0.05480979544456681,1
109,21.841701417848206,-0.80435213263416,0.41240895047059034,-0.4277107717823164,-0.9976504034739567,-0.0013127863019110249,0.06849780317920424,1
110,22.041701417848206,-0.988703788903602,0.14786944544247102,0.024483564123672738,-0.9941658281703047,0.04006220186969826,0.10014652305399366,0
111,22.24170141784821,-0.9932125180816845,0.1153631013627781,0.014840780633141634,-0.9918995480893569,0.06058513782136534,0.11164554435935066,0
112,22.441701417848208,-0.9949167019952542,0.10069345316194875,-0.0012588014972664818,-0.9928421497284181,0.06651359124286967,0.09919883014748629,0
113,22.641701417848207,-0.9941503335198584,0.10775529381958773,-0.00734241215196806,-0.992016353511705,0.0816955366807721,0.09606973327630468,0
114,22.841701417848206,-0.8760755709895729,0.48029907405476063,0.04247815176574498,-0.9799436288792784,0.1737837783832105,0.09751760143567134,0
115,23.041701417848206,-0.8722061747699184,0.4889999803067822,-0.011636492306252988,-0.9363096838672391,0.33825717086396895,0.09437299537227195,0
116,23.24170141784821,-0.8375837797844341,0.5460915457448202,-0.015408942470320132,-0.8919697333641028,0.4428405432386806,0.09100685702979465,0
117,23.441701417848208,-0.6453498247598861,0.7638005444056628,-0.011503566751123732,-0.8250775696805664,0.5587440325464167,0.08397684266379127,1
118,23.641701417848207,-0.6573813286472091,0.7529927153202939,-0.029184917690495624,-0.7601207845811607,0.6466186764926429,0.06403655251981802,1
119,23.841701417848206,-0.7159290468470803,0.6062918692050658,-0.3462019197180432,-0.7702117961788043,0.6366396315062448,0.03825922924750418,1
120,24.041701417848206,-0.732691557508294,0.6107400834019365,-0.30026593560087117,-0.783110994657376,0.6216047788702489,0.018565261441844932,1
121,24.24170141784821,-0.7488114681793852,0.6016844758185593,-0.2779517524355254,-0.8037984313831514,0.5948988962718497,0.0018398153495493925,1
122,24.441701417848208,-0.7573743993246522,0.5895831214288659,-0.2806702017917423,-0.8192743128391564,0.5730006795045097,-0.02144345143158437,1
123,24.641701417848207,-0.702049365747294,0.6723354933219821,-0.23471615298762324,-0.7967259713800285,0.6027442828315285,-0.0438982464622061,1
124,24.841701417848206,-0.656517852711761,0.713692534147748,-0.24418696888348565,-0.7332833701438922,0.6772084067823794,-0.060698211289024764,0
125,25.041701417848206,-0.44597329050615536,0.887203348624278,-0.11822877122333776,-0.6695393275384883,0.742183887661428,-0.02966758795517324,0
126,25.24170141784821,-0.12980706661884128,0.9886840197006326,-0.07519331515773647,-0.49319892823962985,0.8695492428375443,-0.02527709366074055,0
127,25.441701417848208,-0.00483802918308901,0.99613712342913,-0.08767796074249401,-0.20399846814311495,0.9786829188223575,-0.023756460186935027,0
128,25.641701417848207,0.14584406570275227,0.9890226653417818,-0.02374186049004687,-0.05424941258393795,0.9985186281800265,-0.004189321159330088,0
129,25.841701417848206,0.0921644992005683,0.9954935203938755,-0.022323887226863567,-0.0712591344613625,0.9972136934153786,0.02206774616215015,0
130,26.041701417848206,0.11864096791003509,0.9928962499517937,-0.00901984284982306,-0.03367291574414999,0.9981431060283625,0.05075898573987378,0
131,26.24170141784821,0.6246104706262205,0.7802367162898455,0.033051876457019805,0.22458366131219398,0.9716589170958586,0.0737640013808457,0
132,26.441701417848208,0.6593181985945558,0.7518311361359525,0.007032477412168901,0.41454993658512485,0.908451542711224,0.05351770382654697,0
133,26.641701417848207,0.6881710178350114,0.7253880424374072,-0.015259033414697294,0.45229365000427096,0.8913753100721771,0.029673401549941834,0
134,26.841701417848206,0.5120228225896641,0.8554198527054622,-0.07803527884667598,0.3683282890409051,0.9295868723656922,0.014230889556531741,0
135,27.041701417848206,0.5783743240375494,0.8157247064562966,-0.00873753803406842,0.40965070815829563,0.9121799244258041,0.010680954074507644,0
136,27.24170141784821,0.9060965621362227,0.39999194000130994,0.13782404731724768,0.6881733423330738,0.7226464309711471,0.06480421827928311,0
137,27.441701417848208,0.9202455167406479,0.33735295814471855,0.19834608781053872,0.7972555896280663,0.598283274585883,0.08025364887403694,0
138,27.641701417848207,0.905713622693926,0.3773618728033838,0.19308249693063295,0.7879289693784213,0.6092488036096002,0.08935230559157414,0
139,27.841701417848206,0.6451214728839649,0.6839802036636977,-0.3405721160344607,0.6932234960867505,0.720397864318448,-0.021635654801323602,0
140,28.041701417848206,0.524348846707687,0.6572463641363735,-0.5413737191495689,0.5714290994535172,0.7560281226251803,-0.3192025408695677,0
141,28.24170141784821,0.34290689754290593,0.7044737310553714,-0.6213949001001083,0.4331758230292005,0.8001683025354095,-0.41483658705636856,0
142,28.441701417848208,0.17764233377421224,0.8037775676728709,-0.5677894177924905,0.3133770499993965,0.8446871990268893,-0.43393358977357815,0
143,28.641701417848207,-0.17115912248724074,0.8997876349799381,-0.4013561594476998,0.06166667216233174,0.9275768872135862,-0.36850826293528055,0
144,28.841701417848206,-0.5400629572252982,0.7873017739128283,-0.2974691900462619,-0.33669487285536015,0.8998193934809734,-0.27741957701007003,0
145,29.041701417848206,-0.5886432217892863,0.7681471290078846,-0.25189113846754,-0.5410819126692732,0.8206395205870883,-0.18379646632281987,0
146,29.24170141784821,-0.577478594005497,0.8157419610860338,0.032916962024865166,-0.6105314012855655,0.7901117125322539,-0.05454255002870035,0
147,29.441701417848208,-0.5660022262208968,0.821984015012916,-0.063117026040802,-0.6554622597244315,0.7552047096476349,0.005922212675497982,0
148,29.641701417848207,-0.5395049326518515,0.8417329045037157,-0.02049744179305883,-0.622759810090251,0.7813646243726114,0.04049126714987466,0
149,29.841701417848206,-0.36024152651581703,0.9094383066940545,0.20772098808499126,-0.5597111511931823,0.814772828284213,0.15122389202684544,1
150,30.041701417848206,-0.32540559339492087,0.919006122536322,0.2225734632162021,-0.4893655398471339,0.8406665681806865,0.23195061878216855,1
151,30.24170141784821,-0.3543273688380916,0.9190919477468898,0.17240100718703297,-0.4861266240399388,0.8451344585455949,0.22232555493774467,1
152,30.441701417848208,-0.496523888173774,0.864029256915541,0.08317133921475293,-0.5152282837006448,0.8331228851231058,0.2011120930203851,1
153,30.641701417848207,-0.5039449065879636,0.8619037591346901,0.05622669395882098,-0.5422935676384057,0.8232067289397493,0.16807250794323303,1
154,30.841701417848206,-0.42706131243763834,0.9029963657889598,-0.04707652059119321,-0.5393800245196338,0.8307360586921704,0.13764733901459208,1
155,31.041701417848206,-0.3999145113928883,0.9158642052172767,-0.03551254960030224,-0.5148095069015919,0.8484197740812917,0.12310588349705229,1
156,31.24170141784821,-0.3848329286060757,0.9224775623911828,-0.03063925497286817,-0.4934150303269679,0.8622154595249744,0.11456923323290116,1
157,31.441701417848208,-0.40186336121402866,0.9152784056198602,-0.02777191242478812,-0.5069580714427695,0.8549160384227245,0.1100549001481661,1
