,timeStamp,x_gaze,y_gaze,z_gaze,x_head,y_head,z_head,fixations_head
0,0.04,-0.9937831963140099,-0.03916467018258517,0.1042165405940889,-0.9992528695050613,-0.02672134571594129,0.027922615726866735,1
1,0.24000000000000002,-0.9949778483871702,-0.028759878071420955,0.09587466105366217,-0.9991563771785628,-0.03258811949016206,0.024990966598043826,1
2,0.44,-0.9598721632837769,-0.22747899529617785,0.16400834384861038,-0.9994297951733524,-0.016519370814572425,0.029448173247961756,1
3,0.6400000000000001,-0.9559928322209015,-0.24273412975877137,0.1647963803986951,-0.9988675020986384,-0.03457108850107222,0.03268873033750477,1
4,0.8400000000000001,-0.9445763227014718,-0.2894147871684917,0.1549666143399338,-0.997457673735871,-0.06615188722814734,0.02649748896743599,1
5,1.04,-0.9322648053650103,-0.33072459395815523,0.14664097527278203,-0.993448171119507,-0.10675145602557266,0.04080267069356339,1
6,1.2400000000000002,-0.9162831239782097,-0.3721794245096505,0.148012542321244,-0.9873711200858958,-0.14971556360233843,0.05180271455780982,1
7,1.4400000000000002,-0.9131351695967684,-0.3764556110627197,0.15641398577133522,-0.9853534880140846,-0.15947645504764918,0.06038016184072698,1
8,1.6400000000000001,-0.9264537067986551,-0.33746755686321567,0.16673085264522697,-0.9891337106845012,-0.12955789419515062,0.06949283732319518,1
9,1.84,-0.9416825110492834,-0.29478163367221477,0.16228936143030653,-0.9928620430660504,-0.09911445772584646,0.0663422015644597,1
10,2.04,-0.9849274515668733,0.06316122982605471,0.1610235206323751,-0.9935749034343477,-0.09758943961478804,0.057316773645226915,1
11,2.24,-0.9708966592879609,0.17630879201849095,0.16209530172234599,-0.9920884888209043,-0.10878250349121052,0.0626641626708561,1
12,2.4400000000000004,-0.9706226841188073,0.1738145697038075,0.16637337657414553,-0.988253743787918,-0.13495981165283139,0.071696493134579,1
13,2.64,-0.9182363389543657,-0.17723208394080792,-0.3541621298864148,-0.9838267349088354,-0.16432166342700852,0.07129759187519069,1
14,2.8400000000000003,-0.9122617927076448,-0.20119852136745078,-0.3567878593301433,-0.9794258882361209,-0.18976581106021842,0.06865760267838868,0
15,3.04,-0.9193972008142731,-0.3924759440131834,0.02591178314666734,-0.9731871303964224,-0.2194233539720901,0.06899420962961833,0
16,3.24,-0.9043611668382088,-0.42668426754540795,0.008450783648423256,-0.96836283885878,-0.24376985156025202,0.05338231718141235,0
17,3.4400000000000004,-0.8751754642670361,-0.4837294033593488,0.008589008708014219,-0.9549506710056131,-0.29266630565237606,0.049149257183800144,0
18,3.64,-0.832765612558358,-0.5535285250915765,0.010373352893197426,-0.9210378020233301,-0.3867932577136542,0.04561077757823957,0
19,3.8400000000000003,-0.8600225805211494,-0.5101524480606316,0.010278167710620777,-0.8612469526956481,-0.5068408507800052,0.03695995742774905,0
20,4.04,-0.5499094992652034,-0.8352059805059096,0.0055238342711967535,-0.7459530848224152,-0.6651966561924958,0.032671146815584466,0
21,4.24,-0.44393066158397587,-0.8937486582185865,-0.0643343115148516,-0.6074373429305999,-0.7915573864455308,0.0667591070711213,0
22,4.44,-0.3326504293505628,-0.9429115504580321,-0.01617095747680207,-0.5198064688854885,-0.8514380094287333,0.06967460803503744,1
23,4.640000000000001,-0.25570094638840096,-0.9654949570238529,0.04936105729808653,-0.4468812972767926,-0.8913392057623086,0.07623336812202286,1
24,4.840000000000001,-0.23922085818914318,-0.9457700469084952,0.21975531706412155,-0.4228371779223328,-0.9020339201296156,0.08685348526268821,1
25,5.04,-0.2617630203826586,-0.9416019189299379,0.21181583375094132,-0.4383118118439148,-0.8941610173548741,0.09142664076187787,1
26,5.24,-0.2690218442211202,-0.9467327553548313,0.17698682795653556,-0.44415003932606284,-0.8924865988979773,0.07873000288440099,1
27,5.44,-0.3137995267330164,-0.9383139929185558,-0.1452470575102013,-0.47127270168487345,-0.8800844469842419,0.05790860750425217,1
28,5.640000000000001,-0.32472037905191925,-0.9348870234792727,-0.1433280459590639,-0.4925756777498388,-0.8686857768775739,0.05248068920939344,1
29,5.840000000000001,-0.32281537753135175,-0.9368274196355088,-0.13470195933380244,-0.4993388023664195,-0.8649069493170222,0.0509581149022623,1
30,6.04,-0.6558109414221496,-0.7539274012499046,-0.038800550969791674,-0.5142058831718375,-0.8562442319116514,0.04937737365936693,1
31,6.24,-0.6872954605612978,-0.725585023059233,-0.03393116862070058,-0.5364645369042778,-0.8422567179978934,0.05300397750637024,1
32,6.44,-0.35178431998288995,-0.9288727047989717,0.1159452047029908,-0.5576974672633905,-0.828346962298174,0.05305511341413785,1
33,6.640000000000001,-0.37050784851414703,-0.9216661085731788,-0.11513261265597664,-0.5449909045286343,-0.8369053991825454,0.05073723287848518,1
34,6.840000000000001,-0.3306714277331877,-0.936697908725797,-0.1151235626169299,-0.5076831497746898,-0.8599824478750159,0.05184601027799321,1
35,7.04,-0.3053621060888392,-0.9481034696290902,-0.08862163980806124,-0.4836029423981293,-0.8734035762009591,0.05739675237543834,1
36,7.24,-0.29021586030424623,-0.9446875827737691,0.15277475374197158,-0.4823002005910635,-0.8732479402798426,0.06945899010806496,1
37,7.44,-0.311403091698014,-0.9351158007924739,0.16907558543198595,-0.4924796995810846,-0.8677297989181282,0.06714716352929102,1
38,7.640000000000001,-0.3157652662481058,-0.9311972691414679,0.18210969928791687,-0.4943681383244172,-0.8665298383849531,0.06874723993148593,1
39,7.840000000000001,-0.32229350182353134,-0.9299920707391568,0.17675306799210283,-0.5020993898365359,-0.8625857730846282,0.061983762371869276,1
40,8.04,-0.36607899301979546,-0.9159362574542401,0.16445954867484266,-0.5454427188052708,-0.8364207301224564,0.05378292223123656,1
41,8.24,-0.7371981900646679,-0.6723982052199811,0.06647918608351144,-0.600502811453768,-0.798182861832119,0.04796344976759659,0
42,8.44,-0.7116102775202717,-0.7018710378247293,-0.031430227335465376,-0.6653180653323107,-0.745085862460956,0.04689274467638123,0
43,8.639999999999999,-0.7301145052410105,-0.6829363800191033,-0.023037145723322352,-0.7131156138468604,-0.6992519447761701,0.05012822572722096,0
44,8.84,-0.911455263962451,-0.4112455460050116,0.011242894919840577,-0.7550956898888013,-0.6537605108175362,0.04927163085335955,0
45,9.04,-0.9204968003557743,-0.39074075497394206,0.0027023947113705613,-0.7893404377180183,-0.6131765119859027,0.03092310676386353,0
46,9.24,-0.9397939344980029,-0.34146829654589983,0.013666130937649063,-0.8397219736581163,-0.5420109961021441,0.03303160698603386,0
47,9.44,-0.9054207406348865,-0.4244414366770792,0.00792144302957321,-0.8723726406987642,-0.48813389681242314,0.02629210039124832,0
48,9.64,-0.9987181882929487,-0.04182370133634147,-0.0285089175413382,-0.9134743858446832,-0.40651611876967125,0.017583844463644967,0
49,9.84,-0.9991642650169414,0.040527435274356254,-0.005319633750391809,-0.9537401394476744,-0.30013600594019924,0.01726627767052498,0
50,10.04,-0.9987346887880113,0.020924694744171708,0.04572940587169382,-0.9801877122963946,-0.19665840130912668,0.02361190076421302,0
51,10.24,-0.9547624641394403,0.29730066430951135,-0.006399380556575969,-0.9933822679128407,-0.11206988301217323,0.02513983130371097,0
52,10.44,-0.9188510603548603,0.3946024820064194,-0.001268888932282774,-0.9994770800788041,0.0069576132656949214,0.031577808897905506,0
53,10.64,-0.8363979368928247,0.44078972294189,-0.32579581229696375,-0.9898790727378912,0.1413750090851957,-0.012350229217879689,0
54,10.84,-0.7845800274780398,0.48455522679778484,-0.3868338308182282,-0.9578715533975933,0.26925976553181863,-0.099906285375005,0
55,11.04,-0.8318801369269392,0.45860839818195265,-0.3124960398203481,-0.9247382029989658,0.36264866202509805,-0.11552144322873593,0
56,11.24,-0.5594104123991317,0.8166521369762167,-0.14191292284923257,-0.8424953046452888,0.5211978674003338,-0.13621470063097513,0
57,11.44,-0.3212567364571766,0.9280274384292875,-0.18857142626405288,-0.6928035196916974,0.7094457471579438,-0.12926722300066124,0
58,11.64,-0.20627634033000347,0.9709708476709544,-0.12110195866792864,-0.452839380203105,0.8832866671745668,-0.12141317609268641,0
59,11.84,-0.14972344238672874,0.9865323112387523,-0.06585506572613548,-0.26046775882216366,0.9613975324477952,-0.08872052309048782,0
60,12.04,0.26366991651278043,0.9617134725938243,-0.07473534476852832,-0.04932318166618321,0.9979319489111791,-0.041219523197884404,0
61,12.24,0.5523943386948335,0.8191808118520376,-0.15428315550096416,0.19756731015353124,0.9782310653931199,-0.0634912644270088,0
62,12.44,0.6092729489958113,0.7829528076543439,-0.1255841335843311,0.39523875414487736,0.914561305835537,-0.08581343187638268,0
63,12.64,0.5291192846938648,0.8326896253313691,-0.16328126172514867,0.48069270190990326,0.8745889399340635,-0.0634721393649854,0
64,12.84,0.8020863146463727,0.5663028158579689,-0.1896277000027563,0.5197789826044683,0.8536828299239926,-0.03248746120624721,0
65,13.04,0.7375120993940393,0.6500479180396411,-0.18306722125963776,0.40948557957655596,0.9122076496137018,-0.014098372427271131,0
66,13.24,0.4254832870410379,0.9038206256480247,-0.045521962852746,0.24195934341703929,0.9699808725415322,0.024347136110085075,0
67,13.44,0.4218951704889779,0.9046286634064038,-0.06042719968374507,0.19923213912734705,0.9799046881934699,0.00966213202145125,0
68,13.64,0.2428748687107804,0.9693911693156467,-0.03595217659008015,0.13664235577572947,0.9905724340824342,0.00975291977106652,0
69,13.84,-0.12220220917114621,0.9886086322276828,0.08786121077359453,-0.0710485483814784,0.9959507926721697,0.05508286801321666,0
70,14.04,-0.5881795964335172,0.802457438379792,-0.10053269084356316,-0.4462334174625817,0.894686342551566,0.020299891412698404,0
71,14.24,-0.7080458090690972,0.7037462396789391,-0.05841542944668742,-0.7965891206066527,0.6033809707452719,-0.0371103364793897,0
72,14.44,-0.9692715967106067,0.24585743923147152,-0.00816647932798005,-0.9788402413410328,0.19678538841726856,-0.05610073829187804,0
73,14.64,-0.9968482132141078,-0.07920933181561732,0.0044183215324572105,-0.994874897018505,-0.0694201170139801,-0.0735172540032916,0
74,14.84,-0.9985742940780692,-0.05121240773201678,0.01505551396584267,-0.9654877592217708,-0.2590257030359251,-0.027185877945527792,0
75,15.04,-0.9018621670757525,-0.43015134873731203,0.040180203793642066,-0.9013779757552371,-0.432380523213333,-0.02376610967650362,0
76,15.24,-0.8355248287630386,-0.5474082529803004,0.047354673365473984,-0.8339775193229737,-0.5517840258976675,-0.003985728046635948,0
77,15.44,-0.6959382434124812,-0.717964778417145,0.014019212116585066,-0.7829936683438863,-0.6219747524661109,0.008265750305002196,0
78,15.64,-0.651490078673546,-0.7585886253848908,0.01019680472491962,-0.7272185772637095,-0.6861569187437457,0.01848847594137828,0
79,15.84,-0.48975953731677097,-0.8688584783160648,-0.07225330626037318,-0.6644297452832011,-0.7467179651713077,0.030747261232870315,1
80,16.04,-0.4358885184431367,-0.8991998356492085,-0.03795859662689493,-0.6300056245938599,-0.7753343257036536,0.0441542338373286,1
81,16.24,-0.4180199016950215,-0.9076776083387664,-0.03715805575244333,-0.6074886283465587,-0.7932411025219412,0.041546596724548114,1
82,16.44,-0.410918401282186,-0.9115749725579902,-0.013309278477500177,-0.5959695789064425,-0.8013357081588217,0.051781694136806916,1
83,16.64,-0.45466862751619075,-0.8906434466981703,-0.005539856148578756,-0.6335806055827301,-0.7719114036993381,0.05223409871279881,1
84,16.84,-0.5072572816082086,-0.8617922845513031,-0.002026954192122109,-0.6751342417591257,-0.7348850672310473,0.06432490625838104,1
85,17.04,-0.7711923549085337,-0.6363274561126728,-0.018700810886292673,-0.7084209453792344,-0.704058046763921,0.04941690940320547,1
86,17.24,-0.7134727344274903,-0.7005013492352872,-0.015953587311410597,-0.7510393564516683,-0.6596518561586726,0.028272136938729736,0
87,17.44,-0.7294101714242514,-0.6834075369111631,-0.030247980360041896,-0.7926925159211338,-0.6095906663057588,0.0061477439377381135,0
88,17.64,-0.9554651490944159,-0.29509381490864606,0.00244729823421876,-0.8504201683178545,-0.525882542889186,0.015267232972471031,0
89,17.84,-0.9675830267860088,-0.252349078561549,-0.010150311559888757,-0.895344389163181,-0.445195382483004,0.012629180884851134,0
90,18.04,-0.9994605795439252,-0.02960596144825914,-0.014213971452257357,-0.9379049077044374,-0.3468377976858872,0.006158425150556811,0
91,18.24,-0.9998199324199406,-0.018732135049028906,0.0030347738450458342,-0.958285343034032,-0.2850354623859509,0.02107098736593132,1
92,18.44,-0.9995570791465164,-0.029740824646592025,-0.001062486435541308,-0.9616088900112718,-0.2737329438857235,0.019458110980905614,1
93,18.64,-0.9986657846583398,-0.05145617244219313,0.004348893001906108,-0.9541315074946837,-0.29873129276681093,0.019816183482004836,1
94,18.84,-0.9557437577353789,0.28777276908082766,-0.0611612861654358,-0.9694311750849014,-0.2443315744136688,0.022478401145210682,1
95,19.04,-0.9380204834040594,0.3420947959603527,-0.055576283532269705,-0.9852503724609293,-0.16862254751898736,0.029122843848209398,1
96,19.240000000000002,-0.930287780849668,0.36472384649773887,-0.039257618339553824,-0.9902409306194284,-0.13631956845046606,0.02898058977052923,1
97,19.44,-0.9351852999032135,0.35250507597130293,-0.03418517601830601,-0.9902567852119586,-0.13691140738759955,0.025431591944348065,1
98,19.64,-0.9767158551954024,0.21430074991548395,0.010066121178246923,-0.9846369081344392,-0.1732080539025614,0.02211626556948293,1
99,19.84,-0.9779834254796625,-0.20575231838118271,-0.034848285005634506,-0.9726760708735243,-0.23135072138068608,0.01944491878817799,1
100,20.04,-0.9755092400423421,-0.21739774735813316,-0.033465535041622065,-0.9624025613312442,-0.2703598908157476,0.026207620669536764,1
101,20.240000000000002,-0.9704669476646374,-0.23868551628094928,-0.03497324417577827,-0.9489499876733279,-0.31419617852012716,0.02783311513538506,1
102,20.44,-0.8691935690494739,-0.49443458924157696,0.0060808292650496665,-0.9351450700029311,-0.35293220369972383,0.03070110162306966,1
103,20.64,-0.8749054299569118,-0.48425281553235483,0.006300736536176595,-0.9318958416866681,-0.3608545469634677,0.03679858941436481,1
104,20.84,-0.9628967534426571,-0.2690156107853492,0.021457944062197566,-0.9389824442125861,-0.3422471054914834,0.0343349420162488,1
105,21.04,-0.9138915329361874,-0.4037313981010844,0.04246438760761283,-0.9373972928073536,-0.3461988893930322,0.03785028956924929,1
106,21.240000000000002,-0.9120612962873699,-0.40842740876574424,0.03648621086797132,-0.9352249601388279,-0.3521643824269555,0.036531105693216055,1
107,21.44,-0.9090350356262402,-0.41584310950379927,0.027015038075333935,-0.9375821680551125,-0.34595389805031496,0.03543414411083047,1
108,21.64,-0.9070560694366477,-0.42093011749572795,0.008192867823437141,-0.9392237496958735,-0.3413646733169863,0.036454187940628865,1
109,21.84,-0.8985902368166312,-0.43874904230733347,-0.005904589082115234,-0.9362153083493512,-0.3500168189651777,0.03145032358859675,1
110,22.04,-0.8921938593527612,-0.4516119259201495,-0.006065121591447427,-0.9344695639312924,-0.35523456209938303,0.023979991161801297,1
111,22.240000000000002,-0.9725313717314414,-0.23251169454814027,0.011001949668737052,-0.936890933629751,-0.3492445725259433,0.01623597990714152,1
112,22.44,-0.9733219048244054,-0.22923041934567723,0.009893656331012432,-0.9401109848969248,-0.34040710576671895,0.017729591638281594,1
113,22.64,-0.9761167376482669,-0.21713595850003162,0.006934696040732144,-0.9456737369967227,-0.3244424594571937,0.02093498641080557,1
114,22.84,-0.9779389346296016,-0.20886598084214655,0.003231436579581318,-0.948713551834752,-0.3154049209576683,0.02150191621173459,1
115,23.04,-0.9102318744177491,-0.1851777825811044,-0.3703878016785874,-0.9506950072442019,-0.3093790559775766,0.021531440345946996,1
116,23.240000000000002,-0.9110641668352475,-0.18546931430673627,-0.3681891054327733,-0.9514577699593751,-0.30680869640639324,0.024424082241556587,1
117,23.44,-0.9822134022806039,-0.18754184385853093,0.009213532574593444,-0.9507637545451819,-0.3094139803241094,0.01764289724339568,1
118,23.64,-0.9818012697657978,-0.18961871673475814,0.01053607849870218,-0.9480078078924595,-0.31759053844794066,0.020431496843862765,1
119,23.84,-0.8796893254093491,-0.4671495539492625,-0.0889830602185025,-0.9488982632059809,-0.31490694713223216,0.020632516388721486,1
120,24.04,-0.8849861176239963,-0.45799690584012626,-0.08389520757276228,-0.9511375825888819,-0.308071061911396,0.02072485946304518,1
121,24.240000000000002,-0.8867569803365908,-0.4541472080949904,-0.08609512880446155,-0.9513900917627014,-0.30735253423720016,0.01978163273669838,1
122,24.44,-0.8867403412828506,-0.45468387416685907,-0.08339149665397295,-0.9509297753545313,-0.30924865016807473,0.009891143179866797,1
123,24.64,-0.883770467118342,-0.4597217376209474,-0.08721058082712725,-0.9471744095874913,-0.3207139853175598,0.0017825387276593292,1
124,24.84,-0.8422295537679634,-0.4756625325873774,-0.25376078076089625,-0.9408919815854605,-0.3384574990012894,-0.012992319191661892,1
125,25.04,-0.8733241562156641,-0.48625969463645513,-0.029264783311346625,-0.933861841546687,-0.3572140271084108,-0.017326273114032772,1
126,25.240000000000002,-0.8713102351325154,-0.49033461079936225,-0.01975964588647389,-0.9300822662595285,-0.3669652103131889,-0.016837826740314733,1
127,25.44,-0.7903630399417663,-0.6079525980751662,-0.07563004421303628,-0.9287931596533824,-0.3702426897825544,-0.016236294024996316,1
128,25.64,-0.8294692615301191,-0.5502545746927456,-0.09592000420342332,-0.9274045627173882,-0.3738601935519203,-0.01222017709736114,1
129,25.84,-0.8284890392534561,-0.5490347686371071,-0.11030292228442416,-0.9260101210977311,-0.37742564705785725,-0.007425400159152196,1
130,26.04,-0.9824792580435872,-0.18616044292687453,0.008876767620734765,-0.9322774904184596,-0.3617434894225239,-0.0005733406278686152,1
131,26.240000000000002,-0.990700087755718,-0.1358487593838793,0.007645305400928927,-0.9496791832496281,-0.3131946469490231,0.004308366836353273,1
132,26.44,-0.999435472118982,-0.00045213398656449586,0.03359363995112761,-0.9621122065171188,-0.2726460958615064,0.002051458563870286,1
133,26.64,-0.963396223772676,0.19679677578635918,0.1820405039013072,-0.9741355576728251,-0.2255828993411123,0.013125197229438454,1
134,26.84,-0.960507525161778,0.20975221937279448,0.18283681406047222,-0.9846948509219495,-0.17081328415758987,0.03462473859971092,1
135,27.04,-0.9360518275566128,0.13004532061931837,0.3269482997553954,-0.9889375915031715,-0.1289191879338013,0.0733640449702409,1
136,27.240000000000002,-0.9367140927162558,0.11415535413481419,0.3309611210234775,-0.9869934514376313,-0.11884999661162184,0.10825250632040706,1
137,27.44,-0.9391500755410896,0.09008161103399269,0.3314852017280496,-0.9850495646427407,-0.1230374599978693,0.12057835060416076,1
138,27.56,-0.9419218769376707,0.07829899100969501,0.3265768604066727,-0.9851167596341701,-0.12201441386182144,0.1210679672656196,1
