,timeStamp,x_gaze,y_gaze,z_gaze,x_head,y_head,z_head,fixations_head
0,0.04,-0.9995734277655876,-0.028396774691533393,0.006825371203971433,-0.9940659999870703,-0.07673662066307041,0.07709914862641551,0
1,0.24000000000000002,-0.9997945489200012,-0.020209721675097436,0.0015579151667120682,-0.995553151886558,-0.06293634124330026,0.07009235849682184,0
2,0.44,-0.9899805109451318,0.12837263576744512,0.0588137257358773,-0.9973486044192205,-0.04183163309472226,0.05954725632354035,0
3,0.6400000000000001,-0.9840066012632936,0.17779805134108376,0.010902367154646916,-0.9993974781372905,0.03340125124168986,0.009435947663795744,0
4,0.8400000000000001,-0.8198254536559344,0.44958796711683274,-0.35462217268748875,-0.9463474982496448,0.2602531792142793,-0.19155859486198748,0
5,1.04,-0.7804857760020589,0.49395380940758593,-0.3832121966093956,-0.8363878153064231,0.425522292102813,-0.3455230836435062,0
6,1.2400000000000002,-0.7717745873897978,0.5110311173484259,-0.378432534754779,-0.7769099337028693,0.5025627227567471,-0.3792646366445571,0
7,1.4400000000000002,-0.38147037910217463,0.9023188362082899,-0.20075125825598397,-0.7113997666008325,0.6030285644575671,-0.36092509268340844,0
8,1.6400000000000001,-0.25247326308223383,0.9442068668565762,-0.21149620329806684,-0.4260181611878142,0.8498620123499003,-0.310230698517622,0
9,1.84,-0.04597092387669438,0.963056920182161,-0.2653451387291168,-0.1189364460209596,0.9560994541462762,-0.2678207527229661,0
10,2.04,0.28816644160914195,0.9171191016091149,-0.2754136078591892,0.15019138323265957,0.9643628772028985,-0.21782283965555063,0
11,2.24,0.6501098180389523,0.7465686973013324,-0.14139450024365216,0.4278393157592211,0.8891544049219903,-0.1623513600143313,0
12,2.4400000000000004,0.8880930725221761,0.4583045832330136,-0.03532143153575222,0.6880305697321459,0.7163640958873883,-0.11591556080830452,0
13,2.64,0.9730773572597031,0.22714231686131292,-0.03907460402035097,0.854358380764231,0.5075693340028702,-0.1115577357147605,0
14,2.8400000000000003,0.9837953439078995,0.17189469158915546,-0.05097976371666466,0.859857119689429,0.500884380999987,-0.0987956000521228,0
15,3.04,0.46640058993072775,0.8756473272749027,0.12534850596871377,0.681054427799066,0.7314993074979449,-0.032766286108038015,0
16,3.24,-0.061586482330566406,0.995943528744306,0.06560177395838075,0.24041672081980692,0.9681031486302722,0.07054143436593513,0
17,3.4400000000000004,0.011880090442337565,0.9969867300675148,0.07665718179248757,-0.027183951847491616,0.9950045684143262,0.0960569705777476,0
18,3.64,-0.3864258658686157,0.9180891112805034,0.0882464386582605,-0.20790461046027892,0.9726836479557017,0.10325790017692786,0
19,3.8400000000000003,-0.6554931291527024,0.7486806614139406,0.09902537482071513,-0.6089794284951194,0.7875102176526939,0.09471912564189222,0
20,4.04,-0.6676571562353819,0.7308797379548809,0.1415935393112546,-0.8614731934871701,0.49315632571525786,0.1210816885827237,0
21,4.24,-0.9868611753703355,0.1496515611737538,0.060905096543217886,-0.9423839527845268,0.31026756464238453,0.12508606583106932,0
22,4.44,-0.9922627795516972,-0.1109871295616745,0.05564560528919413,-0.9742886473558545,-0.20490403852470435,0.09368012932189122,0
23,4.640000000000001,-0.4959280178371278,-0.8673017625475293,-0.042930802532527144,-0.635290995113678,-0.7722720339112246,-0.0011212341831368054,0
24,4.840000000000001,-0.17794035610065068,-0.9839850059631263,0.010523198682895953,-0.36575543442430547,-0.9306932863534323,-0.005741857342019711,0
25,5.04,-0.2201463485275172,-0.9688356352394898,0.11354777461533556,-0.2366151223047812,-0.9694681889861259,0.06437945666634959,0
26,5.24,-0.20598639512325345,-0.9722654426033727,0.1107678389398078,-0.15906459734224465,-0.9850454690630305,0.06621085825409638,0
27,5.44,-0.15831692866755587,-0.9849212121708864,0.0697564041010163,-0.07716728763027925,-0.9958370519397857,0.048515726354064335,0
28,5.640000000000001,-0.25636818125410366,-0.9632659199189324,-0.07996326133416472,-0.07316681229241845,-0.9962024314151201,0.047194631279085915,0
29,5.840000000000001,-0.3349750791567856,-0.9421473032301313,-0.012253789621836412,-0.15371927147591563,-0.9843506523880943,0.08616367401664869,1
30,6.04,-0.41005936884730254,-0.9114403312464912,0.03358327854511076,-0.24652648991054643,-0.9630531861219166,0.10841240921965638,1
31,6.24,-0.3449737390565793,-0.934190143377208,0.09100491952743595,-0.2804821077563174,-0.9550178004972973,0.09628493112568694,1
32,6.44,-0.33328868471014633,-0.9395806627659696,0.07814621424254772,-0.28286086942818717,-0.9558028795874384,0.08019092167253634,1
33,6.640000000000001,-0.34264926953446756,-0.9372861731709449,0.06392266945349734,-0.29824374353527444,-0.9523140864565164,0.06440923985388979,1
34,6.840000000000001,-0.3228321866830616,-0.9098993145725386,-0.260504542344001,-0.29217493532019384,-0.9560332957037734,0.025182229377523523,1
35,7.04,-0.3106038516333772,-0.9073633213584168,-0.283226147104983,-0.27485392139019954,-0.9614733618182069,0.004929138913200256,1
36,7.24,-0.29042188175091366,-0.9125584710816843,-0.2879099988838829,-0.24504646848037637,-0.9695039194510293,-0.003791893245896531,1
37,7.44,-0.2729464930216289,-0.9546057482465103,0.11928150469336973,-0.2066696913465531,-0.9781637879451103,0.021982780342662864,1
38,7.640000000000001,-0.2679190001226469,-0.9275626322607939,0.2604745143132214,-0.1597883939149779,-0.9766789337541877,0.14340826172454288,0
39,7.840000000000001,-0.29241080676902814,-0.9284705465106035,0.22899424522679135,-0.16212196744863788,-0.973751536190396,0.15976361737713363,0
40,8.04,-0.29961026738746155,-0.9371533521984616,0.17882192857476986,-0.16187181758678143,-0.9744901884678464,0.1554554188539361,0
41,8.24,-0.29302994371503976,-0.9437266957683523,0.15334071794702445,-0.14839602083647074,-0.9764211313642203,0.15678136121783728,0
42,8.44,-0.22766822082496907,-0.961718124266759,0.15253009763066416,-0.06520462689762246,-0.9845611667968852,0.16244280675578665,0
43,8.639999999999999,0.40982585134169286,-0.9120804712726192,0.012328239743525767,0.14829485193940806,-0.9751532527500707,0.16457451363812625,0
44,8.84,0.44720143783939775,-0.893685543642787,-0.036565326174833594,0.33028587692287,-0.9346515116561979,0.13167304683979428,0
45,9.04,0.5602191672527735,-0.8253343290446649,0.07055302929712842,0.39838922026875356,-0.9017636552487894,0.16765541818264337,0
46,9.24,0.39535449224091135,-0.8529890047596355,0.3407412261879949,0.41495353421661724,-0.8752928162894148,0.24834663314263725,0
47,9.44,0.1632100842777215,-0.9084633553284043,0.38478149697655234,0.3285327817421087,-0.8852527016863555,0.3292322363891491,0
48,9.64,0.15844183257637617,-0.9161553969864121,0.36817859017399357,0.17945553600047498,-0.9051916160651053,0.385258158647193,0
49,9.84,0.5454061682634581,-0.7960654273946539,0.2623203135998803,0.23140931703680695,-0.8922623090499104,0.3877082664033371,0
50,10.04,0.527289892932495,-0.8029453113957172,0.2779284003459757,0.22799694111773955,-0.883241833819687,0.4097575598226226,0
51,10.24,-0.19520699732136876,-0.7584823613571813,0.6217706455814793,0.026758092600018213,-0.8679757708187158,0.4958851336267956,0
52,10.44,-0.3694962861250353,-0.7212450942976766,0.5858993160017699,-0.18636287166050866,-0.8215731280185313,0.5387824007744635,0
53,10.64,-0.5962767678361129,-0.5294371049074945,0.6034487286307669,-0.4306102593677608,-0.7068115111382114,0.5612417413644039,0
54,10.84,-0.6714979280804174,-0.3127202432940974,0.6717861132963285,-0.6714177380947401,-0.4682799853205167,0.5743797318150768,0
55,11.04,-0.4916663948658198,-0.12798685234352375,0.8613266057581441,-0.6899320785106614,-0.3263156927697106,0.6461515268837353,0
56,11.24,-0.506428829958443,-0.06428203550570377,0.8598823524751315,-0.728837658960033,-0.2598177357248663,0.6334748701286123,0
57,11.44,-0.9647218056684027,-0.06098178468329057,0.25611142029346823,-0.8794653038033695,-0.21614200769454242,0.4240559065923028,0
58,11.64,-0.9655763900188601,-0.04872570557932124,0.25551524544328824,-0.9229326677049677,-0.19620428523900704,0.3312086492482379,0
59,11.84,-0.9996667137814053,-0.02580028348650434,0.0008981812188965919,-0.9346517403972225,-0.17880687242799637,0.30733406343092073,0
60,12.04,-0.9921893414622409,-0.017780336393342814,-0.12346728443787972,-0.9665894206901893,-0.17752359052640007,0.18490610216112208,0
61,12.24,-0.9481583488412407,-0.31556242032592713,-0.03763116262746897,-0.9744482431959336,-0.185303496702728,0.12693791963830486,0
62,12.44,-0.930737204569952,-0.36317258535345304,-0.04282440048617483,-0.9579447842167831,-0.26362899111669025,0.1133205428625257,0
63,12.64,-0.882290958361083,-0.4690856062383732,-0.03900459991154584,-0.9067746170694367,-0.41428349890814137,0.0782877791932081,0
64,12.84,-0.8563984301045469,-0.5152309602683518,-0.03344826595534795,-0.8227764163858646,-0.5655795501224807,0.056202678961833355,1
65,13.04,-0.8607817527262611,-0.5078764473844585,-0.03341090189814714,-0.7909113331327627,-0.6101829352027294,0.046217406997124545,1
66,13.24,-0.6589286639677736,-0.7499849951030626,-0.057753986199261816,-0.7397227646228747,-0.6711020254255862,0.04931838367553132,1
67,13.44,-0.6603484930172749,-0.748065551741089,-0.065861962224901,-0.7256979906170865,-0.6866908501560668,0.04263921582606335,1
68,13.64,-0.6716513063483456,-0.7375549464925671,-0.0699801656536142,-0.7275031582341135,-0.6851546655349698,0.036086549503302416,1
69,13.84,-0.6843167717168956,-0.7260794798413196,-0.06722458553479795,-0.7357649637759291,-0.6763083976136773,0.035452353899647834,1
70,14.04,-0.6928382932414272,-0.7178189096028484,-0.06863754391646147,-0.7442043066933456,-0.6672942828043488,0.02963595849144467,1
71,14.24,-0.716127995527784,-0.6946344794059847,-0.06814421502765335,-0.7709857819889722,-0.636323129516398,0.025957634971444404,1
72,14.44,-0.7628884010822676,-0.6165588459168483,-0.1945674099530178,-0.8595563916109609,-0.5109599958659988,0.009093528763001622,0
73,14.64,-0.9916284097440189,-0.08027130924637194,-0.10114155377698092,-0.9496754696887295,-0.31318680630281753,0.005525090889082036,0
74,14.84,-0.9848894394006948,-0.12775588403279547,-0.11692401914056828,-0.986287504635921,-0.16503397990133228,0.0008623670765231965,0
75,15.04,-0.9841011977564629,-0.1380017248087013,-0.11180499328795131,-0.991096844637174,-0.13285342742808762,0.008775612277645678,0
76,15.24,-0.8273236978348191,-0.5593732098751872,-0.05135280980482931,-0.9134327311272596,-0.40489516595912006,0.04123772894246265,0
77,15.44,-0.6809199991840066,-0.7311043485031902,-0.04282973629358763,-0.7994652332316513,-0.595363680355437,0.07998392943267264,0
78,15.64,-0.6666925367976202,-0.7433386711309462,-0.05448560708694703,-0.7541327436305146,-0.652482565314506,0.07450038217965194,0
79,15.84,-0.6528021584334252,-0.7553285173556079,-0.057690318200200985,-0.7130449319504569,-0.6974123203090634,0.0719929197969959,1
80,16.04,-0.6513274900889873,-0.7568826110147109,-0.05386291672323871,-0.6845222382279152,-0.7249310638471286,0.07683916996503724,1
81,16.24,-0.3495092078556788,-0.9366549057412498,-0.02282325951626785,-0.6304364759403337,-0.7716026238417562,0.0847304000017146,1
82,16.44,-0.35844380727174663,-0.9333509072246573,-0.019342208029188127,-0.6243901708220907,-0.7770933213400375,0.07913838834263452,1
83,16.64,-0.3377531762416081,-0.9225342266247035,-0.18669063352151732,-0.6205301172532338,-0.7810269140527341,0.07028038920603225,1
84,16.84,-0.3443349748177713,-0.9163439691527332,-0.20432120622847644,-0.6231197505912434,-0.7801495351447129,0.05557408781613307,1
85,17.04,-0.9581905281981582,-0.27092283846564913,-0.09204198644667744,-0.78419605247511,-0.6177869925186806,0.05810149014593554,0
86,17.24,-0.9727890232006203,-0.21012745448379858,-0.09761131703108061,-0.9199492387098964,-0.38911607660458075,0.04777109089125525,0
87,17.44,-0.9467735346662933,-0.3071841277527377,-0.09621738778559323,-0.9541479358154503,-0.29606793140791904,0.04410778356425574,0
88,17.64,-0.9478520794223917,-0.30203584059555527,-0.10173881525938942,-0.9680306243107515,-0.24823943912726054,0.035970699997639154,0
89,17.84,-0.9576828490205362,-0.26822916794412655,-0.10438713596947817,-0.9828168193621543,-0.18181411929105395,0.03185475796921515,0
90,18.04,-0.9630471174641969,-0.24890806807918256,-0.10288354187619303,-0.9913339682923367,-0.12723416751366912,0.03268684638921271,0
91,18.24,-0.9927942595864241,-0.09052529994610596,-0.07851578313888045,-0.9967622248767734,-0.0706570056590382,0.03837518221459465,0
92,18.44,-0.994927483339018,-0.06664275975907917,-0.07535280663904846,-0.9985731740665413,-0.027524442866524147,0.04576047508014765,0
93,18.64,-0.9872557720600061,0.1228556802121077,-0.101155930986877,-0.9982478615661623,0.03266899580955918,0.049335013847971065,0
94,18.84,-0.9211809977124342,0.38849534030695276,0.022292151383600772,-0.9939503924230356,0.09695420631993713,0.05159941161452288,0
95,19.04,-0.9008150703982393,0.43317553950609594,0.02985231845298172,-0.9806464243369586,0.18302595401996585,0.06952762465538163,0
96,19.240000000000002,-0.911603886063179,0.40254622949981383,0.08327597510683354,-0.9549159687079156,0.2727327644178468,0.11727033691271814,0
97,19.44,-0.9125252539080522,0.3949285065403609,0.10643841271761365,-0.9368915860050853,0.303728719564862,0.17315605962358221,0
98,19.64,-0.9213670048376993,0.3702443819957972,0.11832979336142274,-0.9284291974170351,0.30257326273962215,0.21556587405862765,0
99,19.84,-0.9276265964232548,0.34985896772096653,0.13079602560256812,-0.9239985371142958,0.29334675391154735,0.24530467867572225,0
100,20.04,-0.9399120486892966,0.05635049580499543,0.33673426073273377,-0.9239826676167369,0.21717841582262334,0.3147849514265809,0
101,20.240000000000002,-0.9325448061953143,0.00993783686549074,0.36091747510556826,-0.9204266553882147,0.15365273807042487,0.3594518161511027,0
102,20.44,-0.929473441199341,-0.005385757953039847,0.3688497196912673,-0.9185763994040225,0.13574303304015312,0.37120240764170964,0
103,20.64,-0.9226445660493793,-0.013690387024103927,0.38540832637954636,-0.9134682027569975,0.12300731942004363,0.3878724557389927,0
104,20.84,-0.8969015027856255,-0.03672949631695418,0.44070243748042714,-0.8858717581662627,0.09273090433429293,0.4545681549171242,0
105,21.04,-0.8996161662269232,-0.04816189203689819,0.4340174945996984,-0.8288607667621622,0.03914236414595227,0.5580839584251697,1
106,21.240000000000002,-0.8883664974168026,-0.0725242346697903,0.45337093163651715,-0.7996501550527081,0.020097108256944465,0.6001297657706114,1
107,21.44,-0.8839453545525797,-0.07618474799612987,0.4613420578461068,-0.781830219213469,0.014948241082223914,0.6233121677082578,1
108,21.64,-0.9501723756300706,-0.07579847484310893,0.3023690589345516,-0.7846889135231842,0.008104297616199905,0.6198367763806479,1
109,21.84,-0.9519053860919614,-0.0815057936065926,0.2953522329993017,-0.7872247493365226,-0.0033867381105499427,0.6166568932859015,1
110,22.04,-0.9506057091374508,-0.06676266453701274,0.3031361614509268,-0.7917750208547178,-0.010417977204350587,0.6107239819275815,1
111,22.240000000000002,-0.9508423495800099,-0.056608887949361086,0.30445732057269215,-0.8033806785242023,-0.022238667197073105,0.5950503567390666,1
112,22.44,-0.9284705051630981,0.03309137608639285,0.3699290227474592,-0.821601003634577,-0.024909909192833556,0.569518469630846,1
113,22.64,-0.9294908470595477,0.032674562068648806,0.3673950710422599,-0.8330792010516439,-0.002892012642416298,0.5531461660700825,1
114,22.84,-0.928196508974229,0.04106384267839592,0.3698175246693134,-0.8326950625063455,-0.00026369166887244347,0.5537317611842919,1
115,23.04,-0.927659874232309,0.050480461857282444,0.3699984874428165,-0.8315666324617497,0.00457286741240407,0.555406179889866,1
116,23.240000000000002,-0.924466571421755,0.075639183383476,0.3736847230765347,-0.8282540393426648,0.01363278134870446,0.5601869273601966,1
117,23.44,-0.9212762869117346,0.11198261644699843,0.37243777572610914,-0.827204922001028,0.04527725994215095,0.5600731976709871,1
118,23.64,-0.9032893131262563,0.22514606262734668,0.36520907337482617,-0.8165065946093414,0.15906233006977447,0.5549920324763509,1
119,23.84,-0.9236413210568141,0.15623377685078463,0.34996816570562905,-0.8140732644929727,0.2020577409652261,0.5444790072663819,1
120,24.04,-0.946628613365849,0.023627357827992215,0.3214591985293278,-0.8146616966210843,0.2163630653252919,0.5380644422571521,1
121,24.240000000000002,-0.9479387533134607,-0.013335935679855464,0.3181733376417088,-0.8221989927934045,0.18540846593327956,0.5381565915324084,1
122,24.44,-0.9437272232275742,-0.04983126540684204,0.32694919043656473,-0.8232902815895211,0.13476672372081105,0.5513901000360868,1
123,24.64,-0.9406922430430531,-0.0597304686485867,0.33396163700887865,-0.8210648872532225,0.10369264549591574,0.5613379429451671,1
124,24.84,-0.9424393459738746,-0.07082339834374746,0.32679064461422247,-0.826139181436853,0.07843933548185547,0.5579796802250164,1
125,25.04,-0.9432270065550478,-0.08400355160060986,0.3213506144753542,-0.8299945606209805,0.0517408337782492,0.5553664695131652,1
126,25.240000000000002,-0.9427611906425274,-0.09610924627951258,0.3193185716457288,-0.8312060388973288,0.02536003634420169,0.5553858023547537,1
127,25.44,-0.9457420950404873,0.04523136670056905,0.3217545852584373,-0.8240273286225426,0.010955234585923151,0.5664441230327698,1
128,25.64,-0.9480754464178037,0.028953140971712987,0.31672490196944497,-0.8249542981103224,-0.005975459688472877,0.565167851094537,1
129,25.84,-0.95122131384499,0.012779550609527129,0.3082445379454921,-0.8308181625123267,-0.012903767375887734,0.5563943508224635,1
130,26.04,-0.9534286553105077,-0.009430661132664487,0.3014711625734681,-0.8357918687851387,-0.0338740066296326,0.5480004596234397,1
131,26.240000000000002,-0.9546561105509407,-0.018300597995063502,0.297147772498421,-0.839318553059057,-0.04397871309421106,0.5418581357564252,1
132,26.44,-0.9548844180240553,-0.01379790652946204,0.2966569837207031,-0.8410551072468858,-0.04670693528245622,0.5389292799342509,1
133,26.64,-0.9555090106343631,0.0003374045919424287,0.29496172082946936,-0.8428988717422512,-0.04096037824763841,0.5365107076559148,1
134,26.84,-0.9539945082018186,0.01815659597265478,0.29927381499799866,-0.8416534852593998,-0.030188303641854482,0.5391735129565741,1
135,27.04,-0.9526799235804144,0.035081637046875634,0.3019441040141825,-0.8406282542196722,-0.021411329243576777,0.5411891473298489,1
136,27.240000000000002,-0.9555280232417385,0.042251947239834574,0.2918577902920845,-0.8475757835452571,-0.02271859239809155,0.5301878503955867,1
137,27.44,-0.9819230185293655,-0.031433759674739825,0.18665236252158807,-0.8985970685704938,-0.106081174640228,0.4257582562246622,1
138,27.56,-0.872699940242992,-0.4877167214503966,-0.022961139291304743,-0.9232993812322966,-0.22457494934732045,0.3115836079477018,1
