,timeStamp,x_gaze,y_gaze,z_gaze,x_head,y_head,z_head,fixations_head
0,0.03333333333333333,-0.9987335544562734,0.047260712077783026,0.01725434139685531,-0.9933654657478971,-0.012569802105684588,0.11431120476352094,1
1,0.23333333333333334,-0.9997337392081401,0.005331798225583407,0.02245044802653939,-0.9922200504781785,-0.04165025148167904,0.1173227513340613,1
2,0.43333333333333335,-0.9369663300880249,0.22157558423163196,0.27018208074146816,-0.9914297632897293,-0.030290849605502733,0.12708063933364483,1
3,0.6333333333333334,-0.9418658202350131,0.2231204406088578,0.25120916714072267,-0.9913452424933931,-0.023889601750149987,0.1290887179963268,1
4,0.8333333333333334,-0.9433958695379161,0.22534299224006313,0.24336139625481717,-0.9914402938478646,-0.015788510696262754,0.12960272630177866,1
5,1.0333333333333334,-0.9685009660730521,-0.033858235245454234,-0.24669718000339633,-0.9922020874572566,-0.007112085272628023,0.12443647330480487,1
6,1.2333333333333336,-0.9693027992635416,-0.0414185756936438,-0.24235631810904468,-0.9927494440355534,-0.005855329975958065,0.1200593872963402,1
7,1.4333333333333336,-0.9655778088967725,-0.061187565209783905,-0.25281530181103856,-0.9931791030698803,-0.011943316044927705,0.11598545782622495,1
8,1.6333333333333335,-0.9613285421678457,-0.07533913040650723,-0.2648989419439716,-0.9937679067104229,-0.019462625171563903,0.10975679393010712,1
9,1.8333333333333335,-0.9822758541704926,0.09853641259167537,-0.1594513145357926,-0.994580712346629,-0.02848696873134201,0.09998849554109553,1
10,2.033333333333333,-0.9824441388050047,0.09754083387694991,-0.15902609802885254,-0.9947781519030781,-0.021003756868650313,0.09987627693150758,1
11,2.2333333333333334,-0.9315574951445444,0.20040964959392685,0.3033753542884811,-0.9768348831763071,0.015621611538902765,0.21342346699193707,1
12,2.4333333333333336,-0.9141944099800723,0.20373640561690215,0.35034277184993057,-0.9524920401367909,0.04008211682432221,0.3019144537562518,1
13,2.6333333333333333,-0.9193208813380891,0.18084212155826246,0.349492838561916,-0.9385530620324493,0.026709288231213105,0.3440999326819118,1
14,2.8333333333333335,-0.9089442288377406,0.20852686908923415,0.36102206820415655,-0.921380627975947,0.06075115263398684,0.38388414377816144,1
15,3.033333333333333,-0.9167639299081067,0.22634369986929273,0.3291085327804848,-0.9249122389324758,0.08427061632564557,0.3707233651889384,1
16,3.2333333333333334,-0.8959148942686036,0.25977282167706295,0.3603534145052801,-0.909044381094227,0.10652175285374531,0.402854104323115,1
17,3.4333333333333336,-0.6032731644570303,0.017610249345454274,0.7973401834624866,-0.8932672518897686,0.12733862572435387,0.43111308388859365,1
18,3.6333333333333333,-0.640209845679761,0.0073105107293859745,0.768165288155858,-0.8748058297332039,0.1397475699070649,0.46388077883209494,1
19,3.8333333333333335,-0.871774516897617,0.2142762748463759,0.44056199305646776,-0.8688683731521908,0.15075199838339362,0.4715311072657655,1
20,4.033333333333333,-0.8726322544731928,0.20435438126787858,0.4435676220258369,-0.8729419012958233,0.1408963298675882,0.46703389726215533,1
21,4.233333333333333,-0.8852789497456116,0.20682965442650872,0.41653652323309925,-0.892325222201043,0.13066775295737265,0.4320667033698968,1
22,4.433333333333334,-0.9402760715167815,0.11904919859668422,0.31891722695153335,-0.900787025086546,0.12328426647871389,0.41639371401899955,1
23,4.633333333333334,-0.8939895115323444,0.43785229086109706,-0.09522670139120527,-0.9222786607028719,0.1639865889739339,0.3500149577501099,1
24,4.833333333333334,-0.8267080387723337,0.5605228212038107,-0.04866195165550502,-0.9375294325442121,0.277441482896371,0.20991614202245262,0
25,5.033333333333333,-0.8425289761725769,0.5000031081743193,-0.20035422662277247,-0.9365570632655669,0.3286006419451432,0.1219937923036126,0
26,5.233333333333333,-0.9358402566738255,0.2610008060630171,-0.23681552572228864,-0.9368389825661128,0.3270886692738273,0.12387785587895697,0
27,5.433333333333334,-0.9455807390463868,0.20723340787772063,-0.2508612776095089,-0.9529239299440679,0.2843592504530968,0.10524162874882782,0
28,5.633333333333334,-0.8843757374247087,0.0862102876950962,-0.45874539926851765,-0.9810876746846573,0.193101927934127,-0.01336487972169119,0
29,5.833333333333334,-0.8240696570068029,0.1587086429283266,-0.5438021396248265,-0.9808374533113149,0.1332038075122909,-0.1421781834389623,0
30,6.033333333333333,-0.6353870894938632,0.04736331709054589,-0.7707398800494872,-0.9215027330732385,0.08275747483551889,-0.37945212253642824,0
31,6.233333333333333,-0.6074855665287152,0.042603761830493504,-0.7931873712668257,-0.8177604959879634,0.06586641089642788,-0.5717773929748736,0
32,6.433333333333334,-0.4797374956517268,0.009743792559774827,-0.877357962163883,-0.7386944362355996,0.04378339391541357,-0.6726169372620776,0
33,6.633333333333334,-0.5177434018007276,0.02107823988959945,-0.8552762581148661,-0.7475490256543271,0.04704783120156797,-0.6625382674400742,0
34,6.833333333333334,-0.5431611667980336,0.14099991368204987,-0.827704640088633,-0.7589254625087162,0.06348177067342124,-0.6480757726902763,0
35,7.033333333333333,-0.5731609355150891,0.15371092454426405,-0.8048971944759252,-0.784320654030557,0.07952095943885629,-0.6152377822200154,0
36,7.233333333333333,-0.9220470074214817,0.1700646930946382,-0.3477172935988613,-0.8460583279342437,0.13988976694943475,-0.5144085524521774,0
37,7.433333333333334,-0.9431012716510179,0.15443125168230018,-0.2944672815680393,-0.8979830103852575,0.15602320403330092,-0.41144048520121757,0
38,7.633333333333334,-0.8024575392695583,0.5965361363677524,-0.014371349167005868,-0.9461327785202118,0.2653013237742484,-0.1856016514292255,0
39,7.833333333333334,-0.5301723330326732,0.7526567778846251,-0.39041653652352654,-0.835826500250996,0.5467198829295075,-0.04991423732481278,0
40,8.033333333333333,-0.4522063483674906,0.8320881548696907,-0.32115217735785917,-0.7069898473537762,0.7064818481493976,-0.032384471187525105,0
41,8.233333333333334,-0.45336831314037646,0.8403425053696991,-0.29712227501354893,-0.6917573169921981,0.7220319956013261,-0.011900072088960465,0
42,8.433333333333334,-0.8263133403902851,0.5035167891021027,0.25234323170110573,-0.7242281560677344,0.6855035967448877,0.07468866586405047,0
43,8.633333333333333,-0.8365803370348882,0.4807385443287709,0.26272379352325054,-0.7611334670628813,0.6388305439059808,0.1121221721588863,0
44,8.833333333333334,-0.8344758924736129,0.4749744225152527,0.2793730173740291,-0.7767115913668696,0.609953821024169,0.15708418142626837,0
45,9.033333333333333,-0.852479019144426,0.40392361301664503,0.3318512268564588,-0.8039349802376005,0.5576850156351665,0.2065816325000191,0
46,9.233333333333334,-0.8545542768504566,0.37981817268621354,0.35422470779704146,-0.8232024024772182,0.5094342450524112,0.2506283194765037,0
47,9.433333333333334,-0.8720909310607619,0.15946460959462555,0.4626320851912539,-0.8420655744061935,0.407478654666447,0.35339314423343027,0
48,9.633333333333335,-0.8707840658483323,0.13668671734722143,0.4722836562548908,-0.8527206411531504,0.35253574173966357,0.38546862251994696,0
49,9.833333333333334,-0.8637024740058242,0.10569544847504725,0.4927945906438882,-0.8538879949333578,0.3037859708729985,0.4225983625257441,0
50,10.033333333333333,-0.42281584234752817,0.16854364773410016,0.8904042914701354,-0.7741781311086525,0.20423390613696024,0.5991132888671006,0
51,10.233333333333334,-0.4201682913660654,0.16077146460811065,0.893090780995014,-0.7439778181483954,0.17847336266308692,0.6439287731751729,0
52,10.433333333333334,-0.47907560750325706,0.06367201161383292,0.8754612711207922,-0.7758844929002178,0.07485345383163496,0.6264185614478929,0
53,10.633333333333335,-0.4249588123502361,-0.7717734450903809,0.4730494236960887,-0.7042978200208337,-0.47369341593855624,0.5287524263872114,0
54,10.833333333333334,-0.22080256018076344,-0.9532936542229011,0.20610055370126584,-0.5033644172090574,-0.7648373267203911,0.4020548807600676,0
55,11.033333333333333,-0.2663276423296465,-0.9276584287168526,0.26176215647360507,-0.5339030727779854,-0.7509901009896082,0.38853748479888417,0
56,11.233333333333334,-0.47673543819259145,-0.8228253378050921,0.30932472490451474,-0.7150950890556548,-0.5735205965702818,0.3996412627822028,0
57,11.433333333333334,-0.9042886920303844,0.10103482289739335,0.4147938355714427,-0.8912220012992411,-0.21613881867346096,0.39875726383680643,0
58,11.633333333333335,-0.7926823364154871,0.5969567649630054,0.12368239284468718,-0.9121116932807449,0.23252900890114847,0.33761297220335273,0
59,11.833333333333334,-0.7440862230920426,0.6246412835193417,0.23697881662276946,-0.7835063871323886,0.572214262124148,0.24225725901295203,0
60,12.033333333333333,0.14203389928598015,0.9458786601841449,0.2917874768763508,-0.44342809803130995,0.882587727899603,0.15623835776579095,0
61,12.233333333333334,0.2741408996393902,0.9134107459807511,-0.30087800895345274,-0.08275087084598737,0.9947579016873997,0.06007503978119406,0
62,12.433333333333334,0.46935651036553366,0.8626324211985928,-0.18859950178763055,0.1965082332939238,0.9799691834265015,0.03232512617295001,0
63,12.633333333333335,0.6455870696194997,0.7054129186178859,-0.29259178010857256,0.4338180191027361,0.9004599980712049,0.031204457620413073,0
64,12.833333333333334,0.7005248157387065,0.6411394077055864,-0.31337715682733086,0.5674156382198228,0.8218098061817892,0.05165400243002578,0
65,13.033333333333333,0.7911446241645519,0.5219792211723917,-0.31879127390785533,0.6686099100206964,0.7418178931174678,0.05164302153125703,0
66,13.233333333333334,0.9520841881897251,0.305435042144607,-0.01565674388991253,0.8166916395126613,0.5677923034302607,0.10308572217082625,1
67,13.433333333333334,0.9745930444119895,0.18582916070693517,0.12504367562866095,0.851119138026754,0.5115116183722886,0.1181189110801372,1
68,13.633333333333335,0.9926700247442375,-0.05703859222228478,0.1065496174163692,0.8618464879044467,0.48613102166532035,0.14455884982041836,1
69,13.833333333333334,0.9932115501246045,-0.010378195550920084,0.11585814497128427,0.8425696997304274,0.5140275862428719,0.16078539012455176,1
70,14.033333333333333,0.9964325479452066,0.06763287079482722,0.050477442323020975,0.815909760237816,0.5459487122418284,0.1903451253648475,1
71,14.233333333333334,0.9996985749159703,-0.024499005721813072,0.0015993841380624117,0.8764315801467094,0.4440754862221212,0.18618444580074098,1
72,14.433333333333334,0.9926133786184921,-0.10670698721947745,0.057726072671924956,0.9379907903702442,0.29442277263984457,0.18299865609252752,0
73,14.633333333333335,0.9952586687405234,-0.06681281022930728,0.0706840200194082,0.936044344833387,0.3006656205273105,0.18281457583672903,0
74,14.833333333333334,0.991906406739954,0.07187324287580665,0.10467051746670815,0.8760530588597449,0.43429807441128243,0.20956197323258977,0
75,15.033333333333333,0.528381985126605,0.8042756676401841,0.2719432445117996,0.7087710368059295,0.6590476945535024,0.2515944230080654,0
76,15.233333333333334,0.3060448526260188,0.9213287422787012,0.23977050867916463,0.5252875790879314,0.807482433343102,0.2684121440960589,0
77,15.433333333333334,0.32106990471221747,0.9166897554714578,0.23789495266139324,0.3997416248224881,0.8777002656653015,0.26428938123832457,0
78,15.633333333333335,0.16825377870521013,0.9292592176993295,0.3288889968853444,0.27923314814987626,0.9161259838202648,0.2876491452162884,0
79,15.833333333333334,0.09687388886077414,0.9485428179519954,0.30146636988008846,0.15080169848330077,0.9489521161948278,0.2770356094510407,0
80,16.033333333333335,-0.1295678410461909,0.9764807179169703,0.17232986422262167,0.007945903328493154,0.9651970875532055,0.2614028400746712,0
81,16.233333333333334,-0.5390129105481957,0.841923456450207,0.02509931754648381,-0.18602263799989466,0.9466393091557177,0.2631911786377835,0
82,16.433333333333337,-0.6826445314919999,0.7301904840983159,-0.028605953162500322,-0.4186668408766037,0.8777211151411847,0.23307449535656993,0
83,16.633333333333336,-0.789722392568679,0.6112961110525879,-0.0515325847167,-0.6132814698296386,0.7647960291381614,0.19741548211348273,0
84,16.833333333333336,-0.9456777257293769,0.3155145039883003,0.07838518247941179,-0.7753236384448169,0.6012123004298127,0.19343480938182647,0
85,17.033333333333335,-0.9693468241055772,0.1911896455536257,0.15431543678294177,-0.869337386179544,0.4552838416524976,0.19227358768344094,0
86,17.233333333333334,-0.9268915381610009,0.37489291342880393,0.018093643812053032,-0.891557401011358,0.42383657325239077,0.15964949068363415,0
87,17.433333333333337,-0.7007837368958449,0.5482468547363464,-0.4564291186745195,-0.8778579853516016,0.4788352134165185,0.009066198033611255,0
88,17.633333333333336,-0.6801803612287535,0.5885139792463286,-0.4370423005046245,-0.8604536796107338,0.5089635674791507,-0.023990669503893742,0
89,17.833333333333336,-0.9200288598851892,0.3015400828873663,-0.2502408347784978,-0.8715076693402399,0.4864742478741019,-0.061783399359944355,0
90,18.033333333333335,-0.9855645732635036,0.046303651072233595,-0.16284484586657766,-0.928317520726679,0.36606267517787855,-0.06499768113930679,0
91,18.233333333333334,-0.9813991264429256,0.18088167969564323,0.06432396573241946,-0.9408196445181205,0.33668333080389234,-0.03876507768074583,0
92,18.433333333333337,-0.9639255250570765,0.22169839783498785,0.14730038201185597,-0.9214563982468256,0.38830055767508603,0.011865202872485459,0
93,18.633333333333336,-0.5950739834636922,0.7213801571744285,-0.3542564368358755,-0.8234665708676665,0.5656723441396194,0.04379047543741087,0
94,18.833333333333336,-0.47650885927681974,0.8138905433619734,-0.3324477259008639,-0.5868804582231515,0.8094389116175961,0.019492976045374536,0
95,19.033333333333335,-0.08050502798687209,0.9439223494558745,-0.3202023401952823,-0.17954322106778237,0.9835361597602771,0.020514731599815726,0
96,19.233333333333338,0.6713024629771475,0.7327510962796483,0.11148468101846726,0.2453333246132528,0.9688936370048408,0.03250661479976874,0
97,19.433333333333337,0.8768252319343547,0.47374960762838614,0.08209032778114363,0.5766108466910248,0.8165053935360077,0.028963318264129047,0
98,19.633333333333336,0.961535526323144,0.2723319146150124,0.03584354754480419,0.800972692034695,0.5985746889626355,0.012291800030027299,0
99,19.833333333333336,0.9637052697865235,0.2598279333668639,0.061331867964288495,0.9138061552095549,0.40577398028988326,0.017486784176530365,1
100,20.033333333333335,0.9797558027261226,0.11581817230237094,0.1632933494941831,0.9516333444892369,0.302041142457784,0.056259451819463326,1
101,20.233333333333338,0.9737370365476555,0.15828142089698116,0.1636556612348709,0.953115962930954,0.2937012684083026,0.07286649532916101,1
102,20.433333333333337,0.9775809183529431,0.14810163205753504,0.14967115505036577,0.9641858849228477,0.2560091536402589,0.06931733237758098,1
103,20.633333333333336,0.9256925329983372,0.3558664750549945,0.12826685574635244,0.9591019620075782,0.27223513724600085,0.07753358318732056,1
104,20.833333333333336,0.9204246403629055,0.37017875150756446,0.1256430393818812,0.9497134697269307,0.3019967640792535,0.08271807483793285,1
105,21.033333333333335,0.9599408981058516,-0.23599583957115644,0.15106103352233663,0.9673562870080807,0.2423895884056676,0.07395337327310376,0
106,21.233333333333338,0.9407308290154798,-0.32593675279193945,0.09375894900911841,0.983936312665839,0.16421223828108328,0.07002623377184615,0
107,21.433333333333337,0.983469377346893,-0.10623796115334673,0.14663382771685027,0.98339511249498,0.16658328053326293,0.07200044005255779,0
108,21.633333333333336,0.9412807562127877,0.27536674555124385,0.19535530048606095,0.9735871953409714,0.21453006567084953,0.0781333730960233,0
109,21.833333333333336,0.9238081416456269,0.32759190585716247,0.19814656354861582,0.9550610489718857,0.2871653988387749,0.07344675926471404,1
110,22.033333333333335,0.8914533200561146,0.45242544373522997,0.024943857398383527,0.9407674627079534,0.3332884789903839,0.062252476917118736,1
111,22.233333333333338,0.9144208909570187,0.3230670095689196,-0.24384860366540487,0.9278004548031614,0.37004425625039733,0.04747172298471318,1
112,22.433333333333337,0.9105938651928556,0.32611454217190056,-0.25390572671199696,0.9207891870096492,0.3887826622998735,0.031548606643275176,1
113,22.633333333333336,0.9061972637938632,0.34238762455024846,-0.24814760455695253,0.9112567371510917,0.41036029789139816,0.03486523929688884,1
114,22.833333333333336,0.8811594827282999,0.4610675325121391,0.10476018547693916,0.901787550036188,0.4308073003820299,0.03441343541812501,1
115,23.033333333333335,0.8750004986081272,0.4745622402338987,0.09573300151834817,0.8896202339898955,0.4553984263484372,0.0344690086183307,1
116,23.233333333333338,0.9150798634580943,0.3869473242200112,0.1135808600622886,0.8850245368537115,0.46380344693258624,0.040223522723962346,1
117,23.433333333333337,0.9153311978605752,0.38121482650851474,0.12978464575290993,0.8857542388863494,0.46134781174972356,0.05096689993128469,1
118,23.633333333333336,0.9047653587598966,0.39784424504389865,0.152051314606372,0.8846078082364196,0.46200139246561917,0.06343294859130164,1
119,23.833333333333336,0.9225591439398213,0.30924619945427473,0.23076267907985246,0.8889761467126671,0.4506759497128084,0.08131788810807158,1
120,24.033333333333335,0.9209293480582031,0.30889363625886557,0.23764228866905948,0.8910922475101544,0.442226660198238,0.10193226887111748,1
121,24.233333333333338,0.9199186475119963,0.2972059133926815,0.2557700666695023,0.8945242442246457,0.42862213920975883,0.12692296196345523,1
122,24.433333333333337,0.9229755251134213,0.27749460587279434,0.26667006534875093,0.9002297372051997,0.40909791678922103,0.14908157072615186,1
123,24.633333333333336,0.9608971435253959,0.11104723521457349,0.2536635391930302,0.9034431923673825,0.39554480313767365,0.16533211084302946,1
124,24.833333333333336,0.9379447493061491,0.21372026990838722,0.27309942050343455,0.9028694753060834,0.3882230297133383,0.18468781703381001,1
125,25.033333333333335,0.9394822082775344,0.2245398234233042,0.25875673523021364,0.899127816271928,0.39189554549815236,0.19490267167173417,1
126,25.233333333333338,0.9489495537585283,0.20191028216211512,0.24233650649191363,0.8998778606991826,0.3866854661645595,0.20172800023933224,1
127,25.433333333333337,0.9384496793598055,0.27560207436480405,0.20822030620305806,0.9019424926614404,0.38259381175661106,0.20030405671681822,1
128,25.633333333333336,0.940559912857705,0.26726522585613294,0.20956228041605376,0.8989235485712653,0.38766723569894335,0.2040847083678348,1
129,25.833333333333336,0.9407138566435721,0.2625772713226355,0.2147338271058765,0.8960274737963627,0.3926536919982993,0.20726274233979763,1
130,26.033333333333335,0.9441369455376694,0.23679599678285282,0.22920096853725364,0.8948624584642165,0.3936742645778798,0.21033723835888898,1
131,26.233333333333338,0.9476961963305869,0.21059575777400183,0.2398360820813494,0.896597276924238,0.38870949700150076,0.2121750455470241,1
132,26.433333333333337,0.9750661974969804,0.1371932949508554,0.17442451180756444,0.8991201207799174,0.38285393307777005,0.21214587984589578,1
133,26.633333333333336,0.9778070624809533,0.1356434657299876,0.15966902882878317,0.900731571316273,0.3788509169110713,0.21249616276478628,1
134,26.833333333333336,0.9778271892462698,0.11944194481541695,0.17201049325390194,0.9004575246299764,0.3777419090970085,0.21560912886286293,1
135,27.033333333333335,0.9786190592835848,0.09561514963998333,0.18210568350887704,0.9036587237720075,0.36811765042842953,0.21883853955324922,1
136,27.233333333333338,0.9798676188301202,0.06544230073860528,0.18861801303753692,0.9114690896535373,0.3477428628483126,0.2197703345408832,1
137,27.433333333333337,0.9798115607080604,0.016151383120412095,0.19926976269904254,0.9254167036141846,0.31003526404151815,0.2179037854709338,1
138,27.633333333333336,0.9780470024626854,-0.01639471016575177,0.207738476099968,0.9313756647550826,0.2851416393226598,0.2263484407421761,1
139,27.833333333333336,0.9807981212065271,-0.014143199966539594,0.19451224982620735,0.9323416130030346,0.2822829052626459,0.22595459291499223,1
140,28.033333333333335,0.9834190834763897,-0.0061504269194629846,0.18124314746540393,0.9309245432068484,0.2857669137652156,0.22741320509641655,1
141,28.233333333333338,0.9841504507663649,-0.010688741328113645,0.17701310986811675,0.9318504284799337,0.2812332014116855,0.22926549100442165,1
142,28.433333333333337,0.9845350384966108,-0.013549566761656827,0.17466301043165489,0.9320772395278858,0.28348967891823607,0.2255340805752235,1
143,28.633333333333336,0.9847150545345282,-0.013430375880459961,0.1736545028980545,0.9315077884433186,0.2897885436084909,0.21980864419468896,1
144,28.833333333333336,0.9844446865175223,-0.017388416825200377,0.1748322114134876,0.9308875914344727,0.2927631888807099,0.21849029120243374,1
145,29.033333333333335,0.9777659399018034,0.14684096490022114,0.14970470198065022,0.9275674091718062,0.30432067654876327,0.21681242415324367,1
146,29.233333333333338,0.943947676122056,0.30344896360720114,0.12992886988458655,0.8986465463683705,0.3786226913845481,0.22153835394559057,1
147,29.433333333333337,0.8334038661136942,0.5363912234392902,0.1331256976096241,0.7615770207295507,0.6082612456693528,0.22364860498887287,0
148,29.633333333333336,0.15445222748424364,0.9796142775335045,0.12845379199411014,0.46431524705348226,0.8503394715992895,0.24765729222840396,0
149,29.833333333333336,-0.21262983741782338,0.9756787483104081,0.05328726240956197,0.09954690049843895,0.9567506844048912,0.2733469269846042,0
150,30.033333333333335,-0.18356839750928655,0.9532725840848252,-0.2399458769558524,-0.20966806870099663,0.9575212217815526,0.1979707321933145,0
151,30.233333333333338,-0.2779517659480729,0.9203043958547557,-0.27528645948676994,-0.4152619334745426,0.8966338093928459,0.15364028918437403,0
152,30.433333333333337,-0.8345149404097776,0.5492252870785542,0.04400452552118977,-0.60856400510055,0.7794255088167646,0.14881440757435227,0
153,30.633333333333336,-0.9236317930089124,0.381894971461129,0.03256595946452526,-0.7481298591956994,0.6469551775992897,0.1474812257790635,0
154,30.833333333333336,-0.9526253123373668,0.2974777981552325,0.06334014444922982,-0.8711976128085698,0.46800892429167246,0.14826451436537694,0
155,31.033333333333335,-0.9682665504874313,-0.24085198202872063,-0.06670989401886157,-0.9700679431414343,0.16660637471650758,0.17666494160746693,0
156,31.233333333333338,-0.9665048199583491,-0.25631610747575145,-0.013057030510735404,-0.969886166392677,-0.1740663570578453,0.17035764608824266,0
157,31.433333333333337,-0.42298774846985354,-0.8913239791765675,-0.16316534187520754,-0.7993170642390343,-0.5889554049417843,0.11926341352716072,0
158,31.633333333333336,-0.3309195410629846,-0.9436463882275762,0.004873533391157181,-0.5196474776318265,-0.8469301434665806,0.11258699338093245,0
159,31.833333333333336,0.034230810627810915,-0.9989676092462411,0.029865821278048345,-0.23365446010319918,-0.9673002519706274,0.09867023771859121,0
160,32.03333333333333,0.2722552378013557,-0.959836253079778,-0.06776025947042866,-0.032306519213286145,-0.9953018102547481,0.0912720949685264,1
161,32.233333333333334,0.24450085248403602,-0.9677624170623893,-0.060458558171214566,0.004307642835080783,-0.9970598964096374,0.07650494876024978,1
162,32.43333333333333,0.2020266144257628,-0.9776126848690061,-0.05881058958110971,-0.005542591360920557,-0.9974239404835579,0.07151756868950614,1
163,32.63333333333333,0.18687084963436618,-0.9470521180175554,-0.2610968619409139,-0.03995661168643061,-0.9972217241848168,0.06286733648247873,1
164,32.833333333333336,0.1848205631027494,-0.9480761882522798,-0.25882986829848414,-0.04571258888176266,-0.9968725799608394,0.06446253594101856,1
165,33.03333333333333,0.19720926062779814,-0.9784794119068363,-0.06071694983354749,-0.008209018427162484,-0.9973863349894451,0.07178517112040084,1
166,33.233333333333334,0.17101467911603369,-0.983748868583742,-0.054700485254228805,-0.01832406580287088,-0.9965950347786208,0.08039008189479303,1
167,33.43333333333333,0.20135723592699356,-0.9790377038779302,0.030666560375621606,-0.0608303054869378,-0.9949485751797966,0.07985616245512214,1
168,33.63333333333333,0.15989139771056043,-0.9869696596785821,0.018045271184086765,-0.10170992718533822,-0.9912915871921556,0.08364257213889478,1
169,33.833333333333336,0.14036957379342296,-0.9899217101462832,0.01874541368204927,-0.12358755684669737,-0.98903935484799,0.0807915240265741,1
170,34.03333333333333,0.1155041414734318,-0.9931534991770986,0.01746196938408088,-0.1490402848971381,-0.9856123349953386,0.07972025202428759,1
171,34.233333333333334,0.09465509663632415,-0.995298650561265,0.0205185007174795,-0.1693726264806546,-0.9820315150777393,0.08322870173903096,1
172,34.43333333333333,-0.138610779361113,-0.9902676157155611,0.012533998161918998,-0.17954046289914616,-0.9797016362685261,0.08916235794736098,1
173,34.63333333333333,0.0454684842316771,-0.9954309924344952,0.0839628265516933,-0.1776076410572081,-0.9795860887686277,0.09416273429056668,1
174,34.833333333333336,0.05648332691380464,-0.9947004977122174,0.08591014859616773,-0.1684480302337712,-0.9806321928787235,0.09992879164799412,1
175,35.03333333333333,0.315417249943021,-0.9465092752455226,0.06805990238442387,-0.15064498472510696,-0.9833522646367334,0.10160911480266067,1
176,35.233333333333334,0.16964860978593327,-0.9810332327832881,0.09377177279155254,-0.13066454457687032,-0.9857672099492477,0.10578177810660523,1
177,35.43333333333333,0.2957037228300437,-0.9552681605214789,-0.0046957212825317445,-0.12100368993544797,-0.9868155798652138,0.10748543323301002,1
178,35.63333333333333,0.3249857550457203,-0.9416830949810875,0.08727661567798708,-0.10511006575726645,-0.9887217059611864,0.10668299882223482,1
179,35.833333333333336,0.3076488135249433,-0.9479906573068758,0.08164509290565118,-0.1059009414267465,-0.9879874183756252,0.11254266629326073,1
180,36.03333333333333,0.28371655328902257,-0.9556703219751663,0.07873470064513793,-0.1185723789911442,-0.9865052155614885,0.11290726553398704,1
181,36.233333333333334,0.3557190961926158,-0.9332716941958508,0.04967765510483844,-0.12018444199854245,-0.9858872323140289,0.11654211711515705,1
182,36.43333333333333,0.3461194956919812,-0.9375285033137889,0.03523634737221824,-0.11494326531202648,-0.9863325042652398,0.11805183941502222,1
183,36.63333333333333,0.37366891485973663,-0.8234140444503744,0.42703729751559655,-0.11573260019808895,-0.9863565567174459,0.11707565191743863,1
184,36.833333333333336,0.14336428279203656,-0.9795488159698441,0.14117648370604025,-0.11524887385038507,-0.9860234995543513,0.1203135711497595,1
185,37.03333333333333,0.25789596335721826,-0.9635891134191213,0.07060943693447763,-0.10349629163146734,-0.9873609645414966,0.12002851043906204,1
186,37.233333333333334,0.4583498159932364,-0.8866286134101518,-0.06168588218837097,-0.02581938100615705,-0.9899640358629977,0.13894087685884401,1
187,37.43333333333333,0.5302236730945045,-0.8453146377130212,-0.06562026941636279,0.11131051458253854,-0.98205358008822,0.15225220911133358,0
188,37.63333333333333,0.5705883506831131,-0.8203646979924479,-0.037824546956766084,0.19776695839751762,-0.9636183142496294,0.1797998181559066,0
189,37.833333333333336,0.48744043662700126,-0.7998085510769397,0.3502971629418152,0.28012885983975305,-0.9369316264283315,0.2090142322504413,0
190,38.03333333333333,0.47929009538697587,-0.7893440637172291,0.3836886153358144,0.2873949432307899,-0.9302886934904352,0.22796292104031007,0
191,38.233333333333334,0.21141945616538882,-0.7529533268607524,0.6231878538001655,0.2565747707915481,-0.9078151356455383,0.33172438331563453,1
192,38.43333333333334,0.15809544806920456,-0.7169636051281038,0.6789469922030071,0.20156738526239876,-0.9009310028757199,0.38430966323503957,1
193,38.63333333333333,0.15329079972821277,-0.7341137067196031,0.6614975406795477,0.18637474625780853,-0.9090814081439539,0.3726062899688406,1
194,38.833333333333336,0.3083870029605714,-0.8939888533334851,0.32508673691874496,0.18274088180157788,-0.9126511404361531,0.36561409433851266,1
195,39.03333333333333,0.17384575005432767,-0.9203703110247657,0.3502800961690864,0.18691917913328654,-0.9123342647497973,0.36429028237874383,1
196,39.233333333333334,0.15711069397146177,-0.9262807200521118,0.3425204482940358,0.17745808051030842,-0.9176378691732079,0.3555972029148312,1
197,39.43333333333334,0.164303500406475,-0.9313316261620129,0.32500117209727175,0.1745539514119947,-0.9206113948709119,0.3492929682663155,1
198,39.63333333333333,0.2592729172389542,-0.955845087391577,0.13833916038414645,0.16565217382339475,-0.9283966966031251,0.3326243091597323,1
199,39.833333333333336,0.25868350722265476,-0.961481680064748,0.09292912348051502,0.1541749849580455,-0.9412173442911412,0.30056610723552635,1
200,40.03333333333333,0.24227718748130078,-0.9675342515758267,0.07196691221496118,0.1438565933698565,-0.9517408146489399,0.27109906358265473,1
201,40.233333333333334,0.20246200281375404,-0.9779212328182734,0.05176098743100048,0.10498729773610044,-0.9627577986395964,0.24914872761607576,1
202,40.43333333333334,-0.02795253206522047,-0.9954821131491312,0.0907414918947432,0.08059581534850879,-0.9673949499839448,0.24010690388631123,1
203,40.63333333333333,0.2874142971246423,-0.9542686889264757,-0.08224531076537395,0.05405191285220334,-0.9722463305502479,0.22763010224615723,1
204,40.833333333333336,0.2870649648494012,-0.9531283595787575,-0.09560353614128929,0.05192882918618563,-0.9746361527725538,0.21768731338336486,1
205,41.03333333333333,0.2738071909596636,-0.9539661583307706,-0.12238541963162607,0.052322466104334886,-0.9776767625762913,0.20349571852769655,1
206,41.233333333333334,-0.018346486518435012,-0.9996597447862632,-0.018541873861413247,0.04382200050787122,-0.9775071204794662,0.20629944663869262,1
207,41.43333333333334,-0.04366578402989557,-0.9986198420048594,-0.02918407886578033,0.012315228662007571,-0.9774703591356351,0.21071315135571314,1
208,41.63333333333333,0.11055445638409289,-0.9840733566904495,0.13920251731060435,-0.019571493491842118,-0.9766025004779877,0.2141600165825567,1
209,41.833333333333336,0.11752058521422387,-0.9835487090785993,0.13718909913228386,-0.029290000550146356,-0.9759480487607942,0.21602662333094838,1
210,42.03333333333333,0.1209894689724274,-0.9843393445818699,0.12820921615042005,-0.024476849888580343,-0.9775362839437978,0.20934110297044545,1
211,42.233333333333334,0.011265786946859147,-0.9645081214160637,0.26381274754439743,-0.029889310963427174,-0.9776231862321416,0.20822952439903183,1
212,42.43333333333334,-0.03482541616553414,-0.9611584733095435,0.2737911239871832,-0.028344420301330053,-0.9780725143164297,0.20632680527871033,1
213,42.63333333333333,0.12282930203058384,-0.9917828249335975,0.035774162875082505,-0.03617014733000434,-0.9780285539054395,0.20530920142010325,1
214,42.833333333333336,0.11218435879337901,-0.9933212618698626,0.02697295607423207,-0.034865815635442,-0.9779293584663429,0.20600617648430405,1
215,43.03333333333333,0.10761682329164385,-0.9939346485188346,0.022639209755549953,-0.034632926436875544,-0.9787370943271637,0.20217383756173454,1
216,43.233333333333334,-0.07301920311354321,-0.9647391204896537,0.25287669994191425,-0.03363353596579366,-0.979343760482703,0.19938551617917438,1
217,43.43333333333334,-0.028016620777022272,-0.9578033588106313,0.28605557993388286,-0.03774103408537155,-0.979188805910217,0.1994113756190707,1
218,43.63333333333333,-0.00536550622272175,-0.95390731901653,0.30005339203160175,-0.036740126418418007,-0.9799200435125514,0.19597671145602574,1
219,43.833333333333336,-0.08965911034544893,-0.8588194496012432,0.5043712887533158,-0.041693687510817645,-0.9797824316533765,0.19567325582497702,1
220,44.03333333333333,-0.09785299135041331,-0.8683488249859007,0.4862048027625619,-0.04259458750738504,-0.9789844805895119,0.19943692707209296,1
221,44.233333333333334,-0.2920786368153607,-0.7840330386756282,0.5477063667524249,-0.06918361553053648,-0.9747613422902155,0.21225916451051255,0
222,44.43333333333334,-0.34795479686019765,-0.765814420229111,0.5407917650178573,-0.13315946076903473,-0.9632846665833033,0.233133457772999,0
223,44.63333333333333,-0.26814041769675323,-0.8360808002109719,0.4786121727620307,-0.23950723913059196,-0.9368870039321052,0.25471361225338013,0
224,44.833333333333336,-0.2928975689607105,-0.8220247129901941,0.48835067864219806,-0.31017456544961275,-0.9073202913909105,0.2838338030933899,1
225,45.03333333333333,-0.37797414226337034,-0.902780405325983,0.20523909846743058,-0.36448183085596736,-0.885950203718247,0.2867842943877493,1
226,45.233333333333334,-0.4092247948692407,-0.8943623639556639,0.18069595790682394,-0.4042796329194187,-0.8677553560846984,0.28906507985721575,1
227,45.43333333333334,-0.4092999110444602,-0.8984117231449892,0.15915388319060542,-0.4332063327983847,-0.8538500860166187,0.28856940903842954,1
228,45.63333333333333,-0.30202600469612023,-0.9474116959645911,0.10578927562279945,-0.41951900308335066,-0.8620903084590925,0.28426063060659357,1
229,45.833333333333336,-0.277457927397018,-0.9557314183331864,0.09795179699927556,-0.3928210738538369,-0.8793324250251443,0.269195264140582,1
230,46.03333333333333,-0.1207663052465211,-0.9884783043020025,-0.09124769280010411,-0.351621870763601,-0.9009996676950016,0.2540898636589078,1
231,46.233333333333334,-0.11287084858434387,-0.9891768489952789,-0.09375144239755126,-0.3163740232677918,-0.9158991252794522,0.24705519568243323,1
232,46.43333333333334,-0.10514537139658997,-0.9905991396879938,-0.08750882997320877,-0.30179092063722207,-0.9190748797240865,0.2534237670012302,1
233,46.63333333333333,-0.2398399155037279,-0.8580615054679674,0.4541005040354062,-0.3017038702732109,-0.9143149574021888,0.27019055004348197,1
234,46.833333333333336,-0.2603174076983794,-0.8490536996495887,0.4597202000788543,-0.314243110301244,-0.9057909605865696,0.2842428598010154,1
235,47.03333333333333,-0.13349937902010434,-0.7856945910841273,0.6040380164711427,-0.3300458391373429,-0.8950405490572944,0.2999535957633181,1
236,47.233333333333334,-0.4086259173689247,-0.6280226415180812,0.6622782054356438,-0.336836471120171,-0.8867060776836005,0.3166915273926275,1
237,47.43333333333334,-0.409433869816155,-0.6176882721976366,0.6714351082843871,-0.34220675655555927,-0.8770142011022452,0.3372545430868423,1
238,47.63333333333333,-0.43220994165586507,-0.5946596302442818,0.6779192359651466,-0.36893935261837474,-0.8608499624248577,0.3504584087772128,1
239,47.833333333333336,-0.46179264531929026,-0.809193976304624,0.3632528891025151,-0.4019779163262772,-0.8483519717052941,0.3445470749980686,1
240,48.03333333333333,-0.2560672559360564,-0.9200671146955712,0.29648956961948075,-0.4188245836376623,-0.8424354970865908,0.33895191604297964,1
241,48.233333333333334,-0.27381658333720665,-0.917392161218308,0.28881845720926597,-0.4317491647145373,-0.8382299791164892,0.33311133405915416,1
242,48.43333333333334,-0.5593424171129758,-0.7005562668208537,0.4431218539366378,-0.4491101373399846,-0.8336087947814407,0.3215532021322354,0
243,48.63333333333333,-0.5838507787617575,-0.6878830030054554,0.43120208987838393,-0.46606139289071075,-0.8229611683300152,0.32484102800857323,0
244,48.833333333333336,-0.6050365524453925,-0.30507482789660656,0.73543192722974,-0.5385791390425891,-0.7735354139097993,0.33402915204445793,0
245,49.03333333333333,-0.6877169914675889,-0.24710974028366037,0.6826288273313033,-0.6518669554792719,-0.6750774128179932,0.3454561608325289,1
246,49.233333333333334,-0.7682808235217534,-0.33892423471946725,0.5430238846759505,-0.6936329506490514,-0.6357710555034545,0.33862736858959636,1
247,49.43333333333334,-0.6238905680947371,-0.6925493954751881,0.3621269029903437,-0.7014573809114261,-0.6318236101948865,0.32978245612097506,1
248,49.63333333333333,-0.6201032234087861,-0.7391103143539676,0.2630359966499124,-0.6891282642979701,-0.6613718685297956,0.2961241071967532,1
249,49.833333333333336,-0.7975109988991949,-0.6012750569758373,-0.04944201142260048,-0.6728900509159037,-0.6932016051596764,0.2582450657465515,1
250,50.03333333333333,-0.7946898812077604,-0.6040368277414413,-0.060062496102415146,-0.6592704901231305,-0.7114243456545213,0.24338821101861882,1
251,50.233333333333334,-0.5912882062454957,-0.7371262415074707,0.32714394574262623,-0.6124625425137897,-0.7495232592338313,0.25120612628883016,1
252,50.43333333333334,-0.598221420109797,-0.7394012568167428,0.3088962834668608,-0.5923071004090292,-0.7668558353427125,0.24719309578926182,1
253,50.63333333333333,-0.35848665731281504,-0.915260377226369,0.1838090270039238,-0.5528087209196956,-0.7981266756406378,0.2395753069620379,1
254,50.833333333333336,-0.2263062516821785,-0.9707271912355637,-0.08046241759651301,-0.49965010416490707,-0.8346477927257182,0.23176029751897667,1
255,51.03333333333333,-0.2298223605519018,-0.9691035195242551,-0.08955473765275422,-0.4636448774319002,-0.8587836756012615,0.21800005998151922,1
