,timeStamp,x_gaze,y_gaze,z_gaze,x_head,y_head,z_head,fixations_head
0,0.041701417848206836,-0.9769073491391509,0.0005874152744738287,-0.21366255203290208,-0.9977928432339911,0.050843588440960145,-0.0427126621211364,0
1,0.24170141784820684,-0.9978744718600576,0.002304949408886263,-0.06512469284559867,-0.9926927372840666,0.05568081264691225,0.10705501597985495,0
2,0.4417014178482069,-0.9975407776791655,0.010190585270781745,-0.06934370078878757,-0.9887120733291003,0.07119350784516189,0.1318329264409053,0
3,0.6417014178482069,-0.9972570391432986,0.01838624742188003,-0.0716961908673182,-0.9852826000594133,0.08235386683967447,0.14978664371937625,0
4,0.8417014178482068,-0.9741613060377441,0.11064790475652425,-0.19689284139304852,-0.9776666685163022,0.11049073494983558,0.1787727125779544,0
5,1.041701417848207,-0.9514968469702109,-0.3076332235532679,-0.003943345276838506,-0.9786851620313897,0.0578318959530168,0.19705538670656125,0
6,1.241701417848207,-0.93120097993483,-0.36109255946771623,-0.04976844849366598,-0.9646500877054138,-0.13401141680685033,0.22691661123716472,0
7,1.441701417848207,-0.8837459230999919,-0.4677816411717907,-0.013171164973889508,-0.9283220916397501,-0.25793287715971064,0.26774750242292367,0
8,1.641701417848207,-0.8501714255383281,-0.5257773288015801,0.027690209757278223,-0.9066129870669688,-0.3131922445245699,0.282778198684358,0
9,1.841701417848207,-0.8356991164863914,-0.5460081944616036,0.05900879836638267,-0.8952694449414459,-0.3345066263670962,0.29427527567014466,0
10,2.041701417848207,-0.9637629901729816,-0.24409592571924926,0.10760147684904998,-0.9064885972944026,-0.2722583951637591,0.32272866194077143,0
11,2.241701417848207,-0.9759411882076858,0.1822110053493642,0.11974116539162524,-0.9383125010904729,0.004532811435715169,0.3457587365748402,0
12,2.4417014178482073,-0.9477874762503575,0.3113895528949843,0.06881457847607626,-0.9224313159209292,0.19613713783017062,0.3326419855823553,0
13,2.641701417848207,-0.8870152254612103,0.4489218537045718,0.1080423947645074,-0.8982106115570185,0.3015404980281372,0.3198296817609492,0
14,2.841701417848207,-0.76560458316183,0.6029177444374052,0.22436536204172097,-0.8215809613849584,0.45063588674598976,0.349187659384497,1
15,3.041701417848207,-0.7125894899362173,0.6601231325754362,0.23759980780976062,-0.7421034053050098,0.5481798070393936,0.3857219659145198,1
16,3.241701417848207,-0.8098303339954066,0.5866626183706395,-0.0013425153234338466,-0.7245208654368337,0.560825474648654,0.4006798005038111,1
17,3.4417014178482073,-0.8075751780166394,0.5881427364094128,-0.04370873437016657,-0.7248637878717089,0.578029705774532,0.3747721284654001,1
18,3.641701417848207,-0.8125775383525622,0.5806282964467054,-0.050877554287594905,-0.7356792845870237,0.5701436784016743,0.36566675567808093,1
19,3.841701417848207,-0.8658092287758111,0.49499244796604364,-0.07319054462988366,-0.7444128220759163,0.5713911325073363,0.3454876611703436,1
20,4.0417014178482065,-0.8569574425961993,0.50788946295739,-0.08759129520583661,-0.7429899371458826,0.5833398568490865,0.3281471692872652,1
21,4.241701417848207,-0.8484563019892617,0.5180887063943477,-0.10819425087008441,-0.7421671530061537,0.5986407060207755,0.3013589588741112,0
22,4.441701417848207,-0.836111842208081,0.5194251590556431,-0.17639300286414156,-0.7575778711233316,0.6060958216860437,0.24232957747448167,0
23,4.641701417848207,-0.8165553324391719,0.5387559325263975,-0.20731481913448874,-0.7508739027510166,0.6268238974255758,0.20803889968866038,0
24,4.841701417848207,-0.7364647432697551,0.560986257477424,-0.3780398138319395,-0.7461568936349329,0.6516170397710006,0.1365471477591013,0
25,5.0417014178482065,-0.6990337685692692,0.5370624390423528,-0.4721395206607094,-0.7595263087509727,0.6504495016760318,0.005935662096533299,0
26,5.241701417848207,-0.7040953919292203,0.4612135826359987,-0.5399367650531911,-0.7600613780933246,0.6368354137012232,-0.12941158134752925,0
27,5.441701417848207,-0.6799942993156711,0.4222291027710342,-0.5994416882995017,-0.7704353869029075,0.5950717521415179,-0.22873330411418327,0
28,5.641701417848207,-0.601801192001814,0.36647632733280405,-0.7095987787544837,-0.7739894085807034,0.5425612344288909,-0.32644708958710494,0
29,5.841701417848207,-0.7053993219785888,0.23558608567498418,-0.668514018393396,-0.7943897549553554,0.4748841501897375,-0.3787214822538343,1
30,6.0417014178482065,-0.705437413334989,0.2213602376278619,-0.6733184247178866,-0.8144021393238488,0.4339210678110269,-0.3853072311474007,1
31,6.241701417848207,-0.7763043558895981,0.06762031596411612,-0.6267208628215196,-0.8464767576274592,0.3769072008210882,-0.3760559277098497,1
32,6.441701417848207,-0.7789293013083421,0.07267335386073266,-0.6228866086230551,-0.8546094007424447,0.36895548456374105,-0.36539652786113724,1
33,6.641701417848207,-0.679132148437296,0.227210149843277,-0.6979649509589567,-0.8602199685314282,0.3660506377193835,-0.35500498076086445,1
34,6.841701417848207,-0.673556553351658,0.23775078112056822,-0.699854367360521,-0.8598112451219431,0.3687418960511441,-0.3532053749003004,1
35,7.0417014178482065,-0.6529625556537386,0.3474100449880488,-0.6730127499204904,-0.8475026195569235,0.398239683394987,-0.3509194557353771,1
36,7.241701417848207,-0.6519512703869671,0.3557252223966313,-0.6696410286053917,-0.8439949874685422,0.40914309327152704,-0.34680598373756794,1
37,7.441701417848207,-0.6604526489526759,0.34750832241795904,-0.6656126984528236,-0.8507082040291439,0.39962147166207823,-0.34146483125520166,1
38,7.641701417848207,-0.6966268224004737,0.23699193614831499,-0.6771601675474513,-0.8589416791570532,0.38211906066605733,-0.3408873938451702,1
39,7.841701417848207,-0.6778960307852926,0.33736267574895307,-0.6531794519556264,-0.8607320564750078,0.38281709211209036,-0.33554642144291685,1
40,8.041701417848207,-0.677194324758767,0.3501410759944041,-0.647154597770887,-0.8595267766608925,0.3907803489914203,-0.32940011998340335,1
41,8.241701417848208,-0.6815832220485223,0.35529631129592526,-0.6396943352894913,-0.8588064453783932,0.3954607182965482,-0.32567208916471124,1
42,8.441701417848208,-0.7081888351211086,0.30495096266368676,-0.6367679987093401,-0.8621933102754523,0.3910994601773108,-0.32196879967672953,1
43,8.641701417848207,-0.7212918374491555,0.2757405294273821,-0.6353780336621092,-0.8645257896029707,0.3865743314924994,-0.3211782143024144,1
44,8.841701417848208,-0.7292285659345887,0.25819629289772716,-0.6336879144806647,-0.8670121367649923,0.3827995997572723,-0.3189896881215359,1
45,9.041701417848207,-0.6756626676553683,0.308640024565751,-0.6694933119702423,-0.8691895347849563,0.3800611575599814,-0.3163274713559959,1
46,9.241701417848208,-0.6839865118600283,0.32225452704110247,-0.6544573869970961,-0.8722516557174524,0.3798188461298007,-0.3080822832017278,1
47,9.441701417848208,-0.6841175456907833,0.3399377495130209,-0.6453103982844551,-0.8696634136326594,0.386773078910699,-0.3067444089445279,1
48,9.641701417848209,-0.667677186473303,0.35058855062563676,-0.6567304186904316,-0.8603888575460116,0.39888263145602976,-0.31721232657855875,1
49,9.841701417848208,-0.6201262439177054,0.37606156983323147,-0.6884919297269101,-0.8216391459264971,0.450818715997445,-0.34881456275160244,1
50,10.041701417848207,-0.37491841851737695,0.4155861257264588,-0.8286883319801849,-0.6199027727742888,0.6359693342368262,-0.45963415693039683,0
51,10.241701417848208,-0.17569961649022628,0.47669564004608955,-0.8613308954903665,-0.36096496635926467,0.7589784824139771,-0.5419003195181118,0
52,10.441701417848208,-0.020969968225135804,0.5202533902304686,-0.8537544555587051,-0.1309619473762031,0.8197171267001138,-0.5575955528283403,0
53,10.641701417848209,0.2157022534439598,0.6252341528725841,-0.7500365270711156,0.13348758433373997,0.8691699747183265,-0.47615608772427376,0
54,10.841701417848208,0.5622857384589491,0.6389517895832003,-0.5249527206464408,0.470093588742722,0.8184138599357851,-0.3304705307406365,0
55,11.041701417848207,0.7707395047370332,0.4780620754538739,-0.42120929221759523,0.721190035641195,0.6615900590885815,-0.20538628534305547,0
56,11.241701417848208,0.9027742042127654,0.2676916376506764,-0.33665995208801874,0.893293076439827,0.43699775591101486,-0.10516863084307225,0
57,11.441701417848208,0.9856907050698974,0.09695123990595048,-0.1378923167529935,0.9797008501526828,0.2003267351265076,-0.007446032746684148,0
58,11.641701417848209,0.9990041873001709,-0.029563366211584105,-0.03341618073575971,0.995292207023532,0.052955036307802975,0.0811738059220204,0
59,11.841701417848208,0.9948249938822481,-0.10160330360717129,-1.55979004808798e-05,0.9928118890613463,-0.022132199003348698,0.11762108104297292,0
60,12.041701417848207,0.9898454111361799,-0.14193219016053304,-0.007830418180515712,0.9904221722856255,-0.07139429292526958,0.11818111347725298,0
61,12.241701417848208,0.9829360115709774,-0.16244656238974498,-0.08630128344754881,0.9837108162052223,-0.1302801701063693,0.1238551870448357,0
62,12.441701417848208,0.8603433698568308,-0.5029712335626806,0.0826391199845927,0.9441115807060734,-0.29603924407245275,0.1449623714820163,0
63,12.641701417848209,0.8556433501889691,-0.5125777764052135,0.07168319477314224,0.9009218137030696,-0.4056550734133483,0.1542201251717259,0
64,12.841701417848208,0.78546953733089,-0.6134671321076882,-0.08182715777030224,0.8623358100408522,-0.483565884126938,0.15013655927095265,0
65,13.041701417848207,0.8241976147017185,-0.5552473939862836,-0.11134910593012409,0.9060488037627022,-0.40459223121278914,0.12401891647016375,0
66,13.241701417848208,0.735663341068931,0.6670204469165475,-0.1178268730067409,0.9363794496857997,0.3494998412952396,0.03230150369134182,0
67,13.441701417848208,0.32966945207783727,0.921893844241827,-0.20354309694933131,0.2598230842668745,0.9656556939082329,0.0010225970164793698,0
68,13.641701417848209,-0.6532869588163228,0.7195160421459887,-0.2356115755541145,-0.4894846810425551,0.8718538037241674,0.016603974113733055,0
69,13.841701417848208,-0.9156050366830117,0.1548497088549884,-0.3710646634593843,-0.9094942516451718,0.4153289754195018,-0.017945707045875548,0
70,14.041701417848207,-0.8940849755497275,0.03255211038594059,-0.4467129017676394,-0.9967242302663705,0.03480472514836335,-0.07300301300123399,0
71,14.241701417848208,-0.8344889527288943,-0.2360128566867748,-0.49792180033814676,-0.9656942800246558,-0.24387155513854109,-0.08922568084341524,0
72,14.441701417848208,-0.6257487756085288,-0.7373119608981697,-0.25457718307209504,-0.8138468032042231,-0.574200253274401,-0.08914847196604417,0
73,14.641701417848209,-0.34463578937557676,-0.9277721732299495,-0.1430558186920406,-0.5574176161665333,-0.8296478684885965,-0.031145071834049888,0
74,14.841701417848208,-0.1437780863828803,-0.9878490937046608,-0.05900872768462005,-0.33507386468274664,-0.940196190452669,0.06129134249514535,0
75,15.041701417848207,0.14765909580783415,-0.9889131469760958,0.015734648488219496,-0.13901121356527923,-0.981856341177486,0.1289728955737162,0
76,15.241701417848208,0.24309073052742852,-0.9699938698997128,-0.004334638234103692,0.02236140106782064,-0.9893685118132601,0.14370078487850724,0
77,15.441701417848208,0.38255256473035637,-0.9069141243053368,-0.17652282105640388,0.1888436309216574,-0.9732525181003617,0.13083431916599872,0
78,15.641701417848209,0.41094941866072077,-0.8883451439229114,-0.20484989765923067,0.2763961973920679,-0.9533850229449334,0.12108732423955136,0
79,15.841701417848208,0.28602683609960927,-0.9417452455014389,-0.17693089500220766,0.27087378008178836,-0.9571278700859693,0.10263350120160092,0
80,16.041701417848206,0.11776839383526316,-0.9789794346103449,-0.16652288738630436,0.16565041961012,-0.982358667317123,0.08678356543676773,0
81,16.241701417848205,-0.046720883923173306,-0.9857669496632767,-0.1614951391125955,0.022451439705066523,-0.996365483711177,0.0821690679280395,0
82,16.441701417848208,-0.23161334918229537,-0.9205392553252946,-0.3145834323128169,-0.18348822759650546,-0.9826837327900232,0.025782778038054094,0
83,16.641701417848207,-0.5616480364831289,-0.7036775311904735,-0.4351889419692628,-0.6113949371602942,-0.7884595998053366,-0.06728811402891789,0
84,16.841701417848206,-0.6730128650241859,-0.4598069318934328,-0.5793369217430259,-0.8232442011069294,-0.5556120944174076,-0.11646538490433923,0
85,17.041701417848206,-0.6704476699677626,-0.3395040763007075,-0.6597248699344309,-0.871167926498735,-0.42725040915405843,-0.24191637339705754,0
86,17.241701417848205,-0.6641803460061934,-0.09814039041228528,-0.7411025109583812,-0.9173511248584424,-0.16284623124233302,-0.36324649852561447,0
87,17.441701417848208,-0.8703775694982078,0.18449583231876043,-0.45651306046092555,-0.9567761060192289,0.04972088572560081,-0.2865437426874705,0
88,17.641701417848207,-0.952503087693723,0.29234898279240595,-0.08526394427992041,-0.9770419172870913,0.20461762382647133,-0.05933565440418757,0
89,17.841701417848206,-0.9500252664735899,0.2931562619633146,-0.10729118851742316,-0.9668922943114023,0.25517719684870854,-0.001972158631625855,0
90,18.041701417848206,-0.8399494416697729,0.45331152717580425,-0.2983179424174432,-0.9307387451150232,0.3655626179421186,-0.00945307912885461,0
91,18.241701417848205,-0.7023263089841545,0.6073370674066265,-0.37132121170573107,-0.8229957560582,0.555633322517424,-0.11810840960084171,0
92,18.441701417848208,-0.536536643246056,0.6882370991664968,-0.48832174412485485,-0.6535351439059808,0.7482921311472559,-0.11380115176432756,0
93,18.641701417848207,-0.2600616320086269,0.9202192150569078,-0.2925141770872957,-0.4075757737311954,0.9110251380779989,-0.0625714508172896,0
94,18.841701417848206,0.0044232554272902735,0.955902461645818,-0.293651015034668,-0.11055763784985823,0.9930972634943664,-0.03917695691424403,0
95,19.041701417848206,0.14537877276894057,0.9152882866765243,-0.37564925755410444,0.12476148426574779,0.9859081349048173,-0.11144380454880674,0
96,19.24170141784821,0.35556327195252013,0.7412076438003973,-0.5693733295565238,0.44723125749417414,0.8744163863781718,-0.18809621355444614,0
97,19.441701417848208,0.6527189366157207,0.5483362373580721,-0.5227670232361977,0.697208893809363,0.6854700773787834,-0.20983453341013508,0
98,19.641701417848207,0.8156815505207837,0.2916460181561559,-0.4996060530394613,0.8792158241295336,0.42888897484238436,-0.2074458528360441,0
99,19.841701417848206,0.9445559495132202,0.016849554988733324,-0.32791790243269825,0.9763293260066358,0.17224125169875085,-0.1308204815488622,0
100,20.041701417848206,0.9769577827644369,-0.1379176907676201,-0.1628870813457068,0.9990242587230475,0.0020985239676877183,-0.04411492581908061,0
101,20.24170141784821,0.9618298394451401,-0.27235306420139005,-0.026592637572251387,0.987005061786437,-0.13850396447103236,0.08147183460410899,0
102,20.441701417848208,0.9390279970253391,-0.34217034420234,-0.03385079542687206,0.9559353449867812,-0.2517284835343552,0.15106418100429214,0
103,20.641701417848207,0.8547497123594436,-0.516287989675694,-0.0533820282312278,0.8982871374525998,-0.3995150710976204,0.18294241348871892,0
104,20.841701417848206,0.7990218239695432,-0.5984442165888904,-0.05855462792720984,0.8287271989062572,-0.5233382282827226,0.19831371261435718,1
105,21.041701417848206,0.7285482016034539,-0.6808640488626122,-0.07511101721307928,0.7534504713579617,-0.6256589607394046,0.2021466103029016,1
106,21.24170141784821,0.7092108634555894,-0.7002737912797704,-0.08146513612112831,0.7243679176060476,-0.6579974143151964,0.2057438278481131,1
107,21.441701417848208,0.7192148350632206,-0.6913178357309422,-0.06935179179567587,0.7299986921237166,-0.6481343713425283,0.2168495934561302,1
108,21.641701417848207,0.8925088567328092,-0.4466702964583091,0.06255866778744722,0.7755373131200898,-0.5797895889088407,0.2497717128727547,1
109,21.841701417848206,0.8900475129551263,-0.4345801116439388,0.13767916053614046,0.7828600887376568,-0.5364147917720046,0.3152606106538925,1
110,22.041701417848206,0.9299556869104654,-0.34154589564701476,0.13612061397732278,0.8040517369252841,-0.49345506278868495,0.33166685899506015,0
111,22.24170141784821,0.940132228431479,-0.30654283326697523,0.14893919711451561,0.8236971464895967,-0.4462952907564067,0.34977639187565307,0
112,22.441701417848208,0.9769910593598502,-0.16649838130321687,0.13329200634068988,0.8741125405809305,-0.35006238939661644,0.3367247985062623,0
113,22.641701417848207,0.9856112704406979,-0.1080372657723584,0.12999374132898328,0.9068768529065183,-0.2552626936630499,0.335283955605175,0
114,22.841701417848206,0.9933056841582208,0.08368487960093444,0.07962825343523816,0.9292120491228241,-0.16834217615490324,0.32897701970258414,0
115,23.041701417848206,0.9758434286800203,0.20744790097758561,0.0685198590338326,0.9469221046522122,-0.02589470974761085,0.320418463463191,0
116,23.24170141784821,0.9668736250895733,0.24626324460680615,0.0671551000436737,0.9472382804321693,0.02520941400028483,0.31953736171169334,0
117,23.441701417848208,0.995370436568043,0.006154091232356881,-0.09591569823260343,0.9494404869760485,-0.044965128886030915,0.3107103134351132,0
118,23.641701417848207,0.9624124409518856,-0.19201398832710026,-0.19207530238881235,0.9156102769904959,-0.28279074191964476,0.28580975657581087,0
119,23.841701417848206,0.9553944215399969,-0.1650992693395272,-0.24487492838959532,0.9256941284727628,-0.31508365794119997,0.20931476061053425,0
120,24.041701417848206,0.9630520944389611,0.015095710803352834,-0.268891768025858,0.9668520435958448,-0.22636996933841355,0.11812604613828868,0
121,24.24170141784821,0.9680499269085823,0.039625067135023416,-0.24760693259041408,0.9833634947178493,-0.15977942828341962,0.08641048289254237,0
122,24.441701417848208,0.9657342665956647,0.09177014643304006,-0.24276648563298833,0.9910460323379001,-0.11151346174737546,0.07343370912886348,1
123,24.641701417848207,0.9666520747009946,0.09395981194743905,-0.238233751208901,0.9928619462597432,-0.09288351843838605,0.07481849819276713,1
124,24.841701417848206,0.9637532825724849,0.1351883454638529,-0.23000809025229108,0.9955184827677435,-0.04934638917903379,0.08067145928270804,1
125,25.041701417848206,0.9584740737299908,0.17946112951314835,-0.22163292395603418,0.996067233579856,-0.0005832664105073646,0.08859867938557224,1
126,25.24170141784821,0.9632743507248634,0.16284772964068012,-0.21350208941944582,0.9954370338214374,0.019232942738091806,0.09346232187577988,1
127,25.441701417848208,0.981951566012588,0.06621148281753433,-0.17716422197647533,0.9946907053354174,0.012023879963006717,0.10220482879964923,1
128,25.641701417848207,0.967336525311368,-0.0530200875054406,-0.24788892092920364,0.9934590597636564,-0.019482933834981637,0.112514496233568,1
129,25.841701417848206,0.9026553215616654,-0.4294656614503096,0.027795972576162297,0.9677830615235662,-0.20299602738768835,0.14895824479662265,0
130,26.041701417848206,0.7654802582301982,-0.6434575696874054,0.0015265227831124373,0.8201574745245365,-0.5380771822319647,0.19445992631605072,0
131,26.24170141784821,0.4800455504435225,-0.8768658171108059,0.02574117872154589,0.5956322685102844,-0.7712560233858721,0.22446903372248028,0
132,26.441701417848208,0.45714569022383245,-0.8893880908385734,-0.00257716594224257,0.45884777647876507,-0.8539697873291253,0.24534530839113633,0
133,26.641701417848207,0.22139840099899416,-0.9745704752839824,0.03457074977262011,0.3168396238996983,-0.9095169680572429,0.2690567552451683,0
134,26.841701417848206,0.02919079322628587,-0.9952473205711374,0.09290139119944263,0.14256462825336708,-0.9410320405004976,0.30681268800760003,0
135,27.041701417848206,-0.0641594454131128,-0.9927506258073152,0.10163542946958048,0.030763433317802347,-0.945883099544872,0.32304608520439815,0
136,27.24170141784821,-0.12474856700167858,-0.9858449947900019,0.11201536179707315,-0.036285746439896904,-0.9420292976221023,0.33356280821894485,0
137,27.441701417848208,0.29181937630064403,-0.9563933245908931,0.012379834145959267,-0.026220602001557403,-0.9474649971180011,0.31878293440343103,0
138,27.641701417848207,0.3616226057177641,-0.9321969512820252,-0.015425143577688939,0.19442123150607676,-0.935696841067322,0.29440075807697097,0
139,27.841701417848206,0.7073859111003811,-0.7068210922239971,0.003019331707498864,0.5339546093733829,-0.7929187741494811,0.2935511756580143,0
140,28.041701417848206,0.8200048936573123,-0.5694774626666763,-0.05733579939954106,0.7094199447911165,-0.6427206874704655,0.28919450172861455,0
141,28.24170141784821,0.8154906076262554,-0.573565889012601,-0.07744184808322926,0.7369922395548894,-0.6193657017874232,0.2706077720340673,0
142,28.441701417848208,0.8961852243394544,-0.44285977388108816,0.026967839246654458,0.7678635471134767,-0.5815424795611033,0.26868925821519873,0
143,28.641701417848207,0.9114790323976786,-0.41126965926049763,0.007952412913456592,0.8153040905904121,-0.5146823617322009,0.26529475378963874,1
144,28.841701417848206,0.9101053632447903,-0.41437666928680933,0.0004513799272826607,0.8231615965545688,-0.4984762973647686,0.2718940362038933,1
145,29.041701417848206,0.9197284592188307,-0.39178370050799644,-0.024598644662184407,0.8350184691748175,-0.4783036831306641,0.271973790723639,1
146,29.24170141784821,0.9595115474782329,-0.2799528403879647,0.031048307758033175,0.8599244569119657,-0.43481925467036203,0.26732404338662064,1
147,29.441701417848208,0.9671406734169075,-0.24359798917371514,0.0727938012004694,0.8786429902269535,-0.39497852169254355,0.2682880227043518,1
148,29.641701417848207,0.9711312881286431,-0.22031724007914746,0.09145673808697492,0.8914727408833288,-0.36185366443858125,0.2726504681718627,1
149,29.841701417848206,0.9940717651305027,-0.10871640079135844,0.0014387387878474606,0.9112354301586998,-0.31110799295054714,0.26992926396700984,0
150,30.041701417848206,0.9969762596189669,-0.07153817456014226,0.030341841354429033,0.9275364352725582,-0.25671498174520435,0.2716129219853782,0
151,30.24170141784821,0.9962096932752754,-0.015429744416990411,0.0856047312454638,0.9397722687396244,-0.2005742844855108,0.276763507910824,0
152,30.441701417848208,0.9966931535322295,-0.010802949033235101,0.08053604158490284,0.9444485834510388,-0.18194288983437612,0.2737035952559671,0
153,30.641701417848207,0.962111551015818,-0.26459462327604444,-0.06581070380527239,0.9399788856048339,-0.21854783090881452,0.2620620923028492,0
154,30.841701417848206,0.8973703413541019,-0.43805234191308007,-0.05325989300110398,0.9032397693701224,-0.35582146912458334,0.23989372884306792,0
155,31.041701417848206,0.7992741233343353,-0.5974083449766984,-0.06530042205324707,0.8185443575551943,-0.5282807692163711,0.22562039710698495,1
156,31.24170141784821,0.7417709376344922,-0.6667794788561988,-0.07197918210915415,0.7641843795553251,-0.607336196719433,0.21717499441237972,1
157,31.441701417848208,0.7480679774362207,-0.6578537920228124,-0.08730801484221583,0.7655067454248863,-0.6117530433067687,0.19939317118172725,1
158,31.641701417848207,0.8465931439920615,-0.53000465157237,-0.0487351808992985,0.7796821710762698,-0.5980404665863969,0.18558909566814277,1
159,31.841701417848206,0.8157632610032192,-0.5783739901144146,0.0037188111709183986,0.7830691738063137,-0.593799721618387,0.18494474753348253,1
160,32.04170141784821,0.7568417437728354,-0.6522116796311668,0.04254996869077887,0.7441739219845073,-0.6392337834390586,0.19386939920571114,1
161,32.24170141784821,0.7113153534324379,-0.7028094027288385,0.009455760530980125,0.6904722268993357,-0.7001758583899336,0.18166417150498396,0
162,32.44170141784821,0.7472416588100549,-0.6597390900467861,0.07983881514048638,0.6570794773093505,-0.7347645105437819,0.16842706001182697,0
163,32.64170141784821,0.7634052443630317,-0.6413713443204875,0.0765194848620324,0.6815621398932322,-0.712720119965927,0.1658405259878084,0
164,32.84170141784821,0.9290961209037388,-0.3695545904367788,-0.014484571403045743,0.8417774943945286,-0.519283051159278,0.14749834815881901,0
165,33.04170141784821,0.9859726153000037,0.06441407658247315,-0.15397671452690118,0.9914268255342488,-0.004632571478762549,0.13058096680824796,0
166,33.24170141784821,0.8312126998473187,0.46973787135647044,-0.29737481370489927,0.8993731393804616,0.43614103159457757,0.030148909110460805,0
167,33.44170141784821,0.4524794006142771,0.690171022449799,-0.5647356477063793,0.6889006471229034,0.7063532982210567,-0.16272958085695474,0
168,33.64170141784821,0.39011089970991975,0.6297746346002453,-0.6717122862815931,0.5104432562165846,0.7894410801308549,-0.34092589104501825,0
169,33.84170141784821,0.1997833323719707,0.400542618489727,-0.8942327610190447,0.4246033690662127,0.7102348142791926,-0.5614966496457681,0
170,34.04170141784821,0.12098136343106086,0.4646776356919983,-0.8771762676851537,0.3339493777702149,0.7043336159646678,-0.6264119814539171,0
171,34.24170141784821,-0.23916427388243272,0.936066233222467,-0.2580318916703731,0.08872607406949057,0.9012336002802581,-0.42415289873593864,0
172,34.44170141784821,-0.3737997703162332,0.8938161645878586,-0.24772241649269702,-0.2541485068082671,0.9505195601253313,-0.1786647763446263,0
173,34.64170141784821,-0.6073520308637163,0.7788712361813429,-0.15647078978220355,-0.446287830607602,0.8938432008580108,-0.04326088916638701,0
174,34.84170141784821,-0.8105749040422674,0.5792816040123421,-0.08602992612897846,-0.613682101400782,0.7883078528536931,0.04432840567311913,0
175,35.04170141784821,-0.9069939632192794,0.4169637731765497,0.059187520155512686,-0.7420806389820347,0.6557851865677407,0.13878801939046845,0
176,35.24170141784821,-0.9290821318698599,0.3690993049308116,0.023918514580721882,-0.8368770615357825,0.5189033965888156,0.17428725967156847,0
177,35.44170141784821,-0.9295391666802222,0.08636679370731318,-0.358465778774148,-0.9461853585745468,0.3110032108840927,0.08950011194932203,0
178,35.64170141784821,-0.8623438186341976,-0.22368686090771336,-0.454232679054076,-0.9978020859036802,0.03429166733373891,-0.056701665916768215,0
179,35.84170141784821,-0.8551519288606451,-0.28917678608907754,-0.4302231571558077,-0.9787613489351441,-0.18874344104265067,-0.08001334447475714,0
180,36.04170141784821,-0.797139984780187,-0.5423194806577132,-0.2654381765379495,-0.9235343818499719,-0.37403689109212396,-0.08473871395725106,0
181,36.24170141784821,-0.6991770708276286,-0.6991852259571754,-0.14930319297359537,-0.8477669034684562,-0.5263397162587223,-0.06525167026362938,0
182,36.44170141784821,-0.66422599935332,-0.73693720101165,-0.12540886550877575,-0.7920420958932853,-0.6101876382790147,-0.018448968113432333,0
183,36.64170141784821,-0.8503665545437658,-0.5242190115497366,-0.04550989829896514,-0.8365755340511822,-0.5360001474729166,0.1133367448623411,0
184,36.84170141784821,-0.9663779460885107,-0.24857622965768209,0.06575350456761421,-0.89768221526135,-0.39005909127266974,0.20498913561214607,0
185,37.04170141784821,-0.9726531528571895,-0.23218017135885624,0.0061816069707708214,-0.9308219887662161,-0.2784172577470339,0.23675779990937637,0
186,37.24170141784821,-0.8274756711876119,-0.07414907874901412,-0.5565841604944248,-0.9960702004705234,-0.06871050845256156,-0.05588400274499,0
187,37.44170141784821,-0.5125254040927422,0.03760201419294837,-0.8578483541327131,-0.8893741650963225,0.14292479114846993,-0.4342650095671835,0
188,37.64170141784821,-0.2618010688620707,0.04847396070692443,-0.9639037687840324,-0.6945895490162661,0.2320782890180057,-0.6809442166314764,0
189,37.84170141784821,-0.08887304655154159,0.0015147562913648436,-0.9960418099206607,-0.4967079340252695,0.25498364777776017,-0.8296171211120801,0
190,38.04170141784821,-9.895329480372368e-05,-0.03394729137465658,-0.9994236197011606,-0.38303686350489574,0.26601819029379764,-0.884599956833113,0
191,38.24170141784821,-0.4495415103700368,-0.24451584968747425,-0.859141681974422,-0.476620319685428,0.15965794529051167,-0.8644896826270242,0
192,38.441701417848215,-0.3404547355417104,-0.2198094608174381,-0.9142069645230075,-0.6315305817213793,-0.029521715250521108,-0.7747887406766593,0
193,38.64170141784821,-0.1658073959837461,-0.3384595902461503,-0.9262575307156736,-0.6236532004340978,-0.20521200408517112,-0.7542842428207387,0
194,38.84170141784821,-0.07472933361669871,-0.3801905295945394,-0.921884313731299,-0.5291269320740537,-0.4151590269971555,-0.7400457229500588,0
195,39.04170141784821,-0.056469051651034496,-0.5020919859447037,-0.8629686459285391,-0.42558351003856054,-0.5796937540182304,-0.6948624522418158,0
196,39.24170141784821,0.0077083725328511155,-0.5730244935435873,-0.8195019894985063,-0.3114198558613444,-0.7241394744176965,-0.61533705801403,0
197,39.441701417848215,-0.0047548681459452236,-0.628994514915801,-0.7773951964314878,-0.28488496959696863,-0.8010241329962174,-0.5264987107822704,0
198,39.64170141784821,-0.06190514337140193,-0.6793396636206591,-0.7312081609609786,-0.2805953830855985,-0.8283392030076202,-0.4848921485771311,0
199,39.84170141784821,-0.01093819137455504,-0.6995533128263673,-0.7144966889238246,-0.20839488192724054,-0.8730469784749806,-0.44086341032369436,0
200,40.04170141784821,0.06722962869600838,-0.6240431177483784,-0.7784923661901129,-0.13059143013082897,-0.9062897959732389,-0.4019759745198342,0
201,40.24170141784821,0.14548628024710852,-0.6422913886832544,-0.7525260887724734,0.025563722904930475,-0.9133106111834915,-0.4064606051893309,0
202,40.441701417848215,0.22575980741119028,-0.5652404745002588,-0.7934328675725406,0.17844772105286122,-0.8693970396471604,-0.46076588231312704,1
203,40.64170141784821,0.25736775288848324,-0.512024698617672,-0.8195075031862827,0.2575411169225823,-0.8258036109798255,-0.501718017602468,1
204,40.783986655546286,0.28325457874023785,-0.4224180297983512,-0.8610051403586215,0.2845167267742046,-0.803154813749183,-0.5234430029498989,1
