,timeStamp,x_gaze,y_gaze,z_gaze,x_head,y_head,z_head,fixations_head
0,0.033366700033366704,-0.9996624268864585,0.023464711149423924,-0.011155249981530104,-0.9945468378833081,-0.055094259491635135,0.08855060602492494,1
1,0.2333667000333667,-0.9998590199980237,0.016521497258936774,-0.0029967076791708597,-0.9941322259191153,-0.060027101030085996,0.08998813550145968,1
2,0.43336670003336675,-0.9851584310310018,-0.10593382635273578,-0.13505883978030925,-0.9939878276140457,-0.08112241035486967,0.07353470672632476,1
3,0.6333667000333668,-0.9801684661500232,-0.12101531569174291,-0.15692377555086692,-0.9942475262306115,-0.0996051392527611,0.03937858324962887,1
4,0.8333667000333668,-0.9758916584446138,-0.13778176975934298,-0.169267997271206,-0.992640675495729,-0.12100744439674045,0.004657011053562031,1
5,1.0333667000333666,-0.877750733779486,-0.1008254000238792,-0.46838860795241266,-0.9893647682681184,-0.13679089001882475,-0.049453086027370904,1
6,1.2333667000333668,-0.848518831365687,-0.10399264486682945,-0.5188461454337024,-0.982635078797518,-0.1426933552663649,-0.11860399773794714,1
7,1.4333667000333667,-0.8243653061906249,-0.09489287547546085,-0.5580476539985056,-0.9749100518584382,-0.12015445319491232,-0.18738542676208758,1
8,1.6333667000333667,-0.8142234948234968,-0.08698405892524258,-0.573998148054766,-0.9685873071152936,-0.11563398222937099,-0.22015315271174773,1
9,1.8333667000333667,-0.8126216261584001,-0.10398037570985595,-0.5734406457227414,-0.9635831428692123,-0.135641729718038,-0.2304535700252655,1
10,2.033366700033367,-0.8112784285632918,-0.10589183722039838,-0.5749906348437032,-0.9594346651280359,-0.14401026689927895,-0.2423760845839629,1
11,2.233366700033367,-0.9919132195130252,-0.11957406597465457,-0.042546535717890174,-0.9620538215173893,-0.1632829051457546,-0.21861184183604968,1
12,2.433366700033367,-0.9908561604138043,-0.13309138906622475,-0.022152912369172408,-0.9653641858470142,-0.17096440533499432,-0.19708668344762256,1
13,2.633366700033367,-0.9872382390762643,-0.15923401492301345,-0.0022776736146427447,-0.9652819357187277,-0.19811080484337174,-0.17024363007001997,1
14,2.833366700033367,-0.8561756210870576,-0.5166499196629463,-0.006013848057807436,-0.9437637503601735,-0.30145071722015016,-0.13578456684600565,0
15,3.033366700033367,-0.729238046418298,-0.6842514143760121,-0.003445806212075413,-0.8630827063418705,-0.4913857822322265,-0.11674011749872347,0
16,3.233366700033367,-0.21568635840446693,-0.976404075784161,-0.010699326628263044,-0.6692015851135014,-0.7316045329851791,-0.1300924509612897,0
17,3.433366700033367,-0.10958849101609391,-0.9903283466888373,-0.08508894394320404,-0.42782350340458536,-0.8936300084189305,-0.1356187965873793,0
18,3.633366700033367,-0.11066976259776723,-0.992261151059508,-0.05630285733969816,-0.2806073717062501,-0.9508729152791514,-0.13076774041268094,1
19,3.833366700033367,-0.1098853661593987,-0.991373287855357,-0.07144375711617067,-0.2558106849454003,-0.9574396023682961,-0.13367984621701293,1
20,4.033366700033366,-0.11282494012791155,-0.9903956928247865,-0.07991811133431964,-0.23823490936356773,-0.962724854152246,-0.1280819392344961,1
21,4.233366700033367,-0.13143788357492953,-0.9843915112474948,-0.11703604293215175,-0.23650713799131795,-0.9627792998075179,-0.1308449217253075,1
22,4.433366700033367,-0.1315572049382746,-0.9814424796082449,-0.13951115026853053,-0.23716923936702983,-0.962381494282284,-0.1325617266071277,1
23,4.633366700033367,-0.1546822050750245,-0.8691260131002628,-0.4697801494162666,-0.2447717587858914,-0.9578093052219903,-0.15062576449940338,1
24,4.833366700033367,-0.1708960887680967,-0.857147059086258,-0.4858944802563063,-0.2711012235678178,-0.9488947467346284,-0.16156387653017604,1
25,5.033366700033366,-0.21550413508093033,-0.8443637855195838,-0.49051785438050965,-0.29632557036898804,-0.9403709353500842,-0.16701395239410785,1
26,5.233366700033367,-0.22954661797426146,-0.840160884002863,-0.4913634491576541,-0.2987760171989071,-0.9393932304912995,-0.16814651365365424,1
27,5.433366700033367,-0.14026250654634598,-0.9795894012447373,-0.14398275669785535,-0.3099630769085392,-0.9389075267385845,-0.14958458204984093,1
28,5.633366700033367,-0.14192230325587746,-0.9789299085429116,-0.14681380724820756,-0.31134451861583556,-0.940566081211921,-0.13564673826349014,1
29,5.833366700033367,-0.1628019604216117,-0.9752918406842874,-0.14933635584657537,-0.3372917182791624,-0.932090688881382,-0.13206530384972706,1
30,6.033366700033366,-0.22241547172097198,-0.966405991431952,-0.1288053479618121,-0.4009280300226123,-0.9081483123217841,-0.12051289378851905,1
31,6.233366700033367,-0.2361790641037817,-0.9548867337518506,-0.18002992913341953,-0.5058188061646075,-0.8545617335304253,-0.11777766730448427,0
32,6.433366700033367,-0.19547722387329508,-0.9216672768526076,-0.33513890512127725,-0.5376709367380531,-0.8343830901086632,-0.12130466902779742,0
33,6.633366700033367,-0.1891613917323371,-0.9184204625254679,-0.34745045962322585,-0.5392499100889562,-0.8328190521273325,-0.12498784293996097,0
34,6.833366700033367,-0.18690489516084974,-0.9177318728060646,-0.35047791628116176,-0.5419249290182295,-0.8305524660452983,-0.12845221856651903,0
35,7.033366700033366,-0.22954589423265265,-0.9083185152130174,-0.3496657795125968,-0.5846315209896171,-0.8013687197357617,-0.12654706513559733,0
36,7.233366700033367,-0.9483174107280288,-0.24979769596491364,-0.19569159307621725,-0.7533260793087162,-0.6445315947288359,-0.13068604221439264,0
37,7.433366700033367,-0.9845918669802105,-0.10393288170483556,-0.1406300521828544,-0.8786857343807103,-0.4636360399125238,-0.11381125906545694,0
38,7.633366700033367,-0.9941221576198738,-0.020922891266917664,-0.10622320062133271,-0.9337973605090978,-0.34199634119678696,-0.10517125136772704,1
39,7.833366700033367,-0.893165188274411,-0.10573241136380353,-0.43712309895718326,-0.951327606301342,-0.27989332644754267,-0.12897872421096504,1
40,8.033366700033367,-0.876639699799724,-0.09784319152556654,-0.4710939891435053,-0.9579605742861834,-0.24591574109140538,-0.14777342926504375,1
41,8.233366700033368,-0.8666880728270838,-0.10561632140412822,-0.4875417695668091,-0.95930565927856,-0.23373102996659534,-0.15843755144182925,1
42,8.433366700033368,-0.8646314761590774,-0.1274768974642749,-0.485965071839384,-0.9586390860758393,-0.23975731192320793,-0.15338687697139305,1
43,8.633366700033367,-0.9298745076942448,-0.056235108450432926,-0.3635533145467858,-0.9681520288158162,-0.21202361099905626,-0.13314517444781965,1
44,8.833366700033368,-0.9895497545658275,0.1404534087016714,-0.03262090162445191,-0.9901203727741756,-0.12225193501960101,-0.06867395286053406,0
45,9.033366700033367,-0.943439914148564,0.3289199255355664,-0.041627046220308966,-0.9983219224004328,-0.03783064853430863,-0.04384268794426313,0
46,9.233366700033368,-0.8981823576417507,0.43922309549313854,-0.018748994813896684,-0.9986468866283027,0.0418379691340014,-0.03088656935207069,0
47,9.433366700033368,-0.8232221934840201,0.5676882489201769,0.005939039762623788,-0.989761358868758,0.1406532399549345,-0.02427176508721741,0
48,9.633366700033369,-0.6996393250097286,0.714407988102933,0.011226817654664408,-0.9627934599423484,0.26958351435834377,-0.018801124393136723,0
49,9.833366700033368,-0.5793299661375637,0.815056626800969,0.007712680654301164,-0.91175384408969,0.41017179469483156,-0.021541277225234814,0
50,10.033366700033367,-0.588590971968016,0.8071591974405015,-0.04532877347725065,-0.8646599096297298,0.5018179984309326,-0.02327954316305157,0
51,10.233366700033368,-0.46756318772840905,0.8825388613497966,-0.05009814057081284,-0.8012547247454689,0.5973935622173644,-0.033343633489938476,0
52,10.433366700033368,-0.3183616714514972,0.9470660488845809,-0.041373242570019696,-0.7104588300004553,0.7022156243087667,-0.04627599648882038,0
53,10.633366700033369,-0.18109948816675153,0.982644684804691,-0.04015468603824972,-0.6125550162413125,0.7889301407662241,-0.04863728064140897,0
54,10.833366700033368,-0.06837896362033846,0.9968008694284086,-0.0413804789843842,-0.5148244843633752,0.8560125713429779,-0.046885264239080696,0
55,11.033366700033367,-0.11217143175388694,0.9870642123122445,-0.1145504721539442,-0.44937845461438636,0.8913978931810995,-0.05889652418167802,0
56,11.233366700033368,-0.05243310752822111,0.992587922799157,-0.10963569103256876,-0.36739719644136,0.9281404429855498,-0.05978811037001058,0
57,11.433366700033368,-0.06227959965466412,0.9941122227145718,-0.08866870990574262,-0.2674261347995077,0.9619887135917164,-0.05532610006453051,0
58,11.633366700033369,0.1599527290260086,0.9852214697122568,-0.061268100143169205,-0.19362750314579347,0.9795213915276859,-0.05519269485350387,0
59,11.833366700033368,0.25698558901573104,0.9654190325746548,-0.04386910736333235,-0.1486321192824278,0.9872693591400644,-0.05663661025150752,0
60,12.033366700033367,-0.02503828454351542,0.9936956156575767,-0.10927995118057039,-0.10639406144025354,0.993164994976632,-0.047995796100433565,0
61,12.233366700033368,-0.0320770695952029,0.9925665856827337,-0.11739946589446373,-0.0571894247099376,0.9975886376644741,-0.03932276317967916,0
62,12.433366700033368,-0.023417573196251762,0.9915504711856071,-0.12759028316137105,-0.008429721601530382,0.9990281737629578,-0.04326254525071906,0
63,12.633366700033369,-0.02194059625031225,0.9914057046345217,-0.128970302993785,0.023692274568566374,0.9987331677113617,-0.044392970603432565,0
64,12.833366700033368,-0.08109842670745399,0.991773761444067,-0.09903459646337058,0.11005753887007735,0.9928818735360162,-0.045529367901082696,0
65,13.033366700033367,-0.016625668589469456,0.9941548224114249,-0.1066760339535613,0.21515563045699732,0.9747851508592633,-0.05917739726394989,0
66,13.233366700033368,0.607556686453205,0.7904196943969082,-0.0781765914804449,0.32555619636129407,0.9432595185422781,-0.06538075932685886,0
67,13.433366700033368,0.7160231106792634,0.6928492583763306,-0.0852690456177385,0.4850479135149623,0.8706895515388541,-0.08141392040585566,0
68,13.633366700033369,0.7913231824793353,0.609933544807863,-0.04229292835559703,0.6570182946703567,0.7483668820483491,-0.09096136719337873,0
69,13.833366700033368,0.9850562085293006,0.16962126069108052,-0.029881331286403506,0.8156536465066195,0.5714245164040236,-0.09046077046368001,0
70,14.033366700033367,0.9802964705335301,-0.1965894874452203,-0.019271826211590962,0.9521307548806557,0.29827875167942564,-0.06690898225915773,0
71,14.233366700033368,0.961490636780982,-0.2735373872962231,-0.026703054762671246,0.9951451252879101,0.08129788031748997,-0.05546921913631915,0
72,14.433366700033368,0.8934491045581141,-0.42398126365789013,-0.14828548692088017,0.996841947721831,-0.046720794598883786,-0.0642129162567449,0
73,14.633366700033369,0.8695077895717043,-0.4171553339920735,-0.2644572388801091,0.9817140201936426,-0.1765711117404881,-0.07113525886622064,0
74,14.833366700033368,0.8500136918307766,-0.4451713413641446,-0.2816011372993048,0.9641497132930082,-0.25652108936950485,-0.06791362945457348,0
75,15.033366700033367,0.728536106590105,-0.6813351893945281,0.07083432139333376,0.9359953059885987,-0.35057318164616474,-0.03179986600278593,0
76,15.233366700033368,0.6955558007109932,-0.7123354522338611,0.09370342356643102,0.9046273271214706,-0.4261810658781046,0.004370138678215278,0
77,15.433366700033368,0.5041730812795142,-0.8568953281320586,0.10742393000896916,0.8653644462718129,-0.5004726741717589,0.02591288359190038,0
78,15.633366700033369,0.42022856808150827,-0.9018408651020876,0.10045399245467349,0.8007883097037867,-0.5976331601312616,0.039657142525333186,0
79,15.833366700033368,0.35309905626764915,-0.9343178709841957,0.04869468577222309,0.7460198747364074,-0.6646787878175985,0.04069957645483702,1
80,16.033366700033366,0.27882537904262367,-0.9603409939524835,-0.0012583068360660897,0.6902720389025634,-0.7228055844300806,0.03281157457343252,1
81,16.233366700033365,0.24483309471305797,-0.9695635072759438,-0.0018333281205506384,0.6620462292275215,-0.7487660273335556,0.03231449638699859,1
82,16.433366700033368,0.8003607757839842,-0.5694340739989185,0.18752990149694207,0.6902514778496915,-0.7227825852924697,0.03373768996613242,1
83,16.633366700033367,0.8463242918985345,-0.5152545371933928,0.1350849911872789,0.7368275307455321,-0.6742450981184387,0.04978692196450278,1
84,16.833366700033366,0.8645230993570421,-0.48424349697096286,0.13456614105869022,0.7758607531301127,-0.6271823560447864,0.06842794764191709,1
85,17.033366700033366,0.8615882011370063,-0.48655049549165746,0.14468720398957458,0.7881404573752392,-0.6088848122755492,0.08996613156359363,1
86,17.233366700033365,0.655505817536638,-0.7201416399581089,0.22739424261416485,0.7855557530542855,-0.6082423921919596,0.11376884979605387,1
87,17.433366700033368,0.5008658202254284,-0.8514970864917186,0.15519710637129802,0.7795049508561543,-0.614328658229223,0.12236147788020177,1
88,17.633366700033367,0.4734924947754588,-0.8697900849132797,0.13881666174441024,0.7819728206797844,-0.6116787028096685,0.11986522534573313,1
89,17.833366700033366,0.9325661459517808,-0.3476656446345734,0.09720587927418947,0.8067510581958389,-0.5791676873505817,0.11712181704905894,1
90,18.033366700033366,0.972391729428257,-0.22203461072610534,0.0717980235050405,0.8628944699495673,-0.49168473407223273,0.11687281981185152,1
91,18.233366700033365,0.9884546330346071,-0.13424398314851216,0.07025661122515191,0.9146610606965417,-0.38571918384143,0.12089605147472055,0
92,18.433366700033368,0.997222699861746,-0.05220039100431364,0.05312255697391595,0.9498621374017231,-0.29189487197793157,0.11206829901277582,0
93,18.633366700033367,0.9830813416171799,0.1826015907096842,0.014413009209012529,0.978138092076523,-0.18134670994364724,0.1017803695292671,0
94,18.833366700033366,0.9814416486866355,0.19081598275720318,0.019014493095049906,0.9943878409952919,-0.030325675191894122,0.10135667272004353,0
95,19.033366700033366,0.8693781153897867,0.48360950902107225,0.10150633116067338,0.9818803254790875,0.15501282606042693,0.10900481729648981,0
96,19.23336670003337,0.6867517879583047,0.7242801267144641,0.06156524817258114,0.9133932412507113,0.39024255674203684,0.11585997473225086,0
97,19.433366700033368,0.544842126072764,0.836353775010642,0.06049314574362032,0.7607113911056578,0.6397543452726103,0.10969301320917704,0
98,19.633366700033367,0.37367679235957374,0.9275572445289367,0.0017924769863545663,0.5905225816200188,0.802900938444054,0.08144423639820032,0
99,19.833366700033366,0.5351456809394466,0.8422881505065909,-0.06457376934981439,0.469659720079409,0.8797797929659475,0.07353409565450288,0
100,20.033366700033366,0.509421043457533,0.8587372538442062,-0.05532205114372988,0.4017455204839042,0.9129659469427341,0.07137027738543725,0
101,20.23336670003337,0.4731047171523929,0.8808187935879234,-0.018170841215245155,0.3557472459502067,0.9301083473715713,0.09133651596468764,0
102,20.433366700033368,0.44737128216496425,0.8943355616376665,-0.004779025456627198,0.3211569490987582,0.94231063265776,0.09438689329408802,0
103,20.633366700033367,-0.01644560946510515,0.9977265726159105,0.06535463430721755,0.24503954927063143,0.9647125239557571,0.09636060095370391,0
104,20.833366700033366,-0.24277208135707246,0.9658762531857551,0.09024843514101583,0.12183223933735532,0.9845398982782794,0.125849490091303,0
105,21.033366700033366,-0.27271898417260776,0.9554472702001416,0.11289317755718832,-0.04897679216133283,0.9900559977684705,0.13187264732409013,0
106,21.23336670003337,-0.42081559700121696,0.8994546830496367,0.1178792028331828,-0.16198899572559616,0.9791944789079768,0.12222003820956784,0
107,21.433366700033368,-0.5477689867341843,0.829184804191898,0.11136290975656742,-0.31419222826431076,0.9420528137941931,0.11755738905211553,0
108,21.633366700033367,-0.6422522144554725,0.7568386343559802,0.12127396494390995,-0.44772976214434823,0.8867084776234638,0.1152655013473023,0
109,21.833366700033366,-0.8937356741282512,0.44457160332255297,0.05993858781899233,-0.575761982699424,0.8097404421099947,0.11321906062822919,0
110,22.033366700033366,-0.9044986587600422,0.42320071154588884,0.05275731274750559,-0.7295128601724566,0.6753432299289567,0.10827053445941161,0
111,22.23336670003337,-0.9975625765297143,0.04299444808576298,-0.0549580143491261,-0.8540483347521386,0.5148299962376325,0.07450850207230494,0
112,22.433366700033368,-0.9852085219215243,-0.1490445298620107,-0.08455706032862022,-0.9479685449096074,0.31568414266135375,0.04122086770227072,0
113,22.633366700033367,-0.9695428560016359,-0.22315653510492933,-0.10093468787366366,-0.9945744301408078,0.10236361744050404,0.018530858981209646,0
114,22.833366700033366,-0.9782205587725522,-0.1675012992755339,-0.12258814435223342,-0.9992521918159202,-0.03650020372479341,0.012759007764253814,1
115,23.033366700033366,-0.9774028236350498,-0.16984059708309746,-0.12584868665460264,-0.9963450869177708,-0.08225712283245819,0.023026799997960683,1
116,23.23336670003337,-0.8692881803784199,-0.1441346465869541,-0.4728247699810468,-0.9943406025106546,-0.10513946055851207,-0.015246640030310512,1
117,23.433366700033368,-0.8602628996593602,-0.13982136932504943,-0.4903037101121484,-0.9932356667032103,-0.11145821632143132,-0.03255727880327933,1
118,23.633366700033367,-0.8741157376384838,-0.18487408268810263,-0.4491583804883999,-0.9886731764675832,-0.1451080487083526,-0.038327592326600594,1
119,23.833366700033366,-0.8479018584883709,-0.21158189108498912,-0.4861023984068242,-0.9800523626762667,-0.1925870094351001,-0.049067404756236416,1
120,24.033366700033366,-0.8529588144334913,-0.20546176886761036,-0.47984030928425114,-0.9705580908809553,-0.23611439031693113,-0.047612885974062366,1
121,24.23336670003337,-0.9402538210202915,-0.17416911660318923,-0.2925540477901583,-0.9520816248632268,-0.30156295352201745,-0.05099377080463865,1
122,24.433366700033368,-0.9870226924807357,-0.15232586278462082,-0.05082357774695297,-0.9457008150905677,-0.3246889441611538,-0.015068439751713776,1
123,24.633366700033367,-0.9926476910178709,-0.11376504528895866,-0.04132887595000861,-0.9542209668435302,-0.2990452652708669,-0.005854549963507882,1
124,24.833366700033366,-0.9910023068933762,-0.12786051742487434,-0.03957418117724885,-0.9491971192719335,-0.3146780226202852,-0.0016033856836946776,1
125,25.033366700033366,-0.9834777783446671,-0.17730540125669547,-0.03652744430480236,-0.9282201112088956,-0.37203148315245305,2.6281774744099988e-05,1
126,25.23336670003337,-0.6545748648802486,-0.755748158004876,-0.01940278173977284,-0.8462264723425778,-0.5327989165149344,-0.005106081388740431,0
127,25.433366700033368,-0.42471483512878105,-0.8994592226673372,-0.10290974482624196,-0.6972191931489214,-0.7166992442587178,-0.015086085766361869,0
128,25.633366700033367,-0.5063774338612277,-0.8558975796516765,-0.10498203476081056,-0.593894112209655,-0.8039991134912168,-0.029583931247273935,1
129,25.833366700033366,-0.5509551158751698,-0.8274672924759257,-0.10838053410801969,-0.5681600183355497,-0.8225321091510351,-0.025201646384662782,1
130,26.033366700033366,-0.31993653690100804,-0.9457879279632974,-0.055908923032754416,-0.5756081754326099,-0.8176726932284204,-0.0093056500967719,1
131,26.23336670003337,-0.2887770679895901,-0.95576825619093,-0.05581080057734814,-0.5591999408316037,-0.8290303174445851,0.002039345890524604,1
132,26.433366700033368,-0.2660463844461289,-0.9614916797120708,-0.06894252075173597,-0.5418190224295643,-0.8404947870668865,-0.0008123095843664191,1
133,26.633366700033367,-0.2514557759005488,-0.9645904509959625,-0.07959431269669312,-0.5287623714101597,-0.8487697860803677,-0.0004525679964303089,1
134,26.833366700033366,-0.2277034233537275,-0.9696741777604332,-0.08878704847905053,-0.5051040086852654,-0.8630584795885664,3.493347392713612e-05,1
135,27.033366700033366,-0.18258491115815978,-0.9790106609238088,-0.09055868823527778,-0.4690124434181211,-0.8831903381851939,0.001467806283588172,1
136,27.23336670003337,-0.14446309632551313,-0.9846152119532088,-0.09830207622621007,-0.4348398521222891,-0.9005074610423881,-0.0007846102585757848,1
137,27.433366700033368,-0.11942224542172136,-0.987785757945035,-0.10008807970676101,-0.4115077854413751,-0.9114051374304364,-0.0014205585319726646,1
138,27.633366700033367,-0.09487891006938237,-0.9900759339507424,-0.10367081284340003,-0.3867899477520641,-0.9221444781351603,-0.006564888634897121,1
139,27.833366700033366,-0.061387747721016295,-0.9927893331834944,-0.10296059608808565,-0.35154490492357876,-0.9361635383408285,-0.003742900406383945,1
140,28.033366700033366,-0.042851961119699467,-0.9932979749762006,-0.10734450305616436,-0.3269851001418374,-0.9450175980273733,-0.004741698409465364,1
141,28.23336670003337,-0.025652406780287462,-0.9935558801979687,-0.11040229594722346,-0.30569754968996743,-0.9521280631615088,0.0010767793942398356,1
142,28.433366700033368,-0.04494374293775899,-0.9913926971683662,-0.12296576748012913,-0.32062556430199324,-0.9472037742532443,-0.00206338470421234,1
143,28.633366700033367,-0.06279473084350623,-0.9897213926185037,-0.12848496710347673,-0.33612826081529934,-0.9418151170637913,-0.0014413713606968002,1
144,28.833366700033366,-0.059521614878529194,-0.9893217501758681,-0.13304003905294667,-0.33112889345749813,-0.943570193058192,-0.005380212796841081,1
145,29.033366700033366,-0.048578471987847205,-0.9891595038351397,-0.13857708335776897,-0.32075626681164304,-0.9471017023826921,-0.010666894808923933,1
146,29.23336670003337,-0.05121008747734884,-0.9888953457262656,-0.13951172761274355,-0.32363808325572674,-0.946100186993814,-0.012362331367086738,1
147,29.433366700033368,-0.06489844083629048,-0.9883122495230703,-0.1379387176236875,-0.33398490301294254,-0.9425125311110305,-0.011145100184136916,1
148,29.633366700033367,-0.07307315713191809,-0.9878614671715719,-0.13707674997753425,-0.34048259514830387,-0.9401712784875962,-0.012229861326902998,1
149,29.833366700033366,-0.07280540816299241,-0.9882535225873906,-0.1343664676764035,-0.33957252335533994,-0.9405275541242567,-0.009920751742189055,1
150,30.033366700033366,-0.06958915752588979,-0.9883965567530741,-0.1350170202363556,-0.33506937691530536,-0.9421345804653427,-0.010533040633265095,1
151,30.23336670003337,-0.07098910188671542,-0.988435021635424,-0.13400281869384967,-0.3360034758626043,-0.9418165554291812,-0.00912360278399313,1
152,30.433366700033368,-0.07695471086760125,-0.9876216812146963,-0.13667987148787156,-0.34063018736752054,-0.9401308883734707,-0.011179811271981201,1
153,30.633366700033367,-0.07791400423622513,-0.9876739572251612,-0.135755523508506,-0.3408182541895521,-0.9400846291471405,-0.009154651957846259,1
154,30.833366700033366,-0.07513635335767505,-0.9878204057476144,-0.13625481420019256,-0.3373735481271547,-0.9413378002238608,-0.007888909544241582,1
155,31.033366700033366,-0.08015082911098936,-0.9872609254254487,-0.13744711608799923,-0.34202151729881863,-0.939653512755753,-0.008518079031569741,1
156,31.23336670003337,-0.0866439586938948,-0.9865405574676073,-0.1386742690384686,-0.3460057949702213,-0.9381981616370119,-0.008012449560326613,1
157,31.433366700033368,-0.09034097345489073,-0.9858895890784068,-0.1409263164282411,-0.3485499093647061,-0.9372478337642457,-0.0089139657888254,1
158,31.633366700033367,-0.08998928704679748,-0.9855156499756519,-0.1437387625864288,-0.3463739527984979,-0.9380442987695945,-0.009898402325815603,1
159,31.833366700033366,-0.09035393610195014,-0.9848436709828048,-0.14805103834825975,-0.344287526618036,-0.9387972783727466,-0.011214683908102142,1
160,32.03336670003337,-0.08891943862143326,-0.9849029616447179,-0.14852437368564347,-0.3425483178852886,-0.9394160498061043,-0.012575185114125316,1
161,32.23336670003337,-0.09064493494251646,-0.9842815269438754,-0.15156969184602884,-0.34493333793324754,-0.9384629213303656,-0.01755954641511572,1
162,32.43336670003337,-0.09490441120627019,-0.9846706870481126,-0.14634476690947718,-0.3482662261196225,-0.9372748342538794,-0.015050608584332324,1
163,32.63336670003337,-0.08642705944974255,-0.9862319895145326,-0.1409851987021256,-0.3386721811077558,-0.9408473063523528,-0.010368214563645079,1
164,32.83336670003337,-0.08877642589816243,-0.9861698632577772,-0.13995623246888803,-0.34002229899093506,-0.9403491487605021,-0.011327604085531264,1
165,33.03336670003337,-0.3487100539121626,-0.9265000128281826,-0.14141790738783552,-0.35055196958668816,-0.9364518293808433,-0.013087699116562542,1
166,33.23336670003337,-0.3550895535633572,-0.92338593692464,-0.14584176507427685,-0.3596108438513551,-0.9330036131444416,-0.01357567103070041,1
167,33.43336670003337,-0.20528688753779828,-0.9702375208337228,-0.12843849489726367,-0.3573911283645343,-0.9338596650811938,-0.01333069018338883,1
168,33.63336670003337,-0.22187969897148774,-0.9667225396853542,-0.12734571232915906,-0.35747704371193195,-0.9338295763641978,-0.01313337452602165,1
169,33.83336670003337,0.054368292880595026,-0.9921605820689998,-0.11252318924449876,-0.35144727258522124,-0.9360669821584596,-0.0162302034849632,1
170,34.03336670003337,0.3762894264266271,-0.8944999910392181,0.24140429488797174,-0.33185332325100236,-0.9431756173385157,-0.01712094347211738,1
171,34.23336670003337,0.40733426007350076,-0.8783487009983595,0.2501646658200719,-0.28869325904464266,-0.9573231959743993,-0.013729553217241721,1
172,34.43336670003337,0.21864516848665888,-0.9701363205839431,-0.10502290122297114,-0.21963648659669027,-0.9754526024975653,-0.015875579869386956,0
173,34.63336670003337,0.3447667458562338,-0.936040173858677,0.0704605128729617,-0.1329558207613563,-0.9910418145924895,-0.012604422037535907,0
174,34.83336670003337,0.34224591709663793,-0.9394626444018145,0.01666349315814746,-0.03479212148081662,-0.9993799621487618,-0.00540365972315202,1
175,35.03336670003337,0.3285547678641769,-0.9434643536555917,-0.04389507825432661,0.0066440667341094994,-0.9999672869574248,-0.004613175938531191,1
176,35.23336670003337,0.32989726192461394,-0.9416010491412761,-0.06749267242220743,0.03652785352789223,-0.9993177134567515,-0.005461088555857575,1
177,35.43336670003337,0.33762174734857314,-0.9379506932840632,-0.07912049472318537,0.05434979358235065,-0.9985077447903865,-0.005327619653489543,1
178,35.63336670003337,0.34550801874246595,-0.9343032260930958,-0.0877592769836295,0.0702837129514649,-0.9975146510780153,-0.004971979330361968,1
179,35.83336670003337,0.33178297438302534,-0.938635152459088,-0.09425554878975291,0.07416717710235798,-0.9972269162423184,-0.006140632093200579,1
