,timeStamp,x_gaze,y_gaze,z_gaze,x_head,y_head,z_head,fixations_head
0,0.033366700033366704,-0.9974236343498905,-0.011093669735537135,0.07087329632558992,-0.9935786621168478,-0.09412743485884253,0.06278111334621038,0
1,0.2333667000333667,-0.9956310260407706,-0.09184982908481266,-0.016806810586582253,-0.9938799034776553,-0.0835692554345793,0.07224207229417699,0
2,0.43336670003336675,-0.9936107531141687,-0.10699232826715792,-0.035920926879289244,-0.9936936527099758,-0.09083785010912142,0.06573742884733907,0
3,0.6333667000333668,-0.9912202747427574,-0.11673931178228447,-0.062083009136894955,-0.9933001315802106,-0.09609885208879093,0.06418612957605242,0
4,0.8333667000333668,-0.9855627009119339,-0.13288480133195474,-0.10491802583989489,-0.9923374173465478,-0.12157272958572239,0.02205723362211935,0
5,1.0333667000333666,-0.8542158537855875,-0.16857491095606972,-0.4918310426737145,-0.9799084988956546,-0.13694678217186715,-0.1449996987749843,1
6,1.2333667000333668,-0.8177797381112831,-0.1352599352220887,-0.5594113422682435,-0.9580134269333908,-0.12342576006054037,-0.2587979048771822,1
7,1.4333667000333667,-0.8293199963789567,-0.11737566139170517,-0.5463069629053496,-0.9537232980459903,-0.09779687068379295,-0.28433719919971295,1
8,1.6333667000333667,-0.9928101922465048,-0.10349261377228729,-0.060143171399904695,-0.9709197322241132,-0.1013268700410689,-0.21690490770274648,1
9,1.8333667000333667,-0.9913674849139831,-0.12693904495963682,-0.032817506304701434,-0.9764298992003424,-0.11725354398754638,-0.1812077767921941,1
10,2.033366700033367,-0.9877686602789532,-0.15469768238341416,-0.019537165503802776,-0.9757319451663445,-0.1438956994870753,-0.1650490801277822,1
11,2.233366700033367,-0.9867934024861952,-0.15967078146632793,-0.02727677318984989,-0.9737340095441548,-0.15728631466314963,-0.16463017304476382,1
12,2.433366700033367,-0.9845879985504064,-0.17114721663800644,-0.03598754433924178,-0.9690265487305857,-0.17939513327906606,-0.16972016383175062,1
13,2.633366700033367,-0.9826553748784874,-0.18178129489484904,-0.03666026525778508,-0.9643457339028068,-0.2029273546971546,-0.16987581999529017,1
14,2.833366700033367,-0.985307203732733,-0.16674675070831368,-0.036949092013232515,-0.9651478291714679,-0.19689623064917605,-0.17239936833338312,1
15,3.033366700033367,-0.9880871757051487,-0.15035538146498734,-0.03281756346137433,-0.967688095544381,-0.18687466832205762,-0.16928558143329844,1
16,3.233366700033367,-0.99017032993244,-0.1370543227518326,-0.02790753189588856,-0.9701651215799239,-0.17833518112542537,-0.16424433032154775,1
17,3.433366700033367,-0.9894814543108447,-0.14142198810163997,-0.030434731085982464,-0.9687977409101896,-0.18494829226334566,-0.16500020120043812,1
18,3.633366700033367,-0.9866207305286827,-0.16160203476889407,-0.02154800337854104,-0.9657738560443124,-0.20837054798797291,-0.15447515564805772,1
19,3.833366700033367,-0.9929075010199929,-0.1153124174123871,-0.02894375249936212,-0.951945249191799,-0.27235072160600243,-0.1400904243046378,0
20,4.033366700033366,-0.9731504346483121,-0.22778844044242472,-0.03302511081903329,-0.891399883657741,-0.43725454193330476,-0.11922547116141534,0
21,4.233366700033367,-0.40450451287439304,-0.9144315912168717,-0.01381897423221042,-0.6863207276349691,-0.7203831969848269,-0.10005952388716918,0
22,4.433366700033367,0.044849178342506235,-0.9869728379827204,-0.15450944400371547,-0.3550105176169984,-0.9278672565229856,-0.11414852891657945,0
23,4.633366700033367,-0.11200787884826807,-0.8624826663600726,-0.4935361033443567,-0.2227356355150482,-0.9394464782606597,-0.260440302478997,0
24,4.833366700033367,-0.10835493898403659,-0.863273178334847,-0.4929691945400009,-0.15072820919644775,-0.9362482602466581,-0.31736446262544593,0
25,5.033366700033366,-0.1577119671105291,-0.9874516337977945,-0.008136727855478402,-0.14104283786240518,-0.9517220325022236,-0.27263912180308275,0
26,5.233366700033367,-0.1583430719781158,-0.987179547766519,0.02010005044830967,-0.17695386141817426,-0.9641141922374439,-0.19791704134697216,0
27,5.433366700033367,-0.23219474153271075,-0.9725970656368982,0.011855375112290772,-0.2941705828192907,-0.9395673117563896,-0.1751483225230268,0
28,5.633366700033367,-0.9817957149127474,-0.18138069279112137,-0.056375690342385085,-0.7239160521207675,-0.6727571423798016,-0.15278539478250522,0
29,5.833366700033367,-0.9694946422742001,0.1472747290987218,-0.19593440935812903,-0.964064647805204,-0.23184164835817078,-0.12972588384279765,0
30,6.033366700033366,-0.9848795502063894,-0.06536577306408456,-0.16043561729552006,-0.9907209878251322,-0.015070689891883928,-0.13507330820327618,0
31,6.233366700033367,-0.7873130059779232,-0.16817070886315366,-0.5931752214130924,-0.9596098932746198,0.009702326758223608,-0.2811667078175324,0
32,6.433366700033367,-0.828912448357463,-0.18605058191425494,-0.5275313582408193,-0.9385716510903518,-0.023520708177554344,-0.34428190782606816,0
33,6.633366700033367,-0.8322510174195905,-0.22391680976003736,-0.5071681243048932,-0.931884418539158,-0.060370909779143445,-0.3576964966789217,0
34,6.833366700033367,-0.8435760790075687,-0.229386154571191,-0.4855526655443856,-0.9335507613924942,-0.08052985972553914,-0.3492820029661987,0
35,7.033366700033366,-0.7008805919269323,-0.10684614688943396,-0.7052306691821014,-0.989489854302426,-0.04180874733588618,-0.1384263590461303,0
36,7.233366700033367,-0.7625181535113551,-0.11418701654738204,-0.6368103256210922,-0.9973856273096517,-0.045723371922876954,-0.05595787429964492,0
37,7.433366700033367,-0.7810813181233132,-0.09302270523694685,-0.6174615379026845,-0.999333401312226,-0.015310901904933411,-0.033141051651915436,0
38,7.633366700033367,-0.8175015181705799,0.5754960471656259,0.02226134509720076,-0.9801255290886809,0.19718350754819344,-0.021739631542995123,0
39,7.833366700033367,-0.7890940967011163,0.6130123427819711,0.03932396404749469,-0.9092835106109861,0.41598574913017916,-0.012623543542311842,0
40,8.033366700033367,-0.5070224979282538,0.8542295213521816,-0.11497874344859024,-0.8376691964783236,0.5436828960600731,-0.05214619643935217,0
41,8.233366700033368,-0.45671257913418695,0.8844770368164396,-0.09546722686351544,-0.6854183295143859,0.7199638489920988,-0.10887501876092255,0
42,8.433366700033368,-0.10571733803500827,0.9938042336905203,-0.03430728111625908,-0.5338349345737253,0.8394622191451468,-0.10160435648421826,0
43,8.633366700033367,0.038585084417396054,0.9970537110824231,-0.066295463474286,-0.34185594253183843,0.9340696523801516,-0.10319108032233633,0
44,8.833366700033368,0.013566621859325112,0.9983822023878042,-0.05521706915985439,-0.1684757254619909,0.9790440680136479,-0.1144056065817745,0
45,9.033366700033367,0.021132418530819763,0.9969158247219146,-0.07557948998281945,-0.0836316597446985,0.9882336818924982,-0.12806223276807208,0
46,9.233366700033368,0.34188580461899853,0.934046570142341,-0.10330102325412437,-0.025840963616421464,0.9920639275429473,-0.12305042977347362,0
47,9.433366700033368,0.3897942047353874,0.9155423741614098,-0.09921007544396017,0.07941866794559249,0.9903824416267616,-0.11329295873602269,0
48,9.633366700033369,0.4023180790443747,0.9129500657976751,-0.06828133444848097,0.20062243153860165,0.9720451842462169,-0.12197868562694576,0
49,9.833366700033368,0.3656241582460835,0.9276414952512511,-0.07615924891217127,0.40664833612089035,0.9042933294076402,-0.12996424554067396,0
50,10.033366700033367,0.7753474630768135,0.6312484437681929,-0.019018773372233146,0.5883191817913691,0.8023203502718811,-0.10080970129873636,0
51,10.233366700033368,0.9160958625193241,0.40041878410250115,-0.02081268874629822,0.7511231661896113,0.653788633267068,-0.09151181466932706,0
52,10.433366700033368,0.9343578938119579,0.3560349256321858,0.014644384635981778,0.8264679652788932,0.5554977214362334,-0.09150401000458531,0
53,10.633366700033369,0.990953698987643,0.1330286357898851,0.017724235458552444,0.8877110717377891,0.4545093047802078,-0.07341896881840816,0
54,10.833366700033368,0.9986584806430321,0.044232187831800725,0.026921229529184357,0.9525283605445788,0.3007323720668197,-0.047431663994857834,0
55,11.033366700033367,0.9961604776384381,-0.037523344723723276,0.07909678496566214,0.9877765935510422,0.15369857673818396,-0.025964374464953484,0
56,11.233366700033368,0.8612908355687512,-0.09076436629425608,-0.49993992276721094,0.9974425364387559,-0.03176056758932093,-0.06402853152326526,0
57,11.433366700033368,0.7833503800815669,-0.34371456770256753,-0.5179019964965397,0.9527866112249093,-0.20391184456505693,-0.2249836285524559,0
58,11.633366700033369,0.7723410902795302,-0.3795929479558565,-0.5093117258889774,0.8758997941234351,-0.3124963774345071,-0.3676214965760766,0
59,11.833366700033368,0.743956886269177,-0.38889941837646835,-0.5434016872987382,0.804702833203304,-0.3596321066236583,-0.47235378491127333,0
60,12.033366700033367,0.7845418305801762,-0.18109461932590307,-0.593042034699997,0.7286125930320462,-0.3165483337996513,-0.6073885425687441,0
61,12.233366700033368,0.3325591580665292,-0.13916019507048077,-0.9327587289830244,0.6744628207388003,-0.21688091783709346,-0.7057354822588993,0
62,12.433366700033368,0.23312644227242038,-0.1646091045316727,-0.9584132222682893,0.5664371771264638,-0.19881111870455737,-0.7997643799572757,0
63,12.633366700033369,0.12737010963511203,-0.14389274469355826,-0.9813621824770374,0.44969346100642854,-0.1964697241100538,-0.8713067419893978,0
64,12.833366700033368,-0.026802641983796227,-0.12272351025356659,-0.9920789073525007,0.31169455980298316,-0.20351310496129452,-0.9281319504780762,0
65,13.033366700033367,-0.15072042414586165,-0.23001558715549336,-0.9614448415852079,0.1965517592822412,-0.19777001160373242,-0.9603407876547345,0
66,13.233366700033368,-0.0840213866684553,-0.44549898825329365,-0.8913310597345983,0.13105727101898956,-0.25307587998330505,-0.9585283463120593,0
67,13.433366700033368,0.059952531146784116,-0.802347293209191,-0.593838795540489,0.12653507784031037,-0.5592863425164929,-0.819260435484633,0
68,13.633366700033369,-0.09907344217974817,-0.9617699026357988,-0.25530982636510946,0.045214334918987076,-0.8364382830368144,-0.5461928803895743,0
69,13.833366700033368,-0.14407589152892303,-0.9887787420535696,-0.039480840202639186,-0.04611924196151673,-0.9487930852067878,-0.31251351488324475,0
70,14.033366700033367,-0.1671753753687888,-0.9856916087081469,0.021551018366892043,-0.07856070564792172,-0.9771220805120763,-0.1976376869522925,1
71,14.233366700033368,-0.12932410055719162,-0.990440162670317,0.04799542878930419,-0.04008674618819602,-0.9891669752048925,-0.14121525393542575,1
72,14.433366700033368,-0.10337455954339325,-0.9909090171785411,0.08609889728368918,0.0008862577305198682,-0.9966185396230114,-0.08216264982905516,1
73,14.633366700033369,-0.10317833610456201,-0.9916160306973926,0.07779382123691869,0.018414615894860875,-0.9969819200728897,-0.07541851874188045,1
74,14.833366700033368,-0.12126549157744304,-0.9901162891959442,0.07045860076197298,0.014171403087351653,-0.9974717037378021,-0.06963742942514604,1
75,15.033366700033367,-0.1215378029483486,-0.9907723502371444,0.05998926954092791,0.022154514044985973,-0.9974670229075014,-0.06759227559030907,1
76,15.233366700033368,-0.24440183014603345,-0.8915881870094768,-0.3812325408545599,0.015551497883885768,-0.9984356009625438,-0.053707556676239734,1
77,15.433366700033368,-0.19894133892865107,-0.9800068580523986,-0.0029835943996289944,-0.010039341890188958,-0.9995886865575545,-0.026863903673049278,0
78,15.633366700033369,-0.20517338822138198,-0.9786743231648486,-0.010022471929812503,-0.03457686398460641,-0.9992352294915907,-0.018259151674655194,0
79,15.833366700033368,-0.213255019775075,-0.9766569516803528,-0.02575840203066342,-0.06183696965680929,-0.9977493834705056,-0.025929847047160476,0
80,16.033366700033366,-0.20182243441025244,-0.9790800921694601,-0.025882003132693673,-0.061562164521817675,-0.9977968130204822,-0.024730948739542576,0
81,16.233366700033365,-0.4212352046144768,-0.8967053209999465,-0.13594289125872955,-0.11038477842470612,-0.9929944195628264,-0.04215783923796331,0
82,16.433366700033368,-0.4626350476204295,-0.8747127373796257,-0.1443829622188336,-0.3376971156662226,-0.9364071638005076,-0.09540587850758152,0
83,16.633366700033367,-0.8880133314892935,-0.2593532871432141,-0.3796948716341794,-0.7210050161523377,-0.6488862367021602,-0.24310166289368595,0
84,16.833366700033366,-0.9130938807725099,0.0024826787669324476,-0.4077418315575898,-0.8871920488652494,-0.2857379283511791,-0.362276282320355,1
85,17.033366700033366,-0.8349714854082251,-0.16094984245345115,-0.5262297661377505,-0.9072426531261832,-0.12016754695330167,-0.4030763314904384,1
86,17.233366700033365,-0.8394266353574278,-0.20654175300106872,-0.5026961588472243,-0.9103029569061745,-0.14802115623663833,-0.3865724562798597,1
87,17.433366700033368,-0.9893094945425545,-0.13158817112505813,-0.06285918570835904,-0.9177251253713135,-0.21377991967656465,-0.33478163062702226,1
88,17.633366700033367,-0.9915573863925665,-0.12495682514140241,-0.0346372825279882,-0.9253606568293934,-0.22294790651813803,-0.30659726967384004,1
89,17.833366700033366,-0.9912546693354178,-0.1268682055910332,-0.036313068320411694,-0.925016328627907,-0.2314691765562049,-0.30127530943663594,1
90,18.033366700033366,-0.9931654216673956,-0.10929767474261332,-0.04094463945478764,-0.9287581133581246,-0.2218659864046843,-0.29695765851065903,1
91,18.233366700033365,-0.9929948019602789,-0.11075879627895541,-0.041155951291444524,-0.930620560564689,-0.22481672487150117,-0.28879545092039727,1
92,18.433366700033368,-0.9927547597047746,-0.11673178570481715,-0.028489950678800082,-0.9345365588411225,-0.2332920304333398,-0.26873081089760237,0
93,18.633366700033367,-0.9900306784168783,-0.1408326321848529,0.002329271410009701,-0.9342297523917613,-0.2653222704871897,-0.23836707517933625,0
94,18.833366700033366,-0.9891331136438278,-0.13100812562199582,-0.06672746446762241,-0.9224723051560062,-0.3172947175742385,-0.21992932596552187,0
95,19.033366700033366,-0.5184314771721881,-0.8534132572245048,0.05398718246513699,-0.8721462430407148,-0.45653164125564577,-0.1758971042467522,0
96,19.23336670003337,-0.6366339087599433,-0.7705037750268505,-0.03195620262810596,-0.7534508888624367,-0.6473804080688336,-0.11493635334842738,0
97,19.433366700033368,-0.5024335995196385,-0.8633075926212188,-0.04754449070392144,-0.6227817609629648,-0.7776789276042113,-0.08578090563891841,0
98,19.633366700033367,-0.10401376430284104,-0.9918918378544019,-0.07301861977174073,-0.49925523496578306,-0.8618805866849685,-0.08891605397697122,1
99,19.833366700033366,-0.05289110484881321,-0.9957558312847036,-0.07531836091140702,-0.4588607360483816,-0.882398454645064,-0.10401822990774703,1
100,20.033366700033366,-0.34203639130586444,-0.9302614335648384,-0.13275832269335633,-0.48386709029719716,-0.8690400649194384,-0.1031600915671488,1
101,20.23336670003337,-0.3230941778593804,-0.9371560005348007,-0.13171477857471986,-0.4876920150899593,-0.8674107489675884,-0.09876786417141127,1
102,20.433366700033368,-0.09851502049489996,-0.9871622886801548,-0.12571955514019403,-0.49492548936324327,-0.8649477553997941,-0.08315131031687008,1
103,20.633366700033367,-0.10629409091645603,-0.9858260653615193,-0.12980190711260747,-0.5008293792099572,-0.8610147084115836,-0.0884511436844351,1
104,20.833366700033366,-0.10887556920879865,-0.9861137551020366,-0.12540244187423533,-0.5077091921756561,-0.8564702515019138,-0.09322062257135352,1
105,21.033366700033366,-0.39244677223440483,-0.9054913769285804,-0.1614648484060262,-0.5056979578597048,-0.8572377692483258,-0.09702052561534573,1
106,21.23336670003337,-0.3974246823260916,-0.9021326753098282,-0.16795909625958727,-0.5218343681336176,-0.8474003921482325,-0.09798707885027241,1
107,21.433366700033368,-0.45560455929643323,-0.8703834954546731,-0.18670044560313157,-0.6524229523469083,-0.7434483303633134,-0.14706757402957835,0
108,21.633366700033367,-0.8762019908796003,-0.1012051484253443,-0.47119803597938426,-0.8221268581656124,-0.5166581789720939,-0.23910615881649522,1
109,21.833366700033366,-0.8798326480917226,-0.08164672775148996,-0.4682182431296128,-0.8465843758749592,-0.4637802563005589,-0.2611565974471907,1
110,22.033366700033366,-0.8719528447432321,-0.17513133506411774,-0.4571949824996391,-0.8515672878719756,-0.45134053218046377,-0.2666924787792558,1
111,22.23336670003337,-0.8740725837549543,-0.17917270151943304,-0.45154652180939964,-0.85073295598415,-0.4536268467331338,-0.2654733913698779,1
112,22.433366700033368,-0.8742174961864959,-0.18342517677444628,-0.4495541946046965,-0.8450745172711799,-0.46239315124751496,-0.2684057263514976,1
113,22.633366700033367,-0.874372906775633,-0.18349037107383384,-0.4492252259389681,-0.8387492645187999,-0.4713078501845754,-0.2727060351799465,1
114,22.833366700033366,-0.8762918790381392,-0.17835152704219787,-0.44755253941132267,-0.8370071473520773,-0.4737601241813551,-0.27380719496975464,1
115,23.033366700033366,-0.8774500740840433,-0.17925856711580118,-0.44491317535615454,-0.83520366924058,-0.47876068918168246,-0.27059754873492864,1
116,23.23336670003337,-0.823409863947889,-0.5673083854624473,-0.012545586367746915,-0.8273351371448688,-0.5132680286909448,-0.2281939998536175,1
117,23.433366700033368,-0.8134997518764563,-0.5815647957359323,-0.0007362455894374065,-0.8080019289934186,-0.557041113509459,-0.19193248970160492,1
118,23.633366700033367,-0.8169123697831383,-0.5767061358867378,-0.008013296817455735,-0.8037646468646353,-0.5675150303647869,-0.17857514597676566,1
119,23.833366700033366,-0.5377885548862367,-0.8269871981354405,0.1639379283554188,-0.6906638441704321,-0.7222546721145657,-0.036491683496411874,0
120,24.033366700033366,-0.24899214111660783,-0.9280512339141356,0.27699065127295913,-0.471250709823406,-0.8784694018109357,0.07883069562595912,0
121,24.23336670003337,0.2666071703244306,-0.9599293972742775,0.08634911105646818,-0.18668343118064962,-0.9721190642302858,0.14189369782570732,0
122,24.433366700033368,0.3117358672051393,-0.9345404073945068,0.1716245205230563,0.07570032494850709,-0.9850849810610106,0.15452197542977256,0
123,24.633366700033367,0.3260843956718044,-0.9393874373023492,0.1059254905010082,0.2560406702085349,-0.9568772067836155,0.1372194823527267,0
124,24.833366700033366,0.4706927440919679,-0.8780666761841895,-0.08629746713561846,0.3885030568958879,-0.9147240706414272,0.11110917771150856,0
125,25.033366700033366,0.2667703708519056,-0.9619461137103671,-0.059103667847759195,0.45223008518755076,-0.885502642766282,0.10664436086915707,0
126,25.23336670003337,0.26710607434254413,-0.9628329311395605,-0.040088549019867935,0.4848059142867438,-0.8664955718318995,0.11894809569011158,0
127,25.433366700033368,0.5476523411047363,-0.825644486728792,0.13560270947459263,0.529563687516486,-0.837029377562089,0.1376376473279155,0
128,25.633366700033367,0.9184619999452994,-0.3890124430169889,0.07139239339337698,0.6597823822458246,-0.7373915371135922,0.14470980986539303,0
129,25.833366700033366,0.9744329061412308,-0.2156249043453808,0.06313803968449679,0.8242056919208527,-0.5476045332034577,0.14427145462735122,0
130,26.033366700033366,0.9747047959687711,-0.20955627255908837,0.07769639210811245,0.9266102963261266,-0.3524051870441079,0.1311638017397163,0
131,26.23336670003337,0.9908897115523077,-0.01276628899808768,0.13406939026116985,0.9787467384013859,-0.16713833612956122,0.11882591747801184,0
132,26.433366700033368,0.9894495392874142,0.09088155765820985,0.11282797384310957,0.9913332559661479,-0.05259207523104794,0.1203845888743552,0
133,26.633366700033367,0.9219161085713957,0.3755500777527931,0.09504119031475809,0.9853665371270737,0.10640925467725083,0.13315351301873904,0
134,26.833366700033366,0.8839317607464094,0.45710746248942297,0.09857692468439881,0.9453167003036009,0.2851227052011836,0.15837101725338182,0
135,27.033366700033366,0.6130319368968928,0.7849052577900303,0.09008651751516707,0.8430605309359986,0.5153410329805848,0.15385889933447378,0
136,27.23336670003337,0.36463561512191345,0.9307888127421393,0.025943289281480292,0.6743764537969759,0.7247765042333401,0.14112199500968917,0
137,27.433366700033368,0.33726330051835424,0.936792569802082,0.0931297336358158,0.4680714010009454,0.8765544322763089,0.11207805682545584,0
138,27.633366700033367,0.003657357186721333,0.99992103894931,-0.012022462515708458,0.3032234759286895,0.9488142250806145,0.0883577383730297,0
139,27.833366700033366,-0.014843678564592788,0.9998897468287307,0.0003992410903456554,0.1641392133389274,0.9826856699896878,0.08594877917339055,0
140,28.033366700033366,-0.1466661436540816,0.9878644303265504,0.05111662744392371,0.03209642301647836,0.9962865604234316,0.07989311077430693,0
141,28.23336670003337,-0.16597434271325967,0.984521415486133,0.05630364117961073,-0.08515529782568582,0.9945902832047906,0.05948734156804434,0
142,28.433366700033368,-0.08969179694747254,0.9782060273920293,0.18726545205733505,-0.20781068428244864,0.9754263189437409,0.07319983476705376,0
143,28.633366700033367,-0.2919718196869056,0.8058673539842305,-0.515102188202664,-0.3230629069529249,0.9393445874822813,0.11516120926279291,0
144,28.833366700033366,-0.3265572722970689,0.8482981187883439,-0.4168340791850574,-0.4106932075277534,0.9022172428552412,0.1316629636050045,0
145,29.033366700033366,-0.32435006005188277,0.9309198532340464,0.1678846788692808,-0.4503636004965072,0.8868419353213264,0.10336348051099466,0
146,29.23336670003337,-0.32318311510825476,0.9411390115907567,0.09904562065481987,-0.46361657393329886,0.8826365309984028,0.07753983828623595,0
147,29.433366700033368,-0.08112290920464466,0.9794960279677224,-0.18440879804833019,-0.44268126568785937,0.8962556493721191,-0.027551914226711556,0
148,29.633366700033367,-0.08271049259092017,0.9804249910345543,-0.17867795434877204,-0.45192249927065226,0.8881322733507477,-0.08358899261146883,0
149,29.833366700033366,-0.212173140570259,0.9636526288233443,-0.16234583266105487,-0.5325982205376647,0.8400021306283986,-0.10361252829587764,0
150,30.033366700033366,-0.9259178155500396,0.33549727040145483,-0.1735447504254054,-0.7045295936445164,0.6973047589354915,-0.13192469384087602,0
151,30.23336670003337,-0.9504436754072829,0.28735111292783805,-0.11868512028653234,-0.8491383704389146,0.5121771280092916,-0.1289907647566235,0
152,30.433366700033368,-0.957027278868664,-0.25338001751173134,-0.14105798179115966,-0.9615111840617451,0.24103463046890458,-0.1319035626467312,0
153,30.633366700033367,-0.8039515359409647,-0.527895007350594,-0.2738408097279883,-0.9914840018686352,-0.00584233567515643,-0.13009742946121275,0
154,30.833366700033366,-0.8080851367818733,-0.524540024531058,-0.2680600201021745,-0.9672261198803638,-0.17535502218976448,-0.18364163257280128,0
155,31.033366700033366,-0.8609228598856736,-0.5033742870150397,-0.07366244971743412,-0.9459377771400503,-0.2714542887194415,-0.17752264902023768,0
156,31.23336670003337,-0.8559758061706828,-0.5140457337378086,-0.05533898152665589,-0.9251763080513674,-0.34049947518904483,-0.16765710965069885,0
157,31.433366700033368,-0.8921762137074469,-0.44774798574050834,-0.059526002385194066,-0.9012845534377137,-0.4014855058110683,-0.1627745138472603,0
158,31.633366700033367,-0.766141993106344,-0.34917875340670174,-0.539537435743231,-0.8779115652150961,-0.4497672480209325,-0.16425804780666664,0
159,31.833366700033366,-0.8045430406217731,-0.38808153671715195,-0.4495589134321842,-0.8672682712231242,-0.4941855890040674,-0.06021917759614995,0
160,32.03336670003337,-0.911536181061524,-0.4095323204349583,-0.03721651696399352,-0.8523427370903184,-0.5229534842255624,-0.005613543063802956,0
161,32.23336670003337,-0.9099673831864065,-0.41459316207108565,0.008477706103802678,-0.8542255246106023,-0.5155708496032626,0.06697351822259058,0
162,32.43336670003337,-0.9423371679162258,-0.33161168697612575,-0.04510378060068889,-0.8626197179674004,-0.4954506732645874,0.10205808412619687,0
163,32.63336670003337,-0.9276334388333368,-0.3699961751053896,-0.05098071758635851,-0.8531167264162582,-0.4720497743362485,0.22217304439986457,0
164,32.83336670003337,-0.7341266216613169,-0.6533061070065853,0.18506548548025273,-0.8424118841095066,-0.4837716969542492,0.23729130354287642,0
165,33.03336670003337,-0.6946518737857218,-0.7020990907034753,0.15657471404840226,-0.793611836670664,-0.5698906061509244,0.21308437229686183,0
166,33.23336670003337,-0.44752101390168575,-0.8938014977308326,-0.029048662112528444,-0.6544970259419632,-0.7225609558111288,0.22257427562598842,0
167,33.43336670003337,-0.5341403803872412,-0.8450386774971429,-0.024570054408824666,-0.5669163979628737,-0.7965878676051177,0.20988941589592408,0
168,33.63336670003337,-0.00069146621520777,-0.9929645338096329,-0.11841011979848586,-0.49266484537950905,-0.8556872073360413,0.1583690415726239,0
169,33.83336670003337,-0.12838915495278075,-0.9880595266473808,-0.0851739202565252,-0.42873888448401476,-0.8966119062448673,0.11077029615988024,1
170,34.03336670003337,-0.28554392430509573,-0.9545771397135007,-0.0851302039750763,-0.37838628368838584,-0.9226902292308669,0.07393619680767131,1
171,34.23336670003337,-0.3422003761433548,-0.9368226334007331,-0.07254140966001564,-0.3693500995376955,-0.9271243753353565,0.06341054037397457,1
172,34.43336670003337,-0.39436081566288583,-0.915592783900688,-0.07854553544722707,-0.3752400724748024,-0.9256909580671486,0.047865835016531924,1
173,34.63336670003337,-0.4138452515165639,-0.905480273734781,-0.09400841278512385,-0.39002407415566775,-0.9197578526225344,0.04389435178014042,1
174,34.83336670003337,-0.3356601830596992,-0.9412336280875119,-0.03756991969047579,-0.400307069663062,-0.9153096091212154,0.04430089647106683,1
175,35.03336670003337,-0.322462312308202,-0.9457230077151104,-0.040324308042826384,-0.3982667624500715,-0.9161952798922164,0.04438237297353602,1
176,35.23336670003337,-0.31873954035270274,-0.9468869697831778,-0.042546114635521645,-0.4045460203700953,-0.9135428453076827,0.0422135901086553,1
177,35.43336670003337,-0.5546349478609334,-0.8320901431134126,-0.002463401063632837,-0.4242495374686801,-0.9048655969901762,0.03507964283203288,1
178,35.63336670003337,-0.5886669326270484,-0.8083590129800348,0.005191200767254274,-0.47411224326610496,-0.8795812542892765,0.039425853041948865,1
179,35.83336670003337,-0.8586728952004047,-0.5114376866030179,-0.03335193802926681,-0.6519019891590623,-0.7580028636995579,0.021341395308829246,1
