,timeStamp,x_gaze,y_gaze,z_gaze,x_head,y_head,z_head,fixations_head
0,0.04,-0.9995702251927808,-0.02921822493133524,0.0023791258721543255,-0.9879640720744991,-0.08005966146910709,0.132353477080981,1
1,0.24000000000000002,-0.9998642200394805,0.014887714402310525,0.007063812335912726,-0.990132886913242,-0.04366867347522633,0.1331537202250207,1
2,0.44,-0.9934381720920384,-0.108601392159274,0.03586552455349612,-0.9938453803324432,-0.02523200956920694,0.10786429290993961,1
3,0.6400000000000001,-0.9623389307142359,-0.2608948110045839,0.07640471204489553,-0.9967472235740094,-0.02621940098415153,0.07620705551020882,1
4,0.8400000000000001,-0.9651766129336474,-0.2485639252363833,0.08154802828403646,-0.9976651524047004,-0.018809026785883046,0.06565412545053052,1
5,1.04,-0.9786779339832029,-0.18639265010573064,0.08629763334490943,-0.9968734093860541,0.05348989382490602,0.05815700230948414,1
6,1.2400000000000002,-0.7289211578688279,0.6844715023203801,-0.013141846234427993,-0.9480152629959661,0.31816620836888754,0.006109417227152996,0
7,1.4400000000000002,-0.48132381738989516,0.8686793809173727,-0.11714741133387864,-0.6765550655086696,0.721521976384739,-0.14723885672070341,0
8,1.6400000000000001,-0.5085232216404874,0.8536305861545731,-0.11277834647564282,-0.5869713064879949,0.7938770355759737,-0.15882045757672567,0
9,1.84,-0.414268842098439,0.9101368853159055,-0.005672429275104685,-0.537697489937865,0.8339853670188287,-0.12389437805239281,0
10,2.04,-0.3496687802448197,0.9367878210435416,0.012661850836023109,-0.4806662820497112,0.8676328412082266,-0.1271738108159356,1
11,2.24,-0.35040833550377143,0.9354827234066937,0.04567354395130784,-0.49278288680634785,0.8632092791722213,-0.10970308483254244,1
12,2.4400000000000004,-0.28099599343524034,0.9584534091525058,0.049074577504874865,-0.4177636136744184,0.9005600963879136,-0.12027084386285508,1
13,2.64,-0.22894308855867712,0.971956830618662,0.05371202486351889,-0.36141357966177906,0.9250430369131037,-0.11694273938402992,1
14,2.8400000000000003,-0.325091771940069,0.9362181856280948,0.13345729173074358,-0.3569944724395247,0.9304415452413288,-0.08266485067157348,1
15,3.04,-0.3143684161073312,0.9397049115450489,0.1346372094641005,-0.3583032056239002,0.93122910888334,-0.06656695582627993,1
16,3.24,-0.2943582500490583,0.943656455516795,0.1512141348867085,-0.35058285976328807,0.9358233465198779,-0.03641871151663372,0
17,3.4400000000000004,-0.37216889867619374,0.9162819783271681,0.14804609772297353,-0.448149489616544,0.8935547973097868,-0.026867436816658454,0
18,3.64,-0.9242835456842164,0.3807663819560507,0.026774793174031086,-0.7735507320077197,0.6314278231275838,-0.05402008136500697,0
19,3.8400000000000003,-0.9365161685149476,-0.34967532297046316,0.025780508443099353,-0.9842086172681244,0.13420897088350206,-0.11541815207998472,0
20,4.04,-0.9211016991925599,-0.38315977807570833,0.06899452304025792,-0.9498840225508984,-0.3058947394024417,-0.06441080738848731,0
21,4.24,-0.990602350889507,-0.0693746724020604,0.1178733949680304,-0.9637363377031551,0.23902371789463234,-0.11865889631349931,0
22,4.44,-0.06136675380407386,0.9932208985140984,0.09872369666092011,-0.4792231203856535,0.8703054697179512,-0.11363797898085902,0
23,4.640000000000001,-0.2720188693587609,0.9558360341373203,0.11127987489847516,-0.3738250440355491,0.9246992469309828,-0.07201485386427726,0
24,4.840000000000001,-0.26311277352808476,0.9540044609628058,0.14369118577499937,-0.3443801868153056,0.9376576433755562,-0.0469087491674411,0
25,5.04,-0.29751806827751603,0.9435966521145954,0.14528715416905477,-0.3699883930413327,0.9281043686683034,-0.041603724274425886,0
26,5.24,-0.39564655346328403,0.9082665761012721,0.13607215538050693,-0.46932651482816523,0.8815904706786528,-0.05030769809720738,0
27,5.44,-0.40108676556934025,0.9056826930563497,0.13736180685810545,-0.5589745567121341,0.8273333094221152,-0.05538086374483658,0
28,5.640000000000001,-0.7241090107376982,0.6892542779384347,0.024386080292640566,-0.686016663575794,0.7234251924594484,-0.07769895888199425,0
29,5.840000000000001,-0.6861970384990373,0.7255111613893167,0.052603983258646014,-0.7401803219398205,0.6696930951283492,-0.06036761839327233,0
30,6.04,-0.6764986820029466,0.7358002934788525,0.03078086036339802,-0.7313769009730751,0.6780713254336445,-0.07284988913980318,0
31,6.24,-0.40387821688745734,0.9123560112201263,-0.0669992142812784,-0.5965924957208938,0.7815615645916913,-0.18231542667175127,0
32,6.44,-0.4126771571647979,0.9097490028339358,-0.04532456063813739,-0.6149444203775782,0.7727964760138833,-0.15693618609807003,0
33,6.640000000000001,-0.8902186762594002,0.4453295386894532,-0.09587653732587459,-0.9427091212427934,0.2709820718452459,-0.19459760909142412,0
34,6.840000000000001,-0.956389771322337,-0.1897780214704963,-0.22204258122430512,-0.9279916983778207,-0.16768647195190126,-0.3327351121630729,0
35,7.04,-0.33329451442895386,0.9377808309635177,-0.09737494405103544,-0.6064644785436859,0.7220604155350021,-0.3329107877227101,0
36,7.24,-0.48886121096261415,0.8590165134003407,-0.15200442796737487,-0.5762054151838202,0.7799782609998668,-0.24417459302815533,0
37,7.44,-0.45497063638219165,0.8508365347656092,-0.2628286725949706,-0.5311534728169875,0.7860693235917521,-0.3161819204547584,0
38,7.640000000000001,-0.4059353166471507,0.8642529084799211,-0.29712527472864886,-0.4747506958983297,0.812238875462393,-0.3389392068375084,0
39,7.840000000000001,-0.5542182501162802,0.8322597516567032,-0.013632204897640427,-0.5238951220487534,0.8153813423567302,-0.24634765602712447,0
40,8.04,-0.5751952107909978,0.8146995795962145,0.073587121759526,-0.5874623949585784,0.8038948909914759,-0.0929566498284765,0
41,8.24,-0.5468902310017172,0.8353866783710242,-0.055137762333225454,-0.604096599943596,0.7943333198705511,-0.06404588105425812,0
42,8.44,-0.5326241232916143,0.8434326524937351,-0.07023463529642197,-0.5916170253161002,0.8011813473743569,-0.08998746565794209,0
43,8.639999999999999,-0.5387030073592347,0.8395794688754463,-0.07003845590059979,-0.5974236416622651,0.7957675163349988,-0.09919199730333662,0
44,8.84,-0.6483850060905607,0.7612383332386562,0.010634090698153803,-0.634898132530998,0.7660085593453726,-0.1006739704108193,0
45,9.04,-0.7270711032861235,0.6865473092070348,0.004516966557255321,-0.7182041791334394,0.6885046812540057,-0.10071772915719923,0
46,9.24,-0.8906604812790572,0.45431618853709876,0.01790831987880874,-0.825592762061707,0.5638710643866193,0.021119043037577778,0
47,9.44,-0.902168927344925,0.42370622907514216,-0.0810201084683957,-0.9112629219432047,0.3749383847416543,-0.17035578868606807,0
48,9.64,-0.9014384066638618,0.43274119630464736,-0.011993999005378663,-0.933922650774009,0.33332047674855125,-0.12917407693251384,0
49,9.84,-0.8707426691438304,0.49114609521374697,0.024139537869793042,-0.9177302660215378,0.39035332689915775,-0.07345365209978974,0
50,10.04,-0.7993291992214895,0.597207961473536,-0.06644909348182472,-0.825466060708625,0.5586494284131345,0.080725452936872,0
51,10.24,-0.8235425077112672,0.5507886057358499,-0.1356821645766156,-0.830422714632249,0.5569296901129385,0.015080957977291119,0
52,10.44,-0.8594085414135317,0.48345700270484865,-0.16639196339099518,-0.8691884576070875,0.4926463864882148,-0.04255541143870164,0
53,10.64,-0.8274842665010856,0.5268931802454215,-0.19404475077678845,-0.834680801940485,0.4225947609270827,-0.3531594921688659,1
54,10.84,-0.7799591573556741,0.6250912402327069,-0.03040812788324143,-0.7917316287749965,0.5260156758772956,-0.31059384528455086,1
55,11.04,-0.8087991706175162,0.587994327296802,-0.01032340424469902,-0.814133486054621,0.5166784546121695,-0.26500951195028954,1
56,11.24,-0.8564047411250697,0.45233160797747585,-0.24893178945850508,-0.8332221025707576,0.428943222617698,-0.348924976976298,1
57,11.44,-0.8616931073572557,0.4755475121658703,-0.17702980654637945,-0.8519464419126936,0.4322849311968125,-0.2954944980409428,1
58,11.64,-0.9313223952029459,0.3365842561431305,-0.13910296441853334,-0.8827145628118213,0.38372369714611987,-0.2712399764939689,1
59,11.84,-0.933539651976045,0.3360783909026402,-0.12471981942232388,-0.8956688384040554,0.37644932830506844,-0.23677676222677116,0
60,12.04,-0.9309840065541977,0.3444932387711353,-0.12080226811309266,-0.8969904046506918,0.3849467241167205,-0.2173113746594816,0
61,12.24,-0.9376163717167032,0.3234425192037413,-0.12751657249135476,-0.9068642888686259,0.36501233884656153,-0.21062562537489227,0
62,12.44,-0.9665574008508973,0.19375629670808878,-0.1680038343203062,-0.9546008160144931,0.2619804111138976,-0.14178697492032555,0
63,12.64,-0.9799225182124998,-0.15665961236434045,-0.12332730498120821,-0.9855699062041892,-0.1224107085739533,-0.11690841890594814,0
64,12.84,-0.8756668046254087,-0.4776999839134639,-0.07078398580330765,-0.8830280978301759,-0.4594645842466086,-0.09567483611437684,0
65,13.04,-0.6314316897121784,-0.7614279264071686,-0.1467021953295272,-0.7063388683562203,-0.6970842771271334,-0.12312154007888414,0
66,13.24,-0.07340533135297816,-0.9884061378238126,-0.13290960853592979,-0.4205676144697816,-0.8980319578753276,-0.129079372069293,0
67,13.44,0.15221019444776623,-0.9876689034289183,-0.03663596464802964,-0.14442092441059773,-0.9865261582905305,-0.07686830036442753,0
68,13.64,0.16674832520352323,-0.9841966798854096,0.05959774613487495,0.028885697416311917,-0.9982448328423411,-0.051699808397513244,0
69,13.84,0.20516856999974548,-0.9777852334323727,0.042917306134708746,0.2578841996070877,-0.9653858793550625,-0.0390620472436391,0
70,14.04,0.2669686037881987,-0.9615562353199072,0.06432239818902367,0.08668574228715198,-0.993791898029371,-0.06973697366036143,0
71,14.24,0.1342739706343053,-0.9877122435953172,-0.0799688980917133,0.21034295562356303,-0.9692678182962208,-0.1275763984239565,1
72,14.44,0.15256651629097073,-0.9843433476625447,-0.08827022158877867,0.26256046196213895,-0.9477533643572373,-0.1811782662566521,1
73,14.64,0.45321186243850425,-0.8888832019026013,0.06697507835308487,0.3616369160424295,-0.920962946269206,-0.1450723700587565,1
74,14.84,0.371850056403546,-0.9276109895571963,0.03557228704200106,0.31663376783938,-0.9370755581805685,-0.14707975837760087,1
75,15.04,0.05469720385034971,-0.997559279851865,-0.043401602186805124,0.23178046256605156,-0.959750862180891,-0.15860674549243922,1
76,15.24,0.14529026125699318,-0.9893890659771319,0.00012692034286457756,0.2876785563597633,-0.9512832566472228,-0.11091083731275587,1
77,15.44,0.1883159665089092,-0.9819800760837726,0.015881653954291468,0.32167274856566674,-0.9429731587140633,-0.08560528473774967,1
78,15.64,0.024480359668764717,-0.9996642538052922,0.008490680443680882,0.2282253468688511,-0.9699091239985467,-0.08479081454358652,1
79,15.84,0.042103154519668784,-0.998756207524081,-0.0267088433221613,0.11246800479747043,-0.9836107790550199,-0.1409282910690856,1
80,16.04,0.049503232351585325,-0.9984828267892505,-0.02411378430882792,0.09645496015603183,-0.9825639897886811,-0.15894793685935943,1
81,16.24,0.1042338753210999,-0.9940903205960155,-0.03032711217469134,0.1541660125774738,-0.9719903221395517,-0.17739124621303218,1
82,16.44,0.14575818758765352,-0.9892415361559317,-0.012479338725080794,0.21069400130279153,-0.963530501276937,-0.16497578890259715,1
83,16.64,0.04159007970200973,-0.9939312401495943,-0.10183788649157188,0.10074649840268268,-0.9583631991113037,-0.2671892992781454,1
84,16.84,0.1265454246901182,-0.9919595543167863,0.0015805346059674886,0.12699282961505648,-0.9647718168230892,-0.2304086862300044,1
85,17.04,0.15691715733024736,-0.9876111074149977,0.001142911158555399,0.18002813601302103,-0.9585985035835011,-0.22063267929105632,1
86,17.24,0.3571590614028955,-0.9329767228075133,-0.04463002976870614,0.23234734425411174,-0.9489736762300434,-0.21322212230558557,1
87,17.44,0.37954932367356603,-0.9242794801887456,-0.04061715648542217,0.28631832870865004,-0.936998223916907,-0.20014030833904362,0
88,17.64,0.45387885915268256,-0.890719622439015,-0.02474945284966585,0.39990698099172356,-0.8987599412523442,-0.179735846603199,0
89,17.84,0.7390163952784716,-0.6713268328842286,0.05634759053628783,0.5335183035765878,-0.8341591290752138,-0.13977398588163947,0
90,18.04,0.721029193510798,-0.6575832481783104,-0.2184059839391561,0.6083949444550378,-0.7830074111134447,-0.1294410510733453,0
91,18.24,0.7417745814120722,-0.6286168528068422,-0.23369065607799974,0.6406645107092467,-0.7532721769589737,-0.14876159496714927,0
92,18.44,0.7205770189331215,-0.6514594607543773,-0.23742226260203855,0.6072853414911645,-0.7783432103589474,-0.15933097909096983,0
93,18.64,0.8561176234105384,-0.5077078911673119,-0.09641219908462274,0.6495759254869475,-0.7444535124743267,-0.15440234710785025,0
94,18.84,0.9987435306199454,-0.015681903320210515,0.04759661703379824,0.9637306160233603,-0.2624852600492404,-0.0482160553769959,0
95,19.04,0.9984594204826166,-0.05014221061830111,0.023760142336012504,0.9955540343921755,-0.06749858732116853,-0.06569707234808599,0
96,19.240000000000002,0.9850227672957547,0.14152462609045582,0.09849328971544483,0.9974034678437326,0.044838923081489616,-0.05635417739785328,0
97,19.44,0.9976731186282016,0.026576850686182426,0.06278550289901871,0.9942862023552759,0.021205873165428275,-0.10461959065688972,0
98,19.64,0.9910000636461265,-0.1258167215924204,0.04570586856311167,0.9723329701322982,-0.19896416944863446,-0.1224003859034696,0
99,19.84,0.4881220681667018,-0.8727735510222294,-0.0017819104101265432,0.737056276778341,-0.6401184170605589,-0.21678666241615144,0
100,20.04,0.604023311602513,-0.7954249941803055,0.04954712578943312,0.8333608070812376,-0.5311368217766391,-0.1529818347841319,0
101,20.240000000000002,0.9756194741431735,0.21579368895317017,0.03999656836005465,0.9846422210164546,0.12113408895984705,-0.12572282642245722,1
102,20.44,0.9834172790498736,0.17932806374603727,0.027053665541667212,0.9677963736051196,0.21935008382745078,-0.12351404762888257,1
103,20.64,0.9919631139479351,0.11874851996359936,0.04368031104709234,0.9765136492781062,0.18617756508483607,-0.10843895532804321,1
104,20.84,0.9925730960422501,0.10719809692044989,0.05750840833944612,0.9808546807154754,0.17194236754717762,-0.09143258478690094,1
105,21.04,0.9874252866795123,0.1498900677785555,0.05024212184236774,0.9728870156036536,0.21146698758035307,-0.09366198819962894,1
106,21.240000000000002,0.9195409881852169,0.38129322504879004,-0.09518323160750397,0.9560512409383153,0.2792926359643181,-0.08922806843370747,1
107,21.44,0.9190440835565625,0.38193067181133045,-0.09740089532147128,0.9561974747981515,0.27600053593186286,-0.09751970752090705,1
108,21.64,0.7982032603759996,0.5912093047725996,-0.11551239360096142,0.9308416306838398,0.3499509748513267,-0.10520538858089092,0
109,21.84,0.7634297004475241,0.6426257850169584,-0.06486287771862825,0.843050176405972,0.5266615232913362,-0.10905979986369524,0
110,22.04,0.645025183400045,0.7555119375993159,-0.11464826612149878,0.7566763977421186,0.6442164071902824,-0.11147219297589733,0
111,22.240000000000002,0.7610966399787844,0.6486365481876076,0.0015915301664258111,0.5657819985689053,0.8172793581670349,-0.1092940108581203,0
112,22.44,0.7928050158477177,0.6093260799560658,0.013488333183684595,0.5649751089205264,0.8213188210038362,-0.07898430581519522,0
113,22.64,0.4186167151183318,0.9081443988826792,-0.005813484458966784,0.5280693565040928,0.8455756756728299,-0.07838706163513583,0
114,22.84,-0.11195904223328379,0.9928029551140184,0.04251429382076793,0.34744720818735614,0.9365850492819157,-0.04570429940830366,0
115,23.04,-0.10424390193310817,0.9944691064640339,0.012822059054104518,0.28963392669342225,0.9536366611779717,-0.08178818353209812,0
116,23.240000000000002,-0.13250724603444525,0.9910346155694727,0.0170944579157907,0.22646478688728616,0.9694731011420938,-0.09399790668960686,0
117,23.44,0.2290719634605653,0.9732108615671763,-0.019663531829156044,0.23782431312061397,0.9646991326399614,-0.11311577950230824,0
118,23.64,0.26314295241526164,0.963899028925546,-0.040674914020424384,0.2939488761558498,0.9449751227448618,-0.14358299202916255,0
119,23.84,0.4123173400054369,0.9094250746460499,-0.05422586777422496,0.4271001880596886,0.8900187654754809,-0.15953691253399618,0
120,24.04,0.37508555343570854,0.9239123209038519,-0.07547748595366968,0.39482363694097705,0.8999239037843996,-0.1850709677668166,0
121,24.240000000000002,0.996169812822655,0.0604538986681639,-0.06317460056617683,0.9505461147734763,0.2700228230605739,-0.1534593063826605,0
122,24.44,-0.29498537335339203,-0.9448961924064567,0.1419676550603712,0.04431429172787987,-0.9983869382709477,0.0354931689007811,0
123,24.64,-0.2675386422238725,-0.9633229015544905,-0.02078610732303093,-0.41836088560956824,-0.9079074899677415,-0.026041487139818156,0
124,24.84,-0.826713679280951,-0.5626089061490042,-0.003963737071775602,-0.5270511285736826,-0.8459018012059207,-0.08165323377421455,0
125,25.04,-0.9451572826781596,-0.32555616447809177,0.02628487722534883,-0.8892234041593658,-0.4401870333131469,-0.12456770527789297,0
126,25.240000000000002,-0.9301274474627071,-0.36723565696849747,0.0009506457937887332,-0.9354242787871424,-0.3066132790805969,-0.17598214610294566,0
127,25.44,-0.9988728601794418,0.015361973757082361,0.044911234220719416,-0.980260966084369,-0.14328355812300206,-0.13622870601658196,0
128,25.64,-0.5066998887586597,0.8417561644712134,-0.18628414400231186,-0.7581930514767203,0.506835137626253,-0.41019683075298996,0
129,25.84,-0.4526711082647989,0.8902374476896532,-0.0506572252825865,-0.5329117349595505,0.802112314158438,-0.26948268630432864,0
130,26.04,-0.17344195434436332,0.9830269942477717,-0.0597981358689332,-0.3369562191573958,0.9083963615683612,-0.24754102015729854,0
131,26.240000000000002,-0.23712627836737438,0.9682551852704424,-0.07907606657225492,-0.20870165875003,0.9428900035921957,-0.2596190647100012,0
132,26.44,-0.388665910340592,0.8902409209441264,-0.23750771106570948,-0.32410556683693825,0.895528251758236,-0.3049339794908803,0
133,26.64,-0.6001929060982105,0.7737660398761146,-0.2026193253463751,-0.4940015786933896,0.8039031816800212,-0.3312130956547125,0
134,26.84,-0.9247826425378659,0.37755633075275885,0.04720467317115323,-0.9567718181817179,0.2854799908537672,-0.05557753822708411,0
135,27.04,-0.9947689656748204,-0.06697494823519662,0.07713015777982357,-0.9972406849697157,0.05813886721791368,-0.046161546331879036,1
136,27.240000000000002,-0.9985050786702608,-0.048308197446333606,0.02557197546499264,-0.9939758202345763,0.05873062923260383,-0.09253530125818797,1
137,27.44,-0.9956563967648427,-0.0907301362187978,0.02088975736978989,-0.9943535888662531,0.009377462717109101,-0.10570242902503162,1
138,27.64,-0.9990840883000262,-0.03938866584023404,0.016718777139263993,-0.9924762643743904,0.05405510837132835,-0.10985859052627368,1
139,27.84,-0.9994963936036536,-0.008816750235476225,0.03048317714044949,-0.9917075984314276,0.083885140318318,-0.09736181205763461,1
140,28.04,-0.9987740436849637,0.017239834445619544,-0.046402562100322634,-0.975704146375266,0.09717502783598864,-0.19636301258431596,1
141,28.240000000000002,-0.9832892711372003,0.17467211566005128,-0.051301669342382256,-0.9660398037040429,0.08746826624262184,-0.24313864369936042,1
142,28.44,-0.9848594993309286,0.16536378885278202,-0.052024839393170125,-0.9702752779371547,0.10428915226889802,-0.21837961842400014,1
143,28.64,-0.9853017326159521,0.16691389669957601,-0.0363352004613479,-0.9765854103837892,0.11736326750520416,-0.18029642166728588,1
144,28.84,-0.9872132662203476,0.1542724216025108,-0.04012464244638671,-0.9798338330797065,0.10982756565841183,-0.16692383105439915,1
145,29.04,-0.9867591725478068,0.12990657635526096,-0.0971113629418435,-0.9738403042868811,0.08404473009515594,-0.21111974111784879,1
146,29.240000000000002,-0.9636055603731163,-0.019426717670381836,-0.2666213169620316,-0.9789830120892973,0.09598977858535494,-0.17993950218810076,1
147,29.44,-0.9465002586296198,-0.13972790483368877,-0.2908837792398372,-0.9762420041546483,-0.014575865115899507,-0.21619226045406661,1
148,29.64,-0.9308552311236369,-0.2110567366225839,-0.2982676526477291,-0.9358058628217929,-0.14026103270526288,-0.32341031185293523,0
149,29.84,-0.8617898755699885,-0.26062599916539425,-0.4351922551288152,-0.9475536563901513,-0.17163200456927077,-0.2696006737179807,0
150,30.04,-0.8815772728843433,-0.228070706245727,-0.41328593598909125,-0.9709282362882573,-0.1190277129939954,-0.2076794730289761,0
151,30.240000000000002,-0.8662965394910614,-0.37753771329135094,-0.32710178952208396,-0.964538401066585,-0.14005767797394097,-0.22371749978145125,0
152,30.44,-0.8881249722387841,-0.4579331719366033,0.03913110943916886,-0.9754516582895499,-0.1875139268347764,-0.11546683326033289,0
153,30.64,-0.8202960542025034,-0.5557970330565651,0.13492235361615695,-0.9505058258616816,-0.30629142129236897,-0.05219425491089272,0
154,30.84,-0.8439862914335352,-0.5202457456640096,0.13050480447388466,-0.9509520432031687,-0.30705793978342505,-0.03749177434688014,0
155,31.04,-0.9853812716918382,0.17030358874993431,-0.004520736429948519,-0.984535500832351,-0.1614021531549009,-0.06811161837567592,0
156,31.240000000000002,-0.9771417988165695,0.2108003689849663,-0.027515621768755032,-0.9929981966522026,0.05928708880734401,-0.10217447110811943,0
157,31.44,-0.9859189716515565,0.16680052829375525,0.011889705566653119,-0.9881367185779901,0.11718285454354746,-0.0992673360121432,0
158,31.64,-0.9921216589742011,0.11914816235730441,0.0387082575319121,-0.9924369328877849,0.1036980327583332,-0.06569362406153423,0
159,31.84,-0.9968573996068139,0.07795967250581977,0.01405753577006315,-0.9923688099791985,0.08845866702694821,-0.08590232364892648,0
160,32.04,-0.9318924643085484,-0.362436450846934,-0.014705579295589853,-0.9962792939286989,-0.04762139638056326,-0.0718315466609151,1
161,32.24,-0.9364562881381234,-0.35068578782003723,-0.00831255842735817,-0.9867547381573476,-0.15651794526483054,-0.042628857996670606,1
162,32.44,-0.9378503719585196,-0.34220168040511173,-0.057746772595399135,-0.9862614466622387,-0.15192794756300096,-0.06485566726973191,1
163,32.64,-0.9848112836106859,-0.16681426295368412,-0.048163651733365,-0.9914505767208948,-0.10394701214880699,-0.078871874487306,1
164,32.84,-0.9799326047380638,-0.19609103208508397,-0.03578263974443818,-0.990378126462711,-0.11718616450305967,-0.07361093310964142,1
165,33.04,-0.9739476619218922,-0.22115092317633195,-0.05018187935037482,-0.9853004717303404,-0.14574934644517742,-0.0891072860027312,1
166,33.24,-0.9631768599711122,-0.23603591242852232,-0.12875319203896896,-0.9689412291578323,-0.17183193659232934,-0.17783891589030465,1
167,33.44,-0.8808131560554596,-0.4654132364843821,-0.08694080414140068,-0.8739118259546784,-0.47311727586587826,-0.11152651583282913,0
168,33.64,-0.9287911162604278,-0.3618639592365785,-0.08000960793139963,-0.9536494378504844,-0.24733525969031,-0.17140017211596353,0
169,33.84,-0.9624059074905487,-0.2651312332795252,-0.058994053657733546,-0.9519324067465091,-0.2574559742141986,-0.1659551575794392,0
170,34.04,-0.9920586896067852,-0.02741037848032901,-0.12275270883867917,-0.9691710470722674,-0.2039676468986449,-0.13821968215661043,0
171,34.24,-0.9675244684690086,0.2488542054309855,-0.04436200348356478,-0.9966907820597598,-0.010084675376441416,-0.0806584420854792,0
172,34.44,-0.9333965650120263,0.3577851739095941,-0.027579371896977848,-0.9772708589982784,0.20945983614743227,-0.03268402046655491,0
173,34.64,-0.9159257137015596,0.25228068189888164,-0.3121450696726186,-0.8834922598179198,0.34301562512697975,-0.3190324556539238,0
174,34.84,-0.9505604364043011,0.2544428773539294,-0.17802718586417574,-0.9075448286727368,0.3485659652691466,-0.23423097960210423,0
175,35.04,-0.998813900804338,0.026936952483445104,-0.04056096831841171,-0.9684128804493437,0.2019432093556839,-0.14627177846369308,0
176,35.24,-0.9940954985387158,0.0693343499321039,-0.08346788427026267,-0.993359924521025,0.08122258012433435,-0.08147976947396313,0
177,35.44,-0.9846474482223067,0.11168973683572016,-0.13414471810275552,-0.9856296993430527,-0.00115559455834136,-0.16891643014858065,0
178,35.64,-0.9843066940748648,0.12065775643117663,-0.12877126159359184,-0.9827073365583471,0.012205825606660886,-0.18476284392609796,0
179,35.84,-0.987935257428492,-0.014918710173878821,-0.15414719983329983,-0.9845423806989584,-0.01682030216134784,-0.17433696694283995,0
180,36.04,-0.906201893580487,-0.4068231471382287,-0.11529551172394924,-0.9775756421612922,-0.14140517267364078,-0.15604627837303672,0
181,36.24,-0.8775833898750378,-0.47321791022509246,-0.07689085288663432,-0.9235188474577997,-0.3635155056756659,-0.12234956282546548,0
182,36.44,-0.8881905578592237,-0.4525324961347754,-0.07957306624574838,-0.9137635308222934,-0.3915706095738562,-0.10820659618126087,0
183,36.64,-0.8981024500672865,-0.4299419444123838,-0.0925306090871351,-0.9164424556910606,-0.38190131491185486,-0.11951824578504529,0
184,36.84,-0.8596286839810839,-0.49798961399002845,-0.11421414113415361,-0.880140577240528,-0.4582207614843366,-0.12404151740213822,0
185,37.04,-0.8021178097007594,-0.5724727874083934,-0.169946835915592,-0.6726254723807579,-0.7259950061376403,-0.14319994751315335,0
186,37.24,-0.8426331302572616,-0.5010755938056654,-0.19721221332652988,-0.7443796383496499,-0.6480827141366324,-0.16089670490019445,0
187,37.44,-0.8018841058489197,-0.5812399272147157,-0.13835471729691987,-0.7950286340213784,-0.5985820445487883,-0.09812750394203408,0
188,37.64,-0.6381433440135841,-0.7509644637173107,0.1697805840634681,-0.6785049227270397,-0.7063271323565844,0.20182430956675754,0
189,37.84,-0.4939493863871338,-0.8694728325900564,-0.0055675017375786074,-0.43775742057122213,-0.8563640398511762,0.27387784135377546,0
190,38.04,-0.18829949845463528,-0.9485921907490111,-0.2543936998664179,-0.3145421279486958,-0.9460667108184583,0.0775952861110142,0
191,38.24,-0.2320876606051021,-0.9386803558879353,-0.2549794251796606,-0.21000376437802876,-0.976081914678973,-0.05623624083886895,0
192,38.440000000000005,-0.38095057353869577,-0.8079569536517233,-0.4495355620708621,-0.2266906460468215,-0.9591666204791639,-0.16914711098169663,0
193,38.64,-0.27516666165208925,-0.9226409472381889,-0.27021656276894385,-0.17132421306391243,-0.9694186353092779,-0.1757143236424641,0
194,38.84,-0.19165552129269003,-0.9584648434117976,-0.21121861921153154,-0.059190912872042756,-0.9923305635825309,-0.10851953010104425,1
195,39.04,0.2634621821707837,-0.960101711144738,0.09376770671588029,0.0702148999432653,-0.9961692072427341,-0.05212272409746291,1
196,39.24,0.25572233618495516,-0.961845857483519,0.09725550482056511,0.08825465630212043,-0.9944747206709891,-0.056843166584502766,1
197,39.440000000000005,0.2289661946192642,-0.9462735445626933,-0.22834373339842362,0.0849838855050008,-0.9926727432927269,-0.08589856767237038,1
