,timeStamp,x_gaze,y_gaze,z_gaze,x_head,y_head,z_head,fixations_head
0,0.04,-0.9984836723069517,-0.051831763941978075,0.018542502071922082,-0.9955947326855362,-0.021552959280827604,-0.09125019558913118,0
1,0.24000000000000002,-0.9942360676906721,-0.09498963043304898,0.049715307634393045,-0.9918573558386323,-0.09466803475685763,-0.08518772719160378,0
2,0.44,-0.9561077931032969,-0.23019506530214784,-0.18129566977091047,-0.9905880801201143,-0.10152767867202246,-0.09180079513499294,0
3,0.6400000000000001,-0.944125607223788,-0.256563432402884,-0.2068865460535424,-0.986272078998109,-0.12105907553516775,-0.11230354588933728,0
4,0.8400000000000001,-0.926845171130211,-0.30233857468901043,-0.22259697888252525,-0.9728202667392261,-0.1817759367465923,-0.14345116744495284,0
5,1.04,-0.9052638069118712,-0.36392208611577337,-0.2192217031513307,-0.9635542541648645,-0.21340192066587033,-0.16131589982673541,0
6,1.2400000000000002,-0.8861937626456284,-0.37507270188031555,-0.2719946384622011,-0.9424763671675129,-0.25112623450051547,-0.220621648249485,0
7,1.4400000000000002,-0.9571091964564404,-0.24910243068425691,-0.14795257715126778,-0.9383016706822933,-0.26549357790299355,-0.2215922717223785,0
8,1.6400000000000001,-0.9505362503606494,-0.23370060889785266,-0.20460904709002908,-0.9530555625876254,-0.20665916983887214,-0.2213076639935759,0
9,1.84,-0.942509856037564,-0.24480579481432835,-0.22747591981872617,-0.9853142345333272,-0.10010138861924513,-0.13833138191495978,0
10,2.04,-0.9041659650456801,-0.17202379965726294,-0.3910137082053419,-0.9982979578889362,-0.04983424846009915,-0.030294140608324333,0
11,2.24,-0.9754723096176878,-0.21092004730621,-0.06298020969701677,-0.9944995345771768,-0.04428324389050155,0.09491928168877799,0
12,2.4400000000000004,-0.9964025897726569,-0.061859969499875135,-0.05792428910066157,-0.9852507935902275,0.025062125113555708,0.1692712722662041,1
13,2.64,-0.8920906591487338,-0.0644315833808911,-0.4472391160471199,-0.9874762793924785,0.10369028991760769,0.11890719664507275,1
14,2.8400000000000003,-0.8719089059656902,-0.039049568508857616,-0.48810858514984706,-0.9867414539655424,0.13468381751356462,0.09056253268289417,1
15,3.04,-0.9109959230798944,-0.12790825534799743,-0.3920789542243284,-0.9917877639400101,0.07993045443672911,0.09984064178686433,1
16,3.24,-0.9956116003645183,-0.0758655072932471,0.05479020006114654,-0.9868095389131086,0.05117663981302064,0.15358348038622674,1
17,3.4400000000000004,-0.9891773464275647,-0.002878260097062467,0.14669660164208081,-0.97379319503609,0.09889383754902757,0.20480923366935816,1
18,3.64,-0.995146660608986,0.0962061985828874,0.02067586111904448,-0.9340584100911218,0.22864571575346943,0.2743283128035264,0
19,3.8400000000000003,-0.9525764336917351,0.2793523000874317,-0.12066660851700929,-0.8388516955892917,0.3831377557324126,0.3866953490013819,0
20,4.04,-0.9529688463361106,0.2845043802551991,-0.10443962623653809,-0.7623410340601553,0.47886956566883887,0.43533904817306573,1
21,4.24,-0.9259002573096944,0.3664545877392701,-0.0917591883065861,-0.7030079952562039,0.5572464178430794,0.44187802435390383,1
22,4.44,-0.9385991703745402,0.3432449343971584,-0.03484985484783897,-0.6922259626274132,0.5242456313013688,0.49597352220252683,1
23,4.640000000000001,-0.9702794868881542,0.2419321646060031,-0.005152189157425731,-0.7328654136825117,0.42952747855164364,0.5276499129129357,1
24,4.840000000000001,-0.7087122162329984,0.6972630947461468,-0.10747637539077111,-0.7584354858647442,0.4110162610326752,0.5058075196631908,1
25,5.04,-0.6691468100308223,0.7322110551260546,-0.12692327358197486,-0.725899638209067,0.47393337445671574,0.498454483201843,1
26,5.24,-0.6617299300684604,0.7446809614569528,-0.08696991028590922,-0.6117854803973337,0.5604308478140445,0.5582434870138971,0
27,5.44,-0.5315007743874849,0.8434592875958455,-0.07799587805655246,-0.5398212729881819,0.629059798676643,0.559353879863473,0
28,5.640000000000001,-0.4735541990693975,0.8747490760703395,-0.102764169134135,-0.537557525106164,0.6497064843832343,0.5375066430771941,0
29,5.840000000000001,-0.5392047564689743,0.8336385657181248,-0.1196033960582317,-0.6008569927982776,0.6067084084573001,0.520457280968016,0
30,6.04,-0.6147702822865568,0.7755346039419523,-0.14353946532541673,-0.6833899743464902,0.536759034555865,0.4948412692827458,0
31,6.24,-0.6149623500037932,0.7705657081558067,-0.16748073767497124,-0.7465009896751924,0.47660502160936935,0.46431016119689944,0
32,6.44,-0.6201012605540771,0.7669126973950096,-0.16528563529101795,-0.7668972060724388,0.44967981977714694,0.4578828835013163,0
33,6.640000000000001,-0.6891367216047533,0.7024404184938976,-0.1779551555925562,-0.8251775417720076,0.3590602024714514,0.4360708607053072,0
34,6.840000000000001,-0.7897131017103696,0.5642458727938837,-0.24078997492016949,-0.9075662344159987,0.20589084235656763,0.36596788271878145,0
35,7.04,-0.9566226133412745,-0.09768935432342166,0.27446304978263214,-0.9441784551677057,0.12514345734223015,0.30473949511272497,1
36,7.24,-0.9768522013211077,-0.060391754959883026,0.2052135782714483,-0.9602283019377877,0.09970077779355051,0.26080905479878147,1
37,7.44,-0.981974310551368,-0.15603799844831265,-0.10667050415841356,-0.9779134986730224,0.07208611962373032,0.19618557661225308,1
38,7.640000000000001,-0.9780351456703144,-0.16155148219729448,-0.1317132204203681,-0.9846632027568585,0.06961778748356592,0.15997418792573642,1
39,7.840000000000001,-0.9814132927232094,-0.14663215268269464,-0.12380210283281512,-0.9842405828489658,0.08341858638134711,0.1559224631644405,1
40,8.04,-0.9836138284304461,-0.1337224789552036,-0.12092202091627438,-0.9832529670601762,0.09838670414573175,0.15340684213782782,1
41,8.24,-0.981663335630778,0.026550341315931557,0.1887648665781375,-0.9775076714824134,0.15444427193796953,0.1436165695822779,1
42,8.44,-0.9839456058879688,0.11204346800371666,0.1389147433912563,-0.9590722641138182,0.26218595268607675,0.10695287944552591,0
43,8.639999999999999,-0.7845810200671886,0.5227641042609878,0.3333921328503972,-0.9310241698429548,0.3624186824762504,0.042973174893363844,0
44,8.84,-0.7938257650256916,0.564881348535365,0.2252769780919546,-0.9121545679493441,0.4094941166661815,-0.01698860161782593,0
45,9.04,-0.8374360410052827,0.474310959715346,0.27153266970901657,-0.8900169139516263,0.455043379223759,-0.02837985032811348,0
46,9.24,-0.7554008459644463,0.5497385511490819,0.3565909243050187,-0.8345521589626647,0.5468069659358166,0.06726690103477558,0
47,9.44,-0.7043733559102121,0.6446568168811095,-0.2971123759329139,-0.7276875823785272,0.6592320029654641,0.18943059076674176,0
48,9.64,-0.5576178739546647,0.7919948856852862,-0.2486089453230325,-0.5936472834918438,0.7182144377344158,0.36297510139483596,0
49,9.84,-0.5739259551693752,0.7972995323621419,-0.18687550315124296,-0.4872612380583199,0.7310333747208663,0.4776679714300458,0
50,10.04,-0.6290864690461131,0.7687981165656125,-0.11488981864491074,-0.38172511394595976,0.7862141203895104,0.48595606209110354,0
51,10.24,-0.5586562874298062,0.8227648125901189,-0.10469582455233101,-0.28402510088653976,0.8342997327714761,0.47251846309306733,1
52,10.44,-0.4732719925479316,0.8728099586854039,-0.11923253368646618,-0.19118191453858974,0.8719467432457785,0.4507309091868895,1
53,10.64,-0.5190627444515677,0.853508220932481,-0.04579938998586839,-0.1583681538474589,0.878919431300628,0.44991128139793113,1
54,10.84,-0.5644344412593796,0.8235623961775603,-0.05620267896183321,-0.20654390620303675,0.8758791655249311,0.4360909334184116,1
55,11.04,-0.5799523580589563,0.8142748045956236,-0.0247346918843807,-0.2228913254536807,0.8533879214851205,0.4712202377878175,1
56,11.24,-0.5484501801447891,0.836139500462551,-0.008551939276209748,-0.1812098910956773,0.858957126091815,0.478910879919409,1
57,11.44,-0.5230383588282004,0.8521707500799353,-0.015358642599631767,-0.16068947937025768,0.8685031535172686,0.46891487878961086,1
58,11.64,-0.5408174118780756,0.840716143736701,-0.026700049999789175,-0.19109273693030226,0.8656364779308267,0.4627710599940319,1
59,11.84,-0.6007683027694228,0.7979678683447399,-0.04821542778923433,-0.2707904932153163,0.85162848543153,0.4487777084323647,1
60,12.04,-0.7601976674188589,0.6496907279692509,0.001210141194798953,-0.40675575285642646,0.8113642437032392,0.41980688602984206,0
61,12.24,-0.7634737568507471,0.4723892440106191,0.44040461480697723,-0.5622159406161591,0.7295793955072596,0.38939329959354646,0
62,12.44,-0.8299612217542162,0.49051256673916954,0.2656346970092587,-0.7060978339028194,0.6121863907240577,0.35588435196001245,0
63,12.64,-0.9172763940283102,0.3711025333598707,0.14452310089500037,-0.8185476971630368,0.47324842154363406,0.3256003669769861,0
64,12.84,-0.984399033117479,0.10098397663423542,0.14408601618654354,-0.907527449150533,0.31231661363903285,0.2808064491484732,0
65,13.04,-0.9876352198168892,0.03404937996312736,0.15302716197254573,-0.9508360265143931,0.19181377482719703,0.24314260521114292,0
66,13.24,-0.9864238941163851,0.0332623873369854,0.1608151569501817,-0.989480569349921,-0.00131242842116465,0.144659878371979,0
67,13.44,-0.9905090778903556,0.07390194628895233,0.11588903723606594,-0.9920922483090613,-0.09387215166345352,0.08331260401131049,0
68,13.64,-0.9972666601213372,0.017282135456982234,0.0718368735711681,-0.9835396794870016,-0.17788854332005338,0.03170749170268413,0
69,13.84,-0.9274957635905793,-0.3121045883616673,-0.20577253083228295,-0.96334093873282,-0.26692438151203507,-0.02693715493118319,0
70,14.04,-0.934714519491021,-0.3046995998657796,-0.1829396646282694,-0.9110752482932103,-0.3962864895437777,-0.11357336902872463,0
71,14.24,-0.7528749361562754,-0.6261261315660718,-0.20284328403422777,-0.8457694320244671,-0.5063317377567005,-0.16823269359220894,0
72,14.44,-0.7204108948819056,-0.6638479488667985,-0.20078357333406724,-0.8033227589863747,-0.5611530903126734,-0.1994486252824414,0
73,14.64,-0.67455452776819,-0.7204373933267993,-0.1610780908873738,-0.7710343508461937,-0.6109718009582564,-0.1794978781184153,0
74,14.84,-0.6251671950546035,-0.772094888745901,-0.11417294337983203,-0.7172173527861434,-0.680926244164602,-0.14811724703870854,0
75,15.04,-0.3666368167801384,-0.9243623456268699,0.10550686503028131,-0.6202187234235848,-0.7715312934372033,-0.1416622686601317,0
76,15.24,-0.4103835130927609,-0.9047349609933232,0.1141929180731183,-0.5527757429535369,-0.8197108652287505,-0.15004357843006322,0
77,15.44,-0.4831588228872929,-0.8735959671774487,0.05820341912176102,-0.6165895838403195,-0.7620435827819286,-0.19775455251524277,0
78,15.64,-0.9886259522417344,-0.0877149472851605,-0.12216715834006193,-0.7997037768834656,-0.5602040963042739,-0.21597509051330915,0
79,15.84,-0.9857464979079665,-0.10710249276093801,-0.12974165833136622,-0.9081070791618762,-0.3747819566761636,-0.18676192793519952,0
80,16.04,-0.9993799047483716,0.010955914617938748,-0.03346302317514694,-0.9658606068411939,-0.21703819385646236,-0.14144861455626118,1
81,16.24,-0.9974763583219033,0.06585412479277622,0.026535802920807133,-0.9874126715404253,-0.11805338355206184,-0.10525974878038649,1
82,16.44,-0.8185490129231949,0.35341632966568093,0.45285142306070103,-0.992159663765616,-0.08862036205597727,-0.08812282919634222,1
83,16.64,-0.8251116277589023,0.3188171085978714,0.466418752841637,-0.9899753669604939,-0.10930122364422067,-0.08945398437918642,1
84,16.84,-0.8314167386967797,0.299065873991652,0.46830098187855707,-0.9873963700000519,-0.13233907557283778,-0.08680309664549915,1
85,17.04,-0.8387314583803588,0.2884348769423654,0.4618818707054859,-0.9843586542696127,-0.15230669290636067,-0.08854778969824775,1
86,17.24,-0.9756709787835542,-0.1833740337692296,-0.12016698755790824,-0.9808106885471676,-0.1788572041499127,-0.07759184077792954,1
87,17.44,-0.9655314975608635,-0.22366969806464507,-0.1331194703473048,-0.9723862034810666,-0.22411589410695507,-0.06509329680019227,1
88,17.64,-0.9610748518793699,-0.23532428551033155,-0.14476743326487265,-0.9657496927657142,-0.24956773302177349,-0.07101744544336953,1
89,17.84,-0.9764669013085345,-0.16959898607561175,-0.1332237762977516,-0.9528511344582196,-0.2946170373165876,-0.07263275352401798,1
90,18.04,-0.976208798581452,-0.1699036043463668,-0.13471876930209703,-0.9464248579110337,-0.3114608896292237,-0.0852766237573491,1
91,18.24,-0.9679842480300466,-0.09031972124665195,-0.23419829956605573,-0.933581306065616,-0.3451755822628082,-0.09633152326393564,1
92,18.44,-0.9669252780067265,-0.08901439537495769,-0.23902289465163307,-0.927442924167352,-0.3589640839576111,-0.10485422662146036,1
93,18.64,-0.9709385597010036,-0.08191331439116173,-0.22487445877910567,-0.9240985896406078,-0.3676501569011422,-0.10428402924132574,1
94,18.84,-0.9711490604868652,-0.06965767134215972,-0.22807303904378273,-0.9274081126333652,-0.357630671290699,-0.10961065447292845,1
95,19.04,-0.9683870822700873,-0.05555623591992154,-0.24318709575723196,-0.9339170897371085,-0.3371067358011721,-0.11898705044855966,1
96,19.240000000000002,-0.9834971321191146,-0.14700540889636093,-0.10546469015121021,-0.9341847164381303,-0.33357084811434784,-0.12660728597393314,1
97,19.44,-0.9836922522996869,-0.1456118778949318,-0.1055780932839787,-0.9354779758654991,-0.32790322163719643,-0.13175899935312302,1
98,19.64,-0.9817872633133667,-0.16127849395955984,-0.10041422698894115,-0.933477705954314,-0.33103337849239756,-0.1379720073427235,1
99,19.84,-0.9750057116530629,-0.188249075578168,-0.1180091004451339,-0.9290688125921076,-0.34356489577629346,-0.13709231874512917,1
100,20.04,-0.9707729236555447,-0.19755080099633054,-0.13628503851477664,-0.9278456090176519,-0.34502309384314306,-0.14163894429699972,1
101,20.240000000000002,-0.9723729420406586,-0.19779623471637595,-0.1239657659163144,-0.9326969508845764,-0.33975763529002584,-0.12100060773708651,1
102,20.44,-0.9767572918012468,-0.1800090099816841,-0.1163698811484656,-0.9376255893316049,-0.3253230367015076,-0.1225690663335184,1
103,20.64,-0.9795980444303363,-0.17259008993768887,-0.10295791472034513,-0.940409214445393,-0.3206932418743785,-0.1130767615485171,1
104,20.84,-0.9807944080510771,-0.17675886122971005,-0.08245383018704265,-0.9421317472457049,-0.32416774260292114,-0.08545785796216593,1
105,21.04,-0.9905273276642906,-0.12852074874859684,-0.048353182846003866,-0.960523734841643,-0.2747979020273505,-0.04336205538518673,1
106,21.240000000000002,-0.9963458683472081,-0.08369744238200733,-0.017019070660844165,-0.9726820827469103,-0.23211941334662703,-0.0031849412475889872,0
107,21.44,-0.9905170054310448,-0.0869682591606857,-0.10636063111168513,-0.9871302415142045,-0.15812487560146418,0.023883257820700585,0
108,21.64,-0.9922152647039608,-0.07432263954091534,-0.09992504060604598,-0.9937617758138934,-0.10987664685129851,0.01909595265842144,0
109,21.84,-0.9954059498246985,-0.03722115614820808,-0.08821326764484277,-0.999374865410261,-0.029274103824544942,0.019821837238074718,0
110,22.04,-0.9376165803375057,0.16339868730197143,0.30688111258954065,-0.9929612059148012,0.11544194079482072,0.026480216270806985,0
111,22.240000000000002,-0.928551015134861,0.33593429129101793,0.15792771836134611,-0.974456561782107,0.2245479358808854,-0.00355439044405097,0
112,22.44,-0.7195560183012232,0.6930902595660808,0.04318597713509172,-0.8952685449749798,0.44206160829796387,-0.05545959653116877,0
113,22.64,-0.465040404133063,0.8808282619313611,-0.08876370602185993,-0.7526001128212837,0.6437042703040425,-0.1387006942078221,0
114,22.84,-0.414000120452944,0.9064074835249548,-0.0838413625539745,-0.56193572339662,0.80351578943222,-0.19644495133200537,0
115,23.04,-0.2993339633838219,0.9097484601244703,-0.2876750209282826,-0.4456114065619524,0.8587787323672483,-0.25284296149108154,0
116,23.240000000000002,-0.24021579503085982,0.9131380182249474,-0.32935593434748994,-0.3567625466265828,0.8905928041901088,-0.28207258365412635,0
117,23.44,-0.035242706690796766,0.8223364237122348,-0.5679091105637227,-0.19468762644825055,0.9131549162700002,-0.35811286907883605,0
118,23.64,0.05468589447411043,0.5754712140957855,-0.8159916266069702,-0.03822774412014429,0.8646560603241414,-0.5009077129813629,0
119,23.84,0.07598675391388583,0.47345776370358295,-0.8775327681736067,0.0683192273450079,0.7957232482592229,-0.60179481167153,0
120,24.04,0.030561442459124705,0.5088419613102477,-0.8603172999799307,0.13738239664019358,0.7191575318243464,-0.6811303263794025,0
121,24.240000000000002,0.08694970442283786,0.2638446036340756,-0.9606382118331328,0.14521025243329927,0.5989785419056748,-0.7874888500320557,0
122,24.44,0.06479106125958871,0.03406321153637161,-0.9973173095864148,0.10270534206509323,0.46390865532097175,-0.8799092977287944,0
123,24.64,0.034675553101623034,-0.017980407403769865,-0.9992368642952935,0.05549590435811973,0.3772630123631069,-0.9244418987162953,0
124,24.84,-0.15604483390750606,0.08302173117757042,-0.9842547444452875,-0.004887439155078062,0.34644715356231065,-0.93805675879825,0
125,25.04,-0.16924157453159214,0.4706756920806753,-0.8659224459121297,-0.0728979070062324,0.3507298190753003,-0.9336350942233899,0
126,25.240000000000002,-0.23938579430757334,0.5196878374560854,-0.8201335214975362,-0.1509651296892522,0.35493882881091127,-0.9226201587978914,0
127,25.44,-0.552223880978233,0.360240229121237,-0.7518482310945589,-0.29283291828107805,0.3233464303162658,-0.8998310774654964,0
128,25.64,-0.5826435800062897,0.31152126987855294,-0.7506536865230918,-0.38696418963684553,0.23614414289905428,-0.8913442991982227,0
129,25.84,-0.6072123631472727,0.27485200548343486,-0.7454860972029181,-0.45332304233129533,0.12991818355854703,-0.8818273554797145,0
130,26.04,-0.6635692230284582,0.13100202129166727,-0.7365557390088722,-0.47559352313563924,0.02240116780050712,-0.8793798885763786,0
131,26.240000000000002,-0.7141684527129301,-0.007611117486629194,-0.6999324910591195,-0.5039744709998595,-0.06773672162951318,-0.8610583424619368,0
132,26.44,-0.593439216451632,-0.2784624359946178,-0.7551745282497395,-0.4881299638340482,-0.14217546138079584,-0.8611128129278582,1
133,26.64,-0.31145059068430814,-0.0980971408544539,-0.9451854212367948,-0.46810136151340576,-0.15675015611789064,-0.8696611431507751,1
134,26.84,-0.2558874601341526,-0.09144466158479846,-0.9623718000927368,-0.4392402165839882,-0.1893518572457089,-0.8781878536468448,1
135,27.04,-0.21557451431981633,-0.11857271769928851,-0.969261646508919,-0.40196347431371304,-0.23959553963726254,-0.883752987380285,1
136,27.240000000000002,-0.19618721317290957,-0.12081912473366756,-0.9730947109536862,-0.39234925163367534,-0.2546646895964359,-0.8838596950960296,1
137,27.44,-0.20464361390763844,-0.11396712447800858,-0.9721792457283974,-0.4049771890012818,-0.2556057798407084,-0.8778719506287028,1
138,27.64,-0.21804333346853777,-0.08418060709243377,-0.9723017690611684,-0.42677096927007,-0.24714115683635554,-0.8699355081762515,1
139,27.84,-0.21178684360110636,-0.07446469339247344,-0.9744749059444504,-0.42551540720632824,-0.26888846425815344,-0.8640808017881921,1
140,28.04,-0.22605325761714745,-0.2174983135597356,-0.9495232531746376,-0.411629762039943,-0.34074457918358697,-0.845253849893593,0
141,28.240000000000002,-0.20424446899916787,-0.2470142638066677,-0.9472423926109401,-0.34963875257938776,-0.42090604789986735,-0.8370130474108779,0
142,28.44,-0.18633956781586627,-0.3250961391798451,-0.9271408014733011,-0.28581186448112117,-0.47909485277489233,-0.8299275270566882,0
143,28.64,-0.5621916670323689,-0.3612547699074595,-0.7439324705498976,-0.2878089720793954,-0.49669942809907386,-0.8188135769005391,0
144,28.84,-0.6064773241706262,-0.3815725599997153,-0.6975583392965072,-0.3372878039395779,-0.5263964935110645,-0.7804765652682167,0
145,29.04,-0.7329787213882043,-0.31344203995180747,-0.6037352744232881,-0.49677030220407986,-0.5283722679806561,-0.6885070902155219,0
146,29.240000000000002,-0.717207169623662,-0.05374832607581368,-0.6947841343068103,-0.6317897560488536,-0.4521123906485434,-0.6296317101082102,0
147,29.44,-0.729367738657824,0.07656063995488836,-0.6798243671823406,-0.7506958480258945,-0.3182786469000439,-0.5789252513789328,0
148,29.64,-0.7711197227542316,0.10308506439772874,-0.6282896168786758,-0.8451704883133402,-0.23869583706182843,-0.47823753831495,0
149,29.84,-0.9991384205504424,-0.04083513658000266,0.007410006778657142,-0.9348563959635104,-0.153310368338704,-0.32021781631565616,0
150,30.04,-0.9982229842535301,0.01384386276839614,0.05795878856244919,-0.9813170530451726,-0.039213122906938847,-0.188359157979174,0
151,30.240000000000002,-0.9319450469335766,0.27158200958721196,-0.24025328627210377,-0.9896260433096329,0.05938778362560996,-0.13081813925965588,0
152,30.44,-0.9264225319112268,0.28887574453818177,-0.24143756249743656,-0.9909189990959664,0.09684707567437813,-0.09327476166664912,0
153,30.64,-0.8947561099258294,0.21073364348909643,-0.39370399445802945,-0.993558084339916,0.09504518119888827,-0.06171504333358983,0
154,30.84,-0.9007941659851099,0.1768631965895216,-0.39659712583341633,-0.9965661647659522,0.03358307282304303,-0.07568392473599614,0
155,31.04,-0.9821932769800306,0.15047690743367684,-0.11248585237453705,-0.9795657577113552,-0.16196617412287612,-0.11923877204741905,0
156,31.240000000000002,-0.7958444112998698,-0.5729847923711531,0.19575520609718208,-0.8863168906122645,-0.4555919148826512,-0.08293597837468719,0
157,31.44,-0.4927824533095805,-0.8020107662540765,0.33755619461467473,-0.714160010549729,-0.6994588341365907,-0.027070623928763683,0
158,31.64,-0.7913280308153134,-0.3760167492631305,-0.4820906055084944,-0.6718406524445413,-0.7298581548942401,-0.12624266892484706,0
159,31.84,-0.8230279841278617,-0.25538311769618,-0.5073503725614164,-0.7590310705108565,-0.6291945679846974,-0.16729025559695204,0
160,32.04,-0.8756159723564686,-0.07201667765167827,-0.4776089060039088,-0.8798911064313322,-0.43692484750506694,-0.18678414936958723,0
161,32.24,-0.8667418685144774,0.06858559591963723,-0.4940187743359362,-0.9534323139005352,-0.21220426335611678,-0.21432725777128606,0
162,32.44,-0.8696991592012248,0.21343879884287403,-0.44504747121312116,-0.9779240241485735,0.01606126568424377,-0.2083425994310346,0
163,32.64,-0.8822408951878042,0.2845109358479388,-0.375106025333041,-0.9757166520948735,0.1297896288671578,-0.1764416817628342,0
164,32.84,-0.9192960881816032,0.2527902146472334,-0.301648486872731,-0.9914097031958458,0.11879790058440529,-0.054716169692905256,0
165,33.04,-0.8365029651521434,0.20143594375006235,0.5095942992785474,-0.965728491571581,-0.08588949087541148,0.24493157396309895,0
166,33.24,-0.5818155949951758,-0.18700605047572688,0.7915297533926818,-0.8234069856551829,-0.40549568703222894,0.3969561484251203,0
167,33.44,-0.37695689001682203,-0.37268474920688877,0.8479443264610268,-0.5951041890816107,-0.6158078603393621,0.5163639058665654,0
168,33.64,0.026205984953924844,-0.616567299315135,0.7868659426915334,-0.32049443851207493,-0.7682124600731431,0.554195751581695,0
169,33.84,0.02692793527864129,-0.805270133390306,0.5922962928899593,-0.11560942619814818,-0.8302072392059324,0.5453351268203793,0
170,34.04,0.2258909913386421,-0.8826116397506325,0.4122741241076688,0.01376996548704934,-0.8423782975645057,0.5387106754490862,0
171,34.24,0.29050966207290485,-0.8847339082598462,0.3644860049680162,0.10052961821076345,-0.868590798141014,0.4852255364746939,0
172,34.44,-0.07459576029241849,-0.9278730593451867,0.36535880759576594,0.04445849354000503,-0.9166307994355057,0.39725485507212976,0
173,34.64,-0.4263149828191852,-0.8837285969333596,0.19307848763151464,-0.06747085159723037,-0.9359224522715914,0.3456831605946051,0
174,34.84,-0.49446627979833035,-0.8589220315768633,0.1332517985404814,-0.31310224295054645,-0.9176791716423598,0.24460564873512117,0
175,35.04,-0.819203363609161,-0.5731865727967043,0.01905260656722176,-0.6023085328334895,-0.780795923539515,0.16607876763766533,0
176,35.24,-0.9882244712696275,-0.13654626278233156,-0.0690471759309803,-0.829368965962874,-0.5463181177632332,0.11697705972245666,0
177,35.44,-0.9955310001410951,-0.01642614709467498,-0.09299574963241729,-0.9585484738497448,-0.2790556370340202,0.05755670873028132,0
178,35.64,-0.9941305297941789,-0.06978559077467286,-0.08267079926657891,-0.994188142909244,-0.06403610425304836,0.08654082187477691,0
179,35.84,-0.883842355233709,0.4534293745588249,0.11499779729248297,-0.9916955137669339,0.08714519848256752,0.09458182888891055,0
180,36.04,-0.8075211362507537,0.5812630495607535,0.10021417925435827,-0.9160754670875256,0.3770093645411182,0.1366370288343318,0
181,36.24,-0.5058601171795828,0.8364726430979234,0.210758295675006,-0.7554427949191352,0.637795453592505,0.15007712344490323,0
182,36.44,-0.3142851850244872,0.9200925135034421,0.23378320955330015,-0.5220357881250985,0.8425204609118829,0.1328077891595064,0
183,36.64,0.13160039743464763,0.9735535450819416,0.1867480394901831,-0.29170036627308227,0.9492521111495993,0.11760665709975154,0
184,36.84,0.20456281042060076,0.9681378231195714,0.14444103308313438,-0.11500805105833384,0.9872229230508868,0.11029074482759937,0
185,37.04,-0.03431691138840748,0.9964133739706253,0.07734815941724127,-0.16323331019579324,0.9820986762752836,0.09400572589401196,0
186,37.24,-0.37267229806763574,0.927504975575423,0.02915267630633402,-0.4134752088767034,0.9096663121398011,0.03931223985402446,0
187,37.44,-0.796746777416506,0.6007883944531043,0.06517574523450992,-0.7317517315725997,0.6808046538459872,0.03231759028992409,0
188,37.64,-0.9810439536443676,0.18909843088868547,-0.04236206384567851,-0.9393152328310097,0.3399681070023334,0.04591927256475338,0
189,37.84,-0.9872823117781965,-0.13781471318791397,-0.07925113045776265,-0.9944032864280581,0.0870318229726626,0.05989629146393445,0
190,38.04,-0.9528673864731059,-0.30183585683500547,-0.03064081142187712,-0.9919725451739945,-0.12240983821229882,0.03172224976048092,0
191,38.24,-0.9346934273786126,-0.3459386215905154,-0.08169863467204826,-0.9693758353552556,-0.24480804500604225,0.019481040260204262,0
192,38.440000000000005,-0.9594873401561648,-0.27556676545720005,-0.058711173174320126,-0.9439582715738737,-0.32913586419975793,0.024745998156145328,0
193,38.64,-0.7892010043035037,-0.5771201872959298,-0.2099858667192906,-0.8890861221962463,-0.4572145540160011,-0.021925303053569288,0
194,38.84,-0.7200237035570537,-0.6445899236619586,-0.2570402626622029,-0.8051447102208432,-0.5919484169816039,-0.03659326763720243,0
195,39.04,-0.73975346726071,-0.6198939866285925,-0.26171788822598335,-0.8178858253944734,-0.5738292141818057,-0.042223329692159285,0
196,39.24,-0.890376370582682,-0.3903066673262581,-0.23428748184373924,-0.8511492782272602,-0.5229947025996414,-0.044960507402905435,0
197,39.440000000000005,-0.9184385070354043,-0.31996656319002487,-0.23257709954967995,-0.9089813799448978,-0.41556581395767384,-0.03252545438830781,0
198,39.64,-0.9955962055789921,0.08362375799612189,0.042370538529969075,-0.9772657598852563,-0.21088558966542872,-0.021883843980371676,1
