,timeStamp,x_gaze,y_gaze,z_gaze,x_head,y_head,z_head,fixations_head
0,0.03342245989304812,-0.983663292686648,0.1607597252500744,0.08101134092448085,-0.967069735112239,0.22439164253135271,0.12010211568505212,0
1,0.23342245989304813,-0.9954975046151591,0.04952255466414927,0.08082224251112952,-0.9573609327041599,0.2539661979674264,0.1376997270214838,0
2,0.4334224598930482,-0.9463890803046249,0.16714718830241634,-0.2764227308358754,-0.9695115360938549,0.21653572347095618,0.11471556930880855,0
3,0.6334224598930482,-0.9616796843689348,0.12275611774364965,-0.24515937719894276,-0.9776913897651502,0.16494560331630356,0.13004804622027136,0
4,0.8334224598930482,-0.9812531726306728,-0.15837793852644494,0.1098118381157194,-0.9850380598406989,0.04784707845759595,0.16556170374921994,0
5,1.0334224598930482,-0.9666804768913466,-0.1836477598898702,0.1783321504512064,-0.9765793355219234,-0.11571043526141347,0.18139431248849153,0
6,1.2334224598930483,-0.8673085028403755,-0.47341900793706665,0.15378687793394416,-0.9481053544047968,-0.24016415263107854,0.20836846388057634,0
7,1.4334224598930483,-0.7917246595365535,-0.595349592725787,0.1368609729724594,-0.9099110828151263,-0.34701386054949596,0.22725140694116625,0
8,1.6334224598930482,-0.652531575902171,-0.7436589833011902,0.1455124015541947,-0.8575220025165943,-0.4633617561400174,0.22349921285492094,0
9,1.8334224598930482,-0.36804783428737514,-0.9194859943809301,0.1381531679466151,-0.7221995605421431,-0.6437972296981446,0.2528891492052007,0
10,2.033422459893048,-0.18160842731716875,-0.9731257198633152,0.14157935042897052,-0.5346184899502653,-0.7982813150862145,0.2773626005566034,0
11,2.233422459893048,-0.002632052597228929,-0.9941643353172203,-0.10784408505984783,-0.36985525524753227,-0.8796025579284363,0.29917625282019705,0
12,2.4334224598930483,0.05116455452634311,-0.9934351142550655,-0.10231745757761095,-0.26832220605267754,-0.9146474033014793,0.30236289681917883,0
13,2.633422459893048,0.11512581948062778,-0.9633774865126051,-0.24217734033052915,-0.1276480915592585,-0.9506320882685733,0.2828508396229552,0
14,2.833422459893048,0.3277241584885496,-0.934052059953413,-0.14192823975431287,0.12948351922239604,-0.9700873116402292,0.20534026893041862,0
15,3.033422459893048,0.5098901058360954,-0.840559989234727,-0.1829507706137689,0.35446002631518275,-0.9299306171277629,0.09791392685934772,0
16,3.233422459893048,0.549187411280648,-0.8211258073649226,-0.15538853165586167,0.45160366212570846,-0.8911108524761999,0.044447507846773614,0
17,3.4334224598930483,0.878993301762239,-0.40595882217654067,-0.250136383107603,0.6156119538441666,-0.7879026800029292,-0.015208192804192368,0
18,3.633422459893048,0.8783397558348922,-0.44196282352805333,-0.1821761124269941,0.6021828626407855,-0.7978360691293835,0.028868784836266696,0
19,3.833422459893048,0.4998944239090426,-0.8352466910321337,0.229060101424317,0.5352432350200509,-0.841525945418322,0.07313523468937562,0
20,4.033422459893048,0.4560830593254202,-0.8537424812759998,0.2512210553696978,0.4496159189370031,-0.8864692064705416,0.10962605264225532,0
21,4.233422459893048,0.20380409376337477,-0.9046974635054787,0.37414755229994817,0.27449597522263375,-0.9472047811096067,0.16569569164488596,0
22,4.433422459893048,-0.18671532323813228,-0.8670959557285316,0.4618246329802088,-0.07660508333961863,-0.9662088451682362,0.24611405633403655,0
23,4.6334224598930485,-0.5959258455702318,-0.6396616628329039,0.4854949471243227,-0.5364464660264252,-0.7719655704897995,0.34101956991662224,0
24,4.833422459893049,-0.8717178430126407,-0.20988356891097718,0.44278311810025045,-0.8074681253160354,-0.4295904415616761,0.4042861352030907,0
25,5.033422459893048,-0.869363119547077,0.3171302549369012,0.3789936249794062,-0.9022232963835285,-0.023239429484581447,0.4306426040001977,0
26,5.233422459893048,-0.7677539773903939,0.505604564458059,0.39359605511286216,-0.8652398326636229,0.2623392156123162,0.42724485710671917,0
27,5.433422459893048,-0.6596060264345003,0.6716049720159422,0.33744133038908397,-0.7836560758825342,0.47013087141918875,0.40602970146409495,0
28,5.6334224598930485,-0.42528905533152683,0.883480251663399,0.19644812123304944,-0.633694628571903,0.6958416504306386,0.3379874483543481,0
29,5.833422459893049,-0.11954438716231536,0.9819100152352774,0.14683957735789058,-0.3779260545149417,0.8964307887719285,0.23148161538339868,0
30,6.033422459893048,0.1988654599326939,0.9682821856752837,0.15126842945457517,-0.08374369098272827,0.98580465111659,0.14552039052135468,0
31,6.233422459893048,0.32062881625343903,0.9435849003838066,0.0827326897640866,0.09647031518966437,0.9905904296871539,0.09707769516952194,1
32,6.433422459893048,0.3168264673071836,0.9475963916562975,0.0410130239511128,0.20647894057582766,0.9755986833233421,0.07465692329881257,1
33,6.6334224598930485,0.08942836683757999,0.9953526641206469,0.035716120067751815,0.23022871665679978,0.9704684183071526,0.07201240931240188,1
34,6.833422459893049,0.07972505109860162,0.9358576836125875,0.3432408953644771,0.2267954999636977,0.9672157863842613,0.11426908490616161,1
35,7.033422459893048,0.36558661387482405,0.8509552917321944,0.3771226845848926,0.22775855686861374,0.9577144517061545,0.17580975162460763,1
36,7.233422459893048,0.3727003537199712,0.8433657035142063,0.38707717121136975,0.21972931355510705,0.9556527549608268,0.19607865947212064,1
37,7.433422459893048,0.33565377142165714,0.8352645578890399,0.43551080820669064,0.19960342524654767,0.9555834262175458,0.2168381612359359,1
38,7.6334224598930485,0.34094675487383796,0.8816569200407602,0.32624589757610706,0.2001349038440015,0.9535617746887692,0.2250910085182371,1
39,7.833422459893049,0.22517803007156034,0.9673671193794121,-0.11617104250487705,0.18885721520657334,0.9605006838044974,0.20438049974376438,1
40,8.033422459893048,0.19920603791857477,0.9742463370184418,-0.10564577257482695,0.16087738529344425,0.9661667912246951,0.20159414286065225,1
41,8.233422459893049,0.1613070827993902,0.9739784544845355,-0.15920425634594854,0.10000832387860958,0.9786723984134451,0.179439883355587,1
42,8.433422459893048,-0.09356560610508224,0.8494635985002922,-0.5192851549747243,-0.13692035508383166,0.9876499128227187,-0.0761607908637592,0
43,8.633422459893048,-0.21011501061452922,0.5492767276573548,-0.8087933968378355,-0.279961223942303,0.8234306250934277,-0.49354201315285723,0
44,8.833422459893049,-0.30864103934835424,0.42956429246208666,-0.8486549519513303,-0.2728189300383722,0.7586357733609381,-0.5916431312791257,0
45,9.033422459893048,0.10605650457361436,0.31752861785959247,-0.9422991004335108,-0.29276861136485216,0.7299503090322662,-0.6176237418875634,0
46,9.233422459893049,0.11147727663915649,0.31412875756538094,-0.9428127812368409,-0.27234714577666735,0.7120124369745957,-0.6471980545248882,0
47,9.433422459893048,-0.2976489186514468,0.23829126882794674,-0.9244578911048312,-0.3349459769861565,0.671018215407694,-0.6614724084131274,0
48,9.63342245989305,-0.24265106320602717,0.024112930164295176,-0.969813914173166,-0.5086941217427026,0.4732098194599261,-0.7192376222578494,0
49,9.833422459893049,-0.24726644511394097,-0.12567595769041837,-0.9607626443504715,-0.6569572591569772,0.19969804127316207,-0.7269992104209015,0
50,10.033422459893048,-0.23556623350310552,-0.31879135808983217,-0.9180853008519421,-0.7022399107605339,-0.061620963538676535,-0.7092686124365031,0
51,10.233422459893049,-0.3382934124894637,-0.42859724852587067,-0.8377720248506075,-0.6780003451485485,-0.2661971538051657,-0.6851675760603959,0
52,10.433422459893048,-0.24633624595263465,-0.43653508936098684,-0.8653066333309591,-0.6425429812068157,-0.3659935320183585,-0.6731918387967761,0
53,10.63342245989305,-0.30981501583321275,-0.14128415788301626,-0.9402411619874731,-0.6289796504643315,-0.4258498486620533,-0.650412565758284,0
54,10.833422459893049,-0.06921439627544389,-0.3491666051465723,-0.9345009626526041,-0.6295597104513919,-0.43564851956623035,-0.6433233544463557,0
55,11.033422459893048,-0.06203235480727018,-0.33443604038838426,-0.9403746709936441,-0.633395554518871,-0.4468560994313315,-0.6317671231686149,0
56,11.233422459893049,-0.24198914845346234,-0.03048952074269342,-0.9697997943677085,-0.6911273497540575,-0.3063396402797169,-0.654598358701904,0
57,11.433422459893048,-0.2535227556483684,-0.16256573437515218,-0.9535714941080846,-0.7182088728945709,-0.1709694899170869,-0.6744964406229297,0
58,11.63342245989305,-0.2791863477631335,0.08836804510959236,-0.9561621577045349,-0.7258491214322524,-0.07969819530480902,-0.6832212310673489,1
59,11.833422459893049,-0.2734901160841659,0.10087951421329348,-0.9565701647115904,-0.7289079997459869,-0.014057515718009544,-0.6844673214684119,1
60,12.033422459893048,-0.3250778430421756,-0.01586577717504575,-0.9455541618953823,-0.7263393275635102,0.058661113307059316,-0.6848284858416483,1
61,12.233422459893049,-0.2921548310953468,-0.11701391850488714,-0.9491855969955408,-0.7206113431315719,0.05599650894854556,-0.6910742963934395,1
62,12.433422459893048,-0.3304818610802926,0.08998579993419137,-0.9395127967766644,-0.7073548586384332,0.06516691913816221,-0.7038482624903202,1
63,12.63342245989305,-0.33278650314638075,0.08403844297145464,-0.9392500643739862,-0.7026671748373254,0.054169134394263796,-0.7094536956596307,1
64,12.833422459893049,-0.1618939820288787,-0.08404839297988533,-0.983222358482725,-0.696411437581423,0.03862539560935145,-0.7166025316867063,1
65,13.033422459893048,-0.1463527668587795,-0.10020595174838394,-0.9841441128549114,-0.691893227319246,0.02444159936275745,-0.7215860102651304,1
66,13.233422459893049,-0.17747548694490017,0.08923669025601351,-0.9800710508151046,-0.6973007240498013,0.02370087651529514,-0.7163867451956588,1
67,13.433422459893048,-0.17686106235963128,0.06318648440480212,-0.982205494186214,-0.6998455032987357,0.011474087860035825,-0.7142020840212662,1
68,13.63342245989305,-0.14462793431650087,-0.11236995043026347,-0.9830848156978332,-0.6970854845484449,0.010277083525152263,-0.7169143664246638,1
69,13.833422459893049,-0.1536689975075626,-0.11792444753170285,-0.9810604792159163,-0.7013918661477386,-0.0019857502126262245,-0.7127731103919999,1
70,14.033422459893048,-0.16416857516488242,-0.09467630282887947,-0.9818783410438315,-0.7018718789797477,0.00543136416240893,-0.7122825041939286,1
71,14.233422459893049,-0.16284474744251753,-0.08015035675654791,-0.9833908218720475,-0.6984484409984169,0.010944864807343644,-0.7155766801686808,1
72,14.433422459893048,-0.16098339491931044,-0.08485003807241591,-0.9833030141311286,-0.6982056252477488,0.011923829993466532,-0.7157979653161131,1
73,14.63342245989305,-0.17859889478618188,0.015208498807253857,-0.9838044197629856,-0.6981878925363008,0.015620298500732035,-0.71574413933365,1
74,14.833422459893049,-0.1802710936123529,0.01841275999046792,-0.9834446110876506,-0.6995730699905308,0.021782533083746173,-0.7142289835875324,1
75,15.033422459893048,-0.18094412336961074,0.14549363332046028,-0.972672003751118,-0.701519886190129,0.027662168403242274,-0.7121128096860914,1
76,15.233422459893049,-0.17791178497369048,0.13887497314976902,-0.9741976896914336,-0.6984649382378937,0.03663991794771222,-0.7147057061931998,1
77,15.433422459893048,-0.25288493803030165,0.3202856768896178,-0.9129437514418781,-0.6989490349312312,0.03724621407337084,-0.714200928384934,1
78,15.63342245989305,-0.2552180850739284,0.32472066975024433,-0.9107251043471626,-0.6996922431268079,0.04451152878354016,-0.7130564414641579,1
79,15.833422459893049,-0.23188106373490752,-0.17214565021325468,-0.9573907495865122,-0.7065530445209849,0.0423784658652043,-0.7063900203917373,1
80,16.03342245989305,-0.2992830697240887,-0.1370840257172207,-0.9442656480406808,-0.76799606054555,0.10146109403272617,-0.6323667427879162,0
81,16.23342245989305,-0.8047296521125646,0.48067220900301527,-0.34837395784265063,-0.8470384449854533,0.3633334688355885,-0.38796219292673834,0
82,16.433422459893052,-0.5399519882567421,0.7943428546739765,-0.27833663001119574,-0.7327329638935556,0.6281389100278071,-0.2618089252352645,0
83,16.63342245989305,-0.393894625844843,0.7972888760023472,-0.45735923728887884,-0.6142237744624912,0.7235249802986133,-0.3150250113386903,0
84,16.83342245989305,-0.13973141173590614,0.7921325222793747,-0.5941390407317186,-0.6175828637939873,0.7296102850473992,-0.29370093343581755,0
85,17.03342245989305,-0.9562393878926113,0.2869644263176121,0.05707583613901736,-0.8599381892253725,0.4970283088677598,-0.11605675721750294,0
86,17.23342245989305,-0.9804302143855321,0.09171322153265109,0.17419896588683342,-0.9530033944840312,0.30225805012514456,0.020605854421982654,0
87,17.433422459893052,-0.9701125277668127,-0.22807196887022918,0.08285445362527365,-0.9804756347951513,0.15635932812999143,0.11924466478540273,0
88,17.63342245989305,-0.9263375685475516,-0.35099340109377575,0.13675650436463302,-0.9841335818283058,-0.027619225259230724,0.17526628744247888,0
89,17.83342245989305,-0.834305103541927,-0.5398041887207178,0.11201085681067706,-0.9530234149377006,-0.21300911200893377,0.21534504587208234,0
90,18.03342245989305,-0.7002788784284532,-0.7132652793396622,-0.0293621136075341,-0.8826753577246607,-0.3972085040802066,0.2512162756510953,0
91,18.23342245989305,-0.7008150461023763,-0.7124000759255538,0.03666610120792041,-0.8114214965049665,-0.5196254473471827,0.2675528909933155,0
92,18.433422459893052,-0.5221473021295356,-0.8384799138820807,0.1559282812550245,-0.740794711472167,-0.6052412812078226,0.291386662317928,1
93,18.63342245989305,-0.7213071312376319,-0.6819219883682962,0.12123705788894233,-0.6946061545176884,-0.6562774340420136,0.29465610408301435,1
94,18.83342245989305,-0.719182821669118,-0.6886334444408425,0.09252052860628679,-0.6660844438876175,-0.6801877148511001,0.3060656566434106,1
95,19.03342245989305,-0.7241868277249772,-0.685334158129257,0.07661938560766933,-0.6578433426462567,-0.6869553195949343,0.30876289514159794,1
96,19.233422459893053,-0.7395824325220208,-0.6694276077959289,0.06988922252701626,-0.6685266807018448,-0.6749579970446772,0.3122559517690756,1
97,19.433422459893052,-0.7387469208672143,-0.6709932930224867,0.063411257896758,-0.6664610578455001,-0.6777144580905436,0.310697234732622,1
98,19.63342245989305,-0.6039810139930245,-0.7408854476926546,0.29376127745707614,-0.6605414432834819,-0.6756188987868175,0.327450920455361,1
99,19.83342245989305,-0.7597567206203747,-0.6465836340197997,0.06855165709101131,-0.6531735310617244,-0.6760347788055079,0.3410884286599979,1
100,20.03342245989305,-0.7662335851896838,-0.6412879340561413,0.0404459956160098,-0.6578034111820461,-0.6698837459097006,0.3443115438135233,1
101,20.233422459893053,-0.7727685877558267,-0.6336938969146193,0.03550710902099946,-0.6670849534681146,-0.658315554719114,0.3487381471409582,1
102,20.433422459893052,-0.7790959295395014,-0.6265611983168151,0.0207508394716273,-0.6811566242167016,-0.6480746402225971,0.34062430034578856,1
103,20.63342245989305,-0.7829110968741537,-0.6221013749640728,0.006331955394636732,-0.6952974005691244,-0.640044209922559,0.326963199926881,1
104,20.83342245989305,-0.7881782817125481,-0.6154338892180008,0.00401549980209776,-0.7077355675107502,-0.6290618637050389,0.32154554593739876,1
105,21.03342245989305,-0.794653331726619,-0.60704700261827,-0.004474258369659767,-0.7225960343995406,-0.6181686720753052,0.30939047162883365,1
106,21.233422459893053,-0.7867416392555261,-0.617274164772483,0.003193519369183594,-0.7166373176869704,-0.6252836654908726,0.3089519259831912,1
107,21.433422459893052,-0.7807372960243194,-0.6247356438163031,0.01243583298631317,-0.7107198108072179,-0.6320590883880459,0.3088343557835247,1
108,21.63342245989305,-0.7851435532248666,-0.618694944330769,0.02767971620118015,-0.7149981098276769,-0.6237426326209607,0.31578921956571354,1
109,21.83342245989305,-0.8273182514042925,-0.560219313641104,0.041216883880685694,-0.7645144524179814,-0.5586580722644425,0.3215879511701446,1
110,22.03342245989305,-0.9423686636934991,-0.25563544743058625,0.2158513833763713,-0.7923946506068297,-0.5182367083967073,0.32177854459212607,0
111,22.233422459893053,-0.9651544810074422,-0.08939180963490528,0.24593887891395333,-0.8220821448019111,-0.4630509317845183,0.3313076844435983,0
112,22.433422459893052,-0.9571254414076367,-0.006032865210068897,0.2896109354765356,-0.8443075302549123,-0.4143017790705031,0.33985118833669936,1
113,22.63342245989305,-0.949415306948616,0.023338639473368363,0.31315472667548494,-0.8556684355872172,-0.3855675629104581,0.3452088972941088,1
114,22.83342245989305,-0.9379295357447646,0.06191311007505079,0.341254967404791,-0.8622714717420183,-0.3461746989302532,0.36966334257051064,1
115,23.03342245989305,-0.9282793933675235,0.0745923527495611,0.36432588263875487,-0.8663825672310017,-0.32136135539227295,0.3822409272417859,1
116,23.233422459893053,-0.9182626036821054,0.09713753658250854,0.38387249141562946,-0.8712391141328297,-0.28402996229985567,0.4003365915339051,1
117,23.433422459893052,-0.9145642299346407,0.09131011681016933,0.3939983907228188,-0.872223990960946,-0.2732423830068333,0.4056647750555945,1
118,23.63342245989305,-0.9132857359836529,0.0758581684197293,0.400193331694572,-0.8708284376497779,-0.27437328516201764,0.4078935309242464,1
119,23.83342245989305,-0.9139566551473808,0.04340374597825788,0.40348401126546163,-0.8657373556625538,-0.29583800967635293,0.40370620882164227,1
120,24.03342245989305,-0.9126016507831344,0.016731227233511173,0.4085073965342113,-0.8592119096154933,-0.3145174231682141,0.40352656033838025,1
121,24.233422459893053,-0.8123687465197013,-0.5099419062598107,0.2828714759711905,-0.844756044297232,-0.366509407918139,0.3899462521050677,1
122,24.433422459893052,-0.7934738330445935,-0.6025132720030153,-0.08588965789745188,-0.8394743259353847,-0.43252264174153277,0.3289483553329569,1
123,24.63342245989305,-0.7935322823792081,-0.6063712407203568,-0.05119018704107275,-0.8354642612365607,-0.4495210358011614,0.3161175518200445,1
124,24.83342245989305,-0.8005186855021531,-0.5983988748115664,-0.03299425383542506,-0.8379563012398861,-0.45146246964356035,0.3066119301588027,1
125,25.03342245989305,-0.8081595332212994,-0.5649119001482151,0.16659145816777257,-0.8339147142898651,-0.46503920280332456,0.2971948672956868,1
126,25.233422459893053,-0.8170717281087292,-0.5520226845256653,0.16632722836172345,-0.8416831643575018,-0.4555520577389122,0.2898995921469804,1
127,25.433422459893052,-0.8415149850074509,-0.5364648495264146,0.06370239579883503,-0.8584845214796607,-0.44331069053029143,0.2578370765452374,1
128,25.63342245989305,-0.8449984783349583,-0.5298844506748298,0.07211130663522342,-0.8667414408121379,-0.43264658542183393,0.2481455357279818,1
129,25.83342245989305,-0.9595407758094097,-0.25840043154347137,0.11185131441884683,-0.8720114270347423,-0.4183939799366245,0.25405225579322105,1
130,26.03342245989305,-0.9660890699346433,-0.2377870962053152,0.10064395576019683,-0.8818233395931768,-0.40182170672181855,0.24683377758301525,1
131,26.233422459893053,-0.9674630097108629,-0.22731169382442368,0.11110678958493209,-0.8885790468955045,-0.3859626261615649,0.24791153386792047,1
132,26.433422459893052,-0.9678157408207947,-0.22415044010742155,0.11440835642183492,-0.8932251701266782,-0.37440345293940014,0.2489394502267991,1
133,26.63342245989305,-0.9045268985869636,-0.40981799921122825,0.11781467334400679,-0.8956331832564799,-0.3658876344359678,0.2529178523092366,1
134,26.83342245989305,-0.8859019790606038,-0.45416301225077454,0.0944120850305135,-0.8966057299481054,-0.3664532301647094,0.24861656245326044,1
135,27.005347593582886,-0.8791159089933298,-0.4657267860787301,0.10126094648781787,-0.8875731563270628,-0.38503372733279,0.2529089183556693,1
