,timeStamp,x_gaze,y_gaze,z_gaze,x_head,y_head,z_head,fixations_head
0,0.033366700033366704,-0.9984556568090206,-0.036605843773347926,0.04178891704398414,-0.996430503971637,0.08232203838578385,-0.01869044544250933,0
1,0.2333667000333667,-0.9944378206364147,0.054035252718353154,-0.09040803256106027,-0.9991712178386623,0.04026601805774676,0.005960304738699291,0
2,0.43336670003336675,-0.9857549365514073,0.05555670492412582,-0.15874714990356328,-0.9997294461917884,0.01725553125253747,-0.015597469610591696,0
3,0.6333667000333668,-0.9215476911744656,0.28247818646724726,-0.26637553765536937,-0.9936344961411536,0.019564677663563547,-0.11094012559140749,0
4,0.8333667000333668,-0.8811379784075626,0.15901670907013793,-0.4453196034808453,-0.9679874629902072,0.04371847317140259,-0.2471618226938451,0
5,1.0333667000333666,-0.7904065088471521,0.0958159278046483,-0.6050428569539446,-0.9430645099560032,0.06911996349687578,-0.32534867558918135,0
6,1.2333667000333668,-0.7920266429976527,0.13074831540626797,-0.5963209494896956,-0.9390195981284069,0.11693909541434885,-0.32336889506326894,0
7,1.4333667000333667,-0.8419213207421318,0.5086391991640137,-0.18015175478916595,-0.9380729595587376,0.2633499655511823,-0.225090910942451,0
8,1.6333667000333667,-0.5777424176442069,0.8116415899280567,0.08632281479240264,-0.8036291811284104,0.5906538209651494,-0.07285741567026605,0
9,1.8333667000333667,-0.28263522087509263,0.9492482084675609,0.13800424139139417,-0.6667998577777091,0.7451104663072712,0.013723799291288587,0
10,2.033366700033367,0.011526602428483024,0.9894828882093409,0.14418998362354032,-0.4410044013691944,0.8962441332982295,0.04755598281503661,0
11,2.233366700033367,0.4355417152586008,0.8947871725347232,0.09828189119523086,-0.09258617213302117,0.9944357394649169,0.050252968117503814,0
12,2.433366700033367,0.4912973648724887,0.8686512313467136,0.06381173519962215,0.14984795156179614,0.9881640821263765,0.03282283059197961,0
13,2.633366700033367,0.7160742151257775,0.6732866974493097,0.18418127339608634,0.3872360395679292,0.9213828421449651,0.03319499752390218,0
14,2.833366700033367,0.8276918715756525,0.5595108791350349,-0.043286739968884665,0.5303264192900752,0.8473268392099015,0.02812679429876654,0
15,3.033366700033367,0.8467777407082179,0.5284191151132817,-0.06116123465057514,0.6040478664393814,0.7966565332386955,0.02155326189084398,0
16,3.233366700033367,0.8690808156644213,0.48699843634259676,-0.08678167343356569,0.667627986799245,0.7444301607659056,-0.00982888520815327,0
17,3.433366700033367,0.9799967833554192,0.19290726460217217,-0.04891923830906989,0.7324464850339601,0.6807474273636023,-0.01025118038246635,0
18,3.633366700033367,0.979822731147571,0.19375012185475887,-0.04907449243528914,0.7449380159419566,0.6671317884601982,-0.001590355419109087,0
19,3.833366700033367,0.9913293504004573,0.11179670264561456,-0.06904792764577286,0.8107894365438122,0.585027572536415,-0.019058566607097205,0
20,4.033366700033366,0.9959647038561954,0.08759823492923861,-0.019515581208955086,0.886522412351466,0.4618239955356287,-0.02822427228548373,0
21,4.233366700033367,0.9908676440065284,0.12824678095150668,-0.04164222900528082,0.9351286296391907,0.35361875702518075,-0.022095716985323238,0
22,4.433366700033367,0.9752803313118688,0.0546916068535022,-0.2140960146663034,0.9582682159037752,0.28104579419199804,-0.05229998045491749,0
23,4.633366700033367,0.967900471210051,-0.010508639281005422,-0.251114010624305,0.9988105050530205,0.04543225334296758,0.01770551755558315,0
24,4.833366700033367,0.9184937712906613,-0.29755575119399474,-0.26044148485146434,0.994749715424025,-0.1015148104126538,0.012951715357612439,0
25,5.033366700033366,0.7474764159095004,-0.6594707135765067,0.07985853488501096,0.9569505517988895,-0.28530230865344797,0.053368849423735064,0
26,5.233366700033367,0.7183303801679861,-0.6949093034596515,0.03320429027909557,0.9128774166166237,-0.405669724999711,0.045682561771623595,0
27,5.433366700033367,0.4985561312579476,-0.7393392620084902,0.45256959645766026,0.8215910861810793,-0.5648668508906729,0.07689946601016813,0
28,5.633366700033367,0.4275024243771499,-0.7812076550160697,0.4549244738370896,0.7428950716602042,-0.6550575465480427,0.1378641476724048,0
29,5.833366700033367,0.3831628518294837,-0.7746803495173248,0.503047299018306,0.706406285894653,-0.6708196186252179,0.22581230815887632,0
30,6.033366700033366,0.7087444334083403,-0.45024441334458787,0.5431033938069977,0.7179538873597925,-0.6066615590617336,0.34132677653789395,0
31,6.233366700033367,0.6804894724354414,-0.11470987883247316,0.7237235118488098,0.7764040851577662,-0.4542744708325817,0.4368425365049861,0
32,6.433366700033367,0.7190439742939405,-0.056331559810982944,0.6926777882975874,0.8339243873633831,-0.3061923663059163,0.4591474174778618,0
33,6.633366700033367,0.7556747085384593,0.12073844365566126,0.6437219610196033,0.9078695627102085,-0.10467888817714775,0.4059743680016898,0
34,6.833366700033367,0.7704340091897395,0.3179236043256524,0.552590281579771,0.9435203018906743,0.11038700246192928,0.31238461807137885,0
35,7.033366700033366,0.9892338365749195,0.1358378288274013,-0.05444722981679951,0.9340978874104825,0.24417447544543455,0.2604610571202933,0
36,7.233366700033367,0.9552843690589823,0.25112513797693947,-0.1561023360095715,0.9299469356204044,0.33341169339632176,0.1550333500793192,0
37,7.433366700033367,0.8235390720489899,0.5513007649534429,-0.1336071232024596,0.8859242082081645,0.46347967058225964,-0.018024768173190008,1
38,7.633366700033367,0.8515480230461092,0.5103466517913237,-0.120051070181187,0.8700890501730794,0.4926021358080348,-0.01697588189965139,1
39,7.833366700033367,0.9896535677974907,0.14343443609723516,0.0035182790062716946,0.8844098508460253,0.4662161351777598,-0.021487927457632297,1
40,8.033366700033367,0.9904113826638867,0.13744960565328437,-0.01388880828455228,0.895481652381339,0.44445399669375163,-0.0239427456933731,1
41,8.233366700033368,0.9901522930046861,0.13959817452122297,-0.010525508439252438,0.8996750019219532,0.43573570502712977,-0.026819513068727915,1
42,8.433366700033368,0.985428887683734,0.1676654681899327,-0.028604162198004685,0.8968477223343991,0.4412565438165608,-0.030932595795765225,1
43,8.633366700033367,0.9859169914661731,0.16357142631672025,-0.03481485934201444,0.8995904595439697,0.4354738072007576,-0.03315973973883855,1
44,8.833366700033368,0.9876708587850692,0.15217361654552247,-0.03673506681932564,0.8996697764361811,0.43436917587055096,-0.04379169351384442,1
45,9.033366700033367,0.9899652399663385,0.13705930999961258,-0.03440304057521696,0.902775574918573,0.42726695288169053,-0.049388382294176546,1
46,9.233366700033368,0.8795107538637079,0.4218243341063907,-0.2202840552418451,0.9040462438823191,0.4229249134073828,-0.06192662223655019,1
47,9.433366700033368,0.8592143473869933,0.44594824300530367,-0.2507605826377545,0.903071205318035,0.42367368836272684,-0.07044859057891073,1
48,9.633366700033369,0.9971688613211052,0.06567800434697492,0.036615048225686835,0.923958575706688,0.3762675523527227,-0.06872611894003554,1
49,9.833366700033368,0.9986764193799276,0.04955391125733952,0.01377749083058404,0.9449611878451534,0.32038264471254796,-0.06635747458478326,1
50,10.033366700033367,0.997411332684603,0.07145806204253445,-0.008023640162044725,0.9478888049584652,0.31178879285283423,-0.065532908418484,1
51,10.233366700033368,0.9951594162405918,0.09387793029877708,-0.029063215075122908,0.9480641627920622,0.31135464639191807,-0.06505864584780531,1
52,10.433366700033368,0.992601686587698,0.11430998390389602,-0.040928222086339686,0.945991054727891,0.318002984414464,-0.06304780946477545,1
53,10.633366700033369,0.9904269737038761,0.12862165611898252,-0.05010867526678681,0.9436336395533522,0.32485097823846765,-0.06346176991547639,1
54,10.833366700033368,0.9897051163167139,0.13116679794030806,-0.057263023449744335,0.9437852023729345,0.32414580106102436,-0.06479962527967288,1
55,11.033366700033367,0.989449734755623,0.13159329871558162,-0.06060054558482761,0.9439904117007557,0.3233956525520568,-0.06555421060059319,1
56,11.233366700033368,0.8677667284547177,0.1393980715099477,-0.4770210505274411,0.9447479437442805,0.3211137480204311,-0.06585805663110277,1
57,11.433366700033368,0.8672217665989603,0.13836806525721176,-0.4783102403816528,0.9438733894630987,0.3231664717221108,-0.06831146476341991,1
58,11.633366700033369,0.8658767022730376,0.13414199946785424,-0.4819371955343722,0.9456168896916705,0.3172274267517482,-0.07194065364114746,1
59,11.833366700033368,0.8664541055903571,0.12853739252837337,-0.4824265971395253,0.9471227540545994,0.3125786935017319,-0.0724779216091448,1
60,12.033366700033367,0.86563182252777,0.1356208406261198,-0.48196320960745176,0.9448067952414801,0.3196605113173546,-0.07181418501836147,1
61,12.233366700033368,0.8649023661170543,0.1405365441178722,-0.48186447975808144,0.9427347562896808,0.3257095081755417,-0.07186442490887412,1
62,12.433366700033368,0.8639585934230892,0.1447626656373321,-0.4823062507245491,0.9411235946683766,0.33021925359396875,-0.07239906155686969,1
63,12.633366700033369,0.8364148734795926,0.3411753667780581,-0.4289633183921143,0.9408999989901237,0.3304206969448372,-0.07435963240141713,1
64,12.833366700033368,0.8435090895630019,0.29641740604635053,-0.44791643999450226,0.9414258416731051,0.3290170500014814,-0.07392675725614312,1
65,13.033366700033367,0.8456245574646466,0.2942061595126048,-0.44537831505088415,0.9427788269841423,0.32575649568613224,-0.07106890254320959,1
66,13.233366700033368,0.8468171928170074,0.29379429402216317,-0.44337969591484705,0.9428778932910914,0.32591332073497203,-0.06900569331915318,1
67,13.433366700033368,0.845304086257306,0.29483286479432813,-0.4455721979588384,0.9420845915518469,0.32762689957929403,-0.07167452150275724,1
68,13.633366700033369,0.8439436896208786,0.2944986318816643,-0.44836325068957933,0.9418219221475762,0.32772273317099776,-0.0746275895709876,1
69,13.833366700033368,0.8432401503289274,0.2954302894474915,-0.44907348279565473,0.9413768917974982,0.32883316931457346,-0.07535445805136452,1
70,14.033366700033367,0.9417522845820621,0.22521926979034818,-0.24975771259276325,0.9413664459225911,0.3288756325238917,-0.0752996203382177,1
71,14.233366700033368,0.9442271408592796,0.224233736458432,-0.24115210531654255,0.941056778656529,0.3296220190683053,-0.07590430745307357,1
72,14.433366700033368,0.9404663486094464,0.21437734490018667,-0.263752537668856,0.940515229057657,0.3309594010571361,-0.07679178837951732,1
73,14.633366700033369,0.9805514496153457,0.18473340557474666,-0.0662753613494545,0.9408301088883214,0.33008695643521085,-0.07668968249072852,1
74,14.833366700033368,0.9792708992707588,0.18946536004396491,-0.07163367354010751,0.9410338704882426,0.3297427645450866,-0.07566349069453113,1
75,15.033366700033367,0.7858372490184671,0.42213261460548523,-0.45195561036613446,0.9415784523651811,0.3282255923556786,-0.07548495588098565,1
76,15.233366700033368,0.8059539778353211,0.3982765589346756,-0.4379657157981394,0.9410751832656756,0.3296886324903704,-0.07538504525503972,1
77,15.433366700033368,0.8061620340261368,0.3975443479220737,-0.43824795074256184,0.9413966485207526,0.32869220267383337,-0.0757217673811089,1
78,15.633366700033369,0.8191674628861718,0.37101871661233254,-0.43738973430108125,0.9531710511728284,0.29314406337732163,-0.07437409033203712,1
79,15.833366700033368,0.9849136825666719,-0.17249857099456933,0.01375793944560782,0.9818553788928865,0.17861907591305023,-0.06368077150187593,1
80,16.033366700033366,0.9807883311449673,-0.1950299664207023,0.0041906667500494635,0.991201791981481,0.12028266479266418,-0.05523665561089606,0
81,16.233366700033365,0.9885558083237586,0.12478140213467466,-0.08477626737870124,0.9943509891659472,0.09233084620650352,-0.05235575597289397,0
82,16.433366700033368,0.8349162332444154,-0.5502922354295675,-0.009661215807900067,0.9919601032988574,-0.1255076837315048,-0.016216497392252005,1
83,16.633366700033367,0.84025577532134,-0.5368909405597638,-0.0756197724407187,0.9653250393283139,-0.2610385417108951,0.0025393281077344494,1
84,16.833366700033366,0.8440209994096681,-0.5309715511685463,-0.0754835373122701,0.9618031756006752,-0.27374167779165826,-0.0003811092560781988,1
85,17.033366700033366,0.9981724749578929,-0.03630979792430071,-0.04830433532439057,0.9649481209493791,-0.26242689522940865,-0.0026923106276371673,1
86,17.233366700033365,0.9987234479469012,0.0005279538919268527,-0.05050936334722017,0.9748088847534742,-0.22300260361435953,-0.004180548636885426,1
87,17.433366700033368,0.9943868114687029,0.09147029874717137,-0.05317944738534002,0.993587991786041,-0.1130597638344346,0.0006264026534326815,1
88,17.633366700033367,0.9561028822849735,0.2910028618206032,-0.03441820591758554,0.9989236115358293,0.045249366629167585,0.010203584462083748,0
89,17.833366700033366,0.9289484994361867,0.36775751336719825,-0.042533478075888746,0.9699212324721711,0.24247941830596093,0.021366667912134697,0
90,18.033366700033366,0.7935785882937344,0.5137390189530281,0.32604485060632893,0.9115377718270499,0.4046832161343196,0.0730094864504671,0
91,18.233366700033365,0.7803146941563422,0.5291998763991793,0.3332513599413932,0.8668454999410261,0.4827062974569729,0.12479386854879165,0
92,18.433366700033368,0.6396798062187672,0.7495856540192226,0.17009142484115647,0.8185332942312996,0.5543151630673221,0.150791068132383,1
93,18.633366700033367,0.6120452433992696,0.7765509480278892,0.14956351543513297,0.7730708630774309,0.6163619216511108,0.14986467962554106,1
94,18.833366700033366,0.7046375013373958,0.6968347543720712,-0.1338182230049659,0.7389718432838648,0.656940261057106,0.149499525871719,1
95,19.033366700033366,0.722778701658094,0.6764836750300616,-0.14128264524442583,0.7488520186763141,0.6472881851881449,0.14226264246191614,1
96,19.23336670003337,0.7162775414330682,0.6821821338813058,-0.14688097171433578,0.7411748799542872,0.6573297673240077,0.13629884194120695,1
97,19.433366700033368,0.7811400587303468,0.5422429232302639,-0.30950415320872277,0.7447483661987915,0.655094807961305,0.127281827557478,1
98,19.633366700033367,0.801850503980836,0.5288434963999892,-0.2781372423482949,0.7660220152313517,0.6323235097341823,0.11566006751832834,1
99,19.833366700033366,0.8135158947625408,0.5080584993153716,-0.2829636906780008,0.7830228520108191,0.612216852320449,0.10984415762199155,1
100,20.033366700033366,0.8193017962031326,0.4909348061437624,-0.2961884245795355,0.7927881616413218,0.6018515810487128,0.09623723370161141,1
101,20.23336670003337,0.8357636226837754,0.459649742534401,-0.3003685755643408,0.8133755912873095,0.5746810936330866,0.09034261518629846,1
102,20.433366700033368,0.8483218439354149,0.4759472976051638,-0.23200047199167498,0.8185741957992758,0.5673497384980606,0.08972491403033561,1
103,20.633366700033367,0.8403093038312258,0.5360270591453306,-0.08096459571126927,0.8219612045312963,0.562187398450127,0.0912420257849371,1
104,20.833366700033366,0.7606394653183489,0.6456984305609924,-0.06709054010281285,0.818435666982479,0.5667173874354099,0.09483913638012631,1
105,21.033366700033366,0.7531563676792573,0.6544697430290874,-0.06651948048224697,0.8110523773422877,0.5779934128186948,0.09009803519290048,1
106,21.23336670003337,0.9873043025501996,0.15171879486588163,-0.04702787950044835,0.8143344611571471,0.5744454755951054,0.08289620582519062,1
107,21.433366700033368,0.9879197357677901,0.14546089623353728,-0.05343896843536874,0.822559644243718,0.5638852898407282,0.0736818265441803,1
108,21.633366700033367,0.9863746855605104,0.1637081261194963,-0.01626742536012223,0.8367222646593112,0.5439053028296638,0.06374067286408217,1
109,21.833366700033366,0.9899270239264679,0.13525328031823625,-0.041845399546938014,0.8675112576382294,0.49492352045623184,0.0497486358621816,1
110,22.033366700033366,0.9866914593378645,0.15210927584542486,-0.05746940291577628,0.8987630540815361,0.4359728737070944,0.046396400826006566,1
111,22.23336670003337,0.9869553128538318,0.13185564538775746,-0.09237585836663816,0.9118388598605532,0.4090823427656143,0.034663099769106795,1
112,22.433366700033368,0.9849588749979296,0.13640615111891052,-0.10606307792883521,0.9133055298403459,0.40628605824241504,0.028366318775730863,1
113,22.633366700033367,0.7972667451162926,0.5491680301369779,-0.25055979686921886,0.9114321337011214,0.4110597598166282,0.017925945345140533,1
114,22.833366700033366,0.7914130728116193,0.5476350305186084,-0.2715901720087697,0.9073659050239392,0.42027292895060814,0.007601288796313509,1
115,23.033366700033366,0.7885865054927028,0.5471363959958305,-0.2806654370090863,0.904770414731642,0.4258982971466867,-0.0010663554215146445,1
116,23.23336670003337,0.7863419169121779,0.5467315723249,-0.28766469635675623,0.9024924706413794,0.43059344438613517,-0.009829856932015092,1
117,23.433366700033368,0.7805888104010931,0.5530488759646639,-0.2912353856776824,0.8960873863734227,0.44363932595907446,-0.014544567543474858,1
118,23.633366700033367,0.7644096360419784,0.571931713904506,-0.29761052225421225,0.8794623594264679,0.47551468747797004,-0.020778362417635202,1
119,23.833366700033366,0.7596211995459266,0.5774543044280427,-0.29920253925716195,0.8715878076055803,0.489717489236479,-0.022615799106315875,1
120,24.033366700033366,0.7625539274205488,0.5725880869420421,-0.30108867542229023,0.8705087277553998,0.49154632885465194,-0.024428702200282454,1
121,24.23336670003337,0.768726109984292,0.563312608366648,-0.302884587068378,0.8731877199004685,0.48665661230868246,-0.026618555769572914,1
122,24.433366700033368,0.7785185631514684,0.5484902655330244,-0.30506929613464207,0.8808391141536227,0.47251301903787357,-0.02922159846372727,1
123,24.633366700033367,0.7871309610039428,0.5360333223486529,-0.3051116640852577,0.8867704133017216,0.461265670703033,-0.02953328839759204,1
124,24.833366700033366,0.7898631264252928,0.5300458808508239,-0.3084924726905608,0.8885964812926184,0.45752059081933777,-0.03272922869090672,1
125,25.033366700033366,0.788161775934155,0.5303422799943761,-0.3123108723798863,0.8872784114959872,0.4597887514417115,-0.03648732027471739,1
126,25.23336670003337,0.7485991168828425,0.6581851001027552,-0.07994833459775522,0.8834973281222701,0.46670564651282315,-0.04022823279561036,1
127,25.433366700033368,0.7533011246723558,0.6510513344119567,-0.09311055540471445,0.8813226485364378,0.4704694702756323,-0.043918865141127604,1
128,25.633366700033367,0.9657794129732129,0.25177323623066794,-0.06229255970862714,0.8787094821129986,0.47466689499821735,-0.05060617390652598,1
129,25.833366700033366,0.965091932229888,0.252913125529324,-0.06806256885961293,0.876733456611215,0.4777654112326285,-0.055485654797149606,1
130,26.033366700033366,0.935896600128976,0.3444272698844134,-0.07394193415777875,0.8722872668394083,0.485477966197485,-0.05853262719705008,1
131,26.23336670003337,0.6015606439151897,0.7887963832543844,-0.12619452229453104,0.8191002004054435,0.5698905992885341,-0.06557108004537991,0
132,26.433366700033368,0.3359351618945687,0.9244748353991279,-0.18026049405409258,0.7155403934461684,0.6945005224463102,-0.07530584086712551,0
133,26.633366700033367,0.32181329747998844,0.9296676406249742,-0.1793161441138275,0.5742154551099463,0.8138416244644366,-0.08909781928849207,0
134,26.833366700033366,-0.06186353065310507,0.9916811636638344,-0.11287769137201446,0.4123155041465178,0.9067161347930941,-0.08866665633864262,0
135,27.033366700033366,-0.07381843956625189,0.9800059367680064,-0.1847679676769391,0.22599572552848407,0.9707559438475305,-0.08098660091363492,0
136,27.23336670003337,-0.3183284241066626,0.9424248072347319,-0.10248169160561102,0.03177091379675817,0.9976394339834656,-0.060878311389765974,0
137,27.433366700033368,-0.4173921346330973,0.90339860965901,-0.09825862818396328,-0.14123286497052262,0.9894972968239261,-0.030795737210882957,0
138,27.633366700033367,-0.677781071639465,0.7209357013709128,-0.14444560711938825,-0.2605818851776554,0.9652677402657346,-0.018848626463007178,0
139,27.833366700033366,-0.7007058034608215,0.6886217793047589,-0.1865781928936841,-0.3675627910660307,0.9298991224286755,-0.013609435334686936,0
140,28.033366700033366,-0.7561103104598584,0.6116837616193881,-0.23268041212670332,-0.47582258994991444,0.8791447652161595,-0.026407284721831518,0
141,28.23336670003337,-0.8066293677024975,0.5378047760127578,-0.2451837801685438,-0.5558563585939758,0.8306562160382784,-0.03215523857188322,0
142,28.433366700033368,-0.7019505407705937,0.659284496917851,-0.2694612967304345,-0.6111002797348922,0.7904921441957695,-0.040970941808937726,1
143,28.633366700033367,-0.5871110024093791,0.7546804413645004,-0.2928448433415505,-0.646508036981202,0.7596510426140787,-0.07041059276881807,1
144,28.833366700033366,-0.7840964316851288,0.5633186607114906,-0.26050887185057764,-0.688167049037079,0.7192623629098597,-0.09532977457711811,1
145,29.033366700033366,-0.7947200490849663,0.543514540118474,-0.2702073060858872,-0.7173740461002251,0.6887297287809857,-0.10500399361482544,1
146,29.23336670003337,-0.7914511649875127,0.5542335394453933,-0.25774063939111497,-0.7265957089878189,0.6817264191793746,-0.08548546703011518,1
147,29.433366700033368,-0.7812646523156141,0.5801861828739309,-0.23023799913207343,-0.715764702939347,0.6967975531165345,-0.046411851901847316,1
148,29.633366700033367,-0.8274179146665479,0.527248612927422,0.19336104740865123,-0.6919478516878266,0.7219419848244412,0.002817994383954229,1
149,29.833366700033366,-0.8230607299015802,0.549572699811243,0.1433209074631466,-0.6918773850619307,0.7207616632592369,0.04252421446239301,1
150,30.033366700033366,-0.6442199642532783,0.7636922398563772,0.04189033827333622,-0.6892334142984998,0.7221060050227777,0.05933142611194351,1
151,30.23336670003337,-0.6105981530024769,0.7911885350789292,0.03450503600378014,-0.6860193523719744,0.7248333257212012,0.06319887732452162,0
152,30.433366700033368,-0.60223505120299,0.7975681613083987,0.03461172012010148,-0.6767489834494314,0.7334367428678803,0.06388550392315812,0
153,30.633366700033367,-0.5762147695312058,0.8168834901581089,0.026036568153390185,-0.6524027115125444,0.7558036876986147,0.055959696856351195,0
154,30.833366700033366,-0.5278553362154882,0.8491484822875578,0.017765107868268824,-0.6053544722938761,0.7944902451991908,0.04828263825778818,0
155,31.033366700033366,-0.4588266719814164,0.8882627321723664,0.021619521552080582,-0.5410167018745147,0.8393552112936539,0.052761326433370045,0
156,31.23336670003337,-0.3906217476058095,0.9205499915030325,-0.0015373487404173622,-0.47641884328770046,0.8777276783484884,0.05117820260015454,0
157,31.433366700033368,-0.4374791961213097,0.877835945041274,-0.1949769385197797,-0.41093992710716104,0.9102671020324906,0.05042002842653686,0
158,31.633366700033367,-0.09485661372483917,0.9762555557098944,-0.19474935886472652,-0.3288407433771669,0.9436758939125153,0.03660017409204418,0
159,31.833366700033366,0.30328101489173087,0.9528971937903842,0.0027502859219743795,-0.17385937122760614,0.9844814740185271,0.02385678835572054,0
160,32.03336670003337,0.41120768702988514,0.9115414002993676,-0.0007167062158436149,0.12040263911477261,0.9927214654696845,0.0027012015696524917,0
161,32.23336670003337,0.7935167018331879,0.5982315762542515,0.1115805766436687,0.47653629793942653,0.879086334045231,-0.01097151042939119,0
162,32.43336670003337,0.9533280636971133,0.3014063176702408,0.017883921157812753,0.7100870384795195,0.7036745323716652,-0.024870670978159422,0
163,32.63336670003337,0.9939236746216867,0.10514933860086928,0.03254759005400043,0.8564976667891002,0.5157404132432802,-0.02058088755322048,1
