,timeStamp,x_gaze,y_gaze,z_gaze,x_head,y_head,z_head,fixations_head
0,0.033366700033366704,-0.9722778056858503,0.06480285898593806,0.22466966425834256,-0.9405530557242847,-0.047797117706358735,0.33626683587097195,1
1,0.2333667000333667,-0.9764692308897885,0.06945791043382303,0.20416522672500284,-0.9432669878164471,-0.05742514758069627,0.32703171424346933,1
2,0.43336670003336675,-0.9559509071918895,-0.03639403115643334,0.2912616307294666,-0.9415299040856137,-0.06242411191661521,0.33109616422416815,1
3,0.6333667000333668,-0.9500565239602745,-0.06352376707112181,0.30554432133098836,-0.9395828076875852,-0.07646359060626069,0.33367269413230727,1
4,0.8333667000333668,-0.9579553561625634,0.00366260629397843,0.28689391927085456,-0.9386108081256591,-0.11105272475792846,0.32661451773235234,1
5,1.0333667000333666,-0.9791421696765892,-0.061827588724266316,0.19354059221146605,-0.9593761802437286,-0.16104405646942918,0.23165093709463785,1
6,1.2333667000333668,-0.8473271189996254,-0.3536840287089433,-0.3961620391254147,-0.9643785289742492,-0.2645027268905702,0.0035157248065819584,0
7,1.4333667000333667,-0.9147374494057535,-0.09661861303464428,-0.3923267034882004,-0.9376583039777102,-0.24740199049457187,-0.24410891028589735,1
8,1.6333667000333667,-0.9220100634610766,-0.1129855953314485,-0.37031297320523354,-0.929710716220878,-0.2276999740989074,-0.28946624317771386,1
9,1.8333667000333667,-0.6581401152365473,0.03188801122287702,-0.7522198770683174,-0.9193683185680925,-0.24068610654297581,-0.3111785547406211,1
10,2.033366700033367,-0.6508088213187138,0.039283614626960735,-0.7582246868281111,-0.9291860439131367,-0.22027313021981154,-0.2968047235139968,1
11,2.233366700033367,-0.78531862772331,-0.3965581433417742,-0.4754117077861062,-0.94239089232552,-0.20304839124444315,-0.2658397202732394,1
12,2.433366700033367,-0.798181335772364,-0.3686809721063683,-0.4764251211170003,-0.9356905458915827,-0.23778557270863945,-0.260655373512107,1
13,2.633366700033367,-0.8050347958942247,-0.3890938615755373,-0.4478001164401151,-0.9350132611414803,-0.27518593127931623,-0.2236580083867109,1
14,2.833366700033367,-0.894358508432496,-0.4077547578731122,-0.1840079232702795,-0.9041577789148281,-0.3882008442357797,-0.17832222341153353,0
15,3.033366700033367,-0.5305140008381845,-0.42124685687297503,-0.7355990623222015,-0.8943788060541273,-0.43257150092135005,-0.11387909321664025,0
16,3.233366700033367,-0.5591404181214839,-0.38789028128013336,-0.7327367347904372,-0.8986057138436371,-0.4348849182167622,-0.0581625219120305,0
17,3.433366700033367,-0.5770965718210433,-0.4443583229254493,-0.685204515191838,-0.8853985279526984,-0.4647244982487754,0.010029328323418497,0
18,3.633366700033367,-0.6046573091681715,-0.4877071389266379,-0.6297073011403785,-0.8685287376124406,-0.48856415068806597,0.08344400879505677,1
19,3.833366700033367,-0.811850947554777,-0.583687469718297,-0.014386683018080854,-0.8312982418940114,-0.5420990945676536,0.12276727859187982,1
20,4.033366700033366,-0.857197836927881,-0.5107108975573665,0.06622875117584202,-0.8161553217392594,-0.5571353018022855,0.15326691189673827,1
21,4.233366700033367,-0.8533113251590555,-0.5143084947976959,0.08571204427748393,-0.8112947542176254,-0.558945283325557,0.17140884465824874,1
22,4.433366700033367,-0.8679126151787462,-0.48935572135529215,0.08519783090215216,-0.828064714187028,-0.5339954507539596,0.1707562229976741,1
23,4.633366700033367,-0.8012639965966112,-0.5711223345312036,-0.17831232923624207,-0.8452737827657693,-0.5058140509922373,0.1722334984480936,1
24,4.833366700033367,-0.8175804152703058,-0.543460427608355,-0.19029721014817466,-0.8678541529785218,-0.46780748715116366,0.16728814698969732,1
25,5.033366700033366,-0.8995360601902297,-0.3633582630326559,-0.242498761034631,-0.9029272044804404,-0.39758063087196,0.16325472539743305,1
26,5.233366700033367,-0.9179905827815049,-0.33531851191835466,-0.21178948389694197,-0.9242655583489517,-0.34617638886014684,0.1609194998924895,1
27,5.433366700033367,-0.9055830261437287,-0.42378250450987687,-0.018104464413588314,-0.9287473178983731,-0.3338549546469568,0.16114989529707183,1
28,5.633366700033367,-0.921816952579467,-0.38740856444672045,-0.012965729074607853,-0.9297368075086929,-0.3309155983221801,0.1615064566839897,1
29,5.833366700033367,-0.9043725259515392,-0.3979127791197779,-0.15419388612136103,-0.9293487377485895,-0.3310951703560588,0.16336129226960644,1
30,6.033366700033366,-0.9038344348708773,-0.39299822185986244,-0.16922089692655712,-0.9293901929039008,-0.3284363358086731,0.1684144965690981,1
31,6.233366700033367,-0.9227181987393076,-0.3848819070038325,-0.021378572833122986,-0.9320102520777017,-0.31633639516855183,0.1768846378683721,1
32,6.433366700033367,-0.9265476518521997,-0.3759170290807034,0.013994145001124078,-0.9309747948747684,-0.3141980881310151,0.18591797310291946,1
33,6.633366700033367,-0.777252462383751,-0.625624256050445,-0.06687974252135774,-0.9259368642680403,-0.33051820393396636,0.18275294869778094,1
34,6.833366700033367,-0.7756827236006403,-0.6279939673226581,-0.06276853761114036,-0.923402597622154,-0.33350314307726003,0.19000867417633144,1
35,7.033366700033366,-0.9442029077359371,-0.29713134183812195,0.14210501300263512,-0.9239392303888132,-0.32966199170212757,0.1940599643808953,1
36,7.233366700033367,-0.7857324636685208,-0.6163138643816582,-0.052741976720098956,-0.9254407662276539,-0.3220470015207351,0.19961241698721302,1
37,7.433366700033367,-0.8084022650099748,-0.5876817737929322,0.03340524926318346,-0.9245549423656092,-0.3214516738382833,0.2046142222180328,1
38,7.633366700033367,-0.8326823226827698,-0.5398250552977456,0.12340607426060429,-0.9214270196242141,-0.3309661200040185,0.20355263426427136,1
39,7.833366700033367,-0.829618585284022,-0.5450896918905385,0.1208727874503446,-0.9200346102229838,-0.3335064289565942,0.20569340737238642,1
40,8.033366700033367,-0.8794948692486845,-0.46861893810598465,0.08297629669766725,-0.9241020587590465,-0.32480782869057595,0.20133370164631087,1
41,8.233366700033368,-0.7863880865268819,-0.4327488675053905,-0.44081991225600486,-0.9204851965698816,-0.34414956353454146,0.18511639801673763,1
42,8.433366700033368,-0.7804476743413529,-0.45181428416019365,-0.43216348786539743,-0.9125353266821732,-0.3661373799206072,0.182270942780061,1
43,8.633366700033367,-0.7804495998736518,-0.45929137780005796,-0.4242049650058108,-0.908930044915869,-0.3723984277401894,0.1875248902569242,1
44,8.833366700033368,-0.779132252969546,-0.4589533191666863,-0.42698335237861623,-0.9095238420613881,-0.3723346732438087,0.1847519196715357,1
45,9.033366700033367,-0.7446626938934673,-0.6672100136338723,-0.017557620283291286,-0.9100973874456643,-0.36970369913117135,0.18719487229436768,1
46,9.233366700033368,-0.834074203676321,-0.5258709813620304,0.1666731343769776,-0.9110108432577493,-0.3672148996342193,0.1876498360069503,1
47,9.433366700033368,-0.8326526314824589,-0.5290441432024693,0.1637128273181482,-0.9106855752844298,-0.3677106538523699,0.18825689366482656,1
48,9.633366700033369,-0.8322215454473219,-0.5307943598974676,0.1602018938536912,-0.9105412119234627,-0.36701091375134104,0.19030946002854934,1
49,9.833366700033368,-0.8360947274931811,-0.5258248497153657,0.15637721726618792,-0.9130228309886526,-0.36145988644159377,0.18903983862428736,1
50,10.033366700033367,-0.7123621230467676,-0.328667633793657,-0.6200949863890055,-0.9148389666566197,-0.3578118321682766,0.1871906991466986,1
51,10.233366700033368,-0.6943093752792489,-0.3207516612035039,-0.6442459648570042,-0.9185740509491869,-0.349694709336536,0.18421542602300386,1
52,10.433366700033368,-0.6942744958130331,-0.31678351779136354,-0.6462438605660311,-0.9215346632505484,-0.34318613857167385,0.18165114566102356,1
53,10.633366700033369,-0.6939997489849503,-0.31801109874468947,-0.6459359794004523,-0.9205776145884226,-0.34407195673368085,0.18480082280159457,1
54,10.833366700033368,-0.6938345528620263,-0.31809420948336903,-0.6460725092030329,-0.9204722924476313,-0.34401459868471396,0.18543115899976895,1
55,11.033366700033367,-0.6967054272975838,-0.31440259246753216,-0.6447887696166755,-0.9208630718905779,-0.34174262060073324,0.1876784060386058,1
56,11.233366700033368,-0.7001751822903328,-0.3134061330264087,-0.6415070614468186,-0.9216314192226428,-0.3368011251329077,0.1927706648088985,1
57,11.433366700033368,-0.7022528327645969,-0.31467005924064806,-0.6386107677541825,-0.9211403413113374,-0.3336899761062191,0.20037832082105136,1
58,11.633366700033369,-0.7064094208092324,-0.31652261511192503,-0.6330870116458502,-0.9202718894664614,-0.33129993946543673,0.20818261110867828,1
59,11.833366700033368,-0.9637411439167323,-0.1934267232976946,0.1838181444699785,-0.9198032844956889,-0.32801854203080993,0.2153270858831395,1
60,12.033366700033367,-0.9654902865476591,-0.18719659508282296,0.18106888570794524,-0.9224481697859062,-0.3136518697218263,0.22519298097106552,1
61,12.233366700033368,-0.9653741150091956,-0.18414318839357507,0.18478123345854444,-0.9204697607954642,-0.31667916796612117,0.22901904732451092,1
62,12.433366700033368,-0.9645857441791859,-0.19766653129185863,0.17464903244315838,-0.9181606647718696,-0.32749755072326614,0.22299405358874552,1
63,12.633366700033369,-0.9635007417355822,-0.267670195434407,0.004357424823169392,-0.9145679581968729,-0.3402196638921207,0.21866876809625851,1
64,12.833366700033368,-0.9238151219289553,-0.3436055889085772,-0.1688218580817636,-0.910765197390194,-0.34981336021259746,0.21940229770805145,1
65,13.033366700033367,-0.9150763990553692,-0.35077096817957054,-0.19898470236233243,-0.912339735477194,-0.34762907818303956,0.21631049690436654,1
66,13.233366700033368,-0.8994191809623059,-0.3811211708037664,-0.21399016351753494,-0.9137779556401938,-0.3451361096365923,0.21422164599065738,1
67,13.433366700033368,-0.9043841545477754,-0.37794671178107414,-0.19810498241280958,-0.9165915002513796,-0.3393853046439047,0.21137085101472539,1
68,13.633366700033369,-0.9024622511028956,-0.3814667841757964,-0.20011241317037556,-0.9170769549690247,-0.3405881215043192,0.20729107591717597,1
69,13.833366700033368,-0.9032081960245824,-0.38037072988380716,-0.19882922944496667,-0.9197773325218376,-0.33390656436238203,0.20619424059542404,1
70,14.033366700033367,-0.8849062480493296,-0.4287115548339335,-0.18206409562329845,-0.9226220878527688,-0.32537192879667237,0.2071269923436611,1
71,14.233366700033368,-0.8839002802325536,-0.4418238311652163,-0.15333622148502146,-0.9225962432492586,-0.32753490642398264,0.2038064204488857,1
72,14.433366700033368,-0.8887675866236799,-0.4193552790423458,-0.1850225037838269,-0.9230121472755428,-0.3267561517580929,0.20317232407499303,1
73,14.633366700033369,-0.8522045387550015,-0.4999652897512516,-0.15421456860271893,-0.9236505899629395,-0.32426274114254877,0.2042627287779994,1
74,14.833366700033368,-0.9312836526247674,-0.295266700300176,-0.2133736957727401,-0.9225950908121465,-0.328527887398251,0.20220713541062146,1
75,15.033366700033367,-0.933281708672113,-0.2936859847201846,-0.2067215388801958,-0.9232022610986632,-0.32434997879940447,0.20614236914118808,1
76,15.233366700033368,-0.9309917102980019,-0.2995179167222919,-0.20867068054410592,-0.9225746049576881,-0.3266223646964413,0.20536292062412526,1
77,15.433366700033368,-0.9291160539945835,-0.3074938907892258,-0.2054041512161775,-0.9227669453814179,-0.32656798773270646,0.20458375766335524,1
78,15.633366700033369,-0.9265141399841028,-0.3202668379417834,-0.19748595120739534,-0.9225338534049049,-0.325442216687747,0.2074093848389292,1
79,15.833366700033368,-0.9206958563358361,-0.3393027132098742,-0.19285437234981037,-0.9216194711642547,-0.3286994503833253,0.2063352167920441,1
80,16.033366700033366,-0.8086871154746571,-0.5866158726951566,-0.04366883519604216,-0.9219583277258993,-0.32879846873736496,0.20465680758974897,1
81,16.233366700033365,-0.8069659788552787,-0.5895696320558373,-0.03483615833708777,-0.9223401815339785,-0.32924128414206094,0.2022097088281233,1
82,16.433366700033368,-0.8093108313393199,-0.5869165747202663,-0.023343362985850356,-0.9224570833484977,-0.3269977445220393,0.20529345936410623,1
83,16.633366700033367,-0.8064432074221506,-0.5900469843301466,-0.03865112528212329,-0.9227798306781535,-0.3260958585570281,0.20527755631230837,1
84,16.833366700033366,-0.9472747279380255,-0.28567631747431904,-0.14511936963841957,-0.923088480321324,-0.32818880867025385,0.20049878643440303,1
85,17.033366700033366,-0.9425228590028984,-0.30692346462552295,-0.13209332730788417,-0.9236053867320415,-0.3273668611212775,0.19945933881159347,1
86,17.233366700033365,-0.9477977278144498,-0.2888540550639754,-0.135065917325074,-0.9307714997271178,-0.30835663267026464,0.1964194552074408,1
87,17.433366700033368,-0.9643577727037207,-0.22063744923607118,-0.14605889983331774,-0.9529197292858039,-0.23953189893623678,0.18592595012496385,1
88,17.633366700033367,-0.9814159076375408,-0.1233875751094914,-0.1469636776369645,-0.9718682376090382,-0.1446108417748248,0.18590275191045252,1
89,17.833366700033366,-0.9244812507614967,0.37805166618836866,0.04910554635330964,-0.9788573971109207,-0.07747933657670426,0.18930173936038583,1
90,18.033366700033366,-0.928871293627356,0.3696102040521797,0.024216047066948566,-0.9776872869402212,-0.07680113526864538,0.19552277252769548,1
91,18.233366700033365,-0.93908840616017,0.3429971784512312,0.021584739749327637,-0.9755367644742192,-0.10559517456087969,0.19281514533000185,1
92,18.433366700033368,-0.955814736986778,0.2934540186958634,0.017404811695175614,-0.9687295929204183,-0.15701037370941745,0.1921216238424766,1
93,18.633366700033367,-0.9789929899403429,-0.0392020996394588,0.20008978242660477,-0.9583753265310726,-0.21739560531861732,0.18508345221713354,1
94,18.833366700033366,-0.976923572761343,-0.09777335932730985,0.18989655918174544,-0.9450738409414488,-0.27426678653024317,0.17780091387434063,0
95,19.033366700033366,-0.9733973327465026,-0.13028261996447596,0.1884783052162407,-0.93547760165398,-0.30471793723417656,0.17896545904577824,0
96,19.23336670003337,-0.9645918073858267,-0.1816518931399616,0.19122038291670782,-0.9157511060224396,-0.35743827003362966,0.18340609295779972,0
97,19.433366700033368,-0.9202298408602142,-0.35228484971560575,0.17050637715709757,-0.837080181151586,-0.5237662566239928,0.1580053123958748,0
98,19.633366700033367,-0.6434954683243014,-0.7637504890205282,0.05097815970582311,-0.6751571921759304,-0.722502451422522,0.1488387501343664,0
99,19.833366700033366,-0.2763778829899528,-0.9323613054679988,-0.23306149802144788,-0.5146454145548495,-0.8362111785604421,0.18944910168228155,0
100,20.033366700033366,-0.08666888201613548,-0.958923737061666,-0.27009955829242344,-0.3383040392080959,-0.9291046397525569,0.14938187790277146,0
101,20.23336670003337,0.16037600249231282,-0.9455215028558526,-0.2833171817271168,-0.09879358200933075,-0.9874263412104377,0.12340603241954576,0
102,20.433366700033368,0.3385662603221716,-0.8940772070159586,-0.2932555801105957,0.12604655952374477,-0.987054273030799,0.0991772500317892,0
103,20.633366700033367,0.6556758530651419,-0.7549591761278049,0.011216866216752018,0.47530656680693095,-0.8744301828132903,0.09723951324088759,0
104,20.833366700033366,0.8142103635913399,-0.5804496269243671,0.011820085609738054,0.6621964836029081,-0.744329099800443,0.08642920972799648,0
105,21.033366700033366,0.9417455999066564,-0.3353741751758239,0.025286116380092854,0.8406544315785215,-0.5320019223630913,0.10136114279825725,0
106,21.23336670003337,0.9898515095154171,-0.12729486396306786,0.06316649997169436,0.9265204524507745,-0.34774225886135524,0.14364947821838595,0
107,21.433366700033368,0.9947282983362857,-0.022894050451937098,0.09995736562605985,0.9515239440797731,-0.24870013834333396,0.18097078502034408,0
108,21.633366700033367,0.9916450992519313,0.11343981570616815,0.061411768759566346,0.9771271968858368,-0.12712103326052868,0.17047781089866984,0
109,21.833366700033366,0.9303248181261387,0.36656546336810547,0.011202403505202017,0.9754118465136836,0.10896086754457256,0.19157050666712763,0
110,22.033366700033366,0.7835833301161138,0.6209631680895975,-0.020047659221758583,0.906990635520517,0.3929505201402502,0.15151856585777132,0
111,22.23336670003337,0.5791252818582248,0.8147095917578763,-0.02936305519435167,0.765908703876708,0.6266148574080673,0.14400582558136008,0
112,22.433366700033368,0.4165540344323728,0.9091063678823907,-0.002889337952067809,0.6310995199153151,0.7573530196583632,0.16771940727601495,0
113,22.633366700033367,0.2539851446137051,0.8131153336186207,-0.5237699882103166,0.4907234375102033,0.8539920660286836,0.17288163302742732,0
114,22.833366700033366,0.04909434375252447,0.850050352367741,-0.524408375077085,0.2760663311068009,0.9467734080615818,0.16555209034224797,0
115,23.033366700033366,-0.037271580701863316,0.8341617811468401,-0.550258986429041,0.1583141820177914,0.9732460187559516,0.16651968876900813,0
116,23.23336670003337,0.05361579592824273,0.9727742834415836,0.22546738101484842,-0.07922992574403298,0.9768570298711932,0.19867803617367014,0
117,23.433366700033368,-0.254099209308565,0.9512841581252273,0.17461970773294835,-0.3791091681587486,0.9144620749807781,0.14154628938913213,0
118,23.633366700033367,-0.7672929654673472,0.633481090148743,-0.09981589837437999,-0.5901540949138226,0.7914699795620992,0.15903903831580934,0
119,23.833366700033366,-0.8611403356632229,0.45282210655933247,-0.23106159807505977,-0.7046855815803009,0.695939512257491,0.1381536332914882,0
120,24.033366700033366,-0.8243202418598375,0.5528184114845147,0.12201615788032681,-0.7877175425347432,0.5973287781320158,0.15066321381922812,0
121,24.23336670003337,-0.8893584419879733,0.4333392106141075,0.14580360149553057,-0.8634603115793338,0.46996513039793075,0.18321863043199582,0
122,24.433366700033368,-0.9276693019299439,0.35116346194285486,0.126940494930184,-0.939372250044036,0.2728370400501262,0.2077010482012333,0
123,24.633366700033367,-0.9795913120806496,0.13361493389220658,0.1501596175311216,-0.9726651313232972,0.05873584346108678,0.2246611737723008,0
124,24.833366700033366,-0.9794258560169558,0.07470886717930028,0.18746620423489546,-0.9634316578395342,0.013231850646721504,0.2676272758913594,1
125,25.033366700033366,-0.9659712651076897,0.0839802874829514,0.24463610996852078,-0.9480763010702231,0.014568260500181505,0.3177091329109111,1
126,25.23336670003337,-0.937708619164045,0.05099981090351423,0.3436590822796138,-0.9360289070086643,-0.050373563062036886,0.3482992813495319,1
127,25.433366700033368,-0.9323941764947793,-0.07127975146757254,0.35434488379168605,-0.9266152786400327,-0.09332849514750681,0.3642443100233093,1
128,25.633366700033367,-0.9404697895077803,-0.09143865477925316,0.32734621952201026,-0.9333080712984207,-0.11268391449947322,0.34093750081546864,1
129,25.833366700033366,-0.7595933590052895,-0.4316838091464182,0.48648434494431636,-0.9394441006489668,-0.11262161442966148,0.32366827728263753,1
130,26.033366700033366,-0.9547222283279129,-0.1686365256783188,0.24508608476151966,-0.9451429815985937,-0.11204530798932509,0.3068396866321204,1
131,26.23336670003337,-0.9521013434231381,-0.09627811799575357,0.2902301773542029,-0.9481155000444594,-0.09934995812579835,0.30200427877076025,1
132,26.433366700033368,-0.9623314890638222,-0.2180524827103786,0.16239217943006728,-0.9517177485550501,-0.09141122978094328,0.29304831368776485,1
133,26.633366700033367,-0.9788003009512816,-0.19491485208653037,-0.06291399918751725,-0.955023449192666,-0.07623979084832161,0.2865618707775824,1
