,timeStamp,x_gaze,y_gaze,z_gaze,x_head,y_head,z_head,fixations_head
0,0.03333333333333333,-0.9859596229264789,-0.15783633254312762,0.05450976140115477,-0.9989521964821193,0.02060398331163034,0.04086545014120848,0
1,0.23333333333333334,-0.9922561003518009,-0.11809750913684136,0.038481289613404024,-0.9993130974629882,0.011262256885099136,0.03530573336983941,0
2,0.43333333333333335,-0.9970280405906929,-0.07212344585480754,0.027079417163451046,-0.999060692165097,0.03444956545432206,0.026286133428211705,0
3,0.6333333333333334,-0.9571965201868793,0.025235594201607932,-0.28833658548200497,-0.9957254733309941,0.0887534620901855,-0.025565694333885565,0
4,0.8333333333333334,-0.9171946719393781,0.12662142985180805,-0.37778426021778694,-0.9767566551153632,0.18540291719610846,-0.10757413714745856,0
5,1.0333333333333334,-0.8605007081184822,0.2413461454282673,-0.4486541757462073,-0.9339193474942804,0.30113184900961104,-0.19265062130164792,0
6,1.2333333333333336,-0.8062039262654632,0.3474421548569043,-0.4788728205928405,-0.879565031812076,0.41292027151430793,-0.23635186520518955,0
7,1.4333333333333336,-0.7473792248487591,0.46787482470894354,-0.47171754543163164,-0.7949599758126047,0.5577839284524572,-0.23857017000490136,0
8,1.6333333333333335,-0.447926554559968,0.8758323889324959,-0.17966476620871796,-0.5950676463184619,0.7753576185942849,-0.21145935683437012,0
9,1.8333333333333335,-0.46759443847380106,0.8722196016738576,-0.1434866110975813,-0.37284204600072673,0.9142531251642935,-0.1585245465576707,0
10,2.033333333333333,-0.21197680295016497,0.9649393764363715,0.15478318646937564,-0.20424871516743887,0.9778454453210813,-0.045833911215025336,0
11,2.2333333333333334,-0.48903366990508884,0.7995260031050045,0.34871799503050765,-0.2270175966564647,0.9669971014496712,0.11567029262631463,0
12,2.4333333333333336,-0.5150256067053047,0.7304526582719669,0.4485393388112688,-0.3347696807965016,0.9020480018595775,0.2724677286589231,0
13,2.6333333333333333,-0.47587846778541854,0.6649064272830072,0.5757075011287847,-0.4197290036867707,0.7916184510454319,0.44403579971500284,0
14,2.8333333333333335,-0.5033659126583503,0.5322024562615973,0.6807226333263418,-0.46814306958391116,0.6756207695175913,0.5695424849798398,0
15,3.033333333333333,-0.5527396806846379,0.3256997963964602,0.7670713708801478,-0.5453379658111588,0.5232302698182115,0.6548561580919193,0
16,3.2333333333333334,-0.5670451496928823,0.19902482946779654,0.799280248389194,-0.5976310313125782,0.4044217238845272,0.6923006714300743,0
17,3.4333333333333336,-0.5717466889647702,0.10006343014704827,0.8143052459643308,-0.6430923964059854,0.2783264314563353,0.7134189282865916,0
18,3.6333333333333333,-0.5461328190517918,0.16449053388760781,0.8213901680784309,-0.6663254478848906,0.16236009289095754,0.7277702918761106,0
19,3.8333333333333335,-0.5575833812314543,0.09403587785933627,0.8247775619218327,-0.6731736878969631,0.06527999201432559,0.7365973856631666,0
20,4.033333333333333,-0.5325765013404686,-0.3693683973095587,0.7615308643048647,-0.6676391964034604,-0.15247703779530616,0.7287034076844371,0
21,4.233333333333333,-0.5272337062427717,-0.43137501618877194,0.7320793771235794,-0.6076611759974139,-0.3815445414758334,0.6965426462575255,0
22,4.433333333333334,-0.29223082565901215,-0.7247805912926216,0.6239344829548772,-0.502183330142774,-0.5631837527871263,0.6562285909066465,0
23,4.633333333333334,-0.18413853003690844,-0.8786652098168408,0.44050022793793664,-0.3869428579005609,-0.7200805768701956,0.5759854056606233,0
24,4.833333333333334,-0.24071899887320547,-0.8678999647238111,0.43451583954315076,-0.3311222462141426,-0.7892078619468078,0.5172127306084504,0
25,5.033333333333333,-0.2911375180950483,-0.8277553733082404,0.4796456895634434,-0.26987126999031974,-0.8303493554735005,0.4875340454763692,0
26,5.233333333333333,-0.23720336739585957,-0.85462611727847,0.46189691724625315,-0.17645569581028003,-0.878057037778803,0.4448361786357133,0
27,5.433333333333334,0.4387829914467667,-0.8323086700274929,0.3387207761772118,0.08428817839114905,-0.9310933334103937,0.3549094355778998,0
28,5.633333333333334,0.6707733156883942,-0.6367497359740945,0.38028007139123043,0.34981626848008834,-0.8835171976145616,0.3114898711450806,0
29,5.833333333333334,0.8445281988963831,-0.44100606089198524,0.30378573950296905,0.6023795642825925,-0.7525988053690921,0.26595845294280446,0
30,6.033333333333333,0.9363748043051623,-0.3360752111938841,0.10127032281698028,0.7701992513999485,-0.5998070207092667,0.21685167984323342,0
31,6.233333333333333,0.9725554655167908,-0.22734250909717635,-0.049510100492917326,0.8846194728857448,-0.44006691109843354,0.1542384580694138,0
32,6.433333333333334,0.9035584046540879,-0.3861733830608757,-0.18561338204525643,0.9509070863764739,-0.3003738101324134,0.07450696118848386,0
33,6.633333333333334,0.7941405550294662,-0.4679109529006472,-0.38781454203407606,0.9522564492001564,-0.3032879895697911,-0.03498643079001441,0
34,6.833333333333334,0.7514525130881824,-0.5133764335157065,-0.4144439142805075,0.9145400114586897,-0.3823144624693788,-0.1321068477706216,0
35,7.033333333333333,0.800319404236789,-0.4771768645162292,-0.3630304273370648,0.8819350640705311,-0.42036434954987634,-0.21327061773816375,0
36,7.233333333333333,0.8819703060185099,-0.21725196981962264,-0.41824629216660103,0.8813195699723091,-0.37256295487137947,-0.2906418074560692,0
37,7.433333333333334,0.8899425256542248,-0.15562690947014207,-0.42869868915236026,0.8968224502570664,-0.2890635007052,-0.33489070646252117,0
38,7.633333333333334,0.8308313767765854,-0.17006872104740411,-0.5299017394619726,0.907140201708349,-0.2180181596769556,-0.3599510195785111,0
39,7.833333333333334,0.8463210400534497,-0.12085923004624331,-0.5187810170731736,0.916605564363747,-0.17230896475236096,-0.36075457037075287,0
40,8.033333333333333,0.8664243260451037,-0.0739152450612532,-0.49380707142043145,0.9290646693028293,-0.13194331280860783,-0.3455861722614407,0
41,8.233333333333334,0.935959912763035,0.21420293337944413,-0.27945687508496486,0.9510316647461878,-0.042105555301944216,-0.30621217295007963,0
42,8.433333333333334,0.8548355440083044,0.4656636295283731,-0.22894011626293945,0.9592198167083732,0.09159368656997754,-0.2674096853415661,0
43,8.633333333333333,0.8231023505993027,0.5248520005092634,-0.21687069419201557,0.9535124192559333,0.18901341163930951,-0.23470832227504498,0
44,8.833333333333334,0.816688269122239,0.5428413831310472,-0.19581497347877425,0.9491913208555163,0.23312583266406003,-0.21139579597818173,0
45,9.033333333333333,0.7450331033311965,0.6294070914957725,-0.2208447149368064,0.9549798691540513,0.2274973757671822,-0.1904163688592885,0
46,9.233333333333334,0.8384271247158039,0.5253993141066856,-0.14489829977268193,0.9732525400740601,0.16210990573841855,-0.16278781189287816,0
47,9.433333333333334,0.919246661629805,-0.16262439613231916,-0.3585231943194996,0.9886531023512591,0.03946458309111199,-0.14493995271378998,0
48,9.633333333333335,0.9958814418752703,0.08960310684453826,0.013836075030119414,0.9933372875624391,-0.0262966557033523,-0.1122030259704054,0
49,9.833333333333334,0.9716941829464737,-0.10778744013391522,-0.21021960559701133,0.9922642865567872,-0.07022600359432778,-0.10237135362551038,0
50,10.033333333333333,0.8629945578075471,-0.33641438147316427,-0.37691611418535087,0.9687453321432979,-0.19520989198276162,-0.15305417185640546,0
51,10.233333333333334,0.8960778443341932,-0.28793399681839393,-0.3378439142112389,0.9427962629683343,-0.2670604934171635,-0.1995342060618303,0
52,10.433333333333334,0.8559489424237529,-0.4103178697877703,-0.31462780184924155,0.9061031395902801,-0.37303909183335804,-0.1995468275587989,0
53,10.633333333333335,0.8256171990793771,-0.45174975179300264,-0.33805088720381293,0.8682291756342306,-0.4341454183990636,-0.24019961336481502,0
54,10.833333333333334,0.8208703040137031,-0.44845761128016437,-0.3536350023305661,0.8526667695384681,-0.4467299073096136,-0.2709091545887242,0
55,11.033333333333333,0.937949066557613,-0.01454748241056236,-0.3464677752680859,0.9011185230006469,-0.32336855355962385,-0.2888220664594203,0
56,11.233333333333334,0.942577591708685,0.05383847124881178,-0.32961932986741915,0.9309771561802985,-0.23135219146178246,-0.28241405449494755,0
57,11.433333333333334,0.9483812090768693,0.017887027514848598,-0.31662775702167867,0.9465807328420295,-0.15352896992756804,-0.2835732208887615,0
58,11.633333333333335,0.7767042639449138,0.3030021950783499,-0.5521957589003117,0.9498539435627796,-0.050373840647523746,-0.3086097245335179,0
59,11.833333333333334,0.7310697888424229,0.37490768558293214,-0.5700712158430246,0.9395277905993179,0.06014908261494463,-0.3371492526347123,0
60,12.033333333333333,0.6889467569035819,0.3566235412017433,-0.6310087289513239,0.9128315775914662,0.19219094105334641,-0.36027927102305585,0
61,12.233333333333334,0.6630186155149062,0.3957119737942252,-0.6354670324073278,0.8752536895724243,0.2963505403168181,-0.3822398934488502,0
62,12.433333333333334,0.4400417955967155,0.594233157651859,-0.6732385702521204,0.8067466571333296,0.42735612103452375,-0.4080766803169761,0
63,12.633333333333335,0.3495932361717269,0.6335286150215762,-0.6902362372201442,0.7269006074078284,0.5366613886517239,-0.42849744559394237,0
64,12.833333333333334,0.3790200304904369,0.6306948218088743,-0.6771763863503371,0.6383264241214064,0.6361682966459993,-0.4333927486828854,0
65,13.033333333333333,0.17686414444928836,0.7032665790467967,-0.6885747549860054,0.5558104659453744,0.7011584240586246,-0.44660003394224285,0
66,13.233333333333334,0.14243491797970123,0.7039889367714647,-0.6957814822510718,0.4908044561256518,0.7398373397528455,-0.4601648580179024,0
67,13.433333333333334,0.09160274128341608,0.6807679654779059,-0.7267488665064683,0.41888256036508,0.7663595909812089,-0.48706301228189114,0
68,13.633333333333335,0.057086695470851545,0.661720588618095,-0.747574057735513,0.3565914226652889,0.7819600431827068,-0.5112543869222492,1
69,13.833333333333334,0.009259024746135575,0.6295182246103437,-0.776930547310499,0.299698740286123,0.783289159430537,-0.5446455340765353,1
70,14.033333333333333,0.241827858357976,0.5569896017786956,-0.7945324854481438,0.2547228468926785,0.7834136171511796,-0.5669033213282441,1
71,14.233333333333334,0.24481615308604576,0.5660968097675886,-0.7871463988097188,0.24614588232684964,0.7920965571543898,-0.5585653486904637,1
72,14.433333333333334,0.2563768377504166,0.5847536991950697,-0.7696323981894077,0.26040914442379365,0.8074323628447838,-0.5293770460941402,1
73,14.633333333333335,-0.04093113949893107,0.9379836254666183,-0.34425478961928474,0.24749150972048106,0.8423058966144196,-0.4788201427935711,1
74,14.833333333333334,-0.09672640394329246,0.9474815574251335,-0.3048322507863021,0.20041572249761203,0.8812784296318941,-0.42799750891950605,0
75,15.033333333333333,0.02302770676980176,0.9843666957539718,-0.17461939471700108,0.17050208373382925,0.9182810056331416,-0.35733602412268584,0
76,15.233333333333334,0.03501855174663676,0.9941774815147364,-0.1019060169106039,0.1806424018327792,0.939782275834655,-0.2901337565453579,0
77,15.433333333333334,0.08205562640428798,0.9936471283956333,-0.07702115557761836,0.23329513407699737,0.9386142674415549,-0.2541193368698049,0
78,15.633333333333335,0.7172954008443371,0.5088236593023231,-0.4760102852478666,0.33519405949540254,0.9133607837445246,-0.23112122619218767,0
79,15.833333333333334,0.517431577424267,0.7318215501629166,-0.44351074553090697,0.4469072006321824,0.8524602004435684,-0.2712665860050173,0
80,16.033333333333335,0.5758026333545925,0.6655017840690652,-0.47493020837045963,0.529543176251662,0.7952911947420007,-0.2951202128813655,0
81,16.233333333333334,0.6869368455757228,0.44130656926396367,-0.5773788029664287,0.6224654539865949,0.7102928172139167,-0.3286652893257518,0
82,16.433333333333337,0.6680946181090415,0.4892263069467083,-0.5606310746337732,0.7116037434045179,0.6142380537101997,-0.3410743698183476,0
83,16.633333333333336,0.7730387272015345,0.2816978137342327,-0.5683814458477557,0.7849159659337613,0.5084400451687855,-0.3541124777398193,0
84,16.833333333333336,0.7960696894731517,0.20819216703931168,-0.5682684850364268,0.8397560512983663,0.40261223160616144,-0.36429818180836765,0
85,17.033333333333335,0.7844325174072918,0.25824336559513905,-0.5638935979066922,0.8643763983207301,0.3083601784168668,-0.3971994994870975,0
86,17.233333333333334,0.852514987351132,0.054422501759559684,-0.5198618928561026,0.8771308217724079,0.23329270267366747,-0.41978093855733417,0
87,17.433333333333337,0.853899367547123,-0.0021589084850257073,-0.5204336741764283,0.8898941428907866,0.14685912820027058,-0.4318805516724838,0
88,17.633333333333336,0.8517275809266464,-0.03708600804840605,-0.5226707911256157,0.8936063437489691,0.0740017020403273,-0.4427092166498619,0
89,17.833333333333336,0.6857830737884123,-0.09406256076997557,-0.7217020232524725,0.8807013023549382,-0.013563141048642355,-0.47347783183081577,0
90,18.033333333333335,0.6618843138748197,-0.11582142196761798,-0.740604181233038,0.8648744193832573,-0.08039228188678933,-0.4955091519936931,0
91,18.233333333333334,0.6621844719164305,-0.1478502520080731,-0.7346101198145226,0.8557002023096076,-0.15172893328131498,-0.494727697397883,0
92,18.433333333333337,0.7820930845649547,-0.2932449117762842,-0.5498525518654928,0.8468562371478299,-0.22983811960413075,-0.4795924857424851,0
93,18.633333333333336,0.7885985212185015,-0.3177595188068219,-0.5264420770983735,0.8399007386114956,-0.292040939944056,-0.45747004128845054,0
94,18.833333333333336,0.903397162972422,-0.27685606934098644,-0.3274511914811705,0.8432013712343991,-0.3358442220635615,-0.41978578591342347,0
95,19.033333333333335,0.8614685133117725,-0.4066824799202482,-0.3041074828055393,0.8512584734744848,-0.36378976703323457,-0.37817458499983214,0
96,19.233333333333338,0.8585230658471555,-0.4633778123967736,-0.21958858892661381,0.8601951222691819,-0.3934926549698551,-0.3243884740694131,0
97,19.433333333333337,0.8628150700617132,-0.4751661661232701,-0.17253193746699166,0.8700697538759438,-0.4135732599684956,-0.26820846748245325,0
98,19.633333333333336,0.8607079251344276,-0.4878234234982265,-0.14563713502145867,0.8742682952700834,-0.4343638107944561,-0.21675568679428092,0
99,19.833333333333336,0.8747918762147485,-0.41372274093709344,-0.2521362071186503,0.8702087881327293,-0.45494156340024966,-0.1891159404902281,0
100,20.033333333333335,0.852518983673309,-0.43057556946591663,-0.29633774895502324,0.8388732930891044,-0.4967585340740712,-0.22253664185122632,0
101,20.233333333333338,0.5427376371614248,-0.6470721424674102,-0.5354750224343519,0.7604554473248462,-0.5708024883537818,-0.30966438594565465,0
102,20.433333333333337,0.5744915321270456,-0.6353363298363656,-0.5160496366672265,0.6552303250887432,-0.6585114890085513,-0.3701835219561243,0
103,20.633333333333336,0.5375071350477298,-0.6499190714032139,-0.5372999910656666,0.5664330981831436,-0.7071597446308605,-0.423176843478305,1
104,20.833333333333336,0.380460940673955,-0.6582633398889884,-0.6495682011765076,0.5083443236317242,-0.7226780748344541,-0.46831874699287046,1
105,21.033333333333335,0.3356568434672794,-0.654671476748719,-0.6773032858072032,0.44660445662295534,-0.7383868685999739,-0.505301188998839,1
106,21.233333333333338,0.39813837885370656,-0.7094626412029811,-0.5815054531309511,0.4200752198554699,-0.757738693241225,-0.4993684836155156,1
107,21.433333333333337,0.5617010402181151,-0.6949145825226472,-0.4489829221866495,0.4209553751877498,-0.7721923368661338,-0.47593651570956463,1
108,21.633333333333336,0.5764730273801528,-0.7039285106227544,-0.41492589776439887,0.4360595763141828,-0.7841844017489649,-0.4414825817156479,1
109,21.833333333333336,0.5347703407731836,-0.7334391194146103,-0.4196280981317319,0.4538419573765245,-0.7907441899551726,-0.4107932616009947,1
110,22.033333333333335,0.6390849131345288,-0.6827864223263044,-0.35408074685116314,0.47515213105814263,-0.7967240112923966,-0.37344517961952445,1
111,22.233333333333338,0.6267269491054123,-0.7036537158156152,-0.3347906502336941,0.4895682671447234,-0.8065773294596817,-0.3312943153852784,0
112,22.433333333333337,0.6067039971313031,-0.7284153886635595,-0.318310039777283,0.4964661529134515,-0.8170538087991495,-0.29316280892725904,0
113,22.633333333333336,0.5680921844912404,-0.7703672894784812,-0.2894918120112355,0.47264210082888924,-0.8470127764710271,-0.24326693367347751,0
114,22.833333333333336,0.5549731027729368,-0.7832306171476172,-0.28027603458223543,0.4737474307544639,-0.8542940142952817,-0.2138810627259866,0
115,23.033333333333335,0.7223046047199104,-0.5783503020594906,-0.3791925449004905,0.533675043289245,-0.8185731655180389,-0.21243568641826563,0
116,23.233333333333338,0.7967619411769203,-0.35343631549675675,-0.4901562811798528,0.6170874082359804,-0.7539003043306259,-0.22547164284404017,0
117,23.433333333333337,0.809308521420188,-0.31414581624566135,-0.49631857036788,0.6781119919394223,-0.6941962156439154,-0.24136226004414113,0
118,23.633333333333336,0.8199175915009227,-0.24843127196059075,-0.5157684037039976,0.7401937251680637,-0.6192407882646799,-0.26201926526719993,0
119,23.833333333333336,0.7821222305906169,-0.30887211369216616,-0.5411865055591201,0.7791728150029029,-0.5585979502366072,-0.28435550698362244,0
120,24.033333333333335,0.8279012053127617,-0.09272179646306633,-0.5531566348714789,0.8132266748469104,-0.48818721673326304,-0.31675797817208623,0
121,24.233333333333338,0.8503007323745774,-0.17055732970414023,-0.49789442837558534,0.8426521124050903,-0.41634126053630116,-0.34146357380295034,0
122,24.433333333333337,0.8555732280582509,-0.1453780020900691,-0.49684976395112085,0.8639958475206063,-0.35436032304953224,-0.35768692583791883,0
123,24.633333333333336,0.8555588137871921,-0.14866070253660527,-0.4959023206967027,0.872050397182991,-0.3303406611180685,-0.3611137665404976,0
124,24.833333333333336,0.8593520962448198,-0.12488589370058296,-0.49590068384127145,0.8856744630340078,-0.28520873938925084,-0.3663832972522309,0
125,25.033333333333335,0.8495584718117448,0.23662606626312238,-0.4714430058212058,0.9103879030779382,-0.19067409656585377,-0.367201926503866,0
126,25.233333333333338,0.8494162428172211,0.2894774455029365,-0.4412423993491224,0.9280310432207395,-0.10052403610565154,-0.3586827302556613,0
127,25.433333333333337,0.9605295365342434,0.1195776286253136,-0.2511656827228962,0.937292629484073,-0.04249782465988284,-0.3459428588856983,0
128,25.633333333333336,0.9705170102263295,0.13618073944929548,-0.19887568746428008,0.9519886312143861,-0.020339864714589255,-0.30545692976580463,0
129,25.833333333333336,0.9743207450523733,0.10720663183820758,-0.19800460562950348,0.9551860870709442,-0.03706380605250789,-0.2936763751938537,0
130,26.033333333333335,0.978496826901017,0.03739234499275567,-0.20284420691896496,0.9508530969563173,-0.10857656391451255,-0.2899819266387102,0
131,26.233333333333338,0.730532457070889,-0.38412720661857686,-0.5645959779358858,0.9231838871614994,-0.23298548548640466,-0.30569473995809726,0
132,26.433333333333337,0.7148976992689642,-0.4320459116498167,-0.5497796011190487,0.877110050218479,-0.34117320772328996,-0.3380514785318028,0
133,26.633333333333336,0.6554513453633795,-0.5082111109246976,-0.5586635844531307,0.8145414457160508,-0.45358326845727354,-0.3616413303072857,0
134,26.833333333333336,0.6881163325321535,-0.5124284438897487,-0.5137246371308556,0.7487073344245992,-0.5526825204008783,-0.3660319098414021,0
135,27.033333333333335,0.6625648425895062,-0.5542375777408127,-0.5038139902626166,0.6782386467947279,-0.6381213041277436,-0.36440847851328056,0
136,27.233333333333338,0.43863335755198307,-0.7904047180146576,-0.42762268342879534,0.6055343937711918,-0.7086776528778042,-0.36208297705327447,0
137,27.433333333333337,0.39431264980187186,-0.8146409567256264,-0.42529712652612917,0.5410757279359061,-0.7555036777214255,-0.36939308275606625,0
138,27.633333333333336,0.1570445267162524,-0.7795205460359251,-0.6063701303134261,0.45587444603104443,-0.7957926864764914,-0.39861320801802047,0
139,27.833333333333336,0.09571912440508668,-0.7582887883910913,-0.6448534427476484,0.350523241010302,-0.8234882183836162,-0.44609484607537414,0
140,28.033333333333335,0.1373168571379682,-0.7694461879202374,-0.6237761174017212,0.2461158504221005,-0.8406657315839942,-0.4823982959250104,1
141,28.233333333333338,0.010400732504947108,-0.7394321354624449,-0.6731507571182026,0.18766471384352684,-0.8445123514283718,-0.501578352267071,1
142,28.433333333333337,-0.008873686998579489,-0.7236589138175128,-0.6901007420163444,0.16607895345402923,-0.8393886341745239,-0.5175369571714102,1
143,28.633333333333336,0.06688785282509072,-0.7229365281251685,-0.6876691002559129,0.10495463491861368,-0.8343257177504532,-0.5411886189761306,1
144,28.833333333333336,0.10257110400178188,-0.7192895169451248,-0.6870966157948278,0.10629454567009233,-0.8238714793354027,-0.5567200868465981,1
145,29.033333333333335,0.10909616472810915,-0.7198195958770812,-0.6855346645013461,0.1005896875059255,-0.8180408433698524,-0.5662957649022293,1
146,29.233333333333338,0.03925405228937956,-0.7737467889666144,-0.632277649409432,0.11377165811633261,-0.8150641959286674,-0.568090104054467,1
147,29.433333333333337,0.039026376439158295,-0.7844831122044806,-0.6189209873707638,0.11065807835847719,-0.8258606550569605,-0.552909547867368,1
148,29.633333333333336,-0.01708856489237215,-0.8025850577260059,-0.596292886143096,0.0810027809680936,-0.8453197733192899,-0.5280843022765015,1
149,29.833333333333336,0.003295503921931453,-0.895039878844645,-0.44597393974498506,0.032340439207787175,-0.8719822811617397,-0.4884680105511684,0
150,30.033333333333335,-0.02498566388955753,-0.9227174520348572,-0.38466637533101194,-0.02333707289280751,-0.9018096846889175,-0.43150280836869537,0
151,30.233333333333338,-0.07503644649809083,-0.9337879779995008,-0.349870753051099,-0.0813273558948237,-0.9188750223269043,-0.38607584038228526,0
152,30.433333333333337,-0.41889394572103167,-0.8181351455774354,-0.3939324127426612,-0.18883449345778908,-0.9105334337253238,-0.36779124534022234,0
153,30.633333333333336,-0.4791414790758658,-0.7962690742142486,-0.3692952808782905,-0.3050221271656459,-0.8855824556156678,-0.3502930433866319,0
154,30.833333333333336,-0.4302982188063388,-0.8286138586996212,-0.35810964251611044,-0.38001198996772784,-0.8636977379712616,-0.3310847397632414,0
155,31.033333333333335,-0.5050386448059323,-0.8161682457129821,-0.28072292735432375,-0.44334264374124577,-0.8474015863284317,-0.29216066081623776,0
156,31.233333333333338,-0.5331075239919427,-0.8058551006476383,-0.2576701857479155,-0.4914122258924304,-0.8276784510721655,-0.2710394913554634,0
157,31.433333333333337,-0.459130364966326,-0.740377167288949,-0.4909592224646363,-0.534121508748358,-0.7974697105849469,-0.2806354834869228,0
158,31.633333333333336,-0.46953000429893704,-0.7183927565623079,-0.513277139936944,-0.5652912133658488,-0.7678934117206219,-0.30130640936997977,0
159,31.833333333333336,-0.48421208036926433,-0.6967633651049713,-0.5292064571337595,-0.5936007134395773,-0.735252334572927,-0.32717303909259626,0
160,32.03333333333333,-0.4959390549458861,-0.679450743632455,-0.540732041548016,-0.6164319425144471,-0.7062391491477051,-0.3481923670314889,0
161,32.233333333333334,-0.7068090471330544,-0.5049402571196872,-0.4954354727214917,-0.6508020022759498,-0.6705378541917127,-0.3561400566204093,0
162,32.43333333333333,-0.789145747612117,-0.3794086657259333,-0.48300937195646654,-0.7022012057088347,-0.6151723627237674,-0.35843609031725077,0
163,32.63333333333333,-0.7937339477651566,-0.4262841337943822,-0.4338989023266975,-0.7411448292953817,-0.5668429172777247,-0.359713009412779,0
164,32.833333333333336,-0.8080140559239286,-0.39574128096684125,-0.43646549000818624,-0.7807838614106577,-0.5157005782468421,-0.35274562414938,0
165,33.03333333333333,-0.7288066310981058,-0.5306895204036993,-0.4326771630224103,-0.810991450383354,-0.49146339169998504,-0.31742180458161845,0
166,33.233333333333334,-0.6962052386917508,-0.3388176168065996,-0.6328513950049083,-0.8406495405716654,-0.49909846574179567,-0.2102595335076007,0
167,33.43333333333333,-0.7775244783727061,-0.6000241919022032,0.18821969786225778,-0.8476624333917333,-0.5256398315322366,-0.07191082340765612,0
168,33.63333333333333,-0.7471878959815782,-0.6067710499863994,0.2711810114979013,-0.8342225279568953,-0.5490914345549672,0.050708681185523775,0
169,33.833333333333336,-0.6780181449174295,-0.6179169215320317,0.39808299793774793,-0.7939674761473028,-0.5789658626201104,0.1855105839051605,0
170,34.03333333333333,-0.5798121054494165,-0.6243655586614606,0.5234363108647286,-0.7247118637595682,-0.6124682954332149,0.31571395536983327,0
171,34.233333333333334,-0.48656435065766285,-0.6188273714255929,0.6166910223471541,-0.6505219710582841,-0.6328541170954871,0.41990097838149487,0
172,34.43333333333333,-0.36545811223405883,-0.6368371464647096,0.6788805617227558,-0.5374189643841285,-0.6824373696230973,0.4954392932158276,0
173,34.63333333333333,-0.22987936240837548,-0.6654100239134362,0.7102006609502972,-0.39836754780372,-0.742209010964029,0.5389147250731311,0
174,34.833333333333336,-0.09173895927682146,-0.673682098506298,0.7333051162394519,-0.2585853175245233,-0.7823932357684081,0.5665637282641577,0
175,35.03333333333333,-0.03139769814003229,-0.6870889288734807,0.7258946124410899,-0.18640958556702017,-0.8090847080233732,0.5573449575007067,0
176,35.233333333333334,0.017418072491025338,-0.726549603791534,0.6868932114827332,-0.13340842363951116,-0.830216767923988,0.5412414532903663,0
177,35.43333333333333,0.006537372616396753,-0.7447590876702754,0.6673014042333599,-0.1364000082667029,-0.8551991364156325,0.500029473950086,0
178,35.63333333333333,-0.24472093684353152,-0.8109114550572354,0.5315395329863828,-0.21532968303991018,-0.8885315134754426,0.40514796946667686,0
179,35.833333333333336,-0.2902875822639027,-0.8560772844863348,0.4276269432225723,-0.27152211747730387,-0.9202567169631303,0.28178593755700887,0
180,36.03333333333333,-0.576988221586018,-0.8040612914348167,-0.14342256366129938,-0.3700934059948539,-0.9201623320603467,0.12779731412041695,0
181,36.233333333333334,-0.6065774648712758,-0.7631592556787675,-0.2228266805886716,-0.47556504481724254,-0.8793026166187953,0.02578364899144687,0
182,36.43333333333333,-0.4159715150757827,-0.8308544040902551,-0.3696601924056533,-0.5493996627739655,-0.8326820110767196,-0.06928693219563882,0
183,36.63333333333333,-0.5139167629637941,-0.73393665942036,-0.4441019485475136,-0.5885526160699031,-0.7966710546732189,-0.13755380315765456,0
184,36.833333333333336,-0.5624539455519529,-0.6666855407407629,-0.4890561817421772,-0.6709962163394869,-0.7123610749201794,-0.20568368091965605,0
185,37.03333333333333,-0.6881461366910127,-0.42876522404721373,-0.5853334752130417,-0.7140300471994503,-0.6490361740964246,-0.2625131166449148,0
186,37.233333333333334,-0.7060308091566945,-0.36811850436976773,-0.6049869942917021,-0.7698087340188826,-0.5574452650817119,-0.3108846883753291,0
187,37.43333333333333,-0.6970854539038238,-0.32309374479331127,-0.6400642952322328,-0.8069997654611797,-0.46718370890625704,-0.3612350490722003,0
188,37.63333333333333,-0.699624062326625,-0.3467758591108258,-0.6247180763764884,-0.8325827438633313,-0.38535628323511034,-0.397877505763053,1
189,37.833333333333336,-0.7076688061423517,-0.3076276697419488,-0.6360582344582904,-0.852804792739872,-0.2974014877549464,-0.4292742020679193,1
190,38.03333333333333,-0.7060040293098258,-0.3200716321403842,-0.6317534811121197,-0.8544867435935157,-0.280347001603226,-0.4373304971243494,1
191,38.233333333333334,-0.6875172352237146,-0.3568344136056216,-0.6324470353611216,-0.8397003428351131,-0.31203034417109105,-0.4444551704717414,1
192,38.43333333333334,-0.6532253489068212,-0.436894642274262,-0.6184009339397918,-0.8287632637459785,-0.32772527102411086,-0.4535940910079038,1
193,38.63333333333333,-0.6474238025838086,-0.4553325480187134,-0.6111584823617421,-0.8185215124336754,-0.35295302479530943,-0.45326228165503707,1
194,38.833333333333336,-0.6290130186232357,-0.5070123417006609,-0.5893056149110555,-0.794711808376991,-0.4140544150309379,-0.44383790173841736,1
195,39.03333333333333,-0.6033987973671048,-0.5666962551599102,-0.5610394333054187,-0.7632928439213891,-0.4773158872665876,-0.43537751225954285,0
196,39.233333333333334,-0.5045905166093433,-0.7365799436852374,-0.45037583983665097,-0.7271491694622574,-0.53891816375835,-0.4252308762562728,0
197,39.43333333333334,-0.45903894696363556,-0.7744833575308873,-0.4352686228964832,-0.6758774324247842,-0.6106732404691825,-0.4126352986763852,0
198,39.63333333333333,-0.4748095215391268,-0.7710934111190048,-0.4242297367991109,-0.6050361640036601,-0.6873515539940757,-0.401844598656826,0
199,39.833333333333336,-0.25033276332426546,-0.8661404149005687,-0.43259020941568754,-0.5332962489905804,-0.7514224898277629,-0.388534879507133,0
200,40.03333333333333,-0.2312360418132683,-0.8721441807907272,-0.43115475282014903,-0.4758703832774436,-0.7899103040615336,-0.38676748810725364,1
201,40.233333333333334,0.018824435166455655,-0.8207460134522536,-0.5709830313090726,-0.4106874749042295,-0.8239684764432044,-0.39039947205990533,1
202,40.4,0.06139047612854098,-0.8157435791517113,-0.5751466095818241,-0.34409947345238684,-0.849718839851569,-0.3994664511208593,1
