,timeStamp,x_gaze,y_gaze,z_gaze,x_head,y_head,z_head,fixations_head
0,0.04,-0.9978951055767167,0.05545772742180955,-0.03361247886190749,-0.9969317396828759,0.0672583642859962,0.04004271277582079,0
1,0.24000000000000002,-0.9973101495720889,0.0592791588771939,-0.043109707529861,-0.9970738765883741,0.06911212592751428,0.03266800689989124,0
2,0.44,-0.9964649826709129,0.07219159763177802,-0.04296407268903325,-0.9960093882799743,0.08322551298192533,0.03223061350714166,0
3,0.6400000000000001,-0.775541149111187,0.6301437478443263,-0.03814161884354061,-0.9776728497780452,0.2022549135580915,0.05699779599672758,0
4,0.8400000000000001,-0.5887202234639096,0.8036608992076744,-0.0868196842272361,-0.9004280934793265,0.43485361393647254,-0.011470959836690114,0
5,1.04,-0.5367002780719751,0.8393444467114953,-0.08633487876888879,-0.7763833622467732,0.628026822931301,-0.0530206045345812,0
6,1.2400000000000002,-0.488007720489254,0.8687353886913799,-0.08454164168100366,-0.6605750985643197,0.7474102549120217,-0.07084101925499302,0
7,1.4400000000000002,-0.2914208128506098,0.883538257166799,-0.3666525030054278,-0.5033700323615193,0.8570003114005215,-0.1103135385153256,1
8,1.6400000000000001,-0.25770144360003633,0.8845553888961479,-0.38878236835180924,-0.3991477551761624,0.9066767010984398,-0.13644936505195385,1
9,1.84,-0.3991916720873728,0.844824538384294,-0.3562548361494225,-0.3755510760867923,0.9154938876604906,-0.1443340947466443,1
10,2.04,-0.41336344199619923,0.8428533200225012,-0.3445706687286399,-0.386761334584423,0.9128614645428966,-0.1307655024196895,1
11,2.24,-0.32118765972982893,0.9430304193339207,0.08678776093531432,-0.3968117613168952,0.9114137994027158,-0.10892801448153694,1
12,2.4400000000000004,-0.5032696062650759,0.8640441490691283,0.0121413289718049,-0.40889904164754604,0.9081962483656609,-0.0893372721447048,1
13,2.64,-0.46560491524303105,0.8844181907155008,0.03188301794137418,-0.4074154215515237,0.9110610810129957,-0.06309026030557988,1
14,2.8400000000000003,-0.43897937903553724,0.8972881785968035,0.04659430578949245,-0.40175780562078567,0.91453862255378,-0.04700822779265273,1
15,3.04,-0.43643176615307394,0.8983998516937483,0.0490410029379518,-0.41217957776687586,0.9104122708308637,-0.03546114482796732,1
16,3.24,-0.5648543840096504,0.8193460414470843,-0.09803871291521156,-0.42905234767432093,0.9025918826414523,-0.035241684762685216,1
17,3.4400000000000004,-0.5583334083155844,0.8248081725242044,-0.08919239707500459,-0.44753563836927507,0.8934722838690906,-0.0376713465004432,1
18,3.64,-0.4819737187678713,0.8756614262624645,-0.030305131134111787,-0.45945501907845626,0.8874238488466749,-0.0371483235391556,1
19,3.8400000000000003,-0.3205590184637559,0.9472221914416744,0.003469253808158927,-0.46701280625886765,0.883696570809952,-0.031295519311059256,1
20,4.04,-0.3522715462816411,0.935866133478513,-0.0077031090035312305,-0.4658382873004144,0.88439230429682,-0.029067889252198508,1
21,4.24,-0.35087359625493497,0.9363898766779407,-0.007856099935724347,-0.4588678865870422,0.8880684252445048,-0.02783405724803756,1
22,4.44,-0.19970954380628148,0.9794063521883927,0.02965291563595267,-0.44336881056251365,0.8958958414851,-0.02819111615538714,1
23,4.640000000000001,-0.18720157435261536,0.9808327370376727,0.05406211719022699,-0.4263858345773806,0.9040892524390887,-0.02859621820941045,1
24,4.840000000000001,-0.1886495429892322,0.9806644721965024,0.052043663413611725,-0.417700775424044,0.9081993946538539,-0.026456034482245143,1
25,5.04,-0.20285336601342535,0.9783808916802621,0.04026589986525081,-0.4198543669993612,0.9072717185982626,-0.024090229208566977,1
26,5.24,-0.21989067180434568,0.9750056644551987,0.031812681963489096,-0.4297191618903714,0.9026544365738114,-0.02358834538182423,1
27,5.44,-0.23843300828781355,0.9702893113276848,0.04108957145153508,-0.4501004150918821,0.8926682359185059,-0.023516736939001342,1
28,5.640000000000001,-0.4843754867506982,0.8635523433198798,-0.14020605615225187,-0.46157253820652194,0.8867118927625715,-0.026321307091535878,1
29,5.840000000000001,-0.4769636548075096,0.869505385520326,-0.1283201330415932,-0.46732386352326716,0.8835553122456071,-0.030633589150711266,1
30,6.04,-0.1936135630699421,0.9806463651709324,0.02909458149553049,-0.42141556886235854,0.9063133848171333,-0.03170121167599291,1
31,6.24,-0.14259043868591592,0.9894200415862604,-0.02675720655824861,-0.20402776879753315,0.9771434928902532,-0.05969308051806745,0
32,6.44,0.41535096909738595,0.905748332447183,-0.08428244620922051,0.14827910890658358,0.9820143310995788,-0.11688096242295785,0
33,6.640000000000001,0.7735489742936553,0.6287001823808501,-0.0797374757784558,0.4896518289198213,0.8618223343803583,-0.13230022826384003,0
34,6.840000000000001,0.9441837993775871,0.3152343112427758,-0.09562573925569089,0.7919343763057834,0.5907934013765105,-0.15428253470546544,0
35,7.04,0.8571199040728615,0.5126375680005092,0.05047963863432786,0.8321263865248619,0.5335083539495685,-0.15144145111262788,0
36,7.24,0.9684359846104645,0.2465024878221673,0.036990096093995624,0.6953673063105901,0.7059179801144376,-0.1347000915571569,0
37,7.44,-0.3784024691561084,0.9256250695408139,0.0054591184383619585,0.07479730141044477,0.9965681580143779,-0.0354580052110256,0
38,7.640000000000001,-0.402089920001912,0.9155961313082642,-0.0027240716208908186,-0.250818865883781,0.9678744141933686,0.017578818692320152,0
39,7.840000000000001,-0.16376316910902838,0.9864131489490923,0.013066140352236069,-0.2700864422719853,0.9626649078991696,0.018154580698678126,0
40,8.04,-0.04286813073052975,0.9990318284579252,-0.009885802733474208,-0.17189398474894613,0.984900815740608,-0.02056310192100733,0
41,8.24,-0.012353627043621307,0.9998173122231793,-0.014585269201668898,-0.03588113006568888,0.9981816252099333,-0.048435396132015245,1
42,8.44,0.013463578266095733,0.9998439258381026,0.011439231832756917,0.02060861811297504,0.9976263194842979,-0.06570396891883694,1
43,8.639999999999999,0.012474942115741905,0.9998719234134235,0.010025596678024933,0.033715289351571864,0.9972320702156083,-0.06626822313471309,1
44,8.84,-0.4210368975327248,0.9067743173906162,-0.02209679245501778,-0.008981900608180438,0.9985856313374499,-0.052402884919167635,1
45,9.04,-0.40893018948409526,0.911450145285534,-0.045108012453230845,-0.06631433300454542,0.9966068238623329,-0.04875702892092175,1
46,9.24,-0.4100681607463238,0.91105595225566,-0.042674997383241785,-0.10055112958864604,0.9940141380431817,-0.04272427540307952,1
47,9.44,-0.3653196897426193,0.9306390130821793,-0.021273260581851697,-0.15381505364006715,0.9875076606119817,-0.03419867696789202,1
48,9.64,-0.3827234342689454,0.9238004351260303,-0.010748438134986106,-0.1941802046395698,0.980882598702641,-0.012781849963480694,1
49,9.84,-0.39804406987786833,0.9173244065637752,-0.008766502009403179,-0.21552148142129496,0.9764601699300228,-0.008719379920690197,1
50,10.04,-0.40149314472133263,0.9158482655894966,-0.005020872283400379,-0.22820779658914592,0.9736118506278938,0.0010797651852235998,1
51,10.24,-0.40646060318795413,0.9130978724082114,-0.03228085283387222,-0.2378370872899927,0.9713029017153,-0.002047688660604066,1
52,10.44,-0.5848075658061123,0.8086276620903927,-0.0641982482483427,-0.29003797849921314,0.9569408696377377,0.011922375814437,1
53,10.64,-0.5868495023887963,0.806444338306467,-0.07249269452480687,-0.32433294742524904,0.9458211020223206,0.015184932786603563,1
54,10.84,-0.6011964245014637,0.7962820465271424,-0.06706535279264253,-0.3617076925313944,0.9319404103172243,0.025585479893454263,1
55,11.04,-0.45836098251666046,0.8887572509635192,-0.003969706050855898,-0.41982796003434525,0.9053841541416549,0.06343514327721396,1
56,11.24,-0.44197772206152525,0.8967984514168159,-0.020204720678755683,-0.41246201489295653,0.9091016248945011,0.05838939873487358,1
57,11.44,-0.3118848187838776,0.9481925412902987,-0.060487721511010756,-0.39482936031948107,0.9170122459995501,0.05655366404195281,1
58,11.64,-0.3191899041781854,0.9455610761228688,-0.06349847550991544,-0.38300526117579387,0.9222135649461656,0.05318938372407502,1
59,11.84,-0.3120346929281502,0.9478936554973134,-0.06428038796690441,-0.36670557007595556,0.9289625637884785,0.05055274428560298,1
60,12.04,-0.3038613976953601,0.9504813805606298,-0.0652180665014026,-0.3493218418969414,0.9357739981165669,0.047971608506112914,1
61,12.24,-0.30613881255060416,0.9498155387803277,-0.064260950362894,-0.34393520312920883,0.9378314646551628,0.04669817931378306,1
62,12.44,-0.3086119280171745,0.9490793369385847,-0.06330158040475212,-0.3391286075620462,0.9395942562481328,0.046415742572386044,1
63,12.64,0.1301276895250506,0.9912058844882574,-0.024034953187460698,-0.3046035776998794,0.9513498102335107,0.04637023852749885,1
64,12.84,0.18283891293594712,0.9826668066609995,-0.030592139563536493,-0.2137418453067133,0.9763280918823384,0.033134280832301057,1
65,13.04,0.2210560482933539,0.9752351580145637,-0.007114076555350805,-0.12665084231634,0.9919368652754555,0.004562833337313769,1
66,13.24,0.2519551156329643,0.9677181449674179,-0.006341262271777333,-0.09377194111048587,0.9955486052851246,-0.009476158251885162,1
67,13.44,0.262845631685352,0.96483544969121,0.002174608720885221,-0.0803119181295115,0.9966852548976879,-0.01298069627906618,1
68,13.64,0.2610827971182124,0.9652798580274513,0.008400519950216257,-0.07674685027957562,0.9969657486913203,-0.01300833996019966,1
69,13.84,0.258186102850929,0.9659659041936923,0.015805322834802783,-0.0781807538679346,0.9968880913074535,-0.010094708218850178,1
70,14.04,0.26133505299086035,0.9650143351561681,0.02124436446126833,-0.0740270900969327,0.9972447423899321,-0.004786826445429554,1
71,14.24,0.15743975438708174,0.9787380651641148,-0.13147061853258699,-0.08143579740333734,0.9966769147656755,-0.0018271492706776005,1
72,14.44,0.17432309007907465,0.9786569043323744,-0.10882152299915908,-0.0899782302251213,0.9959419271562373,-0.001896264189268181,1
73,14.64,0.15925322478199433,0.9812493366121136,-0.1085732462203387,-0.09982463113320833,0.9950043563398034,-0.001172127950659582,1
74,14.84,0.07459687414739141,0.9971463955456514,-0.011591903111827263,-0.10589506609793353,0.9943762531994796,-0.001449844501690376,1
75,15.04,0.07358167407234384,0.9971680070092939,-0.015546801530362414,-0.11096749289889524,0.9938168468499224,-0.003780269436389672,1
76,15.24,0.06829911520174303,0.9973531869327376,-0.024936948044439664,-0.11400733768721588,0.9934396666318649,-0.008941796007674913,1
77,15.44,0.058788751908877446,0.9977169563054852,-0.033237896285948205,-0.11648145064913046,0.9931269778169506,-0.0114401742488815,1
78,15.64,0.045404261736161966,0.9983184254014098,-0.0360385144011806,-0.11976095869819703,0.9927087710657059,-0.013660476598738836,1
79,15.84,-0.0859107148479103,0.9959439029496975,-0.02674119016881257,-0.12869073021735322,0.9915737385305976,-0.014839710663587791,1
80,16.04,-0.11876508375217754,0.992920826405363,0.0017570918670186961,-0.15170326943831614,0.9882979825802313,-0.01591275179127693,1
81,16.24,-0.09459658088825262,0.9955062856671544,-0.004326902060240056,-0.15832010670644797,0.9872091307994854,-0.01878499077944336,1
82,16.44,-0.08229101331664934,0.9966044128013015,-0.0027988412409443763,-0.1606791234160055,0.9868547745301727,-0.017316849750066587,1
83,16.64,-0.06737308753436844,0.9977267827528702,-0.0014608400643334053,-0.15689259312192655,0.9874885333670342,-0.01584647254443521,1
84,16.84,-0.05853484897003197,0.998257327506948,-0.007481947256043169,-0.1535085237623292,0.9880543018213431,-0.01355838429344998,1
85,17.04,-0.05461632442646874,0.9982641978701476,-0.02203743081244992,-0.15069198942787654,0.988492569998813,-0.013204672635497168,1
86,17.24,-0.056123789068839025,0.9979397951188091,-0.03108513501314813,-0.15353722795117902,0.988063084484145,-0.012556301714476205,1
87,17.44,-0.06200938276314322,0.9974108479265124,-0.03642028127087842,-0.1621247200005404,0.9866945071474905,-0.012228030492167728,1
88,17.64,-0.057949531915560515,0.9974987883157024,-0.040472448152703254,-0.16152980480063633,0.9868171309900411,-0.010003606632248762,1
89,17.84,0.034639028481172784,0.9961591188389669,-0.0804185778278507,-0.17118323437346744,0.9851916920563338,-0.00967626852751074,1
90,18.04,0.04592396448793473,0.9973463966398483,-0.056490305320660225,-0.19136595501463044,0.9813533870317469,-0.01801668733860881,1
91,18.24,0.03377776427576412,0.9989684369394283,-0.030350035244244133,-0.1929805808117354,0.9807150475125226,-0.03092718888091531,1
92,18.44,0.4818698533653575,0.8186738810640781,-0.31236920603850926,0.10755325289170714,0.9758015689160776,-0.19037750889570557,0
93,18.64,0.6373705763326588,0.6788760253012772,-0.3645354450482344,0.35815428449322984,0.9068243859788496,-0.22224995274065965,0
94,18.84,0.6581445542405165,0.6206119021461408,-0.4262471262520147,0.49451328846171505,0.8333260890334806,-0.24703084194275102,0
95,19.04,-0.20946583442492933,0.9711214716455548,-0.11422412843895868,0.3111543592386034,0.9269449565046951,-0.20965689193852718,0
96,19.240000000000002,-0.37495638355309446,0.9256644123246933,-0.05052827117926013,-0.19111674565971098,0.9583036366181821,-0.21243476545238285,0
97,19.44,-0.9730347445624612,0.2033466020735132,-0.10887398816715879,-0.7635375132949199,0.6244014945904767,-0.16472170271275355,0
98,19.64,-0.965593773467428,0.2521076237208054,-0.06379977039756869,-0.9644803529844366,0.18968087396993732,-0.18384453964428046,0
99,19.84,-0.9939676767799174,0.02526386130438812,-0.10672391872830748,-0.9808987695819127,0.005588821886543775,-0.1944385993125091,0
100,20.04,-0.9947585610980609,0.033139839597816086,-0.0967323945405395,-0.9404422827164334,-0.2766218519881745,-0.19760734774227615,0
101,20.240000000000002,-0.949663277391903,-0.31288245403186044,0.01562784477368797,-0.8003042352074535,-0.5742137270399615,-0.1726028006374445,0
102,20.44,-0.3608774663403083,-0.9286145194775481,-0.08627009043279239,-0.6021644484280435,-0.7816637544458869,-0.16248000503111257,0
103,20.64,-0.11205615589101825,-0.9931485586432605,-0.033156573884252256,-0.43740115179109723,-0.884920967099891,-0.15998473176780145,0
104,20.84,-0.0981090169855538,-0.9950407814602915,0.01638487159000548,-0.23515187449518804,-0.9627874463539475,-0.13320634018185504,0
105,21.04,0.046544310904276964,-0.9986104814639857,-0.024713021521321113,-0.03845374407625057,-0.9913034954455451,-0.12585185530599982,0
106,21.240000000000002,0.05785028993358071,-0.9981084076054577,-0.020807465532794632,0.026928234533315665,-0.9916241096925611,-0.12631902177168017,0
107,21.44,0.15749331141902623,-0.9872422932736599,-0.023420316608343532,0.09286613826408169,-0.9895947530166382,-0.10990043296482312,0
108,21.64,0.03823916562523594,-0.9975195096903565,-0.0590981725554778,0.1351642783831712,-0.9853496007000235,-0.10400376074672155,0
109,21.84,0.28860670086540735,-0.9571974115105164,-0.02189263833237887,0.21563597883950608,-0.9702854305836837,-0.10976022880335247,0
110,22.04,0.2752781937378938,-0.9611428374860379,-0.0206485350979279,0.35300455694988564,-0.9291816233951317,-0.10958692220061084,0
111,22.240000000000002,0.3934193314852529,-0.919061644321561,-0.02338639670076187,0.5403473100891121,-0.8344803040965654,-0.10801576993367555,0
112,22.44,0.9319997012791139,-0.357448552575685,-0.060059046589087915,0.7073915893283326,-0.6965325793463419,-0.12016449249536172,0
113,22.64,0.9335479604708415,-0.3539627166286328,-0.05655617329355434,0.6853050667000976,-0.718597267730111,-0.11821561811365765,0
114,22.84,0.026802147512333174,-0.999618520790612,-0.0066676668420449225,0.44464681608720735,-0.8924990795767889,-0.07572715429813781,0
115,23.04,0.05292175323654408,-0.9985862207928956,-0.004984744420000424,0.15244179908829603,-0.9879799612867595,-0.025633844552412036,0
116,23.240000000000002,0.08719576453227834,-0.9961899633492874,0.0015670257742876749,0.02021469447884061,-0.9995743133926805,-0.0210370656860403,0
117,23.44,-0.2253374554081225,-0.9736796626133033,0.03421908536820919,-0.16676589388218332,-0.9855975364635899,0.02804697407170931,0
118,23.64,-0.44930998226794655,-0.8911145259229666,0.06352512513536772,-0.43205143327904394,-0.8992541693167868,0.0683629868269338,1
119,23.84,-0.3597773698498852,-0.933032560675365,-0.003238033889637831,-0.5670598626252271,-0.8219791949418512,0.05285182383044921,1
120,24.04,-0.3314889015747661,-0.9433468089445056,-0.014556997869520596,-0.5649823645278551,-0.8245729452552676,0.029570013959546424,1
121,24.240000000000002,-0.29099145776487445,-0.9566902932398299,-0.008225225137457189,-0.5293521568846431,-0.8480934458078682,0.022886703111479417,1
122,24.44,-0.3293065571034393,-0.9439708282351649,0.0218235398067415,-0.4909680713715676,-0.8705676605918494,0.03259296281895821,1
123,24.64,-0.37069907384270356,-0.9270123744860143,0.056835325300061225,-0.5006698684262725,-0.8642240358868367,0.049462093015631765,1
124,24.84,-0.4138410945290193,-0.9081542391949184,0.06317773588316201,-0.543819600696253,-0.8374440759259308,0.05429237142667317,1
125,25.04,-0.4618000989144207,-0.8848712920633593,0.06118386327090253,-0.5671133365491299,-0.821161183659924,0.06384961987628336,1
126,25.240000000000002,-0.5763602825773215,-0.8169945893476094,0.01812913798616101,-0.5701642392970709,-0.8182689947750835,0.07313407151640487,1
127,25.44,-0.4697712689717861,-0.8817272706565771,-0.043266326735019164,-0.5707988321870563,-0.816158636683929,0.08985417597487365,1
128,25.64,-0.45826202948222294,-0.8886147213636391,-0.018968112996729923,-0.5552035883383447,-0.824495193603557,0.10934647328953544,1
129,25.84,-0.4567234867421225,-0.8894609682618898,-0.016212421063487182,-0.5521999875097399,-0.8278549758955883,0.09864741597810954,1
130,26.04,-0.4528019850667767,-0.8914026541044039,-0.019278759690683073,-0.5600365830701038,-0.8239440780985847,0.08645913363801609,1
131,26.240000000000002,-0.4503329254119444,-0.8920666981229954,-0.03764654552355038,-0.5701114571626904,-0.8195230504020273,0.05792146641436295,1
132,26.44,-0.4097828786833995,-0.8915768008935636,-0.19279211717895878,-0.5771780840109332,-0.815088308930362,0.049965067622398586,1
133,26.64,-0.575404366628276,-0.792336250768671,-0.20276360763943416,-0.7549618297950554,-0.6549936253547244,0.03187453995240164,0
134,26.84,-0.9767567630737671,0.21281462667145362,0.025615629298283364,-0.9844249526899294,-0.16597075497884634,0.057976038267391485,0
135,27.04,-0.9992277300230836,0.03462944289642529,0.01856731638118855,-0.9927130744305637,0.09765782367183586,0.07059533504630096,1
136,27.240000000000002,-0.9979035216799169,0.04871400344629935,-0.042608770072062555,-0.9887578819040361,0.14918297686711912,0.010113870955736109,1
137,27.44,-0.99930926038407,0.005465161401591468,-0.036757776340494215,-0.9922277567172414,0.12443491277083357,0.00017687166547510202,1
138,27.64,-0.9533069143462289,0.2963133211663505,-0.05834674591645112,-0.9919095669117052,0.12694633076777545,-0.0002004336099567585,1
139,27.84,-0.9640573298673645,0.2597188375746356,-0.05603204563361993,-0.9919586325898833,0.12655924213287234,-0.0009107475843708182,1
140,28.04,-0.9702428065441339,0.23512476998756368,-0.057838040143643396,-0.9930585891417839,0.11748245054700066,-0.005701959768465692,1
141,28.240000000000002,-0.989958974435748,0.11278492706357451,-0.08521026441331182,-0.9925652704921547,0.12155616312762042,-0.006187327252303921,1
142,28.44,-0.9908220677179058,0.10662859382051251,-0.08307811446508787,-0.9936165174961815,0.1127140648326426,-0.004664305700042757,1
143,28.64,-0.9916587722834495,0.09635642681323124,-0.08560559774377254,-0.9950735522513666,0.09896457636032097,-0.005885425699911896,1
144,28.84,-0.9917062451798944,0.09928857202476796,-0.08161190315436913,-0.995046071764675,0.09937984074739314,-0.002638620607921148,1
145,29.04,-0.9918963859973644,0.09788519878764092,-0.08099411894497129,-0.9954118500733388,0.09566750114828543,-0.0017256759881172207,1
146,29.240000000000002,-0.9911992071547714,0.10170044867568703,-0.08474166905907013,-0.9952654258496129,0.09708184905588682,-0.004674044531108172,1
147,29.44,-0.9916489781995583,0.0906256844224233,-0.09175668563510715,-0.9959014114866478,0.08988625143952449,-0.010041932137463365,1
148,29.64,-0.9929204490390291,0.0713653803065604,-0.09495243216386215,-0.9967296762638633,0.08005958881714036,-0.01097336290136671,1
149,29.84,-0.9848453983782977,-0.11520212672509642,-0.12964571451115225,-0.9982287754767578,0.058010820097018606,-0.013193049755221937,1
150,30.04,-0.9459949593511163,-0.20171470918077977,-0.25378083651527583,-0.9996000084431393,0.01735272751878721,-0.02233172559688291,1
151,30.240000000000002,-0.9450064952209989,-0.2106760765988685,-0.25015658044319355,-0.9994685075718094,-0.009911177563300927,-0.031055932307511445,1
152,30.44,-0.9455553746015701,-0.20756783913762977,-0.25068032574938826,-0.9992981024296159,-0.019938384170880594,-0.03171377172812224,1
153,30.64,-0.946809065793825,-0.19944160717294918,-0.25253838967352193,-0.999264659471599,-0.01752150321011926,-0.034104798142889164,1
154,30.84,-0.9631605052579068,-0.05464742495416306,-0.2633163497719299,-0.9994295117149423,-0.00811216648649354,-0.03278481154631805,1
155,31.04,-0.9985770678402414,-0.0501563902623736,-0.018115631356225917,-0.9994165093575713,-0.007799949067947866,-0.03325359556596814,1
156,31.240000000000002,-0.9985485866265897,-0.04137790909428595,-0.03447591601430201,-0.9993353171542176,0.001044827475260466,-0.036439432265429776,1
157,31.44,-0.9989988771154803,-0.017897970117264662,-0.040998855931483495,-0.9986926507376562,0.03621679877100867,-0.036073991314713776,1
158,31.64,-0.9986367342394614,0.01665061849774579,-0.04947150625548275,-0.9947324906822472,0.08905240080435715,-0.050763588250566836,1
159,31.84,-0.9406847732658494,-0.1332545962790173,-0.31201822048767186,-0.9906847997444217,0.10817252819074849,-0.08271838792056622,1
160,32.04,-0.9421654095767756,-0.15629251256642565,-0.296474267876152,-0.9926814661723711,0.08359375947756359,-0.08715268265681167,1
161,32.24,-0.9731996718393892,-0.21463254503548107,0.0825546445894946,-0.994519607944182,0.057929442384418064,-0.08703406872932484,1
162,32.44,-0.9712892375970738,-0.22119618137641614,0.08757548899427735,-0.9949669112903663,0.04387435610332719,-0.0900882140672508,1
163,32.64,-0.969520822708123,-0.11447980684360173,-0.21661890074602527,-0.9950109818090258,0.04381240688170319,-0.08963045845397989,1
164,32.84,-0.9769157246386488,-0.09189922920806443,-0.19284760466416892,-0.9926391699626365,0.08307767680925071,-0.0881225162592727,1
165,33.04,-0.9125777920982963,0.40821133920683494,0.023775531791343847,-0.9458370707984263,0.3212173304750425,-0.04702831174878018,0
166,33.24,-0.540653374013925,0.840737432502266,-0.029231810700962937,-0.749471072643565,0.6616252331272587,-0.023348707882984154,0
167,33.44,-0.46019531206145237,0.8872937876422182,-0.03049605168196009,-0.5525586531133811,0.8324598459893929,-0.04110401056882728,1
168,33.64,-0.5504152503733996,0.8345531650426767,-0.023750092076430817,-0.5381151860725956,0.8420199212780528,-0.03787477642122688,1
169,33.84,-0.5641074516982545,0.8252050134098087,-0.028626365152068418,-0.5456454286255259,0.837085588274559,-0.03948144023590955,1
170,34.04,-0.09729760249452757,0.9919490561541338,0.08105705733457513,-0.5776204808743931,0.8156565530278316,-0.03254178202236037,1
171,34.24,-0.3136099235848918,0.9392772057593899,0.1393095351004786,-0.5832684451827125,0.8118639529936045,-0.02597773438427342,1
172,34.44,-0.6151853889541435,0.7883367555988903,-0.008490994591621273,-0.5974790897361855,0.8013395045022874,-0.029559023191709135,1
173,34.64,-0.4748118236934478,0.8797280559868113,0.025145170322903195,-0.5965202833498542,0.8020256664294387,-0.03030481711914003,1
174,34.84,-0.6511416567032492,0.7581790710206541,-0.03433713983438536,-0.5954162547487032,0.8031601722355483,-0.02032784581779045,1
175,35.04,-0.6111918640820845,0.7913458889032887,-0.014703380418493369,-0.6083701521359988,0.7934467690594663,-0.0181102915248751,1
176,35.24,-0.7468837281233633,0.6643199907956769,-0.029045593362467967,-0.7787304126125343,0.6263185409483063,-0.03611135190902112,0
177,35.44,-0.992847493740985,-0.11886198279564336,0.011210852694310101,-0.996308482975979,0.0791091196432617,0.03333397575104984,0
178,35.64,-0.9760768429812535,-0.1938866350381058,0.09839699868059981,-0.983650644159814,-0.17176495669405814,0.05411293649278032,0
179,35.84,-0.9694688839843933,-0.23976084943713694,0.05142779465656057,-0.951158538275328,-0.30722691003632874,0.030150635407414705,0
180,36.04,-0.43834352900627094,-0.898661784832066,-0.016184778675457465,-0.7875376335579851,-0.6159969259368958,-0.01822808180207669,0
181,36.24,-0.30809335869548676,-0.9464188067052977,-0.09679837107232205,-0.4828456430606261,-0.8746561989999471,-0.04285578757105917,1
