,timeStamp,x_gaze,y_gaze,z_gaze,x_head,y_head,z_head,fixations_head
0,0.04,-0.9938059023005703,-0.07022215023742578,-0.08613174890005142,-0.993079748779387,0.033382502754136054,0.11259760687572322,0
1,0.24000000000000002,-0.9941895101790736,-0.07515966295808128,-0.07705999554841161,-0.9934765884135706,-0.004063693237911121,0.11396383054022567,0
2,0.44,-0.9888831625423876,-0.11251004923408728,-0.09721923503869527,-0.9940727046458138,-0.06659805246324943,0.08593111942863862,0
3,0.6400000000000001,-0.7572877629365284,0.6160601342933745,-0.2167605938380361,-0.9409180331302102,0.33857170225935157,-0.006515931213723764,0
4,0.8400000000000001,-0.5968447535119591,0.7477867335048323,-0.2908459066231159,-0.7094398203007176,0.7017751746890836,-0.06485942924349179,0
5,1.04,-0.6015343853103141,0.7582471653787951,-0.2514311426302735,-0.6625238331486021,0.7470572593339367,-0.05447588261378299,0
6,1.2400000000000002,-0.4976790204154553,0.843030049414295,-0.2039998245657189,-0.5232253899158629,0.8517886573583904,-0.02629210039124816,0
7,1.4400000000000002,-0.5206875470470409,0.8496932406872088,-0.08310159493418211,-0.42244289067384055,0.9063887886115064,-0.0011696146782593038,1
8,1.6400000000000001,-0.4657382996008925,0.8799741695425605,-0.09345211192236645,-0.3670145440029105,0.9301627949296586,0.009874179407998576,1
9,1.84,-0.4111541755141079,0.8488217222671365,-0.33234609635854956,-0.3635325459562553,0.9315698293384244,-0.004662734920797464,1
10,2.04,-0.42022144313480486,0.8438016472199109,-0.3337854383861991,-0.38382335008795904,0.9234003457642812,-0.0033819180448485344,1
11,2.24,-0.43446750057955436,0.8451753537811137,-0.3113143303818894,-0.3934441029507154,0.9192935369182222,0.010056382733963648,1
12,2.4400000000000004,-0.3715317208405364,0.9278024750582825,0.03386366319515757,-0.36728891089759824,0.9251463716371571,0.09593251262350722,1
13,2.64,-0.27945444341586295,0.9598284771381598,0.02518945274854816,-0.33744361282081836,0.9270780276134385,0.16327320319884195,1
14,2.8400000000000003,-0.2989403829183171,0.9541138954765354,0.01735862665193154,-0.3539289671629545,0.9196621928949248,0.17016385386639069,1
15,3.04,-0.33627301146494526,0.9416962332523479,0.011343105334826893,-0.35365081445240765,0.9201724634823739,0.16796945819382833,1
16,3.24,-0.3663959778650416,0.9304130464571112,0.009249345204778513,-0.36241850361080097,0.9169128368049408,0.16710379392109603,1
17,3.4400000000000004,-0.3866433625052364,0.9221720880001336,0.010273769713127464,-0.3762670392702993,0.9107852201403694,0.16998058104566552,1
18,3.64,-0.55636747263399,0.8286982788540599,-0.06094586137865038,-0.4034619792522961,0.9013342942139364,0.15752752575878742,1
19,3.8400000000000003,-0.5560157364595306,0.8284904190709471,-0.06670926709995112,-0.41835604077321925,0.8950748735675471,0.15433468131497885,1
20,4.04,-0.3977749708728586,0.9138253660564666,-0.0818429770894305,-0.42285420115307676,0.8931990592162933,0.15293712820084565,1
21,4.24,-0.3943278980170635,0.9152522168650018,-0.08257656065218788,-0.4223028652972291,0.8934594898680835,0.1529393014447719,1
22,4.44,-0.23891562363757102,0.9696108208871042,0.05267049269284255,-0.409516675852416,0.898516388597574,0.15800123930007737,1
23,4.640000000000001,-0.22558701187379526,0.9727877589811367,0.05286280403374922,-0.3853372313706065,0.9082083470687156,0.16331814484112667,1
24,4.840000000000001,-0.22669132598723324,0.9724977727620657,0.05347078356421767,-0.37805852870289675,0.9102687399923713,0.16876779866936067,1
25,5.04,-0.24045915570438592,0.9692971993170896,0.05140363638868554,-0.3853419466783334,0.9065840771992492,0.17209559872041477,1
26,5.24,-0.2534906394034881,0.9659702462459241,0.051419637322720715,-0.396027857378385,0.9014952942111926,0.17455134114454882,1
27,5.44,-0.40956232680187216,0.9076425478470619,-0.09188963925454689,-0.40472357484745525,0.8974712092363216,0.1753404019460178,1
28,5.640000000000001,-0.4296360471076674,0.8977878795215978,-0.09690093090270993,-0.4091485074037694,0.8950501747491109,0.17743360327416446,1
29,5.840000000000001,-0.2418657132994017,0.970109053207258,0.019733261653591388,-0.4073396285350433,0.8956119681646787,0.17875578173900764,1
30,6.04,-0.250291435703494,0.9679802442361005,0.019194894688518364,-0.4135893230405446,0.8930267221802551,0.1773334298400983,1
31,6.24,-0.5555249916605923,0.8299527695147512,-0.05069895477515975,-0.5286055237546123,0.8319365337183535,0.16869441046105577,0
32,6.44,-0.7460299545942002,0.6638771865293921,-0.05202295699010876,-0.7303040989274079,0.6657512570400864,0.15307248883902075,0
33,6.640000000000001,-0.9368357608370019,-0.349743680192875,0.004256216876479195,-0.9888646937495044,-0.051681945500894506,0.13955498545355496,0
34,6.840000000000001,-0.29827685179157354,-0.9542358148378252,-0.021562220806302802,-0.6128543849551895,-0.7795759152114282,0.12911582111987915,0
35,7.04,0.23519889737975114,-0.9710471361981666,-0.041820305506877896,-0.11257040839512633,-0.9886559904849405,0.09943457965917228,0
36,7.24,0.3193555603638466,-0.9458439280652388,-0.058234781761533065,0.23165166746187377,-0.9695617365606704,0.07929403482980968,0
37,7.44,0.3742871174766507,-0.9272839196933225,-0.007327070984232117,0.3757650538099852,-0.9237088215981828,0.07458308948330963,1
38,7.640000000000001,0.3813261880951279,-0.9244267326743993,-0.0050551152087479675,0.4169594334884717,-0.9057313843368463,0.07612811735641987,1
39,7.840000000000001,0.3607816865729982,-0.9326455468348394,-0.0029763404856238502,0.4081011332106849,-0.9097339089258416,0.07640471204489556,1
40,8.04,0.35255471194238924,-0.9357391530242183,-0.009869781392605755,0.40008398989689264,-0.9138124741828262,0.0698538692990248,1
41,8.24,0.3548748182576746,-0.9348634906781281,-0.009701400089061464,0.3926975750457867,-0.9157719160525964,0.08456011070543429,1
42,8.44,0.0409033380858142,-0.9983780218238,0.039601041307438044,0.33106742414351253,-0.9377182950873656,0.10525568739704158,1
43,8.639999999999999,-0.16850512520540945,-0.9854542454246048,0.022044340637277653,-0.10425327734976991,-0.9816303881397423,0.15979059810405344,0
44,8.84,-0.9987462358552334,-0.04989625917706491,-0.0040397630052272085,-0.9212953879346866,-0.33539978000713666,0.1967785449215439,0
45,9.04,-0.12302573575299891,0.9911835929142397,-0.04919098982590194,-0.49749458807869995,0.8554795593184324,0.14371450316772283,0
46,9.24,-0.1353462564202786,0.9866485972791414,-0.09058662351649421,-0.06407931900379243,0.9960298445504218,0.061793119688789554,0
47,9.44,0.0835911252741684,0.9863794470307787,-0.14166195766914014,0.022506507846098922,0.9996976908979546,0.00989868263311683,0
48,9.64,0.31110729937176346,0.9420899658556675,-0.12521479350170694,0.29185316840250625,0.9564336611955598,0.007508650043491649,0
49,9.84,0.6289175105004856,0.7752305177239361,-0.05899499449402197,0.4640652949304212,0.8857204520430498,0.011944993670833785,0
50,10.04,0.4594289406099729,0.8876234330172507,-0.03239891493041882,0.38505237111852336,0.9216105710087664,0.04866854118318086,0
51,10.24,0.4172791926918014,0.9081739619019088,-0.03313804867322516,0.3435635755229174,0.9367944512885495,0.06618327287838187,0
52,10.44,0.37700698650016573,0.9261231701803571,-0.012712426406838307,0.2880036264198308,0.9539501360474659,0.08386327625396116,0
53,10.64,0.015763636444875606,0.9998217717164104,0.010389060010022867,0.2818562578586837,0.9563885933589115,0.07666751853856907,0
54,10.84,-0.1379569456289132,0.9904145309655444,-0.006851131661407662,0.12728771975963732,0.9878920049748663,0.08869736695714897,0
55,11.04,-0.06021853944499356,0.9958098411367761,-0.06882214616139726,-0.0926899312038017,0.9906880216540849,0.09972873409680139,0
56,11.24,-0.4300277108132644,0.9024360416396284,-0.026179356036813175,-0.23762270617850417,0.9668764871908769,0.09319500000447775,0
57,11.44,0.2183854930831594,0.9745869680832189,-0.049880036619718446,-0.0820115208718677,0.9936839394756173,0.07659202877911792,0
58,11.64,0.8265555733581753,0.5568529853824175,-0.0819794902474234,0.6829477822181821,0.726569015549004,0.07536439747930208,0
59,11.84,0.9710241056248051,0.208895150859531,-0.11608187732338454,0.9788984621299782,0.20428380671389004,0.005091871369726025,0
60,12.04,0.9842102868626028,-0.1580526278207699,-0.07968361232262286,0.9984625453630168,-0.055427466642550334,0.000584336200314361,1
61,12.24,0.9895600752603618,-0.1366435578934772,-0.04581916124198943,0.9948407858812766,-0.09421736091893909,0.037615151848624594,1
62,12.44,0.9984022348480673,-0.05248953050764328,-0.020924307335536817,0.9967010662971243,-0.03331322114226382,0.07400820048685192,1
63,12.64,0.9988584296524746,0.04216782069751356,-0.022443538264163586,0.9951096539372687,0.057487653235606964,0.0803240086544017,1
64,12.84,0.9929504213416912,-0.11533667127159584,-0.02732970942666143,0.9951764961568651,0.0587099628150963,0.07859314068794619,1
65,13.04,0.9930434457239096,-0.11600651535660773,-0.0201792789663562,0.9945523516823429,0.06421894674112147,0.08210692201381545,1
66,13.24,0.9726840455864587,-0.09164838933187391,-0.21327522170761753,0.9932654241130937,0.0888663327204939,0.07434091854589087,1
67,13.44,0.9671482645300786,-0.09796502767585868,-0.234578532199614,0.994712505631549,0.09027925749328379,0.04895596803932488,1
68,13.64,0.9600789678730884,-0.13500650381683657,-0.24499310066795707,0.9980662553282839,0.0536796818038763,0.03134073605408317,1
69,13.84,0.9628995783150182,-0.1094809657313372,-0.24665425239248293,0.9964991313735891,0.08021436688999604,0.023561335193902567,1
70,14.04,0.9745204769525346,-0.04352297518431759,-0.22003543039999196,0.9867121744722371,0.15881024005337677,0.03432772061262974,1
71,14.24,0.9974206950475513,-0.06684822452725304,-0.0261394714639277,0.9768292348914153,0.21095840565325025,0.036072107585934196,1
72,14.44,0.9973548117723567,-0.06765731922366043,-0.026568149916668265,0.9742441139591821,0.22373392442013734,0.028134275882856864,1
73,14.64,0.9991053481145141,-0.03043630466999307,-0.029362130832266378,0.963985536107136,0.26387415401089437,0.03320115993865528,1
74,14.84,0.9997393752596155,-0.006523329161759637,-0.021877562299327635,0.9532156081607185,0.2997938832792618,0.03877669283386779,1
75,15.04,0.9995009225116249,-0.015158582797618692,-0.027715036820807434,0.9521724023785754,0.303063941881066,0.038986706453898116,1
76,15.24,0.971153489722041,-0.23490827430466446,-0.04097562768166248,0.9678852099643758,0.2480161442365703,0.041063518239929084,1
77,15.44,0.9641999617086112,-0.26129919413951347,-0.04517925390213719,0.9804921271452529,0.19283369120803742,0.038083541606056585,1
78,15.64,0.9700138950881264,-0.23687340309267696,-0.05444294484371399,0.9812093543527565,0.1894852128607469,0.036380723436515536,1
79,15.84,0.9804454620043997,-0.19396531520766613,-0.033228790699777355,0.9745703190914086,0.21917354029727015,0.04664388898485206,1
80,16.04,0.9980803979671069,0.05008366292860884,-0.03643001374519064,0.9684048853014834,0.24378690634248293,0.05253496378776968,1
81,16.24,0.9958464523387754,0.07552846372268802,-0.05084579168393477,0.9606306491822951,0.27243035195547005,0.05450191909484374,1
82,16.44,0.9936272128570501,0.10755511273136822,-0.03371734858011947,0.9434329364501962,0.32456705949302583,0.0677533638501492,1
83,16.64,0.99354967938125,0.11173917076200394,-0.019323361996168176,0.9319394717187545,0.35434580933633986,0.07699265197629795,1
84,16.84,0.9946252834481442,-0.10303478391997593,-0.010216595727675304,0.9493798355664118,0.30283217970436954,0.0834901117222456,1
85,17.04,0.9912432672464305,-0.12927942562247585,-0.026900097571285947,0.9636594208256858,0.2572653838715621,0.07193777113117882,1
86,17.24,0.9921134013414807,-0.1207839600778842,-0.033499759201257986,0.9662011052144683,0.24844910360500186,0.06876385096990384,1
87,17.44,0.9966970297749046,-0.0753530076908849,-0.0302812659877457,0.9556812288769918,0.2867705443812892,0.06660363088767933,1
88,17.64,0.9967932330083531,-0.07191834398851077,-0.035085644168310885,0.9544782186116598,0.291773128830572,0.061965889716289815,1
89,17.84,0.9975125474236742,0.05864651960626655,-0.03910630985408407,0.938405304468553,0.34165739991120087,0.05163047192501902,1
90,18.04,0.5604391661186443,0.7920393829541349,-0.24203627193020583,0.7277993371522331,0.6836599334145493,-0.05401129774764298,0
91,18.24,0.5314336773670365,0.6692400538810753,-0.5193226327066864,0.5339383937572426,0.7889517173516066,-0.3040805474868233,0
92,18.44,0.538805563693581,0.6825819667481615,-0.4937311244017886,0.45948656797383625,0.8195311384379572,-0.34240444941941256,0
93,18.64,-0.30595479716693236,0.8767167551678504,0.3711595254045043,0.2712736755638179,0.9430138840965614,-0.1927054938168939,0
94,18.84,-0.18032742128156481,0.9811826747801135,-0.0690114472046714,-0.04148424826920899,0.999111649618842,-0.007414090736919002,1
95,19.04,-0.2915251835350265,0.9565600776751955,-0.0024259354675915056,-0.1552395581410979,0.9840934615316059,0.08637556690927273,1
96,19.240000000000002,-0.20410371327804727,0.9773230599965582,0.056403108292688436,-0.10680460898618299,0.98476799234111,0.13720341380508153,1
97,19.44,-0.0765482730376908,0.9769621214781463,-0.19921188491620348,0.005866233087323591,0.991218911907461,0.13210093105786247,1
98,19.64,-0.21289953187216476,0.9766478652384228,-0.028857176816950728,-0.06666654526886001,0.9900676424584265,0.12378059257706031,1
99,19.84,-0.24996555315769692,0.9662840352263128,-0.06174451798597593,-0.133426547635546,0.9842212535103076,0.11621480338002631,1
100,20.04,-0.2686679974959708,0.9606393054181515,-0.0706373272939793,-0.17087990328410174,0.9786039583339133,0.114605197904863,1
101,20.240000000000002,-0.30435435022732416,0.9493450463695661,-0.078181918825712,-0.21384725627700474,0.9711940423146543,0.1051260346218719,1
102,20.44,-0.31168652417366155,0.9468540222554598,-0.07949195674531277,-0.22891075131580912,0.9681634767721108,0.10128845036118718,1
103,20.64,-0.2979628965703067,0.9511574806102899,-0.08073140248081274,-0.2217743338154679,0.9705853689275762,0.0937026492924629,1
104,20.84,-0.2756096501362507,0.955063970614312,-0.10905105586925032,-0.20952518033955803,0.975428092454496,0.06811193180536822,1
105,21.04,-0.2590644677490841,0.9578176555829047,-0.1243822342762497,-0.19903648329728968,0.9784952255248991,0.05414399266423842,1
106,21.240000000000002,-0.25927904746735936,0.957145760937125,-0.129020803998854,-0.20187039443131743,0.9782305197857825,0.04809775474783283,1
107,21.44,-0.2683043869657859,0.9549910793073707,-0.12651005643132593,-0.2103476227951644,0.9764418890372406,0.04811564109318867,1
108,21.64,-0.2741982744848942,0.9543201412834674,-0.11869445736937241,-0.2096141898664915,0.9765656245600998,0.04880033129146764,1
109,21.84,-0.2774309456429616,0.9544669186983303,-0.10965843109477326,-0.20559146333473044,0.9773072381408184,0.05101678627128439,1
110,22.04,-0.2863496577720452,0.9524088032909989,-0.10450523866123006,-0.20833186529288034,0.9766397524871021,0.05265574769691728,1
111,22.240000000000002,-0.28819759518587523,0.9519481884897368,-0.10361849526115953,-0.20495225180368382,0.9775182802586168,0.049523592769868514,1
112,22.44,-0.2860225629019627,0.9522842681947055,-0.10651650604421643,-0.20112389076584508,0.9785387602625336,0.044845013402528264,1
113,22.64,-0.28063801957702117,0.953124998952526,-0.11311515521642054,-0.19814199252317893,0.9793418507904119,0.0403644656765654,1
114,22.84,-0.28166183838719466,0.95260468066488,-0.11493881490474968,-0.2022729610858211,0.978503851548745,0.040197782499113564,1
115,23.04,-0.2813896608682132,0.9527474371742458,-0.11442106324614618,-0.2029143090179319,0.97831921885277,0.041440188453741506,1
116,23.240000000000002,-0.28632106934149915,0.9507947340332971,-0.11836223631586394,-0.20841341120759038,0.9773229970770636,0.03746477563154152,1
117,23.44,-0.4919320871710714,0.8682639066372705,-0.06419197802294453,-0.2378463840613434,0.9707283139677585,0.03340116839658568,1
118,23.64,-0.6763054175285449,0.7314239068888307,-0.08735016115050775,-0.4001132213605186,0.9159383633353687,0.031085763028031937,0
119,23.84,-0.7012861520486756,0.7072218262724693,-0.08963828082128447,-0.5866370726469141,0.8094392237220503,0.025789301977830283,0
120,24.04,-0.7481845592490679,0.6568172338278271,-0.09386685596119312,-0.6907703296446227,0.7227306508602441,0.022288068327860372,1
121,24.240000000000002,-0.6823313347914917,0.7264745953292994,-0.08160031803119644,-0.7212700058236846,0.691845627344842,0.033454545624240314,1
122,24.44,-0.6878500946692071,0.7218114905835581,-0.07648803386873548,-0.7309183855059747,0.6807931137303865,0.04773939700734228,1
123,24.64,-0.6730953471981852,0.7361545307635482,-0.07084603317373944,-0.7156723255685994,0.6959165014684766,0.05927347972835892,1
124,24.84,-0.6570487711124029,0.7502757678802113,-0.07330200891817802,-0.6989999076733111,0.7130610999141608,0.05424939503727145,1
125,25.04,-0.6276593450108653,0.7756340119650804,-0.06660049627056347,-0.6772121461810289,0.7337602092538182,0.05458630213412411,1
126,25.240000000000002,-0.6053274720578298,0.7933374952846558,-0.06476318512508572,-0.6567478426026316,0.751878227102248,0.05797760642152822,1
127,25.44,-0.5839390787972447,0.8089746836006197,-0.06763958564851157,-0.6324994719499017,0.7722223628597554,0.0601418347108899,1
128,25.64,-0.5800011793672313,0.8115635498282829,-0.07045024146684695,-0.6257709658892019,0.7779084608206492,0.057176261103221715,1
129,25.84,-0.5886777558999231,0.8048263862818194,-0.07558430824700643,-0.6296628992914965,0.7752827266404425,0.04961176300826178,1
130,26.04,-0.5883623205416716,0.8052176992095873,-0.07385280391723943,-0.6276314435219975,0.776993246842529,0.04858256336998232,1
131,26.240000000000002,-0.5680531481270984,0.8190856175674166,-0.08008977461010063,-0.6062012632671712,0.794294315725338,0.040206571847183896,1
132,26.44,-0.5303954409271545,0.8442303577381668,-0.07717369575818059,-0.5680115367636662,0.8219867167974826,0.041239926186572386,1
133,26.64,-0.5199112014315284,0.85076196922629,-0.07678811330036685,-0.5566075909178622,0.8297959135161279,0.04033276142974457,1
134,26.84,-0.5241595195660657,0.8488256240966501,-0.06893372124877639,-0.5590412920478349,0.8278592378445916,0.04606426055913336,1
135,27.04,-0.5169855033929032,0.8537736602923682,-0.06161595793752401,-0.5478046282519253,0.8350065979645425,0.05171141674186578,1
136,27.240000000000002,-0.512973823845907,0.8566407660047635,-0.05499503675496915,-0.5407448387479832,0.8392803165389406,0.05660008513874613,1
137,27.44,-0.6065315237380796,0.7914359461115241,-0.07581987809618006,-0.5502316308137862,0.8330886607493809,0.05664305590983165,1
138,27.64,-0.6168695114818932,0.7811375741926484,-0.09641626412859744,-0.5674300638563492,0.8219974878187183,0.04840715496386888,1
139,27.84,-0.6182673050582409,0.7774404147503965,-0.11546402473823472,-0.5786351330666925,0.8145409584170225,0.04128449880971938,1
140,28.04,-0.6084420331698027,0.7806344675674852,-0.1428569925408824,-0.5853301546704504,0.8102483519446251,0.029769417268158967,1
141,28.240000000000002,-0.5896685297669957,0.7916629534075763,-0.15987743181707553,-0.5787418711194972,0.8153540248259613,0.015989396899477405,1
142,28.44,-0.5717258285461402,0.8035714708848803,-0.16553690873379112,-0.5677344506255745,0.8232015711074382,0.004094740421919674,1
143,28.64,-0.5715623653660105,0.8038110023664184,-0.16493736681511956,-0.5714518417527235,0.8206345420223392,-0.001319468531642205,1
144,28.84,-0.5730698172766344,0.8033118739343824,-0.16211421196969783,-0.5773029198100277,0.8165149171779853,-0.004972806515879087,1
145,29.04,-0.5649251998830584,0.8088678058194889,-0.16307173650222764,-0.5744683566937003,0.8184850291706295,-0.008268263493240792,1
146,29.240000000000002,-0.5440132171217879,0.823680305655586,-0.16000116772049874,-0.5579279718580937,0.8298694807953445,-0.005746569653254422,1
147,29.44,-0.523584604114264,0.8379912306967007,-0.15372006898885598,-0.5397425758473612,0.8418279407041185,-0.0019157420283399866,1
148,29.64,-0.5133436019381785,0.8463963562183727,-0.14174468077991048,-0.5297631853521042,0.8481337321113668,0.004487750041709774,1
149,29.84,-0.504917591748201,0.854225872988329,-0.12392087580599498,-0.5219566629293365,0.8528464359456669,0.014635529318905027,1
150,30.04,-0.49128521474588904,0.8662488642507125,-0.09083910477562361,-0.5083463133092213,0.8602548894455355,0.039313495519643,1
151,30.240000000000002,-0.42459466976569277,0.9027895486122959,-0.06848647547486689,-0.4366558405668548,0.8978604615756389,0.05637613358536195,0
152,30.44,-0.28375635252049536,0.9572194617297125,-0.05668539926774997,-0.2945556576778998,0.9533678766813947,0.06577732315888823,0
153,30.64,-0.3717031277440626,0.9282896717373627,-0.010727076536538609,-0.2478776738214769,0.9658959708958398,0.07484405272321944,0
154,30.84,-0.509579469399583,0.8577014101107158,-0.0683890010201163,-0.26868311119680527,0.9585104762926294,0.09522107222081552,0
155,31.04,-0.5998577558751392,0.796753229212319,-0.0731776226464371,-0.38533209224980103,0.9173114260503231,0.10029419883479453,0
156,31.240000000000002,-0.6024887032628512,0.7888222855654317,-0.12151857568280183,-0.5327888319112947,0.8400482757356709,0.10224947444424613,0
157,31.44,-0.6595589569158651,0.7403601537220865,-0.12980302435869823,-0.616011603374872,0.7820061162512866,0.0948479765366591,0
158,31.64,-0.6719019856234905,0.7279075302830709,-0.13674190678943787,-0.6404578713117516,0.7631628994408789,0.08600060460142879,0
159,31.84,-0.6795799932875498,0.7202507890087884,-0.13931917906559715,-0.6586321632489875,0.7481994967522516,0.08000741586650816,0
160,32.04,-0.7141515436984148,0.6866866405670164,-0.13582720750996993,-0.7016068164835891,0.7086121173436576,0.07494492789710404,1
161,32.24,-0.753498205788404,0.6471216217819105,-0.11607782086172216,-0.7456861110886526,0.6608216844718776,0.08524626127421955,1
162,32.44,-0.7434966492429753,0.6643575718035966,-0.0764313374977674,-0.7836247308049676,0.6141633703369669,0.09346462329234541,1
163,32.64,-0.7578654094038321,0.6480560174713071,-0.07525569379383376,-0.8053716664016315,0.5852349615936415,0.09421527841039411,1
164,32.84,-0.7394672097510027,0.6692126787005263,-0.0730933401175033,-0.8055988545334761,0.585664613284375,0.08948433561699376,1
165,33.04,-0.7049650110871253,0.7044088946125004,-0.08265858898943888,-0.7884823985722946,0.6104804798672832,0.07489386385207276,1
166,33.24,-0.7046392196311687,0.7079186721484896,-0.04831897951216886,-0.8023878127941944,0.5887751713083993,0.0975581648562249,1
167,33.44,-0.6597082467382746,0.7499604541214647,-0.04841845143577224,-0.8289993891547539,0.5512054239698725,0.09451239795517938,0
168,33.64,-0.6538579180730884,0.7558500068475604,-0.034067434914730764,-0.8283732983370669,0.5493416678596219,0.10964219331707133,0
169,33.84,-0.5349554430982109,0.8444611712279686,-0.026608348086347645,-0.7107466094464665,0.6897735311281419,0.13802801496568218,0
170,34.04,-0.5614699619442751,0.8216137771574028,-0.09850016761122904,-0.42503994258367195,0.8870697387178765,0.18013418848033136,1
171,34.24,-0.6604247799943597,0.7487927753631517,0.056111402881683224,-0.3731862136431018,0.9081116964970782,0.18990839010408012,1
172,34.44,-0.6851353413622809,0.7261194133130229,0.0577941314178372,-0.41814528416493124,0.8826901466529253,0.21450553916499798,1
173,34.64,-0.6162761634571259,0.7874184119663609,-0.01326404353660403,-0.45927064392457484,0.8588130563380016,0.22695948954050477,1
174,34.84,-0.6267787986065474,0.7791522963804124,-0.008368790979787148,-0.49548016738780504,0.8336396497292826,0.24401708572268532,1
175,35.04,-0.6371797194097364,0.7705836339069632,-0.014243185306277353,-0.5127970850126202,0.8229899100956563,0.2443905838679209,1
176,35.24,-0.5493378027811278,0.8353475008862448,-0.020555563692296636,-0.5136503066355957,0.820523511786714,0.25080775326603627,1
177,35.44,-0.5797063056058589,0.8144620480876914,-0.024334573462666185,-0.5204167330874403,0.8158685102664192,0.2520416590134456,1
178,35.64,-0.4224985322639316,0.9046607714343522,-0.055532682832962185,-0.5216260541105284,0.8151942222667131,0.251723339513938,1
179,35.84,-0.4613780975632023,0.88481208172042,-0.06509862618010837,-0.5295948014318775,0.8131933753052226,0.24134183362200162,1
180,36.04,-0.4743502575764153,0.877157933290857,-0.0747381642944278,-0.5476563039480112,0.8060696493612713,0.2243307672268808,1
181,36.24,-0.6030370253316526,0.7905673827130415,-0.1065343112307178,-0.5800512623092947,0.7912281731089066,0.1936453231351997,1
