,timeStamp,x_gaze,y_gaze,z_gaze,x_head,y_head,z_head,fixations_head
0,0.033366700033366704,-0.9961661196954069,0.009601125129969664,0.08695332292232955,-0.9929170363980813,-0.0009676198433106656,0.11880581863818873,0
1,0.2333667000333667,-0.9977586601838808,0.017854778340095932,0.06448924653377197,-0.9929715448820057,-0.013983266494941181,0.11752437752557823,0
2,0.43336670003336675,-0.9956412102256009,0.0891825439404262,0.02729568384955772,-0.9953825650465935,0.054952437285350667,0.07870056440499076,0
3,0.6333667000333668,-0.8545948944710472,0.5189361402872832,-0.019309289157219443,-0.9690148572387853,0.24069829855971547,0.055448494307368965,0
4,0.8333667000333668,-0.8862415927746513,0.4632222420807342,-0.0009968339617715332,-0.9307101444573694,0.3626873091228528,0.04729210087706522,1
5,1.0333667000333666,-0.8588724851640189,0.512178118793555,0.0034101110359367887,-0.8927077925350958,0.44924598654650566,0.035367226622590904,1
6,1.2333667000333668,-0.8460697599594698,0.5325144397872575,0.024378939685487665,-0.8659621991246009,0.49841007304898094,0.041193067020975846,1
7,1.4333667000333667,-0.8856597034547953,0.4634101419109322,-0.029290442988359144,-0.8613909042363944,0.5036504533313714,0.0658933301473747,1
8,1.6333667000333667,-0.8953069654999484,0.4450478220773557,-0.01891754718447701,-0.8788353657690235,0.4698984124222703,0.08272775759475717,1
9,1.8333667000333667,-0.8930537358943942,0.44973959029203464,-0.013759568634908648,-0.885413941381271,0.45503169182019526,0.0948067078161358,1
10,2.033366700033367,-0.8960977613748017,0.44340612515820493,-0.019995255218567758,-0.8962837874897824,0.43368794986978787,0.09268297805266713,1
11,2.233366700033367,-0.8588513077200841,0.5118674105234491,-0.019135968005831047,-0.8643248384331934,0.49359196295557717,0.09648599780845869,1
12,2.433366700033367,-0.8293408960564949,0.5530923148009567,-0.07926266104749577,-0.8704861365225003,0.4827640281301305,0.0958789823981327,1
13,2.633366700033367,-0.8353534515399949,0.5460952421027163,-0.06296505025006519,-0.8689708685373453,0.48703413678115515,0.08767770094663076,1
14,2.833366700033367,-0.41510891972808284,0.8777290252221956,-0.2393247647960359,-0.7107699896485082,0.6937416594691603,0.1163122166070049,0
15,3.033366700033367,-0.331306792504758,0.9359897649157248,-0.11899146697648247,-0.5201926420563421,0.8467121112165031,0.11170593480086265,0
16,3.233366700033367,-0.32951012384753203,0.9408196766260878,-0.07925537429832688,-0.47368533471846697,0.8713317500376745,0.12807491967179796,0
17,3.433366700033367,-0.341265101165888,0.9388412888301079,-0.045990924257495416,-0.4684762229797833,0.8728871913788193,0.1363744097306872,0
18,3.633366700033367,-0.7273886009505702,0.6817615708138187,-0.07814719296715943,-0.497668027310623,0.8582771258866833,0.125247394274084,0
19,3.833366700033367,-0.8742773933571877,0.47798132932119536,-0.08469290575310628,-0.7528885529009705,0.6507341748071152,0.09850817554287551,0
20,4.033366700033366,-0.9262762652135572,0.3700494091645505,-0.0712440543413333,-0.8438808698744416,0.5289035701949348,0.09014483288024526,0
21,4.233366700033367,-0.9987890288686501,0.03476658680776224,-0.034810346929570024,-0.9776641809423682,0.17971739836642395,0.1089697482179939,0
22,4.433366700033367,-0.7419494844929089,-0.42586996858781306,-0.5178278983559328,-0.9769497203408154,-0.134077242941149,0.16611001430167507,0
23,4.633366700033367,-0.6444060375688897,-0.742012560424514,-0.18481942245613556,-0.9064139893774078,-0.38924938868271114,0.16400790612366345,0
24,4.833366700033367,-0.6396114339388829,-0.7429041014968084,-0.19746065317896982,-0.8750431331116065,-0.45462839381545206,0.1661702101190387,0
25,5.033366700033366,-0.6877473209224956,-0.6913372321360228,-0.2214869161517965,-0.9078852164423581,-0.3943691998263193,0.14218779129644393,0
26,5.233366700033367,-0.9115089787862642,-0.29707010085881985,-0.2844305482323448,-0.9913637193089689,0.0637273796848319,0.11461586764664443,0
27,5.433366700033367,-0.43392326837758144,0.41852180625479435,0.7978408956989747,-0.8845485498888593,0.4369801378507786,0.16316317603378047,0
28,5.633366700033367,-0.7772174968659938,0.6286976954628501,-0.025926247029993892,-0.8247791090578589,0.5258139637646798,0.2079882130597809,1
29,5.833366700033367,-0.7764051480392338,0.629843289582934,-0.022191815282302848,-0.7991014849100775,0.5581748885525925,0.2233329590629435,1
30,6.033366700033366,-0.8258269613615592,0.5446959336565874,-0.14600058132183014,-0.7826430206918986,0.5799845362203658,0.22602619296777898,1
31,6.233366700033367,-0.8386029471621397,0.5266085475303816,-0.13938627866083425,-0.7925367699333026,0.5628072691536112,0.23480512364840408,1
32,6.433366700033367,-0.8513377080872376,0.5098776717948307,-0.12348630123966134,-0.8076041925357293,0.533053289096456,0.2522492005580258,1
33,6.633366700033367,-0.8600537254781991,0.49312860620704674,-0.13088837622709643,-0.825085251999733,0.508212374136788,0.24688967112211602,1
34,6.833366700033367,-0.8550607557689012,0.49977795277058396,-0.13817779079272963,-0.827953703493198,0.5059941785030438,0.24179031451430563,1
35,7.033366700033366,-0.8583496796751936,0.49309340748929176,-0.14175584253247367,-0.8352298959312384,0.4952796169646774,0.23893330023673018,1
36,7.233366700033367,-0.8648984154002786,0.4828032742745667,-0.13730160009207912,-0.8408860598074375,0.48238710224291703,0.24538402150752348,1
37,7.433366700033367,-0.8535240648766312,0.5012395261019772,-0.14232219837234608,-0.8278462225062422,0.5069559338848141,0.24013811230440185,1
38,7.633366700033367,-0.8535134863345082,0.49871462144333734,-0.15099157262490595,-0.8264370921459716,0.512574028686725,0.23295836074537332,1
39,7.833366700033367,-0.8536814190529696,0.4957524770701656,-0.15955411697133684,-0.8276128493573587,0.514524793607749,0.22432389159761304,1
40,8.033366700033367,-0.9649549252440967,0.21734800830331144,-0.147043651796817,-0.8506775973759413,0.47385478477716225,0.22761649383664115,1
41,8.233366700033368,-0.9885304309509207,0.11076967722464748,-0.10265313288709117,-0.9077507599057519,0.3471804099437947,0.23548741121722164,0
42,8.433366700033368,-0.9988136667894301,0.030006930823363448,-0.03835157281279827,-0.9505926841736994,0.18292348507625142,0.2508237377183419,1
43,8.633366700033367,-0.9938272703965467,0.11093846324957005,0.00011827076416402018,-0.9473783437951855,0.15883183809030446,0.27793294320167705,1
44,8.833366700033368,-0.9715120376000146,0.2304900425877901,0.05512441442905784,-0.9362792077988533,0.22344573697299602,0.2710225962390338,1
45,9.033366700033367,-0.9645760745661298,0.22364760482956253,0.13990977531465176,-0.9227931460124346,0.27558009035227127,0.2692738819007664,1
46,9.233366700033368,-0.9704644838926542,0.18154955083716268,0.1588661263258744,-0.9310379881833601,0.23346355585595804,0.28046930785127533,1
47,9.433366700033368,-0.9783047316055307,0.1489871289062707,0.14395376875405771,-0.9451134721821974,0.18231561053619125,0.2711485623316614,1
48,9.633366700033369,-0.9949983463998933,0.05641868932789871,0.0824331374873034,-0.9480983275877419,0.1893125807444186,0.2554805432850315,1
49,9.833366700033368,-0.8066083955431194,0.5872994737946213,-0.06679988263399847,-0.9116451331237223,0.3512229918984724,0.21341406048739317,0
50,10.033366700033367,-0.8265245920999335,0.5628764358424385,0.00521695575525541,-0.8573057252152481,0.4740860738353003,0.20067209100566966,0
51,10.233366700033368,-0.8041508901045962,0.5939217748614365,0.024459584817146957,-0.817567089606469,0.5365954171642358,0.20892441760298935,0
52,10.433366700033368,-0.6609748162087732,0.7477349446406687,-0.06328305382165815,-0.7524768085483844,0.6277295883864709,0.19933443370624698,0
53,10.633366700033369,-0.463125070999552,0.8793382054839974,-0.11081285569753696,-0.5516730690457142,0.8172831617446422,0.1664483656223876,0
54,10.833366700033368,-0.27943972781738236,0.9593106536850045,-0.0404537791040224,-0.34811140535040447,0.9218016366509016,0.1705877842422649,0
55,11.033366700033367,-0.34491208576074156,0.9369512432194725,-0.05619627145692142,-0.2925836308338432,0.9389151036377941,0.1811994677942408,0
56,11.233366700033368,-0.2933889031703723,0.9542840004465595,-0.05714016090453833,-0.20953032599681803,0.9569561862057712,0.20082803631508325,0
57,11.433366700033368,0.02221887811591744,0.9864961661515945,-0.16227025489434452,-0.12083263843304598,0.9821908920139294,0.14387677065527626,0
58,11.633366700033369,0.2985995346580331,0.9047722740441692,-0.30368643371568155,0.02938828234532842,0.9950366778399035,0.09507017731191955,0
59,11.833366700033368,0.4340844683217531,0.8654145283288736,-0.25025660534566146,0.2387416831838115,0.9700485070120952,0.044814091022419865,0
60,12.033366700033367,0.6411537279083709,0.7211915215798317,-0.26230647416822617,0.4723026088231346,0.8809421901251246,0.029514460123973324,0
61,12.233366700033368,0.790196006451685,0.5818643955751928,-0.1924164664204296,0.661141332913149,0.7498024426298436,0.0262380437560603,0
62,12.433366700033368,0.81411758557059,0.5567644536365243,-0.16500272734574997,0.7422508197160673,0.6691013773537839,0.03697387529182613,1
63,12.633366700033369,0.8561184433497929,0.502580691020458,-0.12030735625774008,0.7960842483797218,0.6011986434571119,0.0693546003306345,1
64,12.833366700033368,0.853986512439345,0.5077600539333056,-0.1135198846076375,0.8060002287608844,0.5854732711986573,0.08709006802928712,1
65,13.033366700033367,0.8472851100053566,0.5189382424799713,-0.11318587745390106,0.8089254164282986,0.579980416362173,0.09624129723078353,1
66,13.233366700033368,0.8267783754068839,0.5483650676860057,-0.12543233435313536,0.7944540752590585,0.6006988164340469,0.08946314458484719,1
67,13.433366700033368,0.8139332819561366,0.5648287521137715,-0.13594518494493352,0.785961453047579,0.6128592802927288,0.0816584158701156,1
68,13.633366700033369,0.8176812467595719,0.5542048654700006,-0.1557380678803066,0.7970545787882893,0.5989896351944853,0.07691173748005165,1
69,13.833366700033368,0.8184899540618278,0.5508120879825145,-0.16334086699968892,0.7999617365101743,0.5954154145913118,0.07444262345379088,1
70,14.033366700033367,0.8294369150871828,0.5381743666811258,-0.14967549878997133,0.8097859868701537,0.5807754439067685,0.08334590106074521,1
71,14.233366700033368,0.8204025738649896,0.5539927459447257,-0.14153322661595386,0.8021457654780728,0.59054511997307,0.08842302981457204,1
72,14.433366700033368,0.8134450745336531,0.5650988344882723,-0.1377331404453405,0.7955432400185627,0.598995595770001,0.09118788027424012,1
73,14.633366700033369,0.6560751722918572,0.7073793563399,-0.26302055913247285,0.7826526307369689,0.6156922844647283,0.09153070769477284,1
74,14.833366700033368,0.6541138561848618,0.7084963744004225,-0.26489233776843424,0.7738593473028947,0.6267605061850317,0.09117553662370653,1
75,15.033366700033367,0.6575444778380402,0.7051704522105408,-0.26527324213701037,0.7710346997510223,0.6310969447708812,0.08498316351319347,1
76,15.233366700033368,0.6590090155577004,0.7048046105450239,-0.26259775012011755,0.7674615077055018,0.6359515625294297,0.08104593948357439,1
77,15.433366700033368,0.6607692308219311,0.7033984859560803,-0.2619438748161292,0.763835866167967,0.6407390567545024,0.07751277768718459,1
78,15.633366700033369,0.6642009674341753,0.701038584962774,-0.2595803868802447,0.763226810053664,0.6416593827641295,0.07588196706770826,1
79,15.833366700033368,0.6707207245209766,0.6954650159555389,-0.25780248501521136,0.76580442295888,0.6388039268003416,0.07398059800434853,1
80,16.033366700033366,0.6699254897058707,0.6968864020219214,-0.25602574268868067,0.7632105345189317,0.6420182826104007,0.07295344264199062,1
81,16.233366700033365,0.6644753409110293,0.7000509854081057,-0.2615361144284121,0.760188332546235,0.6461368077444947,0.06797738402093151,1
82,16.433366700033368,0.6620286447690721,0.7007103643941522,-0.26593807312199635,0.7585010977900697,0.6484930733043478,0.06428700123307336,1
83,16.633366700033367,0.6644464087097477,0.696708271280256,-0.27038593654699683,0.7589444171264547,0.6482205808722249,0.06175313956603028,1
84,16.833366700033366,0.6698369584317474,0.6941050849368323,-0.2636978956755972,0.7625000510881613,0.6433158124186982,0.06883631005960354,1
85,17.033366700033366,0.6697322319409789,0.6949118179991034,-0.26183258526114733,0.7601459386213324,0.6460172797160882,0.06956886017263098,1
86,17.233366700033365,0.6684069885307218,0.6951458660578907,-0.26458329989989277,0.7586640122305475,0.648153048012573,0.06577646158208163,1
87,17.433366700033368,0.6677746003229363,0.694429439169295,-0.2680388725139719,0.7571251631246407,0.650414598833465,0.061010957932074346,1
88,17.633366700033367,0.6697203337256838,0.6939006957710634,-0.26453071466805694,0.7554751234947529,0.6522435835259134,0.061932588593268854,1
89,17.833366700033366,0.6877506580376144,0.6550614505216561,-0.31287941512552814,0.7565796743683784,0.6512640137257767,0.05867180548125441,1
90,18.033366700033366,0.711261292901059,0.5963289876489852,-0.3721546878789126,0.7581775981852475,0.6498466453804805,0.05353566192535504,1
91,18.233366700033365,0.7122266699826072,0.5956086998214285,-0.37146123251627977,0.7595332809083051,0.6484668485267832,0.05098962202652506,1
92,18.433366700033368,0.7075316498076745,0.6001887769271245,-0.3730581678118752,0.7559269605435103,0.6528134728688264,0.04908156440449475,1
93,18.633366700033367,0.7040590576383033,0.6117662671972335,-0.3606145832839097,0.7519504400827528,0.6573384044348762,0.049767034414017246,1
94,18.833366700033366,0.7045872129909724,0.6178643029896604,-0.3489993730377101,0.7522051561093605,0.6572628488521495,0.0468289508877751,1
95,19.033366700033366,0.707003862319897,0.6195892787816323,-0.3409613823933812,0.7536819376866951,0.6556372845755704,0.04586161662220062,1
96,19.23336670003337,0.7056422779686965,0.6236584148510339,-0.3363319151205322,0.7521829432491681,0.6573861747098849,0.04543387706682342,1
97,19.433366700033368,0.7078993016250897,0.6236323158755742,-0.3316041515940031,0.7527955568433026,0.6567089602482639,0.045079830596692794,1
98,19.633366700033367,0.7061221232496226,0.6743585392042768,-0.21594468657440655,0.7515466863577455,0.6583177138313631,0.04237175805345301,1
99,19.833366700033366,0.7095021873522149,0.6731588144551962,-0.2084798711235636,0.7523517676586031,0.6574383230988756,0.04173330830300949,1
100,20.033366700033366,0.7086532118331506,0.6731131415485269,-0.21149308270776357,0.75173579543159,0.6581412872903151,0.04175332119343351,1
101,20.23336670003337,0.7113875641061564,0.6707728096614495,-0.20974167791355597,0.753105785985854,0.6564882265920887,0.04306835799753454,1
102,20.433366700033368,0.8450708741968505,0.49976536097685803,-0.18997316008279205,0.7525685714074224,0.6571725157398923,0.04200987843224543,1
103,20.633366700033367,0.8112680066257363,0.5114586987333827,-0.2832917593497195,0.7538720123807015,0.6557821799231912,0.040332634977879124,1
104,20.833366700033366,0.756914427041407,0.5669578157499204,-0.3250221304721544,0.7491004484611119,0.6615104020474037,0.03539076289716908,1
105,21.033366700033366,0.7520792296450939,0.5744902944312631,-0.32301351974913195,0.7434090624321478,0.6680062893299427,0.03332511529456296,1
106,21.23336670003337,0.7831024357217405,0.5881386560278798,-0.20209773984979829,0.744515867568847,0.6667144612329285,0.034466652304705386,1
107,21.433366700033368,0.7847237926657458,0.5941778296642184,-0.176525567439413,0.7537764788592086,0.6560631710994944,0.03744509908504496,1
108,21.633366700033367,0.776074543559852,0.6022609036202383,-0.1870564268045924,0.7570068035574927,0.6522992025874156,0.0380322188609858,1
109,21.833366700033366,0.7686870444592765,0.6097592763955071,-0.19316793867018867,0.7579470860402634,0.6512914737216232,0.03654628600268157,1
110,22.033366700033366,0.7616190030132812,0.6160305672115945,-0.20110403901965007,0.7565829603723939,0.6529314493088605,0.035535145667021414,1
111,22.23336670003337,0.7598149657801929,0.6162554734921939,-0.20714827821480064,0.7589125452632866,0.650187166663616,0.03617177004156217,1
112,22.433366700033368,0.7587300773640856,0.6162548819168723,-0.21108905754849153,0.7609894400193746,0.647843711471942,0.03454848311080812,1
113,22.633366700033367,0.614943222746232,0.7873168627106473,-0.04446336120832673,0.7572850579582641,0.6511618454735992,0.05007586237465499,1
114,22.833366700033366,0.6042795543275559,0.7960887790083843,-0.032998123562265086,0.7466481127599505,0.6622347500646572,0.06294228720665948,1
115,23.033366700033366,0.6409745083036824,0.7463950266276872,-0.17901436794376782,0.7431874076676239,0.6662408658352614,0.061608325536070305,1
116,23.23336670003337,0.6090434517125854,0.48371834129279456,0.62855599609181,0.7439778340555593,0.6656650132394405,0.05819856169128642,1
117,23.433366700033368,0.6106951781221452,0.4838300584087295,0.6268651162718875,0.7445746005755254,0.6651060733852128,0.05694361530409729,1
118,23.633366700033367,0.7385796517703724,0.6357773023582095,-0.2242483440225889,0.7439037947004843,0.665468614072175,0.06130797594993671,1
119,23.833366700033366,0.736981825970448,0.637004508501995,-0.22601558427992605,0.7410484949135353,0.6687908832679681,0.05971501188173211,1
120,24.033366700033366,0.7363306302739311,0.6375596783043078,-0.22657197426182923,0.7397032128918224,0.6705817624012469,0.05620726618821559,1
121,24.23336670003337,0.738632181803836,0.6342416189911728,-0.22838578927586745,0.7415981417515456,0.6688572324105182,0.05159649990838824,1
122,24.433366700033368,0.8026040250831649,0.5755988298012523,-0.15656553277056706,0.7435684549512274,0.66710747412592,0.04553647732071322,1
123,24.633366700033367,0.7413399919084962,0.6383463175398946,-0.20719313521535135,0.7410919368833445,0.670188333044849,0.04037746075546924,1
124,24.833366700033366,0.7402984582844417,0.6414385740955265,-0.20128275714520763,0.7379089620368129,0.6737147136976478,0.03998560107150995,1
125,25.033366700033366,0.7319980148190846,0.6502211315951268,-0.20344873144866846,0.737068596501245,0.6747973992359945,0.0371261907017506,1
126,25.23336670003337,0.7227195574334938,0.6605843851575938,-0.20323560561353146,0.73206258476994,0.6803483470581225,0.034792220901157564,1
127,25.433366700033368,0.010337288501549524,0.9739638585176507,-0.22646753137667638,-0.03989382420111859,0.9990621730130255,0.016830247921592437,0
128,25.633366700033367,-0.853117741452828,0.5119396609452956,-0.10053806627164302,-0.7471966290550821,0.6464712828155458,0.1541819640021001,0
129,25.833366700033366,-0.8222473290015451,0.5607168575675966,-0.09749838762433166,-0.8128456764464816,0.5697978333702595,0.12088149307822021,0
130,26.033366700033366,-0.9216092641124536,0.3805992312894423,-0.0760301877150603,-0.8667348496488804,0.48107688509024976,0.13166522333553204,0
131,26.23336670003337,-0.965088650968903,0.25957045913390225,-0.035029594859753134,-0.9214803621262111,0.3554953901166403,0.15651507857572247,1
132,26.433366700033368,-0.9378390202198297,0.3470676419657545,0.001422692321124825,-0.9375824262219039,0.3073594632295633,0.16269405152949662,1
133,26.633366700033367,-0.9295526428375736,0.3685824836825971,0.008879015488809046,-0.9292303250984247,0.3303038148015224,0.16562123307425908,1
134,26.833366700033366,-0.9302633336867367,0.3665532928146065,0.01577382403885273,-0.8947136524957912,0.4055977613662621,0.187023891554843,1
135,27.033366700033366,-0.930912645758001,0.36432258066761525,0.025897937823844912,-0.8782368046071005,0.4203982608358074,0.22795924486569588,1
136,27.23336670003337,-0.9349315057702087,0.3538054452637424,0.026921857662044656,-0.8712681462199887,0.420450888835554,0.2532051884535102,1
137,27.433366700033368,-0.9143994291047013,0.3571295972710625,-0.19060990217196294,-0.8584360906031587,0.45085232610916076,0.24458057648129858,0
138,27.633366700033367,-0.8942469603928853,0.39051774586661553,-0.21867387587762585,-0.8302362314411317,0.5107601938648962,0.2232304288521656,0
139,27.833366700033366,-0.27404074154355634,0.9613990331306093,0.02477036676731968,-0.5384249911587558,0.820846239813119,0.1905517763768094,0
140,28.033366700033366,-0.3452957694650753,0.9382594150896164,-0.02097859826614967,-0.4207234940492105,0.8852750911515044,0.19819120702422585,0
141,28.23336670003337,-0.38311272683506253,0.9228481574115442,-0.039697819828304,-0.44225392854858836,0.8741393737142331,0.20072821925635817,0
142,28.433366700033368,-0.3766441896603823,0.9250738462051741,-0.0487599575701168,-0.4349868434520257,0.8780766187082386,0.1994189000610265,0
143,28.633366700033367,-0.33886751544474025,0.9376770733540151,-0.07700982458464506,-0.39078619834507405,0.9024077758944397,0.18151130319695105,0
144,28.833366700033366,0.7176841640403374,0.551201777646737,-0.42556555429780685,0.32260439808226005,0.9417884646122154,0.09466197896383108,0
145,29.033366700033366,0.8864084400425117,0.4198999440559452,-0.19484382054151728,0.5133630854661017,0.8563765754524232,-0.055475251212629584,0
146,29.23336670003337,0.9399538699096606,0.2899911895965336,-0.1799773107873328,0.6298594692464743,0.7750578577720957,-0.050619819303111685,0
147,29.433366700033368,0.7148524253359062,0.6323055471867931,-0.29862301483338954,0.6955798394480723,0.7172121573039351,-0.04213559503352821,0
148,29.633366700033367,0.7381831957346162,0.6109677276065031,-0.2860139950393604,0.7138209513711284,0.6993264278842827,-0.03744591628237006,0
149,29.833366700033366,0.7301087702330411,0.6414743106073421,-0.23548225508439433,0.6819629073752266,0.7307651725001653,-0.030147232462236107,0
150,30.033366700033366,0.7205470148250124,0.6538083672588642,-0.23096886874438707,0.6566567853566124,0.7537319585508536,-0.026267868284546983,0
151,30.23336670003337,0.14955046292039237,0.9104622237876125,-0.3856075700709358,0.5321641269014695,0.8448133921927391,-0.05560282736510756,0
152,30.433366700033368,0.12361297058370974,0.923113892370813,-0.3641161562132041,0.35189155363478575,0.9317544800079326,-0.08947582615234256,0
153,30.633366700033367,0.38784716064814234,0.883514075273812,-0.2626356007289099,0.43278690504481004,0.9001539174218606,-0.049177431529237224,0
154,30.833366700033366,0.6960771735932254,0.6950137307863029,-0.18009020634385253,0.6047581903662889,0.7963824951320867,0.006515568439018469,0
155,31.033366700033366,0.6781701234256404,0.7120078084359627,-0.1820169344293802,0.6234745781302077,0.7815001237128804,0.023173412828339613,0
156,31.23336670003337,0.6971399743419208,0.6977316171184137,-0.16482247009394593,0.652071568868966,0.7557863749477327,0.05991347524664819,0
157,31.433366700033368,0.7936070202320576,0.6040420121572073,-0.07294617870366478,0.6502261042720983,0.7542021493526538,0.09157036220834845,0
158,31.633366700033367,0.712967303076508,0.6955172239257857,0.0890697253076438,0.4966445766877944,0.8664784820848861,0.05058858102846305,0
159,31.833366700033366,-0.7612243216359144,0.40687076075999895,-0.5049690249792773,-0.3293690189874226,0.9388366977770465,0.1005072347562782,0
160,32.03336670003337,-0.9339896511245261,0.33284922677750983,-0.12990274756870887,-0.8043897215514364,0.5830349736824496,0.11413761573428846,0
161,32.23336670003337,-0.8877734644854733,0.4594202905213304,-0.02812956474524402,-0.920750720582057,0.38368815871160883,0.07072133632871022,0
162,32.43336670003337,-0.7554794102384208,0.5809158433614579,0.30296475642796183,-0.940096371017302,0.33994649061987553,0.025596810647624178,0
163,32.63336670003337,-0.4737287573763493,0.8119192633180344,0.34112779758876427,-0.7171981311329324,0.6959024938630795,0.03669550019519585,0
164,32.83336670003337,-0.3841295737884175,0.9232701389505531,-0.004089139684030402,-0.5779036917139069,0.8108868087359115,0.09214068874024718,1
165,33.03336670003337,-0.39160363188345076,0.9193019888701901,-0.03912095033359969,-0.5451815344906812,0.8322359065219235,0.10079925766600992,1
166,33.23336670003337,-0.40228277812246477,0.9152563028833036,-0.02178225099613673,-0.5241350276215883,0.8423617059776948,0.1253364636586865,1
167,33.43336670003337,-0.448646640177312,0.8929595209591621,-0.03659899159804572,-0.5522271204496029,0.8262428729538447,0.11121116100876223,1
168,33.63336670003337,-0.4865688191421129,0.8734692128327661,-0.017387307783486686,-0.5842357454314802,0.8014111513959543,0.128096682932594,1
169,33.83336670003337,-0.5691162010858886,0.7954770565376128,-0.2081417838489484,-0.6125255810359378,0.7832958029064988,0.10611360763658137,1
170,34.03336670003337,-0.5662796382166981,0.7929777586257509,-0.22475240970019855,-0.617911624196677,0.781853864276063,0.08300457577274,1
171,34.23336670003337,-0.5639825555741986,0.7946034135381982,-0.2247867705213973,-0.6118960098611497,0.7870717593516682,0.07811093871586579,1
172,34.43336670003337,-0.5624173240783423,0.7944141753712234,-0.2293313575283947,-0.6091679670321877,0.7902781729134866,0.06614225093231667,1
173,34.63336670003337,-0.5683947687332019,0.7917888661660217,-0.22360182980524912,-0.6100688529200257,0.7895056705816654,0.06705811521537777,1
174,34.83336670003337,-0.5842644660889269,0.783032904770744,-0.2132944061903925,-0.6211656587819863,0.7799995321548036,0.07585482310459014,1
175,35.03336670003337,-0.608428368139502,0.7650749423721893,-0.2108915678667451,-0.6522444502828071,0.7542087828865878,0.07580428016946654,1
176,35.23336670003337,-0.9660607151250092,0.2410068958573203,-0.09296435253028336,-0.899128520756219,0.41979087016720246,0.12386899727937095,1
177,35.43336670003337,-0.9393361709877969,0.3326337491226224,-0.08368002640184391,-0.939393777265097,0.3139097131852804,0.1378405716889944,1
178,35.63336670003337,-0.9449129546660642,0.3163020497233993,-0.08421710898045018,-0.9449479671521943,0.2960554761536311,0.13937178485756288,1
179,35.83336670003337,-0.9442489460348751,0.31671879359815547,-0.08990624946997114,-0.9455706726965171,0.29713500642005114,0.13269096011414175,1
180,36.03336670003337,-0.9420030593648192,0.31662256898763724,-0.11126717824673053,-0.9467788495316387,0.30011421214349837,0.11636696158718787,1
181,36.23336670003337,-0.9397870837751984,0.30979203577648023,-0.14432301181299023,-0.9487737879322282,0.298218637532374,0.10437405597688527,1
182,36.43336670003337,-0.9345312900595136,0.32470831706030445,-0.14565636522845837,-0.9433172178735264,0.31179528545355206,0.11373797269288867,1
183,36.63336670003337,-0.9369844865873855,0.3105591644527606,-0.16004086124792186,-0.9473539731810775,0.30096847511775504,0.10926310668894604,1
184,36.83336670003337,-0.9388814830321652,0.30089424431372314,-0.1672250416600214,-0.9500297889716882,0.29295104381159176,0.1078104169183492,1
185,37.03336670003337,-0.939527023657677,0.29576868223892294,-0.17265531681242285,-0.9502327931046051,0.29216858169560006,0.10814415739466539,1
186,37.23336670003337,-0.9428776147487885,0.283235414555009,-0.17538387482173928,-0.9530040339975505,0.28234460469608774,0.10984004453479478,1
187,37.43336670003337,-0.9458934858473554,0.2695815174833226,-0.18058604282426768,-0.9573313003426257,0.26815188448814065,0.10775596609819878,1
188,37.63336670003337,-0.9475953270259028,0.25972433917188625,-0.18602785769986072,-0.9608677682386221,0.2561622390333405,0.10542314382314626,1
189,37.83336670003337,-0.9471589866549497,0.2561680660753964,-0.19304863615669512,-0.9625946126496492,0.2518949108668971,0.09980263311771677,1
190,38.03336670003337,-0.9463181947086117,0.254773504918976,-0.19892796574321833,-0.9633016228375386,0.2505911147418605,0.09619811147312793,1
191,38.23336670003337,-0.9473264502393226,0.24698986215309873,-0.20388380188371524,-0.9651817657786923,0.2448180102696437,0.09213197520914307,1
192,38.433366700033375,-0.948667386169985,0.237475694179064,-0.20889108427977574,-0.9675995756087394,0.23638499469539845,0.08873102932257307,1
193,38.63336670003337,-0.9469136094134782,0.23802832279729833,-0.21609519627665097,-0.967509626665124,0.23932845702974093,0.08152920928155746,1
194,38.83336670003337,-0.9490374611808272,0.22645657334077218,-0.21919242155285698,-0.969871782286372,0.23072520171268598,0.07819595398290685,1
