,timeStamp,x_gaze,y_gaze,z_gaze,x_head,y_head,z_head,fixations_head
0,0.033366700033366704,-0.9973280948135327,-0.05960849353711241,-0.042231490547282584,-0.9786815473098791,0.004885609791573073,0.20532549713103165,0
1,0.2333667000333667,-0.9737251509545986,0.2188310484907521,-0.0630262057788869,-0.9792300115075063,0.04324669230555471,0.1980866178408785,0
2,0.43336670003336675,-0.9037645434323778,0.42178022695398676,-0.07287722679348728,-0.9619929120955213,0.22543276279652827,0.15410939794802603,0
3,0.6333667000333668,-0.8490166237750619,0.5279285973468095,-0.021498108219681806,-0.8776329854765098,0.4599247691934852,0.1350168488963796,0
4,0.8333667000333668,-0.5344273042145486,0.8439248176591543,-0.046672889871244856,-0.6440211246913039,0.7573453693935629,0.10800362220535202,0
5,1.0333667000333666,-0.28442327302237985,0.9535147905122509,-0.09956377874315399,-0.37532700485542264,0.9235408413284993,0.07875248456084212,0
6,1.2333667000333668,-0.22631456713912473,0.9704204606403458,-0.0840585883251074,-0.21248440826687415,0.9732086011845611,0.08783732022248121,0
7,1.4333667000333667,0.19675417463204758,0.9730226780697594,-0.12047681406318365,0.07843458486176097,0.9935692277390511,0.08165908147652062,0
8,1.6333667000333667,0.46278574104190173,0.8546737750189572,-0.23529151319829406,0.3265002435281736,0.9446585965718625,0.03190183221890177,0
9,1.8333667000333667,0.7738711074395211,0.6052792454132536,-0.18644179827037563,0.5608374351397224,0.8277672180244331,-0.016211234067404257,0
10,2.033366700033367,0.7273048593578686,0.6510478026488963,-0.21717366373590263,0.6804165397557433,0.7328199597310547,-0.0028703739470853492,0
11,2.233366700033367,0.7083979331425144,0.6748959042177052,-0.2066104711518269,0.6742035782695173,0.7381799635682784,0.02323524122780451,0
12,2.433366700033367,0.6745183601130426,0.7101991687126312,-0.20159891525080054,0.6284246312440125,0.776935787399427,0.03812171433526148,0
13,2.633366700033367,0.6401721821431958,0.7418565063672394,-0.19957079237857683,0.5741985184490047,0.8175312738957663,0.04403041691074305,0
14,2.833366700033367,0.49266903074069013,0.8469379653278473,-0.19993326145330448,0.5049707750380679,0.8623015040449334,0.037955664653625536,0
15,3.033366700033367,0.549788961383946,0.7970348962203883,-0.2499349358279413,0.47909184185814196,0.8775450180014207,0.01964047977671492,0
16,3.233366700033367,0.594283161857736,0.7570051581402731,-0.2716076473175818,0.49822488029197354,0.8670261287420727,0.006136834410616277,0
17,3.433366700033367,0.835814299256656,0.5402036707598956,-0.0979512698010567,0.5937360654136239,0.802819761162549,0.05438672369298246,1
18,3.633366700033367,0.8547379716306126,0.5083403971768861,-0.10494303431306021,0.658980177666338,0.7487087622522309,0.07197440357219811,1
19,3.833366700033367,0.8450094298193637,0.5210674940351196,-0.12019871120904166,0.6766955515950658,0.7322940562323255,0.07634491245824981,1
20,4.033366700033366,0.8337988097071656,0.5376126313757824,-0.12550778269143611,0.6753276813329502,0.7334575487199905,0.07728225573263323,1
21,4.233366700033367,0.6687689470176096,0.6912485104435603,-0.2737217424950333,0.653860414126135,0.7535373371070994,0.06817653866500316,1
22,4.433366700033367,0.6468076525509255,0.7087888400765996,-0.2815284013815125,0.6285174145138814,0.7753570715297263,0.061540809887691436,1
23,4.633366700033367,0.6238695961257983,0.7290502390028553,-0.2815536823408879,0.5942111600594299,0.8020284898234388,0.06052601731785078,1
24,4.833366700033367,0.27333824796952233,0.9563827541348542,-0.10304479506691971,0.500984606874148,0.8623549671784252,0.0732006438349625,0
25,5.033366700033366,0.13496146094751565,0.987294151243108,-0.08387885895780305,0.3531235159830009,0.9302584494962053,0.09961425400373006,0
26,5.233366700033367,0.027909793079532563,0.9948679237976059,-0.09725665863527788,0.12062221888019059,0.98657593571796,0.1100827115157106,0
27,5.433366700033367,-0.42133112605095163,0.9043543078307134,-0.06799535372853464,-0.15387276487602836,0.9806953445028638,0.1206640522269013,0
28,5.633366700033367,-0.4567273624793937,0.8830491203793346,-0.10781635942610941,-0.307657385775084,0.9447875674883299,0.11279798445683911,0
29,5.833366700033367,-0.4254859538686705,0.8987744891794123,-0.105669866379941,-0.46935231183939896,0.8768237105359101,0.10434839727111447,0
30,6.033366700033366,-0.4775465046178936,0.8745196237347516,-0.08464492678277272,-0.5675327927047135,0.8166854317214413,0.10455350218310219,0
31,6.233366700033367,-0.8651927312617582,0.5013771760962249,0.00790348414270553,-0.7098889411121003,0.692278353446881,0.12964710808813537,0
32,6.433366700033367,-0.8704276972716908,0.49097260316683183,-0.03607667891985716,-0.8011070710699375,0.5809062212390752,0.14413681974944853,1
33,6.633366700033367,-0.8750782708964955,0.48234966695672155,-0.03970917515561798,-0.8244673335014511,0.5455567823718718,0.15040416615591926,1
34,6.833366700033367,-0.8692094295182934,0.49223088221018496,-0.04673035667599975,-0.8301773080725431,0.5374118468509037,0.14830422794285797,1
35,7.033366700033366,-0.8745847841850183,0.4825784861313265,-0.047111145127692,-0.8431040513063575,0.5169202934996777,0.1482193268066418,1
36,7.233366700033367,-0.8806505605670154,0.4720416269442898,-0.04038926348412056,-0.8532211860095679,0.49831730165783045,0.15392684825229672,1
37,7.433366700033367,-0.8417264697069267,0.53467665076407,-0.07494951182250204,-0.858977431019253,0.48444016764047254,0.16575734365643,1
38,7.633366700033367,-0.8561151777969194,0.514779521662901,-0.04548457345369543,-0.8671758690635952,0.46089846198434536,0.18862295685908245,1
39,7.833366700033367,-0.8566758716601292,0.5113369145967479,-0.06812496375071261,-0.8772067567090305,0.4393615125787719,0.19357109094210775,1
40,8.033366700033367,-0.8556172741120741,0.5122775367753548,-0.07409997001618186,-0.8766293800572973,0.44362719820680846,0.18632186943978377,1
41,8.233366700033368,-0.8557729559008188,0.5125629681283707,-0.07022714327245727,-0.8753547478364279,0.4464044511698677,0.18568018584639825,1
42,8.433366700033368,-0.8615025817883183,0.5046517960668888,-0.05603450988922122,-0.8751923716917884,0.44659318861331787,0.18599149554937236,1
43,8.633366700033367,-0.8677941162239092,0.495145786905135,-0.042000256633250764,-0.8759426593707527,0.4437366195360047,0.18926772037844417,1
44,8.833366700033368,-0.8686841887667591,0.4942678675834678,-0.03297052109277724,-0.8742793730602149,0.4461923848995679,0.19117513828705282,1
45,9.033366700033367,-0.866705038985187,0.498102016104531,-0.02677231686437974,-0.8736153410439543,0.4461743912825875,0.19422834102228329,1
46,9.233366700033368,-0.8904179987620573,0.4535671298702736,-0.037850312836428396,-0.9046768874793755,0.3872150997721877,0.17783193124139587,0
47,9.433366700033368,-0.9960807038666859,-0.06190708881187053,-0.06317233365395447,-0.9931031973084118,-0.022146331070611997,0.11513287764978426,0
48,9.633366700033369,-0.8116824011609457,-0.5833689135428973,-0.029195724984681693,-0.8956513381778645,-0.43531279879935847,0.09116714112919305,0
49,9.833366700033368,-0.6705221957724945,-0.7417138847699726,0.01613995402313155,-0.8414543810837217,-0.5327311449063874,0.09028871359002127,0
50,10.033366700033367,-0.7566206615793468,-0.6528203306839311,0.036753099419702645,-0.8964481943571962,-0.42565967898061696,0.12326586114509037,0
51,10.233366700033368,-0.9726581383437702,-0.23140478467075212,0.01969699330136822,-0.9803362602420324,-0.0754791971561728,0.18232857058433324,0
52,10.433366700033368,-0.8132960952118251,0.5811954796629023,-0.02759122926959183,-0.8076021020960612,0.553528627122881,0.20343279884394722,0
53,10.633366700033369,-0.3645854169979568,0.9294251527263813,-0.05697683030819683,-0.5197900559981485,0.8319979663186458,0.19390121641464556,0
54,10.833366700033368,-0.3901653792323004,0.9175931042254006,-0.07611748765236824,-0.5072949717057994,0.8419719033686734,0.18367124331191723,0
55,11.033366700033367,-0.4552010393519706,0.8879769614554167,-0.0654899205778375,-0.5688628771799027,0.7993753622958863,0.19337543049964648,0
56,11.233366700033368,-0.935898962054749,-0.3048923759076021,0.17644764645146543,-0.9338631818257432,0.27520278654074887,0.2283921712986374,0
57,11.433366700033368,-0.9399277801365005,-0.3412889798456891,-0.007589490335939652,-0.9123091267413863,-0.32968719483901926,0.24289588473983723,0
58,11.633366700033369,-0.6251319371575651,-0.7799438835249356,-0.02995996825218262,-0.7559833878194966,-0.6184190635835798,0.21458559862526946,0
59,11.833366700033368,-0.6190768408954952,-0.7846066105897896,-0.033709519214258105,-0.6411582210468791,-0.7357281414141168,0.21822061661385422,0
60,12.033366700033367,-0.5824398666164259,-0.8118577221517537,-0.040630539725756296,-0.5255583020003614,-0.8231889637609294,0.21482178925961995,0
61,12.233366700033368,-0.14933945350759403,-0.9845623149599241,-0.09129499212338461,-0.3499709799024684,-0.9215741222936287,0.1679924115691965,0
62,12.433366700033368,-0.07310446219820471,-0.9877289947195592,-0.13801148719219142,-0.1914468905546985,-0.9739410417083852,0.12160154346439173,0
63,12.633366700033369,0.3996237354135431,-0.8901565155466552,-0.2189115070615615,0.15495983970324517,-0.9879138164654743,0.0037066583017643304,0
64,12.833366700033368,0.31934055543950196,-0.9129144758218353,-0.25418255149898483,0.2348811163536486,-0.9689488606045509,-0.07725908822660807,0
65,13.033366700033367,0.12751572065278888,-0.9121749130005573,-0.38945688988490856,0.11790169086861707,-0.9853691937978045,-0.12307210571281456,0
66,13.233366700033368,0.13331184252430867,-0.9301199430519191,-0.34220585059269326,-0.13580279319986976,-0.9824120676686634,-0.12815666450908805,0
67,13.433366700033368,-0.47369537610092033,-0.8447140772084382,-0.24914015819715715,-0.7294901905829017,-0.6835093262964355,-0.025672216677075435,0
68,13.633366700033369,-0.8718370978525868,0.48823644949909195,-0.03905437476774709,-0.9875044128446315,0.09867762206834053,0.12287294867186115,0
69,13.833366700033368,-0.7698981737044054,0.6356487467941524,-0.05663455504941522,-0.8024418023283417,0.5668330030434011,0.1865140759750926,0
70,14.033366700033367,-0.8228920910509978,0.5680523856118811,-0.012848878798049777,-0.7577989323018381,0.6061790966555721,0.24142841792139755,0
71,14.233366700033368,-0.8758325220466044,0.4817098543468178,-0.02954673502523899,-0.8191739004911146,0.525116214065312,0.230666604604757,0
72,14.433366700033368,-0.8725739233892115,0.48818347906726073,-0.01707744087807799,-0.8211059923894481,0.5183575044252776,0.23893607276453308,0
73,14.633366700033369,-0.7886489080018223,0.6133793642885371,-0.042410557323896314,-0.7882902331765842,0.5815290992332701,0.20105326414497265,0
74,14.833366700033368,-0.41939210266520377,0.9045786550606534,-0.07647039316440772,-0.6008753601053887,0.7842474308478707,0.1546116710560162,0
75,15.033366700033367,-0.3535540167390379,0.9311841897629692,-0.0888569748707158,-0.41618472411727736,0.8983371607869352,0.14064359551964845,0
76,15.233366700033368,0.12718610551397408,0.9884799996161984,-0.08204257993840156,-0.20168303671997706,0.9718232986218139,0.12199765963011454,0
77,15.433366700033368,0.24858600967870248,0.9538738593798978,-0.16831415918965056,0.07571176272355284,0.9913702898715611,0.10701718247678531,0
78,15.633366700033369,0.6542729819930324,0.731300836645714,-0.19268095742761976,0.41265965602325694,0.9081062711324056,0.071098583816878,0
79,15.833366700033368,0.7464928275330172,0.6241290276883522,-0.2306759962340116,0.6504921658213538,0.7584107368127947,0.04090350219869104,0
80,16.033366700033366,0.7470293090746998,0.620971988254157,-0.23736259432997456,0.6898513484186641,0.7231148253171817,0.0347860099961516,0
81,16.233366700033365,0.7505777342804059,0.6316620850643149,-0.19400019354293052,0.6744601218992491,0.7356054614959535,0.06315179320474908,0
82,16.433366700033368,0.6895920587703039,0.7017106497824802,-0.17906690499023895,0.6324107896128419,0.7708490106857818,0.07647480569451202,0
83,16.633366700033367,0.6214347526473352,0.760779375167284,-0.18717262225609338,0.594100067192116,0.7999976367189564,0.08395767628042307,0
84,16.833366700033366,0.07007989372708023,0.9970912335381875,-0.029964654119430143,0.47082135586600216,0.8748730149140429,0.11368578906667275,0
85,17.033366700033366,0.2937054921649643,0.9546362056117116,-0.04905913582005362,0.30638970645614266,0.940909083974535,0.14427558168976568,0
86,17.233366700033365,0.28969168663705225,0.9563244561839815,-0.039016165852014666,0.09966288750509678,0.9812286692987641,0.16509878073542308,0
87,17.433366700033368,-0.24102016458875364,0.9701666830983035,-0.026189449548367338,-0.19547078730361406,0.9595171184155064,0.20277591271773054,0
88,17.633366700033367,-0.47091385823240794,0.8782949179065824,-0.08269326033080125,-0.46880636924054403,0.8603333085352942,0.20011793119111884,0
89,17.833366700033366,-0.5025121741078777,0.8594549736643291,-0.09390773725855399,-0.6052837433373038,0.7779912168724594,0.168408006106868,0
90,18.033366700033366,-0.47548895477233155,0.875780885156005,-0.08317508692439225,-0.6120766542226025,0.7746147038586868,0.15916730167212156,0
91,18.233366700033365,-0.8361022434434097,0.5481599174503796,0.021301253711707286,-0.611960771733939,0.7717477965856029,0.17294320548685668,0
92,18.433366700033368,-0.8460504084681033,0.5323430901778576,0.02845242820648421,-0.6403941674828697,0.7437551982771149,0.1916338051850246,0
93,18.633366700033367,-0.8066984144088163,0.5894750491884316,0.04191461051468354,-0.6818182392492852,0.6974338772580477,0.22070313880824466,0
94,18.833366700033366,-0.8521519702116491,0.5185643474950585,0.070199979853483,-0.7545949004657504,0.5924391846711954,0.28213888186000474,1
95,19.033366700033366,-0.8455305482981529,0.5339266862816607,-0.000620943564127211,-0.7907404701543346,0.5410969802984039,0.2862578676159849,1
96,19.23336670003337,-0.8624922271611897,0.5059678511270762,-0.01018291276500348,-0.8038052095128766,0.5272459841669916,0.27551562086339354,1
97,19.433366700033368,-0.868839345703723,0.4950877811830458,-0.0025060487576091233,-0.8081467729301045,0.5175208679406204,0.281195562996014,1
98,19.633366700033367,-0.7695683230641954,0.6385643910129593,-0.00033862429122554616,-0.8009844256600818,0.5280989062175205,0.2820203806497818,1
99,19.833366700033366,-0.7565228229947585,0.6539616751011162,-0.002710311233747721,-0.7843361873121663,0.552714429825127,0.28164428688631227,1
100,20.033366700033366,-0.7423763957420085,0.6699683371097827,-0.004440080568804018,-0.7687375125024132,0.5768230846663466,0.27625670284647036,1
101,20.23336670003337,-0.7423506338392347,0.6699821533797344,-0.006280970557214301,-0.7665424117953712,0.5818671408355518,0.2717413500643503,1
102,20.433366700033368,-0.7473909691269099,0.6641227656469799,-0.018646485377812317,-0.7738488948891644,0.5797870375376599,0.2549605439712654,1
103,20.633366700033367,-0.7532615672965107,0.6571305296338064,-0.027865359448558877,-0.7801609361618194,0.5770285667190992,0.24163391085941593,1
104,20.833366700033366,-0.7610240279343344,0.6477452466215228,-0.035616349978969404,-0.7857423214030719,0.5720637004187217,0.23527032753696536,1
105,21.033366700033366,-0.7746766751391957,0.6304044401497061,-0.049661764314381227,-0.7991013050164032,0.5565898135418499,0.22725510727490936,1
106,21.23336670003337,-0.7818046062310278,0.6187040405135285,-0.07737485333221611,-0.8090434019551235,0.5509883570556733,0.2045986415936592,1
107,21.433366700033368,-0.7870961324458413,0.6100045964143561,-0.0915099483234323,-0.8121662095424124,0.5508239912778645,0.19229919061252893,1
108,21.633366700033367,-0.8449596405985931,0.5282937968361522,-0.08335988234120215,-0.8083873868618208,0.5546591672861173,0.19713711195050998,1
109,21.833366700033366,-0.5597580899341569,0.8277793613210492,-0.03810786958333642,-0.752432638489366,0.6221220225521156,0.21635460150317148,1
110,22.033366700033366,-0.4226523199354325,0.9052355921230361,-0.043744019098083876,-0.5880267106178856,0.7741851856764418,0.23422614260377242,1
111,22.23336670003337,-0.407302400489162,0.9115361990079325,-0.056626075741991105,-0.5318300799135021,0.816739261326833,0.2238163200182175,1
112,22.433366700033368,-0.4385597466080749,0.8968368802402769,-0.057870190045897746,-0.5293455762478274,0.8192993276327307,0.22032220189397783,1
113,22.633366700033367,-0.5228810566501007,0.8409409541560162,-0.13933309807667246,-0.5275633612506588,0.8217953728592217,0.2152423401960681,1
114,22.833366700033366,-0.531985088816333,0.8347423885836609,-0.1421161847880918,-0.5361858444884492,0.8171668880758397,0.21152545284824964,1
115,23.033366700033366,-0.5428043943096172,0.8277841715390947,-0.14190403400715887,-0.5491885385091946,0.8089219222182367,0.2098505966750826,1
116,23.23336670003337,-0.5456874950736073,0.8262210987049039,-0.1399423230304302,-0.5531351905776035,0.8058992789676006,0.211110902381141,1
117,23.433366700033368,-0.5274870631367081,0.8491198172195171,-0.027439647018587542,-0.5477944824739427,0.8099738881187151,0.20943616100606088,1
118,23.633366700033367,-0.5256979077960189,0.8501607374276116,-0.02946914107041319,-0.5420007137648182,0.8154414092186991,0.2032007244323941,1
119,23.833366700033366,-0.5294001059377242,0.8478060466775317,-0.030990886565919088,-0.5457373287827496,0.8147364102280263,0.19589627311875735,1
120,24.033366700033366,-0.5403445308126696,0.8409204645400425,-0.029674236950511395,-0.5625806959157809,0.8039025699286579,0.19298605816228107,1
121,24.23336670003337,-0.5385161420202434,0.842051547203435,-0.03081487686060919,-0.5670170503835835,0.8014720804353597,0.19008989677759625,1
122,24.433366700033368,-0.53548806424774,0.8440317131899918,-0.02937686466891617,-0.569773528652013,0.7994066268678219,0.19054440681175927,1
123,24.633366700033367,-0.5370276443970804,0.8430641696267881,-0.029053658028161677,-0.5769972123407616,0.7941500766479616,0.19078750669534705,1
124,24.833366700033366,-0.5382801220277346,0.8421046714442192,-0.033380122253086154,-0.5819125251088817,0.7903298254263884,0.1917200567569798,1
125,25.033366700033366,-0.545419058972549,0.8367849666873767,-0.0480517391517223,-0.5927940861907579,0.7834651328547598,0.18648741774752053,1
126,25.23336670003337,-0.5496091887590794,0.8331926843225004,-0.060989264818103885,-0.6003045500442684,0.7791055131467377,0.18063512000856066,1
127,25.433366700033368,-0.5469434298513015,0.8341040420963663,-0.07157745106524556,-0.6000726577013216,0.7803908715726833,0.17579218709971217,1
128,25.633366700033367,-0.5470661147199165,0.8336008875556512,-0.07634282148103835,-0.6018208572886525,0.7790815387138401,0.17562349434977936,1
129,25.833366700033366,-0.549734556205833,0.8314328666817096,-0.08069266332579966,-0.606108357509007,0.7760883151217477,0.17412520233791728,1
130,26.033366700033366,-0.5490141332768644,0.8310173796062645,-0.08940691390821763,-0.6076798514032958,0.7762477565008811,0.16782317696259197,1
131,26.23336670003337,-0.5497451164006805,0.8281780785852368,-0.10909343309506664,-0.6121592941667531,0.7758727514796676,0.1525859498008681,1
132,26.433366700033368,-0.5487658286971999,0.826775657864473,-0.123685394517879,-0.6142616764447868,0.7758260987528146,0.14414040843992404,1
133,26.633366700033367,-0.5473149172590567,0.8273920639883924,-0.12597124193537423,-0.612914885859599,0.776489704474356,0.14628424910783167,1
134,26.833366700033366,-0.43132169171553864,0.8957733244364513,-0.10747906532769065,-0.6010955024109746,0.7837919710454777,0.15605878093187567,1
135,27.033366700033366,-0.41228430106727987,0.9066706617284477,-0.08927466748391305,-0.5884323941214984,0.7909944691281494,0.16755616179991484,1
136,27.23336670003337,-0.3922457473437721,0.9165966831134816,-0.07741959826872,-0.5691307381241844,0.8020453338865439,0.1811449290293366,1
137,27.433366700033368,-0.3272043146898235,0.9435392756783051,-0.051681444453716974,-0.4921610691582423,0.8442802863122435,0.21205725677168427,1
138,27.633366700033367,-0.34119695985938414,0.9362409774513254,-0.0838896103441956,-0.4230417814441177,0.8798280798424277,0.21665225840820165,1
139,27.833366700033366,-0.3428274165182011,0.9353551859244968,-0.08706341738988643,-0.4070955405175172,0.8882274416009799,0.21289723548634598,1
140,28.033366700033366,-0.34815585946104216,0.933411492997597,-0.08677835134951695,-0.394451885143644,0.8935824584275066,0.21428509116893582,1
141,28.23336670003337,-0.35955337802730797,0.9291921036859753,-0.08557688237359182,-0.39442827812743164,0.8936030428551432,0.2142427016573937,1
142,28.433366700033368,-0.38068567972202777,0.9212527102593906,-0.07982391304806745,-0.41095054129364345,0.8851651413487134,0.21817957088502596,1
143,28.633366700033367,-0.4191442308520555,0.9054274488689458,-0.0672253566603534,-0.44977095886153295,0.8643260706264688,0.22504783535992098,1
144,28.833366700033366,-0.4785578361620405,0.8764881646280359,-0.05244897248643616,-0.4977022113217152,0.8359376670393243,0.23130223879229256,1
145,29.033366700033366,-0.6646246337721466,0.7471402014185261,-0.007457587245505482,-0.5561696812133314,0.7946417803315261,0.2433510358527449,0
146,29.23336670003337,-0.693285697878084,0.7206515941527256,-0.004027525646484237,-0.6457889461067947,0.7143737625439119,0.26949353327144965,0
147,29.433366700033368,-0.7979125737186512,0.6019534479945481,0.03142564476908731,-0.7425559821849586,0.600457494506687,0.2967514289975429,0
148,29.633366700033367,-0.9360444071067708,0.3502233432931073,0.0341244448560341,-0.8226797787687908,0.4864850804062996,0.29416024229492643,1
149,29.833366700033366,-0.9491615006550834,0.3141040433988745,0.020762841680941554,-0.8575818105332756,0.42704525110908764,0.2866806441803239,1
150,30.033366700033366,-0.9470268698982575,0.32014473288597445,0.025445190038146975,-0.8576811001098805,0.4229632138629227,0.2923786076871102,1
151,30.23336670003337,-0.9395904704787874,0.34139593850008126,0.02487088581252958,-0.8496084282000775,0.43961554387018215,0.29138238162098634,1
152,30.433366700033368,-0.8637810744218926,0.5033609807378205,0.022582704470913977,-0.8384583211559882,0.4584071871582662,0.2947040794524702,1
153,30.633366700033367,-0.8606217472013288,0.5085549464594404,0.026496691789124484,-0.8325870024387729,0.46575214566589024,0.29978962987007723,1
154,30.833366700033366,-0.8552616878012207,0.5176155628023764,0.024527016210427372,-0.826871896002602,0.4752428625906873,0.30071097279226616,1
155,31.033366700033366,-0.8590934694878468,0.5111621577981261,0.025916387064898287,-0.8291974080333019,0.4681646586517718,0.3053743782643272,1
156,31.23336670003337,-0.9360410578465188,0.351130067771145,0.02312603581682224,-0.8351582191317849,0.45687345017153275,0.3062309578487873,1
157,31.433366700033368,-0.9404831923599068,0.3392594518730873,0.01985923471060527,-0.8439545752103353,0.44197646603935903,0.3039695353960688,1
158,31.633366700033367,-0.9401531141156252,0.340580111730726,0.010830951582314298,-0.8495203051193905,0.438058762512104,0.29397239968442973,1
159,31.833366700033366,-0.8746836665802152,0.48459798654820935,0.009657890619226263,-0.8459334384588817,0.45448052867302524,0.2790054959211762,1
160,32.03336670003337,-0.8696184569746279,0.493687577765426,-0.006026180313742758,-0.8370752282294411,0.4810676762729589,0.260535896048827,1
161,32.23336670003337,-0.8698803781534956,0.4827571600400606,-0.10126031865240794,-0.8284667608009707,0.5036894330072891,0.24482602256447955,1
162,32.43336670003337,-0.8650868066652031,0.4902749614631802,-0.10609090015679487,-0.8200615286008928,0.5203444486948103,0.23820315703462303,1
163,32.63336670003337,-0.8645111239397344,0.4891229145352089,-0.11566888544911497,-0.8146637773355279,0.5340401514781999,0.22610627259443986,1
164,32.83336670003337,-0.8598598470007666,0.49456772187121933,-0.12666417014661652,-0.8060473944775555,0.5521571171269729,0.21309649425078428,1
165,33.03336670003337,-0.6222615061777746,0.7810224198103883,-0.052863954476500184,-0.780906732249207,0.5887861878829836,0.20860369240761206,0
166,33.23336670003337,-0.5593364589947284,0.8269563261015014,-0.057323296834237106,-0.7280263028806293,0.6547996824706126,0.20301497026167042,0
167,33.43336670003337,-0.45093766569338006,0.891367325960811,-0.04603815665813384,-0.6310660989731339,0.7461986990154859,0.2119978309191564,1
168,33.63336670003337,-0.3989572302831776,0.9154551975219234,-0.05267741199861588,-0.5591871308349414,0.801579105360113,0.21161448570139854,1
169,33.83336670003337,-0.3979236628162068,0.9158496471294217,-0.053630051499578286,-0.5253145416726959,0.8228770286157732,0.21660569725582396,1
170,34.03336670003337,-0.40329118952981474,0.9136507700925974,-0.0509753544061331,-0.50093202339433,0.8369611886110109,0.22037031718656364,1
171,34.23336670003337,-0.412652852831671,0.9091801491700732,-0.05575911947804673,-0.4894327952214014,0.8443267204393066,0.21810072928344568,1
172,34.43336670003337,-0.4437804185909837,0.8940637222101543,-0.06090156568541702,-0.5052389570853324,0.8349757260896906,0.2180576370694682,1
173,34.63336670003337,-0.46966235494755987,0.8809574804389856,-0.05771646215515147,-0.5181739453910253,0.8249693990998994,0.22565737937556912,1
174,34.83336670003337,-0.48514723055062486,0.872792568228898,-0.05352847404385074,-0.5234950389685742,0.8193131996850346,0.2338350380014976,1
175,35.03336670003337,-0.4891240030531339,0.8709472891511637,-0.046994990770475815,-0.5197431717575471,0.8192878283537053,0.24214559612529546,1
176,35.23336670003337,-0.5016840525308642,0.86408286900657,-0.04091340765059769,-0.5257694629558378,0.8140489319641575,0.2467606293377126,1
177,35.43336670003337,-0.5158053613522894,0.8556111126337114,-0.043294955109535356,-0.5361039361729905,0.8086155022098822,0.24235003446603157,1
178,35.63336670003337,-0.6003209637650967,0.7939302729454326,-0.09638185599445807,-0.5475886857443593,0.802946090865671,0.23542346189006555,1
179,35.83336670003337,-0.6136191021538949,0.776421326725907,-0.1436715729608008,-0.5599863264192804,0.7964541569278424,0.22820186269134476,1
180,36.03336670003337,-0.626567673782524,0.764705051457846,-0.15046306671608856,-0.5677981728226441,0.7927055163769302,0.22186301910154257,1
181,36.23336670003337,-0.6721584882481196,0.7400359606250794,-0.023446612926363342,-0.5726621390838844,0.7903964150492718,0.2175582256250704,1
182,36.43336670003337,-0.6803843183104932,0.7324498772587383,-0.024379431921707127,-0.5750662414377378,0.7897039644657959,0.2136971372425911,1
183,36.63336670003337,-0.6978254123532179,0.7149131248763096,-0.04403314380840568,-0.5887293417301536,0.7842041189944342,0.19601444318759648,1
184,36.83336670003337,-0.7179144898567078,0.6936149610044178,-0.0591360391353966,-0.6081876428464268,0.7734445123888157,0.1785815705624031,1
185,37.03336670003337,-0.7341544991686015,0.676294416900614,-0.060357543186902896,-0.6244525914178548,0.7618072272392667,0.17236214664927485,1
186,37.23336670003337,-0.7657412358344091,0.6407443853110425,-0.05556070945520891,-0.66127033580064,0.7295527203402196,0.1745691016024729,0
187,37.43336670003337,-0.8162737739660064,0.5757084044137488,-0.04750746281026142,-0.7266722201493874,0.66173736824306,0.1845295096560703,0
188,37.63336670003337,-0.8496809284283707,0.5257380519090908,-0.04051938597679328,-0.7701793637067218,0.6073239611056657,0.19488805501423986,0
189,37.83336670003337,-0.8649439313878943,0.5003782097792138,-0.038647674359568986,-0.7922345689262482,0.5770262838438829,0.19850706675471472,0
190,38.03336670003337,-0.9796749741583384,0.20055707970890416,0.003715210154954787,-0.844903185414851,0.5021447394017323,0.18436178553866356,0
191,38.23336670003337,-0.8895616970998728,0.4555506781276563,-0.03396419747656505,-0.8919894414264781,0.42043518606586744,0.16609964088293241,1
192,38.433366700033375,-0.8963941923627295,0.4421656949002588,-0.031095822094635846,-0.9089483389926858,0.38282946397901246,0.16508942592419334,1
193,38.63336670003337,-0.9083674331961041,0.41733698458530616,-0.026428159337448964,-0.9223636251954805,0.34770311178784424,0.16836831343605324,1
194,38.83336670003337,-0.9381986815486923,0.3457203620483035,-0.016145129466351313,-0.945676029919974,0.271742328030192,0.1784739577404172,1
