,timeStamp,x_gaze,y_gaze,z_gaze,x_head,y_head,z_head,fixations_head
0,0.033366700033366704,-0.9998240116641255,0.0003279245637386717,-0.018757349635153055,-0.9848426535633317,-0.11544707211821592,0.12944852746040564,0
1,0.2333667000333667,-0.9994195889237313,-0.03217018004968194,0.011205569645995096,-0.9794994687008525,-0.13586118364370084,0.14873644339461892,0
2,0.43336670003336675,-0.8424637861055604,0.1756897181060451,0.5093013764486638,-0.9378524330346949,-0.09712379318241125,0.33316629878900306,0
3,0.6333667000333668,-0.7176243494633501,0.24081264468993852,0.6534711647920981,-0.8470251467004613,-0.0020361355344484717,0.5315489206170471,0
4,0.8333667000333668,-0.7098787618042702,0.20605757271531197,0.6735075502664467,-0.7398045168148735,0.061317326857720664,0.670021986450695,1
5,1.0333667000333666,-0.8417826039289305,0.21295167097840229,0.4960379355957926,-0.690108244960696,0.06262850447677282,0.7209911793248729,1
6,1.2333667000333668,-0.8471633723964238,0.18320457671767817,0.49874873788272817,-0.6873102444056728,0.04730338668351574,0.7248220592278386,1
7,1.4333667000333667,-0.8657883281165477,0.18065310815233085,0.46666371769407494,-0.690631549455227,0.017887216512823944,0.7229855533705332,1
8,1.6333667000333667,-0.8674429314668969,0.045719935556563826,0.49543157765812657,-0.6879525571867608,-0.004740594142106076,0.7257401779062371,1
9,1.8333667000333667,-0.811232251046391,0.031337043589808655,0.5838837423333998,-0.6811629467696453,-0.03171846175248295,0.7314444470581141,1
10,2.033366700033367,-0.7936103667787073,0.00849673845750589,0.6083669872510761,-0.6697805598076058,-0.06348685723342336,0.7398401318274329,1
11,2.233366700033367,-0.7812203662416054,-0.004407736921312268,0.6242397866401693,-0.6600227863898778,-0.08238821505418258,0.7467142046769485,0
12,2.433366700033367,-0.8647540110843628,0.03498517808945971,0.5009755858597849,-0.6478227132032398,-0.10092938532818646,0.755075487243009,0
13,2.633366700033367,-0.8732235072907917,0.00715676565726846,0.4872673670789944,-0.6482167219068181,-0.11601842571260511,0.7525654830880485,0
14,2.833366700033367,-0.9003680626420245,-0.013539349153086995,0.4349184266029187,-0.6697604146140836,-0.1265474790174935,0.7317149189201271,0
15,3.033366700033367,-0.9260318680931932,-0.023673147686912626,0.3767022184092162,-0.7155530971669198,-0.13611612139257845,0.6851687139908458,0
16,3.233366700033367,-0.9292786980979577,-0.03874511459629299,0.3673416901963145,-0.798313346149499,-0.15803075376290845,0.5811386084444203,0
17,3.433366700033367,-0.9806773660504393,-0.12672449109595668,0.14903961578333205,-0.908414978702853,-0.24194846995390853,0.34094451800147507,0
18,3.633366700033367,-0.9379059193229998,-0.22017189909717522,-0.2680612268621136,-0.9416442657357457,-0.3283071050124543,-0.07430021268697691,0
19,3.833366700033367,-0.6580888652307736,-0.368122310043419,-0.6568142890555668,-0.8097601567667524,-0.378260741428524,-0.4485613670469497,0
20,4.033366700033366,-0.3754945909168152,-0.24188143793079364,-0.8947050811170939,-0.6650092186693621,-0.3769030803302059,-0.6447532916723783,0
21,4.233366700033367,-0.36325459792216447,-0.21327070816760174,-0.9069518742061768,-0.6053466568918537,-0.3731005319523865,-0.7031012857666398,0
22,4.433366700033367,-0.13608356451009046,-0.2613207043539428,-0.9556111933972871,-0.5968496877911368,-0.4305629982351196,-0.6770420627512055,0
23,4.633366700033367,-0.12248898691915133,-0.22824063020380841,-0.9658688641879335,-0.5442520550897918,-0.4513491736698686,-0.7071588392702628,0
24,4.833366700033367,-0.05808084875395813,-0.18815075924251262,-0.9804212904687895,-0.4760054614261886,-0.44104767517285104,-0.7608519888368991,0
25,5.033366700033366,-0.017846219483069862,-0.17585750775966136,-0.9842538541528417,-0.41087874174343963,-0.4562474093785353,-0.7893142346484722,0
26,5.233366700033367,0.032246143625044965,-0.1925038691869736,-0.9807662548076159,-0.31346180624204006,-0.5092807098595916,-0.8014829097319472,0
27,5.433366700033367,0.041694059127271726,-0.36839138753225953,-0.9287353719039393,-0.2375213077444497,-0.5457885587935641,-0.8035536556182233,0
28,5.633366700033367,0.2917606198529397,-0.30890913460919944,-0.9052352662474127,-0.15625832878845178,-0.5918539448242057,-0.7907542239408312,1
29,5.833366700033367,0.3131206546960856,-0.2996189023671836,-0.9012124993290868,-0.0628512848836898,-0.6281635671844137,-0.7755386830136989,1
30,6.033366700033366,0.1627028558048218,-0.33111825955596297,-0.9294560123543154,-0.02524287061475064,-0.6310539842792291,-0.7753281024240241,1
31,6.233366700033367,-0.021865246220551242,-0.2536041804749799,-0.9670609239615303,-0.10592107622383387,-0.61967037557384,-0.7776820373698758,1
32,6.433366700033367,-0.05069903467211502,-0.2016930759935353,-0.9781357323907466,-0.1547958912260777,-0.589962516646973,-0.7924534440653878,1
33,6.633366700033367,-0.038247292647222736,-0.21172815848359805,-0.9765799155779838,-0.12795914849752366,-0.6033405654325258,-0.7871509502118063,1
34,6.833366700033367,0.35536474790785366,-0.27927997503312724,-0.8920306000860528,-0.011819336969881467,-0.6468169670698085,-0.7625536796739014,1
35,7.033366700033366,0.5318889799160251,-0.29147412186041255,-0.795070405265843,0.13154873190376498,-0.6722389069396077,-0.7285532122852476,0
36,7.233366700033367,0.550084375832884,-0.280236386767459,-0.7866859265272678,0.20681742704346429,-0.6718749606770649,-0.7112036199896019,0
37,7.433366700033367,0.5455632285943929,-0.28771073728383095,-0.7871361351489695,0.23349173780420954,-0.6789167439415276,-0.69609888893246,0
38,7.633366700033367,0.06722055645806749,-0.6210889856628256,-0.7808520145826545,0.09063071620005791,-0.7499547604815424,-0.6552510438848133,0
39,7.833366700033367,-0.5304985606803247,-0.4655984560432384,-0.708370916149341,-0.31236250800342613,-0.7661235070730323,-0.5616800116649399,0
40,8.033366700033367,-0.8243913389102238,-0.01704635407724268,-0.5657635037208414,-0.7683183892202416,-0.40853128285958207,-0.4927362821135843,0
41,8.233366700033368,-0.7209515373407175,0.421684128800402,-0.5499194271199209,-0.8886195291478941,0.0818435522628386,-0.4512836861332076,0
42,8.433366700033368,-0.5422557408856394,0.49652909846813037,-0.6778034861602527,-0.7863430791563314,0.37883757692051434,-0.48800271738580847,0
43,8.633366700033367,-0.5606611240367907,0.4852766574886575,-0.6709438647833655,-0.6516085125646525,0.5606057949603152,-0.5110063492855975,0
44,8.833366700033368,-0.18371058817359687,0.6602479669478623,-0.7282328212420294,-0.3927269455726237,0.7672002948357474,-0.5071185796489218,0
45,9.033366700033367,0.1580440693664484,0.6146896820304549,-0.7727733606584738,-0.1312985777309829,0.8573360281841991,-0.49773046748532795,0
46,9.233366700033368,0.20008831789997772,0.6043621259807496,-0.7711751329756336,0.14561689904638442,0.8388017512858201,-0.5246020784861191,0
47,9.433366700033368,0.4480791413209066,0.5536738373933501,-0.7019048118507533,0.36440145354421505,0.7833157071516812,-0.5036150152490738,0
48,9.633366700033369,0.7307295852055016,0.664822936544451,-0.15506365257470328,0.6310438528127126,0.6808100074848595,-0.3718620571337619,0
49,9.833366700033368,0.7181053188169328,0.6838446999987798,-0.12915563236038208,0.7919002850904855,0.5777041730591571,-0.19786820589383072,0
50,10.033366700033367,0.8509317071560857,0.4648445571107344,-0.2446114622844867,0.8409889191680249,0.502001920910621,-0.2018209831475508,0
51,10.233366700033368,0.9167908848168004,-0.01224340609501225,-0.3991798748985489,0.9002510681213923,0.33212913543296546,-0.2814928982103162,0
52,10.433366700033368,0.7888483136091607,-0.3326234499527162,-0.5167978121640382,0.9569199250589026,0.020226369348601243,-0.28964659674893184,0
53,10.633366700033369,0.5973661248626787,-0.6297894634068995,-0.49650674179531223,0.9080297910245502,-0.2992886664462286,-0.2931009941108181,0
54,10.833366700033368,0.607143325783819,-0.6516242673908909,-0.45471177255867085,0.8514353530420837,-0.4357536651411427,-0.29185027480912695,0
55,11.033366700033367,0.6750972918275385,-0.6930556758379194,-0.2528190593210255,0.8234502231679522,-0.5181315078883373,-0.23123466543320711,0
56,11.233366700033368,0.7142150892271277,-0.6974274546644974,0.05909104670326104,0.8337907014664538,-0.5518370940392875,0.0163977983386029,0
57,11.433366700033368,0.7231217012834223,-0.5617492482072141,0.40191141719488244,0.8375599349077365,-0.48243845796824253,0.2564107831402031,0
58,11.633366700033369,0.7104724786722154,-0.5156745151618634,0.4788618291970413,0.8285428293859951,-0.43656579462392675,0.3506095931908159,0
59,11.833366700033368,0.800826351690465,-0.31989486915711346,0.5063046781584123,0.832912085628652,-0.38195348795242384,0.4004609726985973,0
60,12.033366700033367,0.7691894483164424,-0.322600001851341,0.5516129362190143,0.8177740114013448,-0.3280628853425811,0.47288519699526876,0
61,12.233366700033368,0.7390974642097811,-0.25060428836772886,0.6252458948688714,0.7999456406214703,-0.2511317711783781,0.5449952344337666,0
62,12.433366700033368,0.7235973830715786,-0.20221050746232783,0.6599376772724763,0.8018197333644489,-0.18976205618752498,0.566635224124698,0
63,12.633366700033369,0.7065485187988845,0.25555453961801233,0.6599098937459026,0.796476755857789,-0.06855540084280276,0.6007702842131377,0
64,12.833366700033368,0.6405255129926464,0.36001176262804546,0.6783204242649302,0.7703019438960734,0.13564534318823998,0.6230852719341675,0
65,13.033366700033367,0.47502417676945957,0.6285536586125346,0.6158508989433199,0.6760757324525942,0.3681470591145657,0.638270590622805,0
66,13.233366700033368,0.3400513425342442,0.6685497090640432,0.6613670470707183,0.5272258938793747,0.5660029188246543,0.633777210622997,0
67,13.433366700033368,0.3513737845309569,0.613391323854567,0.7073100786531566,0.3855916610305724,0.638889888067909,0.6656866994827666,0
68,13.633366700033369,0.511617277312745,0.42035944234620537,0.749363530461338,0.34491499428792416,0.6033725726964557,0.7190098644893695,0
69,13.833366700033368,0.5120760243977637,0.418810501645399,0.7499172680692922,0.37373294254664813,0.5754457402214832,0.7274516394347966,0
70,14.033366700033367,0.42881948958518434,0.6196587113491338,0.6573712245003072,0.3768713244129858,0.6078080422452637,0.6989544968144794,0
71,14.233366700033368,0.2503872818419826,0.9496217977868107,0.1884798404602705,0.3734104285692133,0.7094655841723375,0.5976815512551483,0
72,14.433366700033368,0.19826083735917172,0.9799007435068194,0.022072001368757282,0.35140040895315194,0.8079980446932274,0.47292379128087747,0
73,14.633366700033369,0.2336603566773509,0.9714511163899922,-0.04105564738317275,0.3236026608324353,0.8839717270710203,0.33745415042824045,0
74,14.833366700033368,0.37082054872471515,0.9022462553667335,-0.22009955774650744,0.3379265686009176,0.9247703023245493,0.17494434021188304,0
75,15.033366700033367,0.603226482165876,0.7313337873454554,-0.3182274386358512,0.41686091112929646,0.9089680749203222,0.0020048810679130454,0
76,15.233366700033368,0.6880573644824357,0.6580076308398022,-0.30594610789822974,0.5230017501343703,0.8495184344208194,-0.06919247744940094,0
77,15.433366700033368,0.6539282383577429,0.6495391163816576,-0.3879133864259832,0.6461927830408364,0.7572574384620179,-0.09484755684719523,0
78,15.633366700033369,0.7418799269282713,0.5429729006015254,-0.39343945307158623,0.7506030717277964,0.6495601160639437,-0.12110608709636675,0
79,15.833366700033368,0.8076387011235571,0.4502518350708163,-0.38077948140993184,0.8281337749517497,0.5461305238915916,-0.12623748119342845,1
80,16.033366700033366,0.8672820239382905,0.35735171620982653,-0.3465856919657742,0.8743547713201162,0.46822695565698996,-0.12754313727494235,1
81,16.233366700033365,0.890675531917786,0.3112453561842234,-0.3313961754407032,0.8942868361317924,0.4273790580113302,-0.13265819045478108,1
82,16.433366700033368,0.8978147962201362,0.29838783034237315,-0.32387234273979987,0.89985538545309,0.4157037460919285,-0.13210102481134886,1
83,16.633366700033367,0.890073532036048,0.310127115679441,-0.3340513129583915,0.8958810397691266,0.4223568479660524,-0.13788348544466605,1
84,16.833366700033366,0.8946200949697334,0.287507249556381,-0.34204453968579884,0.9038291302423295,0.40282172254960147,-0.14431757747262247,1
85,17.033366700033366,0.9015342154103377,0.25971270267786534,-0.34610023188698624,0.9118460699755763,0.3828881063061036,-0.14809943524342933,0
86,17.233366700033365,0.9519350837483715,0.27178042864836494,-0.14126214968168824,0.9141951507603644,0.3800573415108573,-0.14072541877690103,0
87,17.433366700033368,0.9691368294849767,0.2221501635898235,-0.10687895280560043,0.9060677864984276,0.4041092877593854,-0.125446601454333,0
88,17.633366700033367,0.9685808027851819,0.2482186398348847,-0.015451061922487208,0.8850433241442717,0.4542491858046567,-0.10176439251262889,0
89,17.833366700033366,0.9646601150674666,0.26349577018662884,-0.0009173286094782865,0.8592563932718742,0.5025532151007577,-0.09549197145991697,0
90,18.033366700033366,0.8255245830009228,0.5643292628828567,0.006453364645216506,0.8261451925378438,0.5581789513967147,-0.07694399953390381,0
91,18.233366700033365,0.8159226014531067,0.5751418193068195,0.05901013576019581,0.7601523857855839,0.6491887249504638,0.02687656566000278,0
92,18.433366700033368,0.7213785983829162,0.64513012216697,0.2518333640881007,0.6772647742480278,0.7159292657853673,0.16958098936730137,0
93,18.633366700033367,0.4895708890523853,0.6804302691707813,0.5452843234392817,0.579034353513735,0.7369064137784934,0.3488382931718518,0
94,18.833366700033366,0.2563794327361374,0.7288064747214082,0.6349100006095745,0.4732095913231514,0.7336869827610046,0.48762290143801673,0
95,19.033366700033366,0.1800020656544848,0.7107065367821017,0.6800701985349081,0.34654143135771553,0.7306314865674955,0.5882913115019786,0
96,19.23336670003337,-7.213630680202865e-05,0.7850075608906154,0.6194861775220817,0.1942450210049628,0.7462881211100942,0.6366497562276667,0
97,19.433366700033368,-0.2219991036268859,0.9309198354722507,0.29000803077359294,0.02936193715768376,0.7985320969912829,0.6012356998058688,0
98,19.633366700033367,-0.28239637057150485,0.8815437705741052,0.3783290504970922,-0.12268071376122625,0.8189985607719876,0.5605272517232763,0
99,19.833366700033366,-0.35832797989299203,0.8024808481882437,0.47710119169509996,-0.23919349272951473,0.7969190554599266,0.5547129817128078,0
100,20.033366700033366,-0.6044440804944333,0.5819813901395388,0.5440082858619794,-0.3629917188842142,0.7462938151670927,0.5579270144605198,0
101,20.23336670003337,-0.5689683755097064,0.6095404683400746,0.552028445938802,-0.47287289527336546,0.672899416294881,0.5688563970509546,0
102,20.433366700033368,-0.607901775895475,0.5288609819335026,0.5922512073870845,-0.5175838781493518,0.6001324080017574,0.6098754151020428,0
103,20.633366700033367,-0.6339516149896842,0.42074820837924964,0.6489039181555486,-0.5116561470492653,0.5398037855119852,0.6684458544516761,1
104,20.833366700033366,-0.6861929928474189,0.29295648182896644,0.665819552372485,-0.5133626268100845,0.5027728406066021,0.6954698297863241,1
105,21.033366700033366,-0.6773582532693689,0.28627451912105506,0.6776670985298595,-0.5220781909735468,0.4750096206703311,0.7083785871837297,1
106,21.23336670003337,-0.6719080936754545,0.2902566260749653,0.6813887324229794,-0.5251877513512815,0.4562508026855434,0.7183404700275364,1
107,21.433366700033368,-0.6588622415058267,0.33506806883573137,0.6735205534834192,-0.5117335639993799,0.48022300969142484,0.7124006039016268,1
108,21.633366700033367,-0.6705067597257048,0.3564422636583439,0.6506685775725239,-0.5311793448790625,0.49145789090991954,0.6901576957741061,1
109,21.833366700033366,-0.3329052211626989,0.6930465952054512,0.6394220285513675,-0.5520553270777335,0.4872739546755373,0.6766084605885146,1
110,22.033366700033366,-0.3378114906333175,0.7069292993174873,0.6213971053702962,-0.5554813559473357,0.5104517772711235,0.6564140814117723,1
111,22.23336670003337,-0.7399880376170174,0.5080149033564726,0.44083847626021666,-0.5698974243872441,0.5303088753951244,0.6276857672067643,1
112,22.433366700033368,-0.5737254848365334,0.5878785564094056,0.5702963010252464,-0.5865897383205727,0.5366065147729143,0.6066019512005122,1
113,22.633366700033367,-0.41821381201272984,0.6713755477382528,0.6118431836189255,-0.5786371254718263,0.5446741877882612,0.6070495088400122,1
114,22.833366700033366,-0.4041022426842794,0.6761335880432298,0.6160720319713626,-0.5647778170700366,0.5560559350231118,0.6097768562934944,1
115,23.033366700033366,-0.6786925620068884,0.4891841016967859,0.5477913114714713,-0.5632074339874843,0.5564607672725849,0.610859067860697,1
116,23.23336670003337,-0.6883828636208578,0.4810037170809645,0.5429221465619571,-0.5640795916073005,0.5523604896951712,0.6137687705934964,1
117,23.433366700033368,-0.44568451062341385,0.5982390452416417,0.665939458013067,-0.5616546719920094,0.551734995182819,0.6165488825066211,1
118,23.633366700033367,-0.46411033328907025,0.5911589809389698,0.65964585785822,-0.5557742949474286,0.55619789458772,0.6178663570157197,1
119,23.833366700033366,-0.4770980944307909,0.5919880825679978,0.649559480254098,-0.5497322524711468,0.5639409390029682,0.6162508157474927,1
120,24.033366700033366,-0.48562242234382663,0.5972681012928569,0.6383115838639777,-0.5457236329987671,0.5711041004264605,0.613209444531565,1
121,24.23336670003337,-0.7603847302340867,0.5036383481852575,0.4100774027717946,-0.5911726122600369,0.5760626945851464,0.5645057257645354,0
122,24.433366700033368,-0.8005217209169875,0.4827238974587443,0.3551656137104831,-0.674041044843373,0.5741148837246809,0.46482337522143896,0
123,24.633366700033367,-0.8286454909221498,0.49396880662997233,0.26332768265214823,-0.7272766641685984,0.5868987474095833,0.3558349533770652,0
124,24.833366700033366,-0.8969224403905214,0.4293572892928963,0.10574712315220502,-0.7572459455903031,0.5991441424552739,0.2600093737706051,0
125,25.033366700033366,-0.8790602595171091,0.468606376182739,0.08752784893160567,-0.7327564158341848,0.6490780019659944,0.2043667840371132,0
126,25.23336670003337,-0.4770131505177145,0.8734887277460738,0.09734421777234431,-0.6592285955040611,0.7346757364679442,0.16021616995492952,0
127,25.433366700033368,-0.26361032137459045,0.9627819447335325,0.05967013792427914,-0.4328461671471099,0.8964624233833638,0.09486474080332888,0
128,25.633366700033367,0.21483554255260412,0.9387005076311126,-0.26960535348768555,-0.10952046936979881,0.9938583922019298,0.015835499323164668,0
129,25.833366700033366,0.15979398871263495,0.94548299537655,-0.2837741824498716,0.16065567456207425,0.9859650973249727,-0.045415648051763575,0
130,26.033366700033366,0.35399742933864414,0.9335653257733005,0.05605000031599441,0.316799525350954,0.9478552885338625,-0.03476223145596769,0
131,26.23336670003337,0.4248016129055689,0.9015478572134039,0.08218911623048011,0.4565852666651607,0.8896624484410673,-0.005533723714605413,0
132,26.433366700033368,0.7438121760521902,0.6683579610176584,0.00640957883357729,0.6108398361779805,0.7917533351367723,-0.0011622555037207015,0
133,26.633366700033367,0.849829243762545,0.4687554294243896,-0.24095353043924705,0.6855691395510071,0.7276438068700908,-0.023009676636009904,0
134,26.833366700033366,0.8560631594884974,0.3692512725570028,-0.36167577287068287,0.7274294232844175,0.6814248332485353,-0.08066368930507514,0
135,27.033366700033366,0.8401023793439746,0.3671787178763421,-0.39925904042272875,0.7271127263111381,0.6707329113981189,-0.14637091515662384,0
136,27.23336670003337,0.5855443407272625,0.6370653625073777,-0.5012839005350355,0.7023324839864815,0.6832068504752157,-0.19989367524040236,0
137,27.433366700033368,0.34691498787030034,0.8567801738600958,-0.381546491100643,0.642502056755157,0.7291880898522383,-0.23553309042051215,0
138,27.633366700033367,0.2549739640292679,0.8831022214927315,-0.39385116993834596,0.547629349210498,0.8006076377655577,-0.24316559426600595,0
139,27.833366700033366,0.06327922824960275,0.8458741483239675,-0.5296155817848807,0.4338078512609236,0.8579909567570069,-0.2750677485776483,0
140,28.033366700033366,0.0959019996921679,0.8741239840339717,-0.47614080584593915,0.2845490183919388,0.9126689479944828,-0.29337219960116967,0
141,28.23336670003337,0.040256627757022156,0.9917429023263467,-0.12175967972587277,0.1540004620475517,0.9484498288774481,-0.27699599237440253,0
142,28.433366700033368,-0.013389966374348361,0.9951071261273715,-0.0978903280769753,0.050254209513913406,0.9657005816217294,-0.25474870182512305,0
143,28.633366700033367,0.04745897501044061,0.9897446364521376,-0.13473381277609783,-0.034519692964191995,0.9748855173466017,-0.22001504236189548,0
144,28.833366700033366,-0.06839958559661424,0.9881523246973392,0.13739170238939394,-0.15675625555816425,0.9868076583477258,-0.04047371702305208,0
145,29.033366700033366,-0.016952933665068226,0.9903179513780618,0.13777863846949168,-0.24453371255296275,0.9644817010770167,0.09989149970167312,0
146,29.23336670003337,-0.08170127044234127,0.9560711507885866,0.2815188395789799,-0.22873146527379395,0.9427918351005866,0.24253963070263687,0
147,29.433366700033368,-0.05156259285539172,0.9483519087520543,0.3130015274473342,-0.18751654600556644,0.9221472283483851,0.3383519384066449,0
148,29.633366700033367,-0.045999219814968795,0.9440840075846751,0.3264804104372471,-0.17135220852242244,0.9010983816449353,0.39832163791509917,0
149,29.833366700033366,-0.23294198951018352,0.8948837969715472,0.38068493461236985,-0.21840790679504196,0.8776194481091133,0.4267107809161419,0
150,30.033366700033366,-0.3401656298109508,0.8327881570064747,0.4367507639891185,-0.30511621256041593,0.8436141561310446,0.4418362280394093,0
151,30.23336670003337,-0.7009009598703122,0.6001337962097129,0.3854572234370424,-0.3845756997446052,0.7999201973105947,0.4606834152653283,0
152,30.433366700033368,-0.7247096258438439,0.5601435663540622,0.4012918430287716,-0.44243252809586275,0.762452000590038,0.4721444745826772,0
153,30.633366700033367,-0.8233123835230496,0.488376925660144,0.2892139305433635,-0.4973952077133986,0.7294444513603442,0.46958364507652084,0
154,30.833366700033366,-0.8486720687313636,0.45143650910488514,0.27560986557527883,-0.5566220874956529,0.6898658310673602,0.4628790196560243,0
155,31.033366700033366,-0.8667608125455266,0.4265533859359896,0.25841420777883223,-0.6016877793978356,0.6572241024257169,0.45390339865880364,0
156,31.23336670003337,-0.8205268025468833,0.5483602357843566,0.16135928269769123,-0.6322740333581853,0.6337386281097057,0.44565109444788814,0
157,31.433366700033368,-0.8240173572379349,0.5499935428383972,0.13602388689740463,-0.6716005582093051,0.6059923184104181,0.4262933265258984,0
158,31.633366700033367,-0.9406561000352475,0.3236877473858322,0.10194284505919937,-0.7310452412585337,0.5408645669995311,0.41597881604435344,0
159,31.833366700033366,-0.9639016866293084,0.2417398592940285,0.11160366903322655,-0.7899564008344484,0.44545703322986996,0.42135129800052434,0
160,32.03336670003337,-0.993541054912523,0.09753630177889396,0.05799001671501534,-0.8663664013411803,0.3168157774903044,0.3860531333383361,0
161,32.23336670003337,-0.9935400771359565,-0.1126579974810442,0.013648836149596348,-0.9151525019275077,0.17710131076973185,0.3621201788625781,0
162,32.43336670003337,-0.9839105325136551,-0.1743103329916385,0.03919147638250319,-0.940055987537979,0.06931374509276192,0.33390169965906275,0
163,32.63336670003337,-0.9872098987648775,-0.1483733174547135,0.05832644724413747,-0.9490822410778751,-0.04317946806800927,0.3120551765440881,0
164,32.83336670003337,-0.9189786147097042,-0.38835188712995433,0.068272377055704,-0.9447125636258246,-0.1569108521650597,0.2879186631678421,0
165,33.03336670003337,-0.9016033075023145,-0.42482519704084926,0.08145568034269172,-0.9252718572840534,-0.24351997744112913,0.29080923421581784,0
166,33.23336670003337,-0.8925358911989366,-0.43831143293651037,0.1061262016603983,-0.9044039023832469,-0.2928883870840544,0.31027403060078346,0
167,33.43336670003337,-0.8018410772603191,-0.45374667915265143,0.38879922579134824,-0.8782652796939852,-0.33421941549107786,0.3419758482595642,0
168,33.63336670003337,-0.7687640386402195,-0.47316388073431914,0.43025317530730467,-0.8449344318543459,-0.3650843272236459,0.3908954334379356,0
169,33.83336670003337,-0.7309195022209389,-0.5092981552539947,0.45428192824277425,-0.804297136361925,-0.40792691969618083,0.43208997283805717,1
170,34.03336670003337,-0.7096490066997119,-0.5339985808709078,0.4596126661853099,-0.7771273527345437,-0.433781909975798,0.45596746836759033,1
171,34.23336670003337,-0.6890840854157901,-0.5543649050665145,0.4667361945010039,-0.7512142145600738,-0.45553651840990017,0.47766482415798467,1
172,34.43336670003337,-0.6838253065055262,-0.561314020967926,0.46616469197853433,-0.7397307080876024,-0.4616039038834711,0.4896124134780017,1
173,34.63336670003337,-0.6720964485524673,-0.570516622294657,0.47201392726132196,-0.7237731312340012,-0.4684027609990708,0.5067063330886804,1
174,34.83336670003337,-0.6552757597115484,-0.5815976598055644,0.4820351033308096,-0.7039124987170808,-0.4764838133801323,0.526754563090443,1
175,35.03336670003337,-0.6329338647602317,-0.5926104050731996,0.4982044064825756,-0.6787887494779203,-0.48445264955888556,0.5518618159626346,1
176,35.23336670003337,-0.6080020313040198,-0.6050113703891372,0.5140960723736796,-0.6496083171128278,-0.4945758243555696,0.5774112817575082,1
177,35.43336670003337,-0.5808063111498687,-0.6212927235338963,0.5259842018657176,-0.6176196490491664,-0.5093526742959705,0.5992543886330141,1
178,35.63336670003337,-0.5642422290998521,-0.6329125733759342,0.5301437365121676,-0.5964820110426126,-0.5186339625764124,0.6125585876998618,1
179,35.83336670003337,-0.5651896714255393,-0.6432347700850286,0.5165362193182113,-0.5940373739776321,-0.5274820946106443,0.6073567635113042,1
180,36.03336670003337,-0.5715649904179141,-0.6517538831690981,0.4985281712226217,-0.5979911435502409,-0.5341322625043965,0.5975862434723629,1
181,36.23336670003337,-0.5797449110658283,-0.6594067458045634,0.4786215432684896,-0.606032007115578,-0.5408790036506972,0.5832453255374559,1
182,36.43336670003337,-0.5857272303977321,-0.6640872592814451,0.4646630215873232,-0.611331616494937,-0.545185035178586,0.5736261257047237,1
183,36.63336670003337,-0.5860289553605381,-0.6678754416995151,0.45881636615721777,-0.6117787296476775,-0.5478952878686445,0.5705589710818764,1
184,36.83336670003337,-0.5828464535129982,-0.6694494561550708,0.4605729445820724,-0.607015104090034,-0.5479355574156795,0.575586039029904,1
185,37.03336670003337,-0.4112933344094898,-0.8510251755811041,0.32648727938079714,-0.6035742774470062,-0.5494724561544546,0.5777353300014774,1
186,37.23336670003337,-0.3970878332987341,-0.8547503617989137,0.3342500136884711,-0.6018398242124182,-0.5553648536887908,0.573897817803129,1
187,37.43336670003337,-0.3752935143982471,-0.8675861345896577,0.32626534771315985,-0.5856894881666834,-0.5843906071172231,0.5616542012343647,1
188,37.63336670003337,-0.31785711944288264,-0.9016075089631415,0.29337817130923705,-0.5393313550391262,-0.6510402857319348,0.5341050793858271,1
189,37.83336670003337,-0.39331967248651284,-0.8720489994139026,0.2912562065541497,-0.5135471543416454,-0.6831773994340934,0.5191704548316167,1
190,38.03336670003337,-0.4171610451104316,-0.8662034755357036,0.2750785368076543,-0.5102153867709065,-0.6913500521419325,0.5115812393995324,1
191,38.23336670003337,-0.4440305039866239,-0.8557102989399404,0.26570057549335985,-0.5216616839326318,-0.685183829665563,0.5083229358207282,1
192,38.433366700033375,-0.4563684905581279,-0.8417974617973073,0.288279090704316,-0.5284304167502545,-0.6783760675186244,0.510457839268944,1
193,38.63336670003337,-0.4344673986387985,-0.8605362543016247,0.2659237382268922,-0.509702401780087,-0.7001247765832718,0.5000287580068121,1
194,38.83336670003337,-0.46850833223669414,-0.816175404179971,0.33816808281748395,-0.47704551506928067,-0.7368257965598604,0.47907757417375757,1
195,39.03336670003337,-0.4479738988688662,-0.834770238656033,0.3201219058208554,-0.4373076976069942,-0.7828548164156105,0.4426062742760777,0
196,39.23336670003337,-0.25091847109954296,-0.9445955036092445,0.2116110947522983,-0.3796962429419478,-0.8296608438090407,0.40925987751774545,0
197,39.433366700033375,0.1725332698110898,-0.9844889682289999,0.03183931914619781,-0.3051524115577851,-0.8683873574299297,0.39087773430617856,0
198,39.63336670003337,0.1712877591863169,-0.9617669197297025,0.21369346191816546,-0.1864654396599701,-0.9064192148260594,0.37899188224357033,0
199,39.83336670003337,0.24471633600648268,-0.931169658395998,0.27025355164038645,-0.05497031286797971,-0.9151191408022336,0.3994186060270337,0
200,40.03336670003337,0.41656339658184277,-0.8781338592222315,0.23527826486028985,0.07580449929927674,-0.912766100027944,0.4013872500787285,0
201,40.23336670003337,0.39316567349216736,-0.8848434865306005,0.2499455091251325,0.2329130779866137,-0.8913610429213642,0.38887914480586366,0
202,40.433366700033375,0.5980695179897878,-0.7873781376431755,0.14949421397842533,0.32502655808003084,-0.8737265962750943,0.361883367266564,0
203,40.63336670003337,0.591515109632527,-0.7996216887974394,0.10351342850640614,0.4030325145668175,-0.8649401370849148,0.29907081345640724,0
204,40.83336670003337,0.7207180350874638,-0.6931600495340703,0.009729318043444549,0.4826622586753778,-0.8442226921897716,0.23307764809658826,0
205,41.03336670003337,0.7657459564350806,-0.6283397795590504,-0.13719421134656948,0.5406144358293697,-0.8249731180540625,0.16478891425411588,1
206,41.23336670003337,0.7945819360718595,-0.5763381343592896,-0.19098141729380141,0.5667969548914585,-0.8152932572018949,0.11848255857675832,1
207,41.433366700033375,0.8030110643368309,-0.572207775818945,-0.16658779020374237,0.577531008809339,-0.80963233276148,0.10465858593957506,1
208,41.63336670003337,0.7745575776360464,-0.6323425276144047,0.014264876333363803,0.5808709984526238,-0.8086151882676255,0.09343639793766038,1
209,41.83336670003337,0.6867877274594548,-0.7268370737521458,0.005521379401539742,0.5868351576176231,-0.8061266560027067,0.07605466629861483,1
210,42.03336670003337,0.6380358072884942,-0.7693559497855575,-0.031650136607640426,0.597247605200891,-0.8010283281785024,0.04060684101668288,1
211,42.23336670003337,0.6224413464058274,-0.7816663913048497,-0.039552787372760204,0.5937812138997407,-0.8045821079659606,0.008455859554308859,1
212,42.433366700033375,0.6073574915382481,-0.7944281497034575,-0.0008901859961434472,0.5728419622250249,-0.8196049417864762,0.009991281868225494,1
213,42.63336670003337,0.5369239830755285,-0.8159709230053228,0.21425239603829666,0.5367415362779575,-0.8429592175519194,0.03644558653985458,1
214,42.83336670003337,0.5145545007053509,-0.8298369103823189,0.21588044832961226,0.5019163380319391,-0.8629025253914107,0.05898492425810123,1
215,43.03336670003337,0.5153669928838276,-0.8567832903414615,-0.017867737336893282,0.45695145904073065,-0.8843722727754325,0.09529452883856265,1
216,43.23336670003337,0.48858309393356136,-0.8725118661714891,0.003098985681628767,0.4117436896199466,-0.9052845659855155,0.10453223735561246,1
217,43.433366700033375,0.5590084885519992,-0.8158461369791697,0.1480019949290393,0.39246684727920766,-0.9122133894764206,0.11762867782415672,1
218,43.63336670003337,0.5616770065639454,-0.8098024271320522,0.1695257187225681,0.38544542478313387,-0.9133499029664245,0.131239396771597,1
219,43.83336670003337,0.5799339007499258,-0.7968012176114841,0.16965992565668528,0.39241329360868177,-0.9085009159840054,0.14365894561568215,1
220,44.03336670003337,0.5814740199104478,-0.7991852710616356,0.152285477598241,0.393370169439523,-0.9085513329811087,0.14069251982025022,1
221,44.23336670003337,0.4849629280593708,-0.8685815948632674,0.10186742105729855,0.4014759448947797,-0.9047185520667889,0.1424830067657791,1
222,44.433366700033375,0.4768972350814968,-0.8741175552103184,0.09212777455664244,0.39453101919388955,-0.9078692287286083,0.14184053871003588,1
223,44.63336670003337,0.4625342357190759,-0.8819349801213012,0.09084476664184098,0.3834053872183883,-0.9123461171112921,0.14361361928405678,1
224,44.83336670003337,0.45094841385694356,-0.8881883364323374,0.08813062501459729,0.3746308718590777,-0.9157442667194153,0.1451349297055244,1
225,45.03336670003337,0.35965594522535865,-0.9325661376955166,0.03111269656781786,0.35399673746327803,-0.9228970749904086,0.15148365865499583,1
226,45.23336670003337,0.3302040216824172,-0.942125150347177,0.05801297396330542,0.3077802864248068,-0.9379417778314962,0.1598014915029151,1
227,45.433366700033375,-0.07630641244134184,-0.984245276113094,0.15949472677612656,0.24696253628060444,-0.9556401881637228,0.16050338451339802,1
228,45.63336670003337,0.03017220893071787,-0.9995447122942491,7.702498229525299e-05,0.19487104121427262,-0.9653944053226164,0.1733173951681066,1
229,45.83336670003337,0.04247142423233102,-0.999096185932283,-0.0017289821405028257,0.18279172373262204,-0.9663700013108659,0.1808762181750098,1
230,46.03336670003337,0.06000020337201706,-0.9981924895095395,-0.0034248331440803943,0.18806482929515328,-0.9655184369204171,0.18001602136737563,1
231,46.23336670003337,0.07435641895302753,-0.9972181134803019,-0.005211248148945109,0.19798319324312819,-0.9642280279086455,0.17625823495275084,1
232,46.433366700033375,0.08556688706030474,-0.9962830147287068,-0.009922822274364744,0.2083040083958092,-0.9634098912267635,0.16867371334228196,1
233,46.63336670003337,0.09193949103886179,-0.9956569963732382,-0.01463815427356554,0.2114623613961752,-0.9640079349134234,0.16115945872554457,1
234,46.83336670003337,0.16627754065647554,-0.9844691931068558,-0.056322174112606066,0.21800071421396516,-0.9653943775212313,0.14314113473280604,1
235,47.03336670003337,0.23837293965447598,-0.959519002069935,-0.15000542092604577,0.2457553309896205,-0.9609850207787545,0.12693347521059845,1
236,47.23336670003337,0.3938677976044077,-0.8756470431244767,-0.2794824035205338,0.2746085744403478,-0.9557305564937363,0.10568459787506138,1
237,47.433366700033375,0.39822313621194044,-0.8609555072803079,-0.31650268287841393,0.2710171485770453,-0.9612065067318124,0.05130064905626698,1
238,47.63336670003337,0.3423476120611578,-0.8679527992078472,-0.3598000150962824,0.18525335461981968,-0.9823235231125499,-0.026864298648036078,0
239,47.83336670003337,0.13003485672489146,-0.8986044707065944,-0.4190476598940251,0.11031871185200331,-0.9831627108802539,-0.1456738334427466,0
240,48.03336670003337,0.1374166351774989,-0.8466070067550925,-0.514172387910589,0.09139037570844605,-0.9572869314427714,-0.2743164780262969,0
241,48.23336670003337,0.14632258924338576,-0.8037302004108295,-0.5767213060262986,0.09490139345057491,-0.938375268521805,-0.3323335387043717,0
242,48.433366700033375,0.15585601659649057,-0.8224356150885488,-0.5470909989431332,0.08911527667400448,-0.9494511662966936,-0.30099991741056054,0
243,48.63336670003337,0.22958337378537086,-0.8134264906246739,-0.5344425308967786,0.03315871702213391,-0.9627321339015487,-0.2684163516606554,0
244,48.83336670003337,-0.2543531583299497,-0.9654055060040688,-0.057416720775460776,-0.06450352222275035,-0.9799230543986414,-0.18865339402962442,0
245,49.03336670003337,-0.3101891184311828,-0.9505388454241108,-0.016081484592049753,-0.1591748832045331,-0.9781677234427423,-0.133608612640301,0
246,49.23336670003337,-0.2100508816741648,-0.974972218885532,-0.07285464644982502,-0.2131405348930112,-0.9703688119836333,-0.11382214685637157,0
247,49.433366700033375,-0.4842921404890572,-0.7663102733415413,-0.42217258038832817,-0.284826099307997,-0.950753953173275,-0.12223343928067017,0
248,49.63336670003337,-0.5240342030725083,-0.7045984983314674,-0.4784653698641136,-0.37768269814962885,-0.9141068269634195,-0.14752792419499963,0
249,49.83336670003337,-0.7658546908820281,-0.5209131784363661,-0.3769828285019309,-0.49715360535692027,-0.846196632344609,-0.1918060272495587,0
250,50.03336670003337,-0.8223355851543029,-0.4401957644772239,-0.3605438590868563,-0.6103903156714505,-0.7622767049921578,-0.21530881905023236,0
251,50.23336670003337,-0.8865553462488234,-0.2530213325840035,-0.38729810649555735,-0.7241354175740318,-0.6501966240203744,-0.22993965975314212,0
252,50.433366700033375,-0.8975950193854131,-0.19129309712556417,-0.39715253010223883,-0.8202089679564915,-0.5159239149713842,-0.24714320311177343,0
253,50.63336670003337,-0.8931092222513182,-0.1342198566916623,-0.4293494464877242,-0.8862614255829051,-0.38075740682090137,-0.263750796538664,0
254,50.83336670003337,-0.8864218101920902,-0.0593300828407336,-0.45906025278375995,-0.9233237893327986,-0.2727421120224687,-0.2703422282619665,0
255,51.03336670003337,-0.8712551148623718,-0.11218111864236975,-0.4778388027842676,-0.9410321098461254,-0.18574057819860917,-0.28277023508317833,0
256,51.23336670003337,-0.87038135578425,-0.09571969866740333,-0.4829845078159261,-0.9484990548806291,-0.11152417335653046,-0.2964994125587704,0
257,51.433366700033375,-0.8749250217094199,-0.08924744751083746,-0.4759633383986329,-0.9548507060699919,-0.05355588757121834,-0.292218917977767,0
258,51.63336670003337,-0.8768962739357558,-0.07693728563058543,-0.47448243259090817,-0.9599602324614088,-0.006011846826935072,-0.2800717939928399,0
259,51.83336670003337,-0.8273847806293296,-0.18568044521990074,-0.530053956730724,-0.9613640274948012,0.030445462812640087,-0.27359144802624813,0
260,52.03336670003337,-0.8107794355823368,-0.1831351334933343,-0.5559660328807561,-0.9577588135221402,0.08126793973802245,-0.27585064272428167,0
261,52.23336670003337,-0.8018299439394965,-0.16170254943841914,-0.5752573567605196,-0.9533388035744992,0.12518427594932127,-0.274725358593244,0
262,52.433366700033375,-0.7996682397965935,0.12314801974414209,-0.5876778637091193,-0.9469633517435454,0.16603459785118488,-0.27512346823022227,0
263,52.63336670003337,-0.7982298001408258,0.30883848329986907,-0.517153727048519,-0.9322860961772923,0.22754608165936485,-0.2811857314942825,0
264,52.83336670003337,-0.7854805038366022,0.34526795067175575,-0.513624785550234,-0.9174839908054764,0.2740025954904094,-0.28834996840675414,0
265,53.03336670003337,-0.7744858383545119,0.3671836643758688,-0.5151192510514613,-0.9009508155148306,0.32056128915755294,-0.2924518557246814,0
266,53.23336670003337,-0.7748467548055704,0.3817316302704278,-0.503878426823731,-0.8844403608859537,0.37235719635062,-0.28127453912828626,0
267,53.433366700033375,-0.702165642667931,0.5748732285439951,-0.42010020395155145,-0.867160957105733,0.41997711669513577,-0.26767722339397776,0
268,53.63336670003337,-0.6819140697820307,0.6029504007386769,-0.4140579858937357,-0.8406342462206446,0.48262267824711813,-0.24578326737723077,0
269,53.83336670003337,-0.691051794452956,0.5755459340150185,-0.4372576988711913,-0.7972772605892567,0.5620239536171535,-0.22017730425235563,0
270,54.03336670003337,-0.6731114982745194,0.6129515306519305,-0.41377691086150187,-0.7550865938798186,0.6288972336669663,-0.18529032686303848,0
271,54.23336670003337,-0.6744117365920455,0.7120777852374308,-0.19522816732801984,-0.7420432191698467,0.6550757268145581,-0.14229424803002344,0
272,54.433366700033375,-0.7112512085039494,0.702556135494834,-0.023164517699185004,-0.7693474027496569,0.6369316231361262,-0.04922074086741469,0
273,54.63336670003337,-0.7358873288513401,0.591827441565139,0.328953064503892,-0.7985894073282649,0.5882496421711231,0.1273472299998581,0
274,54.83336670003337,-0.7500475043727346,0.3581294807311118,0.5560323877396866,-0.7861116333110385,0.5066895870337565,0.3539691545383757,0
275,55.03336670003337,-0.6020850378852353,0.41441658791295277,0.6824606207081263,-0.7490635345378178,0.43742796179501486,0.49755461958017316,0
276,55.23336670003337,-0.5535653251471819,0.3754009808503644,0.7433972924158918,-0.666721030954219,0.403218465092274,0.6268157115867262,0
277,55.433366700033375,-0.4729591621010235,0.39175057271262553,0.7892028381626791,-0.5813283923266113,0.3799671878571493,0.7195013804204181,0
278,55.63336670003337,-0.46226814448067505,0.36969583284084456,0.8059982343519791,-0.5352795620134163,0.3546915768013246,0.7665961621590052,0
279,55.83336670003337,-0.45933003905115477,0.338609663308727,0.8211938937542191,-0.5000214255116187,0.3270495610011248,0.8018835069249778,1
280,56.03336670003337,-0.5422011423292715,0.2901573720993274,0.7885598396274348,-0.45984065777109023,0.2991304009171534,0.8361026089588495,1
281,56.23336670003337,-0.3395032830455703,0.4753866363858926,0.8116311149450759,-0.4136728539899468,0.2671016340859678,0.8703628478631298,1
282,56.433366700033375,-0.3484636761537253,0.45466767422394766,0.8196647927154235,-0.3923568832760555,0.2508185641122539,0.8849554361901886,1
283,56.63336670003337,-0.3962243040291431,0.39228111847958,0.8301336187512415,-0.38363713258288645,0.24853853959724898,0.889410560336703,1
284,56.83336670003337,-0.4889473146450707,0.24474337632364654,0.8372760615514315,-0.38940418667012,0.24444175679203406,0.8880386291936895,1
285,57.03336670003337,-0.4892176834994272,0.2231031857684234,0.8431435385813231,-0.40254691624345845,0.2404522242860161,0.8832546111166298,1
286,57.23336670003337,-0.49139020610612016,0.20173187025281553,0.8472543407190584,-0.418053155619459,0.23660999595879834,0.8770674255090029,1
287,57.433366700033375,-0.4953961639225274,0.18420846856078613,0.8489109970316877,-0.43673981495383835,0.23710922679315913,0.8677773611956224,1
288,57.63336670003337,-0.4945388962826796,0.16409750894740915,0.8535240404468782,-0.45381891502090027,0.23653014679788514,0.8591285596609067,1
289,57.83336670003337,-0.5035207098094211,0.17063260658312907,0.8469660018936204,-0.46543906500736715,0.2403234540801392,0.8518281013115611,1
290,58.03336670003337,-0.5129670939375625,0.17191732153265235,0.8410167626714055,-0.4788457887484191,0.24382628068520598,0.8433596240306525,1
291,58.23336670003337,-0.5275071901431365,0.17446442673463397,0.8314435207225134,-0.4973213925757361,0.24666115243220815,0.8317630121418872,1
292,58.433366700033375,-0.6012380118003926,0.2937598908816136,0.74311370575137,-0.5323305835749396,0.23803798396120826,0.8123804945851717,1
293,58.63336670003337,-0.5951322883806645,0.2736984598131993,0.7555836898866173,-0.5666148820957626,0.2361186228310839,0.7894273692620221,0
294,58.83336670003337,-0.5871550589311884,0.4096790116926755,0.6981490128547242,-0.6068129262216021,0.24059737464019473,0.7575559226133887,0
295,59.03336670003337,-0.6037911334047174,0.3987591609673086,0.6902372047104497,-0.6433036101144811,0.2522741137428117,0.7228542292530041,0
296,59.23336670003337,-0.6297449339220149,0.3797306547475635,0.677662119381439,-0.6839091274655061,0.2543386098067684,0.6837983452238906,0
297,59.433366700033375,-0.8056614734091969,0.3872734284238029,0.44825091399906314,-0.744079934374893,0.26296978229557794,0.6141595434901845,0
298,59.63336670003337,-0.7921164711385944,0.34975530877986377,0.500222670549069,-0.8172129730548234,0.2878055234373729,0.49933048910499805,0
299,59.83336670003337,-0.8938825335372919,0.3374325901668978,0.2951495609520887,-0.89454173652969,0.32955598914093903,0.30197339556289354,0
300,60.03336670003337,-0.9402123814912876,0.33134369690353477,0.07881644633438051,-0.9270971098912516,0.360755959279059,0.1017157149900375,0
301,60.23336670003337,-0.8433837357333225,0.3551564194571017,-0.4031969642977452,-0.9214152649496523,0.37653637092406583,-0.09599099379158713,0
302,60.433366700033375,-0.6579397061827991,0.29744604260033586,-0.6918389948315226,-0.89152312688478,0.3542019291938835,-0.2823605984993585,0
303,60.63336670003337,-0.6199127541308687,0.29086162974085744,-0.7287713561950512,-0.845583681800304,0.3279720690275798,-0.42121557308676355,0
304,60.83336670003337,-0.6599470653804818,0.3328022172146858,-0.673581884489688,-0.7988756693054386,0.3172765940291095,-0.5110119645106904,0
305,61.03336670003337,-0.6222894771935428,0.34790619008967516,-0.7012254198697264,-0.7552200220632144,0.3413976496137043,-0.5595447820443656,1
306,61.23336670003337,-0.46995698179629,0.4742481080761947,-0.7444656924580689,-0.7135624856199665,0.3601877609861225,-0.6009104392100866,1
307,61.433366700033375,-0.42774561777051046,0.469673232509917,-0.7722957601475032,-0.6637317243652194,0.3721427712892993,-0.648821975466532,1
308,61.63336670003337,-0.4397684196531295,0.48014305481885894,-0.7589903714705497,-0.6441663150039059,0.39324633839737216,-0.6560541715067044,1
309,61.83336670003337,-0.4552305279545777,-0.06983072110205961,-0.887631025149844,-0.6533247663326497,0.37826861553500835,-0.6558045472529275,1
310,62.03336670003337,-0.4461371901724456,-0.12045985015497379,-0.8868207440321164,-0.6890592742616937,0.3029098352978938,-0.6583638418334891,1
311,62.23336670003337,-0.3604298344974352,-0.272513045006108,-0.8920913488570834,-0.7353335149439901,0.18503574294485373,-0.6519558233752983,0
312,62.433366700033375,-0.2807713934524709,-0.3049558653585035,-0.9100381007420535,-0.7543447410469764,0.01868551315148214,-0.6562125137888154,0
313,62.63336670003337,-0.32033082802980145,-0.29707303824038733,-0.8995197443994032,-0.7288132290056462,-0.14022666895219257,-0.6701997900185704,0
314,62.83336670003337,-0.29244121441844395,-0.32717584477740985,-0.8985733707959823,-0.670695614879792,-0.2667048118141424,-0.6921242197295229,0
315,63.03336670003337,-0.25119071089335127,-0.37844217486269305,-0.8908898624667855,-0.6269480986934968,-0.3488377368944622,-0.6965976707274867,1
316,63.23336670003337,-0.24698850409333517,-0.39965005201031595,-0.8827663987567089,-0.6028644748271503,-0.3920519183464252,-0.6948738866242367,1
317,63.433366700033375,-0.3013465840440449,-0.42794788936617606,-0.852086169511054,-0.576814973935109,-0.43294155298051984,-0.692709244594769,1
318,63.63336670003337,-0.23849506108095345,-0.4880310436754534,-0.8396105086580563,-0.5512399921121307,-0.4731200601507059,-0.687234952384707,1
319,63.83336670003337,-0.2965772587211075,-0.5254427184522563,-0.7974659110175029,-0.5588119980456456,-0.48261392998667496,-0.6743982098308464,1
320,64.03336670003337,-0.33701170137944336,-0.5490524081920911,-0.7648297628830866,-0.5803672318830267,-0.4704055548242798,-0.6647499455787077,1
321,64.23336670003337,-0.3525661841200189,-0.6353015813755681,-0.6870873208819612,-0.628127555316862,-0.4197263535761556,-0.6551988723779419,1
322,64.43336670003337,-0.39530951649012025,-0.6260898930788692,-0.672117424232431,-0.6742624627966118,-0.35954053152501214,-0.6450587085329208,1
323,64.63336670003338,-0.43454290647976784,-0.6154198732558537,-0.6575947399651741,-0.6922857245621126,-0.3402286362010753,-0.6363842790926466,0
324,64.83336670003337,-0.41206724111628257,-0.6479782206896493,-0.6405660108924698,-0.6803908669860598,-0.3782729673707678,-0.627676533158977,0
325,65.03336670003337,-0.27974530429429784,-0.7057019023458438,-0.6509434612550832,-0.6514938812153546,-0.45470965073524283,-0.6072848230173277,0
326,65.23336670003337,-0.47277504417136185,-0.7530748716837691,-0.45756091971150864,-0.6300112504815784,-0.5522149753873231,-0.54602604811915,0
327,65.43336670003337,-0.5247460253796028,-0.7543463204745436,-0.39446576231002145,-0.6045996370288063,-0.6180174811381246,-0.5025073849331213,1
328,65.63336670003338,-0.28741726063196116,-0.8364325166477278,-0.4666604369187173,-0.5738784713121573,-0.6551835152309843,-0.49132276716430706,1
329,65.83336670003337,-0.28481713602219805,-0.862504321049693,-0.41828877010830806,-0.5591624464916805,-0.6841095767249934,-0.4683283521916959,1
330,66.03336670003337,-0.29633811152958367,-0.8863989709486532,-0.35564109430189417,-0.5504688515646717,-0.7117888554089664,-0.4362804932296023,1
331,66.23336670003337,-0.3005527208829183,-0.8965849294813996,-0.32527453973022286,-0.5658115958072533,-0.7218525052827094,-0.39847985980112705,1
332,66.43336670003337,-0.27656493847482777,-0.9083967508856761,-0.31357164697523593,-0.5641319078077879,-0.7313753645071698,-0.3832039493339678,1
333,66.63336670003338,-0.2674525403833907,-0.9137987989946705,-0.30568103244782574,-0.5722684779172323,-0.7293796813947645,-0.37485206355409917,1
334,66.83336670003337,-0.2550849269164223,-0.9185755195431183,-0.3019117337172138,-0.5756105411790193,-0.7287740818868277,-0.37089195522902346,1
335,67.03336670003337,-0.23252480741359316,-0.921953159686396,-0.3097330871598038,-0.5667368710491538,-0.7327228691472015,-0.3767313578959259,1
336,67.23336670003337,-0.22564419209255027,-0.918778144507981,-0.3239311960113942,-0.5648665809170068,-0.726505778319166,-0.3912992458873307,1
337,67.43336670003337,0.06136214344100843,-0.9979996759399062,0.015209673769265403,-0.561075974368292,-0.7267459658177852,-0.3962752227357228,1
338,67.63336670003338,-0.2559765225708444,-0.8771326010611336,-0.4063427371668752,-0.5596410145071262,-0.7302933391948946,-0.3917570338985701,1
339,67.83336670003337,-0.2727318387985298,-0.8872105231201466,-0.3721220656860449,-0.5631485552941558,-0.7309562355183198,-0.3854434931698706,1
340,68.03336670003337,-0.4076475818963152,-0.8915718445501224,-0.19728936864306648,-0.5652067458294705,-0.7315842474022981,-0.38121624233717205,1
341,68.23336670003337,-0.41397119410631067,-0.8901057628758432,-0.19062943462489856,-0.5683421112541385,-0.7308554609741541,-0.37793853963236607,1
342,68.43336670003337,-0.40802784693901756,-0.8970112158610578,-0.16995338990963568,-0.570256573320987,-0.7295793728725563,-0.37752003822723623,1
343,68.63336670003338,-0.42101127294977386,-0.8962668273624717,-0.1394821931961949,-0.5743304798992747,-0.7379966553758401,-0.3542674646545217,1
344,68.83336670003337,-0.45421901904800627,-0.888362211960912,-0.06706461880144096,-0.6035559458178009,-0.7468106121052339,-0.2792742915396715,1
345,69.03336670003337,-0.45555968565020527,-0.8874467615434528,0.07002583977592812,-0.6092729753901578,-0.7825402224053025,-0.1281297848943953,0
346,69.23336670003337,-0.4372391367007802,-0.8908557034812217,0.12328038332246416,-0.5879114488676658,-0.8078035547111081,-0.042585740411785616,0
347,69.43336670003337,-0.5303080415733508,-0.8475772795444244,-0.019650349684165288,-0.5834921226645025,-0.8118879147105497,0.019363799612380276,0
348,69.63336670003338,-0.5270953197092526,-0.8497634813559508,0.008517610839649784,-0.5765352804382321,-0.8140496556963319,0.0702155856679471,0
349,69.83336670003337,-0.5138025432588649,-0.8544576250687673,0.07687075843625266,-0.5597749305278842,-0.8119134723788345,0.16567601070235138,0
350,70.03336670003337,-0.35550688527497565,-0.9337447025329125,-0.04166155318525734,-0.4868647027124007,-0.8529569554341657,0.1882211290722818,0
351,70.23336670003337,-0.1772638758485962,-0.9814707630522268,-0.07275066730149606,-0.37936448704782744,-0.9110061749453737,0.1617106526433498,0
352,70.43336670003337,-0.2094217080144793,-0.9773302159345781,-0.031115867874273992,-0.2910092732850474,-0.9465493100292197,0.13913305338889495,0
353,70.63336670003338,-0.1824246713196353,-0.9829466726504096,-0.02317494378444005,-0.22778029471763644,-0.9651858739815145,0.12857824856828357,0
354,70.83336670003337,0.04331955415716876,-0.9967882151067051,0.06735481016240227,-0.1553784734505826,-0.9793189516649665,0.12958364440776218,0
355,71.03336670003337,0.20993979180657563,-0.9649506390450682,0.15746602180383676,-0.06355647797330255,-0.986991488861794,0.14767658928214858,1
356,71.23336670003337,0.3956835661034294,-0.8944323909813597,0.20838717205970644,0.030577505671675997,-0.985376048007866,0.16762774280917267,1
357,71.43336670003337,0.36674886439730003,-0.9065398971296532,0.20899924730833136,0.04884471696608911,-0.9838997279026983,0.17191718662629143,1
358,71.63336670003338,-0.001656193977732423,-0.9900971662715061,0.14037399460954877,0.0022951625871686643,-0.9848269732802933,0.17352396067481576,1
359,71.83336670003337,-0.01943786743628051,-0.990967104364625,0.13268898739805132,-0.04245855430429313,-0.9837044065710201,0.17470807554073323,1
360,72.03336670003337,-0.23326405125748872,-0.9723968371868318,-0.00568096998669921,-0.07198699631509631,-0.9831024908129881,0.16830735253942272,1
361,72.23336670003337,-0.24036287054418665,-0.9706828449008975,-0.0007106890028946117,-0.09726757755702248,-0.9815450360045289,0.16464616804243257,1
362,72.43336670003337,-0.22789174218703795,-0.973650883464166,0.008325321159314534,-0.10035693392479522,-0.9819611147673347,0.16025247236192008,1
363,72.63336670003338,-0.31683640797641954,-0.9478389334185382,-0.03487186368131525,-0.1028919301287563,-0.9817880840582313,0.15970412867439213,1
364,72.83336670003337,-0.30489922437181843,-0.952171061101745,-0.020167631934386993,-0.10276476990050226,-0.9819090104773531,0.15904118086420999,1
365,73.03336670003337,-0.2978502389540706,-0.9545664903907674,-0.009383526951864148,-0.10865693773190038,-0.9814672418142502,0.1578471511566004,1
366,73.23336670003337,-0.27248387481340086,-0.9620543593690196,0.014281021873111581,-0.10989447864688534,-0.9815760915379893,0.15630604621681968,1
367,73.43336670003337,-0.25431505913105273,-0.9663126145340515,0.039544679686846836,-0.11045214956871635,-0.9816537871435258,0.15542253646888848,1
368,73.63336670003338,-0.25153431517270924,-0.9660721748305111,0.05860922545847996,-0.12066727586015652,-0.9801227030796114,0.15747665047366546,1
369,73.83336670003337,-0.24969627951604517,-0.9653830174441813,0.07541483691033629,-0.13128933475367138,-0.9777902548982349,0.1633686873485354,1
370,74.03336670003337,-0.24345078844777673,-0.9658653317207576,0.08852047550768734,-0.1367163248797289,-0.9757797350153826,0.17077047533075052,1
371,74.23336670003337,-0.2300924566330027,-0.9682418949530217,0.09780129988078504,-0.13331789824298973,-0.9750643679197465,0.1774142508969817,1
372,74.43336670003337,-0.22312435201007502,-0.9691944687279886,0.10429575891260352,-0.13480513339270733,-0.973958119933218,0.182299634193614,1
373,74.63336670003338,-0.21913990155070934,-0.9696405560291627,0.10851219125887192,-0.137260583944174,-0.9732747654601963,0.18410801996030493,1
374,74.83336670003337,-0.219842751571666,-0.9692178941493088,0.11084150054098846,-0.1435752301461306,-0.9726369331658062,0.18265691755392402,1
375,75.03336670003337,-0.1089976463275607,-0.9939857706955114,0.010573587371490238,-0.14919750664099019,-0.9725088592298078,0.17879212155922847,1
376,75.23336670003337,-0.1152961693709833,-0.993277933327859,0.010283019610750094,-0.1515237944664078,-0.9730208309807977,0.17398563787835936,1
377,75.43336670003337,-0.12755009383063998,-0.9917874928799532,0.009409704070374884,-0.15713222679423638,-0.9727211267653674,0.17065483540468193,1
378,75.63336670003338,-0.14458926927472854,-0.989463895371015,0.0074258311196059,-0.16615295714451345,-0.9711296330635192,0.17117368553036438,1
379,75.83336670003337,-0.15722062554659488,-0.9873299708896374,0.02147564867018714,-0.16725361526545846,-0.9712427342169335,0.16945140722770433,1
380,76.03336670003337,-0.16204377079440824,-0.9860595082385895,0.037795007064433506,-0.1624334718034764,-0.9732222089991388,0.16264654668546025,1
381,76.23336670003337,-0.16632790498818573,-0.9849524326995045,0.04694393828354242,-0.16274983645295832,-0.9737659306835714,0.15903585436779047,1
382,76.43336670003337,-0.16960224526475493,-0.9846358591023944,0.041560839390513846,-0.17227599186546988,-0.9722978394469591,0.1579806761396603,1
383,76.63336670003338,-0.16743406175439024,-0.9850442965552194,0.040664097044694425,-0.17359465018955483,-0.9718277182198948,0.1594232841371652,1
384,76.83336670003338,-0.16170679411514327,-0.985948521686406,0.04190972824289642,-0.17111464763773288,-0.9721662863262841,0.1600390236610309,1
385,77.03336670003337,-0.15543068897698187,-0.9869911847113486,0.04110598771747931,-0.16745518459774583,-0.9733992177783873,0.15637366779531198,1
386,77.23336670003337,-0.15420755158944716,-0.9871638079104641,0.041564977859982685,-0.16742776996640074,-0.9739089789073857,0.15319674489900753,1
387,77.43336670003337,-0.1564129202908311,-0.9866273310761804,0.04584220696680684,-0.16929475732024657,-0.9734391697592428,0.1541280893358354,1
388,77.63336670003338,-0.005137738408074244,-0.9994370374784886,0.03315436261297811,-0.16629053125681675,-0.9739775913922621,0.15399711257050833,1
389,77.83336670003338,0.045062257032518094,-0.9954777767549601,-0.08362648490841604,-0.16153227256534425,-0.9749417450125512,0.1529572448488707,1
390,78.03336670003337,0.08199275186250127,-0.9953833630295085,-0.04989137446573761,-0.15343128613967244,-0.9765615995987983,0.15095125909565005,1
391,78.23336670003337,0.08383409951006143,-0.9959099811387504,-0.03369203507583246,-0.15019210694799828,-0.9771100837192594,0.15065926889728007,1
392,78.43336670003337,0.0842859406046444,-0.9958019406582802,-0.03569839208695044,-0.15137617252440583,-0.9769459572283625,0.1505385367506277,1
393,78.63336670003338,0.08224098655255513,-0.9959239361628788,-0.037039620795856876,-0.149065193371672,-0.9773611665526986,0.15014898680915031,1
394,78.83336670003338,0.06987899510490053,-0.9967174564698174,-0.04088077801934727,-0.14851582964753157,-0.9773362490584316,0.1508539181476601,1
395,79.03336670003337,0.059732940683492386,-0.9974644535677639,-0.03868642741407652,-0.1488936869200324,-0.9770410369550718,0.15238596425234668,1
396,79.23336670003337,0.053532328933772966,-0.9979242427547501,-0.03579798152529492,-0.14899509583578957,-0.9769450247097379,0.15290153731003955,1
397,79.43336670003337,0.05079654380203347,-0.9980697219928331,-0.03572871644653854,-0.14998511467843106,-0.9771600513983135,0.1505413542058897,1
398,79.63336670003338,0.047099134890310534,-0.998353712010668,-0.03273434293069715,-0.15244030408552545,-0.9768624877367263,0.15000544571157123,1
399,79.83336670003338,0.045402275497748334,-0.9985490088678654,-0.028957041779690978,-0.15357753824746073,-0.9769612783181504,0.1481910942425885,1
400,80.03336670003337,0.045212038851996816,-0.9986616939419399,-0.025113593845983984,-0.1529932309735732,-0.9772363097653708,0.14697709397190836,1
401,80.23336670003337,-0.033686235992275215,-0.9986388060771682,0.03982175914548824,-0.1578977919008806,-0.9767979904220886,0.1446857740767756,1
402,80.43336670003337,-0.13350341071899008,-0.9852277269043503,0.10725281099012457,-0.1649452422431154,-0.9751122877481619,0.14815226405258036,1
403,80.63336670003338,-0.12654259060346107,-0.9850518161599876,0.11687554168120562,-0.1679120139250101,-0.9742289468527329,0.15061047338701974,1
404,80.83336670003338,-0.12519832012835064,-0.9835979388868513,0.1298478927614043,-0.17142050754711696,-0.9733540447979032,0.15230532842894992,1
