,timeStamp,x_gaze,y_gaze,z_gaze,x_head,y_head,z_head,fixations_head
0,0.033366700033366704,-0.9944292591525536,0.04652788956271032,0.0945812033870563,-0.9936720296221232,-0.01129359428378573,0.1117512965240402,0
1,0.2333667000333667,-0.9942707753731157,-0.03199321224420536,0.10199048783705468,-0.9886334617144321,-0.07978200590465709,0.12743119677837011,0
2,0.43336670003336675,-0.9976580504096451,-0.046772188145264314,-0.04990768346587916,-0.9862889041467644,-0.1205001407293275,0.11275599159773027,0
3,0.6333667000333668,-0.9465907421903137,0.06321582198488065,-0.31617989602497937,-0.99761955992281,-0.06350578967618467,0.026874306261247014,0
4,0.8333667000333668,-0.8113277620807406,0.014400607634942072,-0.5844141382417111,-0.9600854341104289,0.04046000831313565,-0.2767651476185007,0
5,1.0333667000333666,-0.4785336062597247,0.07691605709606221,-0.8746939509570522,-0.8119193703780466,0.12200453113135795,-0.5708781221840036,0
6,1.2333667000333668,-0.1931558456041267,0.024618569086575837,-0.9808591873276635,-0.6094612891493458,0.1445202519718784,-0.7795324456354609,0
7,1.4333667000333667,-0.00763140910271225,-0.02324766968348644,-0.9997006089071843,-0.4072762617662634,0.18039725147612734,-0.8953116095871634,0
8,1.6333667000333667,0.04369209404535562,-0.04917121134079759,-0.9978342512127003,-0.30622903211809877,0.2089626917584062,-0.9287402076690198,0
9,1.8333667000333667,0.04925597967603404,0.2771033273098795,-0.959576778824888,-0.2653595091242189,0.31167946828007326,-0.9123816306623039,0
10,2.033366700033367,0.26125791196110537,0.4759913350138928,-0.8397479100476616,-0.09066794658317778,0.49129415999423914,-0.8662617224707236,0
11,2.233366700033367,0.5825347442332761,0.49575249652106124,-0.6441139138026803,0.22527563297131173,0.6102329198975995,-0.7595173945754137,0
12,2.433366700033367,0.8668047642372322,0.30613735217847143,-0.3936107497220966,0.5494874122024427,0.48602465993834,-0.679590769333195,0
13,2.633366700033367,0.8872556315659877,0.20517263129457616,-0.41313634023419027,0.6731127897526812,0.358856104244578,-0.6466385920417735,0
14,2.833366700033367,0.9751547570729938,-0.09618474058157973,-0.19955374072456072,0.7909974560620827,0.15171333493630226,-0.5927107966840313,0
15,3.033366700033367,0.8860893813088143,-0.37439967281727515,-0.2732590224056293,0.8437785780534663,-0.020996602317967274,-0.536280573868914,0
16,3.233366700033367,0.8732888344892903,-0.3785249865940531,-0.306733509875118,0.8698257644690921,-0.14929366536648403,-0.47022817966089614,0
17,3.433366700033367,0.9179751436941821,-0.05098333329531858,-0.39334760109316086,0.8818229437858358,-0.18791863334578793,-0.4325215405668648,0
18,3.633366700033367,0.9226485547106812,0.048053168446391,-0.38263629923538917,0.9078990040072079,-0.15595267870103316,-0.38909916541762507,0
19,3.833366700033367,0.9936075313699749,0.08903592420534989,-0.06940228962911485,0.9392506888975122,-0.10767350158137583,-0.3259057539577274,0
20,4.033366700033366,0.9950417253625339,0.09382137528709586,-0.03300779191023928,0.9612877874289095,-0.07998306801550997,-0.26368257160999153,0
21,4.233366700033367,0.9945629281502648,0.09788466819272164,-0.03554115476418937,0.9735708043625517,-0.05377515347645023,-0.22196423532055437,0
22,4.433366700033367,0.9483067829884101,0.2811938790062722,0.1471198414476401,0.9784167604120954,0.11079396516394681,-0.17442861069202625,0
23,4.633366700033367,0.9355274206607,0.31971958493911945,0.15022593716896737,0.9351255297980853,0.34412003709565453,-0.0843898310765931,0
24,4.833366700033367,0.9082257023202519,0.3521289215974311,0.22612230367550198,0.7985205594975281,0.6019615731020166,-0.0026796582431734472,0
25,5.033366700033366,0.5983071964726594,0.7518518300051519,0.2770330745000154,0.5115060775938178,0.8536688173626168,0.09803613031581028,0
26,5.233366700033367,0.34277402017051606,0.824911881717123,0.4494734235725827,0.14265756834699672,0.973420803979149,0.17916684005113617,0
27,5.433366700033367,0.12167801700794365,0.27060276806965794,0.9549704718419588,-0.20251217877077088,0.9135729754558056,0.35266589850216784,0
28,5.633366700033367,-0.1497207786674748,0.47662677519772595,0.8662624346004055,-0.41809329834560394,0.7005777696220061,0.5782635926547245,0
29,5.833366700033367,-0.4085680824508561,0.32526080443041794,0.8528056819133581,-0.5480736153407464,0.5212907450638836,0.6541186981565843,0
30,6.033366700033366,-0.6321949844019518,0.16303657581106556,0.7574619308221493,-0.6637252147302125,0.3886690334731199,0.6390658978152444,0
31,6.233366700033367,-0.6352409339695937,-0.1531220498921134,0.7569825583501084,-0.753272661332179,0.1761008243486314,0.6336945615620106,0
32,6.433366700033367,-0.5957646898951126,-0.14779921254120587,0.789442731961211,-0.7920116143158062,0.01680622893653322,0.6102746541171474,0
33,6.633366700033367,-0.6011808567045576,-0.18694449084737277,0.776938436990854,-0.7862164654486443,-0.08435805136482094,0.6121661446269068,0
34,6.833366700033367,-0.5491363791054604,-0.25777858575701856,0.7949839230248973,-0.7518440321836981,-0.17442936931398717,0.6358497828815256,0
35,7.033366700033366,-0.5605857617322773,-0.1748302156400405,0.8094306637645374,-0.7444839430775432,-0.1764144980189269,0.6439111610994515,0
36,7.233366700033367,-0.5493576841093737,-0.1839748494739119,0.8150824434810486,-0.7351280509297706,-0.19991047046936625,0.6477827973425302,0
37,7.433366700033367,-0.5783703433373923,-0.23977484109824201,0.7797408361270428,-0.7401627035826519,-0.2521960209691379,0.6233428745341951,0
38,7.633366700033367,-0.7107470979988897,-0.3068038675193429,0.6330165476204631,-0.7445911236323723,-0.33998963598342896,0.5744485233959061,0
39,7.833366700033367,-0.8363964281683963,-0.5260033904904512,0.15414748826918503,-0.7659165790250997,-0.45623835868812307,0.4530103244254549,0
40,8.033366700033367,-0.8288461795191686,-0.5450588108137436,0.12619391209874561,-0.742684794635125,-0.5778812751272857,0.33833788980107515,0
41,8.233366700033368,-0.9000885800660633,-0.42748190054947344,-0.08426014916476529,-0.7729799266068578,-0.5966324501486381,0.21571219829321184,0
42,8.433366700033368,-0.7013202988436068,-0.6695189716085914,-0.24473288517501762,-0.7353672737399303,-0.6718733193821991,0.08843763573642109,0
43,8.633366700033367,-0.606277591355106,-0.6313909344025066,-0.4835007447512162,-0.6851134521583411,-0.7188972765716619,-0.11750005706180662,1
44,8.833366700033368,-0.5639943509781913,-0.6066493377454364,-0.5602561495224415,-0.6550750947403999,-0.7241166403724937,-0.2157121030135053,1
45,9.033366700033367,-0.7100609968921137,-0.4597091613315281,-0.5333674790240223,-0.6528081761758826,-0.7200280998052221,-0.23537421398445366,1
46,9.233366700033368,-0.7237591081071025,-0.4137018159817565,-0.5522893814708086,-0.6855065855557113,-0.6809758996138379,-0.2575898781102919,1
47,9.433366700033368,-0.7062438058550827,-0.4504083698268124,-0.5462160626357316,-0.672286382239332,-0.7015547628853092,-0.23633013969548786,1
48,9.633366700033369,-0.5531255590079489,-0.7581038417469003,0.34544273201318737,-0.6233497905925978,-0.7590178236216913,-0.18795473389291267,1
49,9.833366700033368,-0.46535585652152334,-0.8742996601277986,0.13800011268667597,-0.5353512648574037,-0.8373332385519207,-0.11077937909074294,0
50,10.033366700033367,-0.4329923527893183,-0.8989371956070924,0.06655479531954273,-0.4762922807920337,-0.8743628533819623,-0.09292612056723198,0
51,10.233366700033368,-0.4721358943075476,-0.8813824581729321,-0.01589527387156656,-0.46215441649126293,-0.8846350051606183,-0.06192094122421746,0
52,10.433366700033368,-0.5302599441055545,-0.8478218711710273,0.004739877765544668,-0.5395858300156118,-0.8414728286943313,-0.02775987419863628,0
53,10.633366700033369,-0.6992878804219284,-0.7148379416424065,-0.0017825497060840417,-0.664535125091841,-0.747254460988313,0.001959094749364471,0
54,10.833366700033368,-0.8769000305690139,-0.46777071935829356,0.11062047956453426,-0.8092886087935531,-0.5873354743974039,0.009433355255279892,0
55,11.033366700033367,-0.9389888963607018,-0.2850886041994678,0.19241709972585727,-0.907951406202243,-0.41897502691393035,0.009174464444352213,0
56,11.233366700033368,-0.9690083095956374,-0.2258323756081251,0.10011310634375772,-0.9617162274264227,-0.2737265102722417,0.01325501712069138,0
57,11.433366700033368,-0.9893372180541504,0.048208176631368525,0.13743304070984266,-0.9870053844889219,-0.1604944495123029,0.007867824706889952,0
58,11.633366700033369,-0.992316877525522,0.04591704930867953,0.11488620091543841,-0.9931211948634313,-0.11621664563879996,0.014282282362994654,0
59,11.833366700033368,-0.9860753333868117,-0.11030139664401951,0.12445496689352009,-0.9875292044458753,-0.15225387921813224,0.040060287436906976,0
60,12.033366700033367,-0.9263570897059532,-0.24395054245092135,0.28696807346709774,-0.9746658168326655,-0.21406870115938625,0.0648161760816422,0
61,12.233366700033368,-0.8403139106321402,-0.381538872874973,0.38509819537802936,-0.9118595341141563,-0.3922013191974077,0.12120361077512165,0
62,12.433366700033368,-0.585190621456326,-0.6826851722990945,0.437599008319848,-0.8128611551163363,-0.5600953590206522,0.15984345875406444,0
63,12.633366700033369,-0.4140418884272474,-0.8938699391661242,0.17194722004949062,-0.669820975805737,-0.7278317467410259,0.1469721361570195,0
64,12.833366700033368,-0.2728159142678055,-0.9494443921549524,-0.15532811441505046,-0.5385349472011414,-0.8348887075850718,0.11375832536563082,0
65,13.033366700033367,-0.1973125147270634,-0.9494352009767968,-0.24421419016558463,-0.43071532124271666,-0.8950541315842685,0.11559590641849922,0
66,13.233366700033368,-0.23962871703507693,-0.9025666762609214,-0.35770305125262275,-0.4086325976077509,-0.9074557317090592,0.09769081410612813,0
67,13.433366700033368,-0.6813893882679367,-0.594121905775126,-0.42746656317655923,-0.49940066303509945,-0.8636496740186351,0.06861645813949209,0
68,13.633366700033369,-0.6103724047916336,-0.5846738199153073,-0.5344174882753381,-0.6197043866046784,-0.7848244646325889,0.00412709790162668,0
69,13.833366700033368,-0.7459855974883196,-0.4337551897375262,-0.5053334777310503,-0.724236026191313,-0.6888386553494049,0.0313605686019887,0
70,14.033366700033367,-0.8498602442580572,-0.2798294932655407,-0.44657924260805804,-0.7821416473542049,-0.6206417204896689,0.05530188298488778,0
71,14.233366700033368,-0.8341047340045018,-0.26040638517003456,-0.48626927444982077,-0.8094747175784809,-0.5865368322152279,0.026930021466092476,0
72,14.433366700033368,-0.8268394580861913,-0.2976700287996561,-0.4772096651432636,-0.7950890736749716,-0.6045961045892665,0.047926143576974875,0
73,14.633366700033369,-0.7659916152130767,-0.6417220947227207,-0.03807359410333736,-0.7536043211623227,-0.6503279322243766,0.09567710120108129,0
74,14.833366700033368,-0.759237680681274,-0.6350329502757073,0.14244752120641255,-0.694226842881532,-0.7151126424649065,0.08162719650704428,0
75,15.033366700033367,-0.7391878311732074,-0.667642556136783,0.08862712609913594,-0.6707940936448635,-0.7380767882343345,0.07264942257757799,0
76,15.233366700033368,-0.7602464551096868,-0.6436116701512272,0.0882572690394571,-0.6883432403776351,-0.7171711961373467,0.10885338238816906,0
77,15.433366700033368,-0.8298285829142708,-0.5482238248388617,0.10409207874541773,-0.7725530194505771,-0.620670354035988,0.133903486730697,0
78,15.633366700033369,-0.8500784246400054,-0.45543134756937365,0.26447865625171185,-0.806341305179366,-0.5813876844928549,0.10863728587217894,0
79,15.833366700033368,-0.871813762449817,-0.4893115504747749,-0.022692954304502896,-0.8197422228231906,-0.5602170186327567,0.11907804228790603,0
80,16.033366700033366,-0.8788656683810587,-0.467628966092689,-0.0944366825560786,-0.8468170893410292,-0.5260925805699879,0.07827779933798915,0
81,16.233366700033365,-0.8784811247645044,-0.4769313680447625,0.028414496431270222,-0.8642158857103864,-0.4944122660514068,0.09320629841231466,1
82,16.433366700033368,-0.9148943742594845,-0.40286140553896954,-0.025903124821390785,-0.8848162337144944,-0.45124354039802883,0.11610124807403974,1
83,16.633366700033367,-0.9157328383014204,-0.4016762791628712,-0.009462326051043368,-0.8762017299325678,-0.43569886803147995,0.2060024875074635,1
84,16.833366700033366,-0.8999898494654597,-0.428220795137662,-0.08151822784388733,-0.852118760947564,-0.4602440254559147,0.2491366176886161,1
85,17.033366700033366,-0.912946777762636,-0.3759879397627723,-0.15862298107703715,-0.8543474111624066,-0.46503675257634075,0.23201577488038308,1
86,17.233366700033365,-0.9258581396086555,-0.3689360324797679,-0.08168787705949553,-0.8723135530327893,-0.4471379762324528,0.19782996589510277,1
87,17.433366700033368,-0.9447778400983842,-0.3229408368842885,0.05571399044681245,-0.8890990237246387,-0.4198501643723769,0.18228759005588593,1
88,17.633366700033367,-0.9774486152475966,-0.18275178834129863,0.10581109775733734,-0.9225149804968272,-0.3511417227783838,0.16020487284463977,1
89,17.833366700033366,-0.9850495222617561,-0.14187070497920926,0.09772482673603643,-0.9447126396866268,-0.2942915381857803,0.14460469898510717,0
90,18.033366700033366,-0.9897270688612436,-0.07520556645931166,0.12159133166827883,-0.9640642435331284,-0.2100508024683437,0.16266159572345926,0
91,18.233366700033365,-0.9900303995813553,-0.005790831650259243,0.14073476533387466,-0.9774112477675365,-0.14085814380454892,0.1575634350394923,0
92,18.433366700033368,-0.9513350581994184,0.1945144085529936,0.23900994101917347,-0.9888383492332479,0.01617988275226647,0.14811120983837947,0
93,18.633366700033367,-0.7943574318510517,0.5372122292626248,0.2835476876888313,-0.949529810726627,0.28691607694067106,0.12677658827414234,0
94,18.833366700033366,-0.6178494865359585,0.766685520918815,0.17451453807834405,-0.8488093887552384,0.5189394030032265,0.10111635659780065,0
95,19.033366700033366,-0.5176858334294034,0.8501745207022923,0.09594093086442272,-0.7388890623099953,0.6672640610838528,0.09381698345470735,0
96,19.23336670003337,-0.15963664477027334,0.9798753508736956,0.11983504661258912,-0.5388926403095975,0.8391801186125941,0.0732901817810765,0
97,19.433366700033368,0.28946274442350084,0.9416707050356192,0.17166130276953892,-0.23524248724140057,0.9692529710382007,0.07217790749322547,0
98,19.633366700033367,0.41310223016598346,0.8392404182533023,0.3535845978007429,0.008906741279348374,0.9945689341324017,0.10369814472072994,0
99,19.833366700033366,0.38374378516294083,0.866069445216204,0.32041289520198113,0.17830417297063417,0.9792895311408305,0.09591473348360414,0
100,20.033366700033366,0.7834195120937394,0.5924131879430147,0.18788422717727526,0.4475630965951053,0.8882538966121902,0.10340352856387963,0
101,20.23336670003337,0.8720079104385078,0.4697678824517698,0.137551229545388,0.6145200677997683,0.782447555694694,0.10070207971420701,0
102,20.433366700033368,0.9533322792023218,0.3011708712883088,0.02129957084891106,0.7112066943250045,0.6973917857807265,0.08848579023136469,0
103,20.633366700033367,0.9628061097286049,0.2695793003706058,-0.018204281940371856,0.799377365137636,0.5965713847401718,0.07140315829712615,1
104,20.833366700033366,0.8021416171346167,0.40241878091802463,-0.4411665794516995,0.8558649451936766,0.5166200951739011,0.02447187878228128,1
105,21.033366700033366,0.8001589370213046,0.41597524977770794,-0.4320998346184706,0.8673160783199052,0.4969652385314652,0.028077962517674717,1
106,21.23336670003337,0.9961777538708669,0.08614652018638357,0.014445059798115053,0.858804356541556,0.510121010608919,0.04724014945551576,1
107,21.433366700033368,0.9888642769767381,0.1488142148212075,-0.0013308592790779214,0.8520481575319907,0.5196368627317226,0.06317806689566553,1
108,21.633366700033367,0.9930334984944704,0.11667392535402772,-0.016482293842644886,0.8784153184029224,0.4746968101854895,0.05522197746200428,1
109,21.833366700033366,0.9845547411698821,0.1628202150791625,-0.06435479159691002,0.9031186275322457,0.4259585937804736,0.05418506241423606,1
110,22.033366700033366,0.985340415044262,0.14552420163668026,-0.0890335510827713,0.9171842332592192,0.393731981738886,0.0612226168721016,1
111,22.23336670003337,0.9884865957275025,0.11066083754694002,-0.10319122588894446,0.9318047581993065,0.358899438380821,0.054139502464126785,1
112,22.433366700033368,0.9913112942195349,0.0923635685153178,-0.09365302538576777,0.9423498350610545,0.3303771322114422,0.05317648796363243,1
113,22.633366700033367,0.9928984726116866,0.08576037077068188,-0.08244866215200526,0.9466948545625063,0.31806681569438183,0.05101326395077466,1
114,22.833366700033366,0.9950407400135528,0.07651203735893541,-0.06355968732196951,0.9521636831266742,0.2996633273588185,0.059884979509791714,1
115,23.033366700033366,0.9533082831741965,0.1361407096919032,-0.2695719280564119,0.9696207244954336,0.2390832038844967,0.05171916713632315,0
116,23.23336670003337,0.8341564752305044,0.14966249000302878,-0.5308334144692802,0.9831444972006331,0.18248074396485708,0.011299367510905788,0
117,23.433366700033368,0.8143995750484165,0.4081259251092193,-0.41253673947262254,0.9806207949327441,0.1958609117418287,-0.004621666055932284,0
118,23.633366700033367,0.7786475109045425,0.4987927740247914,-0.38067548166754006,0.9657122419018241,0.25824406240243597,-0.026643387075217132,0
119,23.833366700033366,0.7557711458110828,0.5638981143805806,-0.3329097351496784,0.9489889712842492,0.31529205540075694,0.0032942650210055877,0
120,24.033366700033366,0.7647896522882102,0.26591177149065,0.5868455653198575,0.9240490152013713,0.38129728407825864,0.027309314526730636,0
121,24.23336670003337,0.7280940569167638,0.31289514218309067,0.6098980851590798,0.8917170837087111,0.44898436735488484,0.05704104217987202,0
122,24.433366700033368,0.9774546050782091,0.19138050560846606,-0.08919639614048358,0.875610955733662,0.4772884098768131,0.07417026355923283,0
123,24.633366700033367,0.9732580032194902,0.21858828325328536,-0.07062592720518908,0.8425803884912858,0.5317596480505918,0.08538129558038558,0
124,24.833366700033366,0.9463095103245212,0.3219441174605726,-0.029159833708336396,0.7760832169298194,0.6216018460576049,0.10632960724859676,0
125,25.033366700033366,0.7869285487010825,0.6160121040695178,-0.035672775039990376,0.6958609727881564,0.7080189370510876,0.12036067184661597,0
126,25.23336670003337,0.4644396879350542,0.8429957696095288,-0.27139253617450104,0.6190739326224932,0.7763667619769261,0.11833054062575574,0
127,25.433366700033368,0.4205927238976406,0.8479438544080716,-0.32263443767822775,0.5710986356809071,0.8163915812389727,0.08573875672959277,0
128,25.633366700033367,0.18600666318618164,0.9430382826846263,-0.27582660974165096,0.47791071532269136,0.8765327892677405,0.057372619935542046,0
129,25.833366700033366,0.0587216097089594,0.9185112903432142,-0.3910099513634309,0.28010576061597287,0.9592528772305018,0.03707668262873151,0
130,26.033366700033366,-0.120230172998043,0.9398466480933207,-0.31973893033005896,0.1391377545829771,0.986851671783773,0.08224635643710847,0
131,26.23336670003337,-0.23062672221280212,0.9454687448239019,-0.2300003642660046,0.001956849442524722,0.9959850056980635,0.0894988221424614,0
132,26.433366700033368,-0.5305192021501626,0.8006285173609514,0.278466072149481,-0.21278137557630544,0.9735657110918445,0.08302946702277814,0
133,26.633366700033367,-0.5258824147318786,0.8479187523929763,-0.06694382134377609,-0.3866432735694244,0.921567884097966,0.03492297242098788,0
134,26.833366700033366,-0.7203100421994812,0.6632525298784324,-0.2030997900452888,-0.46267104898770056,0.8865082390705877,0.0062163082763846385,0
135,27.033366700033366,-0.7481359130125628,0.5871526079838582,-0.309102686171785,-0.5461897993209384,0.8376072899938735,-0.009525275159938461,0
136,27.23336670003337,-0.8092747049472786,0.5003044091520443,-0.30784728375530496,-0.6564223554904598,0.753788230191405,0.030215811047631803,0
137,27.433366700033368,-0.7949604605190579,0.41693227904172553,-0.4406873505155333,-0.7861877782979575,0.6173703680650996,0.027615319843979493,0
138,27.633366700033367,-0.8172966515961686,0.37795342217501837,-0.43494527696698043,-0.850328021035923,0.5246754103438096,0.04071818293693755,0
139,27.833366700033366,-0.9286120231756689,0.15690506240036595,-0.3362447201172515,-0.9121740756902186,0.40530878691638006,0.06052472954973047,0
140,28.033366700033366,-0.8937073551983912,0.12622536145615848,-0.43052795657141635,-0.9605420330638316,0.27201894603323545,0.058005997246571704,0
141,28.23336670003337,-0.8824603720427747,0.08147660556822893,-0.46327665009064206,-0.9867583013928726,0.15574170700019702,0.04530535655877729,0
142,28.433366700033368,-0.9071788540395634,-0.14134678363625713,-0.3962923334347386,-0.9986043116108955,0.0349334934355665,0.03961161279873822,0
143,28.633366700033367,-0.8951553348858236,-0.17188662006110525,-0.4112808240964053,-0.998024604349697,-0.042898576396995146,0.04589772604107916,0
144,28.833366700033366,-0.8871750453140081,-0.2705026668180192,-0.37382983590990687,-0.9842604495223738,-0.15523021486675714,0.08446862079160207,0
145,29.033366700033366,-0.6928154803218708,-0.2658914349818412,0.6703047478794053,-0.9728344976622475,-0.22270843618225591,0.0631980427821673,1
146,29.23336670003337,-0.7309789015398998,-0.31161968532540857,0.6070939113689207,-0.9647732776092622,-0.2608636088203504,0.03409839298713131,1
147,29.433366700033368,-0.9080321287323525,-0.33410311280390254,0.25269104298438305,-0.9544748959235039,-0.28873436379572365,0.07490086925593682,1
148,29.633366700033367,-0.8979674386368689,-0.3269310658065256,0.2945684255967544,-0.9453104643701311,-0.30624568594093804,0.11225731956042702,1
149,29.833366700033366,-0.9231977400337227,-0.3513661276183089,0.1557169777485483,-0.9266896392334978,-0.35466393069772795,0.1243374794634638,1
150,30.033366700033366,-0.9691146792201274,-0.10041041351301093,0.2252431738770698,-0.9405297263954543,-0.3159839249660505,0.12473168374371311,1
151,30.23336670003337,-0.967832605551956,0.004322723437531011,0.2515578694706135,-0.9687718367766134,-0.2239583493341025,0.10641327939693897,1
152,30.433366700033368,-0.6731123970138836,0.6312002891349188,0.3853646273105757,-0.9965471863078048,-0.0502222743971314,0.06611678014223765,0
153,30.633366700033367,-0.5782324965704947,0.683371170263407,0.44570284221965034,-0.9945988159335215,0.06456352274540632,0.08126959378722394,0
154,30.833366700033366,-0.6561477016483859,0.5894335631927989,0.4712093676948515,-0.9484830072142081,0.3083480027836086,0.07281136041341783,0
155,31.033366700033366,-0.6598057432480675,0.5758100534665327,0.48280344189300695,-0.8726122826851335,0.4863034172534306,0.04535185194318571,0
156,31.23336670003337,-0.5834654344805648,0.7139974052255764,0.3870087752203428,-0.7946474752054368,0.6034490012923022,0.0662170143463749,0
157,31.433366700033368,-0.5272833302036581,0.7376818888965537,0.4216606698322158,-0.7169923292525293,0.6905093061329468,0.09549292087285426,0
158,31.633366700033367,-0.16955244420063442,0.9178027327463463,0.359012691180869,-0.5414720275150212,0.8366879674703405,0.08222705460566225,0
159,31.833366700033366,0.04314098715860798,0.9398640755218169,0.33881318565029533,-0.3538466847435133,0.9297988341228156,0.10132448746417574,0
160,32.03336670003337,0.15984197815471674,0.9456155936816101,0.2833049434898076,-0.20163524248944314,0.9746993461958511,0.09645938788735947,0
161,32.23336670003337,0.28755547742075244,0.916373006129497,0.27851815208799563,-0.06126651078096651,0.9934002730943745,0.09696552001999618,0
162,32.43336670003337,0.5227113784233749,0.8285511596894801,0.20068829224434714,0.12370132942669931,0.986742712859443,0.10505617410154566,0
163,32.63336670003337,0.5506989000385523,0.816005733261584,0.17568541425102385,0.3166396682122293,0.9441910438477994,0.09078872855180187,0
164,32.83336670003337,0.7738059288676371,0.6050355216969687,0.18750040515734995,0.4432274579925568,0.8944274836102989,0.059572619918924645,0
165,33.03336670003337,0.8784949644790403,0.4324411166927785,0.2030794868480625,0.6192597471999477,0.7834258419126322,0.05254822281809975,0
166,33.23336670003337,0.9904751421599133,0.1370634527061584,-0.013137834508270012,0.7793609436691435,0.6260804186663654,0.02489636209752309,0
167,33.43336670003337,0.9954575469572089,0.09484678072443811,-0.008268034358092242,0.8862191130530128,0.46282187055846424,-0.020287922325748414,0
168,33.63336670003337,0.9829374922174675,-0.17773827131806383,0.047360250232685225,0.9539316838808238,0.29896756263859686,-0.025154303374026042,0
169,33.83336670003337,0.9381803713504053,-0.3451050971117609,-0.026833985173608986,0.9848264304493175,0.1701958425296748,-0.03391573490388227,0
170,34.03336670003337,0.9164173222645537,-0.4002001935373788,-0.004369959508926316,0.9957386384578293,0.08937101191367343,-0.02274612300315777,1
171,34.23336670003337,0.8653547613478881,-0.49899593388705865,-0.046520909027251096,0.9992364585202717,-0.03131045984039369,-0.023369960814011288,1
172,34.43336670003337,0.8233360018662567,-0.09025789157693961,-0.5603314564068068,0.9990782775490491,-0.04214667181512549,-0.008139618205641371,1
173,34.63336670003337,0.8104951095028865,-0.0651427841838794,-0.5821117548552655,0.9973659072082043,-0.07011331145835348,-0.018584151718603708,1
174,34.83336670003337,0.8194858917997697,-0.057962429367484684,-0.5701607053480237,0.9981953142735862,-0.05943043501380152,-0.008610340081948276,1
175,35.03336670003337,0.8176596221944822,-0.027088909345700116,0.5750642861656752,0.999952147977886,0.005600123205556072,0.008021245196034813,1
176,35.23336670003337,0.8080681174913162,0.07869656890367993,0.5838088450313415,0.991672643063793,0.1287444220252657,-0.0032004368845229727,1
177,35.43336670003337,0.9823027217168329,0.0864335802302978,0.1661643737877503,0.975336228127976,0.21965978897326077,-0.02165223335629194,1
178,35.63336670003337,0.967687240986661,0.11996797025135335,0.22178613515139814,0.9602491963473859,0.2783405506565412,-0.021166453987687482,1
179,35.83336670003337,0.8339100505561793,-0.05738234215328549,0.5489091859227664,0.9590440186142952,0.28318421968317997,0.006424023861407301,1
180,36.03336670003337,0.9697819454791482,0.1765920040444794,0.1683396635681358,0.9628094265044773,0.2701153336360806,0.0059761834634136455,1
181,36.23336670003337,0.9667232208375515,0.15795823002177575,0.2012347183312537,0.9651804555099818,0.2608043827674088,0.02019312335561444,1
182,36.43336670003337,0.971304241915184,0.1523261622926538,0.18266036767389382,0.9679145399923444,0.25046904491581534,0.020166824498850437,1
183,36.63336670003337,0.9732554486434121,0.1691965070833075,0.15539103473727,0.9658737935531342,0.2590112662293295,0.0009893904977734667,1
184,36.83336670003337,0.970826147493845,0.19329035759833302,0.14189936223171645,0.9620422924165254,0.2728940591545614,-0.0018601290557347344,1
185,37.03336670003337,0.9184504207482624,0.3116783906623353,0.2435270116875674,0.9352094770483073,0.3539819432286343,0.008945272891967025,0
186,37.23336670003337,0.5960301180380781,0.28439349210953463,0.7509117391792856,0.8774819744496406,0.47958132484143423,-0.005209354978833921,0
187,37.43336670003337,0.600693955272557,0.33650844979669875,0.7252095113237512,0.8313821709507178,0.5543832179140571,-0.03824831395665149,0
188,37.63336670003337,0.6661357261480997,0.7144225328346202,0.21415797656709012,0.8110765408622862,0.5842092873388627,0.029229325169877116,0
189,37.83336670003337,0.5424530554890155,0.8072458584561214,0.2325915015559912,0.6861577842820377,0.7238394826310375,0.07241476682001091,0
190,38.03336670003337,0.45747553497611443,0.41448033599942297,0.7867160771003244,0.6029672337141279,0.7919069152033523,0.09650882198142613,0
191,38.23336670003337,0.4195662166465682,0.3949325383232666,0.8173080692263027,0.5338280996880447,0.8316415317756021,0.1529703324484235,0
192,38.433366700033375,0.32700545239257517,0.47034172158805426,0.8196621859272957,0.3690178963908769,0.9168679344744487,0.15224645439487336,0
193,38.63336670003337,0.11878457986885133,0.9250295614329139,0.3608469676477989,0.2129859363834214,0.9597114370492069,0.18327833614430175,0
194,38.83336670003337,-0.009150627681891788,0.9390934149021569,0.34354013462830363,0.07709859918967626,0.9794052938894825,0.18660406293606205,0
195,39.03336670003337,-0.017460664152070926,0.9067880663779577,0.4212250323543143,-0.047464959952296604,0.9758290461635681,0.21331842452124936,0
196,39.23336670003337,-0.3230566882874082,0.8832998328476056,0.3397289823435218,-0.1788143230860425,0.9618500123254405,0.20705069825728775,0
197,39.433366700033375,-0.5145909557365322,0.814632139698235,0.2675268682671664,-0.2798530267451176,0.9418933197008782,0.18579358902948157,0
198,39.63336670003337,-0.5451710253798259,0.7977913728377085,0.25752180201302166,-0.35330109543998045,0.9222470405881794,0.15696729623477274,0
199,39.83336670003337,-0.6739512383609895,0.683195808489064,0.2811284680971727,-0.40965677838463554,0.8955818955698238,0.17353498855009797,0
200,40.03336670003337,-0.7198696772529352,0.6278192791054614,0.29602466207269634,-0.4710898325436429,0.8604415983516769,0.19420253731610787,0
201,40.23336670003337,-0.6593983368923733,0.6876849263190253,0.3037816245548255,-0.47973839841518584,0.8520148122641369,0.20957535343770747,0
202,40.433366700033375,-0.5244835685433251,0.7866892492805762,0.32563324675840905,-0.3191330723872592,0.9225937252271963,0.2167369379687583,0
203,40.63336670003337,-0.03848952948856085,0.7349389473242726,0.6770401020808441,-0.16339844092410638,0.9658700623002742,0.20098749278409422,0
204,40.83336670003337,0.07540018518934194,0.7778795972202391,0.623873500240146,-0.01671068874124243,0.9784261451642272,0.2059199634344955,0
205,41.03336670003337,0.47116555474586563,0.8039820184502393,0.3627891040669494,0.1831515688591802,0.9653718910924615,0.18577571077238828,0
206,41.23336670003337,0.7754629462106929,0.547326832909507,0.314786526127598,0.3907169491559403,0.8988519696190836,0.19850794027990132,0
207,41.433366700033375,0.8212617557059649,0.4582866333290816,0.33985657316970047,0.500704935878663,0.843211144166127,0.19567711552656095,0
208,41.63336670003337,0.8742353006074888,0.37591619876644405,0.3072452614390028,0.5858966137483731,0.7884189392075341,0.18740526752750644,0
209,41.83336670003337,0.9031296632404079,0.2832231813745018,0.32270953023946114,0.6558435131396958,0.7265593314500248,0.2048922257077491,0
210,42.03336670003337,0.9473612456012678,0.17151695272885573,0.2703490433854396,0.7545476944003189,0.6323385090025019,0.1755157739568047,0
211,42.23336670003337,0.9719183295120705,0.010580999427759736,0.23508041860090445,0.8593526622469666,0.4846637536331731,0.16313812492257476,0
212,42.433366700033375,0.9954966116254359,-0.032142783168279315,-0.08918148761078869,0.9479384213138643,0.29557671504277805,0.11852069406436655,0
213,42.63336670003337,0.9901419555944784,-0.011679361050994376,-0.1395797273854005,0.9888621834811079,0.12665905681051395,0.07816051054622748,0
214,42.83336670003337,0.9953009025500299,0.0029747861793544433,-0.09678462703489217,0.9980229602068087,-0.008487858766005425,0.06227461082661934,0
215,43.03336670003337,0.760841835854845,-0.4412126891820411,0.47586874631328874,0.989510605464129,-0.12142507556316459,0.07826054368896918,0
216,43.23336670003337,0.7607300915299373,-0.44575896580720525,0.47179303963003133,0.9788752315899242,-0.17382087279103603,0.10765493561344533,0
217,43.433366700033375,0.6959844407060479,-0.4816173876297434,0.5325883496921344,0.9643941294273324,-0.2195990667249557,0.14737779011651142,0
218,43.63336670003337,0.7227138311939229,-0.46816355094255147,0.508436434345399,0.9350866560049527,-0.30223147623105145,0.18511909824940936,0
219,43.83336670003337,0.5534420740933729,-0.6317403782706991,0.5427761648097856,0.8857498896590431,-0.4021610449835715,0.23176200479525388,0
220,44.03336670003337,0.6028666102389416,-0.638736164869005,0.47808781823786695,0.8307613809445167,-0.49788638155367315,0.24888687991645966,0
221,44.23336670003337,0.5688694547626747,-0.6787756543728948,0.4643825518564034,0.7675427607121378,-0.5884839546699827,0.2540959377368476,0
222,44.433366700033375,0.32469356226103935,-0.6893130033763423,0.6476277279444757,0.7043968459885397,-0.6547941219648145,0.27398857859722026,0
223,44.63336670003337,0.4231953780480009,-0.7457781778317849,0.5145100402020475,0.6983339293556129,-0.6350847918754999,0.3301469827807053,0
224,44.83336670003337,0.45639635790757116,-0.6888614502568728,0.5631804922391243,0.7340591437133933,-0.5817151758732076,0.35037783561401664,1
225,45.03336670003337,0.5549625713414429,-0.5313802403332298,0.6400402991948971,0.7802969545513079,-0.527603340582105,0.3358144989790609,1
226,45.23336670003337,0.5912246501837203,-0.5000300353009978,0.6327901522716837,0.8141732205942955,-0.4853701861715692,0.31864988505080194,1
227,45.433366700033375,0.3033456181873705,-0.3936763523064805,0.8677559366326375,0.8125359862559524,-0.4895695073829331,0.316396852828689,1
228,45.63336670003337,0.3157186941116579,-0.4289716649412464,0.8463480471212568,0.7975695848371765,-0.5101866409805088,0.3218576528648641,1
229,45.83336670003337,0.39111719059875183,-0.4707905285117458,0.7908120013516304,0.7897685067123061,-0.522838221806921,0.3207894942531497,1
230,46.03336670003337,0.37542412447275075,-0.4671679210628798,0.8005066272640443,0.783061112319015,-0.5322020594702698,0.321832661905703,1
231,46.23336670003337,0.40086918839957686,-0.4666133067859017,0.7884008597929044,0.8024688081576927,-0.5158476699777976,0.299908308175098,1
232,46.433366700033375,0.41974939683769785,-0.4864505373959528,0.766274310232033,0.8173240116370875,-0.4978654968007978,0.2900196667413322,1
233,46.63336670003337,0.7802911064296391,-0.602269431958287,0.1685743769244059,0.8230881504520783,-0.48910525485955647,0.28862076545901144,1
234,46.83336670003337,0.8520969926371553,-0.506109856424948,-0.13335489630393849,0.8424864634981162,-0.4674940616700523,0.2677048022088406,0
235,47.03336670003337,0.9000146114913904,-0.4038736292696329,-0.16388956855937228,0.8860759506012095,-0.41402454899029834,0.20845402994315837,0
236,47.23336670003337,0.996653937616782,0.08146860880220431,0.006617734717951502,0.9550217602969537,-0.2671654952308865,0.12867025886871883,0
237,47.433366700033375,0.9928879603609663,0.11645215012595442,-0.02474661393570764,0.9821339131079587,-0.13733608476059248,0.12865370785904479,0
238,47.63336670003337,0.9930091703632336,0.11260760733079417,-0.03538805371529294,0.9915035915541586,-0.0032442980181196603,0.13003884983178926,0
239,47.83336670003337,0.9796563704137179,0.19495270099702255,-0.0476113461454953,0.9848883996752975,0.11978041647441101,0.12508993570326934,0
240,48.03336670003337,0.6700084038985596,0.31104921387233764,0.6740453436191856,0.9599752930454168,0.25227951292604583,0.1216654597663721,0
241,48.23336670003337,0.6038527756490711,0.35876875735096175,0.7117912644095594,0.927854632761236,0.35712874313271664,0.1074469231386269,0
242,48.433366700033375,0.6828921856220631,0.6590910097711421,0.3150512714704991,0.9004931301738425,0.42935754637548107,0.06902332852117522,0
243,48.63336670003337,0.6704216052637607,0.6691500055205754,0.32058250312107894,0.8759247203395552,0.4782176556746266,0.06374761249753953,0
244,48.83336670003337,0.6276382500557858,0.6938827655549599,0.35298290997258175,0.8402374162624267,0.5341401033662125,0.09324931253673333,0
245,49.03336670003337,0.5622575029713782,0.7420931769470179,0.364916726228153,0.7936398636389275,0.5984612572306857,0.10945268583754429,0
246,49.23336670003337,0.4964400662610382,0.7840945547387915,0.37248220070187593,0.7360542421070267,0.667663129658419,0.11158000703968368,0
247,49.433366700033375,0.4447230450340877,0.8044681322619461,0.39376698362176715,0.6953535850713184,0.7061392671361026,0.1336066133728161,0
248,49.63336670003337,0.3819583791051227,0.8263358719627628,0.4138560418055143,0.6377512567146478,0.7547533927611901,0.15369011248079792,0
249,49.83336670003337,0.5250016363214741,0.7977880468934004,0.2964920135413236,0.5279409318832061,0.835727430457643,0.15112258078446722,0
250,50.03336670003337,0.39576953006738036,0.8877806617691456,0.2349722870020702,0.4510790805236109,0.8834324252420694,0.12678648644429458,0
251,50.23336670003337,0.29437351807056006,0.9296820234459993,0.22143975961898643,0.3466951206109203,0.9310013949530683,0.11418798509484457,0
252,50.433366700033375,0.16875133174838092,0.966647728828894,0.19265294283526818,0.24199663948970812,0.9681653176904644,0.06398081038100943,0
253,50.63336670003337,0.08183239043613683,0.9740812903928218,0.210876977363967,0.1895645034991955,0.9799369972235339,0.06155307048090752,0
254,50.83336670003337,0.020274361787783968,0.9824418614933843,0.18546411792988998,0.1078755517200079,0.992280857117994,0.06116834098030642,0
255,51.03336670003337,-0.18508457597757855,0.9377363680236961,-0.29392890946779493,0.028527312414672934,0.9969222867600197,0.07302154892611654,0
256,51.23336670003337,-0.2493621741037118,0.920707263351855,-0.30019433928275246,-0.07620941968144795,0.9887111601442813,0.1290052950772434,0
257,51.433366700033375,-0.5954348443632823,0.8023424010609281,-0.04127974779305256,-0.2655078897998004,0.9524606377813363,0.1494131651871005,0
258,51.63336670003337,-0.6660049642483636,0.7170144847249059,0.20573676455901893,-0.47541342800197217,0.868036926898216,0.14315713749762818,0
259,51.83336670003337,-0.7613137627862196,0.5915863217730907,0.2653808178510129,-0.6299895083899468,0.7627931974938297,0.1458072603670079,0
260,52.03336670003337,-0.8806526165886701,0.45636694900616115,0.12720132369726583,-0.7584903116657271,0.6357480569428647,0.14323705945948692,0
261,52.23336670003337,-0.5884977036818432,0.28380883574125676,0.757048873928487,-0.8252322613281571,0.5452640335122201,0.1472373886660622,0
262,52.433366700033375,-0.73545939235076,0.5281501101215036,-0.42444898796168007,-0.8460473566921393,0.5309895693931298,0.047475756233503856,0
263,52.63336670003337,-0.6609197974661258,0.4746392773469862,-0.5812938824010331,-0.7903484755936737,0.5778463426298831,-0.20357527216247107,0
264,52.83336670003337,-0.5292386222520482,0.4528211246431714,-0.7175371138788901,-0.6377429362252464,0.6319934924616369,-0.44030463633823397,0
265,53.03336670003337,-0.1812152658468414,0.5038177979466548,-0.8445878603770259,-0.4796576964037723,0.6605565744915892,-0.5775755415325031,0
266,53.23336670003337,0.11601761303261163,0.5136651398930324,-0.8501106031128459,-0.2879982716402891,0.7130797133816227,-0.6391981835829863,0
267,53.433366700033375,0.26887606963406646,0.4111921594543104,-0.8709917721663265,-0.0193273443399275,0.7429037322461639,-0.6691191959400703,0
268,53.63336670003337,0.41541385211936377,0.21245465036121874,-0.8844740544567959,0.2924003931876902,0.6445988976535876,-0.7063952655613316,0
269,53.83336670003337,0.4577138006389137,0.10891252541870222,-0.882403614289743,0.536879382053757,0.4432010020525643,-0.7178672585549362,0
270,54.03336670003337,0.6897214175032265,-0.24775886519148593,-0.6803674822890697,0.6866457181842083,0.1860605048496546,-0.7027795858122124,0
271,54.23336670003337,0.7280348850227467,-0.24234007225005438,-0.6412772376841037,0.7736235096301869,0.030788755239214857,-0.6328970831804266,0
272,54.433366700033375,0.603029300179556,-0.5350662059560164,-0.5916585318989229,0.8065091385008915,-0.07751000161114191,-0.5861187671153268,0
273,54.63336670003337,0.5688139110454569,-0.5842928619791266,-0.5788372707777313,0.8138246133285362,-0.17287426688198215,-0.5548008530911573,0
274,54.83336670003337,0.6777524895209932,-0.7130523243481691,-0.17946572288258783,0.8184008406875567,-0.3425850325406011,-0.4613627200382105,0
275,55.03336670003337,0.6519434228125458,-0.7581802325728478,-0.011511228746097417,0.8078428728879342,-0.4809710370463434,-0.3406710352330151,0
276,55.23336670003337,0.602394342130292,-0.7665119770772897,0.22266666918620104,0.7567222359433645,-0.6220006857188825,-0.20121283406908902,0
277,55.433366700033375,0.4841529310628274,-0.6749862506296049,0.5567670076470598,0.7978620191450844,-0.5973602534034275,0.08109824942329065,0
278,55.63336670003337,0.33931824369155694,-0.36454118004570557,0.8671636855570932,0.8031540842065629,-0.35505159924468355,0.478416010284052,0
279,55.83336670003337,0.4568389656614511,-0.12335317353374639,0.8809552508683565,0.7682091985811877,-0.19451467047696547,0.6099333325737227,0
280,56.03336670003337,0.53256530146091,-0.09815076047206965,0.8406786710144399,0.7784812992872665,-0.11887167650965262,0.6163086817365094,0
281,56.23336670003337,0.5128137990781645,-0.04780075759930443,0.8571680669786719,0.74478655959145,-0.03169274492954987,0.6665497360068203,0
282,56.433366700033375,0.42886999236244233,0.39166366103143335,0.8140455185543949,0.6613411883695285,0.24067657282137728,0.7104242534295522,0
283,56.63336670003337,0.24864943664582695,0.5382309755137861,0.8052831021778559,0.5274192162300173,0.4514145189145384,0.719759614360566,0
284,56.83336670003337,0.20635662290188642,0.5524522690674301,0.8075973220527521,0.37066205570763167,0.5874993260136984,0.7193428823530843,0
285,57.03336670003337,-0.004470794884120166,0.7498498298849644,0.6615929599191595,0.2579527238766257,0.6568223323810842,0.708551209109195,0
286,57.23336670003337,0.007089448509534246,0.7659929589575396,0.642809868115996,0.2601481410709301,0.7079666018976312,0.6565868071282432,0
287,57.433366700033375,0.47884390765330465,0.5609356542837024,0.6753219260890531,0.3789168529140743,0.7172206159765617,0.5848218588560922,0
288,57.63336670003337,0.5252507327144573,0.5381372857607134,0.6591812569066402,0.4814879285755945,0.6926883370437628,0.5369843967561161,0
289,57.83336670003337,0.852177271878622,0.2574289574275121,0.4555482731514778,0.6286682408779212,0.5927736775690364,0.5033841575702801,0
290,58.03336670003337,0.9872930874508238,0.03379629678890918,0.1552744982126046,0.8028060404486009,0.4029681129928709,0.43945325272456964,0
291,58.23336670003337,0.9996909851379845,-0.024858056097964848,-0.00010621147369353919,0.9163445272545798,0.21307440025238134,0.33898673621200687,0
292,58.433366700033375,0.9703795284716862,-0.13473324515918017,-0.20052561774482733,0.955108626829279,-0.06230754460326356,0.2896295579560238,0
293,58.63336670003337,0.814388048040015,-0.5800536277445052,-0.017603867473174942,0.8808014472027808,-0.4168125022784452,0.22462446115654564,0
294,58.83336670003337,0.25548856932930947,-0.8877173741101397,0.3829927605648194,0.627244078367656,-0.7630464341291611,0.15596475728664266,0
295,59.03336670003337,-0.06508860074208328,-0.8827585091536906,0.4652965598091087,0.3781147504321527,-0.9089209373178974,0.1757611026671895,0
296,59.23336670003337,-0.12594211744703387,-0.943241608461583,0.307300912982314,0.13026846524858893,-0.9705675635019452,0.20255550261514765,0
297,59.433366700033375,-0.6592481675992652,-0.6422800533347615,0.3909836142414496,-0.24940328260223277,-0.9428896405143912,0.22081016380111082,0
298,59.63336670003337,-0.6881993323288519,-0.6194043669734972,0.3777828862670778,-0.5046150120257964,-0.8373579928358749,0.21022673824249904,0
299,59.83336670003337,-0.8482085515114841,-0.5086658040877039,0.14765281201047148,-0.6381018793973993,-0.7409484630235174,0.20933553604821606,0
300,60.03336670003337,-0.8884158962757893,-0.43172014355183436,0.1559965156536185,-0.7406944617745389,-0.6529597225786503,0.15816230583340216,0
301,60.23336670003337,-0.9712062150130216,-0.12179269242660215,0.20475602064789136,-0.8177518675200511,-0.5555171908997598,0.150607216899818,0
302,60.433366700033375,-0.9447691995813012,-0.2507408686687352,-0.2110454365812146,-0.8473196005680083,-0.5273846662897049,0.06256922770633783,0
303,60.63336670003337,-0.791587703439899,-0.4174089658409585,-0.44627196080229836,-0.8425808516167511,-0.5291163259549649,-0.10046602458896439,1
304,60.83336670003337,-0.7628301469355764,-0.4302442578677183,-0.48268006536224756,-0.8314886685166123,-0.5301869683941152,-0.16591676429321167,1
305,61.03336670003337,-0.8104032499172464,-0.4618982115566876,-0.3604117293933411,-0.7995938903416273,-0.5486057652128216,-0.2442976154275688,1
306,61.23336670003337,-0.8226399183072269,-0.49091008889978016,-0.28682895499563676,-0.777616525184184,-0.5773411213273074,-0.2489774475429515,1
307,61.433366700033375,-0.8459006453976736,-0.47088043348470093,-0.25044703128018864,-0.7879206627355736,-0.5689404797247566,-0.2355583999030786,1
308,61.63336670003337,-0.8036416660972014,-0.5849222194601188,-0.10966343827531135,-0.7787470069148931,-0.580504537858185,-0.237839401166314,1
309,61.83336670003337,-0.7871743199106688,-0.6082636729463131,-0.10184249725451888,-0.7612256237821611,-0.6109617625109914,-0.21739658333774103,1
310,62.03336670003337,-0.7886651634956344,-0.6123036610169436,-0.05560113842046867,-0.7614324054160021,-0.631161182102824,-0.14783860858709055,1
311,62.23336670003337,-0.7962335741243167,-0.29543753260023287,0.5279476865829635,-0.7510272339345906,-0.6598865005806025,-0.022536642164368896,0
312,62.433366700033375,-0.7031012111205224,-0.27138717642165927,0.6572653097454131,-0.6862639542066269,-0.7130050756485696,0.14375516427614712,0
313,62.63336670003337,-0.7830136724794419,-0.2648675862817933,0.5627919246466803,-0.652120545627894,-0.7261670732464622,0.21776174067692705,0
314,62.83336670003337,-0.7708688886211734,-0.2761952404768984,0.5740011722060031,-0.6259650148708208,-0.7285775096847744,0.2781053982563177,0
315,63.03336670003337,-0.6122308621514663,-0.5178583767786484,0.5974914836459645,-0.6104578407311195,-0.7402027626062341,0.28185296684618855,0
316,63.23336670003337,-0.6080930028463958,-0.5008089101987602,0.615965368632672,-0.5751637922706196,-0.7661929462399136,0.2865920117398256,0
317,63.433366700033375,-0.5644038475441177,-0.5621585651771456,0.6045047927645978,-0.5025318876274543,-0.8182387136727373,0.2791900953916029,0
318,63.63336670003337,-0.3113446183470585,-0.8061898481713528,0.5031127680071099,-0.3910885288733825,-0.8740927436865422,0.2881174031852057,0
319,63.83336670003337,-0.03921966380037095,-0.9294768213539111,0.3667896625277435,-0.2561746153877565,-0.9267480658039325,0.2747955402833255,1
320,64.03336670003337,0.07580790762971396,-0.9282260860960088,0.36421078269552903,-0.12304034583918488,-0.9510986880142093,0.28332377054074304,1
