,timeStamp,x_gaze,y_gaze,z_gaze,x_head,y_head,z_head,fixations_head
0,0.04,-0.9946387214702709,-0.07882937828912538,0.06693088129208417,-0.9880122466024936,0.08883688628232121,0.12625295322944266,0
1,0.24000000000000002,-0.9960571069996593,-0.07012586442993433,0.054337857276703816,-0.9904266234023946,0.05435916791568513,0.12688650251009984,0
2,0.44,-0.9866680871644687,0.06345088751456553,-0.14986684304682932,-0.9920243754922267,0.0930224580295157,0.0850556331550437,0
3,0.6400000000000001,-0.9498178775461035,0.08401250153357767,-0.3013103036404258,-0.9925743535634173,0.11254404632983786,-0.04615181777429141,0
4,0.8400000000000001,-0.826685710038852,-0.5613648657893215,-0.03821288100753617,-0.9824247405588128,-0.18209209164956228,-0.041037778895021144,0
5,1.04,-0.7047148892071964,-0.7094258972605615,0.009582339262230587,-0.8619531121024728,-0.5068000834121007,-0.013802463198649821,0
6,1.2400000000000002,-0.7851786950851085,-0.6183404770599741,-0.033903852490389255,-0.7461252732286722,-0.6657138620218256,-0.011051269674806127,0
7,1.4400000000000002,-0.7235398040916698,-0.6899222678408056,-0.02230283014300993,-0.7090951348932625,-0.7048733381834932,-0.018375711925397605,0
8,1.6400000000000001,-0.4718820502957483,-0.8816243319882657,0.00811590136247414,-0.686753575684984,-0.7265969037280288,-0.020651047836146314,0
9,1.84,-0.3781554065544861,-0.9256001324299766,-0.01621367753537618,-0.6054826998108539,-0.7942692182693665,-0.050270360447577066,0
10,2.04,-0.9558413145246689,-0.28834720643649314,0.05677384950858752,-0.752466119112025,-0.655134720962945,-0.06777342382742864,0
11,2.24,-0.9954549626326916,-0.09522222097409482,0.0014649241304131122,-0.9826739356505042,-0.1814064915996692,-0.037995012812836994,0
12,2.4400000000000004,-0.9821376935652201,0.18811076085114392,0.004460104303042468,-0.9565125204231716,0.28980119282494565,-0.033152178072496305,0
13,2.64,-0.406467329602698,0.9102220955373351,-0.07924674606110912,-0.6706700833428381,0.7404695470257787,-0.04366336263217604,0
14,2.8400000000000003,-0.23708202390722477,0.9650767651805182,-0.1114403483876503,-0.41732085542432545,0.9062121672501596,-0.06799126087724813,0
15,3.04,0.22858643971360598,0.97344328984184,-0.012506040178779279,0.019627250091206694,0.9984245676596423,-0.05256570885581205,0
16,3.24,0.5034983084755007,0.8639012875375307,-0.012806980647546718,0.32923783535054224,0.9433659582857303,-0.04078132564465608,0
17,3.4400000000000004,0.7412858549438237,0.6710059725229415,-0.015692867766799047,0.5397014162812401,0.8413634586480409,-0.028808188346899955,0
18,3.64,0.7306294307920261,0.6823033812736088,-0.025352135277339635,0.6522254497620589,0.7576371983353083,-0.02424537855561173,0
19,3.8400000000000003,0.67265488482247,0.7397813458646975,-0.016092427880412097,0.607537196501526,0.7942593546382684,-0.007115647311918575,0
20,4.04,0.9910503973836311,-0.03755867924671029,0.12809549351553867,0.9123620926705588,0.40760243199975066,0.038153234275583536,0
21,4.24,0.998750002109406,0.0016554339231782517,0.04995690968211765,0.993312892331534,0.10923637057963512,0.037375302949287634,1
22,4.44,0.9928785352500527,0.09723257315091945,-0.06883342907454963,0.9986447574516469,0.04950874458604169,0.01604782302543157,1
23,4.640000000000001,0.9864913680753714,0.129721876978951,-0.10003507057947367,0.9963831048467472,0.07920639443402568,-0.030774266144260536,1
24,4.840000000000001,0.9874489736682374,0.14333883957774537,-0.06632119925069416,0.9967870367979731,0.07906329540373744,-0.012829598256289822,1
25,5.04,0.9941099957668165,0.09091987628100748,-0.05898213639354428,0.9994599611996692,0.03245217560706082,-0.005161613810066338,1
26,5.24,0.9965947235568109,0.05489617238162678,-0.06152533816705436,0.9999529847497204,0.0034323562333836333,-0.00906902535075416,1
27,5.44,0.9860230851615603,0.1617045535561733,-0.04012621197767388,0.9999604694886971,0.004991206546790959,-0.007358486063841171,1
28,5.640000000000001,0.9851022103573674,0.16949944431299319,-0.029044337255574055,0.9996674683682825,0.022944474506329183,0.011768762712265787,1
29,5.840000000000001,0.9881149277697713,0.15074114794314525,-0.030099764705440707,0.9993631589099331,0.02997010577482575,0.01936670786183792,1
30,6.04,0.9925258691706154,0.11918721646098486,-0.026206992566814694,0.9992806701225581,0.022174862853428595,0.03076390379719649,1
31,6.24,0.9928625838181113,0.11745989496785089,-0.02066549607836925,0.9984853240171617,0.025550697502881147,0.048725964120374776,1
32,6.44,0.992885384721039,0.11804207485189662,-0.015642294333433053,0.9974053496411261,0.03745594950055845,0.06147861704913761,1
33,6.640000000000001,0.997378239738622,-0.0020693102247807452,-0.07233508727499763,0.9962542827596635,0.04226544950735828,0.07543895453258423,1
34,6.840000000000001,0.9990791861435934,0.014273266821823522,-0.04046051987911911,0.9960643383616267,0.040878759534326174,0.0786432505886528,1
35,7.04,0.990331320411253,0.13173556880947443,-0.043469710407920824,0.9954817354930273,0.05157370460118709,0.07972620205114571,1
36,7.24,0.9905676912597499,0.13145412204204773,-0.03867121449454761,0.9949598067533627,0.05630237751421129,0.08297605215698439,1
37,7.44,0.9901729834535146,0.13590705454531118,-0.03296566946968057,0.994888446512061,0.05173789961875234,0.08671890647291706,1
38,7.640000000000001,0.9896849654899236,0.13943471958983272,-0.03288811420731315,0.9945194093548048,0.056614722196480054,0.08789719931366352,1
39,7.840000000000001,0.9908824534444773,0.1318589367054341,-0.02766196426079506,0.9938350360322227,0.055950569666702636,0.09571548938809522,1
40,8.04,0.9918963335481753,0.12425851626531989,-0.02648555510515478,0.9936748908673646,0.052305852159341755,0.09936955816353482,1
41,8.24,0.9954333878030215,0.09453474874143399,0.01324959348031488,0.9922300345731576,0.02315489348880288,0.12224323866158168,1
42,8.44,0.998036368528874,0.056369527605817954,0.027310866906690455,0.9922712341073809,-0.019126709724942688,0.12260492216103401,0
43,8.639999999999999,0.9960856783399337,-0.026294784469872122,0.08439138413225059,0.9742883355084571,-0.19238472657634648,0.11726191313595645,0
44,8.84,0.6431387839623077,-0.7641170920777886,0.04997573569311943,0.8666407493293069,-0.48476783932174283,0.11804216857236323,0
45,9.04,0.4620043952034471,-0.8728608982666306,0.15705346570473314,0.6937815196720953,-0.7140052299276268,0.09414740887286828,0
46,9.24,0.4139033069249673,-0.8986661206772728,0.1452007440181975,0.5346497909783074,-0.8394063778996699,0.0977063649319165,0
47,9.44,0.07777692148868326,-0.9956312130506145,0.05166466958284937,0.35659736822532895,-0.931185262002721,0.0757121179448372,0
48,9.64,-0.09918884544510798,-0.9950683662732636,0.0007206812923486432,0.07223937541971909,-0.9959088945857165,0.05428578381146497,0
49,9.84,-0.6671800460631803,-0.7448354581858311,0.009535531670323644,-0.27953603699760865,-0.9573403083004707,0.07320613446174466,0
50,10.04,-0.7445939013380328,-0.6675018390482648,0.004606186860326129,-0.5775650262984111,-0.8120658647851702,0.08347258021428285,0
51,10.24,-0.92354179033114,-0.38310044142498945,0.01745317426518754,-0.795172554065116,-0.6039419047388257,0.05435793375395943,0
52,10.44,-0.999722571187385,0.01008833854039636,0.021283939578438184,-0.9441906847229933,-0.3250327708658079,0.05345698032642954,0
53,10.64,-0.9509955347416545,0.30854406466196066,-0.020200323346682855,-0.9994736742371538,0.0025025367341823096,0.03234365187757495,0
54,10.84,-0.8488563490089744,0.5282192133828295,-0.020672720197862544,-0.9562814817514231,0.2889474464009794,0.04511209236619259,0
55,11.04,-0.753195974702112,0.6574984977589321,-0.01978760059439504,-0.8694314099179035,0.4926982019259021,0.036571919106734165,0
56,11.24,-0.7096514812134082,0.7045395592506365,-0.004334127655589957,-0.8015299853027228,0.596762742160822,0.03773476155103404,0
57,11.44,-0.43112602596093813,0.9022186062382376,0.011486352626518937,-0.7163281154522725,0.6967416040405163,0.03775140012826022,0
58,11.64,-0.3592311603348759,0.9331912107048916,0.010350734640472868,-0.5312499780276704,0.8464935057171551,0.034960057555454144,0
59,11.84,0.04926982017763565,0.9984300211696523,0.026645405735906184,-0.26143664969745695,0.9641576504192138,0.045286900236943414,0
60,12.04,-0.08016671871356723,0.9963768600078853,-0.028398064221477084,-0.1901139275077101,0.9815165135397781,0.021955140999587782,0
61,12.24,-0.054709916206969134,0.9980205432783124,-0.03101322722788785,-0.18553771824565257,0.982526920663931,0.014717516055729418,0
62,12.44,-0.38531877594140823,0.9212700361930739,-0.052829549684126655,-0.24840137989667527,0.9686368318874639,-0.0062803165879564155,0
63,12.64,-0.4724096887640402,0.877771014174987,-0.0796688937796765,-0.35937031652477613,0.9329634272785519,-0.02078987641956117,0
64,12.84,-0.5334790726480007,0.8362736073270178,-0.12667490965019895,-0.44664679815141384,0.8941756148254584,-0.030929072934764996,0
65,13.04,-0.5015357044212878,0.8441576725758114,-0.18936673684159008,-0.5240247539906997,0.8510779202016004,-0.032625618006490144,0
66,13.24,-0.699544180834835,0.7103921068685797,-0.07733688356108014,-0.5843013850783302,0.8114184533248127,-0.013855865166571167,0
67,13.44,-0.5225747854304432,0.8471687191831874,-0.09602476175364327,-0.601344595116675,0.7989464257065778,-0.008323867769629468,0
68,13.64,-0.6280634732289099,0.7777450002669466,-0.025475245934156714,-0.5933175972077102,0.8049460531802959,-0.006006689032540118,0
69,13.84,-0.5705241464195022,0.8211415957053082,-0.015122108147969288,-0.516697084090173,0.8561661874711644,0.001892808443551052,0
70,14.04,0.16511989058595894,0.9847177825307748,0.05537427652398832,-0.27542119263991943,0.9613226432867548,0.001393610050032238,0
71,14.24,0.10749890311253346,0.9941938811775077,-0.004744729581948238,-0.13277897921602155,0.9910379712974007,-0.014611027516363728,0
72,14.44,0.04793634913390643,0.9988414576329215,-0.004224801232405489,-0.15141111357964704,0.9882080711373066,-0.02279216583949237,0
73,14.64,-0.7216078824791665,0.6920426295644857,-0.018948952725821668,-0.41061049213896744,0.9116302602523918,-0.018146413903348167,0
74,14.84,-0.7485252025970863,0.6628382310514636,-0.018854721784150416,-0.6486446439169941,0.7610334919481134,-0.009388825861466317,0
75,15.04,-0.9364444061396738,0.35064041400578455,0.01109839067460047,-0.8233303312401553,0.5675538242360687,0.003134047700629029,0
76,15.24,-0.9949941385424074,0.09911578277054213,0.012756405137638567,-0.9416151347789049,0.3365075704212586,0.0111172390676232,0
77,15.44,-0.9689315018942412,-0.24728409283387612,0.0047246236143291005,-0.9991326047177411,0.03738502415877935,0.018341160230197516,0
78,15.64,-0.8529442653767142,-0.521890576014377,0.010784564356487265,-0.9616530254097834,-0.2736449196567185,0.018490988785857396,0
79,15.84,-0.6619902107431131,-0.7494905147010377,0.005738401647033376,-0.8443801159893087,-0.5356701617866367,-0.00892734525827996,0
80,16.04,-0.6941972540975502,-0.7197588441033463,0.006113815374725959,-0.7703599735375362,-0.637592385785189,0.004632575957056691,0
81,16.24,-0.6474964912171234,-0.7619935247380047,0.010684667466299867,-0.7300129808525427,-0.6831416171111824,0.019964437319991972,0
82,16.44,-0.6124551380702946,-0.7903575755418307,0.015284195593361886,-0.6878560426376138,-0.7250190065243529,0.0346627290524268,0
83,16.64,-0.6177680328423669,-0.7862156099815807,0.015088811065272751,-0.6762924843195327,-0.7351865330977776,0.04614365833552041,0
84,16.84,-0.565155278355693,-0.8240022667400512,0.04024643777972209,-0.6250651926145986,-0.7780986268541388,0.06209695539540617,0
85,17.04,-0.4793381635220469,-0.8756730339585599,0.05858039423836748,-0.5424970970399254,-0.8372640275875073,0.06845325274374768,0
86,17.24,-0.5021596070641925,-0.8598462249179613,0.09219652123300005,-0.46127565022144856,-0.8844502342648346,0.07051636421185595,0
87,17.44,0.19969617789076166,-0.9798534002930541,0.002958119328447515,-0.21837244394899263,-0.973722961180715,0.06463026066173451,0
88,17.64,0.40737896403324114,-0.9121127087424106,0.04574698037888325,0.11611896257220106,-0.9912907130011396,0.06212172606140345,0
89,17.84,0.5020668538501734,-0.8576506028050802,0.11119495390111771,0.3608116460637938,-0.9313140893619306,0.04968926464231517,0
90,18.04,0.7486864891305836,-0.6626101789619725,0.020403228403938423,0.5118331786072141,-0.8577814729015503,0.04730477802170757,1
91,18.24,0.7996186253055937,-0.6003242945643692,0.014859186390425928,0.585992745444782,-0.8087052321250924,0.05107200622246488,1
92,18.44,0.7506959085650234,-0.6606238094768437,0.0056422704682685286,0.602098675359034,-0.7973666343268654,0.041032128791273624,1
93,18.64,0.7311099102932805,-0.6822319763419313,0.006150571317669818,0.5942389713541292,-0.8035121918716727,0.03532990854172101,1
94,18.84,0.6600867644776722,-0.748339390508152,-0.06537292998853313,0.5685960597037021,-0.8221354730253443,0.028138672371273418,1
95,19.04,0.6168648350450374,-0.7855791001758912,-0.048407154963868965,0.5326484236158644,-0.8457140176927666,0.03245700382804781,1
96,19.240000000000002,0.5486615003528215,-0.8352733195215198,-0.035903199385181404,0.47349740898854303,-0.8801074257592836,0.03480118969954344,1
97,19.44,0.47814561365704056,-0.877729480739759,-0.031108371555667366,0.41362541537632597,-0.9097327391740744,0.036060491255628074,0
98,19.64,0.41917951946609183,-0.9073012138665241,-0.03306112182774286,0.35831626152122364,-0.9330468179441848,0.03214175249866472,0
99,19.84,-0.04269933113867258,-0.9990403480518385,-0.009754490492672963,0.2726246957948823,-0.9618523763621428,0.02271081965159506,0
100,20.04,-0.11410617901335873,-0.9933366553297127,-0.016188548092735865,0.17055545349648205,-0.9851933621306455,0.01746071293860774,0
101,20.240000000000002,0.0609181262672171,-0.9977744394335514,-0.027113647949949356,0.07229097312260047,-0.9969848534667556,0.028199595083260642,0
102,20.44,-0.017676877682601233,-0.9997403269670336,-0.014380772971001257,-0.0358053246008892,-0.9984493378753921,0.04262509151211929,0
103,20.64,-0.4723278516708487,-0.8648198396547193,0.17027344324816623,-0.22234280186671418,-0.9718668317591682,0.07770804195484561,0
104,20.84,-0.6804283844969331,-0.7317390257946003,0.039688936746443436,-0.3898194476151118,-0.9153635219105929,0.10074929784611188,0
105,21.04,-0.6827393183002843,-0.7294544541323427,0.04199074413903088,-0.5322101571627132,-0.8401766070688809,0.10419029487943418,0
106,21.240000000000002,-0.6846443464300096,-0.7278899076016336,0.03792626152299144,-0.5769624415040803,-0.8103742162672242,0.10201946237328036,0
107,21.44,-0.45362554052941956,-0.8755202612463387,0.16639753942452168,-0.5783051006232067,-0.8070927363887963,0.11901481194216114,0
108,21.64,-0.4896490843930976,-0.8718805094724114,-0.008255383402966205,-0.627985066814537,-0.768687070263881,0.12146992988831977,0
109,21.84,-0.7708613939309604,-0.6171654087339113,0.15773258892543845,-0.7599771577671688,-0.6322459529752744,0.1506644437766353,0
110,22.04,-0.8785639445041065,0.15295798338506883,0.4524701655757631,-0.9083390489490902,-0.2997376474730611,0.2916805013050704,0
111,22.240000000000002,-0.8646324303039505,0.06474956087174347,0.4982150688544061,-0.921812568666108,0.0521120196636022,0.38411707285119817,0
112,22.44,-0.8304277246535053,-0.05021232745549031,0.5548590057828252,-0.8847496327600675,0.14830383403348602,0.44184166863469776,0
113,22.64,-0.8315176288214504,-0.04029209929816844,0.5540351791116692,-0.8751154273362445,0.2024538682669711,0.4395286339498742,0
114,22.84,-0.8304435863899182,0.010680445190113007,0.5570003392408225,-0.8594739415857826,0.26589613191690953,0.43658194049528026,0
115,23.04,-0.6099306964645259,0.7290865523143099,0.3105114244995374,-0.7959729697033475,0.45430864982671904,0.40003835090433193,0
116,23.240000000000002,-0.4482486322498987,0.8623907452199884,0.2352772114868084,-0.6319041747495716,0.6961344686512694,0.3407255721099862,0
117,23.44,0.21349151220577417,0.9601518136110413,0.18036038654738,-0.20671922374264828,0.9491705759415782,0.2373654993927506,0
118,23.64,0.7160894238138349,0.6785579388458528,0.16363086729354598,0.3819698020851768,0.9148837303469611,0.13071660277653896,0
119,23.84,0.9829930800084081,0.14318837378405852,0.11498562635677691,0.7843380111244245,0.6169417941884939,0.06478199509789892,0
120,24.04,0.9913575024375247,-0.03271205482468427,0.12704418062225523,0.9331383396662168,0.3562263832756959,0.048534553704483036,0
121,24.240000000000002,0.9985900626302309,0.037269220656558806,0.03780068792766171,0.980506148167081,0.1949284873820492,0.024709880888029754,1
122,24.44,0.9995765966729141,-0.016889568179608832,0.023693245250513587,0.9978803727324855,0.06501561248867792,-0.002780620074457702,1
123,24.64,0.979655488164167,-0.20068662722760053,4.649557125642747e-05,0.9978515722818758,0.059495693371332356,-0.02743177290758289,1
124,24.84,0.9843051815963564,0.16570633379970068,0.06070189800348967,0.996174257319537,0.06709408386858443,-0.055993151042825415,1
125,25.04,0.9752605261687509,0.20467335790063076,0.08352079179899839,0.9938040270276047,0.1039652345283878,-0.039303764109474434,1
126,25.240000000000002,0.9635242905908507,0.25111856338960625,0.09252247598577702,0.9881345640255218,0.14969223265251658,-0.03438486384438798,1
127,25.44,0.9712500133943767,0.22669195627053593,-0.0726922859983148,0.9750687917598939,0.22013605010424628,-0.027945854440361337,1
128,25.64,0.9491609734752897,0.15496244152015612,-0.27400746002536647,0.9392558486740653,0.33720458219570887,-0.06396499415914313,0
129,25.84,0.8408582983617836,0.21827329601235754,-0.49529192434767944,0.8877496976548405,0.398972395850553,-0.2296116322467341,0
130,26.04,0.7930169903461375,0.2032967040811404,-0.5742773747346308,0.8567271916346854,0.3300139790720295,-0.39637014611445154,0
131,26.240000000000002,0.726990718925852,0.21369821562798097,-0.6525469846938913,0.8265937732083704,0.3362658838048926,-0.45129590013877185,0
132,26.44,0.798151251515841,0.44029321249085346,-0.41121340778017146,0.8118230176249887,0.3835305951733125,-0.44028135393207674,0
133,26.64,0.7458064740261034,0.5358632637394558,-0.39575657401393816,0.7507378551550574,0.5136616518124877,-0.41538461730599846,0
134,26.84,0.34678299732646656,0.9018950724776934,-0.2575399600173307,0.48848229083265404,0.7848094175245877,-0.38139117675635903,0
135,27.04,-0.19932334453832873,0.9606568818509922,-0.19341292530330967,0.11540231880388646,0.9304430034151895,-0.347790342319059,0
136,27.240000000000002,-0.5483127828714389,0.8329529266493249,-0.07444806327973269,-0.24412750837736247,0.9344551304041803,-0.2592206953828489,0
137,27.44,-0.49243970798545,0.8510973142167113,-0.18203432569794475,-0.4655662179690938,0.860508892606522,-0.20681523742474,1
138,27.64,-0.5036088109111563,0.8468870552718549,-0.17076440257154749,-0.5193454245462222,0.8404224002533264,-0.15482415559382945,1
139,27.84,-0.4582744395106476,0.8687385974100392,-0.18782382027112454,-0.49392082686608574,0.856918266394074,-0.14742218797758075,1
140,28.04,-0.43563466782165317,0.8826940557108075,-0.17627716869953497,-0.47155364023408375,0.8735022199986849,-0.1209588196013567,1
141,28.240000000000002,-0.6228804341235936,0.7810769956989181,-0.04403057546701288,-0.5105735709040924,0.8545560423708252,-0.09512412491979431,1
142,28.44,-0.6415785061621313,0.7667751103217096,-0.02080746553279582,-0.5421303168059995,0.8381420021700795,-0.060105771754107445,1
143,28.64,-0.6567592067383221,0.7538564766480568,0.019176990906497392,-0.5618609847117544,0.8271590837722415,-0.010958284163315395,1
144,28.84,-0.6673955462730347,0.7438761009591603,0.0350931793474831,-0.5802931986100949,0.8140798706702709,0.023103415685567213,1
145,29.04,-0.6711011483231644,0.7407761403289772,0.029562791455370566,-0.5914392850859979,0.805567393953679,0.0355069831954501,1
146,29.240000000000002,-0.665345989915852,0.7461894463365399,0.022716158981285813,-0.5910908141329979,0.8056327345938831,0.03959225174667305,1
147,29.44,-0.6586494732397026,0.7523782407449069,0.010385290302218736,-0.5886491492112359,0.8075930542801374,0.035855791880356855,1
148,29.64,-0.6508778728993178,0.7591796216849588,0.002072821348492456,-0.5839155615796507,0.8110975816354535,0.0341076239313184,1
149,29.84,-0.6423031868866478,0.7664398336397248,-0.00407400608335433,-0.5778836700082575,0.8154262366620184,0.0336231542393832,1
150,30.04,-0.6387085637143439,0.7694037026890052,-0.008325438511527564,-0.5758109294289626,0.8169577676106052,0.031965285715142955,1
151,30.240000000000002,-0.5472439513789478,0.8367619682503799,-0.018800695968668166,-0.5683470763789154,0.8222402925809178,0.030041671524507554,1
152,30.44,-0.5408225115944587,0.8407414863005576,-0.025783020881797618,-0.5590722426403155,0.82864915020704,0.02790722792179151,1
153,30.64,-0.5740333218570735,0.8180072900136854,-0.0367398813579988,-0.5571089404192919,0.8297790216504752,0.03311198776386387,1
154,30.84,-0.5768610781568074,0.816303386462632,-0.02966610452022542,-0.5559482081129667,0.8303807416162288,0.037274842036733515,1
155,31.04,-0.5788986553637826,0.8141326527526425,-0.045435344611326874,-0.5495013243574305,0.8343451911954035,0.04377666568545167,1
156,31.240000000000002,-0.5717842101221964,0.8189911440929067,-0.04812819290527874,-0.5363986607394673,0.8422350422551113,0.054005651134273344,1
157,31.44,-0.5640547091958874,0.8232567807761243,-0.06395746977543496,-0.5261638198232262,0.8486276696038421,0.05461422060035571,1
158,31.64,-0.5606415581700032,0.8253638714894023,-0.06674970331572133,-0.52014958656681,0.8520987430539517,0.058070127262237724,1
159,31.84,-0.562793585400987,0.82458683780237,-0.05761880903480954,-0.5192822551438352,0.8524991739913109,0.059925769389011355,1
160,32.04,-0.5692299135502424,0.8190734433686266,-0.07138627240474728,-0.5243846402247372,0.8494420746592403,0.05889746085340809,1
161,32.24,-0.5785597995501708,0.809497247319304,-0.09991378747168178,-0.5356039180232608,0.843444820923046,0.041584577143732225,1
162,32.44,-0.5928939375712055,0.7942324550444081,-0.13293451826160174,-0.553384464417478,0.832730457030069,0.01804495707597468,1
163,32.64,-0.5973122351963384,0.7879361122961852,-0.14958200635212676,-0.5609804636575858,0.8277994993704305,0.00699344239874551,1
164,32.84,-0.5982914384636498,0.7834524307740608,-0.16807630224190534,-0.5658702160212681,0.8244803419639737,-0.004802534228141376,1
165,33.04,-0.6126131905444505,0.7670782821060892,-0.19051505948905925,-0.5847903445235951,0.8109010151484287,-0.02144286788708182,1
166,33.24,-0.6328677425709461,0.745258013752816,-0.20992597111925473,-0.6060544587763812,0.7946525870189801,-0.03500369896611171,1
167,33.44,-0.6453171311894295,0.7343557022891174,-0.21044596149344874,-0.6171803945329268,0.7860480718578677,-0.03488250754618483,1
168,33.64,-0.6669099255828352,0.718373298952504,-0.1979165342036729,-0.6375457383070446,0.7699726154424776,-0.026030809345773707,1
169,33.84,-0.7780578267240138,0.5891550983694336,-0.21799607413622726,-0.6616046733532857,0.7495455487990841,-0.021464539887276403,0
170,34.04,-0.6158497022192548,0.7349046893558728,-0.28397929825817186,-0.65350627374508,0.7565726232923453,-0.02296553636124049,0
171,34.24,-0.6287760721842521,0.7770809097924476,0.028034098606623772,-0.6282275023141201,0.7778781236954777,-0.015356757866344425,0
172,34.44,-0.5812511295742158,0.8131947997956106,0.029348627805657692,-0.5445480579554782,0.838704287275008,0.0065215859603496296,0
173,34.64,0.0531240748187265,0.9973878216510879,0.04894247538439848,-0.3372264335590913,0.9410621899783684,0.026082313971990182,0
174,34.84,0.12226455242367507,0.9923700033402771,0.015910867074321527,-0.02289786186916093,0.9989499234804081,0.03968297242278697,0
175,35.04,0.8387846906757382,0.517681805681813,0.16865879981199883,0.5337186037629049,0.8430851450657257,0.06596885755324487,0
176,35.24,0.9859009939807243,0.15453698083846515,0.06416815114331972,0.8839566946007572,0.4630909321908284,0.06455501989105053,0
177,35.44,0.9990628299175947,-0.041962743736533886,-0.01061084422415701,0.9650502287198672,0.2576107010283235,0.048112189343531835,1
178,35.64,0.9960384951502081,0.08265827215881917,-0.03278606750782719,0.9874512529300171,0.15357750042978086,0.03679639178887305,1
179,35.84,0.9977049968684941,0.05233381011936598,-0.04296407268903295,0.9929559228149698,0.11479324145988289,0.02934360342229581,1
