,timeStamp,x_gaze,y_gaze,z_gaze,x_head,y_head,z_head,fixations_head
0,0.04,-0.9999351096795911,0.007101542902497419,-0.008907554011518623,-0.999720512345655,-0.021367021598054266,-0.010116698244470123,1
1,0.24000000000000002,-0.9998099179814642,0.013034613303050894,-0.014499198665378993,-0.999701672090979,-0.017017714599766698,-0.017520394068112035,1
2,0.44,-0.9943424302101475,-0.04288034885613315,-0.0971823397832887,-0.9994917145087077,-0.013937460757711939,-0.028671585517223742,1
3,0.6400000000000001,-0.9936096210754308,-0.049859319395436454,-0.10126188412113832,-0.9988856694198127,-0.020792861169235604,-0.042368341389888944,1
4,0.8400000000000001,-0.9417641359288127,-0.19469799755796355,-0.27417695385494456,-0.9967152299105474,-0.04789080020807932,-0.06530866496717468,1
5,1.04,-0.9284799018039696,-0.2387295649947537,-0.2844877268767614,-0.9901716224792253,-0.11307007200324304,-0.08231231289448832,1
6,1.2400000000000002,-0.6484089313254154,-0.7601656181048414,-0.04140158002682347,-0.966937349578968,-0.250275221972891,-0.04893337568184656,0
7,1.4400000000000002,-0.7846457804185543,-0.6123408007245876,-0.09679743302034807,-0.9068071718900682,-0.4195273275774872,-0.04120163133212093,0
8,1.6400000000000001,-0.6867658130648899,-0.7251819124956287,-0.0496378061008265,-0.8569905506444485,-0.515093768270608,-0.015671821684491334,0
9,1.84,-0.68342144401245,-0.7285345826196725,-0.04660999668652175,-0.8309342144949515,-0.556357326456198,-0.0038544104827967713,0
10,2.04,-0.8563149716038227,-0.5152005348723548,-0.03595939758093724,-0.8168035180602868,-0.576712935985015,0.015303671189700102,0
11,2.24,-0.8872020177333364,-0.46049156513308165,-0.02863735621843692,-0.8398830459631501,-0.5419579856736406,0.029631248172012,0
12,2.4400000000000004,-0.9947752238664033,-0.1019107220901258,-0.006038104389352987,-0.9119792845506743,-0.4080949133002617,0.04186079656303994,0
13,2.64,-0.9744304317767709,0.2233674653697808,-0.024337400058670546,-0.992005301797056,-0.1218431466923963,0.03285922717635633,0
14,2.8400000000000003,-0.9743438187061862,0.22425377453229375,-0.019088414210354003,-0.9901455160635029,0.1383704164587542,0.02157509833977679,0
15,3.04,-0.9867763408813762,0.16148493086666166,-0.013966752655904932,-0.9609279607260958,0.27600992561199034,0.020880020556753406,0
16,3.24,-0.9918576184104965,0.12684340513915957,-0.011367294038655641,-0.9583580005929756,0.284674345601876,0.022593354234774574,0
17,3.4400000000000004,-0.7495486945168373,0.6535457539576688,-0.10514134311491166,-0.9297590569888278,0.3678838588849464,0.014476267445957335,0
18,3.64,-0.6720876706997221,0.7362619358512559,-0.07884494092827575,-0.775307293224252,0.6310746400579224,0.025365325723279656,0
19,3.8400000000000003,0.005148980985794027,0.9986333341275565,-0.0520091526953481,-0.34670821777121846,0.9367601464639994,0.04768479555007031,0
20,4.04,-0.09409242255049399,0.9921799484257121,-0.08200954798394387,-0.016669967024129484,0.9994957767627415,0.02702414536778014,0
21,4.24,0.222465071295805,0.9705469796976687,-0.09245459562988614,0.07284274328604823,0.99727958445958,0.011285617869250303,0
22,4.44,0.2552305410891489,0.9625310174204244,-0.0916046472562582,0.13884013772353004,0.9902926299799302,0.006627455344585424,0
23,4.640000000000001,0.7179365941798808,0.6886196212343161,-0.10183351112723427,0.30809206370400677,0.9513553547767581,-0.0015063931076727379,0
24,4.840000000000001,0.7337158138872051,0.6718158242424724,-0.10161005240252405,0.48320812344459557,0.8753947157163067,-0.013928428953733857,0
25,5.04,0.702141869172108,0.7067797187522017,-0.08636680332197666,0.6037101775897145,0.7971007415052981,-0.012823001454417641,0
26,5.24,0.8957882424105522,0.4272999342623454,-0.12238541963162614,0.6896826668920732,0.7240159533486205,-0.011777872699523477,1
27,5.44,0.9087160634980713,0.4003175426067666,-0.1182411984963333,0.7474611321703767,0.664119731409531,-0.015711086757808433,1
28,5.640000000000001,0.7761068287998789,0.6302634242341841,0.020644765990356178,0.7830721067119764,0.6217666693060491,-0.01429281741747796,1
29,5.840000000000001,0.7619049711410639,0.647104745842611,0.027500233789992626,0.7890522191758694,0.614309938126354,-0.00446041845918282,1
30,6.04,0.7350923714315776,0.6761078106697048,0.05017403526245792,0.7627347284679007,0.6464643455862547,0.017876908981512975,1
31,6.24,0.5776491675661206,0.8158318236647536,0.02720063797064923,0.6965164996017951,0.7166847743943542,0.03503854925331114,1
32,6.44,0.5425632486276668,0.8397018888997575,0.022931616095949004,0.5329070596126898,0.8438137530211759,0.0631539074584876,0
33,6.640000000000001,-0.2286671596958591,0.9698951459527849,0.08375402040412416,0.12910563279584836,0.9872125772653902,0.09350434679419842,0
34,6.840000000000001,-0.38175178994886166,0.9026286724980349,0.19881411030225063,-0.2277661176666429,0.9598392135805618,0.1638025632159458,0
35,7.04,-0.4202236426701219,0.8860642407546426,0.19570960987379402,-0.3918807042637465,0.8976321053198069,0.20170799965514916,0
36,7.24,-0.43252838120467973,0.8780161017503698,0.2049559087207386,-0.4504102487783512,0.8665960742177078,0.21480654539813385,0
37,7.44,-0.7664223224717883,0.6419106960478342,-0.023398331486130575,-0.5566783321145122,0.8057657746052076,0.20211568724142778,0
38,7.640000000000001,-0.7916338142281469,0.6106046558333273,-0.021859973587818233,-0.7473835394932187,0.6417902458766868,0.17182294722222252,0
39,7.840000000000001,-0.9768859075792488,0.20503753904333852,-0.06044444685923506,-0.9303832563681242,0.33867315174505286,0.1403121254807219,0
40,8.04,-0.6865955071597223,-0.7044235230949762,-0.17992806801203873,-0.9820609432592341,-0.1356713610634683,0.13095642600487062,0
41,8.24,-0.8339648585558427,-0.5516897683184318,-0.011874941123584616,-0.8607273938866582,-0.4956524943249457,0.11609030227603577,0
42,8.44,-0.688039861686508,-0.7253998633903,-0.019904444823838453,-0.7290682731058079,-0.6792024935646673,0.08451879013599971,0
43,8.639999999999999,-0.33815346206224467,-0.9303830264328566,-0.14156150684757707,-0.5882538805546468,-0.8082578686931434,0.026011338066637375,0
44,8.84,-0.17709312240316816,-0.9658611549913134,-0.1890773790709584,-0.3441902766689392,-0.9388554517984007,-0.009137509232806455,0
45,9.04,-0.20221509169747848,-0.9642582788991234,-0.17121632008742962,-0.1728933773833478,-0.9839893888235693,-0.04327542882049857,0
46,9.24,-0.22389338516447121,-0.9583238335775499,-0.17744627941104332,-0.14398539120718107,-0.9879119588484078,-0.05742968468672469,0
47,9.44,0.15240485715114604,-0.9771580292141107,-0.14810450857126053,-0.08041621820298706,-0.9943585429604123,-0.069168778300442,0
48,9.64,0.17631153255913934,-0.9733920913927521,-0.14636283647392223,-0.0292733077120223,-0.9966090596317537,-0.07689899684331912,0
49,9.84,0.17683735867935324,-0.97287893113608,-0.14911449938496424,-0.003741833819816631,-0.9967005034895832,-0.08108085485042996,0
50,10.04,0.19964230787936788,-0.9669854127881449,-0.1583734837639845,0.04378928203257276,-0.9951260386722092,-0.08835533903295749,0
51,10.24,0.2688643719938941,-0.9524689422600618,-0.14323010682928347,0.10636384317172837,-0.9908607270706263,-0.08295632835902443,0
52,10.44,0.32962615579586285,-0.9343634463099806,-0.13532016706676828,0.17126001325845364,-0.9817818852900427,-0.08230636412236934,1
53,10.64,0.3772329614782269,-0.9170100259153088,-0.12956814865224933,0.23067118473488762,-0.9697026886188186,-0.08042076981997899,1
54,10.84,0.6046485813691564,-0.7949627135863947,-0.04933940672142633,0.2880856865526584,-0.954844216831519,-0.07265781986053892,1
55,11.04,0.6074104129975448,-0.7933434137110075,-0.04072859073817452,0.3048615578161307,-0.9497774652391564,-0.07058468027698803,1
56,11.24,0.6037582937010693,-0.7963239698413529,-0.03666139445358777,0.3113786982813041,-0.9483217693160523,-0.06106658741007746,1
57,11.44,0.5952277766138128,-0.8026708263852466,-0.03772848283992771,0.3090207655109997,-0.9494581794464658,-0.055093846890542676,1
58,11.64,0.4691585209320267,-0.8817890784232939,-0.04835600697195158,0.3082741527058494,-0.9495599238784463,-0.05747171249797969,1
59,11.84,0.4525949775322227,-0.8905350112644371,-0.04588224084388048,0.2908505121684063,-0.9548518890064254,-0.06052974171625893,1
60,12.04,0.4235287019230971,-0.9052030901931037,-0.03508281847560684,0.24841454541277436,-0.9673215317709583,-0.050786492295214224,1
61,12.24,-0.3440879175519076,-0.932788574938437,-0.10727991172214804,0.1339862128026874,-0.9901488536625604,-0.040656393956060036,0
62,12.44,-0.300263398518935,-0.9328331100457438,-0.19915893229339315,-0.02913364255880263,-0.9988039007495374,-0.03926829151827476,0
63,12.64,-0.2662351649381572,-0.9389090934462635,-0.21810215770199978,-0.1733178035286343,-0.9840794307025049,-0.03935242112302001,1
64,12.84,-0.36511454332052046,-0.905911829440676,-0.21451136924483896,-0.2805222681421708,-0.9586713109422371,-0.04750341727354929,1
65,13.04,-0.36348335376484364,-0.9053112888729058,-0.21975286522623544,-0.30313581883555357,-0.9511532287568674,-0.058448359808341156,1
66,13.24,-0.3364735856741328,-0.9165286027897311,-0.21624256383028656,-0.2889859866867439,-0.9554701064152825,-0.059699038898947676,1
67,13.44,-0.30051293821781977,-0.929966871552448,-0.21178666572436894,-0.25792245939418895,-0.9643892471913552,-0.05856094980227179,1
68,13.64,-0.284580996874834,-0.9353550207273572,-0.21005866184913996,-0.24182535337014394,-0.9685315104335827,-0.05888303460800872,1
69,13.84,-0.061282841018733436,-0.9029953628776186,-0.42525731977026604,-0.21939149940615227,-0.9736132049750391,-0.06280682356681205,1
70,14.04,-0.05220745395647214,-0.9035419355104946,-0.42530736241609085,-0.19313428150457312,-0.9788887913821427,-0.06690204342260976,1
71,14.24,-0.048980660464109704,-0.9055516409547342,-0.42139900387244394,-0.17509928493438565,-0.9821387608463736,-0.06887448626753215,1
72,14.44,0.10380242949294555,-0.9296576499361765,-0.3534992355670768,-0.1534768021685201,-0.9856251873342161,-0.07062479230777584,1
73,14.64,0.11056112251976269,-0.9293433261607715,-0.3522743537466277,-0.13413718104582828,-0.9882923748634168,-0.07270074585522861,1
74,14.84,0.18656382973298102,-0.9036959807198159,-0.3853926723047725,-0.12808661966631896,-0.9890612722898159,-0.07315475048762633,0
75,15.04,0.1879478296338437,-0.9036307395040585,-0.38487283608911205,-0.12276674605962862,-0.9897939951155602,-0.07236140749812349,0
76,15.24,0.14117016402552474,-0.9807651909821833,-0.13479846047595762,-0.11462031260451033,-0.9909361592676769,-0.07005506544333455,0
77,15.44,0.19482204957737798,-0.9738709389844076,-0.11670374115724866,-0.032659110414718695,-0.9981760152626501,-0.05077425589112271,0
78,15.64,0.3463860971690416,-0.9326607005078034,-0.1008002451202003,0.18730930241649107,-0.9820103156355722,-0.023894878396239487,0
79,15.84,0.8191952803485194,-0.5603816812712475,-0.12203058612626919,0.47956245999358377,-0.8775064914762049,-0.0014847161426053863,0
80,16.04,0.787548291311595,-0.6084768803187159,-0.09758880555570924,0.6073158647033721,-0.7944457151841557,0.004842117835310875,0
81,16.24,0.8869215439848359,-0.45504038760327753,-0.07942556556559109,0.6478237743272603,-0.7616898027222522,0.01236939146923854,0
82,16.44,0.7965393137298342,-0.5978614375125385,0.08992676586115102,0.5802499059803474,-0.814217193018594,0.018984446336922967,0
83,16.64,0.8383821963425553,-0.5239721544855248,0.15022807387312934,0.46708201250758813,-0.8836044185707009,0.032827200218644166,0
84,16.84,0.13435003054484812,-0.9768925816653817,0.1662256092777043,0.062037108576873445,-0.9966838366688622,0.052656688867212746,0
85,17.04,-0.8458828124096187,-0.5214683314273222,-0.11204038106146558,-0.4968133551129602,-0.8648756930406307,0.07187854873947319,0
86,17.24,-0.8800379665459487,-0.46736305148904206,-0.08429089832551999,-0.8011664076032673,-0.5954989544505719,0.05927379333526067,0
87,17.44,-0.9406105204406877,-0.33299476332834993,-0.06607825990592776,-0.9094408651609828,-0.4104391346842335,0.06676098782148926,0
88,17.64,-0.9685982062530594,-0.1885091324553585,-0.16211669199772127,-0.9433597454131885,-0.327069550700245,0.05565877952941804,0
89,17.84,-0.9722680057609063,-0.141031615119353,-0.1865610047961174,-0.9685541766134566,-0.24806823978742132,0.019103805207337322,1
90,18.04,-0.9757137704446026,-0.13406235770373517,-0.17323372192414951,-0.977596253000312,-0.20913385645521151,0.02384525537546708,1
91,18.24,-0.9762749952965427,-0.13606308335163642,-0.16844575063675898,-0.9810972682929425,-0.1919137298523065,0.024844927898919893,1
92,18.44,-0.9759521847109824,-0.13881222894795803,-0.16807289565054853,-0.9831654291961116,-0.18143079007438104,0.02164733809528318,1
93,18.64,-0.9761587084713554,-0.12976728714349706,-0.17399605473387167,-0.9864550701924963,-0.16349818834331173,0.01321880856856275,1
94,18.84,-0.9728097595331076,-0.13624505207362422,-0.18729243856224587,-0.9869134608084904,-0.1612055879747016,-0.0038182824331433572,1
95,19.04,-0.9705779002672639,-0.1530356195821448,-0.185899539138478,-0.9851842027390519,-0.1713368978218164,-0.007466868032537371,1
96,19.240000000000002,-0.9651018221747053,-0.18355380428689974,-0.18677921128131542,-0.9807425475807867,-0.19480061390431908,-0.014027693582655817,1
97,19.44,-0.9589109616351579,-0.21230782078820112,-0.1881891518874084,-0.9755573070158875,-0.21889133978496755,-0.019352573344419723,1
