,timeStamp,x_gaze,y_gaze,z_gaze,x_head,y_head,z_head,fixations_head
0,0.033366700033366704,-0.9927316978546661,0.00894858455855107,0.12001541113119851,-0.9910816159225617,-0.025447854881824796,0.13080381210896688,1
1,0.2333667000333667,-0.9956159858996962,0.02477955410863208,0.09019302810724046,-0.9929804196284976,-0.0108464748983695,0.11778047468359198,1
2,0.43336670003336675,-0.9973544958561666,0.05204827877060819,0.050744322564287625,-0.995370964967966,0.01654293208150751,0.0946729818738514,1
3,0.6333667000333668,-0.9962793278442845,0.08162519546326015,0.02765553065347655,-0.9956323727555763,0.04412800526626664,0.08227330959868737,1
4,0.8333667000333668,-0.9951351477884872,0.09820084400555928,0.007914030110008321,-0.9956079366332004,0.06264766271293178,0.06957087659062718,1
5,1.0333667000333666,-0.9893371505075037,0.14561573155591828,-0.0028392515084282193,-0.9916063213311141,0.11156935567516589,0.06533898048181826,1
6,1.2333667000333668,-0.942889156682706,0.33252966304544584,-0.01959748466150223,-0.9848430451576883,0.15626280558331063,0.07527358099469143,0
7,1.4333667000333667,-0.9139487117357761,0.4048047958958399,-0.028824113798048782,-0.9585734160074201,0.2770633500492297,0.06612795311638915,0
8,1.6333667000333667,-0.6481444266811465,0.747316560278789,-0.1463788266630353,-0.9024175426785134,0.4273573738209599,0.054847549689356075,0
9,1.8333667000333667,-0.6107991172044708,0.7877479594677039,-0.07985981953841505,-0.8534573664035942,0.5184057548333797,0.05353500805151037,0
10,2.033366700033367,-0.4672084345952952,0.8760737917408742,0.11920985725929457,-0.7959041160896159,0.5993848973984376,0.08528999215776477,0
11,2.233366700033367,-0.33844051989080776,0.9206563433708251,0.19455053818250176,-0.6891588508721225,0.7149333585968833,0.11802699280247766,0
12,2.433366700033367,-0.23040417586910017,0.9498760498454295,0.21130405976252256,-0.5775049692358609,0.8049494387192633,0.13617786756088854,0
13,2.633366700033367,-0.04899147765943873,0.9900241123570376,0.13210636649459823,-0.4591363757778019,0.8805033869899139,0.11793037749840024,0
14,2.833366700033367,-0.11777332642456673,0.9667848926290512,0.22684006473091722,-0.3764458887750562,0.91654467276922,0.13503464608285365,0
15,3.033366700033367,-0.1581125044055245,0.9600576496877632,0.2308457173668617,-0.26365636180914737,0.9511053464329445,0.16088487456635794,0
16,3.233366700033367,-0.15432566879283277,0.960590924205936,0.23118967166556229,-0.19370362980138173,0.9649868355639906,0.17685957986483314,0
17,3.433366700033367,-0.1391607723597853,0.9603866380398045,0.24143691704217354,-0.13946466262074875,0.970854456566523,0.19491339626870782,0
18,3.633366700033367,-0.02238870839761431,0.9658521742804422,0.2581246272133461,0.0019186982994696122,0.977432261252467,0.21124036844250482,0
19,3.833366700033367,0.48486697806223655,0.8431269351049441,0.2324671694784837,0.18346867565444197,0.9587846467396752,0.21695908883907408,0
20,4.033366700033366,0.48348898074138597,0.8467352055533691,0.22198625448020362,0.3671514440227809,0.9071144161830612,0.20577476304165931,0
21,4.233366700033367,0.6969075318240416,0.7163967790153519,-0.03309904988592768,0.534809712769607,0.8410052951218139,0.08178425706920402,0
22,4.433366700033367,0.9092792277883539,0.4027996823428783,0.10470769702887682,0.8386173562921573,0.5332999387621553,0.1109599253867576,0
23,4.633366700033367,0.954796804267619,-0.26943246136303983,0.12557552040185288,0.9800228871784489,0.07727083565271027,0.1832603573169845,0
24,4.833366700033367,0.9366857073248489,-0.3357544681427469,0.09944256038300989,0.9829362429356313,-0.12826740125813205,0.13184770038977212,0
25,5.033366700033366,0.8278875238765275,-0.553866598581362,0.08851010555583132,0.9168698402939695,-0.39214168429548196,0.07466321314552504,0
26,5.233366700033367,0.6067780955279956,-0.7905526499464623,-0.08274569747150066,0.8226865611726542,-0.5682988737725133,0.014940285633345048,0
27,5.433366700033367,0.5000674019941284,-0.8640159302583256,-0.058387205128206526,0.7818896058459053,-0.6230583344171645,0.02114133826047173,0
28,5.633366700033367,0.35599463288481015,-0.9253080409836228,0.13066311892902185,0.7250168678790304,-0.6864255605484694,0.05630711426276794,0
29,5.833366700033367,0.27946109988294054,-0.9499298282325818,0.13976700285201377,0.5251266979125799,-0.8359457758107653,0.1594885922051089,0
30,6.033366700033366,0.10271792090200199,-0.9771235016242676,0.18622215576858647,0.4121374519405632,-0.8714513114208547,0.26592354640161536,0
31,6.233366700033367,0.09899415326164401,-0.9878566777441882,0.11974699101115414,0.4193986349078746,-0.8712959135403195,0.2548493988326276,0
32,6.433366700033367,0.033359301239060946,-0.9969237772453786,0.07092347554687538,0.3691018778867112,-0.9034728275589177,0.2179464466404484,0
33,6.633366700033367,0.04260662778683383,-0.9990378053049017,0.010398982652131137,0.40377440999569497,-0.9012922390185265,0.1569666388682637,0
34,6.833366700033367,0.8526843555951054,-0.49523442906321213,0.1663497820671675,0.8627357237696689,-0.470387547456866,0.18553335583969943,0
35,7.033366700033366,0.7099192305967255,0.5800680878897414,0.3994192026441555,0.830643914473508,0.4781840197773098,0.2852555531058792,0
36,7.233366700033367,0.4447319919433025,0.8196441274090494,0.361105192078431,0.41398178547435427,0.8613248398688161,0.2945141788105016,0
37,7.433366700033367,-0.15122473340237363,0.8612078042692741,0.4852341680808113,0.058051490521247084,0.9305007301112653,0.3616606361088583,0
38,7.633366700033367,-0.23391730564131957,0.7808828720998271,0.5792276186290075,-0.12072889165989148,0.8610874347007352,0.49391594884057083,0
39,7.833366700033367,-0.10678868706912048,0.8538643063163069,0.509423127383343,-0.14313224099756466,0.8774871870659225,0.4577438127622804,0
40,8.033366700033367,-0.17298175080224748,0.9424586347880829,-0.2860927045605539,-0.18343619336436268,0.9830045131435361,0.007300007084371049,0
41,8.233366700033368,-0.226717302615412,0.9330139904635765,-0.27943542777182956,-0.24962589205165175,0.9514488029337276,-0.1800891151996546,0
42,8.433366700033368,-0.298052060654855,0.926353431983902,-0.23029174581612988,-0.29529838527330926,0.9413465555716867,-0.16329582348699978,0
43,8.633366700033367,-0.3305831052310136,0.9266116546818104,-0.1791805010140842,-0.3267313847907185,0.9362148558983282,-0.12941540011919808,0
44,8.833366700033368,-0.3370012179802237,0.9220899093867908,-0.19021140367208722,-0.3394576374829428,0.9286982230721476,-0.14929207218447718,0
45,9.033366700033367,-0.34403925180658845,0.881629724153345,-0.3230573056063883,-0.36375992849761424,0.8120883905465467,-0.4562796953173898,0
46,9.233366700033368,-0.2946498652348931,0.6310753465570911,-0.7175830013907153,-0.3917021750771069,0.7058190430626102,-0.5902447665926782,0
47,9.433366700033368,-0.3103787767310737,0.6821465912773191,-0.6620732912326674,-0.41487330112666354,0.7247757351763043,-0.5500729748968877,0
48,9.633366700033369,-0.31986237424291186,0.9091765727352639,-0.26661961880748214,-0.4430159743053604,0.7803600080582197,-0.44133332565493855,0
49,9.833366700033368,-0.32075907754324634,0.9329773501944558,-0.16329996386324674,-0.4551965235915452,0.8447271102391504,-0.2814822092729597,0
50,10.033366700033367,-0.27847033110402525,0.9597741892278648,0.035885657118259605,-0.4323194142188837,0.9002718855180298,-0.05109262407875022,0
51,10.233366700033368,-0.08927797427236667,0.944560895860165,0.3159654369099027,-0.36399111483206664,0.9216206762308812,0.1346320818640289,0
52,10.433366700033368,-0.02820264534814637,0.9394295639271159,0.3415797201460816,-0.3393457574670727,0.9098875713423398,0.2386400310212804,0
53,10.633366700033369,-0.04522407966514619,0.8845435119200425,0.4642602267463781,-0.36016835432612265,0.8942109013135746,0.2658300594627652,0
54,10.833366700033368,-0.11313483136228203,0.8412407489333725,0.5286913204003323,-0.4363668136784079,0.839013029981422,0.32502482896164586,0
55,11.033366700033367,-0.15040390161458653,0.6374551765008477,0.7556649815436622,-0.4621910433156267,0.7837968993638584,0.4147792907395624,0
56,11.233366700033368,-0.14556798955628897,0.6489782486567253,0.746751091855238,-0.4836822173067092,0.7380948427689945,0.4703908117077534,0
57,11.433366700033368,-0.19802607424654936,0.629793371404629,0.7510965205972475,-0.5543893223472933,0.6902237441090316,0.4650200665943561,0
58,11.633366700033369,-0.9043972707432234,0.41277501409659056,0.10808498697677017,-0.7746353521130477,0.5552209974232009,0.3027700699822906,0
59,11.833366700033368,-0.9692559118735208,0.24310991992373865,0.03795450082537354,-0.9728974828056655,0.21791814140537155,0.07734449946071273,0
60,12.033366700033367,-0.99876759933316,-0.043424839931941704,0.024032598676836922,-0.9865400684266141,-0.14693393088433046,0.0717573225788882,0
61,12.233366700033368,-0.7354095365566684,-0.6646342601957518,0.13203830397105407,-0.83624701362383,-0.523199436100655,0.16417454817718463,0
62,12.433366700033368,-0.327440834671853,-0.9386394733149381,0.10834407655454069,-0.5389294309974436,-0.8241112295563217,0.17434376881305463,0
63,12.633366700033369,-0.34547951390632864,-0.9345273092295816,0.08545533204642496,-0.47658827937958737,-0.8663395129017663,0.14939698906984233,0
64,12.833366700033368,-0.4815627184820975,-0.8741407388831504,0.06305011334607187,-0.5885115952711206,-0.7998449401525198,0.11790748044061,0
65,13.033366700033367,-0.5811594720163173,-0.8137894876927708,0.0005812111947196367,-0.6612533183692996,-0.748041949403157,0.05636746294374618,0
66,13.233366700033368,-0.8583237787084359,-0.5123175470971859,-0.028478445182182746,-0.8072953944387979,-0.5889305394637471,-0.03788094250207639,0
67,13.433366700033368,-0.8529969209057847,-0.5217494344771433,0.01318258502843301,-0.8723272556658035,-0.4879362015235657,-0.031039044207621387,0
68,13.633366700033369,-0.9207976516945773,-0.16205912469463207,-0.3547795438535904,-0.9343083161239867,-0.32999590901874226,-0.1347986292677153,0
69,13.833366700033368,-0.5968550519311483,-0.008682675973073185,-0.8023020990388926,-0.8726322063767754,-0.112970468797791,-0.47513230323101396,0
70,14.033366700033367,-0.5821167995877476,0.08753441975606091,-0.8083797109005694,-0.8136238769748168,0.04200614756139491,-0.5798721155423138,0
71,14.233366700033368,-0.5180245134403716,0.372332839336511,-0.7700771780974152,-0.7825853222993514,0.18586917939045575,-0.5941488546436312,0
72,14.433366700033368,-0.4721330038516941,0.42085849565317124,-0.7745763702247352,-0.7353594917372678,0.31747266908281246,-0.5987132220832796,0
73,14.633366700033369,-0.3882163508666261,0.48180774348790933,-0.7855885457635504,-0.6765118817075748,0.42189887111231233,-0.6036000467715631,0
74,14.833366700033368,-0.3672899827438125,0.5106432433859919,-0.7773940741736363,-0.6436084726328828,0.49349468162832677,-0.5850052419933722,0
75,15.033366700033367,-0.41676508708830906,0.6649755435492338,-0.6197696254784321,-0.6396324243997825,0.5628581688803506,-0.5235083985774396,0
76,15.233366700033368,-0.6491885199796701,0.7234953076735977,-0.23475264705832774,-0.6628207607975786,0.6646491650357753,-0.34483347643894174,0
77,15.433366700033368,-0.6828350189691106,0.6908041433091252,-0.23775191367558018,-0.6860414642346497,0.69262301232704,-0.222756531095712,0
78,15.633366700033369,-0.38729015036814035,0.9024769055625225,-0.1885252618460392,-0.5492019920010611,0.8269968115060384,-0.1202224843401293,0
79,15.833366700033368,-0.23959376567620427,0.970046834473538,-0.040049549023236375,-0.40610237410400646,0.9137196772696302,0.014043258787506003,0
80,16.033366700033366,-0.016458065773108932,0.9470980344005712,0.32052214479748914,-0.2605454434667797,0.9454894128923967,0.19536079954046554,0
81,16.233366700033365,-0.01203146389963533,0.9693973226148503,0.24520211007165502,-0.17542993002914808,0.9687433641712003,0.17538709765610946,1
82,16.433366700033368,0.011621884349347189,0.9699005591815186,0.24322384156070795,-0.11221618830063435,0.9830612936768648,0.14490693550567404,1
83,16.633366700033367,0.14480075437931544,0.978829048523132,0.1446597224471337,-0.08356612617456088,0.9918262749983063,0.0964227295774286,1
84,16.833366700033366,0.11576310879460783,0.9810324485685888,0.15548066599332386,-0.09049360684192215,0.991283554838481,0.09574873903882102,1
85,17.033366700033366,0.0016680570660534966,0.964867881096332,0.26273026018009277,-0.10076574958365397,0.984797656908505,0.1414914791016172,1
86,17.233366700033365,-0.031301617811873295,0.9471074637250926,0.3193863817988837,-0.10104428276781824,0.9788331097862979,0.17797695386207346,1
87,17.433366700033368,-0.04310539230056665,0.9483643427151113,0.31424035167551184,-0.113776329223858,0.976420511633833,0.1834609805083032,1
88,17.633366700033367,-0.1192772463516884,0.9818012719282485,0.14778092212065985,-0.1316855923554776,0.976671651717239,0.16962131203922307,1
89,17.833366700033366,-0.047520117648847005,0.9286096404616133,0.368002682137499,-0.13538124199520984,0.974124305864685,0.18097998795303366,1
90,18.033366700033366,-0.04662567457453165,0.9282292480207596,0.36907520858123927,-0.13602291255836124,0.9733766749554665,0.18448744106789758,1
91,18.233366700033365,-0.015075847131548581,0.9333551553324798,0.3586375229218891,-0.09907860373816924,0.979848390949793,0.17343748451357435,1
92,18.433366700033368,-0.01899242633989695,0.9323044125144578,0.3611755392434482,-0.0889655360689231,0.980662592176851,0.17431584465259772,1
93,18.633366700033367,-0.0503936900113241,0.9569407910512087,0.2858754946289207,-0.07761046629110957,0.9874620269851689,0.137460397149209,1
94,18.833366700033366,-0.036218795105258994,0.999194639249395,-0.01727054649959898,-0.05017309721513713,0.9987205788705169,-0.006313925591923199,1
95,19.033366700033366,0.005883605746622167,0.998694513789288,-0.050741021970356015,-0.020278049345106408,0.998767992144329,-0.04529126386780407,1
96,19.23336670003337,-0.007362504304305573,0.9974491323947556,-0.0710001536288354,-0.04244060182259568,0.9968787741496413,-0.06656954984709024,1
97,19.433366700033368,-0.12941126513979412,0.9488334677066664,0.28804127310970623,-0.09697415358739636,0.9951924111625923,0.013714164225130436,1
98,19.633366700033367,-0.10633133541682344,0.9434267258624557,0.3140695146570617,-0.11009874693901378,0.9907464415885908,0.07937099219490709,1
99,19.833366700033366,-0.06019323207743066,0.9565189231368881,0.28539152841862797,-0.07647485113602809,0.9936768496807079,0.08220654202888267,1
100,20.033366700033366,-0.04143082983580909,0.9705156538409841,0.23745073591952381,-0.05396839790476676,0.9966776918071741,0.060999923618939994,1
101,20.23336670003337,-0.04907152518966851,0.9829705647708425,0.17708996078166217,-0.05694888612419774,0.9982380435678668,0.016662315055566673,1
102,20.433366700033368,-0.07761890808453092,0.9921154146791938,0.09839872490889531,-0.08510217320085611,0.9959056542876872,-0.030488487569987656,1
103,20.633366700033367,0.15565489796883253,0.9799374643227257,-0.12447537409085901,-0.08151832008478649,0.9942267625649882,-0.06977039551340403,1
104,20.833366700033366,-0.07763891660839584,0.9889023973862415,-0.1266658875610114,-0.11063791460826627,0.9862528119217562,-0.12273810666440542,0
105,21.033366700033366,-0.5182089874027647,0.7697395893649522,-0.37277393945832155,-0.32336460789765,0.9089605310137271,-0.2631085012279968,0
106,21.23336670003337,-0.7878324873532895,0.5364008706241934,-0.3026451352067906,-0.8270880017739548,0.5256068237460504,-0.19915547733656505,0
107,21.433366700033368,-0.9424385123881394,-0.2912163219591864,-0.16432499564032907,-0.9668623310461597,-0.20211288048644205,-0.1559731269977598,0
108,21.633366700033367,-0.48950041772831077,-0.8668276556714672,-0.09486388357492932,-0.6491979408904098,-0.7468353770265445,-0.1441490657800851,0
109,21.833366700033366,-0.18071734067117562,-0.9808376514867737,0.07279247355770208,-0.27712822605720294,-0.9607735691817204,0.010681530049856731,0
110,22.033366700033366,-0.12753913166458092,-0.9896024821950532,0.06648832324276092,-0.20694097600246403,-0.9777089236686457,0.03550623930869372,0
111,22.23336670003337,-0.12426950752734073,-0.9896042523831307,0.07239138874298102,-0.16578865176015628,-0.9848786973825738,0.0502799601188645,0
112,22.433366700033368,-0.19480839219527601,-0.966157505552674,-0.16908389868502144,-0.23670006812475602,-0.9686329587713991,-0.07565228966462877,0
113,22.633366700033367,-0.3621162212443605,-0.8477218892747311,-0.38760732804758263,-0.31140332160518336,-0.919693779739522,-0.23914707357960846,0
114,22.833366700033366,-0.4094484192500558,-0.8191479373113668,-0.40168227341042073,-0.39633129972857783,-0.8713975554999086,-0.28911554977939213,0
115,23.033366700033366,-0.4423526912306048,-0.852672398975694,-0.2779817918247092,-0.4434272232131617,-0.8844138711166153,-0.14554862517381728,0
116,23.23336670003337,-0.5204983026657367,-0.8429118613021991,0.13631254893864195,-0.4828292614826277,-0.8750634712862473,0.033761301464894165,1
