,timeStamp,x_gaze,y_gaze,z_gaze,x_head,y_head,z_head,fixations_head
0,0.033366700033366704,-0.9984818900844696,0.023937919620685505,0.049607370194142665,-0.9970136738837678,0.0007122648646871997,0.07722193190768024,0
1,0.2333667000333667,-0.9431666262493418,0.24282588684851333,-0.22687508414470603,-0.9986267862105878,0.00768953366183345,0.051820970029290044,0
2,0.43336670003336675,-0.8947799178230175,0.39692815286186883,-0.20449190723913557,-0.9941270725549234,0.10321716619072957,-0.032520458436706014,0
3,0.6333667000333668,-0.8612059824861449,0.43645043229409525,-0.2604520606184011,-0.9662977579085832,0.21583428970484347,-0.14030040074230543,0
4,0.8333667000333668,-0.7385476990166753,0.35557195906411093,-0.5728139996582527,-0.9140039257955208,0.28820869354187684,-0.28553909118938686,1
5,1.0333667000333666,-0.7224432112098067,0.3590489186523993,-0.5908973519922098,-0.8770621902460738,0.33920563064941534,-0.340149165185647,1
6,1.2333667000333668,-0.6943350991910776,0.618950410452878,-0.3671500502948764,-0.8550748025878852,0.39334061864460174,-0.33783167362396815,1
7,1.4333667000333667,-0.7040078089417413,0.617340337468928,-0.3510896077681579,-0.8551810043075242,0.41067893871169997,-0.31624082464192654,1
8,1.6333667000333667,-0.9293614618446793,0.31211598441666605,-0.1971570072544639,-0.8765203304462161,0.3916025930117266,-0.2799277039897052,1
9,1.8333667000333667,-0.8961834313150465,0.21327928363235577,-0.3890593844256406,-0.8909341747929167,0.35597932616121336,-0.2819840696420158,1
10,2.033366700033367,-0.8940403292398877,0.19215052464510518,-0.4046851437491179,-0.9043787857326564,0.3154690445390541,-0.287364392112772,1
11,2.233366700033367,-0.8768912666683764,0.421952197008775,-0.23025648716203162,-0.9089353759150278,0.3056515496804652,-0.28357294050761866,1
12,2.433366700033367,-0.8715358037414005,0.4220739995560835,-0.2495573715512378,-0.8986082825877764,0.3168083988280387,-0.3035384537363617,1
13,2.633366700033367,-0.7137063478620878,0.288465398324216,-0.6382875237626161,-0.880814304034166,0.3160113054771079,-0.35256632938989185,1
14,2.833366700033367,-0.693320074885273,0.2963595429468004,-0.65687007472212,-0.8791150197992125,0.3259662097373194,-0.3477108167326933,1
15,3.033366700033367,-0.7202249390893056,0.3213500542827023,-0.6148253245648803,-0.8935321158106025,0.344688302312963,-0.2877330920551819,1
16,3.233366700033367,-0.911760259950555,0.38130061989514696,-0.1526534167402518,-0.9004237296180524,0.3536237525154821,-0.2533522227997728,1
17,3.433366700033367,-0.9122351789509959,0.3837335224724215,-0.14344184192609924,-0.908572042603339,0.35413252909979115,-0.22155585127227412,1
18,3.633366700033367,-0.9196488203164911,0.3734878141938063,-0.12146151628898559,-0.9255715833479717,0.33290492022753254,-0.18025414887604915,0
19,3.833366700033367,-0.9852074480185677,0.16925442056632117,0.0268183796583666,-0.9478550639755687,0.29774292348059334,-0.11366586652597187,0
20,4.033366700033366,-0.9915766883870675,0.1282258085496079,0.018270551965835827,-0.9682788760862323,0.2290238148306896,-0.09992052024274611,0
21,4.233366700033367,-0.9784482829306889,0.20439900782841788,-0.029325811646834486,-0.9769887295016687,0.182915386056346,-0.10970407453952516,0
22,4.433366700033367,-0.9467872353699717,0.30236946170509443,-0.11030249121691399,-0.9795546400940518,0.1699257840299669,-0.10769370915709932,0
23,4.633366700033367,-0.9516963953427523,0.28481606961606953,-0.11468991926087423,-0.9880025022204704,0.11782743273671029,-0.09983862829969797,0
24,4.833366700033367,-0.8127344022813018,-0.546824921990919,-0.20111015896289422,-0.9670780068323568,-0.2094032611555699,-0.1446042977181808,0
25,5.033366700033366,-0.7072305665858131,-0.6963273399929517,-0.12228311929718792,-0.7209767888759536,-0.6760024819806651,-0.15235850569659612,0
26,5.233366700033367,-0.08605069824706807,-0.9894223697487914,-0.11678463756795172,-0.3563706835221783,-0.9278611713256895,-0.10987985562447493,0
27,5.433366700033367,0.34932222585761336,-0.920993448066539,-0.1724675364826377,0.006729859949354822,-0.9947129150411859,-0.10247402419798293,0
28,5.633366700033367,0.41160669985530113,-0.9021151561808323,-0.1294919674074828,0.24338949089483636,-0.9682207209086341,-0.057534262184521984,0
29,5.833366700033367,0.5006847146209956,-0.865622667774975,0.003494793130902581,0.43164264203731384,-0.9020426109074293,-0.0019384742340199021,0
30,6.033366700033366,0.8245813693376489,-0.5657403771294675,0.0018414740442936292,0.5870194974641492,-0.8095546646802991,-0.005417978525859564,0
31,6.233366700033367,0.7446629250740829,-0.6674280715042251,0.004110643290518265,0.5484578810860637,-0.8357582564778876,-0.026496969706494608,0
32,6.433366700033367,0.02197272372844189,-0.9979423097049654,-0.060235752777502496,0.08898024615020217,-0.9905857533698648,-0.10403067343676678,0
33,6.633366700033367,-0.7451596412952975,-0.6340605428661557,-0.20665027695345514,-0.5512902829111457,-0.8189247297924142,-0.15950332567746164,0
34,6.833366700033367,-0.8121754003144424,-0.5153172758259543,-0.2735310299753811,-0.8887899233217043,-0.42222628145938235,-0.17826227712778153,0
35,7.033366700033366,-0.9576199463307586,0.1886122401127396,-0.2176912062282941,-0.9825509900532058,0.03848174846839441,-0.18196897257576827,0
36,7.233366700033367,-0.8851629045872775,0.44334386165668394,-0.141183754993108,-0.9135698361452149,0.37366405796952384,-0.1605158131380005,1
37,7.433366700033367,-0.8857865321517481,0.4525594954009964,-0.10282082756414569,-0.8680871016744997,0.47826994265435824,-0.13297611010916266,1
38,7.633366700033367,-0.8896352108613474,0.4509005514848343,-0.0723732289341755,-0.8530282454999427,0.5071998336075761,-0.12284600590876645,1
39,7.833366700033367,-0.8987878704756064,0.43427036211837156,-0.059913408111231914,-0.8539311856397267,0.5091273408538279,-0.10766095386462639,1
40,8.033366700033367,-0.9248491833188042,0.3745462914414567,-0.06609889319793992,-0.8829996851303785,0.4581983059321082,-0.1018129093023025,1
41,8.233366700033368,-0.9412963925826825,0.3325402418711661,-0.05812132867627337,-0.9068278632738446,0.4124791373406825,-0.08674207542409562,1
42,8.433366700033368,-0.9469608359930621,0.31785635783924865,-0.047249453716295055,-0.9179011297939155,0.39030207058871047,-0.07156681924760498,1
43,8.633366700033367,-0.9454590129082885,0.3207616689328548,-0.0567380529617859,-0.9204521488519903,0.3835461659726605,-0.07523416937420414,1
44,8.833366700033368,-0.9404027772984003,0.333803205049255,-0.06494641443760249,-0.9174686113471855,0.3893212510504751,-0.08173316752188517,1
45,9.033366700033367,-0.9352293261573793,0.3464293886876862,-0.07302592792077685,-0.9147624299813569,0.39483250596238356,-0.08553939986969605,1
46,9.233366700033368,-0.9266502492927392,0.3670070678890361,-0.08139488684921842,-0.9074012431137525,0.4107656886134743,-0.08885118487401017,1
47,9.433366700033368,-0.9201572349881264,0.3817029387446213,-0.08725554110041532,-0.9003609351576433,0.42544528696973377,-0.09135914971854106,1
48,9.633366700033369,-0.8369468022490416,0.5428749892904563,-0.06933106236017428,-0.8040349293988228,0.590183010619597,-0.07219311797269021,0
49,9.833366700033368,-0.6540555560612527,0.7404811271807826,0.15459311069541176,-0.688436983935415,0.7223580243091261,-0.06521812528833705,0
50,10.033366700033367,-0.3329100077758477,0.9398906573849101,-0.07600315048237775,-0.5583997801498888,0.8281232116848118,-0.0490064464880786,0
51,10.233366700033368,-0.2204574667226073,0.9748730533095087,-0.03195364294170888,-0.39019301502525633,0.9199550041092356,-0.037844437370323274,0
52,10.433366700033368,-0.06721414245267221,0.9972805236929837,0.03022939160817478,-0.2569024829038473,0.9662748315298002,-0.017721857405337122,0
53,10.633366700033369,0.3868932672353234,0.9215296751048173,0.033115822037008684,-0.12383269404117536,0.9916364271777922,0.03636839535322109,0
54,10.833366700033368,0.4261575091156558,0.9042230223415291,0.027757941060002036,0.07531753903708654,0.9958311986024737,0.05145378706526467,0
55,11.033366700033367,0.23060997672068878,0.9723307350025617,-0.03730925362777225,0.0636787151918865,0.997848426186983,0.015605754953606811,0
56,11.233366700033368,-0.47523395153734116,0.869769982717987,-0.13286409774260777,-0.2507079889688337,0.9671910905401021,-0.04107187172568222,0
57,11.433366700033368,-0.667492235939341,0.6902769924692669,-0.27923428985044624,-0.5343443149072857,0.8426021517036688,-0.06706539398684831,0
58,11.633366700033369,-0.6496265907958333,0.6798530875136982,-0.3402720557569708,-0.6651024605787261,0.7431423854167698,-0.07333561160307596,0
59,11.833366700033368,-0.7609339487789214,0.5636128684287676,-0.32143437920859497,-0.7254011676631226,0.6856098740734139,-0.06109211508874131,0
60,12.033366700033367,-0.8905855997385197,0.45442620092616487,-0.01881800866707642,-0.8057672519515613,0.5920830301731129,-0.013297408147977925,0
61,12.233366700033368,-0.9891763455500443,0.14537881683406223,-0.019878556793385706,-0.8942709405738161,0.44752090658422766,-0.002126738172335405,0
62,12.433366700033368,-0.9897802473538927,0.14103487789901417,-0.021076649735609767,-0.9465636288721061,0.3225156696451658,0.0009691902806796002,1
63,12.633366700033369,-0.9965051831902587,-0.07417783621136473,-0.038406620392180596,-0.9680374125902593,0.25071725001197487,0.006665461123501471,1
64,12.833366700033368,-0.9848036525906456,-0.1611890788704113,-0.06465173390583945,-0.9824528839435378,0.18649745803917564,0.002242537837349623,1
65,13.033366700033367,-0.9757504451866503,-0.18441807030490423,-0.11790268895605896,-0.987179851387949,0.15960681410425415,-0.0012672431326079879,1
66,13.233366700033368,-0.9149139626511451,0.39559224000122806,-0.08024475432568902,-0.9850103673362801,0.171874840674796,-0.01461558698993098,1
67,13.433366700033368,-0.9060275958424873,0.4131026670653634,-0.09197924785170947,-0.9787396761411662,0.20364358501928323,-0.024452742741447066,1
68,13.633366700033369,-0.8963445244257137,0.428050889873724,-0.1154942821543758,-0.971247927360766,0.23511232376594435,-0.03741201425737811,1
69,13.833366700033368,-0.8914273957830017,0.4330533708743304,-0.1334989738609101,-0.9649022980426715,0.2583402086068194,-0.04715815781979808,1
70,14.033366700033367,-0.8905306631430747,0.43222374497876825,-0.14190761881761127,-0.9605065052597612,0.27289538528184265,-0.05436324167629124,1
71,14.233366700033368,-0.8957515121976511,0.4264828787179083,-0.1254654635989807,-0.9579186346330619,0.28088223789586475,-0.05913592695935212,1
72,14.433366700033368,-0.8959395873120932,0.42406595197924507,-0.13213752025436518,-0.9550337564207159,0.2891967395344787,-0.06538937176302909,1
73,14.633366700033369,-0.8853716237303471,0.43973161187156484,-0.15084163024153677,-0.9479869582825954,0.3062109857277323,-0.08692271938776094,1
74,14.833366700033368,-0.8918490807843609,0.42336255676056794,-0.159277627547769,-0.9521461138768107,0.2900795671306382,-0.09628926504335472,1
75,15.033366700033367,-0.9120169653937398,0.36987063796136394,-0.17725903646372385,-0.9650417432264815,0.23334866673053764,-0.11934334319715643,1
76,15.233366700033368,-0.9139798165680947,0.35709797658243836,-0.1926705219458345,-0.9657357723767712,0.2251001760591713,-0.12916783148280828,1
77,15.433366700033368,-0.7988156039394692,0.22284823889175698,-0.5587774989435988,-0.9630094021214686,0.2413069627066933,-0.11993265266357789,1
78,15.633366700033369,-0.7917007836909702,0.26236461503585096,-0.551701620334936,-0.9496540087811692,0.2928558838478988,-0.11132248156379346,1
79,15.833366700033368,-0.8543147397115364,0.399717984211136,-0.33222260400188947,-0.9398115160598923,0.3266133665762971,-0.10038935727906895,1
80,16.033366700033366,-0.9255629307422385,0.3532961477003477,-0.1360701776875914,-0.9312679121542515,0.3477660364327521,-0.10862255610928663,1
81,16.233366700033365,-0.9186317222844913,0.36913988010163784,-0.1408953786721834,-0.92391105114205,0.36442187963830547,-0.11655497938087654,1
82,16.433366700033368,-0.9316600495302806,0.33386304104177716,-0.14333534782311028,-0.9301073308527572,0.34356272781192393,-0.12986533468323866,1
83,16.633366700033367,-0.9394604909020394,0.3117940258264985,-0.14212132666494579,-0.9377333627313876,0.3212205935000459,-0.13218725631452594,1
84,16.833366700033366,-0.9371989447696695,0.3173949003722903,-0.1446326904274478,-0.9408164551634166,0.3117898167132463,-0.13285897744474612,1
85,17.033366700033366,-0.9445136545276838,0.2938886775991402,-0.14670856004264934,-0.9523366202664965,0.2741807188875907,-0.13371572491547376,1
86,17.233366700033365,-0.948823407052494,0.28020928572672943,-0.14566021564522413,-0.9581782726226202,0.2566956021036819,-0.12649808589286954,1
87,17.433366700033368,-0.93752548247707,0.31818326692829224,-0.14073158264219296,-0.9497089323566346,0.29057146318714927,-0.11670976215938617,1
88,17.633366700033367,-0.9263196670735387,0.35211307503315237,-0.13397110428546136,-0.9409593167665383,0.3215921567861265,-0.1057073738388052,1
89,17.833366700033366,-0.9146595389308699,0.38545725615342125,-0.1217400161058178,-0.9295907643475045,0.35799405970825504,-0.0877568461911961,1
90,18.033366700033366,-0.9042761008287977,0.4117127907714839,-0.11303677005745555,-0.918125834094621,0.389391521045868,-0.07361518936769851,1
91,18.233366700033365,-0.9046169087604568,0.4083671092444315,-0.1220842023851677,-0.9174704751750488,0.39040282532226367,-0.07637775305980364,1
92,18.433366700033368,-0.9188959455072565,0.37439442476624457,-0.12433445232226666,-0.92994095686771,0.36033751266610253,-0.07325772113282465,1
93,18.633366700033367,-0.9244362412999482,0.3611797195515404,-0.12233906144766116,-0.9343693613707706,0.3498743815621686,-0.06739297929360479,1
94,18.833366700033366,-0.9342414065102074,0.3381660824194234,-0.11329913972722742,-0.9433266350034962,0.32665664778149806,-0.05856871309099286,1
95,19.033366700033366,-0.9175603861977772,0.26321158560623154,0.2979976491236794,-0.9527829941642586,0.3015170875570377,-0.03594456763563199,1
96,19.23336670003337,-0.9179369594800746,0.25322941885780037,0.305395808493529,-0.9551195699852614,0.2946274521306376,-0.03068014801429119,1
97,19.433366700033368,-0.9158811534893181,0.2800304112058246,0.2876537527705367,-0.9516440837113672,0.3054859916664783,-0.032432188219431064,1
98,19.633366700033367,-0.9309444328223201,0.3651608456137988,0.00014081102311735484,-0.9499088179754797,0.31023573882028965,-0.03777596975666567,1
99,19.833366700033366,-0.928262850358626,0.36421189540655513,-0.0753510178328323,-0.9533912545633922,0.2978454771801702,-0.04830307904634827,1
100,20.033366700033366,-0.9221517557850767,0.37595393967906815,-0.09107565285128846,-0.9531645854882392,0.29799381000102637,-0.051739367720387335,1
101,20.23336670003337,-0.9087398626441524,0.4039186291387699,-0.10507903252383018,-0.9455004822692512,0.3199567853480953,-0.06046894689281848,1
102,20.433366700033368,-0.8880455505131518,0.4461675101858523,-0.11094887592197893,-0.9292549946847062,0.3636016478272334,-0.0654140394017058,1
103,20.633366700033367,-0.8734471788820228,0.47678703982930665,-0.09881368505345048,-0.9173597768340309,0.39410152577690905,-0.05599131385607508,1
104,20.833366700033366,-0.696391560936523,0.7017599036550253,-0.15023924746378048,-0.9040172611940409,0.4233691895760383,-0.05925639864988144,0
105,21.033366700033366,-0.707461095235944,0.6988323542135186,0.10550895427379765,-0.8677517684451007,0.4962314458914704,-0.027590224153870236,0
106,21.23336670003337,-0.3903084367371575,0.9091020866514933,0.14557719690149615,-0.6100672587121111,0.7908529619650505,0.048677842994495235,0
107,21.433366700033368,0.21907527629125095,0.9665082623550721,0.13367049830568964,-0.16768315795730654,0.9814119185984296,0.09334347631417238,0
108,21.633366700033367,0.5442913184885424,0.8340259967976377,0.0902640420306519,0.3498880092620586,0.9342808504869918,0.06853957534109047,0
109,21.833366700033366,0.848484907381853,0.5292070529636997,-0.00364102165393082,0.7254177022182423,0.687221395233557,0.03867701179833821,0
110,22.033366700033366,0.9994168091832887,0.026797972753677256,-0.021163888541270295,0.9310009693011121,0.36463057988258074,0.016784974676267893,0
111,22.23336670003337,0.9330046423556912,-0.33762592464933805,-0.12454345565869153,0.999082435003284,0.042443104639360206,0.0057333181039872835,0
112,22.433366700033368,0.9182249340526243,-0.3615334295368797,-0.1617298667882834,0.9784591559728901,-0.20255950999810796,-0.039841247497362745,0
113,22.633366700033367,0.7644235783898736,-0.6410407207869442,-0.06872690226232818,0.9177883682449886,-0.3938025184582263,-0.050833921451720915,0
114,22.833366700033366,0.8117230123504889,-0.5791477130546987,-0.07545646217627845,0.9260910869761758,-0.37309096003700787,-0.05619994806002197,0
115,23.033366700033366,0.9494681262194,-0.31209678688032827,-0.03325466752797758,0.9752267196077814,-0.2177540409663714,-0.03893614009967822,1
116,23.23336670003337,0.9383167983437763,-0.3457747411882267,0.0011892443399287031,0.9751441568409973,-0.2215206350035139,0.004741481466878348,1
117,23.433366700033368,0.865832146981656,-0.4936928721111478,0.0812529462836981,0.9703657190117794,-0.235437688188196,0.05440097744848438,1
118,23.633366700033367,0.8867355585891395,-0.44126858883745745,0.13777547546281937,0.9611387852174901,-0.2581808505742429,0.09774908668324225,1
119,23.833366700033366,0.9764159598107731,-0.16669150042529227,0.13720720503228714,0.9674440254798594,-0.2255002250240624,0.1148986774398315,1
120,24.033366700033366,0.9646687811317473,-0.21327714065846548,-0.15468356080184636,0.964568618514722,-0.2509719806498229,0.08136611767379594,1
121,24.23336670003337,0.7918387772839149,-0.6101448622661849,0.026731962885143276,0.937073373885433,-0.3377080243529457,0.08858206501658185,0
122,24.433366700033368,0.7217042414913086,-0.6910940080729708,0.03914153572729738,0.8911280530243773,-0.4469831224745745,0.07808252900529573,0
123,24.633366700033367,0.650618559782352,-0.7550999945799286,0.0807433455594344,0.8331321055920908,-0.5487793866810075,0.06879011110404383,0
124,24.833366700033366,0.65110072783148,-0.7488308505929301,0.12377479314297266,0.7350708503080515,-0.6760475950254213,0.051288344560357045,0
125,25.033366700033366,0.6545016715116595,-0.741786311976294,0.14622116588596937,0.6544635943987755,-0.7533204666729091,0.0646968167558965,0
126,25.23336670003337,0.25773244302538745,-0.9662158221694291,-0.0009863070616681982,0.5536018815421998,-0.8305849935798223,0.0604443975314744,0
127,25.433366700033368,0.2617530604645474,-0.9648075849928341,-0.025132832664429013,0.4199722007434635,-0.9069354806873176,0.033036108626109506,1
128,25.633366700033367,0.3202583532839464,-0.9406940571175185,0.11193425773925511,0.3419823623797547,-0.9377743091424633,0.06022797467571188,1
129,25.833366700033366,0.34378323226414814,-0.931876152680613,0.11584440115600732,0.35111799122241555,-0.9324932131903028,0.08469098885926603,1
130,26.033366700033366,0.3692893056527325,-0.9235302455464852,0.10352436568929696,0.37331667164149684,-0.9231229503008008,0.0920797551172913,1
131,26.23336670003337,0.38592654634502255,-0.917509720799745,0.09610729974449003,0.39145203374203713,-0.915089722536146,0.09683028962025744,1
132,26.433366700033368,0.39835136255775583,-0.9120526472623879,0.09734557293503464,0.4112141497464895,-0.9054196631068073,0.10544267024230401,1
133,26.633366700033367,0.6584334471874893,-0.7455395052698869,0.10313215651159331,0.4504931446740501,-0.8865378726639164,0.10538750843540814,1
134,26.833366700033366,0.6974397150511704,-0.7088666071623204,0.10528996685118058,0.5057840348665419,-0.8555487210674624,0.11053911504056212,0
135,27.033366700033366,0.7601939449984078,-0.636833756967395,0.12863876544242364,0.6044157714094206,-0.7870692268940619,0.12330290891920949,0
136,27.23336670003337,0.7119199024557014,-0.6974163196098612,0.08234397142050609,0.6754742635759312,-0.7280815737706895,0.11675504778016853,0
137,27.433366700033368,0.7505501239158718,-0.6572185456450244,0.06883527257234011,0.7509141629947114,-0.6522700135554341,0.10330415882405558,0
138,27.633366700033367,0.9476862286388469,-0.3138469806538324,0.05823130414779174,0.8218255636910793,-0.5616920048291717,0.09541925683438317,0
139,27.833366700033366,0.9584890217657048,-0.2806027958653683,0.050605000811787995,0.862430037386946,-0.4983050795391965,0.08891838009200574,0
140,28.033366700033366,0.8301637979843896,-0.5573156806207888,0.015076493303176945,0.8726891508501111,-0.4784409811972044,0.09750832528337317,0
141,28.23336670003337,0.6812711083593889,-0.7292533764799863,0.06371177134023072,0.8481138428759939,-0.5201344032198748,0.1008122617007404,0
142,28.433366700033368,0.6181359866604679,-0.7813767452838082,0.085780440223706,0.8024413325227582,-0.5879204217544092,0.10216401295572726,0
143,28.633366700033367,0.6770161142953903,-0.6989490370028257,-0.23047651649830547,0.7427863446724404,-0.6659556867110873,0.06907582431878044,0
144,28.833366700033366,0.6479553213890281,-0.7239104294914436,-0.23687041089413194,0.6810293214711997,-0.7299748618056909,0.05775607698103984,0
145,29.033366700033366,0.3702664721770088,-0.8719256709177728,0.3203878336893959,0.6188451541516102,-0.782812129397342,0.06508337154349589,0
146,29.23336670003337,0.35418246893932986,-0.9324974816700345,0.0707334812877483,0.5638085008131525,-0.823347094172933,0.06495796277449925,1
147,29.433366700033368,0.36632250962545654,-0.9294209693045876,0.04454751125066714,0.5580125210589387,-0.8276056451297039,0.06075296281576856,1
148,29.633366700033367,0.45011618188105473,-0.8582874326644251,0.24645102097400876,0.5618075492403862,-0.825475406082069,0.05443006127274022,1
149,29.833366700033366,0.33551416591080424,-0.9388078781630831,-0.07791028412287655,0.5188527500071438,-0.8538010515601746,0.0426097191350138,1
150,30.033366700033366,0.3067545077984081,-0.9485809071176341,-0.0780764663470561,0.47437450045969365,-0.8796832972075602,0.033557859402100765,1
151,30.23336670003337,0.3029020471322856,-0.950624094332418,-0.0675587234762538,0.45178814286401275,-0.8911379984505483,0.04195880938536135,1
152,30.433366700033368,0.2364714808006514,-0.9701499837046557,-0.05376102571383376,0.3816914970036559,-0.9230416959327572,0.048016962468359986,0
153,30.633366700033367,-0.036730212551362884,-0.9990933954097078,0.021523910765314777,0.2561838673828321,-0.9654019305672195,0.048671742827449876,0
154,30.833366700033366,-0.09983336097084294,-0.991186580944343,-0.08707733225776383,0.16901454877318495,-0.985434612587215,0.01878048503320707,0
155,31.033366700033366,0.3501286491897158,-0.9260251478852988,-0.14102253188974956,0.17886472784631852,-0.9838518240110041,0.006557249627897751,0
156,31.23336670003337,0.40837246944551314,-0.9013196832680084,-0.14441175420522687,0.27234711853732,-0.9621989170937592,0.0005394145125097917,0
157,31.433366700033368,0.4111300111665535,-0.9007179853100864,-0.14028266057188987,0.3932615334678358,-0.9192788233952803,0.016486696197694183,0
158,31.633366700033367,0.7043511268104867,-0.7089883517414695,0.035000103652875536,0.5009557828442097,-0.8643439574213367,0.04419080112610865,1
159,31.833366700033366,0.7204803555296921,-0.6920013589961571,0.04519044637177174,0.5539420083508426,-0.8292049583316001,0.07461493458098528,1
160,32.03336670003337,0.7051743518028804,-0.7081723631702348,0.03494334845536159,0.5598699840945666,-0.8240524017580602,0.08650572273972638,1
161,32.23336670003337,0.6992424468106097,-0.7144759629832418,0.024168138064012315,0.5702442883001744,-0.816343634797909,0.0916761778542593,1
162,32.43336670003337,0.7292202121672304,-0.6841571267426269,-0.012919291546079195,0.6090052389414278,-0.789247144203623,0.07875001148139969,1
163,32.63336670003337,0.7525345165463856,-0.6571382606898639,-0.043140557991270354,0.6388986745461539,-0.766590528364288,0.06440066370255547,1
164,32.83336670003337,0.8651581108227149,-0.49815543929838213,-0.05781523653075334,0.6586258039975215,-0.7484791667493267,0.07740146801483884,0
165,33.03336670003337,0.86765925191742,-0.4942413849296249,-0.05378546258004422,0.6657683293756375,-0.741640994425644,0.08198272371490704,0
166,33.23336670003337,0.4854313674198404,-0.8742747475190854,-0.00023103104449200622,0.5998650284148742,-0.7960694447160578,0.08022086308616863,1
167,33.43336670003337,0.4348123200448344,-0.9003311902990131,0.018493082814688262,0.5415188297029918,-0.8359429736446065,0.0892003469237382,1
168,33.63336670003337,0.44256239101989275,-0.891077035889398,0.10059943421968214,0.5195371674487613,-0.8486220433843845,0.09960802739453141,1
169,33.83336670003337,0.45689813326593404,-0.8881043525527754,0.050147330885307914,0.5319764921511974,-0.8404138670417274,0.1034675982251283,1
170,34.03336670003337,0.528342810312552,-0.8488423375892995,-0.017904209196946408,0.5514342615956287,-0.8286754362321518,0.09600664833196121,1
171,34.23336670003337,0.5167592617613211,-0.8559924245101832,-0.01538943030372234,0.5459922599653374,-0.8326461535460011,0.09269754604622746,1
172,34.43336670003337,0.5735726590584918,-0.7776103183348667,-0.2575589206370422,0.5520376992589344,-0.8319914391636571,0.055178109384873636,1
173,34.63336670003337,0.5878428306188647,-0.7673519964542871,-0.25614784798553525,0.5761193643752511,-0.8159484884036101,0.04810968991503364,1
174,34.83336670003337,0.47836364105510676,-0.8764590999557372,0.05465961051160336,0.5664549745439217,-0.8220741571532117,0.05764409731517801,1
175,35.03336670003337,0.7445059515960348,-0.6669749975150868,-0.029244499103809322,0.5606434172165755,-0.826583991033949,0.04937473542318457,1
176,35.23336670003337,0.7220694911654688,-0.6914398560401636,-0.02294723092660285,0.5488653856028712,-0.8346152112783858,0.04652136702362908,1
177,35.43336670003337,0.68589976820795,-0.7276938526566623,0.0017789822889643352,0.5170881577597376,-0.853840653112228,0.05979946653210928,1
178,35.63336670003337,0.5651115957322095,-0.8248853887905432,-0.014593825025354107,0.4959841301657514,-0.8669618931470077,0.04875262510552427,1
179,35.83336670003337,0.571445368202522,-0.8192456536113558,-0.04781997698438132,0.5249510930788301,-0.8500144196702693,0.04361004732807059,1
180,36.03336670003337,0.5825961728590752,-0.8115448168816047,-0.04446020200765406,0.5272605170598643,-0.8480367525740897,0.053197870571637676,1
181,36.23336670003337,0.8598917994236057,-0.509383428464049,0.033385866624140385,0.5986936713585258,-0.79868636457375,0.06054732792796342,1
182,36.43336670003337,0.8970762683031114,-0.4408862382306076,0.029554928290025147,0.6940362484418261,-0.7180714321974432,0.051837284947312705,0
183,36.63336670003337,0.8965776962672221,-0.43786400608372705,0.06650974915357144,0.7593540733151113,-0.6483048975690996,0.05551712463436968,0
184,36.83336670003337,0.9089060985540778,-0.409867824347243,0.07679889697165446,0.7895494186243903,-0.6103322806560617,0.06407981537939851,0
185,37.03336670003337,0.26734356681759724,-0.9608178821542085,-0.07318753045393853,0.541575164088949,-0.840204168201311,0.027446263482870815,0
186,37.23336670003337,-0.09133952804907497,-0.993872345381993,-0.062248306809654735,-0.003354777479010196,-0.9998146470154997,-0.018958298482141745,0
187,37.43336670003337,-0.7735672740321051,-0.6237489529040022,-0.11194157537617073,-0.46923360635097017,-0.8805685078869937,-0.06647499972573613,1
188,37.57090423757091,-0.7718787416434041,-0.6260463560306181,-0.11076627780953953,-0.5987195363897705,-0.7978558893521608,-0.07043363238745436,1
