,timeStamp,x_gaze,y_gaze,z_gaze,x_head,y_head,z_head,fixations_head
0,0.041701417848206836,-0.887428079762419,0.08091664106753949,-0.45378838729911625,-0.9955327905789231,0.0610518695909939,-0.07202174742108808,0
1,0.24170141784820684,-0.9249755661113164,0.36568387937681607,-0.10341906236749665,-0.9970865330481474,0.06183071133220466,-0.04466999832303191,0
2,0.4417014178482069,-0.9271393234053215,0.37083879500481354,-0.05377046693958412,-0.9981045009664462,0.059692175490654184,-0.014974956952008218,0
3,0.6417014178482069,-0.9124822024030853,0.38625689960813103,0.1348400452489142,-0.997058990064025,0.06676499639461002,0.03762719214789352,0
4,0.8417014178482068,-0.9016447949864825,0.4087254326577922,0.14135128005251604,-0.993553616095442,0.07999603589336306,0.08032338504457587,0
5,1.041701417848207,-0.9989284100067907,0.03490359101415519,-0.030393601557258662,-0.9884084372758364,0.09915213102539831,0.114967891322147,0
6,1.241701417848207,-0.9987026523257674,-0.0098248812282662,-0.049964827091945135,-0.9780216498643577,0.10437576032346116,0.18049751536655306,0
7,1.441701417848207,-0.9993657468536573,-0.02597191812127073,-0.02436315834891281,-0.9685400677318898,0.09030439450308166,0.23189491915809202,0
8,1.641701417848207,-0.9989557669180085,-0.03856159799370241,-0.024502630500127916,-0.9667345104518055,0.06582700334877122,0.24716632442877196,0
9,1.841701417848207,-0.9507204217971419,-0.060319465846015545,0.30412537154587377,-0.9559156404714462,0.06047133909657986,0.2873473602626827,0
10,2.041701417848207,-0.8142961894459937,-0.1286531705229196,0.5660124358776358,-0.8620302991775268,0.010014998712035707,0.5067577953033396,0
11,2.241701417848207,-0.697200578782391,-0.24203792484532935,0.6747807020670245,-0.7894843945902654,-0.09842904782472926,0.6058268013572519,0
12,2.4417014178482073,-0.6586922284710286,-0.325903740131509,0.6781676048884704,-0.7608381245573608,-0.17640868334792295,0.6245040629647582,0
13,2.641701417848207,-0.659814707109286,-0.3551579200032438,0.662198915841197,-0.7634516437237912,-0.19552771470225175,0.6155570651684183,0
14,2.841701417848207,-0.976626398176448,-0.20214516993128065,0.07306304577795854,-0.8176370892704747,-0.15990223037585494,0.553083056122797,0
15,3.041701417848207,-0.9950841170733284,-0.09333433991484623,-0.03311043553103637,-0.8973481335986135,-0.07273780303873795,0.435287880759599,0
16,3.241701417848207,-0.9996130892781365,0.015545860416250659,-0.02306508113444593,-0.9416152340508045,0.02955891887408861,0.33539084859078044,0
17,3.4417014178482073,-0.9827755175268655,0.12440663987596069,-0.1366574919445516,-0.9488105934915068,0.11125368294903511,0.29560290206385087,0
18,3.641701417848207,-0.9741041154418422,0.14565935272031436,-0.17292924924478614,-0.9561686631658783,0.1603009378388724,0.24504101066465467,0
19,3.841701417848207,-0.9211683762099261,0.35869638806353815,-0.150949408282842,-0.9426306178318368,0.27329349150203996,0.19172424423790063,0
20,4.0417014178482065,-0.8285452718639822,0.5351362855282626,-0.16474795410824808,-0.8702505232196855,0.4635325161225448,0.16673821797346466,0
21,4.241701417848207,-0.5108818721238731,0.8540965220972014,-0.09756456158191604,-0.6061422822779179,0.7748975295431597,0.17923546619691372,0
22,4.441701417848207,-0.1762154745076313,0.9799683796360574,-0.09279052461070932,-0.24619264763347637,0.9503546839141804,0.19030279822850033,0
23,4.641701417848207,0.21423928622117006,0.9760199990735321,-0.03855502104715312,0.10121710680349333,0.973468968450684,0.2052151669684575,0
24,4.841701417848207,0.6817478365220392,0.7312029628830624,-0.023708953341515654,0.5305124310987475,0.8257564429121327,0.1915276936602085,0
25,5.0417014178482065,0.89612626149479,0.4365458681930147,-0.07990887574592971,0.8259914499768329,0.5448767535076539,0.14438645383874849,0
26,5.241701417848207,0.9820919335810852,0.1852239901672316,0.03446023014280487,0.9360544810684747,0.31497243684218884,0.15682593057693642,0
27,5.441701417848207,0.998405124377733,-0.05275944088437181,0.020091018238307227,0.980433280331924,0.11428818298441158,0.16027724120318806,0
28,5.641701417848207,0.8961155474088228,-0.4414070716798438,0.04622469862758743,0.9663564247417605,-0.19820815123135663,0.16391701908517647,0
29,5.841701417848207,0.8180839180088741,-0.5745783214766682,0.02446335186159909,0.8740528071694003,-0.4582563914289217,0.1613467384046988,0
30,6.0417014178482065,0.6540817681986631,-0.7554926993345351,-0.03752095097846231,0.7916165973806741,-0.5906079938824125,0.1566057480223367,0
31,6.241701417848207,0.589386211817963,-0.8054644562560219,-0.06205564460274575,0.714155252206135,-0.6848832530514075,0.14462781695135166,0
32,6.441701417848207,0.7977164681548213,-0.5611842391143606,-0.22072762900061849,0.8755294443077573,-0.4828590237775867,0.01718590430282799,0
33,6.641701417848207,0.8422863856626093,0.2572735381775592,-0.4736707412127312,0.9717586368602736,0.014244173854997185,-0.23554671553356868,0
34,6.841701417848207,0.8405611692975845,0.24100433595166645,-0.4851534094712451,0.9462694431493119,0.18031366087655154,-0.2684420322214599,0
35,7.0417014178482065,0.9192278613166299,0.2652140588442917,-0.291001103040163,0.951359256940325,0.2033501464463845,-0.23143958644576595,0
36,7.241701417848207,0.9215034925363604,0.2633325094810846,-0.28545980924411185,0.9559765824275984,0.20697957963360525,-0.2080101619266364,0
37,7.441701417848207,0.9113626292730638,0.2952662223416608,-0.286768226811433,0.9485594523971275,0.24618112241096893,-0.19907239948455205,0
38,7.641701417848207,0.8551482361144798,0.4795954637286922,-0.19674777112118574,0.9398852495337306,0.3112570823975624,-0.1404804127495153,0
39,7.841701417848207,0.7379247573990504,0.6718975270537462,0.06340950683149219,0.8778886583663964,0.4788132648242467,-0.007025734124966233,0
40,8.041701417848207,0.5177201491394496,0.8539249838052837,0.05270644370636591,0.6709015248127451,0.7337721990048494,0.10709577009163983,0
41,8.241701417848208,0.3415601125945169,0.9394345469490478,0.028274042566609116,0.5610009388856034,0.813816367386728,0.15159441527622905,0
42,8.441701417848208,0.20238545161857302,0.9776818791946044,0.056376165776446226,0.4471058258415001,0.8716909002407244,0.20062740325315995,0
43,8.641701417848207,0.12200164560491705,0.989187787846479,0.08138254631726481,0.3708954150410406,0.8954209552856836,0.246288253753216,0
44,8.841701417848208,-0.017737822338555975,0.9961373130702718,0.08599897189981862,0.24449806893682008,0.9349232896905327,0.25717530340294736,0
45,9.041701417848207,-0.24729297865102134,0.9635455772995714,0.10210829141818743,0.06728930541463346,0.9485689974811401,0.30933639681492636,0
46,9.241701417848208,-0.337924446934244,0.8993513083655791,0.27744241259278807,-0.09116648032522046,0.9284126491978155,0.3601924842006078,0
47,9.441701417848208,-0.12749564756618564,0.8774741844187814,0.46236772760463446,-0.14709506356499674,0.8910144254599514,0.42948380167019384,0
48,9.641701417848209,0.14663600657236664,0.8274595725389959,0.5420410845960766,0.01631186557422487,0.8669151857187872,0.498188703014881,0
49,9.841701417848208,0.19706667449607512,0.8040892305933902,0.5608968131900803,0.11303804683147334,0.8237255838987463,0.5556064816029377,0
50,10.041701417848207,0.17749059354623342,0.8425992638765561,0.5084521311955452,0.17161079106117394,0.802560941462333,0.5713542435568779,0
51,10.241701417848208,0.17356322191605528,0.8513218495187898,0.49510293528722416,0.18131254087152704,0.806457553943541,0.5628072282852375,0
52,10.441701417848208,0.13723802800838059,0.8588027159511867,0.4935824335845391,0.14558704369662018,0.8150659076701087,0.5607780121060209,0
53,10.641701417848209,-0.3599239574079947,0.8653310983482104,0.34879339889861394,0.048428464106175295,0.8347454140371783,0.5485023041047477,0
54,10.841701417848208,-0.39475145045927945,0.8984465275022011,0.19226317790864453,-0.17899498660787638,0.8953501724521885,0.40780983737409093,0
55,11.041701417848207,-0.6047442266101607,0.7964122886807524,0.003447726782204451,-0.4919369472619099,0.8391808936446888,0.231891068522128,0
56,11.241701417848208,-0.8646818928419129,0.4773385396942707,-0.15643894244678314,-0.7479005779791381,0.6426261853618577,0.1663619888848978,0
57,11.441701417848208,-0.9928970381195068,0.06812058613535453,-0.09754515589247237,-0.8820528986051882,0.449652475206229,0.1406958976057846,0
58,11.641701417848209,-0.9997149662686525,-0.019426164984033684,-0.013878412462537952,-0.9464302659218209,0.2867460556189942,0.14848047458874794,0
59,11.841701417848208,-0.9984324242988879,-0.017174337452813843,-0.053270406809992864,-0.9755449592700636,0.17195104607137898,0.1369119067054754,0
60,12.041701417848207,-0.9964161060140877,-0.041637328640470726,0.0736293184771373,-0.9823166225261054,0.10134319853938802,0.15742810809608146,0
61,12.241701417848208,-0.9922687064479956,-0.10601663977875701,0.06452353287013336,-0.9875112371240602,0.005610857951583628,0.15744864187015328,0
62,12.441701417848208,-0.8857674828669224,-0.46342696847534015,0.025522758184656963,-0.9601721983484865,-0.21660311691678236,0.176500536148106,0
63,12.641701417848209,-0.9900736111567932,-0.12026831208792076,-0.07273085726477933,-0.9568267443824585,-0.22690732455949916,0.18164704042652532,0
64,12.841701417848208,-0.9122838322836877,0.39627266325604504,-0.10347069976447354,-0.95328672755814,0.2705036942381657,0.13443275815439515,0
65,13.041701417848207,-0.8299474746003259,0.5500575078035929,-0.09286510385199619,-0.884076259636515,0.4412572933006089,0.1539518374561668,1
66,13.241701417848208,-0.794186704542554,0.6015073358595986,-0.08635046748527947,-0.8479068178014508,0.5051188300125539,0.1609627158461436,1
67,13.441701417848208,-0.7892349829021055,0.6087033400810983,-0.0811688704961972,-0.8382650894919859,0.5186455408951157,0.16828084456825765,1
68,13.641701417848209,-0.7893659855644072,0.6086417624232761,-0.08035263448214178,-0.8307956229316625,0.5291777866483165,0.17248044247270475,1
69,13.841701417848208,-0.7929922670070779,0.6043122953670431,-0.07726521944051612,-0.827648168386488,0.5321287357227978,0.17843070919701184,1
70,14.041701417848207,-0.8910982583239879,0.44266537492535885,-0.09995628971779207,-0.8382741001354553,0.5149772141452927,0.1791507799403785,1
71,14.241701417848208,-0.848432950206819,0.5192945075158509,-0.10244385519504418,-0.8414337553971312,0.5109333325826505,0.1758873643394195,1
72,14.441701417848208,-0.7946167926727038,0.5999283485214384,-0.0931135298594422,-0.8290341174295386,0.5303061511858127,0.17741989221143215,1
73,14.641701417848209,-0.7818862606700893,0.6169978980680721,-0.08926068090108885,-0.8177885001078501,0.5465650173972858,0.1802460841429235,1
74,14.841701417848208,-0.74661509185269,0.6611093736371607,-0.07416401220862238,-0.7805019871372381,0.5940757899473542,0.19465508951283592,1
75,15.041701417848207,-0.6905477585472175,0.7200353832465138,-0.06850430671468813,-0.7299550718757234,0.653587692427571,0.19997180138737253,1
76,15.241701417848208,-0.7403120585270294,0.6673077640222764,-0.08147640195211363,-0.7269791438201156,0.6560094151236143,0.2028619523709299,1
77,15.441701417848208,-0.7411493321059516,0.6656181318390325,-0.08746525073432594,-0.7297722290876051,0.6540112112793361,0.1992531785780197,1
78,15.641701417848209,-0.7528594891431312,0.6517377436183368,-0.0918722109803784,-0.7361293420742443,0.6469537592164145,0.19890808222163753,1
79,15.841701417848208,-0.8069597646775662,0.5793068028996339,-0.1149763728151648,-0.7452201902009638,0.6371741781184893,0.1966111259717196,1
80,16.041701417848206,-0.8087650832481484,0.5760141461336789,-0.11877181303871895,-0.7519731353721347,0.6304595464834011,0.19250237382054708,1
81,16.241701417848205,-0.8087551610683992,0.5763293623177116,-0.11730113203071632,-0.7570435726451984,0.6250060274206666,0.1904008792112876,1
82,16.441701417848208,-0.8096168127533271,0.5736615383437145,-0.12422985121244995,-0.7663524539609309,0.6166415641694166,0.18015853475967977,1
83,16.641701417848207,-0.810493974503169,0.5728028587368843,-0.12245979877865885,-0.7711882445606415,0.6108158528553439,0.1793674590110341,1
84,16.841701417848206,-0.8660534681275311,0.487965663709605,-0.10881590593621922,-0.7770884449785165,0.6033517939296513,0.1791651792138831,1
85,17.041701417848206,-0.8703568588082851,0.4807067167477064,-0.1067707394327461,-0.7838831116656162,0.594716180522501,0.1784374732789031,1
86,17.241701417848205,-0.8761177885711886,0.4717123011188123,-0.09952449709656923,-0.7908146596066954,0.5861772446947942,0.17609205533801348,1
87,17.441701417848208,-0.8898758044042019,0.4469644581490086,-0.09134454492490582,-0.8039133603792263,0.5680131663400542,0.17630754909568241,1
88,17.641701417848207,-0.8956262184247699,0.43660803365019724,-0.08501236276127727,-0.808025787117882,0.5612255214164145,0.17922120818530765,1
89,17.841701417848206,-0.8887748622630389,0.4514349100243053,-0.07928282424752198,-0.8023017631443605,0.5674363764839845,0.18527773611035014,1
90,18.041701417848206,-0.762268050768565,0.6446030458640308,-0.058603174319371835,-0.7900925748153889,0.5816321703757744,0.19354002584880353,1
91,18.241701417848205,-0.7456380590959985,0.6637903568545919,-0.05836306172919962,-0.7698042287987765,0.605959289871697,0.20053625193891975,1
92,18.441701417848208,-0.7825414450027942,0.6225325644737857,0.009060519997815495,-0.7490287820876195,0.6290033918339706,0.2081120291230133,1
93,18.641701417848207,-0.7751316195997824,0.6300084367955011,0.047543052732312054,-0.7377412761039812,0.6396761924681869,0.21575953819442747,1
94,18.841701417848206,-0.500971158961368,0.8642749662333702,0.04535064091289611,-0.6680923230235435,0.7088822605283184,0.22613842801537923,0
95,19.041701417848206,-0.3629996208398048,0.9309517877832704,0.039497393499967004,-0.5194097789681535,0.8194011591304347,0.24247726064098096,0
96,19.24170141784821,-0.2638671897914247,0.9639167353523357,0.03519422479998139,-0.3899903299095532,0.8850120975050763,0.25428552818967853,0
97,19.441701417848208,-0.22154900494612462,0.97470468943804,0.02944158275087323,-0.3190008258744593,0.9128420122594445,0.2548684636151386,0
98,19.641701417848207,-0.21804220409341846,0.9759372592473629,0.002015749694235206,-0.31580578037671464,0.9229353941687652,0.22012943299613594,0
99,19.841701417848206,-0.6280216473754046,0.7759082046948796,-0.059626070766501366,-0.4022280792565504,0.9009362456635659,0.1628694369954827,0
100,20.041701417848206,-0.727703600426024,0.6810508188444838,-0.08134649395185865,-0.5426002434564751,0.8282465737957906,0.13997352891353604,0
101,20.24170141784821,-0.7482639400934155,0.6585006999338637,-0.0804854281375773,-0.5907567307508483,0.7944755470726959,0.14076608318806896,0
102,20.441701417848208,-0.7587494866972244,0.6473828848734252,-0.07207369013488897,-0.6124775510555158,0.7766242048880062,0.14739774026459884,0
103,20.641701417848207,-0.7590013171063106,0.6474345716953535,-0.06888741542938415,-0.6193681611308626,0.7706073393664431,0.15015794848074465,0
104,20.841701417848206,-0.82066840735472,0.566149852542636,-0.077315649359096,-0.7076394606339336,0.6923217463644908,0.14119841806669672,0
105,21.041701417848206,-0.9833060721953706,0.0852312909154528,-0.16076316565867285,-0.9276926860371246,0.3696003084078164,0.052743646992524776,0
106,21.24170141784821,-0.9800120112728656,-0.18485967259878114,-0.07350754524254147,-0.9986039241908347,-0.034018951146761046,0.04040932508147826,0
107,21.441701417848208,-0.7955756520929268,-0.6026264882237078,-0.06245556410821859,-0.9426447272036405,-0.33108849582941463,0.042442033464363316,0
108,21.641701417848207,-0.7343325567732236,-0.6764248479138265,-0.05661378973057288,-0.8478850147823898,-0.5225428378827569,0.0896659594545316,0
109,21.841701417848206,-0.5886598335431674,-0.7982755502920929,-0.12741956748783526,-0.7551033950250999,-0.644221995682035,0.121642439555543,0
110,22.041701417848206,-0.5564422529779667,-0.8092458469557292,-0.18839633299432648,-0.7022687081868345,-0.702984794473065,0.11238790077787447,1
111,22.24170141784821,-0.5423511470261975,-0.8119767210930914,-0.2157522600629727,-0.6908217220348625,-0.716961731148162,0.09344102115140816,1
112,22.441701417848208,-0.5236712064420215,-0.8202988033913919,-0.22995290974068733,-0.6700382219558092,-0.737588654171251,0.08373624278734212,1
113,22.641701417848207,-0.4925732623954404,-0.8145565993316838,-0.30638069073999374,-0.6554413631020302,-0.7552230878658471,-0.005891272301260343,1
114,22.841701417848206,-0.5840946083172697,-0.7571690803911684,-0.2924525127850467,-0.6410592943279743,-0.7668933610218115,-0.030291153434454637,1
115,23.041701417848206,-0.5893355370327608,-0.7569818599376753,-0.28224473159937863,-0.6369298616972998,-0.7704154244229722,-0.027936089372538917,1
116,23.24170141784821,-0.5895461690599545,-0.769548529375116,-0.2454187757351267,-0.637908908046607,-0.7699619918005575,-0.01519066217464771,1
