,timeStamp,x_gaze,y_gaze,z_gaze,x_head,y_head,z_head,fixations_head
0,0.041701417848206836,-0.9990596966786243,-0.02878237000490293,0.03242372047307573,-0.9979180787530944,-0.006633867973135068,0.06415216203253366,0
1,0.24170141784820684,-0.9973389198765191,-0.06338200818668556,0.03602499046163901,-0.9959653263848344,-0.05882428148512969,0.06776999739493075,0
2,0.4417014178482069,-0.9980103588058141,0.061961673167483765,0.011665109282656712,-0.9995741615640295,0.013716754424673088,0.025755507791950506,0
3,0.6417014178482069,-0.9405282568824419,-0.10765215898387728,-0.3222074031920829,-0.9772300212570684,-0.15279141057585666,-0.147228633112414,0
4,0.8417014178482068,-0.5394169817593042,-0.7865799550093583,-0.30053501321336656,-0.8122985294455901,-0.5605395164494986,-0.1611413961683785,0
5,1.041701417848207,-0.5118190225068475,-0.8265270109707058,-0.23429551497193837,-0.7035884347985879,-0.6997332282904829,-0.12384152633043673,1
6,1.241701417848207,-0.5105302661475339,-0.83287402814523,-0.21372809966980683,-0.6728570079770426,-0.7304506029342515,-0.11706990855540363,1
7,1.441701417848207,-0.4946006360505488,-0.842994529225717,-0.21149570802714754,-0.6343375678540827,-0.7627858235088156,-0.12559314257930373,1
8,1.641701417848207,-0.4686779202503095,-0.8554028676452636,-0.22051517202701473,-0.6123473280114182,-0.7794550287487423,-0.1322142505011237,1
9,1.841701417848207,-0.630166289876715,-0.721559895290549,-0.28677824989233086,-0.622375590832785,-0.77025028735781,-0.13915142385456644,1
10,2.041701417848207,-0.6598066598398198,-0.6919918456617923,-0.29292056460516186,-0.6505957829938513,-0.7457386473217117,-0.14352350692970756,1
11,2.241701417848207,-0.7291690874541672,-0.6195943192583162,-0.2905431490227931,-0.7196045120389981,-0.6805687159965857,-0.1378244138745892,1
12,2.4417014178482073,-0.702887897388543,-0.6669524846461194,-0.2472306350941988,-0.7349757746900851,-0.6655204985789995,-0.1299733687717189,1
13,2.641701417848207,-0.6986069900350745,-0.6844062180040275,-0.20865378556728156,-0.7893378261123958,-0.6045866786773043,-0.10686788214474588,0
14,2.841701417848207,-0.9930387578071802,0.0876096361077092,0.07873104313958725,-0.9701794647856488,-0.24215346802944296,0.010653826990598612,0
15,3.041701417848207,-0.9960469325689483,0.0297749026298217,0.08368968450994387,-0.994025262034659,-0.09783872054371351,0.048387634776839404,0
16,3.241701417848207,-0.995586439652222,0.04594240909027532,0.08183481061012111,-0.997064065002484,-0.06723429671776988,0.036644230454317896,0
17,3.4417014178482073,-0.99488979532242,0.05607084096120327,0.08396639778635895,-0.9986998213439044,-0.04072902425047613,0.030656376681829474,0
18,3.641701417848207,-0.995288534573915,0.04775367434521895,0.08438198582778156,-0.9990577222996102,-0.03506377455199771,0.02557731861790717,0
19,3.841701417848207,-0.8041743800378421,0.594377032757464,0.0044169470434622556,-0.9841677622320325,0.1750395519272429,0.027838301749637136,0
20,4.0417014178482065,-0.43366530078919663,0.8992835630319096,-0.05677570036599121,-0.7968203939733925,0.6041002915316489,0.011836279798327336,0
21,4.241701417848207,-0.14622649981675845,0.9887037204180851,-0.03290537923770021,-0.571819043649614,0.8203774129214196,0.0019701999897805966,0
22,4.441701417848207,-0.10254253694754989,0.9946900320542946,0.008761749151111792,-0.36421291321480376,0.9312776485811646,0.008419922845444032,0
23,4.641701417848207,0.19875643278335198,0.9797848013283968,0.022751340907974864,-0.15982744557440792,0.987121946999609,0.006741616487228566,0
24,4.841701417848207,0.13095129998036986,0.9911010031566466,0.02388636798134727,-0.05139084196253091,0.9986450473373744,-0.00818845473306311,0
25,5.0417014178482065,0.4319475548652821,0.9014727793494132,-0.027715301512862025,-0.028949625628245712,0.9995788764293463,-0.001997241154857019,0
26,5.241701417848207,-0.03955055075341812,0.9991548097394706,-0.011199111999789334,-0.09881903063364378,0.9950915618155933,0.005251931837930734,0
27,5.441701417848207,-0.44618218198472265,0.8944341170054998,0.030150801248792904,-0.5781084535418441,0.8136934660921655,0.06077465904779539,0
28,5.641701417848207,-0.978770746148254,0.20311081259907895,-0.027455860753796166,-0.9528945281273155,0.2934291779993285,0.0767550373829578,0
29,5.841701417848207,-0.9987812924558379,-0.024263872693040547,-0.04297899861772396,-0.9981101240554184,0.021024693648699723,0.057742034213000656,0
30,6.0417014178482065,-0.997787085929837,-0.025669551100915396,0.06133518808907245,-0.996508574356225,-0.011197890938548989,0.08273613764887078,0
31,6.241701417848207,-0.7146494432294117,-0.6988867041954703,-0.028871231194486046,-0.9132908538275843,-0.39217125709875267,0.11000691533020175,0
32,6.441701417848207,-0.35520037042129055,-0.9343210898205818,-0.02961077454337392,-0.5071420152218644,-0.855392301196835,0.10540866876063566,0
33,6.641701417848207,0.0872539825574567,-0.9959695652316366,-0.020769392388029564,-0.1020907943678046,-0.9870686955629362,0.12358341290413853,0
34,6.841701417848207,0.5198752118604338,-0.8542392585464416,0.0022479437481840512,0.2221431107994103,-0.9683395204484736,0.11389034841452392,0
35,7.0417014178482065,0.7997368008518078,-0.5985129537755577,0.04693925357494972,0.4993566033172591,-0.8608028337063026,0.09829274747736477,0
36,7.241701417848207,0.9061406834779411,-0.4139795304537845,0.08677563086140107,0.6987387706307007,-0.7096710335841419,0.09017291449827228,0
37,7.441701417848207,0.8416379783692637,-0.4581131122739624,0.28596833693463913,0.7953680248823082,-0.5946911218031542,0.11718436176948739,0
38,7.641701417848207,0.7870956164832865,-0.6140719626381032,0.058276197667514844,0.8025574240216921,-0.5849040874292574,0.11742567715884726,0
39,7.841701417848207,0.7409491618905915,-0.6641604609384693,-0.09942445181961272,0.7367358590028911,-0.6662999943756021,0.11517200855392291,0
40,8.041701417848207,0.4669154126591898,-0.8699007333937154,-0.15894247847059206,0.4844158258415567,-0.8718760473850642,0.07192680773147236,0
41,8.241701417848208,-0.6564497669843989,-0.7537635004470065,-0.03023720919668672,-0.2453885553345514,-0.9691582444626066,0.022732226045428162,0
42,8.441701417848208,-0.6562834055861059,-0.7493283265090935,-0.08831279999741865,-0.6161452116306099,-0.7874718340851842,0.015911904574489506,0
43,8.641701417848207,-0.8718688181962604,-0.47015468734954297,-0.13711066267912891,-0.7926496780643898,-0.6096772335738231,-0.00039840455526169176,0
44,8.841701417848208,-0.989141975419103,0.1465114776489539,0.011512574912470784,-0.9571802043693641,-0.28925784586428904,0.011659972957665283,0
45,9.041701417848207,-0.9945667126333494,0.08914491847180546,0.053760930352322746,-0.9906546485196213,-0.13212292511783244,0.03386591243084001,0
46,9.241701417848208,-0.996183709584705,0.04759287034204022,0.07316375776750589,-0.9898923918007199,-0.13954139497423707,0.025322948953357623,0
47,9.441701417848208,-0.9769251818349348,-0.03349030593968322,-0.21093977459181606,-0.9775869104404267,-0.21001937254149755,-0.014686582067225762,0
48,9.641701417848209,-0.5762460340443661,-0.7797590605289231,-0.24477809495784333,-0.8703643745915668,-0.4817061572783289,-0.10210305324512384,0
49,9.841701417848208,-0.5556643783513786,-0.7893559058516849,-0.2610638859138553,-0.748422070495024,-0.6547029028437122,-0.10596467998327518,1
50,10.041701417848207,-0.5190337579491604,-0.8185270463791766,-0.24620607720962942,-0.7024128425485171,-0.7043558245837513,-0.1024649744930235,1
51,10.241701417848208,-0.5240548349686712,-0.8209381726910435,-0.2267753217716801,-0.6838197716601608,-0.7232118965349904,-0.09672162424663983,1
52,10.441701417848208,-0.6292503540849596,-0.747192028462565,-0.21388797181223307,-0.6772478480285924,-0.7301684587082676,-0.09049516146310838,1
53,10.641701417848209,-0.4962694388018775,-0.8296345855520069,-0.255779394336642,-0.6788677372715675,-0.7287272222696214,-0.08997350062648497,1
54,10.841701417848208,-0.6043714896637805,-0.7381565316057107,-0.299766638119405,-0.6852519598634913,-0.7224727441096525,-0.09199394285447683,1
55,11.041701417848207,-0.6271288060320207,-0.7200497790011695,-0.29704844117621515,-0.6933865787381109,-0.7149029197450998,-0.09016023383836683,1
56,11.241701417848208,-0.5139925314419488,-0.8202935050326778,-0.2508590106476173,-0.6929715925689012,-0.7154843164383057,-0.08872747501947598,1
57,11.441701417848208,-0.5084708766906156,-0.8240843428535907,-0.24968452779666248,-0.6912163552828092,-0.7171315638524006,-0.08911941604476575,1
58,11.641701417848209,-0.5252968460539531,-0.8094933471669563,-0.26226655222922995,-0.6924499456061257,-0.7156184523552107,-0.09166953408197663,1
59,11.841701417848208,-0.5407976496085379,-0.7957648528923535,-0.2725732948751444,-0.6982027392019509,-0.709359533665641,-0.09655043743327571,1
60,12.041701417848207,-0.5425717831762848,-0.793884060473013,-0.27452496904250484,-0.6991829201027755,-0.708126021933562,-0.09849254437318908,1
61,12.241701417848208,-0.6724086653468005,-0.6706174025304014,-0.31327126614152134,-0.70938020651122,-0.6975729591543155,-0.10085479297877278,1
62,12.441701417848208,-0.7288566889023016,-0.611962553377824,-0.30703380971102806,-0.7589691886942258,-0.6453324614537488,-0.08667055328584367,1
63,12.641701417848209,-0.995341771626678,0.037477932816980954,-0.08882658502290786,-0.9271620920574991,-0.3725379984013559,-0.039823294673758336,0
64,12.841701417848208,-0.9902033151023385,0.025530890662817475,-0.1372791622290224,-0.9828069099761877,-0.18226752109335284,-0.029480984677282784,1
65,13.041701417848207,-0.9880081156970557,0.048534297020889794,-0.1465755277303878,-0.9876010882502799,-0.15105218226893197,-0.04274726562783237,1
66,13.241701417848208,-0.996535737738181,0.03330582958872102,0.07620528279605393,-0.9901461477064241,-0.1369395122740442,-0.02929464388374435,1
67,13.441701417848208,-0.9963548579918488,0.03597527889811474,0.0773484082851483,-0.9921606860222735,-0.12383176483454926,-0.016818654220026746,1
68,13.641701417848209,-0.9980143533633824,0.0008939996030643144,0.06298056244096098,-0.9926713182625138,-0.12040304717412856,-0.010332479380483345,1
69,13.841701417848208,-0.9916966115495902,0.04773769560376932,0.1194108163421692,-0.9919309284961123,-0.1262974602337018,-0.01104466528950711,1
70,14.041701417848207,-0.9972385296179139,0.015435972530685658,0.07264327771744074,-0.9907820790922347,-0.13503188958991144,-0.010828690754040521,1
71,14.241701417848208,-0.9987971657839506,-0.010014437034546986,-0.0479992986701827,-0.9895259762278483,-0.14363024772271776,-0.014446255896767441,1
72,14.441701417848208,-0.9967861792580001,-0.009999325006847809,-0.07948161007204864,-0.9883659497728988,-0.15068108306108022,-0.020687207086897128,1
73,14.641701417848209,-0.9984946099832839,-0.009029472245699924,-0.05410159392563269,-0.9875207895450108,-0.15617159799487437,-0.02032540764969149,1
74,14.841701417848208,-0.9999023915216141,-0.011422792868545773,-0.008045323637936763,-0.9870573809310528,-0.15899893687649302,-0.02090609532351692,1
75,15.041701417848207,-0.9998305694818239,-0.012595734429309708,0.013423107085858652,-0.9867158963604623,-0.16079474626924434,-0.023168716878140514,1
76,15.241701417848208,-0.9996873674519118,-0.013706656009937776,0.0209115981716284,-0.9860703030284242,-0.16425010024346207,-0.026215683386939,1
77,15.441701417848208,-0.9999783852526422,-0.006574443166299672,7.566089833133763e-05,-0.9857953233886132,-0.16515287859270378,-0.030530428717644983,1
78,15.641701417848209,-0.9999226298526982,-0.0010443783293285376,-0.012395304851802059,-0.9853853546935872,-0.16707887183902093,-0.03317157428271892,1
79,15.841701417848208,-0.9997528800513463,-0.0023628266849671097,-0.022104205009341,-0.9846656388813755,-0.17129143137476774,-0.033057905921522544,1
80,16.041701417848206,-0.9995771073729114,-0.0065451813924378354,-0.028333143428557046,-0.9844465347609825,-0.17239858477739364,-0.03381934599967511,1
81,16.241701417848205,-0.9439696379991889,0.002474786925838595,-0.3300230264168736,-0.9846750970667497,-0.1703635334935079,-0.03729905725609647,1
82,16.441701417848208,-0.9599487001384617,0.023450359352510466,-0.27919271793640393,-0.9851614406439356,-0.1680453094891881,-0.034895699262927994,1
83,16.641701417848207,-0.9979421754923526,-0.01861913641464341,0.061357494511782254,-0.9854622238002767,-0.16842806008185368,-0.02227541334469655,1
84,16.841701417848206,-0.9981871415731475,-0.022083475501772604,0.05598884270809916,-0.9852120240398505,-0.17080152216754607,-0.013568629722646098,1
85,17.041701417848206,-0.9999676348187445,-0.004679842222213127,0.006544340438992988,-0.9847652330567672,-0.17317834888331624,-0.015706534967957528,1
86,17.241701417848205,-0.999848080392429,0.0016943588710416208,-0.01734777460053172,-0.9845057095274343,-0.1749268359818043,-0.012211058974482523,1
87,17.441701417848208,-0.9992066109099157,-0.012511484323583358,-0.037810203304677985,-0.9832893833449843,-0.18158470820824815,-0.012999320980959147,1
88,17.641701417848207,-0.9985439439580243,-0.018354535034011014,-0.050725762965574746,-0.9828519355848204,-0.18399546214757564,-0.012154942462729183,1
89,17.841701417848206,-0.998068487382523,-0.022289576838130504,-0.057986802449694896,-0.9824059197813405,-0.18651075905123882,-0.009609658511606108,1
90,18.041701417848206,-0.9980525813796515,-0.020953363150486872,-0.058753734979982396,-0.9822408607347755,-0.18750193640369367,-0.00677608647178217,1
91,18.241701417848205,-0.9981406586276532,-0.018647044773733783,-0.05803027929935633,-0.9819344913190302,-0.18913841232283993,-0.005596047000593765,1
92,18.441701417848208,-0.9983714301764706,-0.014584619478724739,-0.05515230078654586,-0.9819419452894372,-0.18915948046106817,-0.002950768187280745,1
93,18.641701417848207,-0.9985254410659392,-0.009533812259053488,-0.053442024361741954,-0.9823797438648483,-0.1868921293093455,-0.0011708314371031482,1
94,18.841701417848206,-0.9985406316295058,-0.006031980325625396,-0.05366770163048929,-0.9825954327431918,-0.18575794714474259,-0.0004479115885679916,1
95,19.041701417848206,-0.9984667655373299,-0.004317603466370171,-0.05518583529973864,-0.9830862583861342,-0.18314313676011362,5.4788398613349495e-06,1
96,19.24170141784821,-0.9984219632368379,-0.0065337806608160845,-0.05577538020107823,-0.9834878217691294,-0.18096124218762308,0.0021756051400640213,1
97,19.441701417848208,-0.9987705217553934,-0.0024188857995615276,-0.04951357252257773,-0.9838643100766654,-0.17879526383418373,0.006578220719316663,1
98,19.641701417848207,-0.9992929156740855,-0.007372990803609053,-0.03686879019164195,-0.9828094449592883,-0.18431751283524617,0.010613640329536914,1
99,19.841701417848206,-0.9993996088593171,-0.01119666100835223,-0.0327880556622157,-0.9821351050305628,-0.1880579568815564,0.006696291521463556,1
100,20.041701417848206,-0.9995410831949791,-0.009006197899626391,-0.02892250688998127,-0.9825473972597278,-0.1859726454632034,0.003845422935417885,1
101,20.24170141784821,-0.9993258324782563,-0.01542126615140283,-0.03331763935106797,-0.9817048230518498,-0.1904062802081809,-0.0010434816817816454,1
102,20.441701417848208,-0.9989899258189694,-0.023198892166968847,-0.038482976943524504,-0.9807514314592977,-0.19516651228777387,-0.006054929559037896,1
103,20.641701417848207,-0.9983968197230224,-0.03202311398148959,-0.046672374461592975,-0.978812008528905,-0.20439910072959064,-0.012167973559527475,1
104,20.841701417848206,-0.786733609330534,-0.5880947608133312,-0.18760271920647006,-0.9483343556698962,-0.3163819538831907,-0.023757295999709927,0
105,21.041701417848206,-0.5475376690643319,-0.8025318307478054,-0.23694970266319063,-0.8357871047448544,-0.5456900878409092,-0.0606814928490958,0
106,21.24170141784821,-0.5275748605224797,-0.8152500262485649,-0.23881407254682638,-0.7586174817872066,-0.6458042021431148,-0.08623484690733947,1
107,21.441701417848208,-0.4851646021459637,-0.8434664144113511,-0.2306072778222929,-0.7100605915019969,-0.6980042601448277,-0.09275779867755646,1
108,21.641701417848207,-0.4624385695149934,-0.8521491039158822,-0.24493361165892608,-0.6941776773614345,-0.7113664354089125,-0.10988697296177358,1
109,21.841701417848206,-0.47348977009098786,-0.8404801014990221,-0.2634400057003054,-0.6908775181938732,-0.7121227758663669,-0.12477742963635396,1
110,22.041701417848206,-0.6251318248063641,-0.7140425053113888,-0.31520390578624025,-0.7020330429926489,-0.6949965045617912,-0.155336618971104,1
111,22.24170141784821,-0.5599782607961353,-0.7786344022863327,-0.28311272492055395,-0.7426099433079997,-0.6437233748014727,-0.1847990498738893,1
112,22.441701417848208,-0.6726946279859604,-0.6634665185175341,-0.32755780602063644,-0.7647748270656847,-0.6159655988962013,-0.1889599027918256,1
113,22.641701417848207,-0.6806431906380908,-0.6514860100027162,-0.33509823307314013,-0.7837641340245045,-0.5902100639197909,-0.1933025159293473,1
114,22.841701417848206,-0.7550951830355722,-0.5700629418220037,-0.32382017682306113,-0.8562152441683989,-0.48476809436824625,-0.17859269396094668,0
115,23.041701417848206,-0.9864193774397221,0.024524642625598485,-0.16240490668547478,-0.9407827558909156,-0.30282641628806944,-0.1523941200191746,0
116,23.24170141784821,-0.9867065411105445,0.044403527860974824,-0.15632827141360275,-0.9824644483324957,-0.13135874011476353,-0.13231964766498985,1
