,timeStamp,x_gaze,y_gaze,z_gaze,x_head,y_head,z_head,fixations_head
0,0.033366700033366704,-0.9968612767350032,0.02751173177814295,0.07423408624632498,-0.9988748277191015,-0.043626628756346084,-0.01859558583350401,0
1,0.2333667000333667,-0.9964596129380149,-0.006860290389539179,0.08379245908310115,-0.9982195795840436,-0.05302713819273692,-0.027309220972848467,0
2,0.43336670003336675,-0.9970270433638087,-0.03178147049852844,0.07019268433514761,-0.9959547039223353,-0.08213337095822107,-0.036446359351975946,0
3,0.6333667000333668,-0.9471833528242393,0.28568182753322674,0.1457037732864483,-0.9887002158764013,0.1491238732110191,0.015295540673713522,0
4,0.8333667000333668,-0.61006089273417,0.7922946986800787,0.009737432917903934,-0.8400884122848467,0.5405860760701767,0.04492386786302607,0
5,1.0333667000333666,-0.6034193361078963,0.7837421157119252,0.1470829727415816,-0.7250892464193686,0.6865270703681977,0.054094051231644937,0
6,1.2333667000333668,-0.6208622893974147,0.7542608458730751,0.21358977968768458,-0.6896059260601093,0.7215379630808011,0.06185979773639411,0
7,1.4333667000333667,-0.29098531259982235,0.9540144608295146,-0.07199969707821206,-0.6204425639017063,0.7827303808802527,0.048828022140286184,0
8,1.6333667000333667,-0.40096929972228185,0.9154193269979682,-0.03508669888732745,-0.5647387184312731,0.8248678676502944,0.02575229742489166,0
9,1.8333667000333667,-0.37708937425405925,0.9254908718157578,-0.0356405669201663,-0.5192680730178314,0.8544036283992206,0.01884431273872808,0
10,2.033366700033367,-0.36977681116210037,0.9280490513587613,-0.04461018044002531,-0.4903932039235255,0.871487832194695,0.004843953159457024,0
11,2.233366700033367,-0.20607270442437609,0.9783497538612239,-0.019125888499792493,-0.4467463115492172,0.8945269819438552,-0.01546646991357892,0
12,2.433366700033367,-0.10998934206454208,0.9933421247688508,-0.034260294685167635,-0.37949375766829785,0.9250371309439936,-0.01705269086390559,0
13,2.633366700033367,-0.4773124161471092,0.877712377255925,0.04235375076143826,-0.3654337073419323,0.9307043491999027,-0.01573594352801113,0
14,2.833366700033367,0.06891314119265379,0.9974273640718645,0.01973910767015499,-0.28745307053111707,0.957661050032659,0.01600142157991533,0
15,3.033366700033367,0.17590764877516207,0.9843860953383357,0.006365092846108314,-0.16849728828631305,0.9849328873989688,0.038934190117294994,0
16,3.233366700033367,0.25341953453870797,0.9672882253975116,0.011490366465778359,-0.047263594313082524,0.9979698472267946,0.042688835527996516,0
17,3.433366700033367,0.3172494591116062,0.9483336520602589,0.004008124679358172,0.022373540611172915,0.9980053347583464,0.05903199534490612,0
18,3.633366700033367,0.058510593599582716,0.9982204522547381,-0.011508220408498979,-0.25208268410000767,0.9658013340085757,0.06068033951941547,0
19,3.833366700033367,-0.8237461513908049,0.5583972131194007,0.09815717217465084,-0.5129984466020818,0.8540524620224909,0.08617996227182305,0
20,4.033366700033366,-0.791274883507553,0.610743134313523,0.02961220388628311,-0.6097696353231368,0.787701858560075,0.08778823303206632,0
21,4.233366700033367,-0.8172176807666564,0.5761847723324149,0.01289846404074659,-0.6879539577773088,0.7224633152877398,0.06903701935907133,0
22,4.433366700033367,-0.9420763509219421,0.17625975429273233,0.28535004477003967,-0.8447527431000844,0.5297849220200876,0.07563556984020506,0
23,4.633366700033367,-0.9964676701815649,-0.08379008381767303,0.005603939395771697,-0.9641471210539898,0.24226868992666506,0.1082876301546997,0
24,4.833366700033367,-0.8863953875811662,-0.4573317344567313,0.07176978147961975,-0.9949279176067773,-0.0030221189302099822,0.10054504246263612,0
25,5.033366700033366,-0.8288151989595517,-0.5554957698330176,-0.06700608682248421,-0.9659245524048857,-0.24367911669614992,0.08723673049585046,0
26,5.233366700033367,-0.8278752785642334,-0.5567038504683424,-0.06858094499140839,-0.9564009410688867,-0.2865354486949771,0.056521469935912255,0
27,5.433366700033367,-0.8952534881547479,-0.4448558734560485,-0.024988873492279212,-0.9839203808177696,-0.16266312345692127,0.07376579477409567,0
28,5.633366700033367,-0.7726897456503902,0.63186284418365,-0.060826828841261324,-0.9664149730476155,0.2401053525901647,0.0916052374426801,0
29,5.833366700033367,-0.6764740303056487,0.7313379940514753,-0.0867618855189089,-0.8533199278034266,0.5099734956942593,0.10849946775414246,0
30,6.033366700033366,-0.4501453856663769,0.8896376863580242,-0.07690200761235357,-0.7278042301988525,0.6738203491373251,0.12754269713750507,0
31,6.233366700033367,-0.22526621965483307,0.9727052400038643,-0.05567446767994873,-0.5352315579434519,0.8409463803008345,0.0796012866752153,0
32,6.433366700033367,-0.06291870406731137,0.9873478327079699,-0.145552375196577,-0.3971870689890658,0.9159098402901492,0.057892976150382865,0
33,6.633366700033367,0.0016339411468928033,0.9896400095704896,-0.1435617696103327,-0.30480918988273936,0.9487784961841079,0.08313075809621279,0
34,6.833366700033367,0.06655225587607827,0.99103025943195,-0.11588710941276933,-0.20763518142428689,0.9714335303482217,0.1149109548741738,0
35,7.033366700033366,0.10837304130556091,0.9881475159519276,-0.1087187685554728,-0.1519568695188379,0.9815479090936913,0.11607244272366239,0
36,7.233366700033367,0.0457824371057613,0.994685580697044,-0.09222019304925319,-0.08439220182385276,0.9872906959814697,0.13466639484202342,0
37,7.433366700033367,0.28844578294069423,0.9494950684759639,-0.12352386507697516,-0.01633778832314159,0.9893272889819952,0.14479154653585316,0
38,7.633366700033367,0.32883711431936713,0.934616434396495,-0.13549270387033427,0.0458346469409327,0.9917794011056708,0.11946884398150674,0
39,7.833366700033367,0.3517616903176881,0.9308968915838313,-0.09846161924528726,0.11772006552337144,0.9860698127376474,0.11750876810142451,0
40,8.033366700033367,0.47476980901894056,0.8759401479242331,-0.08557152387676183,0.15667868364729087,0.9804889536209286,0.1187147923297223,0
41,8.233366700033368,0.4600046181194356,0.8833549194932314,-0.08988791640648403,0.1497761855844607,0.9830279685689132,0.10593916765316426,0
42,8.433366700033368,0.20445921588203592,0.9768975325105699,-0.06219035307556417,0.10463758551408453,0.9875548144413882,0.11741577479801585,0
43,8.633366700033367,-0.7607550248148494,0.5838095563254825,0.2835810186913113,-0.3191916115337218,0.9408227785628119,0.11388245898230294,0
44,8.833366700033368,-0.7908306917680913,0.6120110067572239,0.005417062452267635,-0.6438650517824881,0.7555780246672767,0.1205804450689681,1
45,9.033366700033367,-0.7845887512959183,0.6194997666206031,-0.025308703975708925,-0.6794313065180417,0.727209929470739,0.09766687361818295,1
46,9.233366700033368,-0.7831411626216976,0.6213320801864852,-0.02522628666036454,-0.6797449470996414,0.7268945867915322,0.09783182808101672,1
47,9.433366700033368,-0.7827816552233855,0.621962195623381,-0.020393809381280447,-0.6794191664395008,0.7270369870986075,0.0990293676907681,1
48,9.633366700033369,-0.7820474400344766,0.6166841571206636,0.09001362059099077,-0.6804776535166905,0.7268996462610733,0.09255845358445568,1
49,9.833366700033368,-0.7782344696825384,0.6213974336221663,0.09064402730309386,-0.677853821071727,0.7293107447530808,0.09284414276714649,1
50,10.033366700033367,-0.7663661706889173,0.635158901667436,0.09620843027625735,-0.6635364488401259,0.7412829236323296,0.10108911015406762,1
51,10.233366700033368,-0.7655521351782238,0.6373116122350451,0.08811263947034044,-0.6603441980300095,0.7442698683922857,0.10003950785281351,1
52,10.433366700033368,-0.7684562572007195,0.6348515258698787,0.08024039425220025,-0.6638901185964349,0.7413784431479257,0.0980199697284666,1
53,10.633366700033369,-0.7758374835875756,0.6256028739711994,0.0818366857801193,-0.6714823244050813,0.7339841242366772,0.10187636320593384,1
54,10.833366700033368,-0.7775915543163326,0.6201594261658925,0.10369985917782755,-0.6658369012703191,0.7389642066297912,0.10292289457036645,1
55,11.033366700033367,-0.7805073427294671,0.6133276940533247,0.1209852373333948,-0.6643362027174345,0.7400600230568267,0.10473095068846121,1
56,11.233366700033368,-0.673668792444902,0.7087237729783616,0.209477854918231,-0.6622057136691015,0.7414057379029875,0.10863298112692504,1
57,11.433366700033368,-0.5765089004752093,0.8118494940473944,0.09240068553780001,-0.6552696132460748,0.7472792165496245,0.11043326704086626,1
58,11.633366700033369,-0.5827198373230658,0.8007615123918083,0.13863113453392803,-0.6521011685882816,0.7505153752562639,0.10719485729150906,1
59,11.833366700033368,-0.5784560050573143,0.8009825225413467,0.154323195911806,-0.6475101982094997,0.7545027791691924,0.10703316981505988,1
60,12.033366700033367,-0.7768316600172617,0.6286620172210086,-0.03628553566420195,-0.6385696018111702,0.7622577554145198,0.10579214504462037,1
61,12.233366700033368,-0.7783959108966685,0.6267142593392475,-0.0364560425746498,-0.6375738029368682,0.7628277481381047,0.10767298862374067,1
62,12.433366700033368,-0.8053166995536636,0.5809017031424538,0.11839858405483812,-0.6326698948165403,0.7669310513351478,0.10745029870034231,1
63,12.633366700033369,-0.8000344838768313,0.5921826223476118,0.09625261761343372,-0.630220830943755,0.7689722947492871,0.10725350415058137,1
64,12.833366700033368,-0.7997379769931535,0.5927979001871524,0.09492005946374713,-0.6329519636507657,0.7664658134510541,0.10909614347653905,1
65,13.033366700033367,-0.825221586500827,0.5646677442956921,-0.012636127772122148,-0.6323065915627948,0.766686714277436,0.11126480313518058,1
66,13.233366700033368,-0.7851799942352455,0.5668073756610285,0.24944293044501686,-0.6335510169888856,0.765572035971939,0.11185958434630859,1
67,13.433366700033368,-0.7881296757041804,0.5890337841903758,0.17857999707915018,-0.6350178354720275,0.7642412651491405,0.11263941262125965,1
68,13.633366700033369,-0.7866981079231646,0.6032645136499779,0.13106492116797883,-0.634791251997352,0.7643393348713705,0.11324949251994687,1
69,13.833366700033368,-0.8016725693622753,0.5803116983196612,0.14338557921017947,-0.6363745326526946,0.7627204378910626,0.11526052149079635,1
70,14.033366700033367,-0.7949284350415395,0.6013500718391774,0.08041687796368052,-0.6370079660970953,0.7620783356079783,0.11600629950918842,1
71,14.233366700033368,-0.6516044980989282,0.7467338928217659,0.13341690810574078,-0.6382239102330776,0.7609220946791009,0.11690939327517894,1
72,14.433366700033368,-0.633183253879581,0.7701977073078013,0.07664501721751266,-0.6361351355705691,0.7625654127673468,0.11758435501196453,1
73,14.633366700033369,-0.6261874256552378,0.7772456865611628,0.06146910340433597,-0.6358415551290095,0.7625988398315018,0.11894757777597041,1
74,14.833366700033368,-0.6223041129505318,0.7808162884997647,0.055349025450356394,-0.6346250755451357,0.7634515471025346,0.11996978251241948,1
75,15.033366700033367,-0.7623727848800995,0.6453825963560242,0.047634453863973275,-0.6361872595164778,0.7618233420537075,0.12202854719709365,1
76,15.233366700033368,-0.7630405816382151,0.6445030231447919,0.04883568296274994,-0.6366707754317276,0.7610676728504857,0.12420274172943616,1
77,15.433366700033368,-0.7716270722887626,0.6267489008599005,0.10852408295848216,-0.636388653411277,0.7613115210404727,0.12415413702500509,1
78,15.633366700033369,-0.7987671700654966,0.5599509804765627,0.22005887277929467,-0.6381350823024381,0.7597493345697942,0.12475802721915752,1
79,15.833366700033368,-0.7826259347080484,0.6104644370270246,0.12177773789831896,-0.6379757259012634,0.7596242243006139,0.12632502133958573,1
80,16.033366700033366,-0.7858904802833512,0.6020281337450476,0.14120297156738254,-0.6419966889039819,0.7559859896227905,0.12777102539454807,1
81,16.233366700033365,-0.4199359433506612,0.9074970179688421,-0.010147209461202825,-0.6481455107888907,0.7508355272177262,0.1270960578141097,1
82,16.433366700033368,-0.6298454938198969,0.7515401644538053,0.1961683846278937,-0.648263850001781,0.7505609045251391,0.12811053578560033,1
83,16.633366700033367,-0.7872831045858754,0.6135522566839944,0.061146885052339305,-0.6472076506484195,0.7512442185942151,0.1294387151161529,1
84,16.833366700033366,-0.7777736653452565,0.6274707823427627,0.03672251082873758,-0.643839451161348,0.754046520059418,0.1299407815681277,1
85,17.033366700033366,-0.7783300195308281,0.6267406854939075,0.037396441592318176,-0.6421336564114385,0.7559415775742665,0.12734480200701476,1
86,17.233366700033365,-0.7797364480011247,0.6248085915963457,0.040314954123505505,-0.6430521556002019,0.7554585302248616,0.12556406447875892,1
87,17.433366700033368,-0.7825837171954659,0.6210658815144595,0.042894013558941055,-0.6440812295912453,0.754291355864403,0.12729461951107846,1
88,17.633366700033367,-0.7850011526104318,0.6172835783566888,0.05228933248240545,-0.6462645376501045,0.7523253279893821,0.12786222366893746,1
89,17.833366700033366,-0.7878879528189908,0.6100341501579083,0.08420753792754,-0.6433431010496811,0.7548051544273914,0.12797981552425428,1
90,18.033366700033366,-0.7852132807867104,0.6130765000922698,0.08704773811411873,-0.6402558771858492,0.7570743234626461,0.13004184127639765,1
91,18.233366700033365,-0.7838879551763113,0.6138635588815177,0.0932266314248195,-0.6388313059426618,0.757613420953887,0.1338524072930399,1
92,18.433366700033368,-0.7846792315567064,0.6100288692210499,0.11019656201744422,-0.6376460553781529,0.758301385916844,0.13559688852357613,1
93,18.633366700033367,-0.6649140815402614,0.7465854040947467,0.022349464471308155,-0.633271871315839,0.761754565061735,0.13673594848372092,1
94,18.833366700033366,-0.4964786043485104,0.8677496135529704,0.022794815261934432,-0.5636661576928473,0.8137335096072422,0.1418387747199723,1
95,19.033366700033366,-0.21865549411636348,0.975526122615942,0.02320687369369152,-0.38492014578866,0.9089925651002422,0.1599030892713425,0
96,19.23336670003337,0.13982498308654584,0.9899649291412599,-0.02045515033402195,-0.14125061667580063,0.9734293622829084,0.18023190598281028,0
97,19.433366700033368,0.35558264747360524,0.9342189455890255,-0.028212453246596707,0.06920338066490278,0.9822124186459605,0.1745555979113847,1
98,19.633366700033367,0.3764058968075507,0.9259337146742701,-0.03107019275787053,0.14913389194926235,0.9752150057921305,0.16344655013159753,1
99,19.833366700033366,0.28516495048214685,0.9584469472284889,-0.00777176716744174,0.15334713743098105,0.9761881405567767,0.153431970847105,1
100,20.033366700033366,0.32032870646561706,0.9471770032535268,-0.01566027846921894,0.1577475726826476,0.9763267607857127,0.1479924305037599,1
101,20.23336670003337,0.3831272555500989,0.9235145208573788,-0.018287586506018874,0.1969293611987079,0.9695568360785118,0.14552789530291113,1
102,20.433366700033368,0.5522531923002458,0.8334488878347156,0.019477242136991944,0.23393565108044423,0.9625576649267223,0.1369556601400046,1
103,20.633366700033367,0.5721317507196846,0.8193903048054096,-0.035563861001396926,0.27945430123796594,0.9506966947874965,0.13446593635464021,0
104,20.833366700033366,0.5681674734178357,0.8171787345524886,0.09697751257475362,0.3406990899044633,0.9287597200843238,0.14604626830959822,1
105,21.033366700033366,0.5916662307469055,0.8006443242774423,0.09433841951224141,0.39369658340661345,0.9061889995400447,0.15435186207679158,1
106,21.23336670003337,0.6109808421499163,0.7871472892574616,0.08427072766037644,0.4418679868564854,0.8847702014885623,0.14810257509336544,1
107,21.35468802135469,0.6259920435245877,0.7762589804980946,0.07453828975747649,0.47310235791112965,0.8700220881981583,0.13869291613577783,1
