,timeStamp,x_gaze,y_gaze,z_gaze,x_head,y_head,z_head,fixations_head
0,0.033366700033366704,-0.9917873798497192,-0.07057617119566613,0.1066620702508116,-0.9956887448733612,0.0020269781932359433,0.09273518583533832,0
1,0.2333667000333667,-0.9873759321255322,-0.15041907614677807,-0.049627312947473357,-0.9989637132570539,-0.03545152354595011,0.02854275869550814,0
2,0.43336670003336675,-0.9455157592683238,-0.31740977289766037,-0.07246368086359696,-0.9991099899521976,-0.0342870254073099,-0.02456883933844632,0
3,0.6333667000333668,-0.9302701009865393,0.36656748863219346,0.01502715836013463,-0.9961455586940269,0.06271569987983913,-0.061325091787516356,0
4,0.8333667000333668,-0.631671887875747,0.759753403893218,0.15416027808796534,-0.9376297888408586,0.3393443663723393,-0.07547039213892337,0
5,1.0333667000333666,-0.5413509311335036,0.8227086539020518,0.1734636565842044,-0.8071133337827225,0.5858691902653563,-0.07297505277802155,0
6,1.2333667000333668,-0.5881411715301424,0.7696955534310461,0.2483117342769515,-0.6501046872434273,0.7548676339312285,-0.08682598036990234,0
7,1.4333667000333667,-0.16282455540330742,0.6548199220776425,0.7380372848358991,-0.50202168327964,0.8598943972193264,-0.09249786563963697,0
8,1.6333667000333667,-0.37277918807935995,0.9225962675930685,0.09925625400060453,-0.38547068716638566,0.9180648483460307,-0.092570424903712,0
9,1.8333667000333667,-0.3587892010659754,0.932931188597339,0.03016134182684093,-0.30049036630133735,0.9476782302238005,-0.1077567247088247,0
10,2.033366700033367,-0.4539947125406978,0.8907527250260935,0.02117507600171365,-0.22376028235121742,0.967245765626483,-0.11986227479796299,0
11,2.233366700033367,0.06544346871441242,0.992648331057545,0.10181573184580263,-0.11261691652365718,0.9871393938624848,-0.11346033314559724,1
12,2.433366700033367,0.12438658796311391,0.98935778283849,0.07549274317311436,-0.054169598776922234,0.9915484262303457,-0.11788711977341773,1
13,2.633366700033367,0.16249558430269956,0.9831571992185071,0.0836487101331834,-0.04283487368973499,0.9922419773575736,-0.11670917686933062,1
14,2.833366700033367,-0.31633756201278074,0.9477447354853433,0.041357746790985445,-0.11815520160474113,0.9868899170463903,-0.10994380367220344,1
15,3.033366700033367,-0.2902520023892246,0.9521889387296063,0.0953414918596912,-0.16614894983397754,0.982506786908696,-0.0841126634188754,1
16,3.233366700033367,0.22214345353840453,0.9557185532089613,0.19301381583244376,-0.13607792991048906,0.9901774544938181,-0.032115504097226626,1
17,3.433366700033367,0.34550335338438576,0.9102007646019213,0.22839001930518424,0.008737450061535146,0.9998113354777098,0.017347922547123088,0
18,3.633366700033367,0.4521249671881732,0.8649120453845109,0.2179682724477929,0.10236832136812846,0.9940447616200596,0.03735958613248592,0
19,3.833366700033367,0.29575779105720573,0.922782499681739,0.2469813501260454,-0.09423679357570641,0.9924765533855396,0.0781646833072973,0
20,4.033366700033366,-0.7742314121060875,0.6323811635202199,-0.025686271294740187,-0.4261683682411322,0.9010605517318387,0.08043882161870052,0
21,4.233366700033367,-0.8465389359141848,0.5307003394679705,0.041581001309022876,-0.6485163734427682,0.7591353060592099,0.056036599388523796,0
22,4.433366700033367,-0.8292365675095348,0.5547802869785838,0.0677166765646801,-0.7757052251223167,0.6290992792601083,0.05015476599834282,1
23,4.633366700033367,-0.8314576217959366,0.5503895678162453,0.07582576604619716,-0.8196386503968267,0.572411301140173,0.02319019410619197,1
24,4.833366700033367,-0.7358747961172141,0.6643447777429031,0.1308980547035809,-0.8065706264334017,0.5911371961707141,-0.0007999239068272183,1
25,5.033366700033366,-0.7161052619622099,0.6812349978907599,0.15202674580089956,-0.788607472867257,0.6144890416339295,-0.02239355821958089,1
26,5.233366700033367,-0.7486074699287429,0.6240370694969885,-0.22397453395530723,-0.7863617337436347,0.6161813072352536,-0.0442246573481275,1
27,5.433366700033367,-0.7386023126064185,0.6703956297678098,-0.0709670585600966,-0.7864679345254794,0.6161914427225996,-0.0421461015832748,1
28,5.633366700033367,-0.7528508069182098,0.6491460456415018,0.10874315587935572,-0.8367637946598832,0.5456961315769734,-0.04518942274824342,1
29,5.833366700033367,-0.8914682177483753,0.400725519935356,-0.2114319616734281,-0.8802734051715259,0.4717394230181185,-0.05080008777806973,1
30,6.033366700033366,-0.8872366028131184,0.4039741721304637,-0.222746669739737,-0.8848843591933919,0.46197454728205817,-0.05965893494220005,1
31,6.233366700033367,-0.7284321141031839,0.6533717382194074,0.20613594261873924,-0.8776730122555394,0.47628432158739664,-0.053322870968482323,1
32,6.433366700033367,-0.875123259672714,0.33028717966554183,-0.35365189003932374,-0.874722999447684,0.47737137963349097,-0.0835238896607722,1
33,6.633366700033367,-0.873461365427979,0.2600940501186547,-0.4116021479506218,-0.8954833009340294,0.4307122720507423,-0.11223455997678344,1
34,6.833366700033367,-0.8452092593675955,0.5166957470375364,-0.1365533334364383,-0.9065806994219041,0.40248488907350505,-0.12695412361628833,1
35,7.033366700033366,-0.8427203164146778,0.5217305574807761,-0.1327391942598122,-0.9048237695429234,0.40251957679051,-0.1388233999386406,1
36,7.233366700033367,-0.9386362537951822,0.3134722493042619,-0.14386497828684083,-0.9393947935522141,0.3025173359176225,-0.16130927845693632,0
37,7.433366700033367,-0.7637046064590582,0.333487321178317,-0.5527580670478951,-0.950222274190398,0.2132471552221109,-0.22716355434379232,0
38,7.633366700033367,-0.679743410150069,0.3685962403183498,-0.6341022851092186,-0.9310728157583917,0.25377195179122425,-0.26211296846934723,0
39,7.833366700033367,-0.5149051854277387,0.3642036865798243,-0.7760337136370373,-0.8573587468967019,0.37826242815347566,-0.3490752276618239,0
40,8.033366700033367,-0.474309028746837,0.36917544204149266,-0.7992123861919939,-0.7563008857588394,0.48785291427246114,-0.43589964927292885,0
41,8.233366700033368,-0.38073299043286246,0.2848817316495445,-0.8797072177539567,-0.7094098892115295,0.5052417385113257,-0.4913943373248609,0
42,8.433366700033368,-0.5331728651772328,-0.024690201562015148,-0.8456459600716648,-0.785810165911037,0.3590905443492431,-0.5035438055520424,0
43,8.633366700033367,-0.6221701866029534,-0.3802217017367446,-0.6843505800617551,-0.8965333516249789,0.16454712553238382,-0.41128116040381935,0
44,8.833366700033368,-0.3828283333377719,-0.6219337427201959,-0.6831111819168773,-0.9320580782840221,-0.09717346590865981,-0.34903446280961214,0
45,9.033366700033367,-0.34042280167907946,-0.6218107431502828,-0.7053110773267774,-0.9256882275867808,-0.21966953704723746,-0.30797175162780294,0
46,9.233366700033368,-0.3507752171838007,-0.5695791030012753,-0.7433279171630247,-0.9257419432274507,-0.16148399582599027,-0.3419426467136487,0
47,9.433366700033368,-0.417181399387461,-0.5086358702504787,-0.753159499375569,-0.9416764447568384,-0.061999284582067035,-0.33075906956791506,0
48,9.633366700033369,-0.5251534111204305,-0.41068229840233045,-0.7453549118155431,-0.9464553025578158,0.06518964381397618,-0.3161845514878938,0
49,9.833366700033368,-0.632134376151592,-0.3398952577544207,-0.6963313465897495,-0.9384365875204086,0.22810333878091832,-0.259433301717509,0
50,10.033366700033367,-0.9057417764018391,0.42347676759282704,-0.01729918465049257,-0.9060431569157398,0.3792616031138205,-0.18774033719394295,0
51,10.233366700033368,-0.8496549149310526,0.5267150363646386,0.02564753401213407,-0.8770172130035551,0.46567110936490286,-0.11828451292683222,0
52,10.433366700033368,-0.6591849830655533,0.6786621928389629,0.3238715580471324,-0.8315966268670625,0.5481900676630923,-0.08907693247333051,0
53,10.633366700033369,-0.7000129252310949,0.663431814724238,0.2642728357609043,-0.8243490036965607,0.5627085615809239,-0.06170733204422067,0
54,10.833366700033368,-0.7013916772380685,0.673643624774961,0.23292484174347028,-0.8035268974987342,0.5900428288491212,-0.07870187494454055,0
55,11.033366700033367,-0.6323613609218489,0.7433009602265542,0.21822646892471573,-0.726748661748263,0.6835946102392318,-0.06734086054529671,0
56,11.233366700033368,-0.6143749827283415,0.7424321057044745,0.26709164909590544,-0.6298552273984805,0.7754810519462855,-0.043721054322725765,0
57,11.433366700033368,0.048561304474728395,0.9732528174262356,0.22454565923127354,-0.3346936111128621,0.9412821718265553,-0.044362818685423765,0
58,11.633366700033369,0.1321193884680676,0.9869061141715929,0.09252453189047208,-0.06349536736803058,0.9979233125704662,-0.010835153491596753,0
59,11.833366700033368,0.3260514892201581,0.9361037493007602,0.13190980601296037,0.09163412542566296,0.9957344562150822,0.010774031906794821,0
60,12.033366700033367,0.5978402889485355,0.7855919778264985,0.1594748672505542,0.2765040899090205,0.9610063207330832,0.0035128015382523935,0
61,12.233366700033368,0.653089056136856,0.7459103367156256,0.1307381135516837,0.5333850695670009,0.84587150279302,-0.001329784074058504,0
62,12.433366700033368,0.8686561123130843,0.48158967786103113,0.11622366677586146,0.6929267348246738,0.7209772183255863,-0.00666264367319212,0
63,12.633366700033369,0.9806554658443676,0.19067675947832025,0.044240600181437016,0.8242036414038902,0.5641186504256402,-0.049583321172772206,0
64,12.833366700033368,0.999639057622858,-0.011131728412387788,0.024450748402397745,0.9249400198674808,0.374489345874769,-0.06514360654609423,0
65,13.033366700033367,0.9508751159179507,-0.30845449380405343,0.026312338932695786,0.9938363240961819,0.0805030037551701,-0.07621435096741551,0
66,13.233366700033368,0.8903511106420184,-0.4536614588277113,0.038290737167585055,0.9746849848412831,-0.20952440318522533,-0.07803015311290555,0
67,13.433366700033368,0.7705186125719168,-0.6314707649413261,0.08686622303671829,0.9211943161358982,-0.37968157114710904,-0.08510544312896925,0
68,13.633366700033369,0.7003227894631181,-0.6974164837600447,0.1521783123127999,0.8813918675827369,-0.46991702096732585,-0.04823244928685594,0
69,13.833366700033368,0.6518221743771678,-0.7098484296164277,0.2669139561006734,0.8729457859460386,-0.48640623933197236,0.03707593745249644,0
70,14.033366700033367,0.8427565528688944,-0.08720816294163311,0.5311837054286249,0.9222513216852881,-0.3434389741543324,0.1774885085901596,0
71,14.233366700033368,0.7632888150344729,0.032814381651404184,0.6452235280893798,0.9196045652477677,-0.19904343496144766,0.3386873994913484,0
72,14.433366700033368,0.7644309486080553,0.04032925585660387,0.6434429857666036,0.8537541060697996,-0.08708498753870668,0.5133421191703842,0
73,14.633366700033369,0.7175075398713605,0.10027834883410178,0.6892946996625281,0.8059739236448284,-0.03912109023457479,0.5906569010038047,0
74,14.833366700033368,0.7955349870394186,-0.1448550098700777,0.5883375821003888,0.818448298489966,-0.11636911946719061,0.5626727385730625,0
75,15.033366700033367,0.7936209919092201,-0.2024917520970744,0.5737271228848113,0.815672875003987,-0.23651477451551134,0.5279569323520691,0
76,15.233366700033368,0.8594922536562283,-0.1915020272249084,0.4739198660888654,0.8004840103382361,-0.36023606851416806,0.4790149518900956,0
77,15.433366700033368,0.8535781861353268,-0.1413592366479917,0.5014198304497169,0.719199254741984,-0.465698016572335,0.5156333865637178,0
78,15.633366700033369,0.8414103994264087,-0.2046236197017083,0.5001576891314,0.6786434704598112,-0.5193157449702016,0.5193786643945898,0
79,15.833366700033368,0.8356842969505606,-0.24797237700184255,0.490042300290805,0.6322969070997848,-0.5774727106142793,0.5164551188320656,0
80,16.033366700033366,0.8320698917366665,-0.29802813493708363,0.4678022296347632,0.600828982547366,-0.6285443984338192,0.49389925382466937,0
81,16.233366700033365,0.3229442150792172,-0.9334428723754694,0.15617758468583692,0.5269305607696024,-0.7367489487516659,0.4237277081338292,0
82,16.433366700033368,0.020178834512614874,-0.9997628784737771,0.008185442171346079,0.2606221931717838,-0.9252228854933173,0.27575112798635976,0
83,16.633366700033367,-0.27217478226562203,-0.9616038908447619,0.03519723015915448,0.018375044734952772,-0.9824186537866408,0.1857846775787311,0
84,16.833366700033366,-0.41379925339948836,-0.9098397772915346,-0.031012216046533505,-0.1312551188608977,-0.9806164063357116,0.14547699954991736,0
85,17.033366700033366,-0.5773135338865971,-0.8068479258113107,-0.1253216190661243,-0.25683251159469334,-0.9610825196762843,0.1017715645976146,1
86,17.233366700033365,-0.7179794182840636,-0.6959298245321875,-0.013683356571996697,-0.2871969036964822,-0.9568392161874039,0.04445956447187131,1
87,17.433366700033368,-0.7081534661808955,-0.7050781868494279,-0.0371943378097655,-0.2805742089188259,-0.9596329649006149,-0.01956236094214072,1
88,17.633366700033367,-0.48406539059598036,-0.8653517687798484,-0.12979604730787866,-0.2870040378003148,-0.957241398234187,-0.036298592162421414,1
89,17.833366700033366,-0.47111030470002657,-0.8712251519519094,-0.13791959763507392,-0.27532632024474424,-0.9602960009791219,-0.04502230429459545,1
90,18.033366700033366,-0.45916252548303227,-0.8740621890731071,-0.15869803031157123,-0.26224848002484374,-0.9634235882870957,-0.0551427625049388,1
91,18.233366700033365,-0.4563179910322369,-0.863792857845761,-0.21362534913946027,-0.25886666817459336,-0.9601354246129569,-0.10548940473565159,1
92,18.433366700033368,-0.4319535051103759,-0.8750820148986581,-0.218283386046133,-0.22600263252218578,-0.9660293048396832,-0.1253403059035707,1
93,18.633366700033367,-0.43474180711729543,-0.8743391360907911,-0.21570961092264151,-0.21802762470601367,-0.9646601300227771,-0.14796887648925527,1
94,18.833366700033366,-0.42611063630171586,-0.8788647866843654,-0.21453767118338934,-0.19761924422936766,-0.9648997883777396,-0.17295962736663956,1
95,19.033366700033366,-0.4307890631825424,-0.8851502190169649,-0.17586890804382344,-0.16692278999638765,-0.9682257258177135,-0.18621419399332623,1
96,19.23336670003337,-0.46239867925018674,-0.878075562342682,-0.12316967258325319,-0.14682364530812386,-0.969669138235594,-0.1954087498856568,1
97,19.433366700033368,-0.4400972950309331,-0.8902635039303027,-0.11724019991536953,-0.10673475613941036,-0.9749917936163226,-0.19493253759361814,0
98,19.633366700033367,-0.5575780898608967,-0.8276150924814801,-0.06449753796809117,-0.06949877165973722,-0.9743577609854502,-0.2140020428528854,0
99,19.833366700033366,-0.5711169932729214,-0.8193764414324806,-0.04947350018285102,-0.08389445233048376,-0.9619487493637212,-0.26003139130832104,0
100,20.033366700033366,-0.14259698151326244,-0.9891014370243413,0.03666671705634293,-0.04471452769864753,-0.962637610840872,-0.2670757218604212,0
101,20.23336670003337,0.13621159540010414,-0.9906514565352081,0.007489522229679024,0.02083070753468591,-0.9663946267796932,-0.2562176944610611,0
102,20.433366700033368,0.26266664384745103,-0.8617993649146188,-0.43394479930363977,0.1293236713808283,-0.9620392233628549,-0.24032461532680796,0
103,20.633366700033367,0.5377785963755772,-0.8273340047025689,0.162211670181662,0.24565670776773085,-0.9449355251440388,-0.21621663962211504,0
104,20.833366700033366,0.6024063291159321,-0.7819599425722283,0.16014138395026192,0.3672285831084951,-0.9116587603506119,-0.18444910524074987,0
105,21.033366700033366,0.6874921314194345,-0.7037207014315885,0.17925329456664468,0.47398617592479786,-0.8692770771092747,-0.1403369810297455,0
106,21.23336670003337,0.7383540439873031,-0.6357354434382748,0.2251083110059155,0.5580234271087756,-0.8261827431027758,-0.0776654993993458,1
107,21.35468802135469,0.841668366867451,-0.5352726602615315,0.07125685504722672,0.6245246843775041,-0.7799609744423268,-0.04037074374042349,1
