,timeStamp,x_gaze,y_gaze,z_gaze,x_head,y_head,z_head,fixations_head
0,0.04,-0.9921627864986611,-0.11878380480614271,-0.0387738675268337,-0.9848667072001271,-0.09118905245855392,0.14738427921759553,1
1,0.24000000000000002,-0.9877990027912446,-0.15305000361462698,-0.02878934660921865,-0.9759744390673346,-0.15377779427995839,0.15435765051850314,1
2,0.44,-0.991940393811176,-0.125814640105518,-0.014997715187587787,-0.9760984003235882,-0.13744985791605857,0.16834324888330854,1
3,0.6400000000000001,-0.9496606997415565,-0.30428052354211715,-0.07455144773451682,-0.9776314637951711,-0.11526560408565133,0.17592771672616428,1
4,0.8400000000000001,-0.9606956139409645,-0.27154769837031273,-0.057669618209063474,-0.977075593686201,-0.09542530094960791,0.1903084237794926,1
5,1.04,-0.993446747541461,-0.09146790174922519,-0.06853599600857031,-0.9823585323212695,-0.04879848419313794,0.1805281748538257,1
6,1.2400000000000002,-0.9856726218336207,0.06160353070320066,-0.15701747537307853,-0.9890087933817017,-0.03761295614269147,0.14299255975007477,1
7,1.4400000000000002,-0.978894258214548,0.04984174192643084,-0.19819644799120179,-0.9958797432676776,-0.023806039131173466,0.08750319679868614,1
8,1.6400000000000001,-0.9216984087107467,0.17290332481074894,-0.3472412470451435,-0.9995394683058993,0.004008103646539603,0.030079667616499106,0
9,1.84,-0.8739543325502028,0.20732564546960935,-0.43956785750022687,-0.9942664218490924,0.07135223185010282,-0.07964384090067485,0
10,2.04,-0.8373325665990252,0.23738344745473747,-0.4924665184428204,-0.9832113775530467,0.1218348700161965,-0.13583685618556193,0
11,2.24,-0.9806737216634918,-0.08721619828348087,-0.1751353373698549,-0.9967563670193352,0.009053759831261481,-0.07996733232598376,0
12,2.4400000000000004,-0.9092624226118369,0.08356138627976525,-0.40774911593902585,-0.9891299059252396,-0.04758239905472246,-0.13913283043381344,0
13,2.64,-0.751633791719295,0.13907767509500507,-0.6447511484563978,-0.9294422286370706,0.0076404579981442814,-0.3688885563794762,0
14,2.8400000000000003,-0.666901445482766,0.10546488240989367,-0.7376446438436766,-0.8687408825987656,0.08702041398647792,-0.4875620231838613,0
15,3.04,-0.6598535179003328,0.10737568405679873,-0.7436825918279182,-0.8608581917615035,0.12350016004249087,-0.49363031121132916,0
16,3.24,-0.7083281712603186,0.08580849691454215,-0.7006483452176849,-0.8966705936365521,0.10546532246972376,-0.4299522209081266,0
17,3.4400000000000004,-0.6940184164147131,0.05567754700040689,-0.7178011203928508,-0.892830434308059,0.07262155398103784,-0.4444996349499763,0
18,3.64,-0.6238578887942109,0.20379982667952082,-0.7544978232139756,-0.828909687189369,0.2861461972058734,-0.48065484945877773,0
19,3.8400000000000003,0.09770793389693533,0.9554858046512013,-0.27838828417093703,-0.23980452445706513,0.9561883574637573,-0.16792145515294674,0
20,4.04,0.835378250411356,0.5286721033004819,-0.15049580037830462,0.6345802172952815,0.7727697929257729,-0.011610123123037457,0
21,4.24,0.9892945979016329,0.06910256788385419,-0.1285341731778133,0.916153088881716,0.40011859688330353,0.023845883515337757,0
22,4.44,0.9904601368586273,-0.07816199181236153,-0.11348753380840457,0.9843935518479134,0.17492634214576083,0.019238240661592944,1
23,4.640000000000001,0.9875177098106698,-0.0868056484902038,-0.13142888647662335,0.9951757689379173,0.097479636185148,0.011086453356979395,1
24,4.840000000000001,0.9895529228781351,-0.0969038201908383,-0.10674578425287443,0.9974877492159928,0.0698430203444273,0.011838187073219686,1
25,5.04,0.9933806572002352,-0.07337876558980522,-0.08837661829322004,0.9958053008785099,0.08802339114491411,0.02497369323127355,1
26,5.24,0.9623013872852144,-0.27197729287616296,-0.002095754925047839,0.9936575445153211,0.10757734548066601,0.032738340934081483,1
27,5.44,0.9600863094678483,-0.2791774264262774,0.017153511197644834,0.9916830066943869,0.12154677673252111,0.0423225152786985,1
28,5.640000000000001,0.9536317183849063,-0.2916516281557916,0.0743362191958052,0.9896548578456504,0.12166807063021445,0.07602725124339824,1
29,5.840000000000001,0.9357863407618747,-0.3386073012994388,0.098229425073202,0.9921496552096221,0.07663384042856179,0.09882467388561438,1
30,6.04,0.9049407704418345,-0.4057286601278089,0.12832169085167172,0.9918111540487791,0.00046426416257053926,0.12771225142176523,0
31,6.24,0.9201993627195099,-0.36588035660637497,0.13915709647804536,0.9904249820357421,-0.047114737400783424,0.12976346357567323,0
32,6.44,0.9979642651096067,-0.00375484651890682,-0.06366495654488535,0.9901543691275091,0.0340091640244851,0.13578550018341487,0
33,6.640000000000001,0.998919596872153,-0.026676751889521517,-0.03805246238287555,0.9755181189092388,0.1560881215111914,0.15492223211304507,0
34,6.840000000000001,0.9989221623578592,0.011888087519356808,-0.04486855163063348,0.9589537113103754,0.24149608163046868,0.14861837746788575,0
35,7.04,0.997722015662372,0.0177766412744997,-0.06507511419591663,0.9529275223295415,0.2751371156893517,0.1273919336419121,0
36,7.24,0.9959121223810258,0.045042125301624575,-0.07829592226185172,0.9336706083915474,0.34027113502746364,0.11169041898425776,0
37,7.44,0.9911936224396454,0.10862576636490931,-0.07573404595431223,0.8901128153689781,0.44671373186527646,0.09025529169477788,0
38,7.640000000000001,0.9831393873566577,0.17768281961363055,-0.04319445152014488,0.7689916355635906,0.6341608346123445,0.08057232947487934,0
39,7.840000000000001,0.23335662784632555,0.9667671957242138,-0.1044311903203781,-0.05241152210323741,0.9962070035738894,0.06945961690907186,0
40,8.04,-0.9996264520250704,-0.0024470194645635104,-0.02722073671872061,-0.8603467821613701,0.5091265721608587,0.024362839413951363,0
41,8.24,-0.9788630350033083,0.08367585369761002,-0.18661594308120796,-0.9959256402157476,0.08922734026019818,0.013061428365386877,0
42,8.44,-0.9699878778372691,-0.24199540253584598,-0.023701097026615003,-0.9955476600872821,-0.06080038021784751,0.07202895431771172,0
43,8.639999999999999,-0.9574443929566449,-0.2879463027903424,0.01967640986700487,-0.9706163107870824,-0.16284749223634742,0.17715719433996008,0
44,8.84,-0.8964905536446747,-0.3120499928484498,0.3145305854589464,-0.9253679031873578,-0.23564471103972284,0.2969272872432541,0
45,9.04,-0.8793914386461523,-0.2719605538970972,0.3907789077724578,-0.8950320728123331,-0.23725567249377616,0.3776603427774549,1
46,9.24,-0.87825104080234,-0.39135276568738,0.27480560787299346,-0.8720338556593143,-0.24509631317826805,0.4236564077768335,1
47,9.44,-0.7963504697576249,-0.4819050059793304,0.36550443845304015,-0.8454472523574028,-0.2777402148012018,0.456157118286562,1
48,9.64,-0.8081495055841652,-0.4958571932569889,0.3178364682023926,-0.8405564739864335,-0.32388989774193544,0.4342351300622891,1
49,9.84,-0.8301384606918352,-0.4642347949155259,0.308797978085885,-0.8467600682117247,-0.31474575815210504,0.42887351819310543,1
50,10.04,-0.8908213930340017,-0.2978668333744174,0.3430926919776313,-0.8467639066906127,-0.29995562009669774,0.43933758352599095,1
51,10.24,-0.7298300328668397,-0.6239835432975764,0.2792716613252929,-0.834478036399962,-0.35033299526772493,0.4253389227343392,1
52,10.44,-0.7004759421175184,-0.6602698437998757,0.2708822398812134,-0.8193048154220364,-0.4170268359644193,0.39348219465659234,0
53,10.64,-0.34458667069305726,-0.9279567869865403,0.14197263069440996,-0.6712559618655175,-0.6702200692077959,0.3165762032925024,0
54,10.84,-0.08433835754010238,-0.992417713169588,0.08940986542146043,-0.4260294253716897,-0.8787587011075225,0.21513268916017445,0
55,11.04,-0.1361420973692013,-0.9838313034575261,0.1163670729243479,-0.3625103426268068,-0.9131617282246125,0.18633815925471142,0
56,11.24,-0.14730855466674975,-0.9808081346564999,0.12773250453048549,-0.3570341613662201,-0.9148138693054247,0.18879139849038926,0
57,11.44,-0.33051296459889823,-0.934326024970818,0.13340187140470777,-0.5516962605029969,-0.810587436852964,0.19641599569065596,0
58,11.64,-0.9186446408854896,-0.3899409095899888,0.06354613127879927,-0.8550636382206938,-0.4666075048953844,0.22614953231898222,0
59,11.84,-0.9894813585513769,-0.12296975405491671,0.07619107997000103,-0.9320997921366414,-0.2822991999290164,0.22692981121542297,1
60,12.04,-0.9668974969364745,-0.18606798333856864,0.1746079494017902,-0.9419748704733084,-0.2175947797495002,0.2556087933201057,1
61,12.24,-0.9656262524070304,-0.17774749676525328,0.18966224731358763,-0.9377857264006682,-0.19095700393896528,0.2899885411629668,1
62,12.44,-0.9591150617609276,-0.17643742693396516,0.22128744356662816,-0.930235374430364,-0.1847127010906983,0.3170857395314067,1
63,12.64,-0.9539384898538474,-0.18241520173880377,0.2381723152466562,-0.922659907490175,-0.18633670482823309,0.33760528364345543,1
64,12.84,-0.877118292147443,-0.3792221305643588,0.29471015807158946,-0.9135348984965885,-0.19920105835057508,0.3546447907143686,1
65,13.04,-0.8684304564535256,-0.3937857005880051,0.3012662681355742,-0.8996806733342191,-0.2276196573948472,0.37251037246812163,1
66,13.24,-0.8010701469188534,-0.46379263366257345,0.3783953127031847,-0.8785898278384816,-0.2723157819821856,0.3923315298343713,1
67,13.44,-0.7924627404896623,-0.4761080749713174,0.3812137273009995,-0.8580848113349051,-0.3069820424897863,0.4116460641681637,0
68,13.64,-0.787428031679109,-0.4792175911862225,0.3876952349767006,-0.8350056159367749,-0.3201588772549864,0.44750856379389387,0
69,13.84,-0.7666895520953978,-0.49643807640482107,0.40710731632241576,-0.8085590105116893,-0.34135527342530975,0.479279567502194,0
70,14.04,-0.7146990184883598,-0.623903067017047,0.31614913559663194,-0.7970115887007795,-0.3621385785477065,0.4833509877967631,0
71,14.24,-0.6993434688742696,-0.6443655668526646,0.3093731222933694,-0.7831891499696675,-0.4033020226941919,0.473246483199361,0
72,14.44,-0.6650041271299869,-0.6777507941918028,0.31372499401938836,-0.7564203701518273,-0.44834065913881704,0.47625505454781686,0
73,14.64,-0.8034041492746388,-0.5387245819753765,0.2536091435728404,-0.7144084058306299,-0.5141351748558698,0.47464265680031636,0
74,14.84,-0.8118762467463588,-0.5776214570349214,0.08491414688907921,-0.7186350079176482,-0.5503565499401066,0.4250545768877507,0
75,15.04,-0.8450674267720462,-0.5325905431658757,0.04699316481308549,-0.7934777972730436,-0.4889760319692477,0.36234710623148175,0
76,15.24,-0.9968815576827476,-0.017587484060048005,0.07692750065130853,-0.9104464172964631,-0.2706479506556882,0.31278907915384613,0
77,15.44,-0.9733232284526337,0.2282007910779201,-0.023796888577160877,-0.9698396154980534,0.00048140091930801626,0.24374348906943796,0
78,15.64,-0.963224838796299,0.2584185958525113,-0.07360529358314312,-0.9741679044018411,0.10982470222572534,0.19732062440190143,0
79,15.84,-0.9784911381377129,0.2021145565177347,-0.04128920718060748,-0.9722891314597916,0.07921190686066289,0.21995299192477955,0
80,16.04,-0.9950294594637243,-0.08172288021443651,-0.056901191980360484,-0.9725284823584388,0.022812521123845762,0.2316634193858971,0
81,16.24,-0.9929994410624381,-0.10833876775994435,-0.04706188957046443,-0.9639195166952386,-0.0704712261292515,0.2566962633578012,0
82,16.44,-0.9499631014647918,-0.24201338219355137,0.19748323649016855,-0.9438783454079624,-0.18585584762359095,0.2730407899454659,0
83,16.64,-0.8982120063379515,-0.3500144640588671,0.2659042433281871,-0.9025353683764379,-0.3146971323249839,0.29393132486354606,0
84,16.84,-0.7717094495152163,-0.5020191160128525,0.39043736077198893,-0.8527579502080458,-0.4089433867933913,0.3249141190452069,0
85,17.04,-0.7099470460660374,-0.576557634556531,0.40442117379865977,-0.7838322306444697,-0.5131764301124544,0.3496526644828441,0
86,17.24,-0.4550919960666461,-0.8610531942274762,0.22688911791167066,-0.6767413772012454,-0.6438295975932383,0.3570778033520018,0
87,17.44,-0.44335464754011894,-0.8675005639754154,0.22556468696787,-0.5596020280228251,-0.7444379243849755,0.3642221121378152,0
88,17.64,-0.15836777903585797,-0.9498801560730659,0.2695316969520615,-0.40428495499855416,-0.8331454112783427,0.37738892250257966,0
89,17.84,0.022196701454445744,-0.9725752636964662,0.231526808146036,-0.27847421379685966,-0.8806947306090175,0.38318259841455643,0
90,18.04,0.11129991719821064,-0.9566842529193159,0.2690122091056133,-0.14420375148094822,-0.9033715325893369,0.40388754891183976,0
91,18.24,0.5078447785510392,-0.8273894842772709,0.2398339471506027,0.13664751469010028,-0.9072477396326442,0.3977800845448105,0
92,18.44,0.6255792134863492,-0.7542345711544469,0.19945139590704497,0.3067960601899781,-0.8724978030183268,0.3802943086349055,0
93,18.64,0.6615189783411453,-0.729390041613587,0.1743066507320284,0.35961543154863856,-0.8578007363780089,0.36722559559681106,1
94,18.84,0.3060514833572192,-0.9506286841283842,0.051357515975590934,0.3710650931806827,-0.8609902544602547,0.3478598544633702,1
95,19.04,0.6459743164464096,-0.7510598203799306,0.13647830854190965,0.3975559496617687,-0.8541911892081562,0.33512188703169643,1
96,19.240000000000002,0.6652405499077825,-0.7378754239157006,0.11399504173259603,0.4458951693049107,-0.834691759843657,0.32321380545955036,1
97,19.44,0.6806451211775859,-0.7260475123483611,0.09786331708002836,0.4677395786882397,-0.828183800163035,0.30875763905701487,1
98,19.64,0.6109055035510701,-0.7913913220661546,-0.02223153367173569,0.44173843517899836,-0.8508452609534471,0.28448110095166323,1
99,19.84,0.012879413501624193,-0.9998580297460516,0.010864670275620589,0.2944923421780077,-0.9209115469744302,0.2553354324171891,0
100,20.04,0.041532342709982906,-0.9980912835063575,-0.04570398557732863,0.1513668313460818,-0.9584792296190776,0.2416726065508182,0
101,20.240000000000002,-0.3325865087115166,-0.9424661150354179,0.03382064802943571,0.0200151002690675,-0.9730700881694341,0.22963884530094067,0
102,20.44,-0.3474682562072801,-0.9376461554526522,-0.009246517892299714,-0.17974326893338927,-0.9583163711877238,0.22208577168907534,0
103,20.64,-0.5256835964955255,-0.8499014596370043,0.036390455924862626,-0.4150870286487267,-0.8802693961045619,0.2298446191001245,0
104,20.84,-0.5657835591153484,-0.8231629382929992,0.04787213443753104,-0.5578652926760501,-0.7944812368959353,0.23997058037969884,0
105,21.04,-0.6852874618090334,-0.7262605210768734,0.054099447432304305,-0.6365816373463651,-0.7304622423379227,0.24736356140724325,0
106,21.240000000000002,-0.8386520986999049,-0.5373220292202168,0.08914984162023877,-0.7083381429847169,-0.657997338457513,0.2555319505967735,0
107,21.44,-0.8273581642433501,-0.5549633611347645,0.08656867711752841,-0.7853586682072841,-0.5579320350282628,0.26818576875162925,0
108,21.64,-0.8304322992471721,-0.5451410797128159,0.11490604673645552,-0.8340887014241468,-0.4806175349455683,0.27074494133672355,0
109,21.84,-0.899315138564667,-0.42544326552515077,0.10114499180735606,-0.8760584503917811,-0.40434979344985034,0.2627219747836384,0
110,22.04,-0.9094210267348686,-0.3992560816362881,0.11639577917147495,-0.9203985403560995,-0.2885133258523389,0.2638685045926931,0
111,22.240000000000002,-0.9913235378850638,0.11035487245157542,0.07141040093177717,-0.9640822898352398,-0.08606423642665455,0.25127332853754664,0
112,22.44,-0.9464990743686039,0.2961960236510419,0.12809144308925202,-0.9650204661709594,0.11345291583476609,0.23635552830381162,0
113,22.64,-0.9463963159459088,0.29392537084201237,0.13394733867978537,-0.9258686420672411,0.2977276374592097,0.23264890184464843,0
114,22.84,-0.744022948254048,0.6681536433082995,0.0007492697777740083,-0.8172740291111978,0.5388437328980117,0.204231713641357,0
115,23.04,-0.40497108523284087,0.9140519795858293,0.022525513103190054,-0.669127644586229,0.7224982264049529,0.17396697414217127,0
116,23.240000000000002,-0.3007646553989673,0.9536531232664763,0.009292069028774193,-0.5548723019460939,0.8150413765180913,0.16680612427767094,0
117,23.44,-0.23720853811542003,0.9714305281687585,0.007405294518970895,-0.4659332031547494,0.8681041337933953,0.1711767013608276,0
118,23.64,-0.1589813561354103,0.9872810850969893,-0.0009936855928006968,-0.4322683955105758,0.8846039627812471,0.17498532302575145,0
119,23.84,-0.8302482905328745,0.5528712484492759,0.07086013481061644,-0.5285729169914262,0.8296125056754552,0.17987151483786334,0
120,24.04,-0.8236670666248714,0.5666933699171665,0.02076506319530835,-0.6515139975068244,0.7361190366324194,0.18346191692020675,0
121,24.240000000000002,-0.8852534266317298,0.46440632156920075,0.02555658669198779,-0.734640223465409,0.6554035742905622,0.17535648512059518,0
122,24.44,-0.8894845868954071,0.4561404187275705,0.027442450301390163,-0.7751644506369156,0.6083420888516875,0.17041120092392603,0
123,24.64,-0.8561423108230599,0.5167237710622276,0.004109505783158187,-0.8205979585720464,0.5452282581808526,0.17130422314836227,0
124,24.84,-0.829564594826468,0.5582521723405722,-0.013307707820285902,-0.8696081631965892,0.4608389486967406,0.17722614329138092,0
125,25.04,-0.9918557032925216,-0.11730728487235968,0.04961113546344601,-0.929446466450542,0.3188288523616563,0.18568098692206159,0
126,25.240000000000002,-0.9914462508312248,-0.13018269159759996,-0.009316572390769917,-0.9748784314794874,0.11453548808130504,0.19103315368299714,0
127,25.44,-0.9938029034157042,-0.11018332810367297,-0.014677308013218144,-0.9812756244624945,-0.03751952760761083,0.1889191199530722,0
128,25.64,-0.9303011606534848,-0.36631478333965434,0.018794413893534655,-0.9735585762572947,-0.1269286678791722,0.18992843880337779,0
129,25.84,-0.9690124720686009,0.1989044772880341,-0.1464644594783071,-0.9867842703973347,-0.03465074068635697,0.1582912817128184,0
130,26.04,-0.9520403456520494,0.24208462611723708,-0.18712085412482393,-0.9926468412367555,0.043428978575121006,0.11298748781442063,0
131,26.240000000000002,-0.973791685691184,0.10337374920709189,-0.20259225269884273,-0.99079498685271,0.09003919800370673,0.10108529492655269,0
132,26.44,-0.9277888341720303,0.36816861399468587,-0.060495874693547246,-0.9825773803697462,0.14189546915396997,0.1200306936550077,0
133,26.64,-0.9906924438772128,0.13581156344276113,0.009148818493617419,-0.9751969967840499,0.13647755883598656,0.17425467970054478,0
134,26.84,-0.9923099495861546,0.12146604132885318,0.023811021738275526,-0.968212587324685,0.08986056700750016,0.23342978439593032,0
135,27.04,-0.985304043312011,-0.1364714535427112,0.10272041959095818,-0.9647780182179245,0.03290814650739051,0.2609989070033475,0
136,27.240000000000002,-0.9182810036740975,-0.38858459650051647,0.0759079024464713,-0.9649054918853884,-0.04380199408110756,0.2589184756712717,1
137,27.44,-0.8945439948285375,-0.4452531567823394,0.03925133999703795,-0.9567793085334932,-0.17195110824637996,0.23453394452618745,1
138,27.64,-0.9212800767082807,-0.3847150931887891,0.05689742817672713,-0.9495552520088544,-0.20671926403196825,0.23582190157083027,1
139,27.84,-0.9979372776241157,-0.04909025410739774,0.041368307674354086,-0.9479156292171744,-0.18583675769652472,0.2586902769232954,1
140,28.04,-0.996294062076128,-0.06411894631684234,0.05733151485061847,-0.9435803056466319,-0.17013599458473377,0.28409496676722856,1
141,28.240000000000002,-0.9959362893973625,-0.0689980629958538,0.05788069422729234,-0.9463055194424208,-0.13527194367017822,0.2936109077137675,1
142,28.44,-0.9967468000786237,-0.05243175727797129,0.061210516757894295,-0.9484466975877616,-0.09578034061850971,0.3021175072482088,1
143,28.64,-0.9485331151582698,-0.3113173719393684,0.05802088741921868,-0.944162968654843,-0.07344297375232557,0.32118906928363766,1
144,28.84,-0.9347361291141084,-0.34680073052332255,0.077444317010759,-0.936359379268954,-0.11437603971886606,0.33188738209411867,1
145,29.04,-0.9974999650534364,-0.07058269331749781,0.003450090207661491,-0.9268782280891955,-0.18306079894205354,0.3276972599594483,1
146,29.240000000000002,-0.9992179708215296,-0.039261267386756955,-0.0046903806338339776,-0.9374746345891016,-0.1389925991835028,0.31909617182637046,1
147,29.44,-0.9983600778525434,-0.05179452819814658,-0.024381997436526706,-0.9530773382930325,-0.03394739596120654,0.3008174887531002,0
148,29.64,-0.9741782570094085,0.22439807533083486,-0.0249444855214102,-0.9534414540520839,0.11304223093471125,0.279590500053832,0
149,29.84,-0.9735765923891027,0.22718467250617702,-0.023146129920242026,-0.9205529656777431,0.2766098560062105,0.2758064990933597,0
150,30.04,-0.9438673565609677,0.3296417002176002,-0.021231172748143727,-0.8504053342507123,0.45782502930934654,0.2592431484452979,0
151,30.240000000000002,-0.6833763297704221,0.7283837588814186,-0.049536771264213436,-0.7603343196880781,0.6075575048661552,0.22970764154742315,0
152,30.44,-0.5288422273818333,0.8467990309694211,-0.057072757836562106,-0.6154209834483203,0.7548652278572346,0.22679396134718358,0
153,30.64,-0.3815859258918949,0.924265554211967,0.011196716414679666,-0.42650861264630413,0.8769745138309648,0.22137322654166663,0
154,30.84,-0.03715334553037286,0.9993095468367234,-0.00024190263196747987,-0.20559943439107659,0.9530624914328008,0.2222628174076175,0
155,31.04,0.12872232267340455,0.9916658260251344,-0.005427074667991758,0.014162571640487231,0.9726756488443766,0.2317358489955737,0
156,31.240000000000002,0.4018131463060186,0.9152876649133684,0.02819017405216521,0.17876877680963127,0.9514215303651186,0.25067667620998085,0
157,31.44,0.41892458146956707,0.9076794431945201,0.024904285627856942,0.19699075016614004,0.9446367737731105,0.26240428728302195,0
158,31.64,0.5097889422522128,0.8597950892611422,0.02945570979953787,0.18266943840747574,0.9512047694088758,0.24867923702171968,0
159,31.84,0.5121446121018869,0.8584333307322628,-0.028286268451700184,0.19981130649300805,0.9620878488430525,0.18564054758081594,0
160,32.04,0.5499830470756473,0.8327304919066009,-0.06386372819039665,0.25656521611359673,0.9569700405973127,0.13558256259475646,0
161,32.24,0.5272849805740201,0.8448560029744164,-0.09049244995660338,0.3053037127821869,0.9507649135326219,0.05325149910301425,0
162,32.44,0.3146825964773909,0.8996797932751838,-0.30257417775905776,0.26571469154449306,0.9640175701872867,-0.008113388171098712,0
163,32.64,0.44065276864374336,0.7719164486095879,-0.4582249816984722,0.28246537958182494,0.9482078292525481,-0.14531077689513006,0
164,32.84,0.4494310799365403,0.7465131480088949,-0.4906422568806371,0.3029925738723429,0.932928105601455,-0.19452673327101805,0
165,33.04,0.2111981260700534,0.8500674973000066,-0.4824734205928874,0.19621638050180062,0.9447127547684765,-0.26271075920207204,0
166,33.24,0.08098285509706388,0.874427517699187,-0.47834955155280146,-0.08945173047845184,0.9484503037685572,-0.3040401440529558,0
167,33.44,-0.44893425018646277,0.8395466741539942,-0.30597290881136174,-0.5944246417997999,0.7987164435116904,-0.09333481711138797,0
168,33.64,-0.9091776506522334,0.4057885399517846,-0.09344335395460032,-0.8504705814146053,0.5233442821700516,0.05301464390351644,0
169,33.84,-0.9978341127490113,0.006739897380675972,0.06543437336516102,-0.9412233552342372,0.2559087562213441,0.220475177856487,0
170,34.04,-0.9362599040652044,-0.3402082022596668,0.08761147844352236,-0.9627111925552417,-0.02825643935330473,0.26905154406532933,0
171,34.24,-0.9018788203869419,-0.4132446227982976,0.12587086662826663,-0.9134844128242069,-0.20199909017491258,0.3531891774895166,0
172,34.44,-0.840470571199417,-0.5338782529199146,0.09264572309019747,-0.8752843005526042,-0.3140120296382444,0.3677959195649252,0
173,34.64,-0.8680732095076171,-0.4922211223572598,0.06455439288308559,-0.82128818837722,-0.4356521200276201,0.3683652290153133,0
174,34.84,-0.5418137276282438,-0.7480520362443271,0.38321800013086993,-0.7358392833014287,-0.5257665809648038,0.4267435429986258,0
175,35.04,-0.49232672696413826,-0.7808127064297823,0.38463737649190777,-0.6515606529923561,-0.6165547787714408,0.44196031523913376,0
176,35.24,-0.2731406760570403,-0.9259053144080829,0.26094735069353114,-0.5727676542380513,-0.691902071230865,0.4395551593202827,0
177,35.44,-0.32366758188086914,-0.9248215779389161,0.19986081511382905,-0.46786953577115303,-0.7806220812438656,0.41439988389450766,0
178,35.64,-0.3215370703252033,-0.9404110897966818,0.11063857642840089,-0.34122393326975425,-0.8623207974232961,0.37412440403583563,0
179,35.84,0.36606641176613475,-0.9224270212707951,0.12297874859566227,-0.16446662698290848,-0.9370837236763918,0.30793639510400994,0
180,36.04,0.27097404596702646,-0.9614211517555927,0.04735435955864945,0.21699778975670753,-0.9373786490661979,0.27245775363445524,0
181,36.24,0.6048594951502906,-0.7956092857902263,0.033924261095889315,0.3703618393991312,-0.8874382108239912,0.2743820874007723,0
182,36.44,0.607996240443871,-0.7936972884429631,0.01962615409107432,0.45357329169744665,-0.8472642521906,0.2764318288812744,0
183,36.64,0.781925648824344,-0.6143805136932894,0.10549343157087443,0.5454722555280216,-0.7842865631829233,0.29555812501078554,1
184,36.84,0.7657009449689696,-0.6369352798109066,0.08952939297140945,0.5688627220861374,-0.7636759060077223,0.30527743775791033,1
185,37.04,0.7832522034617417,-0.612713164140825,0.10534972359178159,0.5975809383943345,-0.736495893398038,0.3169713253207178,1
186,37.24,0.8016736574117249,-0.5916576018976206,0.08520932536327792,0.6370208068949677,-0.7073971692533172,0.3062576309502805,1
187,37.44,0.9513178891050772,-0.30635794424639223,0.03375031652866367,0.6637650449354311,-0.69785656437007,0.2690951145737639,1
