,timeStamp,x_gaze,y_gaze,z_gaze,x_head,y_head,z_head,fixations_head
0,0.016666666666666666,-0.9949912085855768,0.06639709783305542,0.0747256330636347,-0.9957887643912984,-0.027336240052042902,0.08750695224876896,0
1,0.21666666666666667,-0.9949885121698783,0.07224865840651211,0.06912302082831263,-0.9960078803048056,-0.023526702408983306,0.08610921347037999,0
2,0.4166666666666667,-0.9965735416855024,0.0694908244578776,0.044857567127283116,-0.9971183381323376,-0.022299880927354635,0.07251024114448106,0
3,0.6166666666666668,-0.9627763736323338,0.06507255931496553,0.2623494166175584,-0.9959713813402964,-0.02166566878343761,0.08701497771802337,0
4,0.8166666666666668,-0.9175422137548856,0.013442263689125097,0.3974111114761337,-0.9596607218993991,-0.09293625647714422,0.2653566488248196,0
5,1.0166666666666666,-0.6337790655383833,-0.25503369480238425,0.730261535753279,-0.8163848625599828,-0.338042304017536,0.46823408342135225,0
6,1.2166666666666668,-0.5314539262463878,-0.1797530897109096,0.8277955973648812,-0.67276779837699,-0.38399492785870776,0.6324012846648589,0
7,1.4166666666666667,-0.4311387598701828,-0.15510568052950127,0.8888540924162308,-0.5818275208424211,-0.35530800834554677,0.731596169478684,0
8,1.6166666666666667,-0.38462412567933213,-0.10737274745063509,0.9168071635029428,-0.567457694543798,-0.2985829198700761,0.7673591107590354,0
9,1.8166666666666667,-0.49721666335371995,0.14631147619038865,0.8552008779335901,-0.6257659432300855,-0.1674726234304146,0.7618201262074242,0
10,2.0166666666666666,-0.6005341895375877,0.3875723821481123,0.6993899740434307,-0.6825171499049139,0.1581583125112683,0.7135518819744375,0
11,2.216666666666667,-0.6654651055901932,0.4065350257619417,0.6260075607135833,-0.7221693223614742,0.3650711264828321,0.5875325884140602,0
12,2.416666666666667,-0.6840024563149686,0.7064012984378135,-0.1820380326208252,-0.7595200901159422,0.5841862164830742,0.2861043466664954,0
13,2.6166666666666667,-0.7480323109557429,0.6367313909449488,-0.1871384448784428,-0.7430979010806616,0.6682892854301222,-0.03456790981259662,0
14,2.816666666666667,-0.6210881213848141,0.6892417033684961,-0.37308902397735705,-0.7231844373507476,0.657496718877393,-0.2114292653327465,0
15,3.0166666666666666,-0.6010154070596925,0.7098517948480204,-0.36727497849420193,-0.6920254202016052,0.6690839439314867,-0.2709750796067402,0
16,3.216666666666667,-0.6428623140610845,0.6680222380863126,-0.3747990589398291,-0.7249810103685495,0.6248991746778623,-0.28966110559052305,0
17,3.416666666666667,-0.6719097837162662,0.6126978789135423,-0.41609920898892183,-0.7596331625783604,0.5645662106098529,-0.32283502311371015,0
18,3.6166666666666667,-0.8380673892987436,0.2548806378268671,-0.4823680249093604,-0.809225844959118,0.4629634788282203,-0.3616881932292975,0
19,3.816666666666667,-0.8259334331614969,0.30247332536179505,-0.4757560839659765,-0.8368663899992481,0.39146735093934,-0.3826329291085152,0
20,4.016666666666667,-0.8277967808904242,0.28742494586954315,-0.48180845783292514,-0.8527962380807668,0.3439799249828731,-0.39295850610983013,0
21,4.216666666666667,-0.8887112478075334,0.12437683673943806,-0.4412739744229978,-0.8713914790058714,0.28882774140702727,-0.39655444280662855,0
22,4.416666666666667,-0.8886369649232163,0.10342862015070901,-0.44679622324475304,-0.8817833370535637,0.2508384024009542,-0.3994223859219943,0
23,4.616666666666667,-0.88811532512579,0.09077126826834016,-0.45056824803093876,-0.9139703572668075,0.08123184353994498,-0.3975670680937824,0
24,4.816666666666667,-0.9210170374370339,-0.08108128911879599,-0.3809900803243358,-0.9201041943242079,-0.008170185584518003,-0.39158845699856276,0
25,5.016666666666667,-0.9201934228873833,-0.025755727505131665,-0.39061580482039276,-0.914777776496307,0.02448135084595223,-0.40321493410987386,0
26,5.216666666666667,-0.8359096065955376,0.34594054656141904,-0.4261223625275733,-0.903143708558808,0.1612833451621573,-0.3978933579037817,0
27,5.416666666666667,-0.7859054906852257,0.4468652773933277,-0.42739207242413774,-0.8299840572180914,0.39387181409767424,-0.3949575405321479,1
28,5.616666666666667,-0.6793896470660283,0.6686284770142277,-0.3022675423943695,-0.7812630272758452,0.49852394824259466,-0.3756354020062496,1
29,5.816666666666667,-0.6999920375748456,0.6476763487891021,-0.30087621134119796,-0.7836680564476244,0.5026927903259791,-0.3649168889732074,1
30,6.016666666666667,-0.7920593023770152,0.489287169000617,-0.36502072238353556,-0.8035605806644162,0.4731312438391688,-0.36116093269547817,1
31,6.216666666666667,-0.7955510818501887,0.48206752484669035,-0.3670277614230018,-0.8177298373882608,0.44910059672935687,-0.3600368968068471,1
32,6.416666666666667,-0.7886997614490444,0.48835802519127613,-0.37344226531218666,-0.8201533113157924,0.4442748043853653,-0.36051136476689155,1
33,6.616666666666667,-0.7994875333433884,0.37394684913796744,-0.4700887555008001,-0.8119590106741534,0.46210132692678374,-0.3566299603756753,1
34,6.816666666666667,-0.6845151316093753,0.6398933343297805,-0.3492499896608668,-0.7919769699301757,0.564359947865423,-0.23295992862626627,0
35,7.016666666666667,-0.5124031048442383,0.858002580847316,-0.03570195240221019,-0.7159554080811475,0.6848104977325427,-0.1358029301402036,0
36,7.216666666666667,-0.46066843505089355,0.8808804028843928,-0.10878560916771325,-0.608225205016939,0.7798003444188808,-0.14823468833676529,0
37,7.416666666666667,-0.19224571595282658,0.961174536268721,-0.1979522556739238,-0.4500772944304261,0.8826216336460971,-0.13568154206848682,0
38,7.616666666666667,-0.25693117856014436,0.9517856867463582,-0.16760183766432468,-0.4723872405961856,0.8769382640123872,-0.08848489155139519,0
39,7.816666666666667,-0.5287530981928268,0.8342470975827833,-0.1563711652645381,-0.5467383627866766,0.8331062310091755,0.0837327326141385,0
40,8.016666666666667,-0.753101936265949,0.6438909948546422,0.13506243125894668,-0.5693687743913722,0.7947212326847591,0.2103267958869808,0
41,8.216666666666669,-0.6893108023655763,0.7142432626107467,0.12127316091073756,-0.5708417297639479,0.7806884225415351,0.2542937405240514,0
42,8.416666666666668,-0.6553435447588524,0.7511226186606692,0.07962191959028174,-0.5541712736482083,0.7495052324736797,0.3621271958272368,1
43,8.616666666666667,-0.5569697914944851,0.8269576781095376,0.07697824353849851,-0.5086158097640776,0.7456872089718336,0.43041903354037286,1
44,8.816666666666668,-0.5684964552936024,0.8189378448843151,0.07843842511704682,-0.5164219443343911,0.7374837948166875,0.4352310050911646,1
45,9.016666666666667,-0.6483528184355846,0.7601926984612697,0.041781383806752295,-0.5055554460253682,0.7312567909939128,0.45790522667837724,1
46,9.216666666666669,-0.6449090602003884,0.7635210568186358,0.033584220491261856,-0.5045564539885905,0.7347544665082487,0.45338577247707973,1
47,9.416666666666668,-0.6487487438700834,0.7603433636837423,0.03167075352878959,-0.5135692320687811,0.7286612148435893,0.4530998541767008,1
48,9.616666666666669,-0.5114196558103116,0.8242933805916748,-0.24287930822449863,-0.5313840167346895,0.7218983679585328,0.4432761815140921,1
49,9.816666666666668,-0.5168218886798412,0.8173383351265191,-0.2546628777698315,-0.5208963700161313,0.7303630671996049,0.4418560419127514,1
50,10.016666666666667,-0.4738562674591843,0.8272788825268712,-0.3017778791010729,-0.46996284498720786,0.7883526130013782,0.39703284738851197,1
51,10.216666666666669,-0.43256566027358395,0.7977690952306141,-0.4200612101194373,-0.44610544716636064,0.8557077226438041,0.26221026565765065,0
52,10.416666666666668,-0.5930824149044118,0.7267674084392319,-0.3465001921524342,-0.4798434643476439,0.8735781716620762,0.08131068637267576,0
53,10.616666666666669,-0.6521716663680927,0.6684097801197758,-0.3576317707180086,-0.5661332799843761,0.8241142698377057,-0.01813227906241599,1
54,10.816666666666668,-0.6358413738872308,0.7176321956669723,-0.28409466555252155,-0.5814234760847254,0.8124330794136841,-0.043580189673215544,1
55,11.016666666666667,-0.5430482866551749,0.7908152035656396,-0.2823293682391455,-0.5872592327134041,0.806963691283774,-0.06273909899361134,1
56,11.216666666666669,-0.5330308822812861,0.7982266604171647,-0.28055708355643855,-0.5867177228509852,0.8068449018268302,-0.0690189690491469,1
57,11.416666666666668,-0.5195521031603442,0.8145152688553725,-0.2581288223022056,-0.5913165910475637,0.8020877995157688,-0.08366511232192696,1
58,11.616666666666669,-0.6896385822019606,0.7044538130780313,-0.16776010007833297,-0.6032665235269857,0.7901957010159161,-0.1079826638291062,1
59,11.816666666666668,-0.7403152891675171,0.6426110557449488,-0.19744443182621826,-0.6759550835784962,0.7225699345144462,-0.14483581987953598,0
60,12.016666666666667,-0.8439755468767434,0.44360558550046375,-0.30152837476246414,-0.8111768071633942,0.5418178812685012,-0.22005810836666348,1
61,12.216666666666669,-0.8267328539417469,0.36639306584468684,-0.4269296306351495,-0.8427441686524836,0.4720060165399814,-0.25882926139115964,1
62,12.416666666666668,-0.8256464512622208,0.37176617144988544,-0.42437937188746117,-0.8477481648284059,0.45568848453856026,-0.2714241221575938,1
63,12.616666666666669,-0.8194139504822955,0.3849978605136347,-0.4246615418835597,-0.8441729523504542,0.45799992369474263,-0.27858229738360657,1
64,12.816666666666668,-0.7220128569937772,0.5596241829312643,-0.40683929040125716,-0.8381991993595443,0.4635159468917068,-0.2873587812649954,1
65,13.016666666666667,-0.7865230481364063,0.5159002418558339,-0.3394531413955521,-0.8321238145396688,0.47428447914862376,-0.287444238270086,1
66,13.216666666666669,-0.8449570017615583,0.4662343863387971,-0.26205564708550627,-0.8296619112349743,0.4808148451478271,-0.2836867951304763,1
67,13.416666666666668,-0.7287421970862209,0.6472176090483349,-0.22370555809747947,-0.8293602659636943,0.4823156646435656,-0.2820162209520336,1
68,13.616666666666669,-0.7149292377832484,0.6627138489894429,-0.22290477635138606,-0.8250590408200184,0.49083421606994676,-0.27992740397494564,1
69,13.816666666666668,-0.79979349188861,0.4772797926002025,-0.3640527021025002,-0.8225536233250255,0.49408526224768834,-0.28157643790719655,1
70,14.016666666666667,-0.8009814858073934,0.4757460902383091,-0.36344781883613325,-0.8209769575087194,0.49461839360691123,-0.28521830226239825,1
71,14.216666666666669,-0.8014277453939596,0.47452870792421153,-0.36405504291045493,-0.8230281122502112,0.49126436531620593,-0.2851035773474599,1
72,14.416666666666668,-0.7967708134091718,0.4799563222250591,-0.36714874323015445,-0.8201488967103137,0.4964993523112801,-0.28433111046689025,1
73,14.616666666666669,-0.7067360174666146,0.6479126505626815,-0.2841362329170105,-0.8170163613203669,0.5030049765277389,-0.281904698299189,1
74,14.816666666666668,-0.818079185343523,0.5004100602836633,-0.2834364445066623,-0.8181749397962113,0.5036360359198764,-0.27738152644395614,1
75,15.016666666666667,-0.820911161946698,0.497462779821242,-0.28042048228302635,-0.8200847909594897,0.5020256804574611,-0.2746473225759783,1
76,15.216666666666669,-0.8721552150874146,0.33381588609424395,-0.3576482000331335,-0.8230878229898883,0.4976109275066652,-0.27369654815456285,1
77,15.416666666666668,-0.8701588417945909,0.3415032859769013,-0.35524512060501967,-0.8213304041964195,0.502902426890913,-0.26926848343201326,1
78,15.616666666666669,-0.6594832085138489,0.7437755182914827,0.10899484427492816,-0.7942753836601214,0.5602572136005362,-0.2350286568062085,1
79,15.816666666666668,-0.6692425861978107,0.7404301475984923,-0.06227003570370942,-0.7716254410337386,0.6027961926911378,-0.20305400470455454,0
80,16.016666666666666,-0.6715449783296386,0.7371943717475369,-0.07464449305876608,-0.7652199493843653,0.6139888288837271,-0.19353590641061624,0
81,16.216666666666665,-0.6346033689986439,0.7680366569931147,-0.0860131244079153,-0.6663300161405115,0.7338028795146472,-0.1324297685801735,0
82,16.416666666666668,-0.3293895640200548,0.9429607803178821,-0.048243983013111336,-0.4837100386374134,0.872582421297161,-0.06800379816286548,0
83,16.616666666666667,0.06355732507567668,0.9967326543241062,-0.049844580781129945,-0.2885718434337096,0.9571514320714082,-0.0242368987480522,0
84,16.816666666666666,0.08257463308171209,0.9951292596726541,-0.05384409452090633,-0.10865257802539252,0.9940625046759904,-0.00586123585371689,0
85,17.016666666666666,0.24569970576451933,0.9629835030016545,0.11088023960062232,0.027033477874492617,0.999387259335892,0.02223278999820057,0
86,17.216666666666665,0.22331783326405358,0.9692937083582983,0.10295072745380157,0.047292804747115114,0.9986276765043147,0.02249787409390037,0
87,17.416666666666668,-0.33914819113131905,0.9387599574293741,-0.06089537568284229,-0.18525115208179388,0.9823328925654611,-0.026534860774880098,0
88,17.616666666666667,-0.5527737550060573,0.8206308167896217,-0.1449352900838932,-0.3868672885735667,0.9194884667441793,-0.06981876936880636,0
89,17.816666666666666,-0.534718538389609,0.8293305957042845,-0.16213219214966826,-0.5190712152800909,0.849112841261218,-0.0978389302524896,0
90,18.016666666666666,-0.5926697602278153,0.7844379850843406,-0.18275558231781627,-0.6267258963292939,0.7672608927067194,-0.13610794757519404,0
91,18.216666666666665,-0.8007459672245877,0.5316095313016688,-0.27603840711535016,-0.7404612561199015,0.6529301033559397,-0.1593719182194263,0
92,18.416666666666668,-0.9459151143913668,0.19710415016644303,-0.25767139995182203,-0.9668766739976455,0.20116711578318533,-0.1571027969411275,0
93,18.616666666666667,-0.6459282830088752,-0.7633723371871995,0.0062712061486747805,-0.8747282345747587,-0.48361998130571887,-0.03101982139829216,0
94,18.816666666666666,-0.31951828804677584,-0.9375923655852313,-0.13721741726161318,-0.5827188967127088,-0.8125235544913618,0.015625645927352286,0
95,19.016666666666666,-0.3446793630147,-0.9215769260859086,-0.17858361072010073,-0.33822982227875564,-0.938257732992177,-0.07261552039104519,0
96,19.21666666666667,-0.20623845714361017,-0.9399506948724471,-0.27195291872643557,-0.3646990115016586,-0.9157492914190148,-0.16851666468122925,0
97,19.416666666666668,-0.100354426374618,-0.9499376005061712,-0.2958843426942351,-0.25574957877168825,-0.9407849975713138,-0.22252132774825784,0
98,19.616666666666667,0.19263974440474385,-0.8975580677332871,-0.39658472477210155,0.06433110080113996,-0.9304884477813452,-0.3606282823284619,0
99,19.816666666666666,0.5859971435096987,-0.6737926575300944,-0.4501230970045932,0.33617012048131667,-0.8548698914588138,-0.3952051603569634,0
100,20.016666666666666,0.7072121665987056,-0.6637051366336141,-0.24361125388807614,0.5222775455642625,-0.7744231709539616,-0.3570643046973203,0
101,20.21666666666667,0.7241456363844987,-0.6684025687572617,-0.1698561255415401,0.5966531172740189,-0.760544554273145,-0.25608014099625,0
102,20.416666666666668,0.6379759260007913,-0.7681979757206341,-0.05346576420620396,0.583611736124714,-0.790577380484202,-0.1854312458142759,0
103,20.616666666666667,0.43540896249749256,-0.8944776709741536,-0.10163036704406501,0.48212220814512563,-0.8675250691849998,-0.12230466364300879,0
104,20.816666666666666,0.4120140095728386,-0.8970668096739893,-0.15973601628012205,0.3343866611941139,-0.9309744941406746,-0.14653345036191634,0
105,21.016666666666666,-0.2756830241775384,-0.9567329382609139,-0.09306425214315935,0.1686362638477576,-0.9718439224976726,-0.16456366798235647,0
106,21.21666666666667,-0.7473751632015808,-0.6632715086132616,-0.038746242286172315,-0.5156179077117856,-0.8498210346529096,-0.1092812074804217,0
107,21.416666666666668,-0.9162577082622901,-0.39011591757979697,-0.09100210382627977,-0.8496525551873485,-0.519776698480035,-0.0890096577951206,0
108,21.616666666666667,-0.9811353285336492,-0.13689443721229147,-0.13650413973026074,-0.9149608002496817,-0.3919149278894701,-0.09617392216112364,0
109,21.816666666666666,-0.9762088526286429,-0.17446423250937698,-0.12875755365951624,-0.9470529607381457,-0.30416361073969983,-0.10283573045834225,0
110,22.016666666666666,-0.9685703816940789,-0.1960203393815701,-0.15312557674575664,-0.9318316750157662,-0.34288711165136065,-0.11881985566688315,0
111,22.21666666666667,-0.9568276882529995,-0.022520622489597904,-0.28978198107387954,-0.9417957543942783,-0.2784781301884219,-0.18833663481031132,0
112,22.416666666666668,-0.6377873837421079,-0.026450745534266382,-0.7697581511098659,-0.8847532213710829,-0.13502293737328225,-0.44607235249069455,0
113,22.616666666666667,-0.651703668374589,-0.09552432494530733,-0.7524343373151223,-0.8009756167580835,-0.13267763925645892,-0.5838105047019462,0
114,22.816666666666666,-0.6263456210812508,-0.1072967620685408,-0.7721260051325491,-0.7511008962723887,-0.1535370506601118,-0.6420855221023201,0
115,23.016666666666666,-0.5970003394399509,-0.10670053601976916,-0.7951135707065233,-0.7282620592036968,-0.1722067884475103,-0.6633092756301435,0
116,23.21666666666667,-0.5662769256971413,-0.10520472787217726,-0.8174731852827563,-0.6958721330046755,-0.1823566122594438,-0.6946279871073305,0
117,23.416666666666668,-0.2826802730312819,0.013708264709191318,-0.9591162321208118,-0.6072992128688357,-0.14773738163543382,-0.7806159952988403,0
118,23.616666666666667,-0.3062648673247055,0.007008437853465138,-0.9519205391425456,-0.6119130517253445,-0.1493216664978123,-0.7767016525297804,0
119,23.816666666666666,-0.6991915403923308,0.08373006365474464,-0.7100144127298913,-0.6675082019189177,-0.12892211160296083,-0.7333565909643188,0
120,24.016666666666666,-0.7759500259880835,0.08612958768914357,-0.6248865907455456,-0.7418291187910673,-0.1168014831574091,-0.660338528367002,0
121,24.21666666666667,-0.9153321155274445,-0.041030638442279964,-0.40060405014561684,-0.8516220029817541,-0.15757168190887666,-0.49991112119831155,0
122,24.416666666666668,-0.994539603786259,-0.09004368722647116,-0.052755197766022145,-0.9540284145059649,-0.2111815252807271,-0.2126785078359833,0
123,24.616666666666667,-0.9670685329902442,-0.25384380081961827,-0.018487219519094614,-0.969413821626161,-0.24505674477936767,-0.01356592342237914,0
124,24.816666666666666,-0.9397721462408393,-0.3403585529659013,-0.031374648569263024,-0.9293448200451441,-0.36885230342482195,0.016315137555722493,0
125,25.016666666666666,-0.8597283679331269,-0.5094734481121673,-0.0361100960915453,-0.8893699606681301,-0.4551941476836171,0.04265396787819567,0
126,25.21666666666667,-0.9109306781959478,-0.36835676149654106,0.1857918076268474,-0.9146074079864465,-0.2986155666054863,0.272620675366338,0
127,25.416666666666668,-0.7876084737159957,-0.0705652077471914,0.612122082256763,-0.8923263335169338,-0.1895494960884985,0.4096641344379835,0
128,25.616666666666667,-0.7736607152631351,-0.10795464283108,0.6243355610164685,-0.8859002009745837,-0.19263645735430507,0.4219858163625591,0
129,25.816666666666666,-0.8122386358953346,-0.06777628889433783,0.5793744670095476,-0.9218753615762559,-0.13514107258757194,0.3631565891162218,0
130,26.016666666666666,-0.9342945948081045,0.002809556098224899,-0.3564908364977861,-0.9941250478005216,-0.10604898706360752,-0.021656446578178726,0
131,26.21666666666667,-0.9344037729377692,0.03232939997750399,-0.35474554122181234,-0.9871863764476072,-0.02881650428747131,-0.15694797621152476,0
132,26.416666666666668,-0.9498302010700119,0.05627493139958878,-0.30766169932455406,-0.9856426806715599,0.03318458462869476,-0.165551470490608,0
133,26.616666666666667,-0.9555742841310122,0.1960878961858362,-0.22006209232149998,-0.9825461197638192,0.04055153838038778,-0.18154529812706924,0
134,26.816666666666666,-0.9120702820650957,0.335827623567009,-0.23526072307767923,-0.9548926889760521,0.21709927080874555,-0.2026027126037464,0
135,27.016666666666666,-0.7283123963377673,0.6554600705254585,-0.1998328033319358,-0.866236324992864,0.46309693811191105,-0.1875522731779882,0
136,27.21666666666667,-0.7391379217776455,0.6445648723715894,-0.19547700093571183,-0.8394021778092524,0.5133864261188514,-0.17843307251178941,0
137,27.416666666666668,-0.6290726503386768,0.7276032030660088,-0.27360771093658487,-0.813032987159231,0.5521685626831078,-0.18462730073152492,0
138,27.616666666666667,-0.5979603818697391,0.7487492259582744,-0.2860384210924836,-0.7763329373403741,0.5983905247795431,-0.19808066602909424,0
139,27.816666666666666,-0.45475418765309056,0.8868719791921719,-0.08158873289699833,-0.6846629490332845,0.7065146908232348,-0.17909114403564205,0
140,28.016666666666666,-0.4097824127887813,0.9093705888015703,-0.07157867274328764,-0.6031453478188338,0.7846539686380852,-0.1432963324897082,0
141,28.21666666666667,-0.4830818525012368,0.8704570905353233,-0.0945324141273961,-0.5843649802968753,0.798401448836144,-0.14516437682495997,0
142,28.416666666666668,-0.34759736731104646,0.8343940177354159,-0.4277413861269209,-0.5495514953363054,0.816380626776959,-0.1775269731530689,0
143,28.616666666666667,-0.35506417357319886,0.8119914753374582,-0.46324861211241597,-0.5460448099766684,0.8058123336034511,-0.22913216384895532,1
144,28.816666666666666,-0.3453746527424677,0.811132344848146,-0.47199647073274625,-0.5343171888362772,0.8047947932138572,-0.258477237933949,1
145,29.016666666666666,-0.3074743989296311,0.8139362830615161,-0.4929170529803831,-0.49858037412237766,0.8146072735221949,-0.2963656533148304,1
146,29.21666666666667,-0.22013954136780037,0.8213400643636563,-0.5262500175748023,-0.46631634904190095,0.8269690091660049,-0.3141199141971557,1
147,29.416666666666668,-0.21569390552412113,0.8184591192504985,-0.5325418380141133,-0.4532618038348017,0.828427470947934,-0.3290314005733073,1
148,29.616666666666667,-0.23663873553496773,0.8144108202343288,-0.5298463218044074,-0.47331683751778725,0.8163277325935848,-0.33102900827688453,1
149,29.816666666666666,-0.19381260869677897,0.9076608144225277,-0.3722747891974198,-0.4844523580771963,0.8053103577504199,-0.3417325569115927,1
150,30.016666666666666,-0.225045840446765,0.9622740988657938,-0.15291477479182364,-0.4504975856107888,0.8365176247394565,-0.3119137522763425,1
151,30.21666666666667,-0.22892184033081114,0.9646259574021545,-0.13073466764990704,-0.4477427478037333,0.8502426842429226,-0.2767919971396422,1
152,30.416666666666668,-0.4464726126802227,0.8786334007444477,-0.1693090464881981,-0.46347936486809904,0.855029829327515,-0.23261743120760403,1
153,30.616666666666667,-0.45654007374084926,0.8718453792337723,-0.1773606376212597,-0.49053581975230576,0.8419654709771395,-0.22465252106793102,1
154,30.816666666666666,-0.6158471044217534,0.6968784763085325,-0.3675496337003215,-0.5266058978461372,0.8201917444931194,-0.22354357655499182,1
155,31.016666666666666,-0.6723393214591392,0.6325247307304867,-0.3845416776296031,-0.7218648637043641,0.6359388794944185,-0.27293380167444176,0
156,31.21666666666667,-0.9746948336419592,0.12836566023351237,-0.18300884826829475,-0.9408599259907511,0.26408551143313047,-0.21222969235189668,0
157,31.416666666666668,-0.9722677006132879,-0.176533154187108,-0.15340001244100543,-0.9914318447583714,-0.03814990978337839,-0.12492990667783693,0
158,31.616666666666667,-0.8378723161621148,-0.5457945048038467,-0.008851007573000043,-0.9298277738234129,-0.3672746930523364,-0.023013275949076265,0
159,31.816666666666666,-0.8654692665184548,-0.4998033893272,-0.0340517360651602,-0.8031910535567315,-0.5955634979088015,0.013720475394861705,0
160,32.016666666666666,-0.6527955100895583,-0.7493904307151174,-0.11077907906966993,-0.7689187322100888,-0.6393406039418729,-0.002752345848774195,0
161,32.21666666666667,-0.9791299705398997,-0.10266958365351044,-0.1753951464064783,-0.8470332965944033,-0.5298752044338257,-0.04203405983995413,0
162,32.416666666666664,-0.9782179219521397,-0.030679597601547,-0.2053008998096322,-0.9496444790717063,-0.3046115660468684,-0.07339725607338443,0
163,32.61666666666667,-0.9805391799581212,0.007157871645778731,-0.19619296990605437,-0.9858957672340871,-0.13818453161166452,-0.09441700785968761,1
164,32.81666666666667,-0.9822709002136388,0.01786868576776083,-0.1866134739573224,-0.9945470115411432,-0.06316949650292711,-0.08298106137033824,1
165,33.016666666666666,-0.9836580047770646,-0.00805894145599538,-0.17986657026977965,-0.9957725261518267,-0.06133787872979001,-0.06837207612863082,1
166,33.21666666666667,-0.9827816999461975,0.004387366316701917,-0.1847183836754359,-0.9961896101175991,-0.055329668621874314,-0.06741578794273549,1
167,33.416666666666664,-0.9803305706040173,0.018305374405736548,-0.19651179508382746,-0.9957188080651003,-0.05276853511369401,-0.0758916132874449,1
168,33.61666666666667,-0.9725173183999573,0.03930643957858881,-0.22948871261962125,-0.9931438992841513,-0.03451293949838866,-0.11168729704784001,1
169,33.81666666666667,-0.9198842066062355,-0.14006612761913606,-0.36632571071410797,-0.9749482880088522,-0.08231328959696113,-0.20664064959328599,1
170,34.016666666666666,-0.7230391415292488,-0.48841326641150645,-0.4885354449882733,-0.8771776221940653,-0.34376123275796233,-0.33524264939695814,0
171,34.21666666666667,-0.3747457401329225,-0.8182281655552595,-0.43596823203566476,-0.6791071338412781,-0.6483871490549156,-0.34410406232173935,0
172,34.416666666666664,-0.10593444368488497,-0.9095543422436828,-0.4018566811026483,-0.35698670268089316,-0.8729948216044888,-0.3323259477693096,0
173,34.61666666666667,0.36204504998983444,-0.9050907038288234,-0.2230116580372053,-0.0035704528594817098,-0.9685574358750395,-0.24876443732484604,0
174,34.81666666666667,0.33866044442489457,-0.9262487701470681,-0.16544581947869458,0.31254065529772257,-0.9456242161647437,-0.09007319572927745,0
175,35.016666666666666,0.400781290293504,-0.9106138447835992,-0.1007808664335905,0.4707887625413119,-0.8810847483392843,-0.045250495121274284,0
176,35.21666666666667,0.3486790515307203,-0.923815985994637,-0.1580725878968088,0.4574361782040685,-0.8871994113564077,-0.06024406492675653,0
177,35.416666666666664,0.31439449991535057,-0.9289758536682435,-0.19534574918419545,0.4201346233192631,-0.9025170875692617,-0.09460340868001763,0
178,35.61666666666667,0.6874337677309732,-0.7099530075781084,-0.15297562555517338,0.4571945828520661,-0.8841038716783832,-0.09660982089838632,0
179,35.81666666666667,0.7527555264126946,-0.6406311229923617,-0.15149548411980077,0.5816416639944989,-0.8048782818217484,-0.11774517466707866,0
180,36.016666666666666,0.831598662800908,-0.5531053583931015,-0.05018093805998822,0.7041035978243686,-0.704470001450875,-0.08921961996435648,0
181,36.21666666666667,0.8406523360630604,-0.5407803234596289,-0.029330728436547784,0.7528006544137458,-0.6549720953254587,-0.06559519082382884,0
182,36.416666666666664,0.3441732790392124,-0.9383839723179068,-0.03130933554489378,0.6438516948425743,-0.7644716151910848,-0.032220251635869175,0
183,36.61666666666667,0.03252641452319077,-0.9994617761676488,0.004265013256068751,0.36807931983718983,-0.9292749820806937,0.031074458758249057,0
184,36.81666666666667,-0.05131742164566039,-0.9986469319236316,-0.008415913210053026,0.12384549965739583,-0.9892242969051724,0.07808701958121857,0
185,37.016666666666666,-0.3362978356367316,-0.9416592639718828,-0.01347576795518921,-0.09546671787405653,-0.9913342755117351,0.09023558042135275,0
186,37.21666666666667,-0.40636355188969814,-0.9135951201502439,-0.014581499691389003,-0.2756007281113703,-0.9545489802143885,0.11349221575136052,0
187,37.416666666666664,-0.3974804916764079,-0.9175929751722232,-0.005691278526759157,-0.3025157170392153,-0.9473966165611587,0.10451742377574369,0
188,37.61666666666667,-0.39977612864135625,-0.916588711065664,0.006646932790009594,-0.3191468238222138,-0.9422283839573468,0.10173975284675986,0
189,37.81666666666667,-0.7109155478397824,-0.7026898858381272,0.028740358043392863,-0.4491948751110841,-0.8891151184319575,0.08773978772292522,0
190,38.016666666666666,-0.709671664619297,-0.7041984464480125,-0.02169507908909198,-0.6245223393667121,-0.7769778185598843,0.0792295216308454,0
191,38.21666666666667,-0.9327763223257475,-0.3604280642569246,0.004465759113502236,-0.7898550882815442,-0.6103503079770156,0.060012007699430346,0
192,38.41666666666667,-0.9410528165016352,-0.3382516003293476,-0.002334829538804695,-0.9194179123574094,-0.387962055266901,0.0644681790453637,0
193,38.61666666666667,-0.9926149155860283,0.0692179240022517,-0.0996218266895395,-0.9906508616713381,-0.12815577620605056,0.046765022130437324,0
194,38.81666666666667,-0.9738361106970537,0.21012949146806031,0.08653800504870938,-0.9973722003540102,0.04345049701863444,0.05797196106596729,0
195,39.016666666666666,-0.8644059050788184,0.08579466866204936,0.4954207364392793,-0.965911164592217,0.021157485110161165,0.2580077187603514,0
196,39.21666666666667,-0.5623436001807339,-0.0668730587231864,0.8241951646016715,-0.7552769145379423,-0.1128341440744012,0.6456200417405298,0
197,39.41666666666667,-0.5453726609647903,0.19747804540925928,0.8145987246819889,-0.6643475252571145,-0.1209665196612674,0.7375699741758663,0
198,39.61666666666667,-0.3782772535273735,0.2953495054747264,0.8773112270338399,-0.590790838295447,0.15143728560453337,0.7924852893996798,0
199,39.81666666666667,-0.2006910929126827,0.36025763118201665,0.9110090693295185,-0.48606206667552826,0.28694868622121106,0.8254720581673469,0
200,40.016666666666666,-0.044069992955527194,0.029422122005560068,0.998595100357292,-0.3730119677641842,0.35302343325731794,0.8580422643878957,1
201,40.21666666666667,-0.04041884340265393,0.026056215133753606,0.9988430260811234,-0.3186344401154869,0.3376625113779679,0.8856952760302012,1
202,40.41666666666667,-0.03695205356843059,0.03583898231939154,0.9986741776392271,-0.3124344741791609,0.3222367613590905,0.8936152242286363,1
203,40.61666666666667,0.03320393736594361,0.13327320345855193,0.990522968831765,-0.30223100288526644,0.325201047823573,0.8960472640376825,1
204,40.81666666666667,0.0199000451248098,0.13080951425300305,0.9912077780086899,-0.31724506900065824,0.3209546945956729,0.892380888528977,1
205,41.016666666666666,0.02802273916483533,0.15085788517710602,0.9881581981492594,-0.30348314588077885,0.34496350893637984,0.8881993907161873,1
206,41.21666666666667,-0.010561036986990579,0.14689388031738385,0.9890958762541989,-0.31516076740719057,0.354157810314677,0.8804805143104669,1
207,41.41666666666667,-0.03591978082816824,0.14767608120248285,0.9883832983139358,-0.3270551941466575,0.3606976471089718,0.8734598487347566,1
208,41.61666666666667,-0.26852140714766765,0.12101830371130441,0.9556415771984156,-0.3493303186050206,0.36618425737028154,0.8624832857264485,1
209,41.81666666666667,-0.1663995520220326,0.5070298517890873,0.8457138514187899,-0.36590891470482834,0.3901433846246136,0.8449253254419504,1
210,42.016666666666666,-0.462889095469978,0.5281098290756494,0.7119225335165857,-0.4133584472191627,0.4590193877540326,0.7864070166132014,0
211,42.21666666666667,-0.5430675042619747,0.503121288770113,0.6722697781404208,-0.5514372881787591,0.526594563251379,0.6470047010340386,0
212,42.41666666666667,-0.8938614170531202,0.4121424965034582,0.17649455991527113,-0.776104625334387,0.4775240730468678,0.4118645046557186,0
213,42.61666666666667,-0.8786352496668755,0.4023365147382528,-0.25714864757782346,-0.9261937045903762,0.37692919808522335,0.009465791461106666,0
214,42.81666666666667,-0.8347222748457679,0.29455774855037514,-0.4652681556320401,-0.9393378543910584,0.29960428962194374,-0.16697803732267738,0
215,43.016666666666666,-0.7906766556256313,0.27966365211619204,-0.5446270907085883,-0.9287432619033389,0.2630379873448532,-0.2612412116851302,0
216,43.21666666666667,-0.7768738895086301,0.2820678767133275,-0.5629428680835811,-0.9131883382687056,0.24924537407872654,-0.32243418297444076,0
217,43.41666666666667,-0.6468166761899956,0.08317606803860715,-0.7580962531949118,-0.8689577115081838,0.16641789440588822,-0.4660660683121768,0
218,43.61666666666667,-0.6895337870247327,0.09826382216883438,-0.7175565328279734,-0.8316996943592706,0.10908583594840615,-0.5444041686083363,0
219,43.81666666666667,-0.6768835628193066,0.16162983901107594,-0.7181256418805111,-0.8079112863464173,0.18613388862674032,-0.5591364134974269,0
220,44.016666666666666,-0.5976719302764629,0.5608429765803726,-0.5729253174542688,-0.7577487578519801,0.3361868919251612,-0.5592809612989532,1
221,44.21666666666667,-0.6456324362045581,0.5052512030584765,-0.572608050177894,-0.7413816416653303,0.3928163618544725,-0.5441034527192748,1
222,44.41666666666667,-0.6600843759727827,0.4903431228926046,-0.5690801687183892,-0.7484954690235088,0.3935783670577375,-0.5337139700583478,1
223,44.61666666666667,-0.6711522982920364,0.5058726653464246,-0.5418924606899618,-0.7560971905144417,0.3940801087635309,-0.5225111543049505,1
224,44.81666666666667,-0.7732648804645945,0.4686321924862581,-0.4271361525387416,-0.775647778101235,0.3679567805983321,-0.5128141300104043,1
225,45.016666666666666,-0.766061657607813,0.4776912248229943,-0.43007049476833226,-0.7776847676877727,0.36960453557938033,-0.5085261934114761,1
226,45.21666666666667,-0.6756465583572381,0.60309388216484,-0.4240041243612629,-0.7778267725595474,0.3869067509054992,-0.4952662697916632,1
227,45.41666666666667,-0.6658560698357588,0.6207015090273693,-0.4139629584323022,-0.7730398221187176,0.41724637878072446,-0.4778230768946115,1
228,45.61666666666667,-0.7898724583090471,0.42197487385853466,-0.4450153991008588,-0.7892180225163745,0.41118262920499243,-0.45614006442694005,1
229,45.81666666666667,-0.8014449245214548,0.41492941664193317,-0.4307198766762278,-0.8113218027251137,0.39567891563034163,-0.4303430354362304,1
230,46.016666666666666,-0.8040348677351636,0.4016877957130935,-0.43837751566572636,-0.8230057934756423,0.388705532239828,-0.41420945560390193,1
231,46.21666666666667,-0.8128702625868941,0.3990085482122276,-0.42430427131421206,-0.8390371863351751,0.38973682529663434,-0.37963378004921217,1
232,46.41666666666667,-0.752888938155322,0.5026675338596227,-0.4248336112018878,-0.8420264923050105,0.39426616096208306,-0.36816515394146326,1
233,46.61666666666667,-0.7523533770841679,0.5150224450772609,-0.4107508698185407,-0.8422548791264761,0.4000036487150619,-0.36139147693641394,1
234,46.81666666666667,-0.7561608807512807,0.520286060716788,-0.3968918460301928,-0.8375360583902351,0.4074914176308917,-0.3639836472333821,1
235,47.016666666666666,-0.7608936855604567,0.5186509199926554,-0.38992566274226853,-0.8370121601026674,0.40764960792651855,-0.365010193005103,1
236,47.18333333333333,-0.7649275882381842,0.514701192602404,-0.387257623663858,-0.8390595560486775,0.4025415784551651,-0.3659772383881554,1
