,timeStamp,x_gaze,y_gaze,z_gaze,x_head,y_head,z_head,fixations_head
0,0.033366700033366704,-0.9964205974500757,-0.014565292656292304,-0.08326971374437839,-0.9911841444411608,-0.041413367221588324,0.1258527902901419,0
1,0.2333667000333667,-0.9997244009257099,-0.012468890878040659,0.019890926423929412,-0.9896750806973569,-0.06198378234088337,0.1292332982377173,0
2,0.43336670003336675,-0.6241073303289375,0.0025727210720582453,0.7813343850976816,-0.9747649862985721,-0.08550231578383938,0.20621002759794468,0
3,0.6333667000333668,-0.49292108456250605,0.026518027629675433,0.8696698216014827,-0.9449583782675368,-0.0669821263290948,0.3202609218971619,0
4,0.8333667000333668,-0.8468441006185401,0.3484639411863151,0.4017809738408185,-0.9408753476093102,0.01598256356428174,0.3383757348318192,0
5,1.0333667000333666,-0.8238334677498995,0.42858571751697966,0.37096185808736615,-0.9324240213413099,0.100752623957601,0.3470365300531909,0
6,1.2333667000333668,-0.5532333204293433,0.05332111715960843,0.8313180809001901,-0.9071673765758953,0.0956035654675009,0.4097649437742438,0
7,1.4333667000333667,-0.8449587036615317,-0.1147428247650411,0.5223780941727585,-0.8885839512644191,0.019228563167974718,0.45831083765694225,0
8,1.6333667000333667,-0.8298338247840286,-0.10752223312915031,0.5475534609763972,-0.8862699969142672,0.0033606221219192826,0.4631567756046957,0
9,1.8333667000333667,-0.8786269261912425,-0.4200453096695601,0.22710495898665925,-0.9018200527010196,-0.07362085964469557,0.4257940365617006,0
10,2.033366700033367,-0.8681217709247367,-0.473839677467911,0.1477854894893442,-0.9096957584998242,-0.18379614040153655,0.3723877089015265,0
11,2.233366700033367,-0.9230394011794082,-0.3808242701435705,0.054508156637117174,-0.9145364972388718,-0.24842742236666085,0.3192284621306694,0
12,2.433366700033367,-0.9237507684074702,-0.38256688890529433,0.018085723096763158,-0.9199517658351242,-0.2776213956166334,0.2767943446544917,0
13,2.633366700033367,-0.9447770528868633,-0.32751554555275114,-0.011396831125236045,-0.9427026089267742,-0.23427436439881758,0.2375443396677427,0
14,2.833366700033367,-0.6616175199588212,0.16922328234071318,0.730496911695987,-0.9859849699039408,0.017117803279246013,0.16595366803544367,0
15,3.033366700033367,-0.5359287574115081,0.4188868759241647,0.7330171567963812,-0.8967140542465731,0.41420059359408695,0.15601850269432854,0
16,3.233366700033367,-0.23693604962366627,0.5831541335846793,0.777040902959319,-0.6237618256786144,0.7634482003392635,0.16753516115974396,0
17,3.433366700033367,-0.15283208012618538,0.9297681684202692,0.33492313786408034,-0.24700886048065457,0.958351181316732,0.1433514426605916,0
18,3.633366700033367,0.3653652328829783,0.6889842727887239,0.6259464181942098,0.18151636588998188,0.9690577615032991,0.16726883685943905,0
19,3.833366700033367,0.715725410653167,0.6790368710601121,0.16323622234739504,0.5154572540806805,0.836554203801222,0.18569028870166782,0
20,4.033366700033366,0.9238463555071502,0.3654402974054008,0.11384770726021916,0.7532708934824804,0.6402977152432658,0.15033894002007392,0
21,4.233366700033367,0.997469840710771,-0.0708688482284857,-0.005614554585822283,0.9514276556519432,0.29262465634346513,0.09568817356662386,0
22,4.433366700033367,0.9739195008975567,-0.01487917594448538,-0.22640542373067668,0.9914859005822098,0.1283915588116684,0.021709826636674888,0
23,4.633366700033367,0.8866752934639054,-0.42592725615861576,-0.17998026675691564,0.9997997890210353,0.01679101862582945,-0.01088317816633667,0
24,4.833366700033367,0.9084172360939311,-0.3632841015928459,-0.20688834355115765,0.9996543383222585,0.008499650266976588,-0.02487890308728751,0
25,5.033366700033366,0.9686103006255281,-0.15518693671485034,-0.194193460742594,0.9589209027147919,0.2817470959133989,-0.03300418581051247,0
26,5.233366700033367,0.755616935788395,0.6227443319267824,-0.20305798039678807,0.39638820842376243,0.9173135791767295,-0.0375790590698832,0
27,5.433366700033367,-0.8495079317116028,0.4568342600232633,0.2638915171582303,-0.5604350943366555,0.8270033023609658,0.044475194433765006,0
28,5.633366700033367,-0.9789530628766467,-0.006046510544943071,0.20399593229930377,-0.9373996920798706,0.3164767570733785,0.14534193999283831,0
29,5.833366700033367,-0.9641616362179892,-0.13543665230687763,0.22814305261689716,-0.9723039822329501,-0.015770788662836027,0.23318715307430482,0
30,6.033366700033366,-0.9234495469497417,-0.3528791836111177,0.15072231424798505,-0.9445771744790542,-0.1636500838490188,0.28459200886422575,0
31,6.233366700033367,-0.3760937358682809,-0.0006464267961049869,0.9265813963020396,-0.8822224622976814,-0.1563853192920396,0.4441026445849463,0
32,6.433366700033367,-0.39738733771243767,-0.020593692702246945,0.9174198622477641,-0.8626556618007618,-0.17512093644461366,0.47450802604576764,0
33,6.633366700033367,-0.3875376353519713,-0.022732051323257185,0.9215735646319505,-0.8543722475831235,-0.18336893630253484,0.4862344041293658,0
34,6.833366700033367,-0.39497130178543005,-0.02755023073120092,0.918280270697667,-0.8557249527545882,-0.20593268865132214,0.474685720217067,0
35,7.033366700033366,-0.7990622397754151,-0.5546128475579662,0.23217262174671155,-0.8430259914561494,-0.33004857097929097,0.4247059200481012,0
36,7.233366700033367,-0.8477038405368121,-0.5141910431413282,0.1304061727540993,-0.8277150528748218,-0.42229343003117004,0.3695349106606035,0
37,7.433366700033367,-0.7400671527324074,0.11417514360021169,0.6627704323749053,-0.8853377482939312,-0.34672696498298883,0.3097700489064708,0
38,7.633366700033367,-0.9552158533195102,0.23391788485735934,0.1812321624627894,-0.9408253498697168,-0.17753489758971727,0.28866766563010504,0
39,7.833366700033367,-0.973177844736913,0.19350702425190447,0.12441830282715471,-0.9590096791535292,-0.09790269623921616,0.2659238563178129,1
40,8.033366700033367,-0.9691602482858594,0.2264230529701109,0.09726774504523839,-0.9680961527694105,-0.0502661015255511,0.24548555564531618,1
41,8.233366700033368,-0.9678370059284118,0.23378677258838215,0.09292617993996784,-0.970559789751922,-0.022390226628928766,0.2398173727406133,1
42,8.433366700033368,-0.9691987992217631,0.23224438385699483,0.08195263115957714,-0.9722675133909148,-0.003848103759354832,0.23383984797742396,1
43,8.633366700033367,-0.9682468399425282,0.2407526938733844,0.06735129793861806,-0.9748765914436877,0.019930723713812735,0.22185219788719912,1
44,8.833366700033368,-0.9625347771883356,0.26017136461948825,0.07640460545696735,-0.9729179918881038,0.05013964280081208,0.22564706353114075,1
45,9.033366700033367,-0.9768984493905919,0.19507985164138902,0.08725406043177071,-0.9718243765875617,0.09302437393966687,0.2165729598156943,1
46,9.233366700033368,-0.9795996667874685,0.1820330839005263,0.08513782470526988,-0.971570426591601,0.10052317987594238,0.21435017256872874,1
47,9.433366700033368,-0.9796190682460476,0.18158865674897276,0.08586058973038231,-0.9699296878900188,0.10748956366220014,0.2183629873702971,1
48,9.633366700033369,-0.9770660297356741,0.19637754821761502,0.08232759010565599,-0.968603850517261,0.11747986783008034,0.21910057375041925,1
49,9.833366700033368,-0.9752114817597848,0.20762796857704124,0.07650615993798471,-0.9681219808848252,0.10883315516608516,0.2255995887944772,1
50,10.033366700033367,-0.9511297906135355,0.30265723695635116,0.0612431083910641,-0.969423710257034,0.07949571938499286,0.23215964462186128,1
51,10.233366700033368,-0.7099404618409535,-0.661938759783234,0.24046126286303954,-0.9476362845726352,-0.23110939417005755,0.22039491847073317,0
52,10.433366700033368,-0.6787730702563814,-0.7288431450047663,0.08974847672404594,-0.7554210345051482,-0.6241807741390238,0.1993424737038758,0
53,10.633366700033369,0.02005648085186651,-0.9821734228336967,0.18690399956924267,-0.4306534373627613,-0.8765975370511235,0.21474257827348187,0
54,10.833366700033368,0.01963715046364961,-0.9964768096498621,0.08153741565502821,-0.030722543119723278,-0.9795178088164452,0.19899996873287845,0
55,11.033366700033367,0.6887442318205594,-0.7223595391524366,0.0618714742784365,0.36595434291117546,-0.9133434089740312,0.17855317467954918,0
56,11.233366700033368,0.9102962667985656,-0.4137977516279825,-0.011494668338907749,0.6997263342026758,-0.7002570719913314,0.141502969401396,0
57,11.433366700033368,0.9712001460256451,-0.21175606721016355,-0.10922291133022705,0.8532429229522961,-0.5148611585037829,0.08303313733663634,0
58,11.633366700033369,0.9379294703328416,-0.2820745945648867,-0.2017975019226205,0.9188200308905754,-0.3932714197016447,0.03327673782231469,0
59,11.833366700033368,0.9304610262881063,-0.2748377989036292,-0.2422941659485264,0.9581661935077732,-0.286006561912745,-0.010853209740726035,0
60,12.033366700033367,0.9727011097762284,0.19676198315254362,-0.123033625590617,0.9858150504091663,-0.1675402767966025,-0.009946961228963113,0
61,12.233366700033368,0.9685640763749932,0.20061199235325758,-0.14710016478547244,0.9938775102397807,-0.10944192058709383,-0.01516445375815444,0
62,12.433366700033368,0.9655103560313834,0.2067911101253379,-0.15819983934657536,0.9978306840574047,-0.06457175737360346,-0.012822406295870946,0
63,12.633366700033369,0.9694837384205783,0.18324985999405805,-0.16285198724675654,0.9978876758257854,-0.06376433243857813,-0.012421607934360254,0
64,12.833366700033368,0.8894550392427519,0.42850205187552237,0.15892049806158218,0.9985468799161318,0.02656966035801433,0.04688477106927402,0
65,13.033366700033367,0.7685344532060042,0.5399577127065168,0.34322072012641547,0.985915629415048,0.12090894248255686,0.11554825530002484,1
66,13.233366700033368,0.85941235353639,0.45962384665489664,0.2239560809069468,0.9699045286545037,0.18042103712552587,0.16350368392802228,1
67,13.433366700033368,0.8665607101796784,0.42752738859891815,0.2574740133890821,0.9660756659246171,0.18069098294952887,0.1845225633602594,1
68,13.633366700033369,0.8874170109208311,0.38368012912573457,0.25550069910353984,0.966627666867756,0.1650279109296404,0.19595086695393216,1
69,13.833366700033368,0.891442928530734,0.3708295688361082,0.26041301052246685,0.9663402219038393,0.16446470576007768,0.19783310160357295,1
70,14.033366700033367,0.8968799439102516,0.34835270955118874,0.27250092836518797,0.9670869508574685,0.15851332800268225,0.19903857497158348,1
71,14.233366700033368,0.9067245628840744,0.33137201577966546,0.2608508275256295,0.9701032607714942,0.14358453863903634,0.195660787344653,1
72,14.433366700033368,0.926236814544672,0.29654155827613227,0.23269823290541392,0.9765914003345593,0.11493342505977835,0.1818228384901434,1
73,14.633366700033369,0.9238394121062444,0.2453544867115749,0.2938059163626359,0.977466960852642,0.10853528394243155,0.18104814989674908,1
74,14.833366700033368,0.7776879993254885,0.0970652957923682,0.6211116679453537,0.9777473737647889,0.10961540646625861,0.17887016453644544,1
75,15.033366700033367,0.7022770351843459,-0.02117283445390146,0.7115888398041895,0.9820150867784907,0.07912889422892448,0.17142049888371366,1
76,15.233366700033368,0.690697619353259,-0.08993537802535115,0.7175293906169821,0.9856380383485553,0.0389218084109587,0.1643251356014426,1
77,15.433366700033368,0.6839952482382777,-0.11221761089526783,0.7208035156631906,0.9863188688313218,0.023321986001196622,0.16319060621329234,1
78,15.633366700033369,0.7219465772475884,-0.10837276088408358,0.6834094558160969,0.9862873262706838,0.02058285974312456,0.16374875853764614,1
79,15.833366700033368,0.7383582007428768,-0.11552272546831888,0.6644408681712116,0.9861552724041271,0.011753715197994464,0.16540746321912506,1
80,16.033366700033366,0.7875836061292093,-0.13154632464880578,0.6020030131385572,0.9860098645715134,0.0036221601639339364,0.166647613014447,1
81,16.233366700033365,0.7875738434997146,-0.13416749743591316,0.6014370487980201,0.986121807938206,-0.000814780865424997,0.16602143247432033,1
82,16.433366700033368,0.9268785277028903,-0.36824506209584723,-0.07274454704889041,0.987452278239673,-0.002194936734536334,0.1579024396645325,1
83,16.633366700033367,0.9274388082771898,-0.35728968283535856,-0.11045967336903922,0.9885461800912574,0.012900793461181028,0.1503662839703615,1
84,16.833366700033366,0.9240395088283315,-0.36184010596001726,-0.12338040299471811,0.9892417070706195,0.011831949856873152,0.14581100765919994,1
85,17.033366700033366,0.755243081057129,-0.03437244930972419,0.6545429116901239,0.9891973068829832,0.0031524390151309607,0.14655630380065301,1
86,17.233366700033365,0.733065973580781,-0.0705699847526551,0.6764866263497542,0.988169339666985,-0.021813982600648617,0.15180746458989922,1
87,17.433366700033368,0.7186988811046152,-0.09847660586372696,0.6883126298394755,0.9862258127498458,-0.05296288180203621,0.1566958181226589,1
88,17.633366700033367,0.7946240398790329,-0.15669480820006665,0.5865316464859078,0.9858871244073658,-0.06378738287381161,0.15478290510868864,1
89,17.833366700033366,0.791482350858555,-0.16212396186601655,0.589297470950183,0.9859060595604644,-0.06013370369914903,0.15611911926916897,1
90,18.033366700033366,0.7819108063251737,-0.1656280223839258,0.6009848992721089,0.9833635290610916,-0.06730788883403772,0.16871816088738273,1
91,18.233366700033365,0.7795417423557001,-0.17762337750175142,0.6006368351091277,0.9818510489951061,-0.08754804996268616,0.16823750038246793,1
92,18.433366700033368,0.5529195798917745,-0.12166299637134347,0.8243045878109925,0.9809742443019124,-0.09253937472892136,0.17066340012162087,1
93,18.633366700033367,0.7085904192549826,-0.16535746123006778,0.6859712295392532,0.9805761789850452,-0.09923590621854081,0.1691821270822474,1
94,18.833366700033366,0.9895695515102624,-0.14016014717841888,-0.03327515389449935,0.9855139286523665,-0.11144937877842476,0.12783322104242545,1
95,19.033366700033366,0.8461477928534871,-0.18687619458919968,0.49911040917319327,0.9877398624152353,-0.1097222020877887,0.11104504745795261,1
96,19.23336670003337,0.7895372501545485,-0.18096172962977222,0.5864160494288975,0.9885479210121206,-0.10294147914673084,0.11034518446084336,1
97,19.433366700033368,0.787228912028408,-0.17439727796138343,0.5914864575848118,0.9881710202532107,-0.10202711495354136,0.11449236894215159,1
98,19.633366700033367,0.7898782452339912,-0.1635680435621243,0.5910480968849576,0.9881597416632472,-0.10178686014641229,0.1148031360963607,1
99,19.833366700033366,0.7963936416917045,-0.14714533854488618,0.5866049921519049,0.9893767395650604,-0.09196299026753789,0.11258985579821923,1
100,20.033366700033366,0.7800987057577795,-0.18714496158431726,0.5970115347534266,0.9905505627196944,-0.08192301980997464,0.10999182479125892,1
101,20.23336670003337,0.9232776632432796,-0.3838418756168806,-0.014958979876450349,0.9904613292327691,-0.08210462265802708,0.11065796958483942,1
