,timeStamp,x_gaze,y_gaze,z_gaze,x_head,y_head,z_head,fixations_head
0,0.033366700033366704,-0.9891478871669172,-0.14690598797841348,0.0022556616124686435,-0.989326615575071,-0.13016173788677798,0.06550396709413499,0
1,0.2333667000333667,-0.988306822847176,-0.15232645570138323,0.006802558869685597,-0.987401675175699,-0.14271246184022462,0.06834533704449677,0
2,0.43336670003336675,-0.928424149996703,0.257835010410377,0.2674877662802179,-0.9856512086581,-0.13722216830101355,0.09829431009776254,0
3,0.6333667000333668,-0.8083213471253301,0.4179700233557723,0.41462954472331903,-0.9830072182836199,-0.0243565334831728,0.1819438596902436,0
4,0.8333667000333668,-0.8279405835963294,-0.07185775739647564,0.5561931793326121,-0.9511907094060503,0.08443714830144455,0.2968275632860516,0
5,1.0333667000333666,-0.8191140491640366,0.0033602544497246516,0.5736208531357014,-0.8965737062488225,0.1484904720628529,0.4172603131976507,0
6,1.2333667000333668,-0.7096183022016838,-0.0005965839482213515,0.7045860552608126,-0.8281293522045223,0.13640846170615498,0.5436860377021643,0
7,1.4333667000333667,-0.5660177448902283,0.10778536768644671,0.8173164790838847,-0.7733989516480505,0.03572112966091022,0.6329123655652851,0
8,1.6333667000333667,-0.5490841260174539,0.04846654726242915,0.8343606033077711,-0.7569431113503586,-0.08049172537636888,0.6485045939121585,0
9,1.8333667000333667,-0.5061196148539743,0.051873691197166415,0.8609018850145735,-0.7403748141031259,-0.10240348389192579,0.6643482980549869,0
10,2.033366700033367,-0.2834056784030824,0.10074983487245835,0.9536931855801745,-0.6116025781375629,-0.027311230723689024,0.7906936088598693,0
11,2.233366700033367,-0.11123663674636401,0.17351143877423483,0.9785296067364813,-0.48084320121368107,0.08274526490515892,0.8728934854736601,0
12,2.433366700033367,-0.07103264327120105,0.3352709844554804,0.9394401154795122,-0.4532862970544875,0.11794085267822642,0.8835278649664448,0
13,2.633366700033367,-0.1042465713585701,0.3129122442275347,0.9440437382730051,-0.48450259468959955,0.11346469032919897,0.8674001382219997,0
14,2.833366700033367,-0.3603608503845255,0.2779076120326213,0.8904534893437541,-0.6020973759563668,0.05292648773129639,0.7966665154020762,0
15,3.033366700033367,-0.9816519364183512,0.008291420508780513,0.19050125477814656,-0.7605764281817202,-0.017352676406220877,0.6490164724534175,0
16,3.233366700033367,-0.9808497768994098,-0.18916278348546095,0.04638056166554328,-0.9053949194455705,-0.06681162520398715,0.419280629864714,0
17,3.433366700033367,-0.9080842568276704,-0.41799494480965027,0.025752837034297302,-0.9504824934067453,-0.18188491381802954,0.2519938647124267,0
18,3.633366700033367,-0.9123072480284015,-0.4075928758124421,0.0395415323651978,-0.9487028431149827,-0.2506795270449466,0.1926724946277244,0
19,3.833366700033367,-0.9307686981669542,-0.3648731695319318,0.023177589786602608,-0.9607897340402156,-0.23976520814005958,0.13926856044522565,1
20,4.033366700033366,-0.95035070450574,-0.23527049050943977,-0.2036696706456099,-0.9654594617591048,-0.22712728200226184,0.12767625256908594,1
21,4.233366700033367,-0.9532060782100897,-0.24967713837139366,-0.170468469336745,-0.9615677353944614,-0.24717658852386923,0.11954590889724938,1
22,4.433366700033367,-0.9577992342326551,-0.23764745819192212,-0.16169202985384976,-0.9511960936789965,-0.3044855670461967,0.050145097770110385,1
23,4.633366700033367,-0.9578580738794696,-0.2454376528660228,-0.14922556369312354,-0.9389086017997418,-0.341738487856391,0.04080984420554782,1
24,4.833366700033367,-0.9630278451921523,-0.2320362314426533,-0.13688154251925916,-0.9375980246302902,-0.34452802757231205,0.04701470436480827,1
25,5.033366700033366,-0.9656310449383685,-0.21890526975962957,-0.14013267970997695,-0.9415671285028151,-0.3340043091849929,0.043502459342196716,1
26,5.233366700033367,-0.9666215727515943,-0.21303200146282344,-0.1423379831386475,-0.9440115741963311,-0.3276034213795091,0.03896339415149835,1
27,5.433366700033367,-0.961731138616224,-0.22978459200468962,-0.14923893021989842,-0.9394402608625447,-0.3413243519658307,0.030816927582408928,1
28,5.633366700033367,-0.9877750491518789,-0.14941479855092557,0.04444851231469922,-0.9330750693401969,-0.35871757263884785,0.02631763773365321,1
29,5.833366700033367,-0.9864439950281935,-0.16101794038672082,0.03164597204125607,-0.9289107084579973,-0.3694749176700467,0.024762490278113645,0
30,6.033366700033366,-0.8979730367509258,-0.4226263180049976,0.12260269408891207,-0.9324081987805056,-0.3604100461085876,0.02682442004777342,0
31,6.233366700033367,-0.8907625050719207,-0.4336257404816498,0.13605468293938763,-0.9377645334166904,-0.34583005558130847,0.031610955733835065,0
32,6.433366700033367,-0.7922926073584342,0.3520730842028611,0.4983141255323385,-0.9646182033460964,-0.2397858896084513,0.10961044164692155,0
33,6.633366700033367,-0.7957585465255272,0.4349429111829337,0.4214178444765901,-0.9818723090407593,-0.10970376448117056,0.15456989615584119,0
34,6.833366700033367,-0.8944483066514439,0.3413327895287955,0.28888432550219134,-0.9858786171701975,-0.018484941656577984,0.16643815409494395,0
35,7.033366700033366,-0.8381764787547515,-0.08259497709510577,0.5391087647413505,-0.9645495042015428,0.03142486048181344,0.2620242967517639,0
36,7.233366700033367,-0.8681589137213858,-0.001612846521794432,0.49628368827939673,-0.9579161958102651,0.0918653588240331,0.2719509471440062,0
37,7.433366700033367,-0.6315693779504225,0.7419461370321081,0.22502455550105838,-0.9309956736152892,0.29797929175182425,0.2108444862847853,0
38,7.633366700033367,-0.3903500643027441,0.9068640221634643,0.1588221414172078,-0.8161622778280958,0.5664351759605095,0.11415046073074239,0
39,7.833366700033367,-0.43795681339824655,0.8962125830292885,0.07068829901776073,-0.6376548755835443,0.7692301153423389,0.04100352783537867,0
40,8.033366700033367,0.0357796319432106,0.998516091343925,-0.04105402861180553,-0.4217718899370258,0.9064520432606413,-0.021287698972826383,0
41,8.233366700033368,0.3778438426943708,0.9239187628990138,-0.06006787911277945,-0.14595116857359475,0.9857473630488782,-0.08366834905856084,0
42,8.433366700033368,0.603906604983329,0.7827820169942947,-0.15016366513858512,0.14413028155985913,0.9831577658785843,-0.11237112320390343,0
43,8.633366700033367,0.7096777622384505,0.6808707030353459,-0.18103192959359302,0.3190269248778521,0.9361895537011472,-0.14754979072783744,0
44,8.833366700033368,0.8522593720426248,0.522764199969096,-0.01927573594398545,0.42638380953475935,0.8888846592020987,-0.16757359458397678,0
45,9.033366700033367,0.874739575475732,0.48109453832611715,-0.058126760526598445,0.512122995252973,0.8346942504137276,-0.20252295193234063,0
46,9.233366700033368,0.872750562540657,0.26434459994186676,-0.41040027785875316,0.6091066195837886,0.7153790693570757,-0.34237685830823006,0
47,9.433366700033368,0.952338661306054,0.0772634687985962,-0.29509562953558194,0.8282798635961193,0.4223458950563158,-0.3682070239556464,0
48,9.633366700033369,0.9855433279653703,-0.03657275210801894,-0.1654290860344324,0.9138955481803642,0.2075485884184502,-0.348881800129529,0
49,9.833366700033368,0.8816556458900002,-0.47111162560853914,-0.027150659048465902,0.9406070541996168,0.10653417017183554,-0.3223489416388981,0
50,10.033366700033367,0.9029257839277162,-0.413158523219721,-0.11842746053774089,0.9548039521099972,-0.03129968574480954,-0.29558373214269856,1
51,10.233366700033368,0.8814964130444726,-0.45306886464312834,-0.13301382514879984,0.9546436585914366,-0.10752672376983474,-0.2776571425093943,1
52,10.433366700033368,0.7853768356395341,-0.34101408480733086,-0.5166165115478318,0.9543807242231793,-0.09978353176935678,-0.28142615375773744,1
53,10.633366700033369,0.8085198062177732,-0.35946236508703955,-0.4659211639747721,0.9578136492687113,-0.09409009376929026,-0.27155122450292934,1
54,10.833366700033368,0.7948814471352759,0.11195874742012271,-0.5963461443459217,0.953324763148984,-0.09229672171803684,-0.287494714954966,1
55,11.033366700033367,0.6906673725173669,0.03777735390430253,-0.7221851923654666,0.9548735688102754,-0.05652133808271371,-0.2915849892036075,1
56,11.233366700033368,0.707347502984844,0.06330331970451879,-0.704025709569966,0.9549087156535588,-0.0024463671210887957,-0.2968894744796112,1
57,11.433366700033368,0.5797284272548016,0.024102269726863138,-0.8144532099676985,0.9539943833100158,0.06489305432000757,-0.29271762521919215,1
58,11.633366700033369,0.9725664633238048,0.04459513503224541,-0.22831064002643928,0.9516231670151288,0.1221311939635048,-0.28195269011155905,1
59,11.833366700033368,0.9685490934926245,0.06687309103483614,-0.2396677767036324,0.9627207400401173,0.13088221760319252,-0.23672478073045083,1
60,12.033366700033367,0.9522877015876459,-0.2736274455473104,-0.13518932815933501,0.9677958238626919,0.12433918405239039,-0.21888583924758434,1
61,12.233366700033368,0.9086749513920728,-0.4013069183839638,-0.115163318681693,0.975756138974808,0.09108467023315957,-0.19900638206221496,1
62,12.433366700033368,0.8621959403598465,-0.35456912607929486,-0.36179952357398903,0.980180958058454,0.05596319546672938,-0.19003528675686504,1
63,12.633366700033369,0.827259248667622,-0.35467760501303836,-0.4357131303921157,0.9796310482182943,0.031712217648640795,-0.19828601720376482,1
64,12.833366700033368,0.9301303405530027,0.10310560422678895,-0.3524582017201249,0.9784199368407307,0.015527795380977455,-0.2060420218382345,1
65,13.033366700033367,0.9326400305399,0.07689760694925556,-0.3525185548024563,0.9798104382813447,0.05423549661702659,-0.19243184752432152,1
66,13.233366700033368,0.7993290451916519,0.48433293571210745,0.35566091280529233,0.984370909595491,0.16961385877063245,-0.04738197183615336,0
67,13.433366700033368,0.8764757013313763,0.4211106964227507,0.23335836461121,0.9393804476515597,0.3345746146728725,0.07499467838756473,1
68,13.633366700033369,0.887037346460103,0.4038577457435261,0.22374911661943375,0.923799972948242,0.364771523776659,0.11634150343915117,1
69,13.833366700033368,0.949925838693691,0.2658587946733601,0.16419501294776373,0.9251551045760379,0.35639091687172475,0.13066578300470238,1
70,14.033366700033367,0.954784584553695,0.25287406074740987,0.15633651684665248,0.9301767968485926,0.34293722446020325,0.13101597873551526,1
71,14.233366700033368,0.9628530761693247,0.2300276544702894,0.14142571155969483,0.9379606359507273,0.3232892083959621,0.12535522781926353,1
72,14.433366700033368,0.9664685685255343,0.22087717421577155,0.130964804289781,0.9392917718199494,0.32087157475062666,0.1215417619931233,1
73,14.633366700033369,0.8833813210735109,0.4393585768893509,0.16309960911106877,0.9412073247843895,0.3149728097755817,0.12215113947191858,1
74,14.833366700033368,0.983658048687871,0.0634610122620955,0.16849196768463573,0.9422309953405414,0.3129386621478371,0.11945771282212948,1
75,15.033366700033367,0.9857424480784234,0.06561751529469727,0.1549392388741706,0.9491383669831639,0.2927015058160334,0.1160266728539581,1
76,15.233366700033368,0.9891611773264842,-0.001569306079510559,0.14682541519952422,0.9564320230656944,0.2692200820715946,0.11295278953539473,1
77,15.433366700033368,0.9875766555546904,-0.04450022791902517,0.15070527236486078,0.9601186270666385,0.2571298370722672,0.10980195283719817,1
78,15.633366700033369,0.9886802632287501,-0.1465529569757551,-0.03214915090001264,0.9631674918582835,0.24666064733610146,0.10708364806616645,1
79,15.833366700033368,0.9872179026955795,-0.15793307522460906,-0.021399914659640733,0.9651441091566628,0.23902767738899966,0.1065955815323138,1
80,16.033366700033366,0.9857783248824659,-0.16709427191045992,-0.017905264215677806,0.9659022892600853,0.2376851133353611,0.10265746198345042,1
81,16.233366700033365,0.9428411915004251,-0.22550638152939242,0.2453515019305554,0.9658715456642182,0.2388002636381018,0.10033240434967738,1
82,16.433366700033368,0.9438609941823695,-0.23728114123821134,0.2298349052554058,0.9662547585261063,0.23839756211445037,0.09756200081764911,1
83,16.633366700033367,0.9864096691879369,0.12293424659867172,0.10900979564131777,0.9658846264109848,0.24080128457463262,0.0952975855419171,1
84,16.833366700033366,0.9914322408373032,0.0787285913265801,0.10423013353179646,0.9691534231639373,0.23112973363510037,0.08556102266447108,1
85,17.033366700033366,0.958126541865385,0.05178099495144233,-0.2816243212773308,0.9925460268983777,0.12108996163691642,0.013769737797618552,0
86,17.233366700033365,0.8446048663127389,-0.5222640253054324,-0.11782575131357043,0.9907565763760146,-0.13068811954201576,-0.036359617410670356,0
87,17.433366700033368,0.4195461264410938,-0.8478615512526867,0.32420955830398024,0.8918869482362797,-0.4517001887350508,-0.02246354964148284,0
88,17.633366700033367,0.46279042736001047,-0.8827055207066595,0.08158421451435374,0.6926083738495145,-0.7202273007846992,0.03957620090303891,0
89,17.833366700033366,0.6150799470051553,-0.6342629542731446,0.46838783462942135,0.7217659938815539,-0.6709060308823005,0.17011451378977216,0
90,18.033366700033366,0.6298223387167674,-0.5190247935147027,0.5778728972450273,0.8116335797948401,-0.460330549322461,0.35964804672053285,0
91,18.233366700033365,0.7379968282578813,-0.12443212506925119,0.6632324839240443,0.8481735925805965,-0.16579378843791234,0.5031043396397303,0
92,18.433366700033368,0.8399069448111127,-0.002690667220502856,0.5427237643294897,0.8438684915080129,0.16946841898518808,0.5090839066466859,0
93,18.633366700033367,0.47677831267744525,0.5964821851469035,0.6456713121727057,0.645102736467337,0.5779561544224009,0.4998091065273058,0
94,18.833366700033366,-0.16890790971599526,0.8229741155612197,0.5423870602730139,0.0987828455043464,0.8828860625412434,0.4590796771852184,0
95,19.033366700033366,-0.43321851780032944,0.7918280482486624,0.43049977681945384,-0.4406649793921278,0.8089335216335656,0.3891541256557012,0
96,19.23336670003337,-0.9155459158945431,0.34622451895816636,0.20470529636775042,-0.7462760693739539,0.6049470027842738,0.2776889484694806,0
97,19.433366700033368,-0.9066298634569234,0.3577873554031458,0.22363027299921454,-0.8845167555121827,0.416655031328557,0.20983015533235688,0
98,19.633366700033367,-0.9820788589881745,-0.18829375614991153,-0.008159419307962231,-0.9396864241276566,0.24244167762384727,0.2412705064053894,0
99,19.833366700033366,-0.9834791215531274,-0.15231213876213676,0.09782550717881647,-0.9733301677917203,0.04218163140003946,0.22549743776587058,0
100,20.033366700033366,-0.9867127732247181,-0.14740325714695926,0.0683387367285466,-0.9825753919571318,-0.14174909438832803,0.12021977108769547,1
101,20.23336670003337,-0.9363479195302535,-0.1573815250437578,-0.31382101453896766,-0.9678670303770627,-0.25103216363714526,-0.014705928353556219,1
