,timeStamp,x_gaze,y_gaze,z_gaze,x_head,y_head,z_head,fixations_head
0,0.03333333333333333,-0.9954863216716968,-0.08940613900248662,0.0318359179736261,-0.9965759865446363,0.06871144375898898,0.04598956989514439,0
1,0.23333333333333334,-0.995756973302404,-0.08736024195039901,0.028917784251274236,-0.996252857203165,0.07344931951200719,0.045666639659091776,0
2,0.43333333333333335,-0.9884021054536248,0.1483633714043636,0.03239734495869271,-0.9978815567932158,0.06477201931195666,-0.006081457571962866,0
3,0.6333333333333334,-0.7392824953424804,-0.6668645470046659,-0.09355783253398772,-0.9853055164744241,-0.13907279215561213,-0.09915542187450242,0
4,0.8333333333333334,-0.7851973837939549,-0.6192437309463389,-0.0015067072665811768,-0.9088889004161178,-0.3715006130939031,-0.18949475235804017,0
5,1.0333333333333334,-0.6644300997690696,-0.7472154905674662,-0.014200463967262888,-0.8518026513514732,-0.492492832038229,-0.17855826371682076,0
6,1.2333333333333336,-0.5299716765857716,-0.8475534529996935,0.02798510898965286,-0.7426292478158325,-0.6538388884914951,-0.1449017190536304,0
7,1.4333333333333336,-0.5404047122703366,-0.83873157774415,0.06702303671741358,-0.6163401915394789,-0.7816187306612029,-0.0959006161223612,0
8,1.6333333333333335,-0.5021210785946404,-0.8627464629094279,0.05952279536636686,-0.5186091707101966,-0.8524716093875014,-0.06585349833961396,0
9,1.8333333333333335,-0.6653792761278169,-0.7464250271377993,0.010958912444116935,-0.6125011742329297,-0.7867646400638816,-0.0764441803437866,0
10,2.033333333333333,-0.9976168997109776,-0.06279997629892639,-0.02857769038799446,-0.9570746411937908,-0.27318475704862877,-0.09684120868751149,0
11,2.2333333333333334,-0.8859160706468857,0.4624756769722355,-0.035622520666772364,-0.8730792901331341,0.46411769840994205,-0.14942327517251372,0
12,2.4333333333333336,0.045792888400568776,0.9149155947297176,-0.4010392323605017,-0.29631930524902633,0.9029207066097701,-0.31133433301203434,0
13,2.6333333333333333,0.28613595210831455,0.448626872624662,-0.8466759392294573,0.15221830903646624,0.7150445919111977,-0.6823055165925509,0
14,2.8333333333333335,0.22623218387781688,0.21801043033576012,-0.9493631819502432,0.24111942081856672,0.37849048204495844,-0.8936477941031881,0
15,3.033333333333333,0.18618351084830995,0.20274039908976146,-0.9613698720394361,0.2471303920774226,0.37405133314822175,-0.8938748063804559,0
16,3.2333333333333334,0.0203216376897488,0.06756844716311058,-0.997507662120734,0.24523712832855732,0.33497182534716946,-0.9097541575133078,0
17,3.4333333333333336,-0.021326468779573577,0.06228198388450283,-0.9978307152081483,0.12351776913947568,0.35923027177741584,-0.925038903260577,0
18,3.6333333333333333,-0.027117707574138176,0.031777390371134626,-0.9991270326625762,0.06139261459723676,0.34604071412340676,-0.9362087219428572,1
19,3.8333333333333335,-0.012791209518325346,-0.0423701539329431,-0.9990200974028287,0.016856551920685102,0.2838016731851645,-0.9587348261926479,1
20,4.033333333333333,-0.024766544000179913,-0.08246118145029387,-0.9962864908509544,-0.021617662648748717,0.2565145778221195,-0.9662985811985574,1
21,4.233333333333333,0.04283489233076518,0.07455779202869961,-0.9962962951084467,-0.010068299098549144,0.2658037817780795,-0.9639745738066607,1
22,4.433333333333334,0.034027260548552825,0.08207278088200458,-0.9960452821924591,-0.014380556250481812,0.27496040389117704,-0.9613479993706379,1
23,4.633333333333334,0.04922434194952871,0.09572998440733478,-0.9941894860865342,0.009282567947997054,0.29715424312423083,-0.9547843681824479,1
24,4.833333333333334,0.4635233740819566,0.785358981131007,-0.4103137244067585,0.2641970589443289,0.635386591716726,-0.7255920293882573,0
25,5.033333333333333,0.7093380559419739,0.6537335049385185,-0.2635754672067596,0.6679584407409027,0.6861472940593973,-0.28815518787269656,0
26,5.233333333333333,0.7781437519455414,0.6046864643667529,0.16984281297644566,0.8252495729024002,0.5647132838569481,-0.007877147955207093,0
27,5.433333333333334,0.93243067304758,0.29211062568523893,0.2127073631114247,0.9277808773386732,0.3555690799969547,0.11310735163905757,0
28,5.633333333333334,0.9860122203296622,-0.14684086873954252,0.07885214409505052,0.9895607452349805,0.0923461304450697,0.11064232319421081,0
29,5.833333333333334,0.9842341937231429,-0.16329803431548234,0.06794706685983017,0.9952409478812513,-0.00695516498825327,0.09719609735176937,0
30,6.033333333333333,0.9339407599943467,0.3452617927496082,0.09246053908835403,0.9284487357774506,0.3680328306693629,0.05034660448083905,0
31,6.233333333333333,0.16894826986802775,0.9726769016189857,0.1592360736940305,0.23665741881395008,0.971294568503758,-0.024085832255036098,0
32,6.433333333333334,-0.6250066700725075,0.7767254927584093,0.07787278898358613,-0.4752116050699641,0.8780504525651536,-0.05658032482195408,0
33,6.633333333333334,-0.7705861127312933,0.6369127935115504,0.02321930935640196,-0.7534947746815782,0.6541499530588787,-0.06582904708883806,0
34,6.833333333333334,-0.6252518849995541,0.7803766091925665,0.008510471762301032,-0.7952306471729069,0.6036630557364479,-0.05656087813934543,0
35,7.033333333333333,-0.2816773869250647,0.9587734548074586,0.03756743339167181,-0.6276613462708758,0.7774039179828338,-0.0410412317355541,0
36,7.233333333333333,-0.2436092874875252,0.9679279556583588,0.061400225609121804,-0.4559270365961966,0.8897085919439442,-0.023434135822224367,0
37,7.433333333333334,-0.19130729858540635,0.9771855931048641,0.09224876224778997,-0.3813851594558383,0.9243456211491522,-0.011425095589670049,0
38,7.633333333333334,-0.28254945458483005,0.9545235686236623,0.09513444515928059,-0.46301781949825366,0.8861333230425433,-0.019550770334238892,0
39,7.833333333333334,-0.9471699252095848,0.3195765520940007,0.02720220818573904,-0.7476280315355669,0.661960795331503,-0.05348113598585326,0
40,8.033333333333333,-0.9981952976015038,-0.05009257241080918,-0.03311920946389405,-0.9511668741786891,0.30404233951514764,-0.05329008582558456,0
41,8.233333333333334,-0.9270182633587066,-0.36979439895823735,-0.062363786755808434,-0.9988842789697149,-0.0024257464157533817,-0.04716262271629643,0
42,8.433333333333334,-0.9061162015536244,-0.4226513055825184,-0.01786905625443084,-0.9722296096292243,-0.22660563045616955,-0.058476272160324756,1
43,8.633333333333333,-0.898265729308651,-0.43908626051319544,-0.017942557736727396,-0.9482224085855793,-0.31151768747775227,-0.06189502600917278,1
44,8.833333333333334,-0.9165091209173692,-0.39964477624343175,-0.017178012009797836,-0.9471980286372255,-0.3156064372444109,-0.05664336956470898,1
45,9.033333333333333,-0.9276465246585013,-0.3726723094870545,-0.024233758078142698,-0.953856941331711,-0.29614321707145064,-0.049559362948736196,1
46,9.233333333333334,-0.9408449140966233,-0.3366630324465986,-0.03832558156607847,-0.9635348227684264,-0.2616662088418214,-0.05595927503967332,1
47,9.433333333333334,-0.9248823246538028,-0.34305425582735827,-0.16403189659854436,-0.9627662538635965,-0.2555946566270742,-0.08804834992857642,1
48,9.633333333333335,-0.9222823762401915,-0.3506951738908834,-0.1625057337031201,-0.9601411978512506,-0.2638408676544574,-0.09228692618193003,1
49,9.833333333333334,-0.9102976938457739,-0.381668092784195,-0.1602734398755487,-0.9470720606707328,-0.30833497406821625,-0.08935354309284188,1
50,10.033333333333333,-0.9076563441324652,-0.3940163155363152,-0.1446067219989271,-0.9390745525738918,-0.33627516539704894,-0.07111960239858427,1
51,10.233333333333334,-0.9148624068650858,-0.3797574823796328,-0.13715331232495026,-0.9387473026635277,-0.3389675904429371,-0.06208441327145319,1
52,10.433333333333334,-0.8777513704546903,-0.32282369943532746,-0.3540302116314403,-0.9300222745744398,-0.3390255915786129,-0.14184575090624799,1
53,10.633333333333335,-0.6986610553952539,-0.23889719016295372,-0.6743892512534846,-0.829241337876935,-0.29451336608802225,-0.47499545340094984,0
54,10.833333333333334,-0.6094641215381051,-0.18105090150607095,-0.7718640136848105,-0.7484926301187057,-0.2530675239596727,-0.6129564511243056,0
55,11.033333333333333,-0.6239839559385298,-0.16526592295124648,-0.7637612175558376,-0.7379110287994114,-0.22556441300931712,-0.636088051420522,0
56,11.233333333333334,-0.6401166438157377,-0.14842574328382566,-0.753804007047402,-0.7348933661828764,-0.19338636922693467,-0.6500257322119061,0
57,11.433333333333334,-0.29081102076831683,-0.0713389192939221,-0.9541172405913569,-0.6655359184238598,-0.1232093677887795,-0.736125935541466,0
58,11.633333333333335,-0.26367726913836076,-0.056541698982417586,-0.9629524048549432,-0.6193362803162618,-0.09361888193224151,-0.7795242631437294,0
59,11.833333333333334,-0.2888945664297509,-0.06533321355703114,-0.9551290492355876,-0.6279014334569267,-0.09498461425969221,-0.7724750565012921,0
60,12.033333333333333,-0.9627178296541258,-0.23394299282656214,-0.13581257884820935,-0.8199832134435475,-0.14277818791515287,-0.5542940724258729,0
61,12.233333333333334,-0.976470384545377,-0.20184685199950458,-0.0759173000290032,-0.9412777711171012,-0.14309791077039655,-0.3058090017216141,0
62,12.433333333333334,-0.9899094028094039,-0.12278421811488584,0.07073478643104612,-0.9822646798489398,-0.09600124921248596,-0.16105855727312962,0
63,12.633333333333335,-0.9880500850342122,-0.06899380389520708,0.13782918590761611,-0.9973132889110191,-0.04170460596511133,-0.06022399524094224,1
64,12.833333333333334,-0.9904604733915893,-0.0489389287634931,0.12881394295801385,-0.9991565384991823,-0.01834792731120698,-0.036736427938967364,1
65,13.033333333333333,-0.9938739632604313,-0.031165613338004248,0.10603419117562621,-0.9995949148960928,0.003018484798376041,-0.028300085925581094,1
66,13.233333333333334,-0.9954317662702635,-0.00988303211402553,0.09496275257329373,-0.9995405094568106,0.02573606691844574,-0.016013269946797512,1
67,13.433333333333334,-0.9968409041128574,-0.003144205160348385,0.07936199254914565,-0.9993582538087091,0.032536874272432306,-0.014981066617154778,1
68,13.633333333333335,-0.9979214114685852,-0.00495532063442187,0.06425185857200227,-0.9994904846253705,0.026461240022328688,-0.01784863915886029,1
69,13.833333333333334,-0.9985838557883185,-6.525258916414159e-05,0.05320036373028367,-0.9995174976516354,0.025286150906650776,-0.018038360805212244,1
70,14.033333333333333,-0.966989075856245,-0.2547057301825462,0.007557657498276027,-0.9998167643919934,0.0003700118197219381,-0.01913898461200669,1
71,14.233333333333334,-0.9445223725187402,-0.3282273746984874,0.012011590656912525,-0.9946980780357828,-0.10142476130144497,-0.016992685098734805,1
72,14.433333333333334,-0.9995027856336818,-0.014761100904489885,0.027862006578813166,-0.9920488752829609,-0.12427446020891433,-0.01987177872248507,1
73,14.633333333333335,-0.9994182449002489,0.001305515036229097,0.034080307965109816,-0.9929898920509383,-0.11731932795892697,-0.014396165181446628,1
74,14.833333333333334,-0.98508548471641,0.15798397868523206,0.06817367732358542,-0.9982406698976835,-0.058659747077198995,-0.008637073292686885,1
75,15.033333333333333,-0.9771689326352135,0.19862412399201654,0.0754276770221756,-0.9998835322986616,0.015156951664604425,0.0017856803153131317,1
76,15.233333333333334,-0.9836929628575348,0.16145697952976534,0.07924518020479013,-0.9959010592209819,0.09026662949609479,0.005745941345097356,0
77,15.433333333333334,-0.9782677916922081,0.1924543290196845,0.07715866107724956,-0.9891852689503469,0.14666634884199203,-0.0012189376477413662,0
78,15.633333333333335,-0.9646507954634352,0.24999900790672744,0.08336269463863026,-0.9748654129956996,0.22279033056213482,0.0013766454659775026,0
79,15.833333333333334,-0.9387854637547597,0.32680769630400563,0.10898891080853072,-0.9505030818236386,0.3103446092282376,0.015169540755672931,0
80,16.033333333333335,-0.9166228264116376,0.33315223230669405,0.2209347962866144,-0.9186956672692851,0.3924569772503053,0.04444988130688829,0
81,16.233333333333334,-0.8840776196785346,0.40457264678861626,0.2339395987300781,-0.8788745107410705,0.47399680487251494,0.05391310916921127,0
82,16.433333333333337,-0.8513779400264759,0.46608297503372614,0.24067044608756052,-0.8368272830614946,0.543357773145452,0.06695094238569972,0
83,16.633333333333336,-0.8548606086799081,0.5101667973514623,0.0945683805908137,-0.7890450155536792,0.6106116423918311,0.06753803080816596,0
84,16.833333333333336,-0.520264346822721,0.8528409122445831,0.04458012816216214,-0.7280883716256595,0.6823237476719953,0.06573907868489894,0
85,17.033333333333335,-0.3968190424164807,0.9176099681615082,0.022947634002295353,-0.635466915101661,0.7692205486701963,0.06694435984234022,0
86,17.233333333333334,-0.6542548547555396,0.742207046896275,0.1451870674899071,-0.547100910118121,0.8344013764894908,0.06674531489450554,0
87,17.433333333333337,-0.5773681893210186,0.7961435721581059,0.18111153047638717,-0.4578843733334692,0.885436396309236,0.07965104360854235,0
88,17.633333333333336,-0.5506784630934034,0.801305051806132,0.23380214762713172,-0.43054944324072064,0.8933424771353917,0.12871051033504513,0
89,17.833333333333336,-0.5134600396545326,0.8242569553696661,0.23866139026389288,-0.40182450909390355,0.90418427483386,0.14487187799780313,1
90,18.033333333333335,-0.39079868687367825,0.903158769339748,0.17770937989459337,-0.39155433684071533,0.9081032886672094,0.14843725412788855,1
91,18.233333333333334,-0.324692229955197,0.9280616421044079,0.18241859625924076,-0.3561437785656923,0.9222419391923913,0.15043741085118728,1
92,18.433333333333337,-0.22867639043934912,0.9441103978943749,0.23740822446443566,-0.2889837118642644,0.9446270640895295,0.15546100497149698,1
93,18.633333333333336,-0.17971371812823805,0.9475479172919626,0.26430271272196254,-0.26146360454508627,0.9521105609441247,0.1585000417569503,1
94,18.833333333333336,-0.3239015200081933,0.841018154112098,-0.43333159334424426,-0.3584998042485585,0.920741250952766,0.1539916853199581,1
95,19.033333333333335,-0.4809170841938665,0.7740863651919404,-0.41171477670154116,-0.5266665574146712,0.8325020333836829,0.17193807522771826,0
96,19.233333333333338,-0.9597367080508565,0.24319117141705618,0.14058273494460466,-0.7201655842786195,0.6724003555783336,0.17099500881243693,0
97,19.433333333333337,-0.9388315807087539,0.2847837164988464,0.19363237818352513,-0.8446848113610907,0.5086023616029635,0.16682687801360727,0
98,19.633333333333336,-0.9643704412839841,0.2478033089597445,0.09264541028208303,-0.9108195678318314,0.3911702868697008,0.13188450070008995,0
99,19.833333333333336,-0.9726461544052735,0.21615485364653414,0.08506784096048656,-0.9494119800745545,0.29611889988084833,0.1045489800250096,0
100,20.033333333333335,-0.99717831899881,0.07015317042186854,0.026719520925120192,-0.9722856777249784,0.22175791887410742,0.07405394187688163,0
101,20.233333333333338,-0.9967862515528009,-0.05647170387185045,0.05681650620309758,-0.986040526185035,0.15899198443865106,0.04945330732114023,0
102,20.433333333333337,-0.9819220092125523,-0.18910579289769405,0.008256325848643185,-0.9945271367802698,0.09773722685968718,0.03692165615755507,0
103,20.633333333333336,-0.981166265394019,-0.19277738369160524,0.012232742528689996,-0.9974085155768382,0.06826827460615793,0.022708935182137138,1
104,20.833333333333336,-0.9760437498496711,-0.21756578943645963,0.0019301933278271866,-0.9997457726177009,0.02223043361183949,0.0037680173123015985,1
105,21.033333333333335,-0.9669111443948784,-0.2548125440869508,-0.01238572649959758,-0.9990542786477585,-0.03931833379010622,-0.018563861224887266,1
106,21.233333333333338,-0.9820431117271066,-0.18784638327054157,0.017466052831679735,-0.9964219378156685,-0.07939849225826547,-0.028968970758085206,1
107,21.433333333333337,-0.9837750255268939,-0.1790260837925769,0.011677348648244485,-0.9950829217736104,-0.09052847003700382,-0.040181773321421976,1
108,21.633333333333336,-0.9853748688167541,-0.16926652746884574,-0.019626782288580214,-0.9953875531801559,-0.08161880879360464,-0.05041814182549649,1
109,21.833333333333336,-0.9890416919040618,-0.14235766778316422,-0.039125772821628706,-0.9971684647604097,-0.05283907728858879,-0.053507801287836165,1
110,22.033333333333335,-0.9928949618344831,-0.11054306784340191,-0.04404344350149513,-0.9985472811649898,-0.01956062120995639,-0.05020666664784483,1
111,22.233333333333338,-0.9952225424473689,-0.08701279096763523,-0.04428165774469004,-0.9989605496465224,0.004777197964447055,-0.045332092710648905,1
112,22.433333333333337,-0.9968081462889242,-0.06345900656495695,-0.04844041678007715,-0.9984875706831765,0.027906956339205407,-0.04736848086112007,1
113,22.633333333333336,-0.9977278825513358,-0.045577168897162755,-0.0496164695937526,-0.9979429572652647,0.044095428142845436,-0.04653436645703075,1
114,22.833333333333336,-0.9983431059598846,-0.02745218726580404,-0.05057094221679077,-0.9971267736248007,0.05978005832422052,-0.04652463806789091,1
115,23.033333333333335,-0.9985764226306714,-0.014248512674934677,-0.05140144018102254,-0.9963490542811808,0.07037919953815032,-0.048325255357484116,1
116,23.233333333333338,-0.9986156400544017,-0.005450701087801232,-0.05231723708672887,-0.9958418700061328,0.07620905952408923,-0.04991141341559913,1
117,23.433333333333337,-0.9550815230733897,0.05073048783390395,-0.2919686659351453,-0.9933329541314451,0.0924916609037779,-0.06881086323944367,0
118,23.633333333333336,-0.929176755182136,0.0678848482977319,-0.36334859983326057,-0.9592278556865947,0.13227867545724023,-0.24976843854693892,0
119,23.833333333333336,-0.7221474103052088,0.028057419290878963,-0.6911699494424048,-0.8371427710349726,0.11456998249074832,-0.5348511007897032,0
120,24.033333333333335,-0.5451835664904661,0.04409481663502987,-0.8371562136033269,-0.7607990792974546,0.09974322668908377,-0.641276890016938,0
121,24.233333333333338,-0.5242047206378271,0.06078729413975188,-0.8494199878341604,-0.7159932641785772,0.10826728582757951,-0.6896606705260462,0
122,24.433333333333337,-0.5315575828633277,0.0856793620463311,-0.8426776269842642,-0.7042697644336104,0.13084101845571489,-0.6977712567841258,0
123,24.633333333333336,-0.6250675818268041,0.25186867168853866,-0.7388184420891526,-0.7275245376584296,0.17486625611118664,-0.6634228211167787,0
124,24.833333333333336,-0.9481714666216174,0.26499219712696914,-0.17535679441194263,-0.8599540659236551,0.27388701825599365,-0.4306563661809898,0
125,25.033333333333335,-0.949346794001978,0.30778961621921996,0.06329468276081184,-0.9226840184020604,0.3198569682916657,-0.21528056582211777,0
126,25.233333333333338,-0.974717186094703,0.22008563434112755,0.038583943399916026,-0.9321654070771005,0.3497763201537157,-0.09340331743845771,1
127,25.433333333333337,-0.9684174189793475,0.23927031118776648,0.0701243238932708,-0.936289152336635,0.3495101259489483,-0.034717359863557715,1
128,25.633333333333336,-0.9664347688567549,0.24504803951178397,0.07717056353443387,-0.9399000780499833,0.3413056521009022,-0.009914389825580091,1
129,25.833333333333336,-0.9273856470722404,0.3603355176884151,0.10056926119159888,-0.9442422473207057,0.32915503227500514,0.007971392775633229,1
130,26.033333333333335,-0.9258593696510232,0.3651720032202072,0.09712793467149847,-0.9432068448851353,0.3318878771665503,0.014535637299734448,1
131,26.233333333333338,-0.9251823385420987,0.3671033440832987,0.09629525020805912,-0.9421655542471195,0.33480954028270077,0.015054571594861711,1
132,26.433333333333337,-0.9809051908191512,0.17311843153503362,0.0886285241155149,-0.9441031908756785,0.3292449430261533,0.01633806812531913,1
133,26.633333333333336,-0.9815881524139788,0.16979729274241195,0.08748473248435654,-0.9467651598250073,0.32124592337415453,0.020899494180845257,1
134,26.833333333333336,-0.9837422396124439,0.16217861502373276,0.07713172389670343,-0.949903392203658,0.3118768616694464,0.020405112967107963,1
135,27.033333333333335,-0.9853166667749963,0.1560163093485979,0.06935400055262507,-0.9521713725385728,0.3048778390739077,0.020473899473117535,1
136,27.233333333333338,-0.939708595123649,0.3303955295988432,0.08824143171910849,-0.9528279413795213,0.30339457180144874,0.008405232172827168,1
137,27.433333333333337,-0.937563269480292,0.33571404820185013,0.0909461025077558,-0.951340567533752,0.3081216178500709,0.003491873138254081,1
138,27.633333333333336,-0.9351288888008417,0.34121998738414555,0.09540902231794626,-0.9488560932277597,0.3157025948720545,0.0019964808050467187,1
139,27.833333333333336,-0.9363171751198767,0.33884442343719134,0.0921661775330402,-0.9478892328051558,0.31859579562260626,0.0016496495541886173,1
140,28.033333333333335,-0.9373124455269632,0.3383582846300162,0.08342092472813334,-0.9478583404893999,0.31868152673460126,-0.0025789305506288243,1
141,28.233333333333338,-0.9398384167641705,0.3326529785605397,0.07775439684685866,-0.949878287983787,0.3125656360605981,-0.0058276213864302704,1
142,28.433333333333337,-0.9398731803443534,0.3316860988126627,0.08138019859786212,-0.9510113221944922,0.30915293870551563,-0.0013876410297621782,1
143,28.633333333333336,-0.937533780887172,0.3374969980083278,0.08441674022829054,-0.9496101798158567,0.3134127130434152,0.0036024565038972347,1
144,28.833333333333336,-0.9810335135666848,0.192737856807281,0.02062434998591091,-0.9498922440264937,0.3124987923395582,0.007016375462447306,1
145,29.033333333333335,-0.9811864991013751,0.19231014361858095,0.01702535293579213,-0.9501743189975366,0.3116239226696451,0.007700281654000023,1
146,29.233333333333338,-0.9394145965824079,0.3406317212791396,0.0383437894100543,-0.9524238385010945,0.3046090316573897,0.010107902234809075,1
147,29.433333333333337,-0.9423601147773224,0.3299532452065565,0.055572205773515376,-0.9556946991810805,0.2941560088522836,0.010949174091201549,1
148,29.633333333333336,-0.9463038935793007,0.3224684726511869,0.02286974295147812,-0.9571185759171593,0.2894793221818614,0.011213994089479637,1
149,29.833333333333336,-0.9507469575224388,0.30974018890798155,0.011884365236480515,-0.9588349137500985,0.2838217286209074,0.008990802883005482,1
150,30.033333333333335,-0.958581405128824,0.28474726093587366,0.006378646468252944,-0.9633303965287121,0.268236499105514,0.006612690182668841,1
151,30.233333333333338,-0.9677678714870301,0.25183496332560135,0.002120887610418467,-0.9705084018990036,0.2410554701111349,0.0023879223065966155,1
152,30.433333333333337,-0.9857586009866457,0.15544954530952093,-0.06415153500824616,-0.9733867619148041,0.2291520956519133,-0.002743863580639606,1
153,30.633333333333336,-0.9842131775380047,0.16818980407987866,-0.055105453125045036,-0.9711445513650026,0.23841542604064628,-0.006028679782933876,1
154,30.833333333333336,-0.9834214750309916,0.1760465725626423,-0.04347190744394894,-0.9702801263853601,0.24188893881837353,-0.006798354133989066,1
155,31.033333333333335,-0.99630244663327,0.016460165514933654,-0.08432376760902635,-0.969754037405197,0.24408118830352063,-0.0012167385345143802,1
156,31.233333333333338,-0.9778391280994014,0.20772647140985176,-0.026083570181521975,-0.9646286133742148,0.2636124221137533,0.00035939819183335284,1
157,31.433333333333337,-0.9741049715560823,0.2216462236954565,-0.04463693438474354,-0.9598362133347965,0.2801659951695735,-0.01488148923197785,1
158,31.633333333333336,-0.9271239497219852,0.35693169186164925,-0.11419697542705175,-0.9543966419157329,0.29654682485410305,-0.03445330998499887,1
159,31.833333333333336,-0.9310888581292814,0.3437208167355723,-0.12218649029308369,-0.9617035505555698,0.26966811370639343,-0.049044768312702366,1
160,32.03333333333333,-0.9812033299789403,0.181694808544712,-0.06501555034097119,-0.9662728698685498,0.2534156132355014,-0.04579593785994388,1
161,32.233333333333334,-0.9879483284537991,0.14827748507956842,-0.04440594243817678,-0.9659477791675065,0.2551442176579078,-0.042968780726200986,1
162,32.43333333333333,-0.9843322344152474,-0.17577751948639067,0.013867802071649182,-0.9927698077546163,0.11753177825148935,-0.024380113041261205,0
163,32.63333333333333,-0.9415733455422409,-0.33025368547675643,-0.06612214601335449,-0.9998624313727951,-0.004339854557255953,-0.01600887228086979,1
164,32.833333333333336,-0.929829594916581,-0.3632971523240621,-0.05858415767504453,-0.9976727967757707,-0.0651443603745373,-0.020129651884827862,1
165,33.03333333333333,-0.9235727412626311,-0.3803982176725438,-0.048068571730196116,-0.9942350603198873,-0.10478212182502625,-0.02274536824400524,1
166,33.233333333333334,-0.9204942954698936,-0.3888210330937776,-0.03883884951014789,-0.9910121228483748,-0.13192562084346204,-0.02214955829412849,1
167,33.43333333333333,-0.9752141413563262,-0.09490329086268708,-0.19987682177300142,-0.989772359979976,-0.14108119976968564,-0.02113694611846704,1
168,33.63333333333333,-0.9757717427565852,-0.08194813288456146,-0.20286451033759217,-0.9910090891552885,-0.13126558846186362,-0.02589074153759059,1
169,33.833333333333336,-0.9036746735349368,-0.25988516741751694,-0.3403406883813552,-0.9882845384764584,-0.1353328053109066,-0.07055992357602091,1
170,34.03333333333333,-0.8103202020646498,-0.2771843577963981,-0.5162848069805107,-0.9396096148998277,-0.16922742683149058,-0.2974825198155184,0
171,34.233333333333334,-0.7315699104604722,-0.2923407616280757,-0.6159077408180336,-0.8573850665288222,-0.2308881067099839,-0.4599799233371458,1
172,34.43333333333333,-0.750062608793892,-0.27707417047960364,-0.6005297552514279,-0.8376021092370648,-0.23151953420854054,-0.4947943127012285,1
173,34.63333333333333,-0.7458178817494812,-0.2882399832809495,-0.6005609039064356,-0.8212834815585758,-0.24667367840448645,-0.514437109179951,1
174,34.833333333333336,-0.7078391000145253,-0.3964878183411558,-0.5846034710790705,-0.816999107157914,-0.2943332094589423,-0.49586330849617255,1
175,35.03333333333333,-0.6960525076983797,-0.37616097320753844,-0.6115667001745229,-0.8254098075969247,-0.26135493803681425,-0.5003920921503263,1
176,35.233333333333334,-0.6830715164590717,-0.3644364044679847,-0.6329292302467567,-0.82257177521483,-0.24744100423521165,-0.5120045156470726,1
177,35.43333333333333,-0.7485048733867797,-0.4598548023799908,-0.4777803001844056,-0.8594543961627141,-0.2674322348158752,-0.4356812374867337,1
178,35.63333333333333,-0.9081166998011755,-0.3670296671833647,-0.2015273751863269,-0.8925322387507477,-0.29628254469644727,-0.3400042007075444,0
179,35.833333333333336,-0.9723148661703845,-0.23229072842618262,0.025393276891746065,-0.9220991897335222,-0.27439511444748377,-0.27283769068831804,1
180,36.03333333333333,-0.7841133255122008,-0.33017202034058185,-0.5255023594032817,-0.9452136330629328,-0.2546569616355376,-0.20425723919246597,1
181,36.233333333333334,-0.8117340065102914,-0.3168616818007185,-0.4905981831205356,-0.9554403713417933,-0.24969971063761834,-0.1574285594094864,1
182,36.43333333333333,-0.8048850837418653,-0.33685559818441474,-0.4885573742577946,-0.9495098609790564,-0.2725817427307738,-0.15533904027445083,1
183,36.63333333333333,-0.810358531407156,-0.33384354316944015,-0.4815262601974183,-0.9523522842742042,-0.2671014638605692,-0.14724786803633647,1
184,36.833333333333336,-0.8273995434436265,-0.30503946683598987,-0.47155160818482345,-0.9635544380947387,-0.23035013893885992,-0.13602080105182593,1
185,37.03333333333333,-0.8543011058581084,-0.5149090256455982,-0.07098109493600524,-0.9716139695936818,-0.20107597436746674,-0.12463846365621685,1
186,37.233333333333334,-0.7711987317657746,-0.6345957709244253,-0.05040559143285303,-0.9526572044538458,-0.2861456696089179,-0.10278573133585953,1
187,37.43333333333333,-0.7823943252791464,-0.6219108860880813,-0.03295405189240003,-0.9234401956138264,-0.375290661623903,-0.08009447186036985,0
188,37.63333333333333,-0.7733561602800427,-0.6339129760264516,-0.00863644499759088,-0.9106279448888183,-0.40688603483609465,-0.07211449675986131,0
189,37.833333333333336,-0.987069613372443,-0.11223272436610256,-0.11444384622223494,-0.9325984412546519,-0.354287885304135,-0.06884941318644393,0
190,38.03333333333333,-0.9104737523249169,-0.41350196948871104,-0.0073258143808975235,-0.9675286660242347,-0.24357408362136926,-0.06752737377816079,0
191,38.233333333333334,-0.9053852669401757,-0.42448031919428025,-0.00969417476574277,-0.9724509144201434,-0.2239223353555212,-0.0647920270739879,0
192,38.43333333333334,-0.8923280421568341,-0.45135942755184616,-0.005033124339936784,-0.967757265060969,-0.2450818190283066,-0.05814445720349969,0
193,38.63333333333333,-0.8297746793067198,-0.55798082438278,0.011462163955567274,-0.9243706055821769,-0.3785927676699501,-0.04697339463618685,0
194,38.833333333333336,-0.867226022707466,-0.4963750592446203,0.03912577282162862,-0.8121940582831129,-0.5823914069414265,-0.034074342405879234,1
195,39.03333333333333,-0.8781607861086546,-0.4783304843962765,0.005794949374532487,-0.8046003430374082,-0.5928365475776859,-0.034104484166382856,1
196,39.233333333333334,-0.86526144844246,-0.5013202490391698,-0.0007960794943348783,-0.7902193953744608,-0.6128035256665926,-0.005014589177191562,1
197,39.43333333333334,-0.860363511833863,-0.5093021710923655,-0.019645000012869288,-0.7827032342181381,-0.6223530726276999,-0.007231883249003374,1
198,39.63333333333333,-0.8784933022495812,-0.4688642370106332,-0.09173791558054373,-0.8051363288173772,-0.5873016743684388,-0.08265733665262022,1
199,39.833333333333336,-0.8687896114433378,-0.4899185510875727,-0.07200294680350197,-0.790496417799996,-0.6059731360397771,-0.0889492655590374,1
200,40.03333333333333,-0.8649089360620303,-0.49850848545054705,-0.058496343935742476,-0.7840999841125497,-0.6134462438332353,-0.09418556599391589,1
201,40.233333333333334,-0.34822901023529196,-0.9357326891713597,-0.05604365126117831,-0.6513570424316121,-0.7549249487471654,-0.07630416131400099,0
202,40.43333333333334,-0.23872804427295635,-0.9710134087023637,-0.011911381020928903,-0.44534948803023255,-0.8927034248250403,-0.06887981429166,0
203,40.63333333333333,-0.14917553130412137,-0.9883254700525628,0.030974604202706632,-0.26702802492737815,-0.9610744622859766,-0.07093597003710432,0
204,40.833333333333336,-0.05147390829878895,-0.9966824116818597,0.06304448436207638,-0.10279079624836424,-0.9929097340469771,-0.059701861289149005,0
205,41.03333333333333,0.02423538394978869,-0.9995919197402742,0.015120851654587313,-0.0015843721331102456,-0.9990508925781586,-0.04352934416836942,0
206,41.233333333333334,0.016491990976963578,-0.9995977166943255,0.023074206662569798,0.02091741015837023,-0.9989264659621737,-0.04133252414974549,0
207,41.43333333333334,-0.06735299330954686,-0.9976903241479059,0.00880859772554101,-0.07913162627190584,-0.9955058982860883,-0.05202107458686309,0
208,41.63333333333333,-0.8801628085562107,-0.45781769398364297,-0.12536502506657382,-0.4921170560408187,-0.8684211656591236,-0.060543225789241865,0
209,41.833333333333336,-0.9100987717775085,-0.4131447520568857,-0.03211914471035558,-0.7808241450989806,-0.6210431488978106,-0.06796367881109859,0
210,42.03333333333333,-0.8619119758777163,-0.5070047581912094,0.007343092675737108,-0.9263867542176202,-0.37240959497389997,-0.055845099888162913,0
211,42.233333333333334,-0.9727199253661596,0.23093757916137778,-0.021995029591608296,-0.997487663523932,-0.0634204601462688,-0.0315627367698474,0
212,42.43333333333334,-0.9707615788578156,0.23982036806258458,-0.010399426705717404,-0.9887680584918805,0.1458547320426859,-0.032620908125822023,0
213,42.63333333333333,-0.906105958022627,0.4224164108267293,0.023159635147417628,-0.9539227644690264,0.29671968627209633,-0.04459582050326059,0
214,42.833333333333336,-0.8648436692610642,0.5010963390848245,-0.030787768591533003,-0.910325191813274,0.39864785108069756,-0.11130110502087658,0
215,43.03333333333333,-0.7547479444208516,0.44182148737053356,-0.48492196659894543,-0.8351766778794065,0.3742216082401113,-0.403036108373063,0
216,43.233333333333334,-0.7552795531557424,0.4813544502227381,-0.44480410276393345,-0.7948346965383315,0.3789001225535407,-0.4739963104368333,0
217,43.43333333333334,-0.47987650773653223,0.7022831800549385,-0.525848716205063,-0.7188140403262404,0.5270177575236237,-0.4533857724770789,0
218,43.63333333333333,-0.24616248102873642,0.8258381787951449,-0.507341438656548,-0.48188455338365527,0.7717286978894026,-0.4149964988577161,0
219,43.833333333333336,-0.22797448188295288,0.9553608586392996,0.18791824123852294,-0.3219421618165357,0.9316280623574065,-0.16858943582882072,0
220,44.03333333333333,0.20409732845316092,0.977709979161132,0.04926943440939371,0.019880075987620316,0.9925297552811637,-0.12037220385221907,0
221,44.233333333333334,0.3708177127179647,0.9267280031047663,-0.06057583838519537,0.24715557308188424,0.9630042821810174,-0.10740984682788275,0
222,44.43333333333334,0.43020706773203926,0.9001094075106136,-0.06873815086466285,0.4993054437867408,0.8627109410720213,-0.080149272982062,0
223,44.63333333333333,0.36052321864418047,0.9249478014075603,-0.1203934113220539,0.49885059904539597,0.8559564271270835,-0.13596571145655525,0
224,44.833333333333336,0.046667684748215366,0.9176910013078136,-0.39454448838997064,0.1435322187610208,0.9169251861824289,-0.37235293086245036,0
225,45.03333333333333,-0.15310484663088644,0.8213803432363234,-0.549448121011541,-0.0803320143955672,0.8645956526148666,-0.49600516624590063,0
226,45.233333333333334,-0.02977925497989914,0.6265978870838186,-0.77877357676987,-0.09375125345250448,0.7716397721075381,-0.629112680350596,0
227,45.43333333333334,-0.1141797160271042,0.4896947332928916,-0.8643853658138677,-0.1350085215262059,0.7145941721514741,-0.6863875495974978,0
228,45.63333333333333,0.017184744516749825,0.488617060849276,-0.8723290963867418,-0.12006968021340325,0.7403703661150328,-0.6613886851709392,0
229,45.833333333333336,0.06623095129229029,0.4334945813923289,-0.8987190378502106,-0.041516752035063,0.7179173827390728,-0.694889193225466,0
230,46.03333333333333,0.02655095766859989,0.2618362044828258,-0.9647470386940342,0.011561236695328075,0.620113526418981,-0.7844268940814628,0
231,46.233333333333334,0.031504184631493834,0.3042275831867698,-0.9520782866860489,0.03205515841542758,0.6448175329456566,-0.7636640727602938,0
232,46.43333333333334,0.03911065332758714,0.3067895055534344,-0.9509734781152253,0.058812769238612284,0.6468939930032036,-0.7603086346943962,0
233,46.63333333333333,0.06154975329430802,0.4184647576620916,-0.9061450625944043,0.10094491073109718,0.8289259099154421,-0.5501744822039164,0
234,46.833333333333336,0.12773775809936416,0.5999510974878942,-0.7897732242731578,0.15256231124916547,0.9218421828193295,-0.3562747972579693,0
235,47.03333333333333,0.136192230371836,0.7297537081205592,-0.6700083595528035,0.12881907496054185,0.9727218814724136,-0.1929191209576646,0
236,47.233333333333334,0.22976355954051808,0.9719067320684768,0.05104910251165453,0.09771234987135752,0.9807555488415362,-0.16902913979298026,0
237,47.43333333333334,-0.16553609782812223,0.9857681443901879,0.029308118693703734,-0.08567624039124644,0.9875367906150133,-0.13202525900077203,0
238,47.63333333333333,-0.42889301627017684,0.9017554360117265,-0.05373931724511148,-0.3196300143992707,0.9399507557860949,-0.11970476428393036,0
239,47.833333333333336,-0.5319256140997872,0.8427979899936062,-0.08213823182478129,-0.5558438280491224,0.8188729259737489,-0.14312501502843183,1
240,48.0,-0.6532536119855711,0.7526829583965731,-0.08202488992487406,-0.6658690898742632,0.7308796683939902,-0.14977738640499524,1
