,timeStamp,x_gaze,y_gaze,z_gaze,x_head,y_head,z_head,fixations_head
0,0.03333333333333333,-0.9787176083211653,-0.12568428694746028,-0.16221992225558,-0.9994591288716352,-0.0279014302693202,-0.017405743422179053,0
1,0.23333333333333334,-0.973087442908789,-0.10029069618310583,-0.2074671171832818,-0.9989543439475831,-0.0154059180279413,-0.043045050795305656,0
2,0.43333333333333335,-0.9968455664248091,0.0785252925523686,-0.011519337166981067,-0.9990574043221186,-0.015757236028662948,-0.040447649893263146,0
3,0.6333333333333334,-0.9960550195612814,0.08797356207542774,0.011621117955524039,-0.9995143159207039,-0.015603631476745731,-0.026975154388906703,0
4,0.8333333333333334,-0.9635045669888386,-0.23923358476055814,0.12010928904237066,-0.9248984975981422,-0.3706763684634638,0.08462741283672491,0
5,1.0333333333333334,-0.7046360177452735,-0.708377310326818,0.04110558003758139,-0.698974844042074,-0.7092673075096108,0.09150985681567615,0
6,1.2333333333333336,-0.6373756149008262,-0.7700773771223614,-0.027076904810896908,-0.6697019854738044,-0.7385851217144627,0.07740328568269415,0
7,1.4333333333333336,-0.6279577784729129,-0.7781261094385511,-0.013739951433254618,-0.6492474701671183,-0.7553385910867384,0.08911417001071152,0
8,1.6333333333333335,-0.40676683013960807,-0.9133131167311725,-0.01999741745742807,-0.587350439373471,-0.8062454270301336,0.07062416555817293,0
9,1.8333333333333335,-0.5850016487415122,-0.8110232262081096,-0.0037944065019390187,-0.6548651290891081,-0.7534985847340498,0.05823697714416517,0
10,2.033333333333333,-0.9019440720156559,-0.42841444129531153,0.054387107345802446,-0.9383591770583937,-0.32129784448189264,0.127474507104691,0
11,2.2333333333333334,-0.9666025601137128,0.20735814499857602,0.1506057451904338,-0.9292687172375351,0.3042613488142954,0.20948671266075986,0
12,2.4333333333333336,-0.2792638633210306,0.9536793415287497,-0.11183652437510379,-0.6131002440013418,0.7666059044346692,0.1908493596829655,0
13,2.6333333333333333,-0.03791206964294336,0.9909223772996884,-0.128978746862121,-0.3157449423229008,0.9472029107108028,0.055783306987765326,0
14,2.8333333333333335,0.18090236229663953,0.9312666241805034,-0.31625434384834034,-0.057691807635856185,0.9818214578119672,-0.18082665818869487,0
15,3.033333333333333,0.16756622373168847,0.587775742255228,-0.7914804087787757,0.1478145272280726,0.9518662735795279,-0.2685171554336246,0
16,3.2333333333333334,0.03749766923175424,0.6792083603064591,-0.7329869903975086,0.20214505274950528,0.9415660476484649,-0.26942671650107153,0
17,3.4333333333333336,0.5648708770577353,0.7951555797223814,-0.22056404124060736,0.31244506007814743,0.9326913574813134,-0.18018023230207053,0
18,3.6333333333333333,0.6535810944913432,0.7555702997341704,0.04410527273596676,0.40651504531557797,0.9108622957994154,-0.0712418137268541,0
19,3.8333333333333335,0.6853850975030747,0.7229847866964223,0.08683470692200022,0.48708549739062795,0.8733104026240615,-0.008755506857107551,0
20,4.033333333333333,0.6231795740581076,0.7759660284821808,0.09759068151389763,0.4239315700006029,0.9052816052269457,0.027335676222628825,0
21,4.233333333333333,0.38431733959768594,0.9163579291624206,0.11219771898624648,0.12076053899301586,0.9898467223505185,0.0749690501077073,0
22,4.433333333333334,-0.21887167569206478,0.9392400240752188,0.2644302682276187,-0.4822053131469958,0.8470658429062817,0.22351173068606126,0
23,4.633333333333334,-0.7155956991833157,0.597644910492437,0.361584507788745,-0.8770830747106626,0.3882406627281111,0.28283293277220667,0
24,4.833333333333334,-0.9784464681606264,-0.20554031725337243,-0.019891880941215384,-0.9668093931706385,-0.08614787732564841,0.24053719153034692,0
25,5.033333333333333,-0.729091403996259,-0.6799697209069064,-0.07789032846604052,-0.8866656566710521,-0.3996636752201517,0.2325789328155356,0
26,5.233333333333333,-0.703640996827618,-0.7064273826850812,-0.0764833352838525,-0.6014982022132226,-0.7820096817199291,0.16328126172514892,0
27,5.433333333333334,-0.1539913285278423,-0.9866458303318018,0.053072367830159284,-0.16691203867556953,-0.9817954184046653,0.09065388984910483,0
28,5.633333333333334,0.24984802572973291,-0.9682657359146135,-0.006117899368795468,0.15063964686317688,-0.9878909075126655,0.0371382773798082,1
29,5.833333333333334,0.4543526374811029,-0.8893275254322147,-0.051577449748693494,0.2848891761349847,-0.9582055127621192,-0.026083570181521323,1
30,6.033333333333333,0.4701958722103298,-0.8825496091471583,-0.004693522191907317,0.30535320222899714,-0.9522198805648551,0.006059780982082355,1
31,6.233333333333333,0.44710619130278995,-0.8942743135211378,-0.01922253560305783,0.28250145196433285,-0.9592646510405703,0.0020637107492836263,1
32,6.433333333333334,0.4591240224237872,-0.888246622463011,-0.014935518620230933,0.2944011558139272,-0.9554106932411234,0.022767667775594504,1
33,6.633333333333334,0.46552241690659507,-0.8847806481486986,-0.021262267494592636,0.301130633993253,-0.9533620188760086,0.0205232121141488,1
34,6.833333333333334,0.45313679596047574,-0.8912461460745583,-0.01863736177470315,0.2868489054508083,-0.9574741265595242,0.031000038883029647,1
35,7.033333333333333,0.4578165926663365,-0.8888117871957824,-0.020434637780624442,0.29382433163102095,-0.9552510867921369,0.03409726270575332,1
36,7.233333333333333,0.4867123661160568,-0.8735068891462063,-0.009838052847333406,0.32505599554959375,-0.9443005615664184,0.05133273013010129,1
37,7.433333333333334,0.4764540018109003,-0.8791290061669353,0.011125406703373551,0.3159519024317699,-0.9459531979069928,0.07312279206430379,1
38,7.633333333333334,0.5287698981316116,-0.836547895360381,0.14349220744696284,0.3696778924249852,-0.922043049629829,0.11478183863985768,1
39,7.833333333333334,0.5313670844812914,-0.8392889013454754,0.11507893642260096,0.3842464293255847,-0.9183446421095796,0.09485673333594467,1
40,8.033333333333333,0.5504561676847928,-0.8273244817833743,0.11194735057000062,0.41869550669057587,-0.9034133947057817,0.09240298124680553,1
41,8.233333333333334,0.5489071024460517,-0.8264265557585138,0.125379985728983,0.42846962957154433,-0.896991300251715,0.10872158850734989,1
42,8.433333333333334,0.5239934425343287,-0.84092955456751,0.13516048400295258,0.405560310305662,-0.9055733401262553,0.12432924176296224,1
43,8.633333333333333,0.4690678784388706,-0.8702418190938777,0.15051412464295755,0.3441676212489863,-0.9275050541499847,0.14588702139000753,1
44,8.833333333333334,0.4221825829402615,-0.8917948820886296,0.1626768420593939,0.29071243208267306,-0.9427788116132236,0.16326173527723933,1
45,9.033333333333333,0.17911086741375204,-0.9792346711682697,0.0949671309257262,0.2002917469808082,-0.957311445601746,0.2084178788186649,0
46,9.233333333333334,-0.19451458992899007,-0.9808957388010693,-0.0027611422747820086,0.09886565531366603,-0.9697693451851462,0.2230986314134901,0
47,9.433333333333334,-0.3504164898959589,-0.9339357059088927,-0.07051511070298244,-0.14910724431473354,-0.9537558603950258,0.2609919317814452,0
48,9.633333333333335,-0.6589322437940771,-0.7482009804913754,-0.07748284248946856,-0.48985360975329295,-0.8359740433654829,0.24736782294961948,0
49,9.833333333333334,-0.6597614245908244,-0.7509423493555051,-0.02829223508881244,-0.7215250818089276,-0.6577806067668137,0.21616250757729286,0
50,10.033333333333333,-0.8878875207783672,-0.4581744884106617,-0.04161596587456741,-0.83626235883638,-0.514613446923476,0.18930997712469463,0
51,10.233333333333334,-0.9714724050692235,-0.23671432825804456,-0.014411557388480937,-0.9200105064559596,-0.3505473818051148,0.17520616747200402,0
52,10.433333333333334,-0.9707282368255841,-0.2401661526155324,-0.0026285675462927828,-0.9747724829250735,-0.15411507137819175,0.16145324805088998,0
53,10.633333333333335,-0.9555616737113106,0.2946652941884172,0.00861696784792485,-0.9809133342680443,0.03082520953879943,0.19198655450848046,0
54,10.833333333333334,-0.9625471714659429,0.27091607309837007,-0.010364556906656741,-0.9608979882954802,0.2144977344659898,0.17511646980982915,0
55,11.033333333333333,-0.9657805623328009,0.25919728063327097,-0.00920190917453494,-0.9479371263636678,0.271539807528704,0.16637709394224495,0
56,11.233333333333334,-0.9734794779437901,0.22853685380987931,-0.010421730804805006,-0.9500682338718429,0.2703141886974146,0.15588646630319056,0
57,11.433333333333334,-0.9754991058961409,0.21999615957547872,-0.001784423680253421,-0.9487768511730608,0.27415183631486084,0.15704539892439273,0
58,11.633333333333335,-0.9918436251821684,-0.11173978240279278,-0.06132246092640907,-0.973119128906446,0.21206369305549583,0.08982288708355303,0
59,11.833333333333334,-0.9928126128520501,-0.11373250378891288,-0.03725631951481928,-0.9950360974746506,0.07468734256773137,0.06576447051857064,0
60,12.033333333333333,-0.9914989165524838,-0.12876527199462656,-0.018692330068801364,-0.9978822656883202,-0.0009291963645280663,0.06503937591075831,1
61,12.233333333333334,-0.991932874744197,-0.1258858805758849,-0.014896881329575513,-0.9966878578977139,-0.051001386536105454,0.06334171209132819,1
62,12.433333333333334,-0.984759111784499,-0.17302670921316324,-0.01764226902265784,-0.993908695582675,-0.09323317050947574,0.05876291995720339,1
63,12.633333333333335,-0.979680506868782,-0.2004227066835656,-0.0075394367800208015,-0.9908207655840898,-0.11878984778378993,0.06452272894772709,1
64,12.833333333333334,-0.9832411031094704,-0.1820772659701903,-0.009208820385530577,-0.9924040044545195,-0.10734006575613511,0.060103263023760095,1
65,13.033333333333333,-0.9854126585584752,-0.1701566195970802,0.0029354999595525852,-0.9925056310496934,-0.10188679704260435,0.06746593898441922,1
66,13.233333333333334,-0.9885137055328714,-0.15063610715876805,0.012223632591168898,-0.9932938900172739,-0.09034054067309699,0.07215147098462102,1
67,13.433333333333334,-0.9903324248028873,-0.1372376799324171,0.020186817252874516,-0.9934617750578482,-0.084281223867108,0.07700893975618751,1
68,13.633333333333335,-0.9916958549336452,-0.12421947824379492,0.03329943741666114,-0.9929218407524707,-0.0798805711566166,0.08789375693653192,1
69,13.833333333333334,-0.9900568355764732,-0.13636585224822786,0.034522697880022005,-0.9901709144549934,-0.1062381920381362,0.09096706392882396,1
70,14.033333333333333,-0.9995165650940633,-0.01254525393543147,0.028447367299293518,-0.9853195898558058,-0.1417353551690724,0.09516509308293404,1
71,14.233333333333334,-0.9992737250712211,0.0010102306219122144,0.0380920177514409,-0.9827113991509284,-0.15770963497756413,0.09698441634648511,1
72,14.433333333333334,-0.998491009477259,0.020839878486840362,0.050807513792135384,-0.9813239002015377,-0.15649857722779031,0.1118552556606965,1
73,14.633333333333335,-0.9974227032528775,0.04228865028861358,0.057962238504823106,-0.9809061163562698,-0.14776760818979492,0.12644336623456234,1
74,14.833333333333334,-0.9971587184867353,0.05179502431271488,0.05469703467590754,-0.9808775500271516,-0.14572493902636405,0.1290095887850807,1
75,15.033333333333333,-0.9970425039269106,0.05894514745339837,0.04931242191226995,-0.9813260009345939,-0.14204082290743608,0.12970614679920078,1
76,15.233333333333334,-0.9960304124736749,0.0801961631065831,0.03862632328482638,-0.9849589849825525,-0.12203445923048516,0.12232493066608786,1
77,15.433333333333334,-0.9951799862195159,0.09040679577940726,0.03799218742090523,-0.9859910446400337,-0.112779081448153,0.12289238657201686,1
78,15.633333333333335,-0.9923570501110395,0.11549430036019688,0.04345746977476835,-0.987925940929268,-0.08970211722172249,0.12631652862931475,1
79,15.833333333333334,-0.9759866858515602,0.21052229512115891,0.0559495513602006,-0.9907326207613926,0.008013561443879633,0.13559003279093965,1
80,16.033333333333335,-0.9627582534207736,0.2577468448155789,0.0816278718195876,-0.9788697796519961,0.1452060154649671,0.1439762742844835,0
81,16.233333333333334,-0.9423832150057291,0.3200212465038401,0.09746936883757075,-0.9568483811934373,0.24602106833373416,0.1546441377596535,0
82,16.433333333333337,-0.9216640723635465,0.37183489454592755,0.11078875805903096,-0.9291277596309048,0.3298227096478178,0.16714839659364694,0
83,16.633333333333336,-0.8979826507527802,0.424933050900437,0.11427624949855979,-0.8961999301982877,0.40953521970664053,0.1706065325021819,0
84,16.833333333333336,-0.8800726818056884,0.4611914760371136,0.11302432114395786,-0.8669526737338761,0.46784628398327466,0.17179323638817853,0
85,17.033333333333335,-0.8601900771500497,0.4971461172485745,0.11366076401845121,-0.8385462439334133,0.5155294272244506,0.17626572681833186,0
86,17.233333333333334,-0.6252497635817593,0.7730794223633463,0.10682200082056749,-0.7703666712563157,0.6028056754857171,0.20775107561616116,0
87,17.433333333333337,-0.5115343652689772,0.850667839931625,0.12123043864858211,-0.6508728323060811,0.7274952123610465,0.21706052648424182,0
88,17.633333333333336,-0.5118737532450872,0.8486138092676948,0.13356595172033922,-0.5656690717003091,0.7977168031486241,0.2089650767378366,0
89,17.833333333333336,-0.4709904716815754,0.87536595545376,0.10909821088218342,-0.5164030287067212,0.8375838275881747,0.17827294720531225,0
90,18.033333333333335,-0.4201470123369668,0.9027986946973493,0.09182050357672525,-0.4706905909461343,0.8679439091280912,0.1585046945747232,0
91,18.233333333333334,-0.3790514703999738,0.9207728019306526,0.09218150580454379,-0.4424023362983991,0.8840103730555049,0.15101600301949983,0
92,18.433333333333337,-0.2619672148806045,0.9539866921133967,0.14588546739904729,-0.41924205256546226,0.8959767517359528,0.14649833346966457,0
93,18.633333333333336,-0.2089557070871801,0.9666786360754033,0.14788484381806874,-0.37812079813927174,0.9144451901902068,0.14427285313778354,0
94,18.833333333333336,-0.15406858802634749,0.97750840926374,0.1440145131653061,-0.3291521822340604,0.9333844091707976,0.14301183743815526,0
95,19.033333333333335,-0.059753027038928874,0.9853682191427906,0.15962157893922257,-0.23564391166515414,0.9578250763042977,0.1644477731616062,0
96,19.233333333333338,0.022385789822500946,0.9874151487311783,0.15655733924095636,-0.14446269087289398,0.9752266063508166,0.1675219305381611,0
97,19.433333333333337,0.13395197491278493,0.981306092968653,0.13818545625195877,-0.010468599435903003,0.9880601394927944,0.1537126187771522,0
98,19.633333333333336,0.12470205282282859,0.9851619560323357,0.11792081414370964,0.19214651087146217,0.9728973216413163,0.1286488239475062,0
99,19.833333333333336,0.11080777383852403,0.9858257143979194,0.12597340230692633,0.3531538598324797,0.9285481889504372,0.11437050355001786,0
100,20.033333333333335,0.15058274665081245,0.982624266518947,0.10850984867374568,0.42375423474932833,0.9000993051540574,0.10126000885440717,0
101,20.233333333333338,0.0994771141663654,0.9893562132265835,0.10620069259231403,0.382413067614902,0.9194043750428111,0.0919556462078239,0
102,20.433333333333337,0.10749300840175474,0.9830418663727535,0.14857301943190665,0.28306981308539925,0.9550994999726354,0.08750100611889773,0
103,20.633333333333336,0.1332720355104391,0.9781502584973851,0.15956389426309053,0.12995475968430165,0.9819090150278169,0.13771872291920975,0
104,20.833333333333336,0.11555988600892225,0.9800268214192952,0.16184357276208886,0.04617757017052598,0.9860263199615572,0.1600616392400602,0
105,21.033333333333335,0.19657413335280127,0.9649867875047207,0.17366378447423672,-0.051474121433787545,0.9827676091544058,0.1775337748698915,1
106,21.233333333333338,0.18946263375015832,0.9689351995935676,0.1589606536254398,-0.10412128475802374,0.976269547890276,0.18988556533463713,1
107,21.433333333333337,0.19348742663550494,0.9717122470277733,0.1354175937986116,-0.12671499072211617,0.9738048453550248,0.18880528141281083,1
108,21.633333333333336,0.22203944523775815,0.9675984881957436,0.12021501736397175,-0.11225291374441021,0.97304541160094,0.2014495230032753,1
109,21.833333333333336,0.2630424652880493,0.9592878026778969,0.10283760542038131,-0.06926549802978321,0.9767058132149306,0.2030961477105049,1
110,22.033333333333335,0.2866447970491517,0.9552883325537987,0.07251870111380677,-0.044079311489549744,0.982487904168244,0.18103737863131775,1
111,22.233333333333338,0.22512845343257204,0.9734587337451345,0.041173694883722356,-0.11050579483674017,0.9808459769113331,0.1604046099223866,1
112,22.433333333333337,-0.5906830056244459,0.7960318978199915,0.1320106227527684,-0.34934331055358897,0.9119698774143733,0.2151050767886985,1
113,22.633333333333336,-0.5675947602274596,0.8133257025472282,0.1278181901702197,-0.413293816459642,0.8774381648134199,0.24349638232442286,1
114,22.833333333333336,-0.5322372087994138,0.839204178801743,0.11162392150028327,-0.4181819349966377,0.8756183322323934,0.24169486031157197,1
115,23.033333333333335,-0.5173454471114701,0.8491357961380549,0.1064053009488968,-0.4278616425501003,0.8717003597562214,0.23889934624273185,1
116,23.233333333333338,-0.472064499967557,0.8744853360942074,0.11149217383557296,-0.3978707721873203,0.8836497022919722,0.24670235564010007,1
117,23.433333333333337,-0.7495671194896243,0.607027776079846,-0.2639439570203942,-0.3976865742860454,0.8866432115634965,0.23602797296295006,1
118,23.633333333333336,-0.768718853459387,0.5789768502406126,-0.271766685267979,-0.41387742377858466,0.8774355139066773,0.24251267394040923,1
119,23.833333333333336,-0.7392066978078569,0.4846855853788633,-0.4676038293704966,-0.3893480741973811,0.8921397059977598,0.22911748536727033,1
120,24.033333333333335,-0.7506660814359919,0.4766267199562743,-0.45752311854731076,-0.38723658379309667,0.8944068654708441,0.22379496681308877,1
121,24.233333333333338,-0.8234160535027322,0.4756386490112998,-0.30944123577941574,-0.4301653482952766,0.8737288008243014,0.22705892569139743,1
122,24.433333333333337,-0.9686826718707904,0.23516622928553269,-0.07969144132772989,-0.48398700475141154,0.8438096354336309,0.23182294619196,1
123,24.633333333333336,-0.9099935414429191,0.4083178835081002,0.0720295810041961,-0.5186980090723522,0.820511924715777,0.24023437885446236,0
124,24.833333333333336,-0.9231703540573762,0.3757724960475279,0.08094151347602314,-0.5698323948439683,0.7813700623321467,0.2544638824616275,0
125,25.033333333333335,-0.9469667830899545,0.309903881469576,0.08493230230221087,-0.634320579465242,0.7243309944764522,0.27015183306361856,0
126,25.233333333333338,-0.9419423449154289,0.32390335190658875,-0.08849427935691477,-0.7150285152169261,0.6281255353427709,0.3069080225035439,0
127,25.433333333333337,-0.9419290880520292,0.331321881123602,-0.05473028567612471,-0.8166916735059561,0.4306331859854845,0.3841481088773339,0
128,25.633333333333336,-0.9940259125238332,-0.02443040134147947,0.10637500045337236,-0.8982804669536711,0.056815342355562966,0.43573411567435805,0
129,25.833333333333336,-0.9838458007542616,0.1117853934151423,0.13982655741034386,-0.9011594971197406,-0.18962347616170533,0.3898134143911004,0
130,26.033333333333335,-0.9682244409015994,0.19534309520277274,0.1561489903822182,-0.9446635906663625,-0.05969956706720768,0.3225626484286778,0
131,26.233333333333338,-0.9266229269003637,0.3234369161497622,-0.19172509646401278,-0.9796659428723703,0.19943103137466597,0.021952314247637536,0
132,26.433333333333337,-0.7449348549596989,0.3078757940882504,-0.5918484242445035,-0.8328385129900768,0.3142251360012893,-0.45567814868111584,0
133,26.633333333333336,-0.4168617079776309,0.3058532604273684,-0.8559673472206291,-0.7142110599787388,0.32296715942170434,-0.6209627812833248,0
134,26.833333333333336,-0.3815198085982846,0.32872870649018315,-0.8639329101130592,-0.6039104256204164,0.4067972510606714,-0.6854255571223242,0
135,27.033333333333335,-0.07886481484449198,0.24660869741167502,-0.9659008703487442,-0.49786424972204735,0.46731083100201215,-0.7305831753311265,0
136,27.233333333333338,-0.03501897644272233,0.22905376843736644,-0.9727836565514171,-0.34406883127573495,0.5409020884767534,-0.7674904364394624,0
137,27.433333333333337,-0.12417245759791233,0.3495564255902821,-0.9286503680625128,-0.22559083288339113,0.5878910312255881,-0.7768480620581433,1
138,27.633333333333336,-0.048412079358508636,0.2039943620785375,-0.9777742944117298,-0.17450659408653924,0.5978546072957964,-0.7823792668236456,1
139,27.833333333333336,-0.060287020563814714,0.19936270198459577,-0.978069521153246,-0.17430192537289368,0.5952313142796924,-0.7844224125508987,1
140,28.033333333333335,-0.06757177438825321,0.18855646015940575,-0.9797349216181782,-0.20110498341258676,0.5769290956649586,-0.7916499252964257,1
141,28.233333333333338,-0.08090769390400332,0.18005931813561624,-0.980322695350706,-0.22437559997964104,0.5617010576475915,-0.7963337943170274,1
142,28.433333333333337,0.02670831159556641,0.2057048985681277,-0.9782495391242415,-0.2175435006156492,0.5557092705844715,-0.8024101394713081,1
143,28.633333333333336,0.04938819870283852,0.21093286354941965,-0.9762520847115929,-0.16235466327586212,0.5743371644587532,-0.8023576414754585,1
144,28.833333333333336,0.09165336099334981,0.21381936012696834,-0.9725641072204528,-0.07746641823837508,0.592266849033962,-0.8020093101583667,1
145,29.033333333333335,0.06837332711627711,0.20996676191725566,-0.9753148450777491,-0.06566489047278481,0.5942750476994811,-0.8015767523082096,1
146,29.233333333333338,0.03582459364947878,0.22596612088903476,-0.9734761993496358,-0.07722283833533769,0.6108927607990748,-0.7879382387235176,1
147,29.433333333333337,-0.2280137894657222,0.2963820886589409,-0.9274520846575555,-0.1058600028292565,0.6176204132445198,-0.7793193728790903,1
148,29.633333333333336,-0.28774167844806203,0.28719764327069786,-0.9136313480740738,-0.21076829564200347,0.6110973058038258,-0.7629789042899359,1
149,29.833333333333336,-0.6248527028238311,0.3365634284340856,-0.704474384498434,-0.46028891238578457,0.5641751708085847,-0.6854491182996855,0
150,30.033333333333335,-0.827234745283445,0.14728133188966158,-0.5422092635437366,-0.7167537656411062,0.3978363245440869,-0.5727043725278743,0
151,30.233333333333338,-0.8574617272303056,0.18821149507817986,-0.4788901956144615,-0.8186345700773018,0.24950617850823675,-0.5172853250968633,0
152,30.433333333333337,-0.8228855680369771,0.20711638813163022,-0.529114490147236,-0.8164595719804004,0.21292404093279235,-0.5367095304859347,0
153,30.633333333333336,-0.8297902848929415,0.19716211955129465,-0.5220873314986031,-0.8194978776813682,0.21978542499500492,-0.5292613677905257,0
154,30.833333333333336,-0.8387331890047383,0.2014790738360628,-0.5058980336669676,-0.833839022225608,0.22818744092276974,-0.5026360281744233,0
155,31.033333333333335,-0.9477349090314242,0.2920209359895873,-0.12853915802962113,-0.908081906062473,0.27788480283774075,-0.3133165942521656,0
156,31.233333333333338,-0.9396843613177023,0.3193602727384119,-0.1224839470762966,-0.9131708718060355,0.3024121511984477,-0.2732505255119053,0
157,31.433333333333337,-0.9798901389323847,0.19761532252043554,-0.027631502460348636,-0.9136995108301386,0.33185902787777893,-0.23456937038919082,0
158,31.633333333333336,-0.973452703427407,0.22732990461383928,-0.026663620499389074,-0.8980734805271648,0.37288832509477565,-0.23327734691100438,0
159,31.833333333333336,-0.7544685616207614,0.6475424273382065,-0.10707938327634814,-0.8636550534706597,0.44217528413544266,-0.2420350526562893,0
160,32.03333333333333,-0.6920886140445089,0.7125988421855183,-0.11496190858632205,-0.7088434589462774,0.6446422292505686,-0.2863168646376504,0
161,32.233333333333334,-0.5725644338768131,0.786283148390914,-0.23222570834383655,-0.5805997688035377,0.7238024905787257,-0.3728456290441294,0
162,32.43333333333333,-0.38863302910464503,0.49526214511788036,-0.7769683238731063,-0.5240568334049405,0.6591734951499486,-0.5393095017273363,0
163,32.63333333333333,-0.38745490800187526,0.48070604415031193,-0.7866386676121492,-0.4864384628670415,0.6025782514924283,-0.6326745392947923,0
164,32.833333333333336,-0.41796243888041873,0.5125283930530576,-0.7500813595868003,-0.4905486008691086,0.5959844671851,-0.6357394002729836,0
165,33.03333333333333,-0.4299161548073356,0.5368857309834262,-0.7258965571636689,-0.49441339351572977,0.596976106708957,-0.6318029157347065,0
166,33.233333333333334,-0.45551725182296904,0.5961627416773062,-0.6611308635417404,-0.5163901762287418,0.6276824481104878,-0.5825426424121017,0
167,33.43333333333333,-0.4753715393692043,0.6723695208085418,-0.5673985610181305,-0.5357133318935767,0.6866617695487496,-0.4914334545710766,0
168,33.63333333333333,-0.5171716926467094,0.806029167459169,-0.2878374915295376,-0.5453464812029518,0.7285369915774497,-0.414525110630029,0
169,33.833333333333336,-0.6776642381248408,0.7204063160242453,-0.14760054267872613,-0.601702693048113,0.721966955738988,-0.3416395527447418,0
170,34.03333333333333,-0.7067508637576443,0.7069258468954657,-0.02755110830715786,-0.7129615359065152,0.6888338722185439,-0.13112492059951827,0
171,34.233333333333334,-0.7805011081083234,0.6218902552084934,0.06380071095524467,-0.8308314283822131,0.5560307277792602,-0.02343005287313479,0
172,34.43333333333333,-0.9992285137153731,-0.03587978609897206,-0.015969293273611063,-0.951338797459651,0.307954620530645,-0.010883204576408036,0
173,34.63333333333333,-0.9360771394419336,-0.35117970783568936,0.020794273698473552,-0.987094506036445,-0.14764520227138211,0.062010728095300324,1
174,34.833333333333336,-0.9549311747705981,-0.29657672748083824,0.012194103821199025,-0.9570868470949435,-0.282832130879344,0.063172405843927,1
175,35.03333333333333,-0.9634629503266874,-0.2675116809647305,-0.013290744720282324,-0.9727859839986801,-0.2276589633045032,0.0431141016703211,1
176,35.233333333333334,-0.8396477164640086,-0.35131063131860074,-0.41421317284618353,-0.9600461569918374,-0.27706503853937214,0.03932354084235707,1
177,35.43333333333333,-0.8413438643015396,-0.3214951149543806,-0.43448980777760765,-0.967013697465413,-0.25429187395221153,0.014837511790848846,1
178,35.63333333333333,-0.9351075196822461,-0.2978718470666538,-0.19195387299770222,-0.9850574947952847,-0.1706868438705819,0.02297244604167138,1
179,35.833333333333336,-0.9453797475452684,-0.325345101547194,-0.020191528681365718,-0.9781087001923806,-0.1982878778262886,0.06312913839994008,1
180,36.03333333333333,-0.9371424675340988,-0.3475675858615357,0.0309962707835072,-0.9691349825176879,-0.2259164405287118,0.09868711952062373,1
181,36.233333333333334,-0.9366453723521218,-0.34549055894220265,0.05772105450492025,-0.9663819614518805,-0.22703015065045085,0.12067814746692869,1
182,36.43333333333333,-0.9441350366459085,-0.31543233189292225,0.09545405478146175,-0.9648404707806781,-0.20505571646590617,0.1644232924143459,1
183,36.63333333333333,-0.9609087970045089,-0.2568622413567268,-0.1033250831335065,-0.9628302340821193,-0.20935643598822468,0.17066875240558796,1
184,36.833333333333336,-0.9766180186510437,-0.1924911872878705,-0.09573081250368719,-0.9650994704815044,-0.17593013320321452,0.1939886602547149,1
185,37.03333333333333,-0.9888621648458013,-0.12318051074086865,-0.08353550568527232,-0.9669495111550127,-0.12333140198920603,0.22315467317638507,1
186,37.233333333333334,-0.9965087216429622,-0.06651157070087116,-0.0504636369320747,-0.9597422301129725,-0.07069267841801233,0.27184075661288454,1
187,37.43333333333333,-0.9960350514160907,-0.05108092639035246,-0.07283484955465436,-0.9626975307414297,-0.05831755936469171,0.2642206021000261,1
188,37.63333333333333,-0.9944311175307671,-0.06361069645832025,-0.08402637551743602,-0.9625089920956553,-0.07656046971473632,0.26022093423101966,1
189,37.833333333333336,-0.9597619610812829,-0.2521302582554181,-0.12364186561786504,-0.9608090323783999,-0.08002524417573921,0.26540904957197,1
190,38.03333333333333,-0.9625445236480419,-0.2388834934611874,-0.12822915638396354,-0.960736146141938,-0.08162833956945321,0.26518459924262405,1
191,38.233333333333334,-0.879762154584429,-0.46628437156759317,-0.09272236080244173,-0.9486759668024447,-0.14090128287235376,0.28312671808992507,1
192,38.43333333333334,-0.7997129081667971,-0.5973231933240678,-0.0605331911313325,-0.8209986629092791,-0.4668274205525982,0.3286842784822291,0
193,38.63333333333333,-0.8810940530723858,-0.465099322998554,-0.08576648172079217,-0.8328977575647878,-0.4613314945311964,0.30570341443490795,0
194,38.833333333333336,-0.8690421895186049,-0.4897947388052303,-0.06976235858559741,-0.817053399903723,-0.4846228313780778,0.3123530902886386,0
195,39.03333333333333,0.14429650512496728,-0.9775962165547347,-0.15324541098052094,-0.44515375572840626,-0.8547388552574693,0.2669449813614143,0
196,39.233333333333334,0.1801378658919598,-0.9803695657612809,0.08016148577046382,0.1729785416498219,-0.983382894338317,0.05510451207928216,0
197,39.43333333333334,0.7898207040205454,-0.5980909859716109,-0.13590595277616235,0.7341998908868675,-0.663734551455383,-0.14285295035816925,0
198,39.63333333333333,0.9548971676722678,-0.019567820603401866,-0.2962912411265542,0.9339321265767534,-0.2389025182059816,-0.2658878894245922,0
199,39.833333333333336,0.8388281238168789,0.11932000753056082,-0.5311592176520725,0.9396687409010799,-0.05253234055026022,-0.338028120974707,0
200,40.03333333333333,0.8342930491587786,0.09815937476108749,-0.5425125300597771,0.9157141683073651,-0.04702681773120663,-0.39906896694083677,0
201,40.233333333333334,0.3862476407163596,-0.10892568659155796,-0.9159410214864296,0.7467217234973829,-0.22122195218229967,-0.6272698905014896,0
202,40.43333333333334,0.43989711254776903,-0.34638777951882804,-0.828556598291361,0.6301639646650445,-0.4069955704497677,-0.661247293583801,0
203,40.63333333333333,0.16104180874500224,-0.7210427063716586,-0.6739161308533669,0.4605247690278855,-0.7464833130339364,-0.4802911621857007,0
204,40.833333333333336,-0.38389589777454247,-0.7597622165251141,-0.5247716779826481,-0.07774168441259272,-0.9873575969631836,-0.13813473938072243,0
205,41.03333333333333,-0.6178035587423965,-0.7857962667908315,0.029034288398773086,-0.5996721062417054,-0.7987520154783424,0.04887312927287034,0
206,41.233333333333334,-0.9095271412439223,-0.4140844398912355,-0.03597854889541997,-0.7858702610122954,-0.6179360440220883,0.023727164912778216,0
207,41.43333333333334,-0.851331077293189,-0.5113638056729859,-0.11722821794456768,-0.8289363600546859,-0.5448628832841044,-0.1264474175245225,0
208,41.63333333333333,2.4545567593688145e-05,-0.2915334630067894,-0.9565606302502653,-0.6020565652211447,-0.43179912450063385,-0.671622965922551,0
209,41.833333333333336,0.13368034085563715,-0.10324020605842603,-0.9856322977265582,-0.2149432031405946,-0.4552197320489029,-0.864045377845971,0
210,42.03333333333333,0.06440055634314665,-0.10278499602405557,-0.9926166495354731,-0.0258924651934904,-0.19452030699185552,-0.9805566941355295,0
211,42.233333333333334,0.007872860245291208,-0.056645258675319894,-0.9983633270213628,0.07683658723785342,-0.14816036609903,-0.9859739574547806,0
212,42.43333333333334,-0.03587511723445655,-0.12769049851548797,-0.9911650279102268,0.020963361356988845,-0.2517445460998145,-0.9675666493785403,0
213,42.63333333333333,-0.00334921474774686,-0.07478529046370815,-0.9971940348251349,-0.056586184897248426,-0.3461148429657531,-0.9364841264845692,0
214,42.833333333333336,-0.39299008985998907,-0.3536180331548882,-0.8488304164551989,-0.3742117642811089,-0.45456074042354466,-0.8082945556783239,0
215,43.03333333333333,-0.9328345924685262,0.033208182567920616,-0.358771291639416,-0.9184882145129923,-0.12484277813428328,-0.3752248399939023,0
216,43.233333333333334,-0.49033988673690965,0.8490672988506961,-0.19659989190540572,-0.8265389506771926,0.5494009752078942,-0.12244154300751194,0
217,43.43333333333334,-0.20356377919486657,0.9638767769947164,-0.17176538233934555,-0.31903726138536176,0.9354588962788996,-0.15209168031286802,0
218,43.63333333333333,-0.05077264662179659,0.9777960974755223,-0.20331485463845733,-0.08896882789402294,0.9822347342159152,-0.16522552636609908,0
219,43.833333333333336,-0.09015030106732136,0.9702544583968714,-0.22467578680949446,-0.09298549418297158,0.9780687903776383,-0.18637365468534525,0
220,44.03333333333333,0.32322862589013496,0.939502156162692,-0.11339732788222215,0.028594898898845034,0.9930509655274374,-0.11415827443505533,0
221,44.233333333333334,0.3262540915625573,0.9393331296894741,-0.10588455603376885,0.21723487072266168,0.974250735981459,-0.06036981349726486,0
222,44.43333333333334,0.32606644528829076,0.9395604055111498,-0.10443618938271373,0.2770142924654857,0.9596801908243018,-0.04771805852377142,0
223,44.63333333333333,0.34085534831215336,0.9285182923862818,-0.14721213343696882,0.3274018817265635,0.9407112312075718,-0.08871520344247627,0
224,44.833333333333336,-0.07963423667607061,0.9777235206451299,-0.1942037732030773,0.16846226495148509,0.9748331661703611,-0.14601631217670588,0
225,45.03333333333333,-0.23364741617316742,0.9603758399622375,-0.15194449951357086,-0.06911086302711489,0.9848730461617464,-0.15889862037075636,0
226,45.233333333333334,-0.2914093769041057,0.9445184027880041,-0.15154392712068182,-0.20471203508628405,0.9663192753846711,-0.1559488400433823,0
227,45.43333333333334,-0.36287030915136365,0.9281847989073879,-0.08245069929143163,-0.3227060137793443,0.9422534787703628,-0.08955004419761697,0
228,45.63333333333333,-0.31363465089408143,0.9388642281267678,0.14201150271184546,-0.35986824669060274,0.9330027843905355,-0.0008058184284365363,0
229,45.833333333333336,-0.2622565549505997,0.9561342789550857,0.1304942144023301,-0.3375312325610476,0.940996654424446,0.024453290327069083,0
230,46.03333333333333,-0.1675681546831429,0.978904671780881,0.11690405083508511,-0.25753738623446026,0.9657373848191563,0.0320280853967228,0
231,46.233333333333334,-0.05378661453524869,0.9935588479926503,0.09973873707017927,-0.15105183706406045,0.9878615449303122,0.03623410779182709,0
232,46.43333333333334,0.24081168687771642,0.8643486740136583,-0.4414873737650254,0.0679984755837737,0.9962046510918844,-0.05433691619130121,0
233,46.63333333333333,0.21242831244454383,0.6623078408415929,-0.7184862810323595,0.20465994957232336,0.9036719521395938,-0.3761533037968293,0
234,46.833333333333336,0.0959253472724439,0.5671223158689224,-0.8180284876421673,0.12284665856806953,0.8017575434494955,-0.5848876302337832,0
235,47.03333333333333,0.14935122230903763,0.6092775455223794,-0.7787651025290109,0.15413532171970623,0.7854105239520972,-0.5994769482337541,0
236,47.233333333333334,0.4267157339683644,0.7294478290255556,-0.5346209377809137,0.2775316472779357,0.8449054668654251,-0.45728649315293934,0
237,47.43333333333334,0.6874344859348487,0.7212864267675241,-0.08473321726706314,0.4368892470064761,0.8700471460126421,-0.2283544384621644,0
238,47.63333333333333,0.6590734163806896,0.740046336753551,0.13399123582509487,0.5262070869008892,0.8494230289340848,-0.03983239399941934,1
239,47.833333333333336,0.6591563471166378,0.7341895722134294,0.1627224081339522,0.5395777447759997,0.8414800908883796,0.027696822578240996,1
240,48.0,0.6224043254773408,0.7798083088310581,0.06717035882844319,0.4575645930957022,0.8882773072230628,0.03997585043134727,1
