,timeStamp,x_gaze,y_gaze,z_gaze,x_head,y_head,z_head,fixations_head
0,0.033366700033366704,-0.9997847509552192,-0.02058030599320933,0.002627310913570593,-0.999266990541731,-0.03727185050146576,0.008734458991189534,0
1,0.2333667000333667,-0.9975430634661353,0.0691488143046646,0.01123734892478872,-0.997175107150954,0.07224709715483556,0.02054659658394246,0
2,0.43336670003336675,-0.8490649813885914,0.5282883832433112,-0.00020373944034257274,-0.9742437175079961,0.2251654175796043,0.012235751811898177,0
3,0.6333667000333668,-0.587846078727023,0.780401697801876,-0.2130966395633971,-0.8681009306923123,0.4954659475271178,-0.030236880993191547,0
4,0.8333667000333668,-0.49752056715823684,0.812708822037607,-0.3032781822630692,-0.6615576141619864,0.7427743076370809,-0.10309146937819602,0
5,1.0333667000333666,-0.4402493259624466,0.8964670570492991,0.05027272237486832,-0.5354775488752337,0.8416929273745085,-0.06940324674179404,0
6,1.2333667000333668,-0.43822340154720274,0.8973460745506872,0.05225201263943482,-0.49245395036520084,0.869562203216878,-0.03675161909790336,0
7,1.4333667000333667,0.09848048670186871,0.9904539432760968,0.09644988329590333,-0.2804662271449595,0.9530043581639106,0.11454863050977561,0
8,1.6333667000333667,0.07024440092147133,0.9291630136047614,0.36293500559756114,-0.12145160138578398,0.9461365603270768,0.3001251701095344,0
9,1.8333667000333667,0.0736383366211723,0.8637758552909061,0.49846631500647137,-0.14273390584539325,0.8979462916725652,0.4163165735274144,0
10,2.033366700033367,-0.18432614549149695,0.8760483027528366,0.4456043573980423,-0.4145924246966951,0.8381601800574222,0.354401797329281,0
11,2.233366700033367,-0.9070408471356123,0.42101396756202675,0.0049133232330011885,-0.7949407612150546,0.5530478446156128,0.24941384830208385,0
12,2.433366700033367,-0.9656896598957287,-0.2498055486627837,-0.07099766635430643,-0.9912117199305821,0.017214510657261463,0.13116015742247372,0
13,2.633366700033367,-0.7925441848043036,-0.5996475726884645,-0.11088960141381331,-0.8700282869714087,-0.4915348553787162,-0.03800349743669079,0
14,2.833366700033367,-0.4481362555223538,-0.8863284176650414,-0.11660116862959638,-0.6132968200630794,-0.7859383432798587,-0.07853617677877046,0
15,3.033366700033367,-0.10245454770100249,-0.9946800941428968,0.010704016594776796,-0.347901323512977,-0.9344594870642867,-0.07582965207271732,0
16,3.233366700033367,0.19185707723479667,-0.9809382604879632,-0.030838142385214266,-0.05511275585217368,-0.9973171932240336,-0.04817676039455892,0
17,3.433366700033367,0.3357288276249762,-0.9408899059894932,-0.044859102851503546,0.2100892976186287,-0.9769538045516072,-0.03773262246718489,0
18,3.633366700033367,0.5358214698518231,-0.821384154956058,-0.19550811347091077,0.3799617964291644,-0.9242015156050418,-0.03847845900845855,0
19,3.833366700033367,0.6547900819724242,-0.7380577142903633,-0.16285195401661834,0.5386327009444842,-0.8423865702245216,-0.016114582793771343,0
20,4.033366700033366,0.9142171457926286,-0.39722778407721404,0.080106790572872,0.7138020332231474,-0.6978479512881425,0.05911763061425597,0
21,4.233366700033367,0.945197255967848,-0.29611773375511385,0.13753703161907302,0.8460809459666473,-0.5138984343071599,0.1416172026585519,0
22,4.433366700033367,0.9709297172580232,-0.20209922936996805,0.1282629550311411,0.9173711737714851,-0.3594617591027801,0.1709309020506903,0
23,4.633366700033367,0.9793594746415547,0.19572131683105207,0.050479555938388626,0.9779105732740792,-0.13450302949360038,0.1599995179236649,0
24,4.833366700033367,0.9813957098295559,0.19024408081340832,0.025877605059276023,0.9881137180679703,-0.09138022612297046,0.12361607678456171,0
25,5.033366700033366,0.9192686858138047,-0.376703275395122,0.11419161785677528,0.9783513731549606,-0.1574632941182999,0.13429036321053459,0
26,5.233366700033367,0.8732573132800242,-0.476342159700635,0.10256613327355368,0.9683064984374461,-0.20604321057055489,0.14116912007089402,0
27,5.433366700033367,0.7641300025185657,-0.4647679914394391,0.44732097355738465,0.9179131193676225,-0.30989970743901873,0.2477855456276881,0
28,5.633366700033367,0.7137214539383263,-0.4711845053590523,0.5182536522762835,0.7453104913821809,-0.4045861879104306,0.5299266817096099,0
29,5.833366700033367,0.4854866197976892,-0.5367947725654549,0.6900392120335014,0.5955937684750826,-0.4748948428342113,0.6478757220355765,0
30,6.033366700033366,0.2882872250951093,-0.523014966746295,0.8020884118389531,0.40579588743097,-0.5121009164323359,0.757022026848145,0
31,6.233366700033367,0.21712075101698097,-0.5430670984108332,0.8111329768302239,0.2711461124845008,-0.5397819909141179,0.7969411446081408,0
32,6.433366700033367,0.24202568002991948,-0.8941280598975616,0.3767739145825755,0.19947676799217262,-0.7035349463835424,0.6820906085326958,0
33,6.633366700033367,0.313511921508766,-0.94888286701856,0.03649081734518794,0.18906160376597664,-0.9175588079570062,0.34977356092471507,0
34,6.833366700033367,0.2272905217265319,-0.9609572206024275,-0.157798095379313,0.13475642665608145,-0.9879473301283067,0.07616284111845273,0
35,7.033366700033366,-0.045020469914075656,-0.9975778203564858,-0.053024990537656275,0.016078558493376638,-0.9992366716549622,0.0356027242874602,0
36,7.233366700033367,-0.38164791016735805,-0.9225773677856652,0.056532053868238216,-0.15395223990582285,-0.9861157369197839,0.062245170311690974,0
37,7.433366700033367,-0.41009668956718076,-0.9102032639086177,0.05788543492225894,-0.3898934153233608,-0.9124676139121632,0.12404022834922827,0
38,7.633366700033367,-0.5678587177142602,-0.8217492672901644,0.047588007144597114,-0.5956770991576583,-0.7910523092797914,0.13930196524897492,0
39,7.833366700033367,-0.9740003545415887,-0.22200350848224565,0.04514146181099363,-0.8607275461155239,-0.49480372530074124,0.11965519122235067,0
40,8.033366700033367,-0.9971958761128251,0.0735491078676949,0.013817141362864167,-0.9832384835654723,-0.11800794430859081,0.13898276697465495,0
41,8.233366700033368,-0.8967367066030354,0.43904467852103374,-0.05570502035816852,-0.9604153815357508,0.24467601848557013,0.133176352584036,0
42,8.433366700033368,-0.7508874369161377,0.660223850889314,-0.016508294836182814,-0.8688382816136131,0.4861736535663861,0.09356932713563455,0
43,8.633366700033367,-0.7653321021877554,0.6418367121805976,-0.04808750625757314,-0.7579593353709553,0.6506135468271483,0.04690051821694602,0
44,8.833366700033368,-0.5821274909292145,0.720094684445997,-0.3776125391682297,-0.6475995168646822,0.7587525203639951,-0.07006767156053932,1
45,9.033366700033367,-0.5064931174578285,0.7289710841072365,-0.4605061134267065,-0.5751282535484794,0.8018944949696954,-0.16184162291442014,1
46,9.233366700033368,-0.6298114950438195,0.69507250667489,-0.3467155767705778,-0.5603183407052137,0.8133888648652633,-0.1563390916647357,1
47,9.433366700033368,-0.6400446580712127,0.6897642102881425,-0.3384792015472737,-0.5780916317930648,0.8036927221577809,-0.14102508146229875,1
48,9.633366700033369,-0.6489070568000975,0.6836315640868006,-0.33401723940430067,-0.5811929023638496,0.8029766609379511,-0.13207305641509015,1
49,9.833366700033368,-0.3682804573064138,0.8094386642106303,-0.4573604198518812,-0.5662786897952452,0.8096385235897209,-0.15431755118338866,1
50,10.033366700033367,-0.29969827331750837,0.8247758118050267,-0.47950579269896576,-0.46903933138128295,0.863043357522225,-0.18750538300050013,0
51,10.233366700033368,-0.6649413439559437,0.6410613083824912,-0.38326675826764883,-0.43542085457007085,0.8747978644593131,-0.21245558534172393,0
52,10.433366700033368,-0.7051299492181695,0.5978511729633754,-0.38126857948419735,-0.5006412937249429,0.837383131004079,-0.21942603976561403,0
53,10.633366700033369,-0.7833932714019806,0.5994400523750494,-0.16421512089542994,-0.6262888230599978,0.7577638519093125,-0.18318366425444346,0
54,10.833366700033368,-0.8281897231725187,0.5523129382792008,-0.09514305356053426,-0.7818219594868703,0.618830363875546,-0.07618007882491433,0
55,11.033366700033367,-0.801980855899468,0.5912159776333565,-0.08538369025634404,-0.8356156612277174,0.5488397962147439,0.022832976195036953,0
56,11.233366700033368,-0.7771136993068402,0.6226691656511011,-0.09152818416749892,-0.8231006037487376,0.566960170226486,0.03258161268596132,0
57,11.433366700033368,-0.7675864638620189,0.6357587115004625,-0.08137494237831108,-0.8090412743577472,0.5866754224824425,0.03555509865884269,0
58,11.633366700033369,-0.7454478546522482,0.6646134840489237,-0.050955007749114406,-0.772759481397547,0.6319200351330306,0.05932834994893612,0
59,11.833366700033368,-0.4400543088888337,0.896777932854104,-0.04627682329515622,-0.5699278405891901,0.8179132988147013,0.0787406638490926,0
60,12.033366700033367,-0.06779270927683828,0.9971089310622412,-0.03432095809881869,-0.22031997227377736,0.9714219288896931,0.08830937600000054,0
61,12.233366700033368,0.09029105824876571,0.9958723620681573,0.009260846025440563,-0.1307756540013968,0.9839365327235089,0.12151801468319876,0
62,12.433366700033368,0.15357398796662347,0.9873303141531855,0.03992343890748582,-0.06054056532324176,0.9818273488447964,0.1798607711835503,0
63,12.633366700033369,0.12803561634062594,0.8374311088049604,0.5313341876389761,0.02214679534892916,0.9253725874570077,0.37841127604617675,0
64,12.833366700033368,0.10461258638215698,0.782899222243734,0.6132903183489796,0.05126595974594267,0.8688738777399752,0.492371796463228,0
65,13.033366700033367,0.1224759918287156,0.760467585287526,0.6377214777256072,0.0857409502447739,0.8258784482732705,0.5572910174485662,0
66,13.233366700033368,0.23179006634414612,0.8042264915670482,0.5472596416747109,0.10925554965460099,0.7708616764156808,0.6275631447936356,1
67,13.433366700033368,0.20258431114760683,0.7951053040325077,0.5716355065740963,0.1124831316257138,0.7245681695378602,0.679962140705074,1
68,13.633366700033369,0.19388321224655225,0.8012457047509794,0.5660517826374764,0.12048249515154441,0.7130171599959758,0.6907173791887179,1
69,13.833366700033368,0.09892166026114063,0.8312733707070097,0.5469909398560328,0.13036077308146227,0.7092989516429477,0.6927489199124158,1
70,14.033366700033367,0.11337086975169142,0.8328902832113153,0.5417017832940189,0.13193653598136892,0.70769038092559,0.6940944281714345,1
71,14.233366700033368,0.26878112009997424,0.8187897025401399,0.5072870316615956,0.12943449474084726,0.709131852020492,0.6930935925408405,1
72,14.433366700033368,0.32181272670387023,0.8142824488341183,0.48309487934786893,0.14650136469302977,0.722910532067866,0.6752315993556838,1
73,14.633366700033369,0.3594788867358727,0.8130546362318998,0.45794878370070063,0.167798896366114,0.7449184349265053,0.6457089558655354,1
74,14.833366700033368,0.3563629320460744,0.8202297844624731,0.4474690618849199,0.17325568709872746,0.761780666697722,0.6242376812829564,1
75,15.033366700033367,0.12918000609213465,0.8753541992769142,0.46590508886929805,0.17308203131315275,0.7653684404613336,0.6198820539282446,1
76,15.233366700033368,0.11129668582468977,0.8773569072528358,0.46675250938819735,0.163658910524937,0.762636488813232,0.6257805900924188,1
77,15.433366700033368,0.141814830582273,0.8753576797015656,0.46220935344756175,0.1609095051089055,0.7634646323629344,0.6254837218477685,1
78,15.633366700033369,0.1306883386901922,0.8781993078355373,0.46009404891563344,0.13803244108210244,0.7697024385953081,0.6233018540236763,1
79,15.833366700033368,0.28244838278305445,0.8463501174601545,0.45156880952787265,0.12042693900083107,0.7738308325034577,0.6218385602629476,1
80,16.033366700033366,0.2904691284165068,0.8451203170756663,0.44877537265638856,0.11913303566056743,0.775795372587667,0.6196360703557058,1
81,16.233366700033365,0.3360299590098301,0.837443131613287,0.4310137677169757,0.13853268623423332,0.7807806667209187,0.6092538430896969,1
82,16.433366700033368,0.11403518939680146,0.9295268922974911,0.35067895870012583,0.15160737745720393,0.8109500452714166,0.5651329287652918,1
83,16.633366700033367,0.001332547320066657,0.9701689622315803,0.2424260898503681,0.14593449870816882,0.8643991004654509,0.481162464455941,1
84,16.833366700033366,0.10160332583709836,0.9629074402942128,0.24997204964733097,0.1319729891682367,0.8890171572471602,0.4384422701453168,1
85,17.033366700033366,0.10272426449832756,0.9648356667829875,0.24195012210516825,0.1280283307926161,0.896327467830314,0.4245065569898229,1
86,17.233366700033365,0.12658454918097567,0.9570254169789888,0.2609189589984639,0.13927029106194228,0.8967564673785802,0.4200376462202067,1
87,17.433366700033368,0.15131212533211486,0.9538940905826722,0.25921169857654,0.1548506869178442,0.896292983103568,0.41554801551731574,1
88,17.633366700033367,0.17865468274793306,0.9561983873671683,0.2318774424748172,0.17343556250628972,0.9057028766647276,0.3868105542243702,1
89,17.833366700033366,0.21043410298643878,0.959711148615241,0.18620418771850472,0.19855824181621684,0.9199453567164161,0.3380460993159945,1
90,18.033366700033366,0.24361410333669464,0.9528599981695294,0.18085904053660812,0.22477683781032382,0.9190043455866673,0.32389255313577814,1
91,18.233366700033365,0.3819679447845992,0.8560596606254619,0.34822743517254395,0.2406941100265267,0.8800030995418567,0.4094641500733164,1
92,18.433366700033368,0.4294430630572183,0.8691092797093962,0.2454133564316516,0.23389045035895545,0.8658787240108002,0.4422095572647808,1
93,18.633366700033367,0.1820998031323579,0.9692743045066949,0.16536923632350642,0.22247839052609758,0.8866154223332737,0.4054829942546398,1
94,18.833366700033366,0.1752568348147318,0.9754234882071128,0.13354422677371974,0.2158384181592914,0.9095009634553423,0.35527703939362476,1
95,19.033366700033366,0.12715174923999212,0.9872590788690031,0.09566579250671535,0.19441339281113085,0.9253643277398215,0.3254293988598652,1
96,19.23336670003337,0.1247029385932068,0.9838321365477662,0.12854378321053192,0.15139638090202345,0.9387671937165772,0.30950814504835256,1
97,19.433366700033368,0.11162997439761474,0.983945811708757,0.1392457842693394,0.1264054062199816,0.9438433703104592,0.30525622941940894,1
98,19.633366700033367,0.2083044046457448,0.9663958962536232,0.1506261820180617,0.1291889551996111,0.945762248761469,0.2980670774709651,1
99,19.833366700033366,-0.019192205902765658,0.9990339506275026,0.03953257803623109,0.11381013965235648,0.9564453269698316,0.2688114369402528,1
100,20.033366700033366,0.11782186530630034,0.9930273564520413,-0.0038311086665581166,0.10223875641242447,0.964427518577343,0.24377612290376133,1
101,20.23336670003337,0.12189310181610014,0.9923692934616247,-0.018581095880648102,0.10497339676830553,0.9709294953272695,0.21511973659908104,1
102,20.433366700033368,0.3215087590114809,0.9468589613122713,0.0094986978867814,0.12419676195641949,0.9769666063374203,0.1735264084255895,1
103,20.633366700033367,0.3198453553024101,0.9474478154005703,0.00644870406844211,0.14818849075832324,0.9756980674630671,0.16141081858291273,1
104,20.833366700033366,0.14951837395454132,0.9885056452513682,0.02237957006214167,0.15440437326956846,0.9746256641717852,0.1620620382845367,1
105,21.033366700033366,0.13875953902310412,0.9898814476563629,0.029673387333418476,0.15147857717970636,0.9736095066883538,0.17070081763621492,1
106,21.23336670003337,0.31328696144274415,0.949227995210782,0.02859183271656155,0.1565416323653755,0.9713481948092656,0.17882226309149812,1
107,21.433366700033368,-0.026839581090050246,0.9970990107850974,-0.0712263966398043,0.14919418544117463,0.9745232149322838,0.16746820172376153,1
108,21.633366700033367,-0.06443979969613839,0.9944917161265807,-0.08266643073660776,0.09844055340440849,0.9834724498924032,0.15195853956941105,1
109,21.833366700033366,0.06371770077124228,0.9922610988723033,-0.10657375977770425,0.0575266460029043,0.9890306246462659,0.13604818452105108,1
110,22.033366700033366,0.08504248579760282,0.9900031808893952,-0.11252323066035923,0.05879577018715293,0.9898663919513092,0.12925781791983287,1
111,22.23336670003337,0.10677497669984753,0.9880620280051459,-0.11105193904252905,0.08355608915727614,0.9879661706994738,0.1301584631061678,1
112,22.433366700033368,0.1104322669465474,0.9884319850521509,-0.10395636268603904,0.10687196774768709,0.9846929162063869,0.13768893667502466,1
113,22.633366700033367,0.24711620244039745,0.9645399686757119,-0.09271586335947922,0.13846781118533497,0.9807305878022653,0.13781937242117337,1
114,22.833366700033366,0.2865509306440793,0.952807768688828,-0.10022933738795782,0.18151841972037408,0.9744886790489827,0.13199574882391754,1
115,23.033366700033366,0.3518381206761248,0.9293737206040227,-0.11168896225558211,0.24706213050912096,0.961457187813188,0.12066639826667026,1
116,23.23336670003337,0.3938885830964461,0.9117613692632497,-0.11637435123547857,0.2797832428327257,0.9534846504188914,0.11219785401498787,1
117,23.433366700033368,0.3881090127074098,0.9136481035637358,-0.12090714250890543,0.2942201641287029,0.9497633731822501,0.10669596984681838,1
118,23.633366700033367,0.27505134041981966,0.9544872203024953,-0.1153295556762291,0.2986850259078206,0.9487634470068073,0.1031269941489896,1
119,23.833366700033366,0.26594542272122174,0.9570479720547683,-0.11546519527323605,0.2919299969562344,0.9511643723949768,0.10031556989621755,1
120,24.033366700033366,0.30485618389511143,0.9448746958343474,-0.11947600726865365,0.2822693719029366,0.9539684691884812,0.10133193711613286,1
121,24.23336670003337,0.3133978263942511,0.94435024209284,-0.09992208299747053,0.2803030087608244,0.954406323674906,0.10265862169822841,1
122,24.433366700033368,0.32851731970607845,0.9396146087064434,-0.09592058047453675,0.28086427627545274,0.9537283685506809,0.1073194173200878,1
123,24.633366700033367,0.41293104776254846,0.9074317683037035,-0.07781732240920317,0.27901347284395667,0.9539164069484232,0.11043084046662546,1
124,24.833366700033366,0.42592671445680025,0.9018576910224517,-0.07238189729267668,0.2724579927009803,0.9555250337231481,0.11286519455407372,1
125,25.033366700033366,0.1797042285067481,0.9675790431247278,-0.1774744645368193,0.24872572144465166,0.9633849924135524,0.10012428219057204,1
126,25.23336670003337,0.15387536363116217,0.9657833447096563,-0.20876997760407798,0.21022413151075542,0.975622947256762,0.06297363985492807,1
127,25.433366700033368,0.0061385802041099,0.95754754837329,-0.28821001099437776,0.1629181164554176,0.9866364241155923,0.0025007876792581957,1
128,25.633366700033367,-0.08049895003342089,0.9416888674134225,-0.32671393608651383,0.0759276441775657,0.9952576573881093,-0.060804508549760626,1
129,25.833366700033366,0.025159508579617518,0.9469918266633203,-0.32027094679489837,0.05067254524695414,0.9959191388630982,-0.07468173809158728,1
130,26.033366700033366,0.04325670267582388,0.9486251980144562,-0.3134311588940213,0.05597150621069241,0.995965670590805,-0.0701396713502075,1
131,26.23336670003337,0.11411086285932348,0.9458733263153173,-0.30381303715064406,0.10934355324973816,0.9920893041060854,-0.06166684717922135,1
132,26.433366700033368,0.15806568028121332,0.9407227992142981,-0.30009307848674655,0.14249151981627278,0.9880804488103977,-0.05825112410152631,1
133,26.633366700033367,0.312671140249716,0.9107542341913852,-0.2697470721943171,0.15797665160700625,0.9862067327373195,-0.049392892713630725,1
