,timeStamp,x_gaze,y_gaze,z_gaze,x_head,y_head,z_head,fixations_head
0,0.041701417848206836,-0.9960803655985268,0.05501347988665298,0.06926342685621414,-0.9941926154801154,0.10504229961078687,0.023391421873954703,0
1,0.24170141784820684,-0.9974862037492038,0.02754437608893269,0.06528844213085429,-0.9966341798221126,0.08016333979539991,0.01715081814819211,0
2,0.4417014178482069,-0.9968671994245525,0.004305951861252473,0.07897623370368116,-0.9991179058575115,0.035762369208969795,0.022010523470881362,0
3,0.6417014178482069,-0.8505379867138536,-0.5104569263166737,0.126565633297823,-0.937592334901318,-0.3415387781930113,0.06535959397609449,0
4,0.8417014178482068,-0.8910919968992176,-0.4445587612567298,0.09122807052682294,-0.877256450841855,-0.47813251634308634,0.04254898673036128,1
5,1.041701417848207,-0.8878535671738164,-0.45276647758418015,0.08196682275618414,-0.8628853524211753,-0.5049281299222921,0.02182778482030061,1
6,1.241701417848207,-0.8832729636161775,-0.4622507663568321,0.07844170285770576,-0.848321294321574,-0.5294295150787153,0.007441113094561413,1
7,1.441701417848207,-0.879535910901871,-0.4659118262280443,0.0966579102550051,-0.833863208151549,-0.5517588175553799,0.015308734144138874,1
8,1.641701417848207,-0.8873049762059446,-0.44977195878627707,0.1019561880894127,-0.8375119302888262,-0.546203951264768,0.015330043921644445,1
9,1.841701417848207,-0.8904528101769801,-0.4435501174499484,0.10176977035473989,-0.8385009494355322,-0.5447392070765023,0.013242132357538586,1
10,2.041701417848207,-0.8838732198117459,-0.4536081099144588,0.11405180366592024,-0.8310029025472461,-0.5557018315302288,0.025092835471529712,1
11,2.241701417848207,-0.8787243301953438,-0.46278080301005653,0.11695075839049392,-0.8260846976237486,-0.5627920124401582,0.02914143245341142,1
12,2.4417014178482073,-0.5409094037635227,-0.8372542565529316,-0.08013942103726741,-0.7755692115740644,-0.6309534888803614,0.019750770316213733,0
13,2.641701417848207,-0.4114265287483346,-0.9092150293682804,-0.06368863174015277,-0.5539186738729527,-0.8325688917854016,0.001772897644472909,0
14,2.841701417848207,-0.38134950108319765,-0.924284367196949,-0.01646106250920084,-0.38291701308986414,-0.9233489434067121,-0.02830706265307492,1
15,3.041701417848207,-0.3179722696888128,-0.9480858599250003,-0.0051805327156709685,-0.34040404793775353,-0.9395461388335521,-0.03712326966413186,1
16,3.241701417848207,-0.435190031494755,-0.8997347055991737,0.03297113931853645,-0.32840366400971416,-0.9438793063081569,-0.03525462506150958,1
17,3.4417014178482073,-0.5990833413555469,-0.7978535182400512,0.06729720307891932,-0.3456107874704448,-0.9378016216489247,-0.03288315703679234,1
18,3.641701417848207,-0.5285123914087776,-0.8480614319821497,0.03829438224807063,-0.3615791446035729,-0.9317791416440518,-0.032375197062296794,1
19,3.841701417848207,-0.5064623692610317,-0.8615620600494567,0.034737374768953846,-0.3648422243916531,-0.9304633023657086,-0.03358860300236365,1
20,4.0417014178482065,-0.38441530547433844,-0.9228203971795883,0.025047703814486552,-0.36135541263258064,-0.9317589845038248,-0.035319407661212866,1
21,4.241701417848207,-0.29943317471252395,-0.952913686003653,-0.04790909004052429,-0.3567096522070365,-0.9334971687776671,-0.03662321540245706,1
22,4.441701417848207,-0.36068619159203336,-0.9305431872267549,-0.06320480915806964,-0.3558104825799567,-0.9336520800316035,-0.04114236185343462,1
23,4.641701417848207,-0.4186969459002587,-0.9049533507496191,-0.075843921713164,-0.3592042779092338,-0.9322882178145725,-0.04255544214120707,1
24,4.841701417848207,-0.5245043870397542,-0.851407536765733,-0.0005952432772472208,-0.3628208811729936,-0.9309511430627107,-0.04112149577878748,1
25,5.0417014178482065,-0.5198006077746093,-0.8535331684867378,0.035895103428422406,-0.3765554224096703,-0.9255064493116487,-0.04054412579424192,1
26,5.241701417848207,-0.3899350825094176,-0.9193701048311818,0.05205037724239707,-0.3732608908683056,-0.9268783528438529,-0.03965887514372311,1
27,5.441701417848207,0.08972962786080763,-0.9901694753854102,0.10729866680878553,-0.26838786614062277,-0.963275790539236,-0.0082282847236409,1
28,5.641701417848207,0.07280387679170741,-0.9933907300178725,0.08873811491493784,-0.1547550075491404,-0.9879266836319334,-0.0071941230511622725,0
29,5.841701417848207,0.12750271461505447,-0.9871379959211439,0.09644498314883873,-0.06580499962114844,-0.9978132679241034,-0.006195512850621168,0
30,6.0417014178482065,0.15098781596870242,-0.9832377341024223,0.10220683766821002,0.0032489386071401505,-0.9999773102788103,-0.0059011291701904535,0
31,6.241701417848207,0.6904189614126537,-0.7180843865479856,0.08761547533327489,0.38606020126724444,-0.9224012279323296,0.01155403420565568,0
32,6.441701417848207,0.848885572600757,-0.5140476228593717,0.12307853615848195,0.6974360175331651,-0.7160008424435234,0.030426880675542632,0
33,6.641701417848207,0.8394082718289759,-0.5037966120017827,0.20391843202765425,0.7923535966018002,-0.6079933353980433,0.05019842690517599,0
34,6.841701417848207,0.8407271538368273,-0.4934942364191506,0.22280325720802946,0.8143584481613939,-0.5769403504332081,0.06292972231126982,0
35,7.0417014178482065,0.3485401645351999,-0.6867847331729042,0.6378451881031941,0.5923363867181134,-0.7657745554949378,0.2504534590023865,0
36,7.241701417848207,0.20451006163679117,-0.7543698092717754,0.6237802702463273,0.36412335357369396,-0.8327544815664021,0.417054141345365,0
37,7.441701417848207,0.16048070406033108,-0.649895125265428,0.7428877908409413,0.22607061421119912,-0.7936909515242659,0.564753708140705,0
38,7.641701417848207,0.10705118273714573,-0.6776949946180905,0.7275091329627175,0.07707679680543444,-0.8632645708960106,0.49883208400216256,0
39,7.841701417848207,-0.41124231264353506,-0.8755631531573216,0.25351316558476017,-0.43093573932544255,-0.900436000539374,-0.05924016800018854,0
40,8.041701417848207,-0.5588838136340537,-0.2514611308513797,-0.7902000901852657,-0.4993519201200176,-0.625146233998535,-0.5998665234782656,0
41,8.241701417848208,-0.40343675094293563,-0.0094226357408209,-0.914959016527136,-0.4466184614675657,-0.3484020565400809,-0.8241043361583454,0
42,8.441701417848208,-0.27317925716235997,0.04903994739913995,-0.9607123279188785,-0.38880403684971515,-0.08372518953896634,-0.9175083179819297,0
43,8.641701417848207,-0.02562395325160459,0.19167965407707224,-0.9811229908796623,-0.3139540441556483,0.061334704497203435,-0.9474549657807247,0
44,8.841701417848208,-0.008111489073954786,0.18105498534298142,-0.98343952331979,-0.2671905445058475,0.1273497847452131,-0.9551917321941271,0
45,9.041701417848207,-0.00507258166908181,0.18183785495825372,-0.98331544451381,-0.2560167691379022,0.18160900766161037,-0.9494596264488319,0
46,9.241701417848208,-0.11894355853302582,0.5122257754881315,-0.8505746203650115,-0.35503309126360183,0.3515327544458238,-0.8662425911137961,0
47,9.441701417848208,-0.12517379436973952,0.8390276582809585,-0.5294942018971063,-0.39725421240862885,0.6092031280010479,-0.6863385750177088,0
48,9.641701417848209,-0.14322513315148272,0.9662783460278478,-0.21399233451557864,-0.36223404073285415,0.7979115396902957,-0.48179214871499376,0
49,9.841701417848208,0.025882722095094624,0.9837986336236698,0.17739879700028632,-0.23700843289638052,0.9394245947175031,-0.2476053989230794,0
50,10.041701417848207,0.06845595482105327,0.9866325110709714,0.147885328370761,-0.08241367132554267,0.9946588799624779,-0.062142572286916865,0
51,10.241701417848208,0.059226336120040746,0.9868603687559376,0.15032915116068013,-0.045070410681286976,0.998889187959724,-0.013749482106013029,0
52,10.441701417848208,0.09479831704577979,0.9882129970923815,0.12020129559609864,0.02957682426785757,0.9992752794985793,-0.023960952595106232,0
53,10.641701417848209,-0.001841263033509788,0.9954433884798588,0.09533661459365146,0.05729205670774856,0.9980096049961488,-0.026352392180364524,0
54,10.841701417848208,0.41090368507443314,0.9116756834542633,0.0023684996206770584,0.16273094933487847,0.9855491124771955,-0.04702749221446456,0
55,11.041701417848207,0.44468225798753597,0.8955790510643014,0.013994739221302128,0.3392277391220774,0.9398637131321803,-0.03975854307585419,0
56,11.241701417848208,0.6198118288227921,0.7820052655910147,0.06558247814220827,0.469012906122563,0.882683676511009,-0.029940292441399063,0
57,11.441701417848208,0.780109051543531,0.6201834687206073,0.08247625613186177,0.6004305694490415,0.799463185405686,-0.018486385587615586,0
58,11.641701417848209,0.7629271740765916,0.6411117954691633,0.0831732695390262,0.6976791003199292,0.7164002540018997,0.0038143207505315865,0
59,11.841701417848208,0.7034994220705416,0.707610678203381,0.06614900784566184,0.6644973656061108,0.7472817658622117,-0.0036350395311489435,0
60,12.041701417848207,0.33405972953204055,0.9408571860952853,0.056496481995268584,0.4652312927465596,0.8850004710912511,-0.018275951893924773,0
61,12.241701417848208,0.35348728055900586,0.9353934152891854,-0.009268285528199364,0.4032049038330057,0.9146801331547778,-0.028036753324421015,0
62,12.441701417848208,0.5768242922973538,0.814739771588984,-0.05893081033540337,0.4321265131478139,0.9015499016879014,-0.021781905363115413,0
63,12.641701417848209,0.7061164205579368,0.707713774918241,-0.02325539527551406,0.5869354858556262,0.8094376592791732,0.017816037271891537,0
64,12.841701417848208,0.9215163879211788,0.3199217087157703,0.22013097711382046,0.7961206877424657,0.6011399902145192,0.06944467375797378,0
65,13.041701417848207,0.9287913940484822,0.29846184745730325,0.21969768308712379,0.8541099289053254,0.5124294188089333,0.08895122306342373,0
66,13.241701417848208,0.928806511420517,0.29418353755124144,0.22533200078259316,0.8754636194831987,0.474337903482652,0.09255811299426799,0
67,13.441701417848208,0.8880568863910279,0.40120969581028326,0.2244676959415166,0.8899026973001356,0.44805649584443735,0.08554861699377368,0
68,13.641701417848209,0.8853088230154088,0.4058449581709627,0.22697611728611752,0.8958978075614293,0.43329704219340337,0.09808563418295568,0
69,13.841701417848208,0.9951831499405949,-0.08285883824413112,0.05239189822051131,0.9494537009748375,0.31231656488353315,0.031559990566121646,0
70,14.041701417848207,0.9965838160419956,-0.0810897136088613,-0.01565745669025241,0.9672727864449565,0.17126340453226785,-0.18722233539571792,0
71,14.241701417848208,0.9931407758784937,-0.06837729859591658,0.09484695210806174,0.973290500389175,0.12739999552936837,-0.19098388149607437,0
72,14.441701417848208,0.9925652644204961,-0.08902868493376093,0.08299451261882267,0.9744200385884656,0.09706652804557472,-0.20269108892704416,0
73,14.641701417848209,0.8462498939398454,-0.018988846691658495,-0.5324476882362448,0.9402092534529115,0.0910847418422082,-0.328192214296831,0
74,14.841701417848208,0.8459892625953083,0.011248900680860156,-0.5330812600410172,0.9216665336899791,0.13977658261296444,-0.36192997614033057,0
75,15.041701417848207,0.8043775275776122,0.4023373253581673,-0.43715154094634495,0.8782029959672476,0.35456494717758175,-0.3210034207093583,0
76,15.241701417848208,0.8408773146832287,0.2279635390387925,-0.49087469533479855,0.8108397316907299,0.3977226576910211,-0.42936652998445995,0
77,15.441701417848208,0.8909700364967785,-0.14514409831566252,-0.4302389856685032,0.8759729299938952,0.14949178912924135,-0.45861054381778976,0
78,15.641701417848209,0.8977102401638626,-0.09107663869490897,-0.43107002979675746,0.887388625806966,0.038441203913928176,-0.45941669607239155,0
79,15.841701417848208,0.9007910471992815,-0.044536296639853014,-0.43196297013428,0.8858635088572164,0.07356000147054842,-0.45807725315587705,0
80,16.041701417848206,0.6587702490908981,0.407536183303609,-0.6324049479653392,0.8050330711170427,0.2976345549694033,-0.5131621830338126,1
81,16.241701417848205,0.7072580263783141,0.30351383955175143,-0.6384868309714821,0.7814408193355258,0.30583608374051174,-0.5438883486143906,1
82,16.441701417848208,0.710476124466447,0.27481971028427066,-0.6478408781501885,0.7803507223234851,0.2963372336578453,-0.5506695870639949,1
83,16.641701417848207,0.7276955449428941,0.24357418634059322,-0.6411948296881239,0.7909101361518929,0.2642118709436042,-0.5519540232525486,1
84,16.841701417848206,0.8456797132547578,-0.07443115509063077,-0.5284750001099625,0.8049758165136516,0.21790942358140714,-0.5518418414207091,1
85,17.041701417848206,0.8502918027352221,-0.09646598327022514,-0.5173955588067946,0.8351784832105749,0.16422840124937121,-0.5248865909938636,1
86,17.241701417848205,0.9991314723603425,-0.039366302905957586,-0.013659982963782208,0.9407098886389103,0.16131217102201462,-0.2984012213398824,0
87,17.441701417848208,0.9868800556992927,-0.08628553473703221,0.1364645087856376,0.9880677340054788,0.12810336359519542,-0.0855083694902184,0
88,17.641701417848207,0.9837353637856163,-0.07184665154655519,0.16462925833256015,0.9904048908212698,0.1381957665342358,-0.0002869657190179672,0
89,17.841701417848206,0.9892279760714262,-0.05157983038191979,0.13699464389311844,0.9765125729923168,0.19873971533196644,0.08322091286266044,0
90,18.041701417848206,0.9876435482146729,-0.10389063753844126,0.11733267704176616,0.9816406483816541,0.16929206823276197,0.08787396132142977,0
91,18.241701417848205,0.9818541849058987,-0.1633348526470692,0.09635395940766413,0.9962947761095289,-0.04752149730439604,0.07168281796087703,0
92,18.441701417848208,0.7742897545364785,-0.5869050723239848,0.23668082326250658,0.9658479234479089,-0.25011822673044504,0.06766580693806981,0
93,18.641701417848207,0.7865770410409202,-0.5715057901697652,0.2338326117327163,0.9096118613812048,-0.4108483005482864,0.06172467554556083,0
94,18.841701417848206,0.7792639772176204,-0.5782778019013582,0.24154179273804713,0.8541733093200761,-0.5145948118177057,0.07470031656887126,0
95,19.041701417848206,0.783692195536217,-0.5775080899739631,0.22871586886407605,0.8203761516029436,-0.5684426028685219,0.06209651459787821,0
96,19.24170141784821,0.8015219113304056,-0.547111258206094,0.24131286082883885,0.825930392929894,-0.5583639609008262,0.07790168933862707,0
97,19.441701417848208,0.805895736837196,-0.539664006399042,0.2435052803225587,0.8415791478444721,-0.533928367553629,0.0816396731674556,0
98,19.641701417848207,0.7599030209539314,-0.5967475201578141,0.2577591820490368,0.8037819475458456,-0.5859629059389558,0.10286910937196764,0
99,19.841701417848206,0.24554018347080378,-0.7332837708194366,0.6340385869597783,0.6256836465078124,-0.7322926930792533,0.2688259402576728,0
100,20.041701417848206,0.2767439753373806,-0.8029316029603041,0.5279333415139267,0.5038809344936934,-0.8052926291919743,0.3124224467333292,0
101,20.24170141784821,0.16350411805667991,-0.904954039637639,0.39284168506158523,0.3762580224445621,-0.8941543413933014,0.2427301265059996,0
102,20.441701417848208,0.0644816576767332,-0.995289971898416,0.0723877590598798,0.24179419266888114,-0.9682540236209143,0.06340121555234089,0
103,20.641701417848207,0.041215035778603415,-0.9980210165905777,0.04749074930213833,0.1747683582571094,-0.984381732196292,-0.021180799568060252,0
104,20.841701417848206,0.01868442210034499,-0.9990643445007552,0.039004203851027444,0.12178826495827438,-0.9899766551448592,-0.07151112351690277,0
105,21.041701417848206,0.07409998597679573,-0.9961282275147925,0.047304824558137976,0.17266112484440999,-0.9812438491492389,-0.08572423504615913,0
106,21.24170141784821,0.61455129621135,-0.7850764022405892,-0.07734175437577394,0.7421792443704951,-0.6701942155968794,0.0031116886291634254,0
107,21.441701417848208,0.982815746776295,-0.098695565792693,0.15598843925565112,0.9971539449304904,-0.054073096470068256,0.05253675235203915,0
108,21.641701417848207,0.9932196788594831,-0.06563127044195813,0.09595418628929037,0.9998170055071178,0.0027132072910835193,0.018936578491780903,0
109,21.841701417848206,0.977045881174497,-0.19533987503725878,0.08499223082364105,0.9881329418180771,-0.153311426572236,0.009428455670948343,0
110,22.041701417848206,0.4034059735151584,-0.8317624018644347,0.38135931531430317,0.6944914699075319,-0.7194285504570219,-0.01020583230237883,0
111,22.24170141784821,-0.18310071569457237,-0.9730602237740981,0.14009971028106363,0.1834582658305815,-0.9829674255776735,0.010867610208180452,0
112,22.441701417848208,0.05793586457736882,-0.9963549618174352,0.06261170543477133,0.04785504110048294,-0.9988504148157837,-0.0027827798346934628,0
113,22.641701417848207,0.13979231588115887,-0.9883433132345957,0.06029596673944634,0.08654609237089067,-0.9962096297243157,-0.008726255776172009,0
114,22.841701417848206,0.17065032733395719,-0.9839650177323036,0.05187783399372826,0.12565376387749438,-0.9918609613422313,-0.02056611262937486,0
115,23.041701417848206,0.24201962202042449,-0.9687508534881276,0.05429812541069479,0.27397759602296184,-0.9615514126860166,-0.018845626521946785,0
116,23.24170141784821,0.3163629577527,-0.9473354147621789,0.049700009047629404,0.574810305384892,-0.8179630138476129,-0.023013491709369692,0
117,23.441701417848208,0.8047483553511835,-0.5684471129213335,0.1710203624454302,0.843666895117887,-0.5368401608456712,-0.005367661067736916,0
118,23.641701417848207,0.9965500938461599,-0.06202128531042984,0.055147716395627495,0.9734777139370311,-0.22826934619025793,-0.015305099078551558,0
119,23.841701417848206,0.9990589538129523,-0.004393457294320758,0.04314978956116272,0.9985872644271494,-0.032638638332911266,-0.041930831278140734,0
120,24.041701417848206,0.9980048847001272,-0.039206957680348785,0.049488024653826665,0.9988106411642803,-0.012649337261150473,-0.04708818709456922,0
121,24.24170141784821,0.965173665926085,0.19789808808377501,0.17110272159024464,0.9939433438437136,0.10983555137629165,0.0035750360338844874,0
122,24.441701417848208,0.8506491715994033,0.48105901596807027,0.21208066864540226,0.9330396316139797,0.35563285053693544,0.05442721246420065,0
123,24.641701417848207,0.875774610259705,0.4450970615600222,0.186835322717884,0.8596922406798336,0.5091080704837271,0.04169201222324854,0
124,24.841701417848206,0.48147975656792363,0.8752081199210258,0.04677596433635848,0.6624654434289153,0.7489515608416627,0.014529135396440167,0
125,25.041701417848206,0.41368764301086186,0.9100671808505016,0.02530336655344122,0.3979651291532556,0.9173990442621465,0.0016581812124577015,0
126,25.24170141784821,-0.10998518556844289,0.987440281196298,0.11342376305894437,0.18481375714637638,0.982773024218677,0.0010286095060822547,0
127,25.441701417848208,0.40415083213511016,0.914390297157957,-0.023505091956453412,0.11072637440323141,0.9935571240353241,-0.024164256458067586,0
128,25.641701417848207,0.5179073605988604,0.852734950939984,-0.0679343012248227,0.14639713332758852,0.9888450334482405,-0.02744775360959074,0
129,25.841701417848206,-0.11795931896394174,0.9840590400015643,0.13309171597347086,0.056003995289162944,0.9983601386142712,0.011856902535865943,0
130,26.041701417848206,-0.07364252944777233,0.9887359842261759,0.13029939122202078,-0.032165445725352904,0.9992456432783982,0.02176070978690642,0
131,26.24170141784821,-0.05963740933539252,0.987333551320026,0.14702325613843806,-0.16241445346898598,0.9844834175113507,0.06643753419221864,0
132,26.441701417848208,-0.4633422701853228,0.8027714026098842,0.3753292099094746,-0.29962767868669565,0.9446663726824926,0.13352414945516158,0
133,26.641701417848207,-0.5034966299686907,0.7737035713516761,0.38454379111855835,-0.3967932719337287,0.899048029843858,0.18511547580362867,0
134,26.841701417848206,-0.654177861868581,0.7365897708773018,0.17171730978552002,-0.4439675139618059,0.8786410446452775,0.17573491745020314,0
135,27.041701417848206,-0.32599574520780444,0.9314355697499738,0.16172369495825376,-0.35803111706370305,0.9228442507019569,0.1420288990327707,0
136,27.24170141784821,0.09394409389334579,0.991287342073149,0.09232503814302037,-0.10936285590494843,0.9910388197080544,0.07669304779431095,1
137,27.441701417848208,0.035299545543180766,0.9909160015318826,0.12976679079221765,-0.05223249444295769,0.992759718969268,0.10816610798363316,1
138,27.641701417848207,-0.016505731231994614,0.9926213919945831,0.12012632097601793,-0.07637202661270037,0.9918618734742691,0.10186921762329437,1
139,27.841701417848206,-0.021033364488800776,0.9903264543839555,-0.13715360485814868,-0.08045394180832488,0.991089959920834,0.10615015116156157,1
140,28.041701417848206,-0.03582811668224467,0.9975179415912092,0.060616023117987035,-0.074767836106513,0.9912157780221721,0.10909194325820024,1
141,28.24170141784821,-0.02048831497352399,0.9965738806103542,0.08012945422729943,-0.06586451937049076,0.9937170454749755,0.09048921825599004,1
142,28.441701417848208,-0.02326792593876481,0.9954178784395182,0.0927461638315943,-0.07551909807188778,0.993744637062772,0.08227066388080709,1
143,28.641701417848207,-0.03923001187479552,0.9962148001563352,0.07756982736719736,-0.09765300283552375,0.9938052986970276,0.053055813243385874,1
144,28.841701417848206,-0.08428889038181275,0.9947115973577035,0.05868748623249125,-0.14733185536979165,0.9888539211452063,0.021476662427967162,1
145,29.041701417848206,-0.10603301591586822,0.9935400340803023,0.040437608924082095,-0.17338391135625986,0.98479887392057,-0.010449746771193818,1
146,29.24170141784821,-0.07669877334685266,0.9967103424887468,0.02618761812486314,-0.14856338435228633,0.9882473806035053,-0.036000493886965156,1
147,29.441701417848208,0.3088186349301852,0.9273457151038588,-0.21133143495081308,0.025469944710594883,0.991757999861028,-0.12556811549152422,0
148,29.641701417848207,0.46229660879720896,0.7312917450691264,-0.5014920030153547,0.3049187728088632,0.8824115014272079,-0.35829385166050176,0
149,29.841701417848206,0.46171515430777804,0.5565023228426295,-0.6907418337941483,0.43769618117994724,0.7201551280874685,-0.5383294943339189,0
150,30.041701417848206,0.6018250092564267,0.50952768516012,-0.6149700775557067,0.5469095235572365,0.6305703701616521,-0.5507004460835255,0
151,30.24170141784821,0.8619084411677319,0.3170388723893641,-0.3957274218927611,0.696816160899336,0.5367254115301255,-0.47578679103914645,0
152,30.441701417848208,0.9198432436817787,0.38940104413360377,-0.047489302802246065,0.8296252498146137,0.5141137661944467,-0.21773603348872198,0
153,30.641701417848207,0.8512447936576679,0.45959777463463375,0.2532828198311272,0.8329777412465782,0.5532062495204486,0.010532239992888125,1
154,30.841701417848206,0.8515965074362364,0.47024023044214464,0.23164091649819304,0.8277290766715737,0.5595507902060207,0.04204151296328172,1
155,31.041701417848206,0.853425713044981,0.47444742394087064,0.21578738199796996,0.8259684110980627,0.5620604256015207,0.04317709856832663,1
156,31.24170141784821,0.8525832737040336,0.4694874763777617,0.2295283662743094,0.8271870435212034,0.5578256149486504,0.06776561324013096,1
157,31.441701417848208,0.8567163320051582,0.46591935468677975,0.22126066393257202,0.8309946964253223,0.5519076466913582,0.06961152229762907,1
158,31.641701417848207,0.8610785887803797,0.4634159009669358,0.20925908982644761,0.8359128967837511,0.5447691668591172,0.06690428857869642,1
159,31.841701417848206,0.8817165328964359,0.4290895540763593,0.1961073945562473,0.857777663933469,0.5107832227248681,0.05760189788226362,1
160,32.04170141784821,0.7826800085420197,0.614667867442544,0.09795619920300756,0.871597820574636,0.48772498864017805,0.04941229225084643,1
161,32.24170141784821,0.5617238780297219,0.8271775003694565,0.015609860146335985,0.7379728564006127,0.6741609101672883,0.030052128349492276,0
162,32.44170141784821,0.35393554084851037,0.9351390053694403,0.015642044653015413,0.5249469039413098,0.8511043046734884,-0.007225690879846203,1
163,32.64170141784821,0.3977354525819675,0.9170022894417759,0.03022103436282928,0.4221439716475115,0.9054822422593851,-0.043547401237970594,1
164,32.84170141784821,0.43380330046564025,0.8997450460454735,0.04768174306531097,0.4258706047236109,0.904027874471964,-0.036984188649319974,1
165,33.04170141784821,0.6100554835193699,0.788422628739521,0.07888007048305123,0.4563075930501603,0.889309482297369,-0.030199755309522788,1
166,33.24170141784821,0.5474648891530391,0.8361912160494593,-0.03265647480021973,0.48300201110543284,0.8751806811405518,-0.02770979297048816,1
167,33.44170141784821,0.41057143876888136,0.9109667716638714,-0.03963123252631652,0.5373373420958316,0.8424750872012216,-0.038785412653232376,1
168,33.64170141784821,0.7216074012136221,0.6911794727517334,-0.039416937480716056,0.6443751842755631,0.7634746452519117,-0.043440625539947694,0
169,33.84170141784821,0.7237234632811855,0.6892306320012664,-0.03443086707333461,0.7594730627265942,0.6494540676814586,-0.03755104478831519,0
170,34.04170141784821,0.8862020236358384,0.4187030768481769,0.1983272718050004,0.8651042430353807,0.5015906328072881,-0.0012189184409605663,0
171,34.24170141784821,0.9224158083241726,0.2962608757862375,0.24774698793736194,0.9416919382524164,0.33292925770480397,0.04872784414003392,0
172,34.44170141784821,0.9197667212136199,-0.33545049165594265,0.2037207554367839,0.9973717857635626,0.0655147799840145,0.030940823622662317,0
173,34.64170141784821,0.9042267136435908,-0.3898439001100622,0.17434386676992014,0.9865305037332125,-0.1604774222728899,0.03169482835642202,0
174,34.84170141784821,0.72014292870484,-0.6472860759610872,0.24982973822848545,0.9271218651266524,-0.3735537992019354,0.030043407028463722,0
175,35.04170141784821,0.7214225476219904,-0.6582335720593285,0.21512338877168616,0.8330529228613184,-0.5525034898235112,0.027617411990541123,0
176,35.24170141784821,0.9926034059023223,-0.03952577673061371,0.11478759325358821,0.9308881255221282,-0.361413260451315,0.05317662016195153,0
177,35.44170141784821,0.9975221724600738,0.005409857563748548,0.07014448582515301,0.9783346160065309,-0.20095680983923822,0.04977689928661566,0
178,35.64170141784821,0.996266550183898,0.004680380965823804,0.08620356731997574,0.9819355551947753,-0.18355528649193242,0.04593497844990366,0
179,35.84170141784821,0.9922704072492953,-0.09863957969371302,0.07529722581321094,0.9578247070711625,-0.285695226976008,0.030823169972747387,0
180,36.04170141784821,0.7152512577977033,-0.6769208078072674,0.17376379995948538,0.8620374089972933,-0.5060373644831471,0.028595300945856085,0
181,36.24170141784821,0.6426680626140356,-0.7508967049521669,0.1520917479283481,0.6830739806281674,-0.7303437736040564,0.002812356054423945,0
182,36.44170141784821,-0.029790893789364614,-0.9903823382070238,0.13511227484880592,0.4190376225655761,-0.9076531652676647,-0.023941646856033824,0
183,36.64170141784821,-0.01292965940314772,-0.9921029094249249,0.12475833045660029,0.1668651363225,-0.9851518513797802,-0.04039623748648924,0
184,36.84170141784821,-0.021917924773325326,-0.9944678532504264,0.10272922381250293,-0.005769400478082165,-0.9987647034727494,-0.049353633251410234,0
185,37.04170141784821,-0.523907269295775,-0.8485015779277629,0.07460727466635143,-0.16738209677811228,-0.9852824565943642,-0.034665752631919344,0
186,37.24170141784821,-0.49804797931279066,-0.8658017517554718,0.04832739346998485,-0.2944592505847302,-0.9546918687988818,-0.04309507389920502,0
187,37.44170141784821,-0.6683140398509857,-0.7436079935719538,0.020087210706023817,-0.38082918505304236,-0.9231336226258218,-0.05285306603748862,0
188,37.64170141784821,-0.7070421329730145,-0.7071288069795394,0.007763539184102673,-0.5184030139839613,-0.8525779775946253,-0.06609922248410667,0
189,37.84170141784821,-0.9138755473180926,-0.3701064471364672,0.1668912873761788,-0.6959123697880601,-0.7153193252922797,-0.06343686971599648,0
190,38.04170141784821,-0.9257431647381008,-0.355925029082945,0.12773788245070547,-0.8025568674484843,-0.5933460820666192,-0.06199113974971639,0
191,38.24170141784821,-0.9408161341088661,-0.3174830348694869,0.11861502590527197,-0.8877608187350954,-0.4575850183295747,-0.04996678615957037,0
192,38.441701417848215,-0.9464928834236441,-0.29818355937350777,0.12344142962450728,-0.920758668531392,-0.388823144507515,-0.03193801214206772,0
193,38.64170141784821,-0.9018654888130377,-0.4232729298964711,0.08647928598732522,-0.9346841842733915,-0.3539638828439935,-0.0327878836033753,1
194,38.84170141784821,-0.9808855303180742,0.0696966284940146,0.18167541492782652,-0.9573163949578584,-0.2873928186586673,-0.030833224422956253,1
195,39.04170141784821,-0.9820799872835697,0.06926980423135025,0.1752729094836235,-0.9787438872421965,-0.2014847179510646,-0.0382663248590024,1
