,timeStamp,x_gaze,y_gaze,z_gaze,x_head,y_head,z_head,fixations_head
0,0.041701417848206836,-0.9715792600225014,-0.08922860075049183,-0.21925327432501038,-0.999265202313869,-0.038271502622487,-0.002085073533364087,0
1,0.24170141784820684,-0.9979700073997334,-0.010483239774576212,0.06281692458569768,-0.9985266796667134,-0.01909535127105894,0.05079210129147992,0
2,0.4417014178482069,-0.8929107784379968,-0.43805423144097205,0.10401361481032251,-0.9943991922012141,-0.06118016903135216,0.08618139861285953,0
3,0.6417014178482069,-0.8535663749066862,-0.5041165864118605,0.13149490839234657,-0.972245779902877,-0.20433603289338043,0.11395143317414759,0
4,0.8417014178482068,-0.813111980980296,-0.5748248060539402,0.09178969839447781,-0.9461877441025951,-0.30533178254042825,0.10724390649695095,0
5,1.041701417848207,-0.8459518224475999,-0.5113210354834966,0.15138134881704973,-0.9163510765152202,-0.38793977690367576,0.0990122924960504,0
6,1.241701417848207,-0.8261479938245251,-0.5442696646147887,0.1457738813361916,-0.8784712031111159,-0.4682929566297473,0.09481588514314554,0
7,1.441701417848207,-0.47522774826973263,-0.8753237353825101,-0.0892577478457171,-0.7913309867613717,-0.6074919138343996,0.06891185686870027,0
8,1.641701417848207,-0.31356954854021524,-0.9490081597519235,-0.03252154597422004,-0.6444910933996172,-0.7603686969406285,0.080440507465934,0
9,1.841701417848207,-0.36252681291313194,-0.9302162659491477,0.05720147273166591,-0.5123542950590253,-0.8525466682663687,0.10323398065793771,1
10,2.041701417848207,-0.4195472861165891,-0.9047510398411169,0.07352299380889332,-0.46857512575100463,-0.8760747339320383,0.11371196987713707,1
11,2.241701417848207,-0.375083780775371,-0.9242176513003869,0.07165117182607612,-0.42082267048998884,-0.8988199468196826,0.12260091027695202,1
12,2.4417014178482073,-0.30735727989921835,-0.9510554680577501,-0.03201560823110403,-0.431676221855816,-0.89693214131299,0.0957516232968527,1
13,2.641701417848207,-0.34802322777881295,-0.9364468998108556,-0.044125239501378165,-0.48634322753332293,-0.8713012080564632,0.06560845884349621,1
14,2.841701417848207,0.07081379802222565,-0.9927228039765155,0.09740041311346022,-0.4479645818172799,-0.8922688763381844,0.05642681769747121,1
15,3.041701417848207,0.08893407139431853,-0.9921814873100073,0.08755927811792384,-0.3992954947958993,-0.9153989199478596,0.051067848926603085,1
16,3.241701417848207,-0.443621769961068,-0.8936946888491912,-0.06715302181850256,-0.4558454519082891,-0.8891421581846423,0.04038745489981406,1
17,3.4417014178482073,-0.9362721022630174,-0.3304554718310707,0.11913744860829711,-0.701484734560451,-0.710233499376212,0.05905542771391961,0
18,3.641701417848207,-0.9285197353818285,-0.3499666033684036,0.1239938608691646,-0.866710096733869,-0.4911007871267784,0.08737061922080178,0
19,3.841701417848207,-0.8909200252568387,-0.4349040258766868,0.13084340591945778,-0.8941672670036527,-0.43947462299039386,0.08559763061364438,0
20,4.0417014178482065,-0.5143619194334897,-0.8404374596149856,-0.17057752581335442,-0.8188190232954601,-0.5737213485406572,0.019473605679460253,0
21,4.241701417848207,-0.40856627580488486,-0.8860911556401195,-0.218897378173619,-0.7426191243279281,-0.6695989910870564,-0.012410774255373482,1
22,4.441701417848207,-0.4169417349205954,-0.8824312196674761,-0.21788697124329134,-0.7036359835046838,-0.7099456469985178,-0.029556404132647963,1
23,4.641701417848207,-0.5447604338493001,-0.8276008801805623,-0.1353249896976951,-0.7214904799425215,-0.6917640327660711,-0.030232603651229772,1
24,4.841701417848207,-0.36965132406882445,-0.9291167584273592,-0.009997390839674151,-0.6876712155790684,-0.72602178557851,0.0008161675063944662,1
25,5.0417014178482065,-0.4673644269462814,-0.8809230690207754,0.0744650179090295,-0.660116114184398,-0.7507119669357915,0.026043396350822503,1
26,5.241701417848207,-0.45675383540180714,-0.8893805250019571,-0.019447765758101362,-0.666085012068375,-0.745333465040097,0.028439103171436036,1
27,5.441701417848207,-0.45391726789153863,-0.8885474206825961,-0.06665279520160629,-0.6705588882655436,-0.7414908488570325,0.023283007309112185,1
28,5.641701417848207,-0.5915310029595122,-0.8045881274415649,-0.052240001127390474,-0.6724278325053056,-0.7394117809829898,0.03333208988017498,1
29,5.841701417848207,-0.6003546617432665,-0.7965835824745491,0.0709145701188511,-0.6711344805284207,-0.7351808120229666,0.0953293379768193,1
30,6.0417014178482065,-0.6911022811586223,-0.7176138551442874,0.0860696920077128,-0.7641313653193599,-0.6357210249361255,0.10937108845272359,0
31,6.241701417848207,-0.9325782562486868,-0.3346346732460181,0.13534190568219914,-0.8641295268185868,-0.4873665692683391,0.12551489170570407,0
32,6.441701417848207,-0.934537555396102,-0.32325204747761555,0.14882093722257933,-0.9179006266568221,-0.3694481269082796,0.14479820823123865,0
33,6.641701417848207,-0.9721713757861268,-0.23305363665275752,0.023849917086520307,-0.9637774817564213,-0.2155363385669453,0.15708931350160515,0
34,6.841701417848207,-0.9710112834085821,0.155229570759532,0.1817714715103267,-0.985167204480239,-0.04414341871264915,0.16582200638320096,0
35,7.0417014178482065,-0.9795232615507525,0.10706522388785619,0.17050283843625508,-0.9835920381342556,0.0704425587183726,0.1660859670174145,0
36,7.241701417848207,-0.9731146884847879,0.1554088394392033,0.16998792803994653,-0.967534332833656,0.19386910644922753,0.16214834057957744,0
37,7.441701417848207,-0.7243238427864546,0.6860126092754326,0.068859790053241,-0.9287186512769648,0.3413867718460018,0.1446953308813435,0
38,7.641701417848207,-0.7151699748864653,0.6925218820562513,0.09457985987598272,-0.8469467037211468,0.5179240291033763,0.1201498278534325,0
39,7.841701417848207,-0.7718660002355047,0.6292432518849537,0.09097146606322627,-0.7996433733594814,0.5908159797583971,0.10727046892968439,0
40,8.041701417848207,-0.8135430768658032,0.5663611365926273,0.1318435627599211,-0.761067443394968,0.6400339509796825,0.10551250256526376,0
41,8.241701417848208,-0.39226916169428333,0.910652595845597,0.12975651992612786,-0.7028389217079598,0.7029878341730885,0.1087453683474509,0
42,8.441701417848208,0.0018792935969882962,0.9911176677087623,0.1329745727991636,-0.468502996202207,0.8776072764716807,0.10154019319222254,0
43,8.641701417848207,0.09734838663429762,0.986297900675363,0.1331906255825507,-0.152195728414391,0.9848753357468367,0.08280720554377154,0
44,8.841701417848208,0.047423686238153684,0.9863342904266463,0.15778359075692572,0.033012035024872544,0.996220799923939,0.08033880346646871,0
45,9.041701417848207,-0.05633834550136346,0.9833127578474572,0.17297979963162408,0.07569637338632862,0.993942388154936,0.07967802761753287,0
46,9.241701417848208,-0.08595922980053294,0.9769657839757607,0.19531735138672865,0.06272231167651021,0.9931605862598176,0.09847822864983985,0
47,9.441701417848208,-0.10157968557144054,0.9766660900612426,0.18922186978172517,-0.03689472681986278,0.9928562523582768,0.11346912040712127,0
48,9.641701417848209,-0.022244263426721034,0.9838415276354476,0.17765427448995266,-0.18201908674218287,0.9752754354408715,0.1253270804222314,0
49,9.841701417848208,-0.07850433663571477,0.9738744334265569,0.2130860320328142,-0.3869274051187495,0.9119212356379175,0.1366998286783312,0
50,10.041701417848207,-0.9132344780164207,0.4025653999205185,0.06280037379593255,-0.7395163172624744,0.6626315327989789,0.11846969335244861,0
51,10.241701417848208,-0.990169476668079,-0.1163589518365269,0.07762088509136968,-0.9435707188532905,0.3052622601785747,0.12841047867426236,0
52,10.441701417848208,-0.9484832429898926,-0.1971263244336445,-0.2480337678274032,-0.9869190579684332,0.04330584988930656,0.1552912630641704,0
53,10.641701417848209,-0.9730731536683015,0.07686942161587354,0.21730101157258205,-0.9867461183193372,-0.018620557870431223,0.16119979158272696,0
54,10.841701417848208,-0.9673544948007733,0.15726195566391646,0.19873086999633732,-0.9852308019706107,0.06003434237337053,0.16036254108782447,0
55,11.041701417848207,-0.7777786641383679,0.6229404449745547,0.08369917338922732,-0.9544348664143307,0.25569975365501896,0.15385617229549714,0
56,11.241701417848208,-0.7290637924805692,0.6742960596970404,0.1174342810719894,-0.8246618455047896,0.5498165381076565,0.13279538769078678,0
57,11.441701417848208,-0.7122682299132387,0.6905369851613418,0.12582782196536207,-0.6345192679429108,0.7626458470018325,0.12552533871713045,0
58,11.641701417848209,-0.026631446841512196,0.9939273256170916,0.10676721140305047,-0.3111261828325222,0.941981273297656,0.12598324933335603,0
59,11.841701417848208,-0.0064972199269762165,0.993408007081733,0.11444788158423981,-0.151216634563189,0.9808399272349806,0.1228273852732412,0
60,12.041701417848207,-0.15489883924219178,0.9797606894426373,0.12678856819252363,-0.30877581595800785,0.9433794435243417,0.12121353478539415,0
61,12.241701417848208,-0.7437541463628287,0.6673366375602858,0.038621003842884374,-0.5391647856355075,0.8319145545503103,0.1312231224212267,0
62,12.441701417848208,-0.9052117144117324,0.41993574560350116,0.0651592023907895,-0.910744805137687,0.3987973231163093,0.10725947505923673,0
63,12.641701417848209,-0.8919685535726234,-0.4483042046500231,-0.058441761871733056,-0.9952294209389188,-0.052981458018715975,0.08192291989300389,0
64,12.841701417848208,-0.8697253208665636,-0.4935221463498814,0.0037090842210746773,-0.9754772706069591,-0.2021853486382571,0.08697803932731465,0
65,13.041701417848207,-0.8647317615018286,-0.4980595490910124,0.06461939499254105,-0.9685633832864153,-0.22681347508035246,0.10217935250698695,0
66,13.241701417848208,-0.8850893849191621,-0.45557713784149934,0.09521686919641177,-0.9761480256693319,-0.18925582632033688,0.10638263103379411,0
67,13.441701417848208,-0.9673787737259719,0.18986401480451356,0.16771989752783267,-0.9926380845168177,-0.0019902862953049406,0.12110190719904523,0
68,13.641701417848209,-0.8366600888780041,0.5317987164653063,0.1311107197924832,-0.9547659922344205,0.2669044277685158,0.1310874765573886,0
69,13.841701417848208,-0.7247831789346169,0.6838017923192319,0.08428791345404975,-0.8710165702079403,0.475194183616871,0.12458178951954112,0
70,14.041701417848207,-0.7584315845638236,0.6450757828543778,0.09305249008392656,-0.802847922443411,0.5835262035397568,0.12219813096270206,0
71,14.241701417848208,-0.7647278255782488,0.6385023770379682,0.08663756288832213,-0.7741479772713004,0.6204721013135546,0.12533666972716614,0
72,14.441701417848208,-0.8560745377672706,0.5038205727891226,0.11533089881291297,-0.8058786619205297,0.5761260527356936,0.13652235575306246,0
73,14.641701417848209,-0.9879284483780808,-0.03736255595480007,0.15033768754973628,-0.9759481555134559,0.16241168667856318,0.14542228776947436,0
74,14.841701417848208,-0.8242055482734616,-0.5544447930424605,0.11522233144380431,-0.9222261207064446,-0.36713762621809815,0.1212804423709058,0
75,15.041701417848207,-0.18560462661168742,-0.9825510847412041,0.012012012912892625,-0.5416886045892101,-0.8348994997687252,0.09755142717627036,0
76,15.241701417848208,0.2331184535484112,-0.9722478028227762,0.01974832958711496,-0.17768266496931634,-0.9789108907039316,0.10080842539509004,0
77,15.441701417848208,0.23029175284378967,-0.966919706020744,0.10969043112730156,-0.036086446082105705,-0.994853893477215,0.09467575741651024,0
78,15.641701417848209,0.22706083681621864,-0.9662419446076961,0.12173693303618464,0.014467853166616307,-0.994818153231603,0.10063559621531715,0
79,15.841701417848208,0.3093891933036217,-0.9415880134405447,0.13300503754378384,0.1292678014388995,-0.9854044267374048,0.11076078402340803,0
80,16.041701417848206,0.8347304017561517,-0.5499412666299816,-0.02810266253267728,0.5020159191017939,-0.8562102869186614,0.1219998423894246,0
81,16.241701417848205,0.8690153396221189,-0.46659411777090526,0.1646276670643318,0.6630741045102876,-0.7390829168087394,0.1186978264727983,0
82,16.441701417848208,0.8318968529519913,-0.4806641118206453,0.2773258690714649,0.7156292665495261,-0.68512246085949,0.1359483963996046,0
83,16.641701417848207,0.8224777644508879,-0.5087514767847707,0.25436639293189817,0.7842531609382473,-0.6047756057698281,0.13854041368533984,1
84,16.841701417848206,0.7974241978145831,-0.5412771168015078,0.2667090766487252,0.7695838426150512,-0.6160107885958905,0.16814106434575055,1
85,17.041701417848206,0.883604817086177,-0.41584750049306657,0.2152054449956437,0.7497328092332183,-0.6399979857519879,0.16823582553268943,1
86,17.241701417848205,0.9946491229603104,-0.04769755675182046,0.09164095849669221,0.8153986284678901,-0.5548005470216767,0.16529195297149885,1
87,17.441701417848208,0.9945913134304528,-0.0642416470261236,0.08161574625069465,0.8243942265400176,-0.5429596062382012,0.15990317458119402,1
88,17.641701417848207,0.9894563878362959,-0.10475426194146505,0.10001300502958846,0.8123942405712042,-0.5599413832213911,0.1627305909866112,1
89,17.841701417848206,0.8268557804171786,-0.4995015004586652,0.2584719896434437,0.8032919447095624,-0.5692431230905757,0.17516939909361287,1
90,18.041701417848206,0.8164374551985629,-0.5266399722200213,0.2368126293274697,0.7842386070060845,-0.5995304109625701,0.15979078074847694,1
91,18.241701417848205,0.9377117401118757,-0.2915940879477553,0.18886392013901143,0.8462929966813001,-0.5150017029360614,0.13624026475730938,1
92,18.441701417848208,0.9844819802431674,0.13536177782677195,0.11167998782265075,0.9550194523790125,-0.27658753773162237,0.1069447499845113,0
93,18.641701417848207,0.8956487818140695,0.4351338014895783,0.09204256860932034,0.995748699386738,-0.010848964690605143,0.09147036478970559,0
94,18.841701417848206,0.8612715776832118,0.4523289990659983,0.23153778542394218,0.9935376295585743,0.061945473048799625,0.09510907958702015,0
95,19.041701417848206,0.8888106886850837,0.3762957540243188,0.2615665597556701,0.9931976803786016,-0.04190948206917728,0.10863683999113184,0
96,19.24170141784821,0.9890515985665926,0.024542870020828195,0.14551488894270853,0.9820151348231827,-0.14859811453099928,0.11646834478105426,0
97,19.441701417848208,0.9901152655684895,-0.0233298525070081,0.13830212894327035,0.972422464485429,-0.1979848285008857,0.12327432111984905,0
98,19.641701417848207,0.9898161520679704,-0.049565181055499764,0.13344391305822978,0.9592468501712802,-0.2548419682803831,0.12206986376439635,0
99,19.841701417848206,0.8465358394479191,-0.48206697389760134,0.22580634447999187,0.909188048645251,-0.3931290112146676,0.1372103230155023,0
100,20.041701417848206,0.7877372183950194,-0.5758710985994255,0.21872940486630554,0.8294884218458238,-0.5385421212828633,0.14805857498935543,0
101,20.24170141784821,0.7669833835437395,-0.5926082510971533,0.24607305845900837,0.7431943929239585,-0.6547963803303926,0.1374910711013812,0
102,20.441701417848208,0.7717320146555358,-0.5740714819025255,0.2736268101300498,0.713232524840093,-0.685051562407194,0.14833651726290684,0
103,20.641701417848207,0.8647285779960588,-0.4215298322049906,0.27305143646966323,0.7587499388667939,-0.6343138999580583,0.1481364458519088,0
104,20.841701417848206,0.991118560730276,-0.02778004365866072,0.13004717509530597,0.8249134184081978,-0.5436619680871905,0.15475631355671438,0
105,21.041701417848206,0.9909496960895933,-0.04185301727469142,0.12754224698094108,0.8362385654440069,-0.5232830223397673,0.1639510298690076,0
106,21.24170141784821,0.9442239375685237,-0.3029145349624855,0.12916632777567985,0.6583661002056351,-0.7365868338273793,0.1548996911945938,0
107,21.441701417848208,-0.025816540610958116,-0.9981632067794266,0.054806193652673564,0.3330759301274362,-0.9267135284027074,0.17396109060691792,0
108,21.641701417848207,0.013284914949388604,-0.9935361422153712,0.11273617496875463,0.0552144432675758,-0.9842076416443865,0.16818645422104164,0
109,21.841701417848206,0.04718522947570852,-0.9919369129129526,0.11762106495031514,-0.11163108544970646,-0.9800075675429325,0.16469264804448666,0
110,22.041701417848206,0.05555816231853372,-0.9943856844967531,0.09005776517164578,-0.19254763486554366,-0.9675996174606823,0.16332908068567303,0
111,22.24170141784821,-0.5624549709473662,-0.8219225297904634,0.08993197806921556,-0.33922808867499954,-0.9289818154129997,0.14804421800892562,0
112,22.441701417848208,-0.6624442597872648,-0.7439409892911629,0.08786015665470043,-0.5822434921516717,-0.8014324933164421,0.136742365430825,0
113,22.641701417848207,-0.5160306522898668,-0.855312850429365,-0.046392820432576753,-0.6604439431311829,-0.7404342054695097,0.12478375435957492,0
114,22.841701417848206,-0.5589794378519473,-0.8276734354731724,-0.04998672094424036,-0.7258314918160029,-0.6781273673862785,0.1153772901827355,0
115,23.041701417848206,-0.9306081119813266,-0.35810930320833956,0.07567211421777695,-0.8013359525505427,-0.5829458476146282,0.13429381928732784,0
116,23.24170141784821,-0.9208608206478694,-0.38331797869149825,0.07129289030188923,-0.8632066469976516,-0.48945783404748333,0.12371464451962992,1
117,23.441701417848208,-0.930436392518303,-0.352735420539558,0.09932694787572652,-0.8969958426378615,-0.4198106641164784,0.13841049304324607,1
118,23.641701417848207,-0.8783320293314879,-0.46023327312410145,0.12929880339704006,-0.9081980677754791,-0.3883028673970833,0.15619587977949215,1
119,23.841701417848206,-0.8623969546691437,-0.4880707900640918,0.13438153319411217,-0.9012866345068384,-0.39985499617611414,0.1667284753494032,1
120,24.041701417848206,-0.8483974642305153,-0.5139616885840507,0.12674827555064846,-0.886100057976728,-0.4336121150573783,0.1637291083744931,1
121,24.24170141784821,-0.8833576881264266,-0.44932315546775703,0.13337127422512435,-0.9087498661572286,-0.3813396224001025,0.16956937561648971,1
122,24.441701417848208,-0.9021402903114368,-0.40683917713170803,0.1436133021262012,-0.9242020530225588,-0.33789232929285307,0.177986906804792,1
123,24.641701417848207,-0.8992444869740559,-0.41399924191063453,0.14129395013300144,-0.9250852079732796,-0.3349315085764358,0.17899229746485448,1
124,24.841701417848206,-0.8760238218783984,-0.47038599976579104,0.1063920801841071,-0.9416756871620915,-0.29060197692566864,0.16969794110329203,1
125,25.041701417848206,-0.8821093479232844,-0.4598480874236873,0.10209228569845612,-0.9508338160473948,-0.2619630272980915,0.16519814342046266,1
126,25.24170141784821,-0.8895710353623456,-0.4437070361453823,0.1085699733786715,-0.9541972251434282,-0.254984438368441,0.15649470188639877,1
127,25.441701417848208,-0.88158922325933,-0.4598662266289245,0.10641191211084465,-0.94924814889726,-0.2775014593134141,0.1480570562116213,1
128,25.641701417848207,-0.8724500773127294,-0.47785827217034066,0.1023832716579686,-0.9435821242081998,-0.3005806193322937,0.13893907354144905,1
129,25.841701417848206,-0.870252239628339,-0.47943517997414714,0.11315011102521046,-0.9399337829200238,-0.3087933696785269,0.14550305346704823,1
130,26.041701417848206,-0.8768341312913774,-0.465434513529005,0.12055131612103587,-0.9410733520804023,-0.30320487526183876,0.14982573083956,1
131,26.24170141784821,-0.9497256800214595,-0.31200217233812244,-0.025995714340427804,-0.9473808365364725,-0.2775717150662721,0.15944746331824153,1
132,26.441701417848208,-0.9556407742834063,0.21378817074557618,0.20259646733413816,-0.9684329082297631,-0.1701384295145404,0.18218292197670316,1
133,26.641701417848207,-0.9626242461814363,0.16241487921511508,0.21673940037095493,-0.9790280584573834,-0.0585524388824246,0.195129886624491,0
134,26.841701417848206,-0.9613594460809756,0.17282482227088128,0.214288581678815,-0.9807884340267189,0.007124996210518702,0.19494430514487024,1
135,27.041701417848206,-0.9649534273610914,0.15514565877500003,0.2116476023661846,-0.9793709011286302,0.06974624923253532,0.18965257377765274,1
136,27.24170141784821,-0.9735755193398263,0.10506597256606792,0.20276057198314903,-0.9755454356072935,0.11775399538373812,0.18559391055997074,1
137,27.441701417848208,-0.9711957970612813,0.11782234833819005,0.20711498739245504,-0.969768074270929,0.15637608890076368,0.18734033453838617,1
138,27.641701417848207,-0.9671083758268605,0.11524401841648393,0.22676023819169336,-0.9648486838099333,0.1639315839665654,0.20541045038763797,1
139,27.841701417848206,-0.9715586603379363,0.08231162228360052,0.2220328046920013,-0.9679311063868739,0.1430246103755628,0.20652683630850655,1
140,28.041701417848206,-0.9722187607856196,0.047179503757568436,0.22927009312525595,-0.9692187198232709,0.11376206746853224,0.2183420828640809,1
141,28.24170141784821,-0.9719256930117496,0.008798637940290975,0.23512343829151874,-0.9711320393570977,0.06924202713580112,0.22827199524306435,1
142,28.441701417848208,-0.9764057896704147,-0.013771108443938272,0.2155042701904525,-0.9757936268773993,0.03371574224058838,0.21607879690200293,1
143,28.641701417848207,-0.9791197069740429,0.0025386397295982686,0.2032686761982477,-0.9772019761723267,0.03657885663088349,0.20913700058209883,1
144,28.841701417848206,-0.9800479103937544,0.036384750356143136,0.19540277192086353,-0.9769592888675485,0.057992810784089056,0.20539567130973166,1
145,29.041701417848206,-0.9805805236741498,0.035935440459474485,0.19279647483788162,-0.9776635739428865,0.0537480269503816,0.20318731698647843,1
146,29.24170141784821,-0.9817867301300368,0.027333640010951774,0.1880098100215046,-0.9791316424387908,0.03989292635490336,0.19927313216276418,1
147,29.441701417848208,-0.91168095215944,-0.40261666684131414,0.0820832568265126,-0.9798193718487764,-0.014070590519530196,0.1993891096130897,0
148,29.641701417848207,-0.8780151511029444,-0.47125663821085817,0.0837052888166245,-0.9733215829886631,-0.12419154099791108,0.19292889164924837,0
149,29.841701417848206,-0.8820782392437235,-0.45548710773956486,0.1202891289175319,-0.9574287082856363,-0.21538660822903333,0.1921948946930976,0
150,30.041701417848206,-0.856727997292667,-0.49194236430344723,0.1549511176417587,-0.9393567885539618,-0.28330245232520684,0.19325771473375186,0
151,30.24170141784821,-0.8540038471267947,-0.49128052856561194,0.17123338268260532,-0.9293887414310875,-0.3096415189469655,0.2008947412088116,0
152,30.441701417848208,-0.8623814921630647,-0.47466652757427114,0.17603934098714896,-0.9283505149902141,-0.3105531337851946,0.20425981595409004,0
153,30.641701417848207,-0.8099873817727302,-0.5812530562450394,0.0778802027139042,-0.9235567629467226,-0.32395157499492344,0.20517866037597493,0
154,30.841701417848206,-0.5809020611755055,-0.8123117385520807,-0.051984947172669875,-0.854468905735973,-0.48892102451888797,0.1756107084256813,0
155,31.041701417848206,-0.476599191848333,-0.8789539379064272,-0.017122656578366806,-0.7355130566951994,-0.6567476944542164,0.166442209970776,0
156,31.24170141784821,-0.33389748434082905,-0.9425590030000122,-0.009746579630277197,-0.6102174738778696,-0.7734911474107092,0.17130697432205247,0
157,31.441701417848208,-0.27099797252009256,-0.9604632289983862,-0.06380034977954928,-0.4687463006853168,-0.8677648253420904,0.16510939855999013,0
158,31.641701417848207,-0.26356115054442686,-0.95989598186039,-0.09557836539706832,-0.32575468021633347,-0.9321904654669657,0.15781262436711552,0
159,31.841701417848206,0.19350329115709086,-0.9763636173945528,0.09628376259576366,-0.1552433444951064,-0.9743020680254327,0.16320228010459673,1
160,32.04170141784821,0.15752707940557492,-0.9743524722930551,0.16069374284756882,-0.07375612088680727,-0.9833557556332344,0.1660466575837085,1
161,32.24170141784821,0.14420117551657935,-0.9752507372507772,0.16760674351425295,-0.05959375080598783,-0.9845252368430322,0.16479879515350088,1
162,32.44170141784821,0.1174171901466996,-0.9786971251817186,0.16841953752190866,-0.07751211615560721,-0.983774004434109,0.16180414101239163,1
163,32.64170141784821,0.06082088386696938,-0.9842603130072226,0.1659290701612147,-0.1352003280162628,-0.9778197451789559,0.15996692546416164,1
164,32.84170141784821,0.04178653814508143,-0.9841474315494123,0.17235927072410262,-0.16653586393734987,-0.9714228705315662,0.16912543460654408,1
165,33.04170141784821,0.08494920579961929,-0.9894103367828552,0.11768949783753417,-0.2454307737018202,-0.9532629598205324,0.17621993290863566,0
166,33.24170141784821,0.011500220060268518,-0.994801054030219,0.10118600614181392,-0.36345421675020384,-0.9134604694611298,0.1830054727551846,0
167,33.44170141784821,-0.6897144560079739,-0.6896528096467351,0.22061951708765315,-0.5240878981496357,-0.8264472907377473,0.2057103561936885,0
168,33.64170141784821,-0.8555335551794359,-0.5099977553806905,0.08924475037049998,-0.632769526082304,-0.7488822252321043,0.1969216585167521,0
169,33.84170141784821,-0.9339193831028091,-0.3482501139169102,0.08072449455851508,-0.734223352750722,-0.6518338505180586,0.1898122746143929,0
170,34.04170141784821,-0.9200703522535496,-0.37595194917228514,0.1101393608915043,-0.8656653533379457,-0.4710410560172595,0.16954002352375297,0
171,34.24170141784821,-0.9734499895464115,0.20469307906292633,0.10244931056785875,-0.9790773631887135,-0.13759508552384728,0.14991700814491085,0
172,34.44170141784821,-0.8120202919897415,0.5786308332765311,0.07621944750916726,-0.918593961178659,0.3715246317087338,0.13473894210580056,0
173,34.64170141784821,-0.7340472094912183,0.6729193002616535,0.09140191230779604,-0.7311544069534812,0.6731461628333221,0.11084889108727457,0
174,34.84170141784821,-0.7599551713019594,0.640373114354533,0.1113122276449713,-0.5888584022652222,0.8002959037981872,0.11301437273857097,0
175,35.04170141784821,0.0825084305581602,0.9841055557920106,0.15725334319539122,-0.3032932613579855,0.9433687053271602,0.13441980294656944,0
176,35.24170141784821,-0.02652677797514047,0.9905382658021324,0.13464870601666362,-0.1683222214524273,0.9775495898242302,0.12674552930892324,0
177,35.44170141784821,-0.0822597512802768,0.9816063579023893,0.17228549400606533,-0.3366502139088242,0.928290480080741,0.15793485386896228,0
178,35.64170141784821,-0.36363925660534024,0.9174709369237215,0.16128723122375285,-0.6678520257557158,0.730451455779552,0.14287876834407565,0
179,35.84170141784821,-0.9527414821867574,-0.25021551559819516,0.1722668391609655,-0.989083590174817,0.06315258423890346,0.13313678211089114,0
180,36.04170141784821,-0.7952525232355828,-0.5998820848049522,0.08783455252634316,-0.9161182598395575,-0.38731881904334065,0.10349621444001278,0
181,36.24170141784821,-0.3637120495699832,-0.9233868470598016,0.12276105113007671,-0.5128482691253806,-0.8555074236434338,0.07137016846046798,0
182,36.44170141784821,0.6300053817446228,-0.7727075183021922,0.07756487692299598,0.18495197451636092,-0.9813113650281775,0.05311094038928936,0
183,36.64170141784821,0.8697295753801287,-0.4910439205293991,0.049460426809908434,0.5600185472985252,-0.8243989994473107,0.08213109272329741,0
184,36.84170141784821,0.8618441479904683,-0.46611434283154096,0.19990518747972683,0.7123563237738347,-0.6951598992631733,0.0964426380593274,0
185,37.04170141784821,0.8510216455402041,-0.3637268130160265,-0.3787676917521448,0.7707384461927675,-0.6272623463092238,0.11182216445323324,0
186,37.24170141784821,0.8628147756979101,-0.3259094182141573,-0.38643720570964035,0.796056846544263,-0.5957397146051591,0.10671311780735908,0
187,37.44170141784821,0.8690487403795442,-0.3200380161015657,-0.37726642455233367,0.7993909673385302,-0.5895669568557474,0.11569306254664609,0
188,37.64170141784821,0.8650221865127862,-0.33559878153576495,-0.3729746300653016,0.7852058451948389,-0.6078585174525619,0.11815161205938766,0
189,37.84170141784821,0.6894059523875126,-0.7081835916654818,-0.1523004704800524,0.68193975517758,-0.7223970817538246,0.11445796862560696,0
190,38.04170141784821,0.16042006267165126,-0.9836138594661095,0.08227502025893427,0.48229837280073595,-0.8700198933360329,0.10224316502006478,0
191,38.24170141784821,0.06578780896147962,-0.9959112805477319,0.06190868654578756,0.38291898203929264,-0.919082702902087,0.09305932742173563,0
192,38.441701417848215,0.08059090483027681,-0.994781652668796,0.06256652117687411,0.2934688683164108,-0.9519785343343384,0.08725189680305331,0
193,38.64170141784821,0.07534881948573413,-0.995076775982754,0.06437985167639294,0.23234982330849424,-0.967792622788145,0.09690716632610166,0
194,38.84170141784821,0.7789077720311557,-0.5956292164718543,0.196286828785291,0.3491229119883766,-0.9275740213833277,0.13311508997675167,1
195,39.04170141784821,0.8012888849565005,-0.5666911836536187,0.19182602851132777,0.4055962711196186,-0.9044122105566361,0.1324017305397469,1
