,timeStamp,x_gaze,y_gaze,z_gaze,x_head,y_head,z_head,fixations_head
0,0.041701417848206836,-0.9971371784069472,-0.013721022296940033,-0.07435846277162342,-0.9923051506590503,0.11066298188470075,0.055535505903031315,0
1,0.24170141784820684,-0.9935663444160525,-0.06597532829638376,-0.09204985225358255,-0.9988317820259077,-0.005508185049426391,0.04800761515021418,0
2,0.4417014178482069,-0.9927142959317616,0.07351686924307002,0.09546515903409332,-0.9974227264253686,-0.011687639111176042,0.07079056365216525,0
3,0.6417014178482069,-0.9915963966959893,-0.1033054839939579,-0.07787530440585315,-0.9961897539613872,-0.035226076137520185,0.07978156217011854,0
4,0.8417014178482068,-0.8673583422664118,-0.4972845338212681,0.01993987269332471,-0.9874733914119957,-0.13960289089207084,0.0735345776343891,0
5,1.041701417848207,-0.8655691649902693,-0.4974979291442527,0.05732216949164228,-0.9529215277119806,-0.29769317565603876,0.05761367190943367,0
6,1.241701417848207,-0.841137409937324,-0.5352146906718472,0.07767298431867564,-0.9116224865506971,-0.4058660543321392,0.06493987955013246,0
7,1.441701417848207,-0.7624735678280437,-0.6437665840023336,0.06479694194590072,-0.8358586738823772,-0.5465091368801159,0.05165307930941259,0
8,1.641701417848207,-0.506343071856094,-0.8591791654254898,-0.07367397968138736,-0.7029841735335227,-0.7100528226072572,0.040475188311568565,0
9,1.841701417848207,-0.27423848774432696,-0.961350849958304,-0.024449849164188856,-0.4268569617777456,-0.90292256944068,0.0502391060481011,0
10,2.041701417848207,-0.2427360555746807,-0.9693702838455718,-0.03742272199080573,-0.3250660982000846,-0.9449971325163146,0.036227770244883085,0
11,2.241701417848207,-0.4595219431344962,-0.8571624578531444,-0.2326200864608499,-0.405459648763211,-0.9140314764518546,0.012203822354367901,1
12,2.4417014178482073,-0.4798256200480758,-0.8341763261317886,-0.2718772356538,-0.4616370486623107,-0.8850852388437521,-0.059290431633191636,1
13,2.641701417848207,-0.484252728685733,-0.8744277072017506,-0.029588505171973367,-0.5090373367420367,-0.860685578213244,-0.010066044819520656,1
14,2.841701417848207,-0.3129866325696142,-0.9481933158349274,-0.05448672901449524,-0.5195728555691215,-0.854342060210091,0.011987156115025197,1
15,3.041701417848207,-0.6110974250761152,-0.78887367280621,-0.06510196171071103,-0.5337567504944746,-0.8455740470796483,0.010404912634139086,1
16,3.241701417848207,-0.6095793231167137,-0.7900644245204226,-0.06489417489869936,-0.532519038294891,-0.8461413087892772,0.021641613014131346,1
17,3.4417014178482073,-0.6273173770972266,-0.7742529826818181,-0.08369723531972113,-0.5259920375477825,-0.8504869646636618,0.0020734930730047004,1
18,3.641701417848207,-0.5008980732332388,-0.823397190891659,-0.266679932246418,-0.4596587556874946,-0.888095417485177,-0.0005981318022580119,1
19,3.841701417848207,-0.3819486903353446,-0.8829025201387278,-0.27312696293811495,-0.4237866220026279,-0.9055860030191041,-0.017857495554679966,1
20,4.0417014178482065,-0.33767178592564756,-0.8995174798320197,-0.2772112343799139,-0.3593513164326786,-0.9329399612418002,-0.022128264646130696,0
21,4.241701417848207,-0.31306709839422464,-0.9121982164129359,-0.2643546970947931,-0.33660472442832273,-0.9412236270901491,-0.02820183149722115,0
22,4.441701417848207,0.11369587755691773,-0.9931585469883476,0.02663358726413658,-0.11215475403355635,-0.9934694596459784,0.020970071492494906,0
23,4.641701417848207,0.1639558618597035,-0.985391579025226,0.04606420896980021,-0.0030870832582914343,-0.9996188900632379,0.02743254537400965,0
24,4.841701417848207,0.11729529927420929,-0.9890762109376128,0.08927520218665813,0.08444451575408374,-0.9960234473456685,0.02839746637833366,0
25,5.0417014178482065,0.134289632756402,-0.9848488524926211,0.10972252402364113,0.21801952528101565,-0.9746556274472442,0.05013875229460338,0
26,5.241701417848207,0.8120232575163323,-0.5781833610942599,0.07951245315237872,0.45042907451499836,-0.8862137292389312,0.10834608871569058,0
27,5.441701417848207,0.7774068168351389,-0.6180072926710117,0.11707103546011376,0.4532032729752569,-0.885620587153862,0.10140497509374909,0
28,5.641701417848207,-0.42660981934361036,-0.9025269339256716,0.05872985253121687,0.04800330284739435,-0.9960606818668661,0.07455736687045089,0
29,5.841701417848207,-0.524468498980356,-0.8510074768299984,0.026815442504877374,-0.2557465775304824,-0.9646094253479278,0.06420548739309848,0
30,6.0417014178482065,-0.6760436031515618,-0.7368366128154029,0.006070638564239794,-0.43927340833862666,-0.8964071835618128,0.05910189493869859,0
31,6.241701417848207,-0.533608120210761,-0.8446308236832519,-0.04314099824169103,-0.5254225949477596,-0.8479160894098396,0.07049398583062136,0
32,6.441701417848207,-0.46380243792517284,-0.8825442407831647,-0.07747878183821405,-0.5989030704110255,-0.7994053529680283,0.047604557537158795,0
33,6.641701417848207,-0.3903770729708437,-0.9190478716993188,-0.05437600963356438,-0.6328041866435792,-0.7708179818201358,0.07347448719855906,0
34,6.841701417848207,-0.42792968753637056,-0.9037888250053313,-0.006476289100015934,-0.6259368999097941,-0.774870396997494,0.08819787519131365,0
35,7.0417014178482065,-0.9144126380503815,-0.3927600456385497,0.09792381693819865,-0.8044339855708841,-0.5863436823011892,0.09532601472853486,0
36,7.241701417848207,-0.9608506645709749,-0.2600021891358773,0.09573328594625652,-0.9575762612640942,-0.2585317706733912,0.12731467871365096,0
37,7.441701417848207,-0.9629373947322105,0.2446755554953798,0.11351408004899775,-0.9878307166599387,0.06323009118964441,0.14210007315712758,0
38,7.641701417848207,-0.9686182975380113,0.2001864687541724,0.14732267782761557,-0.9314175509810534,0.3338396440738465,0.1449566754899703,0
39,7.841701417848207,-0.7053634730019057,0.7015105281389045,0.10171209301240988,-0.8375357468440898,0.5287034533747867,0.13786417644873303,0
40,8.041701417848207,-0.7099347483832668,0.6987253002601042,0.08817940697473015,-0.6786140273639917,0.7197588914671259,0.14639036859997923,0
41,8.241701417848208,-0.36319847091695845,0.9229002740977881,0.1278356554088521,-0.41627530258825296,0.8917713545415759,0.17736607250018782,0
42,8.441701417848208,0.022246577313291827,0.9909577904847201,0.13231684426211834,-0.10776961848564148,0.9784818689242047,0.17595153172977765,0
43,8.641701417848207,0.14056604459116878,0.9843327461729344,0.10644356213338285,0.14090058287660434,0.974580564877419,0.17418308846798106,0
44,8.841701417848208,0.5120481963746074,0.8587474193849518,-0.018960862037294867,0.3506385303417244,0.9246269718839885,0.1487198167845881,0
45,9.041701417848207,0.757327545871956,0.6515518826319224,-0.043990140967701055,0.5672379982878555,0.8175490346894504,0.0992704849224354,0
46,9.241701417848208,0.9205554317153553,0.36962975228049433,0.12629941950941873,0.7233688929986947,0.680762266925571,0.11532640882382908,0
47,9.441701417848208,0.9171563914716301,0.3717675598465814,0.14357240343623445,0.7648576525778367,0.6357796102169112,0.10381261255528705,0
48,9.641701417848209,0.8819052704476317,0.447016932226149,0.14972961049776456,0.7335635790011326,0.6729840061007182,0.09474704795231345,0
49,9.841701417848208,0.6014684496610168,0.7899626760642913,0.11914140542950218,0.6081330783120873,0.791482528588371,0.061070172768902385,0
50,10.041701417848207,0.43146590361394327,0.8949264828038492,0.11377066579279085,0.4107799319837303,0.9106207613243702,0.045051931417715185,0
51,10.241701417848208,0.03821480461158,0.8913165414033462,-0.45176813934725013,0.17531139706369703,0.9783949997754423,0.10958621479906738,0
52,10.441701417848208,-0.06992617593686717,0.994937871924371,0.07217313163117102,0.029374172581446756,0.9971068616108778,0.07010752109196978,0
53,10.641701417848209,-0.035002121103326456,0.8223272610716282,-0.5679372564084019,-0.03280578320172872,0.9216487020775459,-0.3866360698994549,0
54,10.841701417848208,-0.04900433177501938,0.36498113606500177,-0.9297243385993424,-0.08006264866701315,0.643399351189813,-0.7613325470364117,0
55,11.041701417848207,-0.01263470833765102,0.09569564892463753,-0.9953304511176754,-0.09344801727976573,0.3865740328460558,-0.9175118447167956,0
56,11.241701417848208,0.014813855129551424,-0.004025055549933702,-0.999882167369746,-0.08798641285225647,0.2518484328680126,-0.9637586617070264,0
57,11.441701417848208,-0.16972932486551426,0.16760867634587648,-0.9711329918678905,-0.11737566580043829,0.3156884095578012,-0.9415751595856648,0
58,11.641701417848209,-0.25652766014505607,0.3447089238553868,-0.9029780270831423,-0.2945522373127112,0.5239496719405982,-0.7991969223961111,0
59,11.841701417848208,-0.134052017440608,0.48342650767009604,-0.865060037397404,-0.48076518401843993,0.6885812928257331,-0.5428817928482753,0
60,12.041701417848207,-0.765560755085799,0.6433513424365265,0.003972462407726154,-0.6583078700859052,0.7176321287018783,-0.2272330874625654,0
61,12.241701417848208,-0.8081966950103479,0.577893056262172,0.11339187668575329,-0.7322691899013667,0.6747217492696654,-0.09237096179903556,0
62,12.441701417848208,-0.8243820572784215,0.543371399975408,0.1585614875250696,-0.7724586466399409,0.6346720317723195,-0.02233945651055814,0
63,12.641701417848209,-0.8373764026303809,0.5168113852356407,0.17806389979055315,-0.8134445574784125,0.5807748805843576,0.03175673142776501,0
64,12.841701417848208,-0.8201912980702191,0.5643427259812391,0.09382708671781777,-0.85227063147697,0.5195545631721029,0.06080975751384126,0
65,13.041701417848207,-0.9905107574992551,0.038427437758289947,0.13195367105762834,-0.969210678599349,0.21339082616672067,0.12286177516572831,0
66,13.241701417848208,-0.9559260828598228,-0.20547630389640012,0.2097255650733832,-0.978156506161576,-0.07061519572840111,0.19550791182460828,0
67,13.441701417848208,-0.9025462386533585,-0.42699369226192946,0.05555784248150471,-0.9484444692739818,-0.27508048825193687,0.1574287574958001,0
68,13.641701417848209,-0.840595456593788,-0.5360711214029847,0.07763395617658432,-0.8785876626120097,-0.4453238885883259,0.1725408744574389,0
69,13.841701417848208,-0.6384443559497244,-0.7668507632537783,0.06579294227376935,-0.708769137648655,-0.6924026268503736,0.13499967350880837,0
70,14.041701417848207,-0.3217067311517309,-0.9467183276696318,0.015138929489335892,-0.5152733499771933,-0.8419759152223097,0.15990601298523593,0
71,14.241701417848208,0.02442472979645327,-0.9957457883494983,0.08884682075688771,-0.42284867237367973,-0.892704410860232,0.15581346252009992,0
72,14.441701417848208,0.15320063861410832,-0.9868739408244354,0.051082181334377565,-0.27590975325689177,-0.9498978103482573,0.14686033485358743,0
73,14.641701417848209,0.19153237464486567,-0.9794435791427297,0.06329000504801507,-0.09425582686760864,-0.9832823336645653,0.15579374635931392,0
74,14.841701417848208,0.1865021479307578,-0.9795560328363232,0.07541171892469899,0.06522472680429398,-0.986630536161074,0.1493516659693404,0
75,15.041701417848207,0.16409550972987613,-0.9846323570839176,0.05976441307216899,0.1787532047127019,-0.9778795259777711,0.10862285430989667,0
76,15.241701417848208,0.2135446199691256,-0.9729285721947218,0.08836678498950647,0.29594662364311697,-0.9474822129639076,0.12121490036813233,0
77,15.441701417848208,0.27006622345395925,-0.9608517292554151,0.06187236326660657,0.4514307583312842,-0.8878583790488678,0.08898184750362885,0
78,15.641701417848209,0.8378059248953784,-0.5290866332595985,0.13471661633303628,0.6294016189008372,-0.7687618451346766,0.11339677063361588,0
79,15.841701417848208,0.8692550035259534,-0.47290555801852746,0.14406967772671841,0.7150399518939518,-0.6917397424515557,0.10106431570317412,0
80,16.041701417848206,0.8734693270919812,-0.4566280288995872,0.16894430399619667,0.8090769628385807,-0.5764744459601214,0.11433145393490465,0
81,16.241701417848205,0.9439734912259854,-0.30078141615259557,0.13581085214320762,0.8963915927389607,-0.43285045870182554,0.09551226553971173,0
82,16.441701417848208,0.9971023230325952,-0.00369302777412925,0.07598235945837445,0.9528478159312644,-0.2920925482436251,0.08223735729925219,0
83,16.641701417848207,0.9977533365637473,0.015199971965942466,0.06524753043713147,0.9682080966300144,-0.23715838500807443,0.07955489953765649,0
84,16.841701417848206,0.9976056998639369,0.0072269138637503175,0.0687796431728949,0.9728785962467232,-0.2130668977856558,0.09005406172406719,0
85,17.041701417848206,0.9962804702267192,-0.0441044973981245,0.07402714336029995,0.9853007894134539,-0.14280503486562518,0.09375007412398347,0
86,17.241701417848205,0.9964988522305378,0.006440729511032655,0.08335799005846078,0.9920170848360474,-0.07368717012880187,0.10233427750171999,0
87,17.441701417848208,0.8720174927102113,0.47921082450206437,0.0997119756471034,0.9912461376214116,0.058869499443891235,0.11817561798382724,0
88,17.641701417848207,0.8584372991937154,0.47671939458118984,0.18927234923026498,0.9655381786992082,0.21008523535893892,0.15362362890647935,0
89,17.841701417848206,0.8413477878750638,0.5022982274947334,0.19957552578757154,0.9298724901494645,0.32312547933263364,0.17586095834291937,0
90,18.041701417848206,0.8959651735219666,0.39090856596606954,0.21080061880863554,0.930015919994625,0.3315026959734401,0.15867057420609712,0
91,18.241701417848205,0.9197060227751,0.34818301388641887,0.18140953809592622,0.9550357692050387,0.27050213920921673,0.1213889295701119,0
92,18.441701417848208,0.8826031478177047,0.4302806611404004,0.18939439302909308,0.9813944503851818,0.15794888263274806,0.10916539391324287,0
93,18.641701417848207,0.9150338589337662,0.3967759093543401,0.07267678281828922,0.9972178349586868,-0.026666472812196845,0.0696095458113736,0
94,18.841701417848206,0.9396990363921013,0.3347625289364217,0.06999835872253182,0.9851322101307831,-0.14392709682901972,0.0938057533481215,0
95,19.041701417848206,0.7974027869306022,-0.5708789269722853,0.1955659636395881,0.9180873794508314,-0.36402115808637625,0.15685713295403203,0
96,19.24170141784821,0.7454221574867614,-0.6191100029585964,0.2470801719369423,0.8273411574827066,-0.5227816940746765,0.20544076877676265,0
97,19.441701417848208,0.7229203718517263,-0.6539094087816839,0.22313363948215004,0.7229126888197368,-0.6597245721232282,0.2053307898982557,0
98,19.641701417848207,0.5301119435766302,-0.8195836544245572,0.21740276143024514,0.4945279980918132,-0.8470252387294951,0.19491101574448244,0
99,19.841701417848206,-0.05379650386765805,-0.994112131802252,0.09405852207641238,0.1711846944449822,-0.9615005799872719,0.2149707772510436,0
100,20.041701417848206,-0.006431242025663364,-0.9982480575585445,0.0588171293638228,-0.17893384113195138,-0.9615994069735406,0.20810877205418507,0
101,20.24170141784821,-0.7178486206789662,-0.6958458136021789,0.022180204724664282,-0.4759229381635812,-0.8573494602103922,0.19608482859898507,0
102,20.441701417848208,-0.9715991662497401,-0.2322359881529299,0.04540380985602396,-0.7747968586856191,-0.6144740739799986,0.14869915997516595,0
103,20.641701417848207,-0.9389276577688662,-0.3370829913041225,0.06920917894424289,-0.9153191941587216,-0.3790069749812942,0.13617813965595638,0
104,20.841701417848206,-0.9873574298491337,0.09606499276930201,0.12608260342310357,-0.9766696380922131,-0.177969380655346,0.12018035437615365,0
105,21.041701417848206,-0.9805509243954267,0.12253595342011385,0.15331283307896382,-0.997110902480256,-0.04777776821585764,0.05905195186716078,0
106,21.24170141784821,-0.9751701039580705,0.14558539119943764,0.16687768639249884,-0.9963723022816849,0.0063398625897723646,0.08486484188542089,0
107,21.441701417848208,-0.9760750088070304,0.13917319036515802,0.16705807453080326,-0.9867939829059087,0.13710885394222713,0.08624846358829953,0
108,21.641701417848207,-0.738734397153449,0.6664138275730177,0.1008171656108762,-0.9463566460568554,0.30723472750692415,0.1000795717305292,0
109,21.841701417848206,-0.7864953747210194,0.6108334522507876,0.09114559316734924,-0.9067272261620258,0.41084746524394045,0.09513200113078543,0
110,22.041701417848206,-0.9197621444498683,0.34253611476454227,0.19158968583666516,-0.8935356422060715,0.4391051734541257,0.09370540407685019,0
111,22.24170141784821,-0.9864484054407321,0.05502170658442565,0.1545708743844527,-0.928900084856271,0.3357590467819789,0.15623858312871855,0
112,22.441701417848208,-0.9883067131826586,0.08203170828918994,0.12853263987504476,-0.9587356428110676,0.21214855915757566,0.18925896557630684,0
113,22.641701417848207,-0.992331187328728,0.03492260924443092,0.11857160713390894,-0.9732732922665603,0.10651196461147049,0.2034558919157066,0
114,22.841701417848206,-0.9937237002105958,-0.007433606539772546,0.1116151832573607,-0.9797348610312631,0.007820492383263015,0.20014605161964794,0
115,23.041701417848206,-0.9912185964563115,0.04000907418933241,0.12603558236344412,-0.9746857632326891,-0.11396070672811852,0.19235545293424447,1
116,23.24170141784821,-0.9116043438919542,-0.40482449792576686,0.07137678947999004,-0.9674405786554334,-0.1675958705928272,0.18965851135942385,1
117,23.441701417848208,-0.9131575926651904,-0.40240568776019753,0.06490665155557399,-0.962791881665019,-0.19700572754653822,0.18498793450868906,1
118,23.641701417848207,-0.9014924073968293,-0.42983623989158243,0.05051976129927392,-0.9583198231152565,-0.22515028744472027,0.17587059074189632,1
119,23.841701417848206,-0.883515005480118,-0.46692697246610176,0.037154238992438984,-0.9525428424704616,-0.25884869036554076,0.1601857944835874,1
120,24.041701417848206,-0.8804584141252982,-0.47157013895868266,0.04913842730953105,-0.9493864233585048,-0.26484283367154465,0.1688895869950927,1
121,24.24170141784821,-0.8848120806568683,-0.4634816892664839,0.04787802876424826,-0.9495976625832125,-0.26579844850723633,0.16617901187468045,1
122,24.441701417848208,-0.8862376614774652,-0.4604265041135972,0.050894417067943974,-0.9485245397530166,-0.26876461468587837,0.16753142803390464,1
123,24.641701417848207,-0.8872244953459605,-0.4579602142503194,0.055723756351374956,-0.9477109491472534,-0.2691964193124133,0.17139791333557078,1
124,24.841701417848206,-0.8830298204289256,-0.4666762811233763,0.04971503666010318,-0.9453340846149882,-0.28145920611227415,0.16469421289101527,1
125,25.041701417848206,-0.8820733887094983,-0.4694135080058094,0.039968680641505855,-0.9461801324444368,-0.28423482345022094,0.1547699005157319,1
126,25.24170141784821,-0.8850652488791975,-0.46463459768611565,0.027824375275394858,-0.9482711917736949,-0.2839563091172274,0.14195267297454497,1
127,25.441701417848208,-0.8870973663594731,-0.4605625771954633,0.030665535787917406,-0.9482952615109314,-0.2836855300789406,0.14233276860844513,1
128,25.641701417848207,-0.886286675440198,-0.4614101401325634,0.03995762155095691,-0.9462822818793316,-0.28715197541018883,0.14863911335604682,1
129,25.841701417848206,-0.8782650261534548,-0.4764773502254659,0.040247714938742386,-0.9395670245991543,-0.30968711535281024,0.14597156185486168,1
130,26.041701417848206,-0.8629191648674853,-0.5039166484262444,0.03792790981932343,-0.9277435200012288,-0.3455881237831569,0.1409283853443554,1
131,26.24170141784821,-0.8943754151894792,-0.4448661683261931,0.04676226024710785,-0.9103912076454505,-0.3930813715265343,0.12913126809831044,1
132,26.441701417848208,-0.8899021387393368,-0.4524832569170176,0.057732882111693466,-0.8961685287941132,-0.42213693147226694,0.13668349968512394,1
133,26.641701417848207,-0.9884227249408637,0.028289214905011503,0.1490645401849017,-0.9024159624345253,-0.4059901164785109,0.14428255634391512,1
134,26.841701417848206,-0.9864948889817438,0.10120430796555648,0.1287847897156735,-0.935676512218603,-0.32284224886477425,0.1424161045330395,1
135,27.041701417848206,-0.9743597367314034,0.18819116537726882,0.12331743068461905,-0.968461321831221,-0.2116191500552388,0.13152947748251184,0
136,27.24170141784821,-0.9751528841122875,0.163680454086794,0.14928349392156137,-0.9864045479601977,-0.10887373058151383,0.12309581045958673,0
137,27.441701417848208,-0.9721260562051437,0.1783571446806004,0.15218298127063135,-0.9910021299971687,-0.04407865704409902,0.12637978609834588,0
138,27.641701417848207,-0.9655549481745689,0.20235013890506065,0.1635789208324481,-0.9903397807958019,0.0208792675544255,0.1370809058903304,0
139,27.841701417848206,-0.9491993332377179,0.26174275920651685,0.17467499473030357,-0.97620700023438,0.14223136354855181,0.16367691320559835,0
140,28.041701417848206,-0.781050572510719,0.6191533852442261,0.08129630201487013,-0.9320401253526296,0.3129894970153351,0.18258910014221122,0
141,28.24170141784821,-0.7798146340077101,0.6230265661610556,0.06104944262632835,-0.8629637379708788,0.4693053259365971,0.18720603087206666,0
142,28.441701417848208,-0.7971157939959898,0.6037252751706147,0.011054550298773263,-0.7806074386993115,0.5971349760487583,0.1846126946516671,0
143,28.641701417848207,-0.7494106528619516,0.661773825439706,0.020954172375005724,-0.698378163297287,0.6917197764746236,0.18382516656705344,0
144,28.841701417848206,-0.719237969328015,0.6940942263151234,0.030495056532559767,-0.6353645915752695,0.7487392044956679,0.18894824535725566,0
145,29.041701417848206,0.2533443736654042,0.9672212777148457,0.01730977376356927,-0.49116858452951107,0.8479375342610732,0.1993874608959345,0
146,29.24170141784821,0.1114407537351842,0.9840885189759873,0.1383862176178776,-0.2936332536983375,0.9326935100742436,0.20943335118341339,0
147,29.441701417848208,0.07170802938786636,0.9922411458787501,0.10156508724228973,-0.09331860996477387,0.9791797482050629,0.18027384097342747,0
148,29.641701417848207,0.019360125482500712,0.9965243517081225,0.08102099724150781,0.033459967198216034,0.9910305350516463,0.1293789364245287,0
149,29.841701417848206,0.025855527470274864,0.9965977637875092,0.07825847502328573,0.08603569291559815,0.9910251396150416,0.10230851477526506,0
150,30.041701417848206,0.020213239832450713,0.9967057898731652,0.07854293964950654,0.11699760871106457,0.989748684109582,0.08190910730342348,0
151,30.24170141784821,0.03470056002869237,0.9972741713539636,0.06511603707198868,0.15373210808250298,0.9864890335444558,0.05662001095933357,0
152,30.441701417848208,0.06245105955203106,0.8543068658463798,-0.5160035311202475,0.14018013699906667,0.9900457625697907,-0.012606236889914007,0
153,30.641701417848207,0.09588167208518661,0.7933060282658405,-0.601225623601678,0.14662370589741625,0.9455357925034256,-0.2906261412258481,1
154,30.841701417848206,0.3520685350213884,0.9190516265133168,-0.1771774659800737,0.1742067798827142,0.9423541918703242,-0.2856931481630663,1
155,31.041701417848206,0.4167353732748694,0.9028191851296807,-0.10606199895926327,0.21591261844738568,0.9405832801094371,-0.26207791660833607,1
156,31.24170141784821,-0.03483746158305434,0.9993147914011792,0.0125019581373024,0.22489416189735834,0.9465731268677532,-0.23113184859791489,1
157,31.441701417848208,-0.04167326023273715,0.9981462122740532,0.044356265673921466,0.20473578026308553,0.9565441629408523,-0.2076211083292106,1
158,31.641701417848207,-0.04802058034412615,0.9963902075965138,0.07000412894386696,0.1936507932699867,0.9647756131436406,-0.1780656804362306,1
159,31.841701417848206,0.5581472013582951,0.813484493780934,0.16344626026275735,0.4625190869944323,0.8852146986627747,-0.04970947029701882,0
160,32.04170141784821,0.9135362061199703,0.4043742659608394,0.04396650016278165,0.6510805198527805,0.7581509320265224,-0.03607382618393237,0
161,32.24170141784821,0.9189070411065605,0.3463237358009168,0.18886428944001765,0.758037289595613,0.6521057293467953,-0.011729677558274048,0
162,32.44170141784821,0.8958487844944619,0.40560878529129674,0.18148407261882238,0.7752076544900797,0.6316975418742369,-0.0033627384726823677,0
163,32.64170141784821,0.8592598208105593,0.4777362471379159,0.18286781704604582,0.7173908253485527,0.696651665033022,-0.005182790024761324,0
164,32.84170141784821,0.873763492339977,0.444476530832553,0.19742839966151116,0.6342218986039475,0.7730787660673853,-0.010573778271417282,0
165,33.04170141784821,0.8394491095656462,0.5113218119600346,0.18405215854031984,0.5383280527598696,0.8427277653068812,-0.0035806693002061584,0
166,33.24170141784821,0.4611526171161346,0.8827348444127671,0.09009693771992519,0.40582152692332346,0.9138598139773081,-0.013004948403684073,0
167,33.44170141784821,0.03572027853147225,0.991351369447521,0.1262795470223061,0.15805524096282847,0.9873478548006774,0.012757524237975567,0
168,33.64170141784821,0.3103758795113225,0.9505422193271643,0.011674874481637175,-0.014624868614991404,0.9998655584703405,0.007414728773743933,0
169,33.84170141784821,0.340998290514546,0.9397739426415778,0.023347432365500524,-0.000607496070015423,0.9998741446801225,0.015853256722788894,0
170,34.04170141784821,0.548465830629012,0.8361630541502636,-0.004071794018800981,0.20082862745844354,0.9790869646047674,0.032505047826159254,0
171,34.24170141784821,0.7049038701201964,0.7092485184199726,0.008779123455299423,0.40862644238663354,0.9111653356422256,0.05293544848618801,1
172,34.44170141784821,0.6799923077845741,0.7322963908922332,-0.03677576974067516,0.5099855868111484,0.8590671048456299,0.04379966457675713,1
173,34.64170141784821,0.5172966777766383,0.8544668785052368,-0.04785917570090059,0.49530330482996204,0.8676250424390991,0.04360529735099712,1
174,34.84170141784821,0.4938801218967109,0.8688203413142491,-0.03512320762517899,0.48492277602433553,0.8741618073642908,0.02628756052678044,1
175,35.04170141784821,0.49354654203563997,0.8695238871836707,-0.018439643750932128,0.4737129393182531,0.880274831765747,0.026688418504044766,1
176,35.24170141784821,0.5046447683488429,0.8632653017313815,-0.01032843670503484,0.46162358260591013,0.8866381727217794,0.02786428995450613,1
177,35.44170141784821,0.49821214851116535,0.8670508853108309,-0.0027234826220753536,0.43874409706277384,0.8980327460729306,0.03226149831118896,1
178,35.64170141784821,0.45019984555656,0.8929270440663478,0.0011802693693273479,0.3975053672933577,0.9165646923754098,0.043573474313437235,1
179,35.84170141784821,0.4292968416522993,0.9003269939715203,-0.0715229031399483,0.20127008603387192,0.9791170738890066,0.028637529344336894,0
180,36.04170141784821,-0.47108568796718087,0.8812822436562018,-0.037681316441694715,-0.7116248976020145,0.6954812997680327,0.09947746873483675,0
181,36.24170141784821,-0.8652121497821419,-0.48986140302939435,0.10697542564270453,-0.9679857366852134,-0.2021627075448466,0.14877450471139736,0
182,36.44170141784821,-0.7952562481470625,-0.6048319851169273,0.04178240733341167,-0.7075740949532313,-0.6901835164405213,0.15161007151542502,0
183,36.64170141784821,-0.5766743484307341,-0.8117841575600169,-0.09194116268876622,-0.5192005018446532,-0.8446766228558266,0.13020077451818957,0
184,36.84170141784821,-0.38652500434209175,-0.919708715682966,-0.0688062447393771,-0.44940884248713,-0.886395806600876,0.11105929197847772,0
185,37.04170141784821,-0.45742816155292787,-0.8869232266151614,-0.06423914000716184,-0.47437555551921323,-0.8743398189036193,0.10245834961302057,0
186,37.24170141784821,-0.6317854317645708,-0.773945404574451,-0.043077592181371534,-0.5740669098541411,-0.8089977614865639,0.12637169350865746,0
187,37.44170141784821,-0.9262181030858632,-0.36450161572616613,0.09622160697597917,-0.7036510576413166,-0.6937047629639899,0.15378195902423342,0
188,37.64170141784821,-0.926038838512662,-0.3684881406675846,0.0816612500116574,-0.747908837858561,-0.6456293224262957,0.1542567608775034,0
189,37.84170141784821,-0.906617843192944,-0.4146206345496765,0.07831868110353936,-0.7323963162998762,-0.664024909507587,0.1505541610976364,0
190,38.04170141784821,-0.5490158302773686,-0.8333462819412344,-0.06415288364190674,-0.6854406340915709,-0.7144321234953928,0.14056271928932226,1
191,38.24170141784821,-0.4241333078104993,-0.9053594605277797,0.020861074722362836,-0.6462937917273612,-0.746400355031071,0.15871623982492125,1
192,38.441701417848215,-0.4112690317850227,-0.9113741287944184,-0.01596812007797803,-0.6101645144596154,-0.7805831633262643,0.1356067491897974,1
193,38.64170141784821,-0.5994475457136194,-0.7999455455967941,-0.02738181910988295,-0.5612095605579231,-0.8158588191915928,0.13934926008301354,1
194,38.84170141784821,-0.8902624066171382,-0.4456637873341827,0.09389694363084568,-0.6013852503963603,-0.781802343828037,0.16468416982422798,1
195,39.04170141784821,-0.9170302245471345,-0.39086836549086995,0.07923060094135485,-0.6845922613423301,-0.7116214851914047,0.15788697705692573,1
