,timeStamp,x_gaze,y_gaze,z_gaze,x_head,y_head,z_head,fixations_head
0,0.041701417848206836,-0.9946988611917259,-0.0737017369364334,0.07170934051040229,-0.9978432915286615,-0.061496901501623645,0.022954229609078964,0
1,0.24170141784820684,-0.9932397960857414,-0.09650594704686524,0.06450821386569987,-0.9946472774670286,-0.09935614237044689,0.028375172258358197,0
2,0.4417014178482069,-0.9045175896412998,-0.42193791040711787,0.0617764501308412,-0.9862851549490664,-0.16225382020863097,0.030253775876769824,0
3,0.6417014178482069,-0.8717410427342878,-0.483031966041886,0.08214422800323405,-0.9546392191816643,-0.2948342328718803,0.041674168582858925,0
4,0.8417014178482068,-0.7658682427056583,-0.6413635892685874,0.04581027368900787,-0.9051417362292541,-0.4205610443010239,0.06202294214501645,0
5,1.041701417848207,-0.6047446695231553,-0.7943556182412406,-0.05729778749573353,-0.8342441808285669,-0.5445373563578219,0.08669321936869077,0
6,1.241701417848207,-0.5850260882441016,-0.8105285919135631,-0.028069160379701134,-0.7311873747534764,-0.6749975456436257,0.09870833995261312,0
7,1.441701417848207,-0.41895173317542284,-0.9079962140795816,0.004724456207372814,-0.6576964859632144,-0.7448426056783422,0.1124492112819692,0
8,1.641701417848207,-0.42898851241337893,-0.902591823727128,0.03601188634733764,-0.5759288926714015,-0.8077238259195121,0.12604813218861863,0
9,1.841701417848207,-0.30820072709274626,-0.9508996412160178,0.02832285569556042,-0.4934076986246228,-0.8618034350374483,0.1176591785438276,0
10,2.041701417848207,-0.29985150657361026,-0.9539827837596899,-0.0024335767194126586,-0.4686192463598592,-0.8790200736390165,0.08786189208511354,0
11,2.241701417848207,-0.32196478506094495,-0.9369318861235996,-0.13600484530167975,-0.4787269354926832,-0.8768493384261253,-0.04422396336208121,0
12,2.4417014178482073,-0.3131427540187388,-0.93523416079658,-0.16516258681879784,-0.4586008898096327,-0.8865565401768806,-0.06085002001160202,0
13,2.641701417848207,-0.18511049349946568,-0.975239436089206,-0.12100474161284752,-0.3415731197624335,-0.9384283497522744,-0.051769066410181135,0
14,2.841701417848207,0.1719854301325341,-0.9740574112543945,0.1470821926764591,0.03682376841767038,-0.9982381393408001,0.046525554751546815,0
15,3.041701417848207,0.08856188630297673,-0.9883313351212663,0.12392725411254064,0.10358459322727193,-0.9930003015268591,0.05675062302307927,0
16,3.241701417848207,0.4040282576186587,-0.9002007653725577,0.16247999590193357,0.3041648996414104,-0.9413668651592998,0.14598677681996863,0
17,3.4417014178482073,0.7957552628155307,-0.5896232431490572,0.1382678300971475,0.5446757526039661,-0.8166205920150712,0.19094274854588666,0
18,3.641701417848207,0.803029928065028,-0.5809629839310911,0.13275897684811616,0.5909639796943216,-0.7860695851872805,0.18126274285507923,0
19,3.841701417848207,0.18433810192752015,-0.9772209554766218,0.10516020328583413,0.31794449213119097,-0.9438509894270752,0.08975861897873934,0
20,4.0417014178482065,-0.5755480954361865,-0.8177441547748762,0.006235957929795551,-0.1937834634920736,-0.9809333466189175,0.014755973977580201,0
21,4.241701417848207,-0.6191803441775504,-0.7792523728708712,0.09685783788257535,-0.5346733466877239,-0.8449351442416158,0.014457329184515073,0
22,4.441701417848207,-0.9423024762557656,-0.3319864270676666,0.04302389435066939,-0.7915961218864774,-0.6094239228223252,0.04447541012894442,0
23,4.641701417848207,-0.9655564071724396,-0.23760486844459883,0.10604127054913606,-0.9346739286649437,-0.34118609007649753,0.09988342711557133,0
24,4.841701417848207,-0.990473127163344,-0.12993682842543852,0.04560049326492415,-0.9946971499861754,-0.07457551819045027,0.07082423240675528,0
25,5.0417014178482065,-0.9591482035298978,0.23500923615630984,0.15749724628258688,-0.9627179727320879,0.26414730257158253,0.05831215587487699,0
26,5.241701417848207,-0.7423613422322934,0.65860888865299,0.12302019893635964,-0.8371932141496125,0.5437609964299108,0.05857901453073247,0
27,5.441701417848207,-0.6985445238189965,0.7079821811319055,0.10390755238288382,-0.683350985657387,0.727054906767385,0.06650257849547453,0
28,5.641701417848207,-0.4111961362176942,0.9067800720614909,0.09310015290963339,-0.49870635634917515,0.8644185153266982,0.06381692955099609,0
29,5.841701417848207,-0.04041643524361971,0.9927377848371965,0.11330579119680775,-0.17616820691200286,0.9823104902176754,0.06348908316963091,0
30,6.0417014178482065,0.04766610679456845,0.9857678072895175,0.1612134373266252,0.0708470137109325,0.9943969697478131,0.07845614829068676,0
31,6.241701417848207,0.5697955182558436,0.8193266148389483,0.06353711979704715,0.3436670921304569,0.9345343091783825,0.09240430052264663,0
32,6.441701417848207,0.6782419037495309,0.7335544948600321,0.04342491299767025,0.6073292265072261,0.7892726154610182,0.09055357040701346,0
33,6.641701417848207,0.8313924471472686,0.5554561016531172,0.015972412554105107,0.8051777035613084,0.5878271834424196,0.07840961735584444,0
34,6.841701417848207,0.9069325899943201,0.3454339975926297,0.24114027144666164,0.9002189564848293,0.4212608828545118,0.11020480462304072,0
35,7.0417014178482065,0.8960449950980519,0.39450297690425695,0.20364372804830405,0.9409116494957662,0.3110031023983442,0.1340236476960752,0
36,7.241701417848207,0.9580054645764968,-0.2251423459447831,0.1775850610385078,0.9742839684975492,0.18010236922731399,0.1354026784350119,0
37,7.441701417848207,0.98333196886151,-0.13350195972953666,0.12343202892005041,0.9862549821011173,0.11724734854024432,0.11642237560283701,0
38,7.641701417848207,0.9932046261843365,-0.05178954265167953,0.1042229043826876,0.9797548132981013,0.18393527330615075,0.0790463221977758,0
39,7.841701417848207,0.7472872655635439,0.6300610923971799,-0.21115104208559707,0.92033565691874,0.39106544144077704,0.007078072808437001,0
40,8.041701417848207,0.6885107890832314,0.7008083136591173,-0.18660278889194165,0.7258301104517976,0.6764761647733928,-0.12470224238165478,0
41,8.241701417848208,0.20049445936096044,0.8071312603571015,-0.5552847020402352,0.42836089593100674,0.8555516052444012,-0.29075486857645866,0
42,8.441701417848208,-0.10810022125356589,0.7350593326994181,-0.6693296045868709,0.12453289124647932,0.9118319647633515,-0.3912211996219007,0
43,8.641701417848207,-0.17168351774626062,0.7210695560580376,-0.6712551415524014,-0.17897182363510317,0.8715974696229258,-0.45638463744043656,0
44,8.841701417848208,-0.6290264224409865,0.4694767062556453,-0.6196106698197218,-0.4471594213233795,0.7484555474373117,-0.4897578436656777,0
45,9.041701417848207,-0.6355173217816745,0.5095032365047335,-0.5801070467652066,-0.6198276417247162,0.6543043790644641,-0.43324297350452545,0
46,9.241701417848208,-0.8382878162507448,0.2568358526851188,-0.4809458201305691,-0.7604098046529864,0.5173500859362264,-0.3925886111050427,0
47,9.441701417848208,-0.8644160366343614,0.18041538132440274,-0.4692922392187118,-0.862498244899986,0.32035252304239903,-0.39175379835403434,0
48,9.641701417848209,-0.818376206743888,-0.19478668613581862,-0.5406648972697522,-0.9203822292283416,0.06377234817042249,-0.3857844472364058,0
49,9.841701417848208,-0.803461670507682,-0.25284295449413935,-0.5389988723436062,-0.900904214918127,-0.2054511334398134,-0.38231064242452,0
50,10.041701417848207,-0.6304321184520436,-0.41473324656704924,-0.6561643682919875,-0.8368242583899215,-0.37765395667384855,-0.3963617660405014,0
51,10.241701417848208,-0.6170525767830235,-0.4314893172234286,-0.6580752894673146,-0.7951235111692827,-0.4575790268716704,-0.3979950202615694,0
52,10.441701417848208,-0.7440796679524444,-0.5965854179478456,-0.30071795229379705,-0.7545481900486224,-0.5414325718563009,-0.37082044041209405,0
53,10.641701417848209,-0.7273800276033424,-0.6219576998119949,-0.28997743892988237,-0.6523706415892137,-0.6746975871878512,-0.34524731980910434,0
54,10.841701417848208,-0.5658717150615424,-0.8238599186679503,-0.03231155375012989,-0.6230845103557514,-0.7465550765482682,-0.2332835412855847,0
55,11.041701417848207,-0.3416246973516452,-0.9378088967256594,0.06170121053592623,-0.5989716002752095,-0.7948218915102905,-0.09742270187055353,1
56,11.241701417848208,-0.288635683302863,-0.9558990336354397,0.05428148689122408,-0.5500465727175143,-0.8345411908686241,-0.031460587809114766,1
57,11.441701417848208,-0.4851151348848044,-0.8728597919314411,0.052717070623273896,-0.5194534870771716,-0.8544977644633167,0.0012826888013760084,1
58,11.641701417848209,-0.5995902552659372,-0.7981635778202595,0.05853570561025688,-0.5623123411081382,-0.8269148348872664,0.004084957876154618,1
59,11.841701417848208,-0.6223903330323672,-0.7821462142836517,0.029623855751923507,-0.6179949848702493,-0.7861795310352391,0.0019858641524280593,1
60,12.041701417848207,-0.6155585610015157,-0.7880111192444778,0.011230936061126224,-0.6414905002774016,-0.7671254968218635,0.002900030975424734,1
61,12.241701417848208,-0.4549825781693445,-0.8893377672071282,-0.04548834335757053,-0.6733331206758983,-0.7393285027580954,0.0039841699673931015,0
62,12.441701417848208,-0.6813107498260216,-0.73186878996614,-0.013554941718891187,-0.7113608978680082,-0.7028189768568808,0.0033404721625734687,0
63,12.641701417848209,-0.7049297813270983,-0.7092534950418793,-0.005786464292511188,-0.7536922281812243,-0.6571830978969383,0.007642055862430368,0
64,12.841701417848208,-0.7251914746709842,-0.6839927868914115,0.07906448346156152,-0.7908448909872192,-0.6117231824353507,0.018950104764348295,0
65,13.041701417848207,-0.9155698497983822,-0.36442362443185433,0.1700801931328838,-0.8708014404762909,-0.48095788968026604,0.10190367814128161,0
66,13.241701417848208,-0.915302479891867,-0.37536361933724033,0.1460257634181231,-0.9189531978825543,-0.3567486187735262,0.16809355461946965,0
67,13.441701417848208,-0.9764388780718732,-0.031065384463678743,0.21354638671226847,-0.9543377019170316,-0.22664255103925948,0.19460910759297914,0
68,13.641701417848209,-0.9581264117952095,0.1788102001106399,0.22365306024472262,-0.9769323456846126,-0.021551817477874713,0.21245872803573204,0
69,13.841701417848208,-0.9732089749338451,0.1367708806541107,0.184818877048081,-0.9751989728200556,0.07086418103614549,0.20967887651545808,0
70,14.041701417848207,-0.9687433548718927,0.1735242704198543,0.1772727840555565,-0.9659756514333844,0.16027867491517217,0.2029822337183359,0
71,14.241701417848208,-0.9784967783436476,0.13147110187389252,0.15893207399127315,-0.946088075716457,0.26257857238101445,0.1896571810227075,0
72,14.441701417848208,-0.7929898908919203,0.599366794932401,0.1092084157731517,-0.9122917677151274,0.36740598937364327,0.18093249993183272,0
73,14.641701417848209,-0.758592888646584,0.6437684027811797,0.10049414348806551,-0.874637189274455,0.45700615509988785,0.1617255741646901,0
74,14.841701417848208,-0.7517118876371341,0.6476077468747597,0.1246332386356609,-0.8596642028443084,0.47869487988718534,0.1784059144699332,0
75,15.041701417848207,-0.7431610472576782,0.6556256830226741,0.13366608245895062,-0.8388932461247662,0.5078304007752452,0.19587344295413434,0
76,15.241701417848208,-0.7850387105327544,0.612831527006566,0.09028700056968852,-0.7956929357306425,0.5816020425838275,0.16915027664970397,0
77,15.441701417848208,-0.7631340210226322,0.6399432562709995,0.08999497047668198,-0.7513841126379244,0.6405761674315412,0.15837957252763696,0
78,15.641701417848209,-0.7430663486825246,0.6632769275496454,0.08897257350399153,-0.7011166723622811,0.6982039932671656,0.14472938720738754,0
79,15.841701417848208,-0.6573818917055384,0.7451450139425496,0.1122851577645323,-0.6506311928122512,0.7486616696498367,0.12721931982535506,0
80,16.041701417848206,-0.07491836128238721,0.9936133181422355,0.08437898525781318,-0.4928444588844039,0.8632267921712553,0.10928789788747745,0
81,16.241701417848205,-0.016500124926950355,0.9919164846300798,0.12581507618922258,-0.3271283069658471,0.9392492386629682,0.10391312935665545,0
82,16.441701417848208,0.08838259591857761,0.9887989514471437,0.12027115346467308,-0.17049310661280548,0.9812958954856216,0.08938940709383031,0
83,16.641701417848207,0.050857434544865576,0.9877054911771377,0.14782213653591858,-0.03790487323292491,0.9927906815246453,0.113709644547094,0
84,16.841701417848206,0.09017343422564739,0.9870065441917445,0.13299185494842466,0.06176938410470001,0.9925261351686644,0.10524454472551442,0
85,17.041701417848206,0.03776913986907893,0.9897815954366713,0.13749867420592787,0.19125148680132714,0.9752785339928234,0.1107007223512626,0
86,17.241701417848205,0.06705000817666534,0.9901260646255536,0.1231043157351666,0.27682415611250677,0.9550032265737297,0.10647640032591209,0
87,17.441701417848208,0.08233480584299663,0.9901564825529046,0.1131862173820485,0.33067938579559475,0.9386446217160175,0.09796641227197803,0
88,17.641701417848207,0.13001395461669624,0.9850549551219209,0.11297392174603266,0.40937220148805725,0.9077992637797029,0.09118605885688413,0
89,17.841701417848206,0.855953374800626,0.508901539205459,0.09144967775631498,0.5873255356799834,0.802670293625878,0.1037743459086482,0
90,18.041701417848206,0.9188448849206216,0.338380385713097,0.20303396765040477,0.8104692594619802,0.5558370855904945,0.18489108618160968,0
91,18.241701417848205,0.9101904442678851,0.3700439733597408,0.18606668950557922,0.8856522588339732,0.4127615137721116,0.2127157943614813,0
92,18.441701417848208,0.9129549837425572,0.3531502726163733,0.20444579381980052,0.9128744241623118,0.3501398652064173,0.2099103630208856,0
93,18.641701417848207,0.934262557099549,0.2898441958473863,0.20771089652542093,0.9483159055069926,0.24013427965560216,0.20744269352459224,0
94,18.841701417848206,0.9724815381997044,0.15224953635654892,0.1763511739114678,0.9712750567038799,0.13176222043653285,0.19815014885310975,0
95,19.041701417848206,0.9920579743568007,-0.03776644369815705,0.11997779480168591,0.9809858279938574,0.06936811329927875,0.18125912427379898,0
96,19.24170141784821,0.9928687560596744,-0.007688190876003938,0.11896438526537763,0.9821103973057869,0.07646936825948858,0.17208022321540797,0
97,19.441701417848208,0.99390756782548,-0.006163957336940172,0.11004431947714467,0.9849662618865984,0.07928860279447657,0.1534756671659731,0
98,19.641701417848207,0.8547623697748821,0.5140068043836267,0.07196037982223474,0.9784932272058461,0.15936193194912418,0.1309762534115695,0
99,19.841701417848206,0.6333629654343687,0.7735500440549556,0.02171827246258844,0.8546514936144617,0.5188140612839427,0.020069735340339626,0
100,20.041701417848206,0.500080655710714,0.8659560046424885,0.006287750596254432,0.72883907298401,0.6846648927473677,-0.0052526499069001885,0
101,20.24170141784821,0.4866051907197113,0.8734176144939995,0.018896006357033174,0.6383666126108352,0.7696093883850595,-0.013764345728816922,0
102,20.441701417848208,0.37284909804883504,0.9265586797418642,0.049724873847846705,0.5534269604990592,0.8326981928757551,-0.018229618049338512,0
103,20.641701417848207,0.35597224287323737,0.9327152089510125,0.057672361623799524,0.5207514133977141,0.85349010695219,-0.01930292151521346,0
104,20.841701417848206,0.43257195267978416,0.9015336979150776,-0.010885645518952314,0.4777196469711722,0.8781981648344432,-0.023493024052994176,0
105,21.041701417848206,0.45793148604557526,0.8877649730197453,-0.04660586623315166,0.4462743012797492,0.8943806390378045,-0.0303730230895726,0
106,21.24170141784821,0.36074796337881493,0.9325550491781386,-0.01421221905252743,0.4139888024620258,0.9096998275713019,-0.032549887139617525,0
107,21.441701417848208,-0.013637038411976221,0.9973932274652754,0.07085746954098923,0.2964137594906908,0.9549133788324822,0.016712932457462276,0
108,21.641701417848207,-0.12362029914417888,0.9808316687583951,0.15062290396923642,0.05213058551944538,0.9962684852748704,0.06878595279208727,0
109,21.841701417848206,-0.11811282630651238,0.9818891340168041,0.1481319977642179,-0.13994325954682507,0.9878197085542972,0.0680301954951869,0
110,22.041701417848206,-0.7778524188107576,0.6174316895038816,0.11714829638810868,-0.5038469523408607,0.8610673483540938,0.06856580937520057,0
111,22.24170141784821,-0.8805116457071356,0.46020023820009304,0.11364410470714956,-0.839222246936856,0.5365507273988962,0.08842701608654732,0
112,22.441701417848208,-0.9625284021629783,-0.2654970138190861,0.0552305231075366,-0.9875545725334693,0.09375010508108152,0.12628097269787977,0
113,22.641701417848207,-0.8152128476035333,-0.5784442011951003,0.028815259948522607,-0.9571221803534818,-0.26543507553750667,0.11602306904144229,0
114,22.841701417848206,-0.8059869277031957,-0.583787862215996,0.09786114806623204,-0.881417597490774,-0.46124296441024765,0.10177399773832001,0
115,23.041701417848206,-0.8823188643737563,-0.46659471755834897,0.06166677482121173,-0.7888872707261676,-0.6061724189942185,0.10105381010588531,0
116,23.24170141784821,-0.9042053527557217,-0.4249611512957437,0.042669660618495475,-0.7945210117155616,-0.6012977399566767,0.08471947748583997,0
117,23.441701417848208,-0.8342924317975399,-0.5307987736060139,0.14902617281437067,-0.7257126379552876,-0.6772245813250096,0.12127668185246296,0
118,23.641701417848207,0.10198301114696201,-0.993159327759313,0.056868401789287676,-0.40108292178857285,-0.8945778617245425,0.19713685389060817,0
119,23.841701417848206,0.14599685519678157,-0.9867155863159841,0.07125496469548037,-0.20449001087053753,-0.955347186611135,0.2132969490835647,0
120,24.041701417848206,0.21302497411971905,-0.9759399311510705,0.046493130526311675,-0.10960641520967512,-0.9761490232421056,0.18740202285025565,0
121,24.24170141784821,-0.16704733542695005,-0.9829989059810363,0.07621245676949308,-0.12280922308738035,-0.9815161182087093,0.14677876011596977,0
122,24.441701417848208,-0.5656546382368511,-0.823622708694515,0.04099346245253494,-0.2952548927120349,-0.9505358088746491,0.09646877410137122,0
123,24.641701417848207,-0.5278254340133989,-0.8472049250007406,0.060366598902511615,-0.4030719319011861,-0.9125226521824854,0.06953723439488303,1
124,24.841701417848206,-0.5221154542755436,-0.8528602321514311,-0.0049876669145042345,-0.4352911321388947,-0.9000954870905907,0.018701454499370093,1
125,25.041701417848206,-0.5011035219876874,-0.8651175713002494,-0.021606667468478218,-0.42776980543352433,-0.9038869423936566,0.0011785285789768628,1
126,25.24170141784821,-0.49520902644800174,-0.8687618654515101,0.004565223065156815,-0.43081827883642315,-0.9023796774790273,0.010321254442591826,1
127,25.441701417848208,-0.5047717018283688,-0.863252780641989,-0.00040712057974690274,-0.44398506662938275,-0.8959452008287042,0.012627657031907755,1
128,25.641701417848207,-0.4968702400959289,-0.8676850987022613,0.015573503043996264,-0.44003563838273024,-0.897217457931194,0.037006352651804776,1
129,25.841701417848206,-0.6145135643333741,-0.7881066302256957,0.03551082432993129,-0.5692629991652778,-0.820525406303889,0.05174645293341756,0
130,26.041701417848206,-0.6341716498409444,-0.7697287614041275,0.07310234199587787,-0.7305733702542367,-0.6797867267381895,0.06444033539595968,0
131,26.24170141784821,-0.9177212805839645,-0.381209698580101,0.11165490079614662,-0.8350446035082881,-0.5462173122733051,0.06593298055308003,0
132,26.441701417848208,-0.8985532186349058,-0.4256034039730339,0.10706939715632072,-0.8433608977941404,-0.5330789691432358,0.06759592242914163,0
133,26.641701417848207,-0.5567199887575831,-0.8094548995490822,-0.18666981468288357,-0.796122915788827,-0.6040207022268663,0.03670550690645926,0
134,26.841701417848206,-0.511833905790606,-0.8375891218176404,-0.19097255272914712,-0.753481292324093,-0.6574209091323944,-0.007980623606646609,0
135,27.041701417848206,-0.6799033366874181,-0.6159964087216399,-0.3978440362797436,-0.7225958710961191,-0.6837230332172659,-0.10187257198590026,0
136,27.24170141784821,-0.7315288388610701,-0.49372978989533767,-0.4702089455598231,-0.7277269296380218,-0.6272210219837588,-0.277501901725496,0
137,27.441701417848208,-0.7639483125008677,-0.43075457732892103,-0.4804513190087619,-0.7637959036612096,-0.5258318695200902,-0.374321603100013,0
138,27.641701417848207,-0.744231635826526,-0.3613078204374256,-0.5617614539337228,-0.7672002000403946,-0.4685281556804036,-0.4380470527154572,0
139,27.841701417848206,-0.7642240777357405,-0.32147645115060375,-0.5591193525219551,-0.7962170368536681,-0.4062885691418127,-0.44829457816112767,0
140,28.041701417848206,-0.7409759448431448,-0.36933778975531234,-0.5608424433140468,-0.7676506081766805,-0.44658250633673047,-0.45964835341810684,0
141,28.24170141784821,-0.7094877197128804,-0.5195044476553734,-0.4761746574975435,-0.7145325715846064,-0.5439798021998848,-0.4399195141651067,0
142,28.441701417848208,-0.7017879023392726,-0.7029013411508481,-0.11585959061977845,-0.6743292306162418,-0.6648148961617868,-0.3214051066456477,0
143,28.641701417848207,-0.5700931529967372,-0.8205362447226546,-0.04140130435968382,-0.5367025698641822,-0.8221736955029166,-0.18968596659811257,0
144,28.841701417848206,0.17326230289473787,-0.9833425788653156,-0.05493220354330448,-0.20723368876939913,-0.9756859401911558,-0.07135225541164542,0
145,29.041701417848206,0.29693366010014616,-0.9535678069232109,0.05038689412128311,0.12395928852034749,-0.9922584289496766,-0.007570004481411956,0
146,29.24170141784821,0.5892391152029405,-0.803347710620758,0.0861958291058375,0.3778749882845658,-0.9257246157007865,0.015634228940721823,0
147,29.441701417848208,0.812175470911726,-0.574987119321843,0.0987968474359624,0.6140105680583661,-0.7829744185519639,0.09970999050173772,0
148,29.641701417848207,0.9157059367525756,-0.36237646056035977,0.17368344258401397,0.8708926240467411,-0.480967629450451,0.10107510475777685,0
149,29.841701417848206,0.9878898514125151,0.06419091719176838,0.1412556817485182,0.9842394723340754,-0.12634201516093027,0.123735024567082,0
150,30.041701417848206,0.9862338186232816,0.08544355234679316,0.14157066915890917,0.9868734700990838,0.012310485938790612,0.16102548230185057,0
151,30.24170141784821,0.9935700790003362,-0.03768620381197706,0.10676257845100953,0.9877450737236648,0.04445817723509177,0.14960995893176804,0
152,30.441701417848208,0.8866732883110152,0.40204415865913407,0.22840966328901352,0.9847654061022607,0.058421767647939576,0.16378031630553133,0
153,30.641701417848207,0.8862940324635555,0.416346415061634,0.2028264052948122,0.9862346493268488,0.07169656711325435,0.14899939171460413,0
154,30.841701417848206,0.8631239291444285,0.4620410876268326,0.20380165917601628,0.9794890030703565,0.1338722221630824,0.15059721444089816,0
155,31.041701417848206,0.8186160710552072,0.537880189895837,0.2013768346353537,0.9522774521884737,0.26231942901865074,0.15606463793171765,0
156,31.24170141784821,0.707486774901283,0.7035580792851548,0.06684678311157287,0.8949792771432142,0.421642317229777,0.1457046663813956,0
157,31.441701417848208,0.5868383976142035,0.8092614003171915,0.02677089916779523,0.8303318091704631,0.5393307075003849,0.14025503422993332,0
158,31.641701417848207,0.5072171215916333,0.8611405172536227,0.03417310504565392,0.7725145970925934,0.6191169220454431,0.14112205396692948,1
159,31.841701417848206,0.4422097686613201,0.8965640546365969,0.024968308594842704,0.7248419546480973,0.674491069595704,0.14023529447884692,1
160,32.04170141784821,0.417385407779546,0.9087005313027021,-0.007264005980835332,0.705254358942029,0.6944715172193572,0.14256788195211376,1
161,32.24170141784821,0.4330262071836768,0.9008541083604874,-0.030824979191415868,0.7219271123730358,0.6775807031627981,0.1403767613322747,1
162,32.44170141784821,0.43568281066177805,0.8998405940157397,-0.02161929358823325,0.7264478798566385,0.6728916456892239,0.13960770399029918,1
163,32.64170141784821,0.5937702856681395,0.7993901629676698,0.09171812911359538,0.7412593948131359,0.6576236778525885,0.13440836257055844,1
164,32.84170141784821,0.46260233423404373,0.8840473349325773,-0.06677866395654783,0.743297478343711,0.6563717652880825,0.12917029232949567,1
165,33.04170141784821,0.5114642459559988,0.8577524485028173,-0.05162424039231741,0.7476515456061582,0.6512544444937045,0.12994158256662694,1
166,33.24170141784821,0.5884748700846931,0.8084619304757601,-0.009307752156706584,0.7671881944333133,0.6273965189903543,0.13340120794407806,1
167,33.44170141784821,0.7597948161079536,0.6498946001851784,0.01867742127886627,0.8040254149587347,0.5718332241471017,0.16294138781158438,1
168,33.64170141784821,0.8742489185626819,0.3595746296049552,0.3261823326552812,0.8601603443694595,0.46975172479411603,0.19863911756541353,0
169,33.84170141784821,0.8951068321822828,0.3268529913540051,0.30323403671675403,0.8945658807104545,0.3939137101516388,0.21114893801129994,0
170,34.04170141784821,0.9247983309758256,0.2393612158915979,0.2957266564772665,0.9288276582125208,0.3085562683462228,0.20511511549298075,0
171,34.24170141784821,0.9779233312596812,-0.16002262393439076,0.13438272957162478,0.9673803555746815,0.1730712234249602,0.18499080861056477,0
172,34.44170141784821,0.9618879140785226,-0.23491950096419967,0.1399445204943736,0.982848348591329,-0.005377057197668749,0.18433722067773198,0
173,34.64170141784821,0.9773773359012573,-0.16345401943860885,0.13422491123455382,0.9665766412095899,-0.18266725117924773,0.17989516951437445,0
174,34.84170141784821,0.7299952911507196,-0.6449324946730983,0.22620555300989134,0.8933674417895456,-0.41550307542389453,0.17103160019039762,0
175,35.04170141784821,0.7474145046614641,-0.6193382953401572,0.24039890629286723,0.7368000602487021,-0.6537534219889689,0.17243008570206655,0
176,35.24170141784821,0.6931895472763601,-0.6791909690694516,0.24122163891594428,0.6453649814169201,-0.7436601501136911,0.17456695533124514,0
177,35.44170141784821,0.7127569951730344,-0.6553288084290733,0.2500432336113868,0.6310410028413296,-0.7552687398471448,0.17707733717987412,0
178,35.64170141784821,0.7526609029187749,-0.6085182189591318,0.2514103068935339,0.6613717184074911,-0.7291450999785231,0.17588312388638122,0
179,35.84170141784821,0.7572600805251662,-0.6050073612947697,0.24601476220373256,0.6514996595801678,-0.7386706964201943,0.17295605169241948,0
180,36.04170141784821,0.7271838670110657,-0.6661684281632475,0.16559966448438637,0.5715504545480383,-0.8032084089266055,0.16788784868334572,0
181,36.24170141784821,0.12418985379386538,-0.9857445183071873,0.11351046137686994,0.4200126967902337,-0.8939522055051865,0.15632910415980864,0
182,36.44170141784821,0.041059429521230095,-0.9910094534820064,0.12733572301866547,0.196331696516644,-0.9689205631132487,0.15048856208762607,0
183,36.64170141784821,-0.07391300162253628,-0.9906430275719041,0.11473125168984662,-0.017361670377924632,-0.9894518851700798,0.14381772955746389,1
184,36.84170141784821,0.07032637950910936,-0.9913287121994944,0.11100263381574799,-0.08452521250181638,-0.9874898173509007,0.13311404538893656,1
185,37.04170141784821,0.07941215648573918,-0.9911240030994893,0.10661575813325126,-0.09269273481958357,-0.9879271491031039,0.12412898523987126,1
186,37.24170141784821,0.08528368560257404,-0.9907965575631958,0.10511362657125849,-0.0975559122442135,-0.9877007513548308,0.12218866461052065,1
187,37.44170141784821,0.12604188334864497,-0.9866117604846109,0.10349240414341261,-0.055910817748702324,-0.9910223914739165,0.12144381439987541,1
188,37.64170141784821,0.1206490262882734,-0.9875257180469583,0.10117691758267292,-0.05981521138738399,-0.9909892022621795,0.11984382122767882,1
189,37.84170141784821,0.026219938103512863,-0.9938728294189567,0.10737464220478557,-0.1588197190254359,-0.9790730028196855,0.12724917287874984,1
190,38.04170141784821,0.005045834013682804,-0.9987305505006687,0.050118131008029934,-0.30363442933647133,-0.9439069216619201,0.12979158894255316,0
191,38.24170141784821,-0.23181321642390418,-0.9700125251256353,0.07306390210352315,-0.5112132661257472,-0.8510677503107629,0.11976928203017304,0
192,38.441701417848215,-0.9219278215140393,-0.3765393335608848,0.09092426628740333,-0.7294003074296017,-0.6736234686650526,0.11919150131307933,0
193,38.64170141784821,-0.9141069488370482,-0.3896538478316337,0.11215331006182828,-0.8296996128817647,-0.5449079352536178,0.12113585134669656,1
194,38.84170141784821,-0.9221329435416812,-0.3761892661688407,0.09029103197164084,-0.8717432438980866,-0.477408976384597,0.11020156979577281,1
195,39.04170141784821,-0.926025762172895,-0.36835271626473326,0.08241701409601032,-0.8958828517362923,-0.43243766643795933,0.10193910246093345,1
