,timeStamp,x_gaze,y_gaze,z_gaze,x_head,y_head,z_head,fixations_head
0,0.033366700033366704,-0.3525825874568691,0.1009332804356004,0.9303214454814679,-0.996134458262268,-0.040474757452032835,0.07796111256092222,0
1,0.2333667000333667,-0.3535578927419391,0.09438691287345764,0.930638451364491,-0.9956529680207207,-0.050849243027342096,0.07803538783831496,0
2,0.43336670003336675,-0.9602702049076858,0.26647135532827376,-0.08291049605486668,-0.9962376996633057,-0.05775256847511384,0.06461491007571338,0
3,0.6333667000333668,-0.9074333410120339,0.4051691854118034,-0.11136724299574709,-0.9920950589056723,0.12269856931896227,0.026314543165907683,0
4,0.8333667000333668,-0.9324580602874228,0.34264760407664463,-0.11451892955119583,-0.9844399560540604,0.175718553581284,-0.0009812500095854266,0
5,1.0333667000333666,-0.9292072429602533,0.35234710981129835,-0.11146934034895103,-0.978669943939094,0.20496098525709605,-0.014004833190420476,0
6,1.2333667000333668,-0.909478022020849,0.3996697312620556,-0.11451564685212472,-0.9650005528667415,0.26128332380041436,-0.022471263219757835,0
7,1.4333667000333667,-0.8960148841685849,0.4295427623970614,-0.11247374191632004,-0.9473752112524059,0.318693110300103,-0.0302474883536737,0
8,1.6333667000333667,-0.7819946439837362,0.5887379757143375,-0.20462642237143824,-0.9304614317792934,0.3608540933943213,-0.06344956463042058,0
9,1.8333667000333667,-0.7713631239931089,0.5768080069533734,-0.26887070137534336,-0.919856481107223,0.381057286074079,-0.09305589124227945,0
10,2.033366700033367,-0.8581071245158267,0.4393868754577313,-0.26569030191309495,-0.9747322281037797,0.20901694427476353,-0.07879721125700775,0
11,2.233366700033367,-0.9644435518455433,-0.25810273007131895,-0.056847304538429004,-0.9940567237510458,-0.10814049622554363,-0.012524497651813512,0
12,2.433366700033367,-0.8939505745884291,-0.42009690991177606,-0.15611199978091003,-0.9703329422560284,-0.24152487658159452,-0.01094144254678553,0
13,2.633366700033367,-0.872051353902241,-0.45675112182451294,-0.1757977498983346,-0.9422609514609551,-0.3338779035242243,-0.025881361829793906,0
14,2.833366700033367,-0.5731270205702501,-0.7836853033785006,-0.23950524745987448,-0.8101488266076935,-0.5796627225308626,-0.08746431760601563,0
15,3.033366700033367,-0.5308701216628804,-0.811415296834206,-0.24450384452825277,-0.7384787638495223,-0.6659153572397173,-0.10585769851825498,1
16,3.233366700033367,-0.5311504847032988,-0.8019366647037741,-0.273453375190795,-0.7004734504469633,-0.6971346988521215,-0.1527748568164537,1
17,3.433366700033367,-0.5226562868772586,-0.7769769910628385,-0.35090904967899456,-0.6741984062498791,-0.7065824352842164,-0.21493666778367287,1
18,3.633366700033367,-0.5568492917769441,-0.7534390551752685,-0.34964046731480436,-0.6952476494269951,-0.6809542616402191,-0.2300695536577192,1
19,3.833366700033367,-0.769648386052348,-0.5410613108071507,-0.33896020385092945,-0.7228851899080062,-0.6455409744500542,-0.24640181110888876,1
20,4.033366700033366,-0.7707517583909821,-0.5403131519924602,-0.3376439318589659,-0.7386271932738189,-0.626316735893211,-0.24931348879776766,1
21,4.233366700033367,-0.7689864449476189,-0.541198278387001,-0.34024148917756764,-0.7496129405679626,-0.6127421911737654,-0.2502547631687067,1
22,4.433366700033367,-0.5750482829022248,-0.7477162894437328,-0.3320238287106805,-0.7424532177357636,-0.6202985449506413,-0.2529682482169027,1
23,4.633366700033367,-0.5798157692047076,-0.7428866026718225,-0.33456414833671483,-0.7500090469680515,-0.609690370701045,-0.2564450844537626,1
24,4.833366700033367,-0.5766732061882845,-0.7440997855426679,-0.3372884854540401,-0.7509641196819808,-0.6066935902611931,-0.2607216494391122,1
25,5.033366700033366,-0.5725193738523785,-0.7452913670118717,-0.3417050553053842,-0.7499665049728061,-0.6062646167889342,-0.26456276353379804,1
26,5.233366700033367,-0.7116782577946765,-0.5963801038317023,-0.37127460071491813,-0.7445948379088257,-0.6113302310895643,-0.2680557328532806,1
27,5.433366700033367,-0.7234913586612277,-0.5780446753326147,-0.37739184843096885,-0.7586427702436569,-0.5946062882344799,-0.2662790062116141,1
28,5.633366700033367,-0.726606534686903,-0.575322600362163,-0.3755620444917317,-0.7663493442839696,-0.5860805974087239,-0.26309354962933373,1
29,5.833366700033367,-0.7336523874586156,-0.5691946773862435,-0.3711759604438893,-0.7768187616917198,-0.5739199498632278,-0.2591688689498286,1
30,6.033366700033366,-0.7318444133114952,-0.5703959115555041,-0.37289711555001254,-0.7808357639708291,-0.5679438073024364,-0.2602601418790535,1
31,6.233366700033367,-0.7324989637919329,-0.5707923980949063,-0.37100041283105184,-0.787078050610966,-0.5605806649066909,-0.2574052454384213,1
32,6.433366700033367,-0.7336936545736241,-0.5700970544609086,-0.369706599526429,-0.7913307505894904,-0.5550340685541881,-0.2563841374103684,1
33,6.633366700033367,-0.6187922153402061,-0.38982638974179745,-0.6820055572319306,-0.8002293124083302,-0.5452522638660734,-0.2496658092559195,1
34,6.833366700033367,-0.6991237832921418,-0.5855972404746955,-0.4102460329896001,-0.8077744214839893,-0.5313119465556326,-0.255358766137901,1
35,7.033366700033366,-0.6911537658782564,-0.593533590729456,-0.4123400885047478,-0.8106057507528617,-0.5259411569377523,-0.25749605100927,1
36,7.233366700033367,-0.6903936934751371,-0.598012292536751,-0.4071091327699465,-0.8109557933110265,-0.526896225483136,-0.25442301166936165,1
37,7.433366700033367,-0.6890138849973492,-0.603322716728094,-0.40157386090318575,-0.8092236481342272,-0.5319195817282738,-0.2494366570381154,1
38,7.633366700033367,-0.8163277869000178,-0.46815509925612925,-0.3382894431923689,-0.81729647951594,-0.5209712331503266,-0.24620202842519132,1
39,7.833366700033367,-0.8596551502740329,-0.39448682796018536,-0.32461233059334166,-0.8754662627557609,-0.42560035989200135,-0.2289610369391707,0
40,8.033366700033367,-0.9561142721919965,0.2928886018088283,0.007859099263828913,-0.9960966284188406,-0.05352687067008313,-0.07018818254440241,0
41,8.233366700033368,-0.5953707922842452,0.8009628513494145,0.06318330834204512,-0.867119367615226,0.4670766681212272,0.17304157998395517,0
42,8.433366700033368,-0.515539306113485,0.8532935084077888,0.07816273000064373,-0.5786503497226104,0.7828491124224898,0.22871606840189676,0
43,8.633366700033367,-0.5891024792212167,0.7949549455859788,0.1449306850318787,-0.547802682180323,0.7818481740533159,0.2977006115639338,0
44,8.833366700033368,-0.6560503638799509,0.5374998196398896,0.5298036088401723,-0.6246198065573458,0.6380063648248141,0.45033096240353093,0
45,9.033366700033367,-0.6980724294223043,0.47238556331525033,0.5380954960337209,-0.7153575536493703,0.46074748184349446,0.5253335401548879,0
46,9.233366700033368,-0.811179236151645,0.21170541844950708,0.5451321515335098,-0.7913701677495113,0.29499031410037696,0.5354567883434396,0
47,9.433366700033368,-0.8293782417278035,-0.13917943067708977,0.5410737641254638,-0.8294604798967661,0.14166881335419057,0.540301082371896,0
48,9.633366700033369,-0.7865011751964885,-0.3007421703428308,0.5394163961097459,-0.8407009280819979,-0.035696118479251464,0.5403218824437731,0
49,9.833366700033368,-0.8076679958436375,-0.31302241105161366,0.499689282123758,-0.8400660587442546,-0.10575964750978517,0.5320751017520936,0
50,10.033366700033367,-0.9145901666134244,-0.17369040001083624,0.3651800543267721,-0.8558273694058861,-0.12256994668236326,0.5025297224504077,0
51,10.233366700033368,-0.9198650000872748,-0.15960322864164772,0.35829483811743706,-0.8676081455237213,-0.1134919062855026,0.4841236340322297,0
52,10.433366700033368,-0.7457568602740254,-0.46519376319379396,0.47690823859504067,-0.8477455256904014,-0.22973568852261705,0.47806802558939654,0
53,10.633366700033369,-0.9691771001900862,-0.24539159045299433,0.021879574997838554,-0.8652987423141801,-0.2871997697245751,0.4108215900115874,0
54,10.833366700033368,-0.983310146985815,-0.13428745097158776,-0.12275192603901691,-0.9429838276408529,-0.2034724946711082,0.2634016794178091,0
55,11.033366700033367,-0.985086313383023,-0.08714046480543251,-0.1483627128996307,-0.9861940610555806,-0.13124573569825684,0.10097440665696018,0
56,11.233366700033368,-0.9484366087371328,0.01598135779860994,-0.31656373040845975,-0.996782571167583,-0.07201452856822498,-0.035191099608262374,0
57,11.433366700033368,-0.8875132152495429,-0.11674913133012803,-0.4457464897125709,-0.9929578277081227,-0.046881321579059956,-0.10879749114830957,0
58,11.633366700033369,-0.8678035601197625,-0.12754146852029372,-0.48026050727824093,-0.9831501132164073,-0.05636609819997002,-0.17389283440175682,0
59,11.833366700033368,-0.7834302532930912,-0.18941318099839277,-0.5919118896332404,-0.9708273543893755,-0.08713772475033273,-0.2233859102420332,0
60,12.033366700033367,-0.7763042915674745,-0.19960034587043263,-0.5979225274417456,-0.9613612029740767,-0.1232931010818439,-0.2461370525578355,0
61,12.233366700033368,-0.7582946121318539,-0.3874634048805446,-0.5242722490177942,-0.948061615426603,-0.17718780070567608,-0.26416596418877564,0
62,12.433366700033368,-0.7482417876102061,-0.3896038946745265,-0.5369758211766374,-0.9361702583907647,-0.20939972259119266,-0.28237741319606274,0
63,12.633366700033369,-0.7475108943453277,-0.2448136665598186,-0.6174898634800305,-0.9239237863932664,-0.21313478012725845,-0.31770804591139234,0
64,12.833366700033368,-0.7306670413246672,-0.23651763914511373,-0.640456931491165,-0.9078697246661871,-0.217822296500717,-0.3582261997421405,0
65,13.033366700033367,-0.6121138313161651,-0.5291075294768663,-0.587674977995773,-0.8724154395665551,-0.23441998713167467,-0.4288806016120102,1
66,13.233366700033368,-0.6239413834881622,-0.2616608021435876,-0.7363632083370626,-0.8363955672612571,-0.25769184014175983,-0.4837740904493274,1
67,13.433366700033368,-0.6066070983183673,-0.24184773831906498,-0.7573225863129418,-0.812599990076818,-0.2420677402466041,-0.5301739952685891,1
68,13.633366700033369,-0.6797331477245931,-0.08345286876454684,-0.7286964159232456,-0.8123046423522378,-0.22412684011826856,-0.5384499304035647,1
69,13.833366700033368,-0.6846499952613581,-0.06536094333547549,-0.725935486854665,-0.8186817632117114,-0.19463615483086535,-0.540256363051116,1
70,14.033366700033367,-0.7061677149586383,-0.06568043205553074,-0.7049916589542703,-0.8349774510323862,-0.194739131005324,-0.5146740008226087,1
71,14.233366700033368,-0.8585416788667688,-0.21884659354201078,-0.46369424639916346,-0.8425021388577145,-0.19560758915250054,-0.5019241148680977,1
72,14.433366700033368,-0.8866114988005731,-0.05460445612517214,-0.45928031044872314,-0.8548048868294631,-0.197845477810519,-0.47975595083583544,1
73,14.633366700033369,-0.8914360041085454,-0.03797613137709503,-0.4515525041726811,-0.8706144263248689,-0.18127774032214664,-0.4573498677584983,1
74,14.833366700033368,-0.6021692518607553,-0.07723805810953036,-0.7946234797015043,-0.8822745805246827,-0.14337348043932394,-0.44836994732777335,1
75,15.033366700033367,-0.8826851690919065,-0.005585427942936885,-0.4699315857227379,-0.8880643522038928,-0.1354449519265843,-0.43931352283111624,1
76,15.233366700033368,-0.8816699289967181,-0.0028027005491357737,-0.47185832743796535,-0.8901534373980556,-0.13861920868783845,-0.43406401932339833,1
77,15.433366700033368,-0.8816580357654837,-0.030372422832607816,-0.47091042025148067,-0.888833343269782,-0.14644807283392383,-0.4341983991853164,1
78,15.633366700033369,-0.8874434272176328,-0.06469922858924759,-0.4563531234780566,-0.8919941757642981,-0.1671176283357135,-0.4200215336170482,1
79,15.833366700033368,-0.8428193022631412,-0.45322592702723424,-0.29024452243406096,-0.9010090051919517,-0.22102475625323245,-0.373270451129217,1
80,16.033366700033366,-0.8430379355155995,-0.4508559872890824,-0.2932847046935509,-0.9040931875830545,-0.24306078311259974,-0.3514782552002359,1
81,16.233366700033365,-0.8530077661005377,-0.43949435489054695,-0.2814648521423449,-0.9156539778245387,-0.2431494332613144,-0.320087716101073,1
82,16.433366700033368,-0.8149204364305351,-0.5282650917462542,-0.23841282501196967,-0.9219595368540532,-0.24882379323073214,-0.29677825446978096,1
83,16.633366700033367,-0.8963852504299841,-0.3502655090747176,-0.271675460732477,-0.9251741501323514,-0.2515254902314576,-0.28423180626155486,1
84,16.833366700033366,-0.9015472504074584,-0.3355049529699654,-0.2732196585448653,-0.9276691720829292,-0.2452450157044327,-0.28157554836864906,1
85,17.033366700033366,-0.9025727993419745,-0.3274111181429507,-0.2795787931950044,-0.9285136482669476,-0.24094081598560463,-0.28250650996781407,1
86,17.233366700033365,-0.9010271499306173,-0.3177700420758123,-0.29524951388113274,-0.9269235162589615,-0.24149405737754992,-0.28721666953269126,1
87,17.433366700033368,-0.9032274006378063,-0.16611107831842734,-0.3957112234912743,-0.9232862468566533,-0.2549664715767583,-0.28728836512649325,1
88,17.633366700033367,-0.9013899943172441,-0.1586378089714689,-0.40290212671254333,-0.9194521162568039,-0.2637924732927607,-0.291584185004903,1
89,17.833366700033366,-0.8746207496445966,-0.31464965905952147,-0.3688280579685486,-0.9216413331005979,-0.2594123252918899,-0.2885870728345392,1
90,18.033366700033366,-0.8743433419591184,-0.31748035433075433,-0.36705577912052906,-0.9239000472663905,-0.25586973418789316,-0.28449847413963175,1
91,18.233366700033365,-0.8776702644422176,-0.32410077695474226,-0.3530631576520836,-0.9258176276350947,-0.2532403518219012,-0.28059052829567316,1
92,18.433366700033368,-0.882574501109527,-0.32866033746980056,-0.33622110666272365,-0.9299437370523239,-0.2527238194334356,-0.2670867218866086,1
93,18.633366700033367,-0.8864447736185668,-0.3306961365717277,-0.32381434276582216,-0.9304513997313772,-0.257606400743093,-0.2605746246934072,1
94,18.833366700033366,-0.8786026821012849,-0.34883297068509517,-0.32614856364460665,-0.9250263685295761,-0.2750297181930554,-0.2620779876976191,1
95,19.033366700033366,-0.8790260074385878,-0.3511729178437611,-0.322476138682655,-0.924574334557744,-0.2744669815801152,-0.26425399883333056,1
96,19.23336670003337,-0.9411631633102352,-0.10702757320113397,-0.3205573249865738,-0.9299359586034708,-0.2604828453756265,-0.2595530777341345,1
97,19.433366700033368,-0.9189260637326147,-0.25168645508969184,-0.30369197835515355,-0.9376005249625956,-0.23920003815139496,-0.2523659987760561,1
98,19.633366700033367,-0.9167661761837385,-0.26081904233152,-0.30251149624884616,-0.9420314683301769,-0.22680866844999661,-0.24725400015294163,1
99,19.833366700033366,-0.9110764842240411,-0.27260326903003856,-0.3092363135339979,-0.9393172033286128,-0.23840232882812967,-0.24667290313335624,1
100,20.033366700033366,-0.86388385044862,-0.39486370571994,-0.31270968459448667,-0.9320363583689384,-0.25644238321482465,-0.2560186141073905,1
101,20.23336670003337,-0.8585976285307475,-0.39873671359753127,-0.32220978493958985,-0.9249078581377588,-0.2736152206148952,-0.2639700077715004,1
102,20.433366700033368,-0.842098394163094,-0.40442908602576005,-0.35680163806281373,-0.9193222906168999,-0.2766721921480329,-0.2798196277370447,1
103,20.633366700033367,-0.8510800397302589,-0.3586388475869906,-0.38345918032329923,-0.9220635544984817,-0.26630246457718976,-0.280859037286928,1
104,20.833366700033366,-0.862040015191101,-0.2997658499545258,-0.4086899159636407,-0.9209912397197417,-0.26915318924254805,-0.2816588309995951,1
105,21.033366700033366,-0.8588796297847838,-0.30222703983064186,-0.4135028390905686,-0.9190178487120504,-0.27406786423037216,-0.28336019400204565,1
106,21.23336670003337,-0.859967389598034,-0.30863582349172397,-0.40644804992216316,-0.9199073054093581,-0.2745337934644154,-0.28000311730502614,1
107,21.433366700033368,-0.8615092207300077,-0.32266283269463175,-0.3920338748050365,-0.9202983971189153,-0.27699759100309623,-0.276266528625595,1
108,21.633366700033367,-0.8767142950728947,-0.21801702338194473,-0.4287663959903032,-0.9212310070615163,-0.2733113546441282,-0.2768290719036142,1
109,21.833366700033366,-0.8788846208400839,-0.2146849020344377,-0.42599555876704426,-0.9236134371315368,-0.2723984181720797,-0.2696985734619628,1
110,22.033366700033366,-0.817899167362745,-0.36033231870326693,-0.4485549822767059,-0.922942696761496,-0.272030212651119,-0.27235334016605045,1
111,22.23336670003337,-0.8086468399350244,-0.38047769136080567,-0.4486947900743338,-0.924553437200593,-0.2647107540234314,-0.274096987332797,1
112,22.433366700033368,-0.7992281084736498,-0.410383860471995,-0.43911219259972056,-0.925564091461868,-0.26770800167371417,-0.26770046401945913,1
113,22.633366700033367,-0.7977509455229598,-0.41597044941534816,-0.436534092746966,-0.925007671362039,-0.27038346717102896,-0.26693367828348613,1
114,22.833366700033366,-0.8038796129516299,-0.40484127504466894,-0.4357534967168304,-0.9256827003638202,-0.2675974596637009,-0.2674007064850061,1
115,23.033366700033366,-0.810381301655503,-0.3968954357343612,-0.4309943839777545,-0.9265875886248549,-0.26562945784058145,-0.2662262791944024,1
116,23.23336670003337,-0.7993534394606907,-0.5064081744884374,-0.3233957940877594,-0.9283324193738638,-0.26357155732395615,-0.26216207450600787,1
117,23.433366700033368,-0.8136567805015491,-0.4489676173029654,-0.3693111454548214,-0.9286900918879779,-0.26204646170033197,-0.26242401784028013,1
118,23.633366700033367,-0.8049976978475857,-0.46071689106870045,-0.3737895835146809,-0.9309008146520489,-0.25714789717588704,-0.2594197992794142,1
119,23.833366700033366,-0.8010249218903703,-0.4677857447722212,-0.37354460442954457,-0.9308651302992126,-0.26194121537350257,-0.25470945974125603,1
120,24.033366700033366,-0.7997764227121629,-0.46039238083206363,-0.3852227009737615,-0.9285672949712278,-0.2716801639573213,-0.2528886458936822,1
121,24.23336670003337,-0.8043998704004072,-0.44152552782859567,-0.39748717812715495,-0.9283124018333566,-0.2735076450115862,-0.2518524423598096,1
122,24.433366700033368,-0.819003447838453,-0.40667360163457944,-0.4047838116356509,-0.935189526414504,-0.2511616440853118,-0.24967654720653903,1
123,24.633366700033367,-0.8738170340626455,-0.15307927928100948,-0.4615306330426707,-0.9398784471441677,-0.23120378212848025,-0.2513430240196741,1
124,24.833366700033366,-0.8724838664657684,-0.18008012066398565,-0.45424998943157674,-0.9375969472795078,-0.24172678001543957,-0.2499602533914449,1
125,25.033366700033366,-0.8753924841341251,-0.2810551036267024,-0.39331415871650177,-0.9382037570598468,-0.24514969054085795,-0.24428536482259822,1
126,25.23336670003337,-0.8823985227739606,-0.27386085251184233,-0.3825873501147411,-0.9432095094671613,-0.2367942671287264,-0.23298990601673394,1
127,25.433366700033368,-0.9040960783350969,-0.24414496124333868,-0.350718575268815,-0.9592419755488468,-0.20298336414979892,-0.19660260991038703,0
128,25.633366700033367,-0.9465899227581352,-0.14568696940812736,-0.2876505259467173,-0.9744460225572245,-0.16082208403454923,-0.15681583596432322,0
129,25.833366700033366,-0.9431856750882178,-0.12953997225767566,-0.3059741457964438,-0.9826521929459322,-0.13935140264811943,-0.12237587294296474,0
130,26.033366700033366,-0.9523942013222,-0.10811108462121273,-0.28505662362042056,-0.9912562710920683,-0.10244382644986992,-0.08316409948383359,0
131,26.23336670003337,-0.9892958038428772,0.023775895666820545,-0.14397402294899014,-0.9978088944894667,-0.06527565698721355,-0.010793455544724832,1
132,26.433366700033368,-0.9821079922821906,0.17680244160160613,0.06484433775709017,-0.9985236244635471,-0.019368757485140036,0.05074862186959303,1
133,26.633366700033367,-0.9081241581955375,-0.004742352019703591,-0.4186741255427276,-0.9963302184582867,0.0248493929744238,0.08190606482834656,1
134,26.833366700033366,-0.9494945174433325,0.31371911395718827,-0.006362301703789511,-0.994704649017299,0.033014789183722325,0.09732771916841892,1
135,27.033366700033366,-0.9969654798603254,0.0570930192763637,-0.052917096639741174,-0.9949170596684731,0.01899711436379255,0.09888960524994021,1
136,27.23336670003337,-0.9972034405265553,0.03203489905193024,-0.06752083711517232,-0.9955731031463417,0.008430641719221529,0.093611540804358,1
137,27.433366700033368,-0.9793600596611032,-0.17179647618422478,-0.10648870508783445,-0.9960713773837958,-0.008686243127824147,0.08812695579147752,1
138,27.633366700033367,-0.9735507731670818,-0.20093320187733751,-0.10874162243179207,-0.9952630527395405,-0.0514323051360325,0.08249953842273586,1
139,27.833366700033366,-0.9300364279883867,-0.35867720260010105,-0.07989309700824382,-0.9911256537268767,-0.10650947195618671,0.07953408645408645,1
140,28.033366700033366,-0.9320860983621424,-0.3531895246745276,-0.08045287378472078,-0.9900642712711172,-0.11818828685806222,0.07618574408606844,1
141,28.23336670003337,-0.9367694683235855,-0.3412277153108774,-0.07763124062171278,-0.9918296026458235,-0.10376273806866335,0.0742114108740842,1
142,28.433366700033368,-0.9376661698617303,-0.33892870625840926,-0.07687318108959734,-0.9933540703327992,-0.09327337975329164,0.06743713800761926,1
143,28.633366700033367,-0.9377279776601062,-0.3411023864605615,-0.06569171838517518,-0.9934107361975253,-0.08834993390743703,0.07300272862052821,1
144,28.833366700033366,-0.9351913490224363,-0.34993938264322005,-0.05440192265791241,-0.9929149219908768,-0.08953491069734651,0.07812462770643788,1
145,29.033366700033366,-0.9723298384900609,-0.22979498474621424,-0.04205888927895258,-0.9934523612989923,-0.08525712727615872,0.07605016816597852,1
146,29.23336670003337,-0.9729496368337011,-0.2269453310317124,-0.04318357220143013,-0.9939216188069309,-0.07921623344743672,0.07645000998437981,1
147,29.433366700033368,-0.9267343492452831,-0.3549238114146379,-0.1232579977925499,-0.9938135981999525,-0.08248664411688958,0.07436723455391818,1
148,29.633366700033367,-0.927584844973235,-0.3588878186867131,-0.10385513455902311,-0.993472612538758,-0.08124369741219727,0.08007265304840767,1
149,29.833366700033366,-0.97336569113535,-0.2176978886696163,-0.07188087777283896,-0.992081359041278,-0.09025754207131866,0.08733929895559432,1
150,30.033366700033366,-0.9741799412777061,-0.21468789424014828,-0.06987524653907205,-0.9905617608592331,-0.10630971285912387,0.08651960977296538,1
