,timeStamp,x_gaze,y_gaze,z_gaze,x_head,y_head,z_head,fixations_head
0,0.04,-0.9906048317421138,-0.117267897964241,0.07035842121755635,-0.9948291539138906,0.01345231745939212,0.10066771914543658,0
1,0.24000000000000002,-0.9862098358454567,-0.15811789966656395,0.04887626711106277,-0.9936776940739025,-0.06892878959745365,0.0886197622689297,0
2,0.44,-0.8997605960774491,-0.4354212122657471,0.02896959881291182,-0.9828791996916147,-0.16559900307696176,0.08078025125912755,0
3,0.6400000000000001,-0.8840773836172294,-0.4669184791930423,0.019857330247811066,-0.9719733767929253,-0.23010304838980628,0.0481699276258205,0
4,0.8400000000000001,-0.898728975119346,-0.4378032334824749,0.024790281023405754,-0.9473980963782273,-0.3200381437935787,-0.0035261162873564456,0
5,1.04,-0.8381282484455963,-0.4748282213716779,-0.26847569600715415,-0.924345644948979,-0.3640978782769431,-0.11409585311519771,0
6,1.2400000000000002,-0.534978828043088,-0.8441472402222305,0.03482944689247871,-0.8250424310890727,-0.5526730060666443,-0.11771803289170253,0
7,1.4400000000000002,-0.48665083255675173,-0.873039054226772,-0.031205399639229386,-0.675317389899395,-0.7268211645962048,-0.12520949482561172,0
8,1.6400000000000001,-0.4530978707034395,-0.8912236429407902,0.020560589178232905,-0.6237289318937129,-0.7779838307729889,-0.07552071619438824,0
9,1.84,-0.3100057144411815,-0.9336762093291062,-0.17929080608509632,-0.5826036110099843,-0.7975941944551665,-0.15625790671047984,0
10,2.04,-0.3118527716917666,-0.9457661349419532,-0.09096299679057367,-0.49313987450257374,-0.8593893719388777,-0.13514056228271284,0
11,2.24,0.3597226227484965,-0.9302656160605807,0.07214927760117276,-0.16928309316257356,-0.9854490398498403,0.0152782272642903,0
12,2.4400000000000004,0.39857074351179683,-0.9170970928936649,0.008618852733519458,0.11348489885203272,-0.9929574938619644,0.03400872117429935,0
13,2.64,0.44534992967776976,-0.893944149104272,0.05027224301982928,0.22849910675899537,-0.9735441210932387,4.99513231714767e-05,0
14,2.8400000000000003,0.33608244260794984,-0.9364262259299739,0.10076961427543267,0.12023816977627655,-0.9919885422527335,0.03874938151955735,0
15,3.04,-0.5773944296855826,-0.8096644789446804,-0.10516227509568134,-0.2960465629066416,-0.9543883799262058,0.038720186634318456,0
16,3.24,-0.6310640981582545,-0.7756367044398722,-0.01207504622615784,-0.6830149094854906,-0.7291481145559473,0.04282126177536114,0
17,3.4400000000000004,-0.9131363209281254,-0.4055596556493917,0.04127257093270005,-0.894404264615727,-0.42660182242085365,0.13435734644747815,0
18,3.64,-0.9788406063614774,-0.19227317509909572,0.07001495179751296,-0.9633440202105997,-0.198484125319053,0.18047811701369937,0
19,3.8400000000000003,-0.9295764933987317,0.36852447511292175,-0.008789434752207762,-0.9897396577981534,0.028630874047131057,0.13998458069691813,0
20,4.04,-0.8410715518199363,0.5407031639349698,-0.015450994463725349,-0.9492744113888809,0.2751760131653311,0.15217178996360423,0
21,4.24,-0.9133496292935517,0.40640353593839385,-0.025072308352092447,-0.8479114641073221,0.5020699000800329,0.17021152860192365,0
22,4.44,-0.7457012960487346,0.6661026009092487,-0.015391625423318386,-0.7450545454574646,0.6555505149391263,0.12307415104812779,0
23,4.640000000000001,-0.3453829207428119,0.9383414105968154,0.015034467677400062,-0.5619454774841971,0.8165727974650484,0.13200813147364462,0
24,4.840000000000001,-0.12426724387627192,0.9922440128806116,-0.003077499305601912,-0.4278396274827224,0.8931618827053351,0.13861855733525363,0
25,5.04,-0.19546670558388607,0.9792940658713982,0.05268680629197535,-0.3149071114718433,0.92798589730745,0.1991875637256184,0
26,5.24,-0.15976511899686835,0.9856605377777549,0.054299272735309684,-0.22226013041048964,0.9492248610761125,0.22264904568613575,0
27,5.44,0.6169076831534233,0.752067390048295,0.23199041206959767,-0.03402889529246289,0.9747156475137028,0.22084257011979802,0
28,5.640000000000001,0.5107329263738025,0.8595985781777775,-0.01556156522959951,0.26250735939326364,0.9489241443005219,0.17502244035522518,0
29,5.840000000000001,0.6327958826492263,0.771737145601505,0.06317554116134304,0.5427443397696419,0.8259574771998343,0.1523903786520026,0
30,6.04,0.6337911603202647,0.7714402014146452,0.05646929024898638,0.7212737438623747,0.6791963742664449,0.1358545972651245,0
31,6.24,0.9156734192820708,0.40084732579547394,-0.02938725272797912,0.827675566153285,0.5570678504258382,0.068033574173165,0
32,6.44,0.9226147683435812,0.3828667430492606,0.046851321231866375,0.8686875016996716,0.47022259614571077,0.15579709389064578,0
33,6.640000000000001,0.5286754913874694,0.8465876919692396,-0.0615751947817786,0.8403546161606088,0.5113613974333554,0.1797599519152187,0
34,6.840000000000001,0.44862958934277736,0.8906224074700384,0.07431836165042788,0.6791103431127359,0.7146946826057263,0.16739370517555976,0
35,7.04,-0.14416061644974193,0.9864388435614602,0.07846097487260849,0.3251961254676172,0.9053868875109651,0.2729872962319988,0
36,7.24,-0.51367002441265,0.8544418263016491,-0.07792478095067043,-0.14559485067837885,0.9655727398312184,0.2155723162903227,0
37,7.44,-0.8693688212692581,0.49302868073116346,-0.033474954539015556,-0.5948805568014104,0.7537935026566195,0.27912806826313497,0
38,7.640000000000001,-0.9616991101654632,0.27092063722006704,-0.041675290463648755,-0.8420012976294271,0.4617483951754743,0.27896636776363465,0
39,7.840000000000001,-0.9151946954634402,-0.3613458459347954,-0.17845965656486087,-0.986087813956473,0.0739639705718736,0.14886287053455458,0
40,8.04,-0.8674838598745257,-0.48674409996768736,-0.10272260707283713,-0.9752192332778016,-0.20052591311173693,0.09347087897180045,0
41,8.24,-0.9055931944484379,-0.4234740500794691,-0.023889225143677903,-0.9545166592286873,-0.29242701263536974,0.05817550632404861,0
42,8.44,-0.8725003988857524,-0.48705067790915735,0.03904729302312044,-0.9251868473598375,-0.37165377917699444,0.07682945981732989,0
43,8.639999999999999,-0.8892254996379161,-0.4570651256326395,0.01922190740061855,-0.8731157649569231,-0.480174495699874,0.08426929846070236,1
44,8.84,-0.6604898003972244,-0.7499077960305117,0.0373030967065096,-0.8216388588215836,-0.5682411492848279,0.04485066257954484,1
45,9.04,-0.6574791620362919,-0.7524177234398163,0.03985876242057337,-0.7896490307419716,-0.6078299339132163,0.08364914636336677,1
46,9.24,-0.9010278335317371,-0.43376030573551255,-0.0009167166079204597,-0.7762727707947631,-0.6242390949140757,0.08789845108690655,1
47,9.44,-0.9248157820752719,-0.38041142562988706,-0.0017077689363793605,-0.8119969244971852,-0.5815002606652966,0.05018407569443716,1
48,9.64,-0.9237629599436652,-0.38254402943446225,0.01794601293223047,-0.8689995928918045,-0.4925068769677835,0.0477146067082059,1
49,9.84,-0.6880138360843124,-0.7256938067270142,-0.0023367144892331355,-0.852563857859676,-0.5222727678333654,0.019131760271910093,1
50,10.04,-0.4791047377952354,-0.8690395381229408,-0.12340555660595039,-0.7327026817135547,-0.6794931213261115,-0.03789298457846846,0
51,10.24,-0.4218972107065934,-0.9064046273337251,-0.020818144634117693,-0.5411168642339599,-0.8409400854401342,-0.0035088376346538116,0
52,10.44,-0.2501671663233728,-0.9627212147335353,-0.10287979196965645,-0.3756592103126883,-0.9267501580209127,0.0037818402214879697,0
53,10.64,-0.2765138708670473,-0.9517580579139449,-0.13302886308616368,-0.2686088020449617,-0.9577382817837624,-0.10289166666867304,0
54,10.84,-0.36860345851819154,-0.9213889530270032,-0.1231823348058921,-0.34895377090395097,-0.9304104815777012,-0.1121053145139127,0
55,11.04,-0.8177679324378909,-0.4298029475120225,0.38278588660795043,-0.616447312366935,-0.7846403017760842,-0.0658202697071224,0
56,11.24,-0.9606228218035221,-0.27629800868704846,0.029380344208508838,-0.8312366238999507,-0.555632909732629,0.01782539507176635,0
57,11.44,-0.9445700003518042,-0.3272006449444169,-0.02696761730947978,-0.9559353666130549,-0.29349774975159043,-0.0068297693311714265,0
58,11.64,-0.9303981656432407,0.36131361183675076,-0.06173918746772345,-0.9963734517093681,-0.08020740064080843,0.02840277470960526,0
59,11.84,-0.9470826414527777,0.3102033624959981,-0.08251269087241121,-0.9931895849383834,0.05282974702398056,0.10384346969985372,0
60,12.04,-0.9215447070416124,-0.37639923617163995,-0.09528361838739811,-0.9949160811103857,-0.033168868394377375,0.09508847310472991,0
61,12.24,-0.8566163004220844,-0.514159861429752,0.04299012381605944,-0.9524600866382795,-0.27686969453099947,0.12713361322369737,0
62,12.44,-0.8034953732000135,-0.5939290351190312,0.04053993696033171,-0.8193264958813243,-0.5474720995257727,0.17023041264025876,0
63,12.64,-0.13977699191948795,-0.9901058413823988,-0.012361852223343898,-0.4788274306870085,-0.8650776637270843,0.14954908004453996,0
64,12.84,0.367587408531002,-0.926981593413427,-0.07473033227656439,-0.09648035679260458,-0.9815350768167741,0.16516789558343728,0
65,13.04,0.4792520602857898,-0.8776040536905705,-0.011339649805165854,0.18544116990427217,-0.9705296290485675,0.15389545686401893,0
66,13.24,0.4148943868393596,-0.9096475806874506,-0.020097928218111207,0.29763391688020896,-0.9496136778273693,0.09822379755294636,0
67,13.44,0.4290364281664795,-0.9032374373967996,-0.009480242138881578,0.3455741950749936,-0.935535795629296,0.07315224394733488,0
68,13.64,0.6444164794759546,-0.7147225757663639,-0.2718437798988806,0.47024399134339484,-0.8822591823756326,-0.02212066272320091,0
69,13.84,0.4066728911138058,-0.7139957070423717,-0.5699362156927762,0.4356514887973134,-0.8746142964327426,-0.21273836697724074,0
70,14.04,0.3857378759836122,-0.6743817856178116,-0.6296153573878132,0.38674926249276875,-0.845897941500552,-0.3672624137131764,0
71,14.24,0.25808044146325343,-0.5649859832480535,-0.7836997667904226,0.32037060171715653,-0.7890784741244132,-0.5241353253014673,0
72,14.44,0.2504052557849991,-0.5515489418895115,-0.7956701405581394,0.23824063897604827,-0.7127716212858194,-0.659695394731439,0
73,14.64,0.26299927690869285,-0.45625629058489875,-0.8500950403614957,0.2631828960011505,-0.6681265165257403,-0.6959466367241295,0
74,14.84,0.28410139634611,-0.4636342287728003,-0.8392435275320519,0.3114285781403323,-0.6523036306921991,-0.6910225858126972,0
75,15.04,0.7970990035049522,-0.6037774308443123,-0.009273220284980004,0.4591549949999404,-0.6528396480625777,-0.6024757957662155,0
76,15.24,0.7223673297731035,-0.6852695706155996,-0.09268795210160032,0.4984725839173823,-0.7356266945006315,-0.4586703057979695,0
77,15.44,0.7325558375477421,-0.6470071961533742,0.21152690845487068,0.5347764039614913,-0.7959551155484271,-0.28367173246255273,0
78,15.64,0.7245484285485086,-0.6629382666819964,0.18852699874701567,0.5396987843004049,-0.8253416490957592,-0.16594090662810693,0
79,15.84,0.7254994382481412,-0.6766461825163834,0.12570007473202663,0.5287131112658112,-0.8357672408861044,-0.14817410380108312,0
80,16.04,0.703075706153389,-0.7054696744771374,0.0894264491637423,0.4979072664020633,-0.8539369226106021,-0.15126164836586786,0
81,16.24,0.20877906700456633,-0.9363310810663152,0.28230375096673516,0.27020897739528255,-0.9592952955780694,-0.08209533736321804,0
82,16.44,0.1489084053193872,-0.9862197757936693,0.07208911609058434,0.08804833467189227,-0.9959947311070451,0.015555911047313563,0
83,16.64,0.2678042329977158,-0.9592678170568375,0.08992301122357303,0.1757365290280254,-0.9842206152895914,0.02065073374387638,0
84,16.84,0.7343197371905117,-0.6646373440780208,-0.13795551612520893,0.38608260565732944,-0.921789532787837,0.03527433701188724,0
85,17.04,0.7139453513024128,-0.6887781416026654,-0.12596311763390527,0.38603278225734355,-0.9212319548310788,0.04806637515731574,0
86,17.24,0.6972814950910455,-0.7122797162415592,-0.08034999959203895,0.3674486904382378,-0.9280950084601827,0.060175702459694426,0
87,17.44,0.7232653074523901,-0.6893950776821036,-0.04027060843203552,0.40373687521209,-0.9101727982742067,0.09263915411788907,0
88,17.64,0.7260122662409405,-0.6802153656747346,-0.10106060344012015,0.42195941326681885,-0.9065680410804393,0.009200024298732784,0
89,17.84,0.7211557283614705,-0.6838413188145955,-0.11088492293072096,0.5112815272606828,-0.8588498123468653,-0.03111590772800959,0
90,18.04,0.7520571658901491,-0.6588676898483431,-0.017417993776115772,0.5632279182248917,-0.8259262857350975,-0.02490145907132499,0
91,18.24,0.7345068087060636,-0.6749986707308858,-0.06983224524509744,0.5680110610533835,-0.8208022800444499,-0.06039082376356594,0
92,18.44,0.18529913468426684,-0.9822890800291931,0.027791976192124503,0.45670594739852605,-0.8865036788460161,-0.07437005447957105,0
93,18.64,0.315725043251078,-0.9488479345613394,-0.002300900429268529,0.31178527350753515,-0.9484480275008716,-0.05688833231460703,0
94,18.84,0.3284805897938956,-0.9440571243391179,0.02926855160764978,0.26882629453603085,-0.9623754553726617,-0.039571533484177975,0
95,19.04,-0.30823949623100266,-0.9453358534031472,-0.10643560134560962,0.1961495781484131,-0.9769895939419276,-0.08376560345026618,0
96,19.240000000000002,-0.42042172128860705,-0.9018183638502567,-0.09984595580778802,0.025138945190859963,-0.9988371250621791,-0.04113916664459622,0
97,19.44,-0.4018993594933909,-0.9038874390482666,-0.14650734578705876,-0.11361555352467384,-0.9917917112316094,-0.058657544523770436,0
98,19.64,-0.44023714280966236,-0.8905092442342558,-0.11482396972810108,-0.19480380509122697,-0.9795732444154917,-0.04987721270567418,0
99,19.84,-0.5842639040838948,-0.8061796606043559,-0.09332762298746897,-0.26626810116301763,-0.9626010305009837,-0.05000554350755302,0
100,20.04,-0.5800937851466674,-0.8080074250990955,-0.10303009957746259,-0.38529058487284207,-0.920898661217185,-0.05913392407696203,1
101,20.240000000000002,-0.6117908854245226,-0.7903872318188215,-0.03162176923037918,-0.43580374317624593,-0.8999928762440527,-0.009376574189440882,1
102,20.44,-0.5998624597615989,-0.7995714882559561,-0.02916272512848812,-0.44870714768939973,-0.8935890142816568,0.012671588991931746,1
103,20.64,-0.612608906658742,-0.7891418235318058,-0.044334070817795626,-0.48152502229110916,-0.8764085332155388,0.006460326194169118,1
104,20.84,-0.6086186250314723,-0.7931720500015067,-0.02148181466281649,-0.49322381347944566,-0.8692839002758735,0.032798941110315935,1
105,21.04,-0.6065933958739751,-0.7929480474708382,-0.057252476752229185,-0.5045443150820255,-0.863385093030056,-0.0011023846388651815,1
106,21.240000000000002,-0.5175010473803349,-0.7624355626082309,-0.3884387710187115,-0.5242496425082369,-0.848874926201711,-0.06762892869198787,1
107,21.44,-0.51692939557874,-0.7276181499667161,-0.4509499172032434,-0.5267117784394388,-0.8312712415448175,-0.17765929593945032,0
108,21.64,-0.45127406404424625,-0.6595726979394423,-0.6010953129528417,-0.5201663118747983,-0.8135804922902227,-0.25983415971609486,0
109,21.84,-0.45223660314081887,-0.6596810753633334,-0.6002523915713536,-0.5244577885629598,-0.8051561323397747,-0.2768892026990311,0
110,22.04,-0.27599473798816,-0.858887648272131,-0.43143819053071275,-0.5050364140515538,-0.8234556768213227,-0.2585710130557656,0
111,22.240000000000002,-0.2792539916671367,-0.9388848161135178,-0.20127719744038625,-0.4730291355783091,-0.8622646533982679,-0.18095055787148873,0
112,22.44,-0.3111097906898795,-0.9480071963020487,-0.06703024613134512,-0.4430435522239026,-0.8925115501091838,-0.08447214780345237,1
113,22.64,-0.30215493400837484,-0.9517512850074134,-0.05358999291968755,-0.41450463291154893,-0.9088308636631721,-0.047035843227427196,1
114,22.84,-0.3108072998971085,-0.9500948725919663,-0.02680588377808164,-0.40945858697402937,-0.9123285607081707,-0.0005127078986034561,1
115,23.04,-0.33169585281621444,-0.943327409007797,-0.010548015887401058,-0.42618789248628414,-0.9040508476067272,0.03249531104110138,1
116,23.240000000000002,-0.449885980240404,-0.8919292768860644,0.0454397382984687,-0.44277178138622936,-0.8949935683026058,0.054218652740858346,1
117,23.44,-0.7180459441424049,-0.688372902914039,0.10272666953786516,-0.42066421200243326,-0.9051362723598766,0.06139991204260074,1
118,23.64,-0.6805146187148443,-0.7294698029862361,0.06909168001005875,-0.4355573928387664,-0.8951527376188528,0.09482264432597468,0
119,23.84,-0.6009883958320716,-0.7886212673701153,-0.1299593964542248,-0.4552010072602266,-0.8903500611077787,0.008295280263503195,1
120,24.04,-0.6152436221568975,-0.7757711961663705,-0.14019392495347288,-0.47781832843931754,-0.877892725585486,-0.03152788244623103,1
121,24.240000000000002,-0.58416114403752,-0.7931860322999726,-0.17208043456768293,-0.5375315153829243,-0.8420717660479444,-0.0444410935400227,1
122,24.44,-0.5700550449662841,-0.817755129266473,-0.07945938753137875,-0.5674354266127346,-0.8220406085956755,-0.04760540352182163,1
123,24.64,-0.5604727246480488,-0.8269741795266697,-0.04454246649865959,-0.5593591001446213,-0.828821578347333,-0.013122055907334227,1
124,24.84,-0.5565444227924523,-0.830122211859212,-0.03399145240476691,-0.5524505563230514,-0.8335456169943725,-0.0002953097051453046,1
125,25.04,-0.5571153157001968,-0.8299981006116937,-0.026938411112226113,-0.5520400789231139,-0.8337303162543566,0.01206279490716296,1
126,25.240000000000002,-0.5510891075679538,-0.8344462240403374,-0.0005428671838764775,-0.5450307605154737,-0.8373519824034426,0.04222709624102739,1
127,25.44,-0.5743263154366256,-0.81715094639599,-0.049128547720521075,-0.5671587971033747,-0.8235975293173685,-0.004243650619352194,1
128,25.64,-0.5643201171813643,-0.8249875081237028,-0.03063358915071126,-0.5569778931768697,-0.830347963661156,0.017259367196595075,1
129,25.84,-0.5456888041722588,-0.8359598207879119,-0.0582658307182915,-0.5347076309587663,-0.8449516762598301,-0.012017245115544764,1
130,26.04,-0.5007043990186805,-0.8141822726029739,-0.2939427355496291,-0.45557507963695476,-0.8834112766815039,-0.10970808104117974,0
131,26.240000000000002,-0.48279578804756523,-0.8110250231812439,-0.3303734838291255,-0.38774809644851344,-0.9050365562419684,-0.17481488942945486,0
132,26.44,-0.5070417693672477,-0.7149071827387597,-0.4814731188607116,-0.42770319858950173,-0.8714273881855754,-0.24017552130967926,0
133,26.64,-0.5461643043667036,-0.6840026752907433,-0.4835751160168821,-0.4832441177606023,-0.8375177503021156,-0.25502772511760513,0
134,26.84,-0.5810176430484804,-0.6556873755516914,-0.48217482722403093,-0.5482432866975768,-0.8013160028890606,-0.23942005368167876,0
135,27.04,-0.572247356856777,-0.751224242697943,-0.3289302353894136,-0.5856596817611517,-0.7810255828979862,-0.21679892992883437,0
136,27.240000000000002,-0.5784061785549612,-0.7780865654884933,-0.2450052840568289,-0.5969792147984648,-0.7965850563508332,-0.09522638865959539,0
137,27.44,-0.5671702425390224,-0.8233527563513853,-0.02020283610791496,-0.5795209231689976,-0.8147627763296379,-0.017807804945399124,0
138,27.64,-0.5421116420540237,-0.8403007896594775,0.0030903797742304713,-0.5417809765531066,-0.8401833535985096,0.023776159932258047,0
139,27.84,-0.5211206588483331,-0.8533880791078877,0.01272970376830484,-0.503855012413417,-0.862007845056173,0.055431052014990385,0
140,28.04,-0.5715501142938116,-0.8190252619395016,-0.0502800870689562,-0.4919495780266099,-0.8690674196848558,0.05203299647096469,0
141,28.240000000000002,-0.5957504715706978,-0.800931796999428,-0.05991353919239495,-0.5168040319675956,-0.8548250304557194,0.04677349514858689,0
142,28.44,-0.8711857275399516,-0.45602308269418806,-0.18187461664777504,-0.6660937594653287,-0.7401195692372917,0.09242362702984022,0
143,28.64,-0.9111115917818391,-0.37500330884155514,-0.17102100946564783,-0.8045726363288035,-0.5916353025924658,0.05128880576929749,0
144,28.84,-0.9646092283272313,-0.2607628749060081,0.03913770172988322,-0.8874558870887779,-0.45847862154240476,0.04711053024587054,0
145,29.04,-0.9478407470271367,-0.31792078916779204,0.022897381727360236,-0.9219797448089634,-0.3837968710468388,0.05151030903280021,0
146,29.240000000000002,-0.9388372901434471,-0.34217415114068084,0.038747811902912724,-0.9228689440581828,-0.3796879085643969,0.06442052609944339,0
147,29.44,-0.9128269712647281,-0.4061496743435084,0.04230085770200889,-0.8949813624927412,-0.43908365175573466,0.07882834231090587,0
148,29.64,-0.9087448978426449,-0.4156530768935598,0.03761954696534784,-0.8212631069223575,-0.5595325064014562,0.11158083835650699,0
149,29.84,-0.6423814771010969,-0.7567195044359102,0.12133272222975539,-0.5489676548734165,-0.8207271851486695,0.15824475176360006,0
150,30.04,0.15945474168776513,-0.9869020174391452,0.024466167003301172,-0.07218565382243763,-0.981341045670519,0.17821050323850074,0
151,30.240000000000002,0.5425085718021647,-0.8397144915993116,0.023749149864474108,0.33743731318912673,-0.9231588401201868,0.18415704052697687,0
152,30.44,0.7842474593058852,-0.6198560217845157,0.027100458109373816,0.6034418311173322,-0.7821939237879224,0.1550181345746848,0
153,30.64,0.9072471451836747,-0.41879089081441817,-0.03894621068780469,0.7806150411601284,-0.6134681469274167,0.11957002224643479,0
154,30.84,0.89693369285178,-0.43966851259973316,-0.04692067407452021,0.8836409254484122,-0.4665903364889329,0.038368903656715754,0
155,31.04,0.9934336345034451,-0.11436334107261185,-0.0032619098677107556,0.9424155689648478,-0.3339045486481113,0.01899072838949418,0
156,31.240000000000002,0.9932341573344367,-0.06782951102830441,-0.09426062877900279,0.9695483507118939,-0.24131631211838317,-0.04174246204322286,0
157,31.44,0.9927207683573795,-0.03687185426047249,-0.11465575622413679,0.9672021608798838,-0.2445093646954575,-0.06881243031246213,0
158,31.64,0.9964264608516675,-0.004161160927911069,-0.08436227151014891,0.9761151702832319,-0.2093908603324567,-0.05791927099136537,0
159,31.84,0.997763791779788,0.053856435375774676,-0.03958409000893243,0.9891599847996791,-0.14037612854692816,-0.04309370029685098,0
160,32.04,0.9943255907532533,-0.09927406229969005,0.038226693915528215,0.9747239235976308,-0.22221326583801054,-0.02312006167909974,0
161,32.24,0.899950197770757,-0.4359464306029428,0.006352257624604559,0.9247714364472238,-0.37891748285248744,0.03491892781963992,0
162,32.44,0.674816464994496,-0.7274993503379925,-0.12396545418031224,0.8315584261251083,-0.555156826034357,0.01764886534005566,0
163,32.64,0.6828677489305591,-0.7159055349493698,-0.14550224224859007,0.8134604079654495,-0.5812714893974749,-0.020140017038869126,0
164,32.84,0.971942316712859,-0.029987744236620612,-0.23329995323282843,0.9129531293409188,-0.4072163152632529,-0.02629555494836687,0
165,33.04,0.9719466469493081,0.018027865379664075,-0.2345095127150495,0.953843896208117,-0.2978071543495347,-0.03863574102759644,0
166,33.24,0.8723725328532586,0.03672046644112748,-0.4874605330357903,0.9698227865581355,-0.20329099517028829,-0.1345976744051963,0
167,33.44,0.865215857987523,0.041993642597344796,-0.49963792196782003,0.9677531807005075,-0.16560286018133186,-0.18981431438069485,0
168,33.64,0.9646628147127161,0.024999980430756557,-0.2622987893395661,0.9841554015172497,-0.10747297623074209,-0.14102377474925165,0
169,33.84,0.9985106949908219,-0.05452594541478953,0.0018202377783333786,0.9910034009852995,-0.12401194835372759,-0.05033185771538635,0
170,34.04,0.9961898830903274,-0.08340623871013594,0.025477758392524558,0.9848430976218442,-0.17146762329688187,-0.026132876373062122,0
171,34.24,0.9947701265212219,-0.07910930717008854,0.06460737496618,0.983151981803867,-0.1827375216729211,0.004379366160450385,0
172,34.44,0.9875870919855908,-0.13583650456199609,0.07886811631973505,0.9662553125819611,-0.2569993840645512,0.017377787476488386,0
173,34.64,0.9674919078162828,-0.24845719753273468,0.04720624221635802,0.8853908798068677,-0.46474399396549504,0.009798470687864809,0
174,34.84,0.5229705658960466,-0.8490765940203967,0.07463728755180854,0.7467445445165544,-0.6635737240198636,0.04519400430558991,0
175,35.04,0.33003404287025,-0.9439046102486649,-0.01102802330586117,0.5431815577379329,-0.8379546147557044,0.0527812366567147,0
176,35.24,0.27490029567116747,-0.9544695973964915,-0.11583442962126841,0.37343200704965474,-0.9272158966590238,0.028621968724552343,0
177,35.44,0.12406066394510606,-0.9831441199398709,-0.13430037635522887,0.2463320791122855,-0.9691801815970091,0.0032066181262054997,0
178,35.64,0.2073046435337101,-0.9779754607299114,-0.024264850699700392,0.2024138482235011,-0.9787418011013073,0.03306237777781496,0
179,35.84,0.2886765220836788,-0.9558099590910474,0.05561643372279521,0.2701550924744222,-0.9594389319596657,0.08058015791888519,0
180,36.04,0.3462180169565916,-0.9335720072580252,0.09260881166966463,0.3413304532293662,-0.9300021737448512,0.1363432379257856,0
181,36.24,0.750424046945623,-0.6036345661268199,-0.2692379251566155,0.4916984676642536,-0.8634214596230846,0.11285388765553007,0
182,36.44,0.7682443965859637,-0.6100854140139172,-0.19389774295162937,0.5788678771999859,-0.814417626243049,-0.04044639428452774,1
183,36.64,0.7677474352998284,-0.5933223782717256,-0.24193476606829212,0.6360371382303989,-0.7652400848751709,-0.09931954133968537,1
184,36.84,0.6842845212131202,-0.723657547690874,-0.08985793063587313,0.6573221506405107,-0.7475054910226655,-0.0957242454569252,1
185,37.04,0.6585553647049109,-0.7505572264915904,-0.054485607086947024,0.6345785303961831,-0.7714276824873003,-0.04700446204876289,1
186,37.24,0.630960436373069,-0.7753699618050789,-0.026274513550140016,0.5961213664631273,-0.802869542501957,-0.006309846973766241,1
187,37.44,0.612634489822149,-0.7891051731144973,-0.04463191284601885,0.5598502320788731,-0.8284105675689568,-0.017425532454162104,1
188,37.64,0.6059171181038986,-0.7946909790485974,-0.036478676064907,0.5345878286791772,-0.8450537447743842,-0.010001093483851642,0
189,37.84,0.6428237638932214,-0.765587327267141,-0.02556663650361628,0.559337086723974,-0.8289372205087054,-0.0022600598309726536,0
190,38.04,0.7135886734487324,-0.7003598615972778,-0.016949023249733585,0.6310296310043397,-0.7757337191251599,0.006229109629382919,1
191,38.24,0.7560630651766911,-0.6537814808415515,-0.030633589150711262,0.6823566230010683,-0.731017852837538,-0.0015290125487268736,1
192,38.440000000000005,0.7080837026628582,-0.7030908592356392,-0.06542716318584958,0.7027631277383761,-0.7113846923819562,0.007470323688074561,1
193,38.64,0.6781994286281764,-0.732258518221036,-0.0619919148046557,0.6626171337134791,-0.7489000652659383,0.009339505019365677,1
194,38.84,0.8200657261473236,-0.5701403017938608,0.04931775612158654,0.6686356383689247,-0.7427205406655341,0.03595249054624364,1
195,39.04,0.8208831222328719,-0.5709958438267714,0.010707285639490386,0.7296741813864098,-0.675878282432487,0.10375035592316968,1
196,39.24,0.8317936143946332,-0.5550842516932732,-0.0009255130636187126,0.7574510580481588,-0.6458238242755592,0.09580961673974574,0
197,39.440000000000005,0.8600525760206574,-0.5100505140482441,0.012571380169003974,0.8027391027677255,-0.5871657550185063,0.10414561450783287,1
198,39.64,0.8691409657711344,-0.4945193818673702,-0.006675520648885897,0.8316645272430658,-0.5489946322714221,0.08330070745638427,1
199,39.84,0.8664536434559167,-0.4991704506690625,0.009324426031252352,0.8437497278549748,-0.527984140697949,0.09653571316411623,1
200,40.04,0.9492493320684372,-0.3085896505718761,-0.060812277769815876,0.8473057717891983,-0.5283340850514932,0.05418508711363829,1
201,40.24,0.9548340552225056,-0.29101384074865905,-0.06002392423075147,0.8638009024497135,-0.5035581083038488,0.016650299952548207,1
202,40.440000000000005,0.9450020687694378,-0.3207570772337091,-0.06392172890317616,0.8544671378675812,-0.5195043497205281,-0.0010681412991085043,1
203,40.64,0.9545920081282177,-0.29336872839567574,-0.05185448116837297,0.8740248611618766,-0.4858615188178284,-0.0043733971915699745,1
204,40.84,0.9142894905386865,-0.317930587464502,-0.2509877866450594,0.8871640822135041,-0.45894992309980054,-0.048008950383848864,1
205,41.04,0.9078550524990654,-0.3379602590048043,-0.24815734320250338,0.8849089497382763,-0.4608295077619421,-0.06761889860820741,1
206,41.24,0.921004869918026,-0.3251202403014871,-0.21458531854156065,0.8990391516769206,-0.43454409744214606,-0.05385193710753661,1
207,41.440000000000005,0.9132783187728861,-0.3592089583587512,-0.19207195707388208,0.8852821209031001,-0.45948807544208153,-0.07173754202536337,1
208,41.64,0.8533159728048878,-0.3709703297955457,-0.366378035596339,0.861916408503948,-0.5008156694552198,-0.07927023388243,1
209,41.84,0.8620195990418732,-0.3413319122399744,-0.3747195438648629,0.8735035613194517,-0.47732658242811965,-0.09566013835305945,1
210,42.04,0.8674362170809223,-0.3342239409486974,-0.36857667668079724,0.8862109437350791,-0.45407879240171684,-0.09188369548063981,1
211,42.24,0.8969337380154316,-0.2999030564877551,-0.3249123363600833,0.9138172553940002,-0.40138111141982286,-0.061896907350562906,1
212,42.440000000000005,0.7765628726583099,-0.378839086870413,-0.5034193590515421,0.9093260276822154,-0.41373196547566754,-0.04418185287336826,1
213,42.64,0.33554151019836587,-0.9255634167247587,0.17534040194601802,0.6962154103377756,-0.7171877731688491,0.030426968717083672,0
214,42.84,-0.01760270454343793,-0.9923705788384011,-0.12202777982366848,0.18880222784982398,-0.9767331455204328,0.10171568807565971,0
215,43.04,-0.641188624675749,-0.7673832427457384,0.0003260973116631572,-0.3872860493082764,-0.9131366273590122,0.12724392239551546,0
216,43.24,-0.9636138772477199,-0.26492798296722,0.03551702995094883,-0.7627130733336864,-0.6265393542614015,0.16036584838296772,0
217,43.440000000000005,-0.9987494870334492,0.04244486066367002,0.026417720447919305,-0.9575373170821231,-0.219681895168963,0.186714089800804,0
218,43.64,-0.8812148116426528,0.46679120880708047,0.07460846548501505,-0.9663949015201811,0.18679377009523357,0.1766040253488253,0
219,43.84,-0.7253892468141091,0.6868852238776072,-0.04471162964004687,-0.8661206279576834,0.4764330998296292,0.1511507830377295,0
220,44.04,-0.6795833292643793,0.7325257346657386,-0.039655348168470196,-0.7490960373973036,0.6547783308690922,0.10060051779162901,0
221,44.24,-0.3418148791085818,0.9361253461254381,-0.08265545814714748,-0.6157565346004454,0.7795207555622565,0.11485330532683528,0
222,44.440000000000005,-0.1994287918414846,0.9791136006665544,-0.039556465646222214,-0.44984656529508504,0.8807042323442918,0.14831764164477107,0
223,44.64,-0.037536420988105945,0.9990627671730856,-0.021554682736267514,-0.26324601531221714,0.9481021533396622,0.17833631782375642,0
224,44.84,0.2712236354773584,0.9581574450518467,-0.09149890737141068,-0.0852716471060499,0.9753291227945032,0.2036218269948632,0
225,45.04,0.33764155012726144,0.9407071589813205,-0.032683706475132204,0.11719716347983938,0.961824964531703,0.24730055090085826,0
226,45.24,0.5114621773344941,0.8590771275155744,0.019822465433155294,0.28248517499562265,0.9134393378695282,0.2929687729778901,0
227,45.440000000000005,0.6201383232854998,0.7844881029163321,0.00262228438263856,0.4395108610346343,0.8496775254448167,0.29133881613435475,0
228,45.64,0.6722407792596166,0.7391495502022541,-0.04183631360706205,0.5307479961406008,0.8104634551835145,0.24790230415374545,0
229,45.84,0.6235956594100578,0.7801088967681749,-0.05058223747598167,0.49325978715718344,0.837331468256874,0.23573458515974752,0
230,46.04,0.370539337959124,0.928760229789105,-0.010248638295077021,0.20467486716316968,0.9403463361227338,0.27176638293263855,0
231,46.24,-0.6326918160144576,0.7359625707886706,0.24095676032528926,-0.35162005212236264,0.8885247152399953,0.29476629616215017,0
232,46.440000000000005,-0.9193997595973654,0.39318886483643783,0.01032466081478896,-0.7878605767041064,0.5523048726008171,0.27246107864586544,0
233,46.64,-0.9946057609531815,0.10097147523222062,0.023751662429649014,-0.932829263489984,0.20674041122315778,0.29510670535251127,0
234,46.84,-0.9011873042117987,-0.4331704985750356,-0.014992060956585949,-0.9504692504695182,-0.10224610205506278,0.29351991163540847,0
235,47.04,-0.7772538982116091,-0.6193843742320841,-0.1106317073536658,-0.9148584352809244,-0.312858114952861,0.25525250890731965,0
236,47.24,-0.5107577298413843,-0.8052827460679369,0.30107514060871654,-0.848850013894719,-0.4981668771179364,0.1768711860465084,0
237,47.440000000000005,-0.47474436146110455,-0.8686488003392616,-0.14165822577616102,-0.7221194968468027,-0.6911270754257687,0.029779151887599782,0
238,47.64,-0.36552588874856795,-0.9219671210745528,-0.12793534426447817,-0.5890904780036454,-0.8048959632344134,-0.07151850875390525,0
239,47.84,-0.21049092942518605,-0.9580778675135893,-0.19437172739453284,-0.4729992978738126,-0.8729326140129126,-0.11941656335477083,1
240,48.04,0.08124990809422339,-0.9904989121390304,-0.11095205039149841,-0.3293046510732268,-0.9425464898472263,-0.05625443323164027,1
