,timeStamp,x_gaze,y_gaze,z_gaze,x_head,y_head,z_head,fixations_head
0,0.033366700033366704,-0.9993783620719286,-0.011500379967229036,-0.033326126133090786,-0.9988192209412811,0.037184134426161496,0.031265060774441314,1
1,0.2333667000333667,-0.9978260087033783,0.009059139311562355,-0.06527777837839856,-0.9991579612906684,0.030043860878733532,0.02794163225323483,1
2,0.43336670003336675,-0.9996873788658607,0.01632996486809892,-0.018933483137333458,-0.9982105047082257,0.03759969502971719,0.046497862572610786,1
3,0.6333667000333668,-0.9997667027509978,0.02070668100937056,-0.006146009434965235,-0.998424883015217,0.042878800821353626,0.03618233569261657,1
4,0.8333667000333668,-0.9997060171966059,0.018131971370104857,0.016096918808684784,-0.9980989204541814,0.04227967331958697,0.044843887121736085,1
5,1.0333667000333666,-0.9990407260459858,0.007915166651257168,0.04306945365792972,-0.9974780399692117,0.03220665191169307,0.06324785649979957,1
6,1.2333667000333668,-0.9976279624308215,-0.01669175544620148,0.06678198766322828,-0.9965479080314733,0.006995441570899819,0.08272442683586625,1
7,1.4333667000333667,-0.9986491917552045,-0.008846502800162368,0.0512008905672903,-0.9977147896756294,0.013576201116926522,0.06618825595033977,1
8,1.6333667000333667,-0.9951032314599174,0.07892145395843846,0.05950598997677655,-0.9921352510963719,0.1030408917710446,0.07106488693417687,1
9,1.8333667000333667,-0.9950728896783512,0.08598428019097736,0.04936241269646242,-0.9918926619263455,0.11201588350766328,0.06001157437249942,1
10,2.033366700033367,-0.9957505969693832,0.06847917302534293,0.06157395144768784,-0.992693605177247,0.09852319595130847,0.06966050602558377,1
11,2.233366700033367,-0.9954603421007556,0.0739785548281742,0.05988222382461745,-0.9916610696848721,0.11120620141573143,0.06512682733051692,1
12,2.433366700033367,-0.9834118652720358,0.1764443963839017,0.04205327843219654,-0.9731768237976138,0.2258311477498633,0.04389945704866914,0
13,2.633366700033367,-0.5265571817602813,0.8497916764783382,0.024323670052148798,-0.8061599706017681,0.5916444413739497,0.007934531533955569,0
14,2.833366700033367,-0.0803524751025444,0.9964638868473026,-0.024560170073947958,-0.42368137638729353,0.9057798993136865,-0.007540908556395863,0
15,3.033366700033367,0.17204733238906955,0.9847744456841493,-0.024879842147447845,-0.02208240277787704,0.9994454420960586,-0.02492339786164151,0
16,3.233366700033367,0.3992235655168832,0.9159097317478139,-0.04159216303144769,0.11741004729599441,0.9918401267376343,-0.04967941009136442,0
17,3.433366700033367,-0.2418357086651341,0.9657691702351421,-0.09383709201460676,-0.5355851389228328,0.8431859113233837,-0.04675551208964298,0
18,3.633366700033367,-0.9968767558377886,0.0026142658565322906,0.0789297110368321,-0.9362717467239962,0.3480913370684588,0.04719785317459251,0
19,3.833366700033367,-0.9852287733286986,-0.1544447602069524,0.07396675097531787,-0.9966630219854677,-0.02714927440740244,0.07697881205855663,0
20,4.033366700033366,-0.8355037533173832,-0.5402096429141393,0.10053367542840302,-0.8722358386928407,-0.4856460897775057,0.05790092558513967,0
21,4.233366700033367,-0.0769302936319638,-0.9968749026974604,-0.01794876858252829,-0.2863163516934612,-0.9579341661946169,0.019623455097668496,0
22,4.433366700033367,0.7884726699217428,-0.6150567576394883,0.0040042063481358775,0.47539858405292473,-0.8797666613699133,0.0026091804289042663,0
23,4.633366700033367,0.9366318698303766,-0.3502543877666786,-0.006527194515386323,0.915539640484406,-0.40206705241549207,0.011368907757696788,0
24,4.833366700033367,0.9897438033520504,0.1346708327263186,-0.047654701121904564,0.9997753307722755,-0.012736029817737728,0.01694348027027588,0
25,5.033366700033366,0.7309762397024403,-0.35471774392802324,-0.5829657443907783,0.9753545146445204,-0.10284563204098307,-0.19520846993059218,0
26,5.233366700033367,0.7716023179758899,-0.35645570761531736,-0.5268483571225192,0.8513548098553041,-0.4581336516183223,-0.2555553658037741,0
27,5.433366700033367,0.634396282363523,-0.6549266532042748,-0.4106244462352292,0.41291849000996694,-0.887744702433252,-0.2034887316526034,0
28,5.633366700033367,-0.7331354649430858,-0.6792275229785552,-0.03409343149496798,-0.5301177144842528,-0.8370272077016903,-0.13550152160438622,0
29,5.833366700033367,-0.9807715198144579,-0.1931447034515289,0.027970510353935878,-0.9589488645871052,-0.2835772037480683,-0.0010220672820604108,0
30,6.033366700033366,-0.9906219271382186,0.13572524232781946,0.015711653891831736,-0.9961747715344433,-0.05395844502254817,0.0687336218240287,1
31,6.233366700033367,-0.9853531149672838,0.1601585704118993,0.05855314806129418,-0.9925000466325331,0.05981918198850183,0.10660826844408468,1
32,6.433366700033367,-0.9880806546205476,0.13499214448630464,0.07398473417955403,-0.9892702669920985,0.09025154269408324,0.1148868917097186,1
33,6.633366700033367,-0.9922831208142813,0.10442803377013825,0.0668505341038751,-0.9905428312464023,0.09116022787889055,0.10254127129809869,1
34,6.833366700033367,-0.9935143228408462,0.10130557997051294,0.05163787153759219,-0.9911179790344047,0.10032068573030303,0.0872978330164,1
35,7.033366700033366,-0.9974684212914933,0.06162270785667232,0.035487890930107145,-0.9939762415524962,0.06972312802950434,0.08455717974811588,1
36,7.233366700033367,-0.9494364849801755,0.006618629478982071,-0.31388939888487594,-0.998872455620992,0.03656320585463214,0.030281172026878345,1
37,7.433366700033367,-0.9998391615269926,-0.005152709919110983,-0.017178494040238333,-0.9988177337221931,0.03972773219481901,0.028015033405645776,1
38,7.633366700033367,-0.9985606877777515,0.019765925943078202,0.049858409485626726,-0.998426785056157,0.03513908063472439,0.043694392026587446,1
39,7.833366700033367,-0.997932533734854,0.01983939545598075,0.0611314689949133,-0.9980397540617492,0.034988179251983054,0.05188908001684513,1
40,8.033366700033367,-0.9955144924096433,0.060619938135270154,0.07263689491468404,-0.9955086852982041,0.07467701262864525,0.0581876385558161,1
41,8.233366700033368,-0.9926366922246754,0.09232967944444119,0.07840680801398363,-0.992188559566159,0.10605716183969253,0.06567907344459026,1
42,8.433366700033368,-0.9887126068345387,0.028998712507073088,-0.14699134586560947,-0.9926518029090947,0.10476520436680174,0.060552870578580095,1
43,8.633366700033367,-0.9725782167036215,0.1088958489584585,-0.20550743653994555,-0.9953940792886751,0.0845392352696232,0.045207793764774,1
44,8.833366700033368,-0.9759109059931409,0.08911108766980559,-0.19914094912385913,-0.9970334482500212,0.06492053393105168,0.04134764013556182,1
45,9.033366700033367,-0.9963886982045321,0.08297317330713193,-0.01802816134892187,-0.9972122955336218,0.06967966730804838,0.026690477710309312,1
46,9.233366700033368,-0.9129274686933744,0.002306091899587256,0.40811532542316903,-0.9961325547033781,0.0859246630173883,0.01835444756644771,1
47,9.433366700033368,-0.9974584159067139,0.044998066798806635,-0.05524384600332845,-0.9948106503123466,0.09905085740942199,0.023252906734094077,1
48,9.633366700033369,-0.9944992576539158,0.10378390632246655,-0.014146636146452885,-0.9920244751777099,0.12192878403198396,0.03195015293971557,1
49,9.833366700033368,-0.9940364228457593,0.107497557325282,0.018326626124435155,-0.9859617097992824,0.16425443680032908,0.029999780017231487,1
50,10.033366700033367,-0.9945412878327043,0.101213430210272,0.025366677770970635,-0.9840839758714877,0.17464215401293606,0.0328457984327901,1
51,10.233366700033368,-0.9865100621643154,0.014178847492660676,-0.1630854301657224,-0.9828903105803112,0.18099184118858294,0.0341846572383924,1
52,10.433366700033368,-0.9820934802465955,-0.005953967985342663,-0.1883001495547989,-0.9873444702589297,0.15613528888642397,0.02779691733747834,1
53,10.633366700033369,-0.9647040045758964,0.05288296096401982,-0.2579720449872563,-0.9929609853985295,0.11767736053659657,0.013435784067991943,1
54,10.833366700033368,-0.9675110238270188,0.03940246353479836,-0.2497395936582397,-0.9950175922912992,0.09812156032947063,0.01766777941158323,1
55,11.033366700033367,-0.9427413200229552,-0.08062819838280369,-0.3236323487337439,-0.9939651310491578,0.105003969214889,0.03174089960208241,1
56,11.233366700033368,-0.9448141749751804,-0.07510952002251503,-0.3188804396132766,-0.9931940107974562,0.1106898423480315,0.03624107775757986,1
57,11.433366700033368,-0.9455096106176052,-0.06797909297345048,-0.31841862248972186,-0.9923665396059504,0.11792491473160448,0.03608830220522053,1
58,11.633366700033369,-0.9818090288862154,0.0603975231376431,-0.18000880533003163,-0.9930550168672253,0.11444049693194751,0.02729663233448526,1
59,11.833366700033368,-0.9957152910005049,0.050747438535895986,-0.07730301902141791,-0.994079715063735,0.1069633316764775,0.019088367543381883,1
60,12.033366700033367,-0.9955668153316897,0.056184686015631556,-0.07543207055120632,-0.9937272531413889,0.11039273152503314,0.01787711359566144,1
61,12.233366700033368,-0.9957183525265816,0.06282779509485407,-0.06780583017166764,-0.9927549939485301,0.11819029846979519,0.02164660106980036,1
62,12.433366700033368,-0.9971498303444108,0.06239212544396055,-0.0424197893287781,-0.9926481969706586,0.11770069915015292,0.02821528788557316,1
63,12.633366700033369,-0.9981830402730403,0.05741472476156775,-0.018280248680571553,-0.9929031579469341,0.11395821772001401,0.03401240293016238,1
64,12.833366700033368,-0.9498343177154863,0.31242080213291823,-0.014422596318992379,-0.9686177790066028,0.24777260342079677,0.019706222022408366,1
65,13.033366700033367,-0.6873560568361258,0.7256835966782015,-0.0304132971392803,-0.7510016709418651,0.6601675856604432,-0.013238167765501692,0
66,13.233366700033368,-0.102191876159623,0.9930116046431643,-0.05903197007541509,-0.388999927035419,0.920345683632446,-0.04053244855131109,0
67,13.433366700033368,0.36749620509661823,0.9274521222383902,-0.06913103640977872,0.012172453887053403,0.9976369661529528,-0.06761889626058722,0
68,13.633366700033369,0.6993971610707616,0.713178628740975,-0.04711533288964173,0.4520984027395091,0.88950944507049,-0.0661814276876356,0
69,13.833366700033368,0.35990618564568,0.9226700847337612,-0.13837431940707492,0.36574621184362516,0.9210922287069794,-0.13348713322881672,0
70,14.033366700033367,-0.7057902381674851,0.7000942519674641,-0.10829671310617785,-0.5092317962261554,0.8510089736285634,-0.12832265784319874,0
71,14.233366700033368,-0.9284084670402647,0.3646705783753628,-0.07122561052967119,-0.9019506465160932,0.4315793540212564,0.014976395821308454,0
72,14.433366700033368,-0.7980891603782848,0.5901548986054943,-0.12153554105126202,-0.8537187064343874,0.5207342422659843,-0.0004682047280348631,0
73,14.633366700033369,-0.5585518448745735,0.8200163514112486,-0.12487201450042536,-0.6261161437360916,0.7796979257453802,-0.007051180142156367,0
74,14.833366700033368,-0.4351922327476742,0.8898835980190988,-0.13680242151613198,-0.47160226302683456,0.8812801988769229,-0.0306025583149491,0
75,15.033366700033367,-0.3100312622722005,0.9402264544606257,-0.14090717067029424,-0.32491106113274326,0.9446264937517967,-0.04597379314111121,0
76,15.233366700033368,-0.022690907597107457,0.9814861402731407,-0.190184329438975,-0.1704454103020891,0.9836634652948607,-0.05791846986117072,0
77,15.433366700033368,0.04422560870083542,0.972542085549113,-0.2284862958052895,-0.06217494011650604,0.9940735739780427,-0.08917402278707495,0
78,15.633366700033369,0.1598149689856847,0.8846908785998615,-0.4379283331897015,0.01094376314527079,0.9900874472357132,-0.1400252865538547,0
79,15.833366700033368,0.17701345161416554,0.8748536515127552,-0.45088504785858446,0.05312420875864576,0.986053150500709,-0.1577244522304455,0
80,16.033366700033366,0.16921656323695244,0.8733130144183046,-0.456826152462716,0.06060760844094032,0.9843424459554775,-0.16551938523767462,0
81,16.233366700033365,0.1724289303678282,0.8830093980204454,-0.4365348405107863,0.08835830297743313,0.9861197028711851,-0.14057290601034786,0
82,16.433366700033368,0.22048376284656768,0.9391835112171703,-0.2632892754724476,0.17859527452267832,0.9800214877288678,-0.08753063182603874,1
83,16.633366700033367,0.22538612850100298,0.9659790351674045,-0.1268290057375693,0.1898291905361631,0.9817119737246941,-0.014369379456023025,1
84,16.833366700033366,0.1880931519811206,0.9796910070042696,-0.06947299455736,0.16237824885388574,0.9865554396312051,0.018484286116196135,1
85,17.033366700033366,0.12399669249651918,0.9914310969252382,-0.041099881989398096,0.10368842044918902,0.9941919752069069,0.028827554508519915,1
86,17.233366700033365,0.1414217580059402,0.978125381613508,0.15254712126401693,0.1280854713040529,0.9916774451172616,0.01303675137906597,1
87,17.433366700033368,0.15933469234934738,0.986400894196091,0.040320363875976886,0.1609878351207112,0.9868122941432655,-0.01686455071598331,1
88,17.633366700033367,0.1212316122805443,0.9910435747369782,0.05599579588157659,0.1424114960808518,0.9897873181549989,-0.0063269742807252095,1
89,17.833366700033366,-0.02595126643864959,0.9838971938428824,-0.1768412952857224,0.05682637987885475,0.998380541546744,-0.0026564658278086187,1
90,18.033366700033366,-0.03134716670094073,0.9829460059465696,-0.1812029374306892,0.0247081744265516,0.999693796750436,0.0013486494005013673,0
91,18.233366700033365,0.031357745299127104,0.9360540272358648,0.3504562025492971,0.032981585793764145,0.9993316004616313,0.015766017801693052,0
92,18.433366700033368,0.03088083100634814,0.85356389772338,0.5200721553588779,0.07636768368671931,0.9958305652261256,0.04989451121857596,0
93,18.633366700033367,0.06193688827797161,0.8163267033659045,0.5742599892402366,0.1174567693632314,0.9860908504398013,0.11759567173013707,0
94,18.833366700033366,-0.08099708507031095,0.9212533811619834,0.38043617060911367,0.03701793530380543,0.955310777700705,0.2932763039775252,0
95,19.033366700033366,-0.11418051367581544,0.8637554518549805,0.4908047775720261,-0.029726590234829486,0.9173177769696994,0.3970446144810174,0
96,19.23336670003337,-0.12606785043981972,0.8408274507464282,0.5264181751770606,-0.060270295992082334,0.9035349502142671,0.42425474088373966,0
97,19.433366700033368,-0.11886480119301168,0.9248378447414675,0.3613116659773151,-0.09414604616381778,0.9171972305437269,0.3871508262610814,0
98,19.633366700033367,-0.10044107619346682,0.9735305245230128,0.20530442770443613,-0.10557095270268069,0.9346221277311556,0.3396119142502744,0
99,19.833366700033366,-0.09743149090552244,0.9879959438015806,-0.1198796046521308,-0.10687854969912369,0.966495493094858,0.23337402906394564,1
100,20.033366700033366,-0.10745588524740157,0.9757156898184203,-0.19087201305550797,-0.1177947923140758,0.9782168217189822,0.1709275770895294,1
101,20.23336670003337,-0.11525739215639036,0.9700192525759851,-0.21395883525864318,-0.12276446642684646,0.9813991778601279,0.1475958653838132,1
102,20.433366700033368,-0.07944630496683414,0.970985255044078,-0.2255569088148354,-0.08620281014427944,0.9866909704451061,0.13787677239232302,1
103,20.633366700033367,0.07647638044041832,0.9947278449588594,0.06832186837488964,-0.047365802649126376,0.9876445187000388,0.149381342279326,1
104,20.833366700033366,0.08326930723592119,0.9939244920744792,0.07197448524955533,-0.02252863296039137,0.9875420747861671,0.15573410424171202,1
105,21.033366700033366,0.07956868774322379,0.9946566024351162,0.06578044666200496,-0.013228589240288746,0.9891009345819158,0.14664360073283852,1
106,21.23336670003337,0.08801673541652266,0.9943904091700745,0.058658063701338484,0.006313328456739764,0.990591647711474,0.13670526459527632,1
107,21.433366700033368,-0.05782806516211042,0.9949132846364449,-0.08248315545326303,-0.01551645409348762,0.9934758485990058,0.11298220170827766,1
108,21.633366700033367,-0.09861513649370557,0.9763352077495387,-0.1924697819476945,-0.054521333438741326,0.9942832741509583,0.09180520107113883,1
109,21.833366700033366,-0.10704556388764985,0.9745138520760279,-0.19713954287234525,-0.07558706477623506,0.9936147477051219,0.0837635289454825,1
110,22.033366700033366,-0.10673081079374913,0.971927183256896,-0.209680911085452,-0.0776734382906395,0.9950679988802044,0.06169695769368303,1
111,22.23336670003337,-0.08315968336172719,0.983154617387246,-0.16276198995255511,-0.08099679375440516,0.9952530248820683,0.05395308948150994,1
112,22.433366700033368,-0.027601811056978398,0.997453926807068,-0.06575563796006827,-0.07104299728286939,0.9959873555376852,0.054424995600502256,1
113,22.633366700033367,-0.04621597339722361,0.9943108404156059,-0.09596893473910506,-0.059329782804497855,0.9970760642128258,0.04815910138522403,1
114,22.833366700033366,-0.06409449438671044,0.9856890407743606,-0.15591347179327744,-0.05942586490898599,0.9977984139282782,0.02944302535460527,1
115,23.033366700033366,-0.0808734058194907,0.9798372013015201,-0.18269797803139534,-0.06861391338704159,0.9974015206933594,0.02196218131903302,1
116,23.23336670003337,-0.08981739567327268,0.9748381035325686,-0.20401839950233958,-0.07124148550551318,0.9973636244302222,0.013800413268402166,1
117,23.433366700033368,-0.10332285188383078,0.9767912357766959,-0.187625344738997,-0.07560391366238117,0.9969658147755229,0.018525992764466606,1
118,23.633366700033367,-0.12430375978984981,0.9802146707876018,-0.15403822407071907,-0.0891720150907182,0.9954467166806228,0.033677677687585304,1
119,23.833366700033366,-0.11724537098297022,0.985758320362411,-0.12055727609457852,-0.07853570796822001,0.9956327370700105,0.050473710468020884,1
120,24.033366700033366,-0.07427601976836529,0.9914954643222881,-0.10686354437178225,-0.039110978958214526,0.9981315601782685,0.04694379512806614,1
121,24.224224224224226,0.10625557242810157,0.9834697913533671,-0.1466182895253555,-0.02212853114362079,0.9990039959064922,0.038747184056227665,1
