,timeStamp,x_gaze,y_gaze,z_gaze,x_head,y_head,z_head,fixations_head
0,0.033366700033366704,-0.9917915833465227,-0.039160452923230865,0.12172063970356423,-0.9912600685090784,-0.07431497496043535,0.10899890401287284,1
1,0.2333667000333667,-0.9933490816893101,-0.011839996649236998,0.1145312899881533,-0.9924683616375702,-0.0548078833828548,0.10955659298977996,1
2,0.43336670003336675,-0.9947200456933762,0.028663180622965707,0.09854162964119549,-0.9952671955896588,-0.016322890795747006,0.09579547285318794,1
3,0.6333667000333668,-0.9966742409114611,0.031853114091223024,0.07500557730098782,-0.9971027300637362,-0.013534238700705702,0.07485298980158923,1
4,0.8333667000333668,-0.9962697268079708,0.03234476521899926,0.08000279750670672,-0.9971024299049521,-0.010317223897176285,0.07536775947775307,1
5,1.0333667000333666,-0.9994970292364684,0.022879169972980302,0.021959784352802696,-0.9996489339305425,-0.016149834005844476,0.02100456505413862,1
6,1.2333667000333668,-0.9994885113302937,0.009669161989880852,0.03048315969788989,-0.9991639885655171,-0.02963662634090416,0.028160155059534852,1
7,1.4333667000333667,-0.9985350522369012,-0.019067587921321908,0.05063769885285193,-0.9973903206681742,-0.06023111991307464,0.03980904961756418,1
8,1.6333667000333667,-0.998663036141495,-0.015164189554287853,0.04941849451180197,-0.9979025894483409,-0.05379180053480878,0.03601200032655496,1
9,1.8333667000333667,-0.9982356876088031,0.027471221827616504,0.05263880655446345,-0.9991415615744025,-0.016924099821198763,0.037811569392276596,1
10,2.033366700033367,-0.9984579053052071,0.03725327646930407,0.04115828866510504,-0.9996685366354756,-0.007070600326986391,0.024755271602279954,1
11,2.233366700033367,-0.9981171718152665,0.052331566582619414,0.031992475154371744,-0.9998735791750987,0.008897430555753642,0.013178064997691736,1
12,2.433366700033367,-0.9969158403717864,0.05683187312250275,0.05411973219817872,-0.9943472352466312,0.08924914001693911,-0.05751666509471535,1
13,2.633366700033367,-0.995281671439843,0.006569438222138794,0.0968051495394658,-0.9798472417270763,0.08700990060600902,-0.17980172434204522,1
14,2.833366700033367,-0.9962877815166686,-0.04458114239457111,0.0736422307062345,-0.9870860437721953,0.008572962906821698,-0.1599613906452254,1
15,3.033366700033367,-0.9971615465957535,-0.044810649103184115,0.0605050057244555,-0.9878711311908206,-0.01143210706194816,-0.15485456108198165,1
16,3.233366700033367,-0.9965897580902248,-0.02524911666919819,0.0785578524215914,-0.9910554325474936,-0.013504354278566636,-0.13276581651019942,1
17,3.433366700033367,-0.9503879480666305,0.030686073356986577,-0.3095498555509748,-0.9889714541053582,0.001598073322215605,-0.14809763376364435,1
18,3.633366700033367,-0.789969868071451,0.04912288352334158,-0.6111747293970251,-0.9444053943032978,0.022594628501468303,-0.32800599685632803,0
19,3.833366700033367,-0.8710566001757765,0.06331078284283596,-0.48708535603736347,-0.9192735177061522,0.051566600914883,-0.390226966410885,0
20,4.033366700033366,-0.9023928055548617,0.05952684802537743,-0.4267830582942456,-0.9259705243810469,0.06236540074127677,-0.3724099149698748,0
21,4.233366700033367,-0.7099593991495663,-0.6989934448409358,0.08582433005033598,-0.9047788332058966,-0.4027190149810067,-0.13853756875051865,0
22,4.433366700033367,-0.5270687196112138,-0.8471206119568663,0.06771435302223709,-0.6975273128897035,-0.7157792417068463,0.03340246868783902,0
23,4.633366700033367,-0.3004248623022166,-0.9519434680288801,0.05956958777633735,-0.5871730008618663,-0.8080114424291094,0.04842908178461545,0
24,4.833366700033367,-0.16171083638212558,-0.9838610847488594,0.07659615730173214,-0.28936196085459115,-0.9538934983861975,0.07972985229465415,0
25,5.033366700033366,0.14411265028699832,-0.9889723173406099,0.03413648431226722,-0.0034601260616707874,-0.9986893645322578,0.05106447588875174,0
26,5.233366700033367,0.47098289512444724,-0.8821311549183226,0.004442749448270219,0.317592618569532,-0.9474349969687077,0.03875377593283834,0
27,5.433366700033367,0.8683484969401888,-0.4941070450955721,-0.042768163961499905,0.6602032080335136,-0.7508709693881888,0.01801420085096192,0
28,5.633366700033367,0.9762041965784355,-0.21685277966243996,-0.0004884007826598347,0.9045971545771543,-0.4252736962120277,0.02909074150097137,0
29,5.833366700033367,0.962304075356828,-0.27095315077959076,-0.02356388410794501,0.9858997319431474,-0.16728196149325505,0.004296965603719956,0
30,6.033366700033366,0.8206282562479301,-0.2775687529682789,-0.499524626443098,0.9662196230559561,-0.22762544889280328,-0.12085650598108452,0
31,6.233366700033367,0.7877524039217485,-0.2691891272406394,-0.5540607943997929,0.94217277835561,-0.27124065911217493,-0.19682215467285136,0
32,6.433366700033367,0.7134151595781657,-0.38305278468548687,-0.5867788120141652,0.825418889942847,-0.5030015438571616,-0.2562676393984033,0
33,6.633366700033367,-0.6148601199565307,-0.7355411590974041,-0.28447537004227275,-0.42152788051539947,-0.8963512062107614,-0.13736360898254127,0
34,6.833366700033367,-0.9802840445246934,0.19758519403085392,0.0018119464945396205,-0.9843836894366421,-0.1539593722524614,-0.08535375602006576,0
35,7.033366700033366,-0.9838921954155064,0.14883043648331123,0.09902347689635048,-0.9907286905291208,0.1348479571655954,-0.016513334330763938,1
36,7.233366700033367,-0.9874507119151682,0.12363749606018372,0.09825915278586457,-0.9767776473023834,0.2142458369392559,-0.002036930194952202,1
37,7.433366700033367,-0.9907680669169441,0.07473037359577556,0.11311060445377454,-0.9800586115132218,0.19843761896789838,0.010374457919697844,1
38,7.633366700033367,-0.9917566711084079,0.021915705454840798,0.12624740459267228,-0.9870741302940056,0.15749362400813888,0.029671867165980758,1
39,7.833366700033367,-0.9921561765457404,0.008024710693791877,0.12474664468601411,-0.9895849003323636,0.13819421297021053,0.04029993220503235,1
40,8.033366700033367,-0.9907779058815994,0.016792798527887356,0.1344512667641119,-0.9884775708917594,0.13821287408856892,0.06171947245484497,1
41,8.233366700033368,-0.986711152099208,0.11695446855857798,0.11279518875924811,-0.9774136920444695,0.1772609768103889,0.11506963415352543,1
42,8.433366700033368,-0.9916086878796888,0.07189440348854381,0.10744023859126836,-0.9843331155773141,0.11504668000943659,0.13361354346272045,1
43,8.633366700033367,-0.995402477903675,0.04600702200995136,0.08400750507543751,-0.9895029961988544,0.07360113983850188,0.12436515881854882,1
44,8.833366700033368,-0.9967374569936525,0.04479112992833972,0.06714310467627167,-0.9913764893760438,0.06309846994194246,0.11485312099989653,1
45,9.033366700033367,-0.9962909195029999,0.05286611163531136,0.06789387274585311,-0.9906465740675512,0.06778429418560394,0.11842573516758623,1
46,9.233366700033368,-0.9951825643334595,0.0732580062289061,-0.06515311327975826,-0.9915834769721281,0.060055382603317456,0.11469768618518013,1
47,9.433366700033368,-0.9958752102767483,0.042661222287313776,-0.08007862179879832,-0.9950826948424127,0.030008253677457814,0.09439245275122096,1
48,9.633366700033369,-0.9665616616607725,0.0014978108608425847,-0.25642993345198895,-0.9971217541684294,-0.0075923687501159645,0.07543582239782601,1
49,9.833366700033368,-0.9651079126868529,0.0019341546901372345,-0.2618453282280604,-0.9983525210501487,-0.018760315001951973,0.0542244805769489,1
50,10.033366700033367,-0.9658801492100216,0.0107786327356782,-0.25876506417670847,-0.9988525015324732,-0.011937680537562364,0.04638072838695049,1
51,10.233366700033368,-0.9995280333447529,-0.01712528038202389,0.02550363365890819,-0.9992699633052862,-0.006354819976696104,0.03767169625748712,1
52,10.433366700033368,-0.9985329701212666,-0.04076667822392947,0.03563685630619398,-0.9978568417899196,-0.03646283129646977,0.05433401537612497,1
53,10.633366700033369,-0.9979519556787365,-0.05862651762926196,0.025589560130085297,-0.9967372571253745,-0.06401175855591633,0.04916640138106889,1
54,10.833366700033368,-0.9704789914051333,0.017890855667289384,-0.2405211935043714,-0.9992779264370673,-0.03556291388871656,0.01337553331196821,1
55,11.033366700033367,-0.9955738972385527,0.04888541434255299,0.08026724987064528,-0.9999985239595646,0.0017180847854667224,-1.62284355200148e-05,1
56,11.233366700033368,-0.9937615817974756,0.07677730158903352,0.08088982942302489,-0.9982153243531945,0.059506337178128754,0.005016180029613288,1
57,11.433366700033368,-0.9928086390384541,0.09637925675842106,0.07100735959960194,-0.9797207033770245,0.19910273905654266,0.022482052277563214,0
58,11.633366700033369,-0.9218553645227001,0.3802894866993838,0.07458279430699094,-0.961048190869781,0.2707945580569642,0.05528726935429708,0
59,11.833366700033368,-0.23895258508976097,0.9650878389600037,0.10727126908185132,-0.5393696922788236,0.835146372570024,0.10775375368950077,0
60,12.033366700033367,-0.01888462934341184,0.9997922974767087,-0.007663724995502533,-0.2782405142924667,0.9600102868683383,0.03102362508209137,0
61,12.233366700033368,-0.3954068650236187,0.9164782580395305,0.06100011174597288,-0.5152670039040653,0.8568518650683036,0.017458408194849458,0
62,12.433366700033368,-0.9846222720317361,-0.17398760439534483,0.015725614004896513,-0.9883458760304739,0.14827682334088502,0.03444434632115479,0
63,12.633366700033369,-0.9988155226380502,0.023557804772577882,0.042574423913612804,-0.9978032031940742,-0.05149015941967056,0.04168370399307142,0
64,12.833366700033368,-0.9916068089664744,0.12522978389640896,0.03214712485720644,-0.9979288516517965,0.059982970915918886,0.02323898106689341,0
65,13.033366700033367,-0.9929575349460644,0.11563890575708625,0.025748344978642698,-0.9979857642942279,0.06115123031113032,0.01688020430863148,0
66,13.233366700033368,-0.9851391443604338,0.17172397448297913,0.0034267822460397235,-0.9918779238069599,0.12713898403512985,-0.003723305374249513,0
67,13.433366700033368,-0.9697477283187651,0.24172186251184374,-0.034057078623980074,-0.879304480285158,0.4627283010219149,-0.11272156130847497,0
68,13.633366700033369,-0.7963643421741244,0.5402379187824107,-0.2719316561623967,-0.7869917100209187,0.568370675222713,-0.2399975497900499,0
69,13.833366700033368,-0.5009773134992541,0.8020089805471095,-0.3252742327342518,-0.5329289601509346,0.7728755973254458,-0.344456143059285,0
70,14.033366700033367,-0.14161902247041908,0.9239660693466641,-0.3552896778272599,-0.2884203391763184,0.8621163034958278,-0.4166163549311376,0
71,14.233366700033368,-0.1953197913680575,0.9224733040645334,-0.3330062798029514,-0.12387258401233442,0.8892888849411152,-0.4402509080629988,0
72,14.433366700033368,0.30370630649767094,0.9159714653722879,-0.26221890476715554,0.026965887412017386,0.9225070685806694,-0.3850370752729953,0
73,14.633366700033369,0.13215796335290447,0.9551502197128414,-0.2649949631689693,0.07825625023405991,0.9379361939708699,-0.3378633678556214,0
74,14.833366700033368,0.06467783166315194,0.9634524686917632,-0.25995407029531226,0.10039818556875907,0.943277829769749,-0.31646032958235576,0
75,15.033366700033367,0.07039660538401005,0.9604281978301934,-0.2694846837262836,0.22977385623725466,0.9270901206722464,-0.29615516733932096,1
76,15.233366700033368,0.05091701732868531,0.9701184977199973,-0.23722891419016864,0.2285278488815965,0.9410089107754958,-0.24955410661150298,1
77,15.433366700033368,0.093204025369864,0.9747087943553387,-0.20311517880556357,0.2620802714867442,0.9460499202012981,-0.19053472067985985,1
78,15.633366700033369,0.12719306558457227,0.8880090360451002,-0.44188445997732406,0.27589031999448177,0.9294930165989908,-0.24480045634567493,1
79,15.833366700033368,0.10130604620778766,0.8933570068709592,-0.4377788748629914,0.260476348086243,0.9249506431458672,-0.2768002525860505,1
80,16.033366700033366,0.12548502206430512,0.8926108258580071,-0.43301203539694766,0.2859699354499665,0.9131299167826168,-0.2905425116834254,1
81,16.233366700033365,0.16978944488677156,0.9280399769646076,-0.3315318168148767,0.30191438614778493,0.9184544574679566,-0.25551734382277885,1
82,16.433366700033368,0.17845130936469872,0.9658101707946823,-0.18805808723788336,0.3019932855728755,0.9326131618628293,-0.19756706655998071,1
83,16.633366700033367,0.18157747488733245,0.9798751329271987,-0.0829116667571256,0.27475532178284284,0.9566188954845167,-0.09690099046960204,0
84,16.833366700033366,0.14499596473556464,0.9888182262586707,0.03485234036703211,0.23010077243990085,0.9731320902591949,0.008220062671984465,1
85,17.033366700033366,0.08186287902500661,0.9938181471920015,0.07499306200972546,0.1596154727888507,0.9859473003038657,0.049303365705706294,1
86,17.233366700033365,0.05794239450278987,0.9887555103752897,-0.13785941977893118,0.12401437448625052,0.9911454219864252,0.04744667950590027,1
87,17.433366700033368,0.04386712882097593,0.9899759628973808,-0.13425076496768187,0.09871113505529394,0.9943775939215177,0.03833161257955638,1
88,17.633366700033367,0.023430837764288726,0.9879941649768955,-0.1527040464862359,0.08091622749311178,0.996253930135091,0.030506897886681924,1
89,17.833366700033366,0.004062806793524942,0.9880683221064008,-0.15396260731359487,0.06081964175269111,0.9976837414116174,0.030465116116492826,1
90,18.033366700033366,0.09263143652894973,0.9926403757285015,0.07800321429379085,0.0422289849237969,0.9983585522759938,0.038689971952537754,0
91,18.233366700033365,0.0835294900318912,0.9932928869842064,0.07995039062814434,0.04252739266933475,0.9981488513510455,0.04347748175018077,0
92,18.433366700033368,0.09349314089683353,0.9913172164343308,0.09246193274064332,0.06421795690094562,0.9966765639618654,0.05011866778594447,0
93,18.633366700033367,0.10196151367807704,0.988238348881326,0.1139684848051698,0.08580454775145258,0.9936278589768571,0.0730839069168875,0
94,18.833366700033366,0.009989753681776015,0.8993949856573294,0.4370227277794942,0.06138273491834373,0.9626286376301946,0.26377692444218853,0
95,19.033366700033366,-0.11218658579786411,0.7260575473553438,0.6784206717777413,-0.0727155682177979,0.8328264062306093,0.5487372989179533,0
96,19.23336670003337,-0.10526419460769357,0.7585736699215306,0.6430283326847852,-0.15348249057580005,0.6750266395222299,0.7216523823988773,0
97,19.433366700033368,-0.11352120476101646,0.8310703424372664,0.5444584667270889,-0.18023917834665198,0.707341657574927,0.6835068529635082,0
98,19.633366700033367,-0.09302660698500981,0.9867410781992567,-0.1329965976520655,-0.19292143474565976,0.9804261550588909,0.039317610457864145,1
99,19.833366700033366,-0.08367210938680592,0.9604444711163845,-0.2656038328276364,-0.1924918338550296,0.9775918089268147,-0.08521237596925832,1
100,20.033366700033366,-0.08199262875218877,0.9610024007266187,-0.264105271867075,-0.18928368380665106,0.9748577020056068,-0.1175761365453519,1
101,20.23336670003337,-0.05262040218863562,0.972433360078004,-0.2271661362987657,-0.15584325021017081,0.9826095686084801,-0.10095205318856418,1
102,20.433366700033368,-0.020639096776571997,0.9740438460006116,-0.22541653389355462,-0.11285096909265796,0.9883905029964315,-0.1017294075541067,1
103,20.633366700033367,0.07988090756234023,0.9908921069915712,0.10840605568335111,-0.0788486787753288,0.9957405288302451,-0.04778791793172312,1
104,20.833366700033366,0.07595972552061048,0.9917216578041052,0.10352909514291633,-0.054096997181895756,0.9983705854468378,-0.018157340401069446,1
105,21.033366700033366,0.07211492580090467,0.9911034876680435,0.1118629259807324,-0.051588484282998226,0.9986666887929121,-0.001863594586834741,1
106,21.23336670003337,0.06423170462780337,0.9927144784192874,0.10194239774171106,-0.05666972603439635,0.9983832412744207,-0.0044097271535828856,1
107,21.433366700033368,0.06619774280479046,0.9927923081858591,0.09990641448148087,-0.053683577178062436,0.9985579376409431,0.0003445513508977352,1
108,21.633366700033367,-0.05163681771236317,0.9821202644683014,-0.1810343204402249,-0.059590521999768664,0.9981284898245246,-0.013729074564901998,1
109,21.833366700033366,-0.04907744220912369,0.9813112514000968,-0.18606351749278102,-0.05697133582205122,0.9982683071619126,-0.014651068586985509,1
110,22.033366700033366,-0.03876771395750139,0.9801858686373734,-0.19424913713606906,-0.044828593505333914,0.998664821988474,-0.025670421248272363,1
111,22.23336670003337,-0.023343087031371113,0.967605907391612,-0.25138398570454185,-0.0419290887862076,0.9955589304885317,-0.08428740972463825,1
112,22.433366700033368,-0.0215009779934075,0.9515844234714467,-0.30663462451563084,-0.043550207441150623,0.9881177611014766,-0.14739969344485798,1
113,22.633366700033367,-0.03466182221755565,0.9538860653546785,-0.2981609169605044,-0.053391634196081394,0.9863076318522642,-0.15603393460350323,1
114,22.833366700033366,-0.050869543734740286,0.9566773615156697,-0.2866717905264412,-0.0569448674471672,0.986061667832779,-0.15633192029225193,1
115,23.033366700033366,-0.04954741174705829,0.9574803328178142,-0.2842120093455856,-0.046067009638723566,0.9853728919002451,-0.16406734754695648,1
116,23.23336670003337,-0.07067955354446459,0.968778094139297,-0.23764133694832396,-0.0593443713403618,0.9910030756700401,-0.11996311767680033,1
117,23.433366700033368,-0.0816978684985682,0.9886723901686338,-0.12590616824060497,-0.06812377353312643,0.9975238749042072,-0.017471991177403386,1
118,23.633366700033367,-0.08686605811558301,0.9948822037626123,0.05161093473198059,-0.07390033058628287,0.9848718119308774,0.1567362600141678,1
119,23.833366700033366,-0.10090433429388207,0.9889814399667016,0.10832371264916081,-0.08532038878225717,0.9725418843006792,0.2165241661776546,1
120,24.033366700033366,-0.10150035702575305,0.9832223696835934,0.1515633507066402,-0.08379265080400933,0.9609299187975661,0.26380387190286064,1
121,24.224224224224226,-0.06155816708630352,0.988758742599199,0.13625982899822675,-0.045830232704470786,0.9659075421910704,0.25479837069467265,1
