,timeStamp,x_gaze,y_gaze,z_gaze,x_head,y_head,z_head,fixations_head
0,0.033366700033366704,-0.9993213888011802,0.03570457086425379,-0.009052375593179843,-0.9688688683994756,-0.03616911503441463,0.2449181719757587,1
1,0.2333667000333667,-0.998444611999353,0.055405456259596926,-0.00621226095133984,-0.965834530947733,0.007865817385765132,0.2590401276748958,1
2,0.43336670003336675,-0.9959172188156028,0.09024123683654409,0.002326465302936806,-0.9619116060616859,0.06395479677856135,0.2657740508267149,1
3,0.6333667000333668,-0.9921176949211096,0.1253046880206303,0.0011020818830360453,-0.961164174755651,0.11261683896748703,0.25195411635307724,1
4,0.8333667000333668,-0.8712602489529768,-0.226817732045735,0.4352692213148384,-0.9723650077944255,0.11629622177658953,0.20243883129833806,1
5,1.0333667000333666,-0.8874929206007893,-0.22683055156667514,0.40112867855519774,-0.9814218635929803,0.10979861805752424,0.15733845408653296,1
6,1.2333667000333668,-0.8961264050713982,-0.22779731345906637,0.3808751109151724,-0.9840401616175027,0.11038935290877241,0.13956772939394577,0
7,1.4333667000333667,-0.8515418488741446,-0.2267169143706138,0.4727323982490213,-0.9622125584208585,0.10313384086636837,0.2520127046109712,0
8,1.6333667000333667,-0.9952375231941224,0.022975208741598356,0.0947333743181812,-0.9557425887995817,0.0525656844763027,0.2894701241410087,1
9,1.8333667000333667,-0.9820530363027162,0.046178003800845094,0.18286450134890977,-0.952287970456718,-0.03377149339291035,0.30332673399724897,1
10,2.033366700033367,-0.9943375654066932,0.03749246232462306,0.09943400469621635,-0.9540252821225776,-0.05728568732223554,0.29420080064295456,1
11,2.233366700033367,-0.9971737874498432,0.02931298946146888,0.06917504081507203,-0.9612163062968255,-0.07432585630043795,0.265591565367377,1
12,2.433366700033367,-0.9439491868834633,0.17436227683669722,-0.28028151740414803,-0.9637788421508243,-0.02053060475384161,0.26591133426549957,1
13,2.633366700033367,-0.9296172939343653,0.2701279662543432,-0.2506842010686768,-0.9482882870036576,0.094240597961767,0.30309740089198706,1
14,2.833366700033367,-0.9886058070311787,0.12560549593854456,0.08295672181483452,-0.9254161915370736,0.19815878104619458,0.3230138850503253,0
15,3.033366700033367,-0.9896661661773996,0.13234493042598827,0.055187851147408595,-0.919971630947918,0.25384924044481194,0.29868505382194754,0
16,3.233366700033367,-0.9967229630361446,0.00975836985766159,0.08030011939075704,-0.9247266250009376,0.26260723142305786,0.2755324137351039,0
17,3.433366700033367,-0.9842590253033527,0.062379916858034616,-0.16535693841408367,-0.9413815689945642,0.2410849686364779,0.23596351297368365,0
18,3.633366700033367,-0.9659252220559582,-0.03022379476079654,-0.25705055461213344,-0.9755655020715082,0.18430637734307925,0.11959561212116661,0
19,3.833366700033367,-0.9191069429396864,-0.28790146302645864,-0.26898917269527545,-0.9999939886419991,-0.0009449932856896523,-0.0033361156387683756,0
20,4.033366700033366,-0.5876369902280956,-0.8046397913385754,0.0850739320254939,-0.9701019463328964,-0.23169470619917312,-0.07224802308994496,0
21,4.233366700033367,-0.6204504100383798,-0.7749551395891714,-0.12035705341829522,-0.9232072698316216,-0.38398422927937603,-0.01563485192661222,0
22,4.433366700033367,-0.5161524473922605,-0.8512278529789071,-0.0948566990986933,-0.7290049316576686,-0.6726170873156475,0.12703567794054085,0
23,4.633366700033367,-0.30214051363512867,-0.950158638112728,0.07687439391674564,-0.34198198037938476,-0.8911875022473198,0.2980489237255821,0
24,4.833366700033367,0.265569132784105,-0.9638928115017592,0.01958784438198697,-0.09721635493875525,-0.9564697998236896,0.275162683439548,0
25,5.033366700033366,0.2818795780927191,-0.9593123521837564,-0.016239285758280392,0.06859070506824533,-0.9751144127242376,0.2108250394893986,0
26,5.233366700033367,0.5849520345928754,-0.8108794596414395,0.01748196663030195,0.1926645998686699,-0.9630935472804008,0.18796587760628133,0
27,5.433366700033367,0.42008543218605005,-0.9065280917032678,-0.041653914796710524,0.07153865340834747,-0.9865534591582199,0.14695064916995426,0
28,5.633366700033367,-0.620898583476694,-0.7714453891975678,-0.13912929426417833,-0.7297300878252749,-0.6773520870753352,0.09321024116053044,0
29,5.833366700033367,-0.9897983664918012,-0.00028697712399599495,0.142474949848359,-0.9717601189404597,0.1755645671406003,0.15766849400421643,0
30,6.033366700033366,-0.993821732083107,0.00738366869095803,0.1107422515393081,-0.9298518907303124,0.32592522785829803,0.1707284602835153,0
31,6.233366700033367,-0.9841829969610245,-0.10486659850970487,0.14278243943083568,-0.950980308130882,0.22780019824787334,0.20914952360816583,0
32,6.433366700033367,-0.9967155128407763,-0.05183608765612952,0.06221902023540903,-0.9764297333956188,0.07702859934698192,0.20162234653828282,0
33,6.633366700033367,-0.9142256945012452,0.09177044885578761,-0.3946765311372377,-0.984422536667728,0.12117579407036383,0.1273919001824392,0
34,6.833366700033367,-0.9548652134463285,0.10748153515850792,-0.27691179778057223,-0.9628056067684404,0.2466071113568488,0.11040967441074348,0
35,7.033366700033366,-0.9616414491291897,0.09783437258175079,-0.2562696994540086,-0.9588803127621192,0.2604932614480468,0.1126579182187404,0
36,7.233366700033367,-0.9107318844778001,0.29484103968542474,-0.28919923221324983,-0.8714012218851327,0.4847095167592839,0.07560816662292133,0
37,7.433366700033367,-0.2725333873308825,0.926191011740088,0.2605681533914443,-0.5319852848098334,0.8390113515635107,0.11424363743058814,0
38,7.633366700033367,-0.03710781648553879,0.9973690097441124,0.06227413875538361,-0.04875810424554938,0.9788613355992702,0.1986281272609526,0
39,7.833366700033367,0.5124877442605913,0.8586762042247044,-0.005611441966602255,0.4246704912906502,0.8732148099493869,0.2390624803519235,0
40,8.033366700033367,0.902036689611578,0.4310322906224563,0.023258870035839187,0.8123013478184465,0.5165299361881494,0.27085668785134664,0
41,8.233366700033368,0.979540232553379,0.2010555191446508,-0.008809712296500133,0.9401581009087066,0.21713264641283792,0.2625950478540909,0
42,8.433366700033368,0.959204141170618,0.2825823158800755,0.008640041260942137,0.967148695128166,0.026981671495024714,0.2527753764020939,0
43,8.633366700033367,0.8727791882115123,-0.48783272040622416,-0.01660498497187604,0.9353307020477039,-0.2685483107033687,0.2303004182048233,0
44,8.833366700033368,0.6614392579469334,-0.7424488675011368,0.10614983369223996,0.8497991702704775,-0.4980334506053627,0.1726385017477967,0
45,9.033366700033367,0.7458896597303091,-0.6638293594480953,0.054582021235347236,0.7831300985024822,-0.6043353592120736,0.1465811121035276,0
46,9.233366700033368,0.8524730735642513,-0.49965460515542587,0.15373657468180588,0.7916006655875885,-0.5925407983002068,0.1492105512054722,0
47,9.433366700033368,0.9263339531204493,-0.2252162155592394,0.3019653350062146,0.8476923910976714,-0.46316223515943805,0.2586471612007876,0
48,9.633366700033369,0.9357487245938756,-0.27940952530262847,0.21518513329478686,0.8965575256903394,-0.30003688993086064,0.3258258243427511,0
49,9.833366700033368,0.9501715975505624,-0.27446945417147434,0.14778516141692108,0.9510288869789649,-0.15094628763836315,0.2697392711114718,0
50,10.033366700033367,0.81387272783187,-0.3370052154113915,-0.47332723107490066,0.9829887513587984,-0.17850750424440254,0.04322251300543694,0
51,10.233366700033368,0.7565451087312871,-0.28829112152028313,-0.5869648436723809,0.9490085644760685,-0.2828043846170807,-0.1392997652274626,0
52,10.433366700033368,0.7964667216949103,-0.20043784524034128,-0.5704957768712854,0.975444895043506,-0.17056588329506078,-0.13933605487934353,0
53,10.633366700033369,0.7358810157019412,0.6769648293707344,-0.014062379760619447,0.8832217045941493,0.447631902733477,0.13980379175477387,0
54,10.833366700033368,0.28001791929578435,0.9589471102298106,0.044837536229765364,0.5487703461761938,0.8103422421973631,0.20541800716639003,0
55,11.033366700033367,0.21921759086691128,0.9721238220519557,0.08318006043280603,0.2807198662961637,0.9112734576606889,0.30129228670810165,0
56,11.233366700033368,-0.2726212492417399,0.9579914948099283,0.08905026857743073,0.03265781941721918,0.9285501961124158,0.3697674946916054,0
57,11.433366700033368,-0.4918674027427264,0.8703963790798142,0.021831202529260147,-0.24446178230024201,0.8985393740302658,0.3645071059827057,0
58,11.633366700033369,-0.5410779854227893,0.8397494941496672,-0.04533652794595417,-0.5086415949018206,0.7958099058170929,0.32858837736463287,0
59,11.833366700033368,-0.8213893243468031,0.5701867608346286,-0.014374825843000453,-0.7323151213190328,0.6128533133075759,0.29685919129347627,0
60,12.033366700033367,-0.9940706701375435,0.1080432203417537,0.012254195627563537,-0.9223296908764027,0.26292262615518786,0.28316008543489835,0
61,12.233366700033368,-0.9998273898309585,0.016967634471903345,-0.007569010783470023,-0.9620633611497864,0.061891375202396993,0.26571327932328187,0
62,12.433366700033368,-0.9557450308421657,-0.2933789986245833,-0.021913447618870825,-0.9623412930591125,-0.07474887586731954,0.2613653405290904,0
63,12.633366700033369,-0.9053751796523173,-0.4246099339126192,-0.001479220151093612,-0.9353184981766864,-0.22241081594146697,0.27515947361622634,0
64,12.833366700033368,-0.974665543110654,0.22246657727538488,-0.0231452169613776,-0.9555510114264996,0.09628526338516283,0.2786600305329836,0
65,13.033366700033367,-0.9810199263392962,0.19387059233268333,-0.003754670933157995,-0.8973707344953916,0.3561311673774005,0.26056929307501214,0
66,13.233366700033368,-0.8222420186134538,0.5652125648549504,-0.06672944894543446,-0.6340856463929219,0.7494129240224746,0.19056668739985821,0
67,13.433366700033368,-0.47973813649421915,0.8657762822658354,-0.1424175180903073,-0.2535170237807873,0.9580591808657138,0.1336103462021148,0
68,13.633366700033369,-0.5941777501208652,0.7880899745936251,-0.1608321895838212,-0.44274525127453257,0.8892287449175379,0.11510378658511607,0
69,13.833366700033368,-0.9565138913698799,0.28812879866380775,-0.04541994052176483,-0.8069482633778252,0.5745524111432815,0.13683576681903856,0
70,14.033366700033367,-0.9369999604990649,0.3325884336742689,-0.10684571966554321,-0.8758261155403413,0.46609598343387415,0.12523238225126396,0
71,14.233366700033368,-0.811907086526165,0.5753478649600114,-0.09890256384215532,-0.7350861568335401,0.6651324263072678,0.13132858602110653,0
72,14.433366700033368,-0.7636580142710064,0.6331991610467728,-0.12603673944261926,-0.5399810238786666,0.8258788467517382,0.16231027182210647,0
73,14.633366700033369,-0.6909592434274848,0.700716186956834,-0.1776855347483101,-0.4738466366406612,0.867832615578575,0.1494520534565606,0
74,14.833366700033368,-0.5484105630045875,0.8121762687319788,-0.19903658682159972,-0.3425588974152614,0.9297693136150409,0.13484222358540363,0
75,15.033366700033367,0.07016360836600594,0.9523935926029757,-0.2966875677035673,-0.08661872416556132,0.9898030840141226,0.11307984568464037,0
76,15.233366700033368,0.02333350991111932,0.965482055582011,-0.2594223345519085,0.1269849627743594,0.9893346417033766,0.0713567512912831,0
77,15.433366700033368,0.11918473725628376,0.8991621340799864,-0.42107298065997456,0.22375734087476906,0.9744518815233258,0.019395437615648308,0
78,15.633366700033369,0.2262288529451389,0.875212659940295,-0.42757842084857367,0.24198336791327352,0.9701620670634906,-0.015152995890078486,0
79,15.833366700033368,0.136227995400241,0.8903224803398808,-0.4344741813625694,0.24849848120063012,0.9669855756148223,-0.056457075675690305,0
80,16.033366700033366,0.14318995108993132,0.8941044345597443,-0.42435114941220925,0.24554066405731007,0.9680674734548858,-0.05054848299374561,0
81,16.233366700033365,0.17178114578449472,0.9018751841896576,-0.3963740532575728,0.26225180050234026,0.9649164310218851,-0.012659947759304757,0
82,16.433366700033368,0.18921517875478155,0.9483102265586456,-0.2547652455361334,0.24163272778555317,0.9605441882881891,0.1377261311759579,0
83,16.633366700033367,0.20147723507327125,0.9784835020793476,0.044463017281390314,0.14779469538854273,0.9125920987305564,0.3812248540554068,1
84,16.833366700033366,0.20220633453964315,0.9784305014808992,0.04226525811915107,0.14198191004742727,0.8959450549291865,0.42086054194616696,1
85,17.033366700033366,0.19928993893892727,0.9797827256963186,0.017587798748316032,0.13745133336679444,0.8989992741616563,0.4158213991757831,1
86,17.233366700033365,0.0890593548172654,0.9888442191961246,-0.11939657232073038,0.1317885533650468,0.9034612984778009,0.40790864094151574,1
87,17.433366700033368,0.07683605458250198,0.9879109711743159,-0.1346407581292338,0.11353134070936854,0.9139712509218056,0.3895730832143861,1
88,17.633366700033367,0.06545728445264393,0.9861702151527669,-0.15226178331292323,0.09879850529351547,0.921386385571584,0.37588027859293144,1
89,17.833366700033366,-0.015857158258891835,0.996917293971968,-0.07684048094306001,0.14972833474226144,0.9161560020000058,0.37180587108688207,1
90,18.033366700033366,-0.041386352345513966,0.9910183692541751,-0.12716037763520918,0.06707696285307979,0.9286563791866058,0.364826000239059,1
91,18.233366700033365,0.018094441865366018,0.9853034781763926,-0.16985183857434127,0.04103466584588494,0.9318527518326245,0.36050881417918473,1
92,18.433366700033368,0.12546416351948964,0.9678834047386101,-0.2178542138769659,0.05275648553628637,0.9325831708928903,0.3570789584968875,1
93,18.633366700033367,0.1275673971560014,0.9662625579305504,-0.22374813591257764,0.05482450304115094,0.9344118415737293,0.351949973992161,1
94,18.833366700033366,0.09467654209561571,0.9942341151691952,-0.050347558138850466,0.04925714635357348,0.9278449889830643,0.369699080269508,1
95,19.033366700033366,-0.050297701207442425,0.8372442376192557,0.5445109988114093,0.0018909155874801131,0.8246147218076169,0.5656915988561151,0
96,19.23336670003337,-0.10492289656727788,0.8207069039092407,0.5616327658280283,-0.040254519722415005,0.7651919565840409,0.6425424835923345,0
97,19.433366700033368,-0.1269892565073425,0.8595516602745925,0.49501987035966977,-0.06662655116759025,0.7879661752476572,0.6121031035251262,0
98,19.633366700033367,0.00757539194482848,0.9996507880836907,-0.025316305428291414,-0.044181768558133216,0.9055180390983034,0.42200124667427147,0
99,19.833366700033366,-0.03575743598669534,0.992001254384722,-0.12105749489724078,-0.06445703404151631,0.9533790211025526,0.29481135134880637,1
100,20.033366700033366,-0.0644393451613533,0.9849652970763203,-0.1602839179410468,-0.07461293799892543,0.9670287877963236,0.24349175151602503,1
101,20.23336670003337,-0.08200560930764722,0.9878253182061572,-0.13219765789523716,-0.07896601746051679,0.9560689754583017,0.28230565395071144,1
102,20.433366700033368,-0.046849486403681084,0.998135218339328,-0.039130698107922995,-0.03860304662887104,0.9259631315905904,0.37563557303045225,1
103,20.633366700033367,0.08229341594100825,0.9921213542075151,0.09446169709573807,0.013125934996120914,0.9244949095486095,0.38096833470668684,1
104,20.833366700033366,0.07443645686674472,0.9937446572548014,0.08325124663728878,0.014701023809654101,0.9284941305951385,0.3710559652523136,1
105,21.033366700033366,0.06337419498709068,0.9946258157728528,0.08187306033076637,0.008803242625638474,0.9296760797959288,0.36827284664301296,1
106,21.23336670003337,0.06171019576213427,0.995336598560137,0.07414113099849161,0.01020135877221634,0.9328362668589036,0.3601561210252363,1
107,21.433366700033368,0.04688448183653843,0.9976114391936594,0.05072732747617312,0.0031640031231428,0.9391620961574828,0.3434596719053347,1
108,21.633366700033367,0.015242955175554795,0.9995291356436002,0.02663004538249176,-0.02548745214000031,0.9462552761088961,0.3224148604197525,1
109,21.833366700033366,-0.38436588745188555,0.9231780584892264,-0.0022664702484529835,-0.10300795485398317,0.9475245907369747,0.30263263403924034,1
110,22.033366700033366,-0.2700040852617852,0.9607389748376646,-0.06386247857560869,-0.14014652547309175,0.9481996306773912,0.2850901818391498,1
111,22.23336670003337,0.014787520617824568,0.968991483475025,-0.24665123998643954,-0.09927765020440649,0.9592881404009371,0.264405393016111,1
112,22.433366700033368,-0.06258584362646019,0.9659444231275209,-0.25106649240072926,-0.07119757175011449,0.9659221169194885,0.24884808583282664,1
113,22.633366700033367,-0.06534688933666344,0.9622840320658244,-0.2640818541383747,-0.07021384517219809,0.9706467604856936,0.23003235056131432,1
114,22.833366700033366,-0.06653571551855192,0.9619407277286703,-0.2650340259235985,-0.07162001507528465,0.9714452447811739,0.22619617554826513,1
115,23.033366700033366,-0.06423516886482011,0.9604481985827917,-0.2709485207931168,-0.07178093199224578,0.9736074839079057,0.21664709802081744,1
116,23.23336670003337,-0.120912394608933,0.9640325520236809,-0.23668846923465278,-0.008277287010772405,0.9879601184778036,0.15448718657890517,1
117,23.433366700033368,-0.0750624010108773,0.9631611841886714,-0.2582366535307468,0.0021380123803817486,0.9916812926947018,0.128699815937813,1
118,23.633366700033367,-0.09682247792962723,0.9569222315602317,-0.273724771464611,-0.021234387933722787,0.9934704942190552,0.1120958424083009,1
119,23.833366700033366,-0.0479760445774679,0.9912986976168879,-0.12257728684288532,-0.031480722905715686,0.9920191183248052,0.12209436089930667,1
120,24.033366700033366,-0.03151068169948945,0.9940345672526787,-0.10441434789153087,-0.015372120627585861,0.9890749502130883,0.14660982493812544,1
121,24.224224224224226,-0.021247498665447506,0.9957096616754726,-0.09006005466674812,0.0005966159185027409,0.9870515695749401,0.1604021291912713,1
