,timeStamp,x_gaze,y_gaze,z_gaze,x_head,y_head,z_head,fixations_head
0,0.033366700033366704,-0.9866696861276484,0.1586851074187276,-0.03608278204732384,-0.9804084575860736,0.14478335714178386,0.13355536600395784,0
1,0.2333667000333667,-0.986742945580457,0.09973061590189265,-0.1280318850873977,-0.9951190859767449,0.09262432648792328,0.0340402536339891,0
2,0.43336670003336675,-0.9946985357508603,0.02696023881089831,-0.09923693112120197,-0.9983927054984136,0.01649134373508886,0.05422214666876892,0
3,0.6333667000333668,-0.9918332368988987,-0.04861636746929753,-0.1179121664491978,-0.9972667587624824,-0.06441114340688942,0.03619691247040088,0
4,0.8333667000333668,-0.8873848991893963,-0.1709765398736494,-0.428153084192394,-0.973341402487901,-0.2231953853357653,-0.052823613731977484,0
5,1.0333667000333666,-0.8617079896461906,-0.2775571808631133,-0.42476034646756006,-0.9354286832607914,-0.3515009847984953,-0.03768602152880911,0
6,1.2333667000333668,-0.8295336309728641,-0.35797249268327963,-0.42863696710280996,-0.9260509174599426,-0.3773707927346916,-0.0045807272773730045,0
7,1.4333667000333667,-0.8875510544523474,-0.3663666282448354,-0.279336033209174,-0.918016129819784,-0.35642369072876884,0.17380603579274476,0
8,1.6333667000333667,-0.8510322827252946,-0.5003542603886953,-0.15934135643409067,-0.8978915336158975,-0.32007541442627113,0.3022292556003518,0
9,1.8333667000333667,-0.8806822113554351,-0.4718764092390406,-0.04161126056454672,-0.8717191900337702,-0.2573471245484023,0.41698694369672695,0
10,2.033366700033367,-0.8264095773123076,-0.558771947411821,0.06943429492761281,-0.841149855601178,-0.1877395140030383,0.5071693950782324,0
11,2.233366700033367,-0.9707559557014639,-0.0831135496662131,0.22522213996856436,-0.8441093951188867,-0.08530220632817559,0.5293419147087944,0
12,2.433366700033367,-0.9907836883631115,0.0298745017096501,0.1321181176871249,-0.845923511115024,0.027530710640586643,0.5325931592824437,0
13,2.633366700033367,-0.984801238498453,0.05614399807440914,0.1643604944387002,-0.8318882014913904,0.11755665662715171,0.5423490137375252,0
14,2.833366700033367,-0.9845525087354771,0.051359055516593935,0.16738758902356488,-0.8365537740025115,0.12274491054593165,0.5339583037440531,0
15,3.033366700033367,-0.9975024248462765,-0.012916651596301693,0.06944114441264723,-0.8939668517022816,0.03070908342982063,0.4470796576141791,0
16,3.233366700033367,-0.9878197125290595,-0.13366121464057124,-0.07966740387268277,-0.9426607046499483,-0.10807252176532538,0.31577068570110534,0
17,3.433366700033367,-0.9852888542052716,-0.1277471289937442,-0.11351891830315713,-0.9543686262212574,-0.1085591649959964,0.2782003468364517,0
18,3.633366700033367,-0.98965405122324,0.008039431798204271,-0.1432488269892316,-0.9650081938849325,0.028466118156531005,0.2606700325162814,0
19,3.833366700033367,-0.9792745022684721,0.19109138440998116,-0.06712325983676111,-0.9206609608988504,0.19684659587704204,0.3370976309148821,0
20,4.033366700033366,-0.9685422018618057,0.23788199400882343,-0.07306271374012538,-0.8809361938007063,0.2844156705893035,0.37823160731906247,0
21,4.233366700033367,-0.9986397591339207,-0.031888643589391044,0.04125222281252492,-0.8480374637013144,0.3301263020877835,0.4145468427438416,0
22,4.433366700033367,-0.9832314639500327,0.18173419901067026,-0.015118505502389466,-0.8095726981464548,0.4320414588983137,0.39740687488880444,0
23,4.633366700033367,-0.9193557989339115,0.3932337723531458,-0.012333501023777815,-0.7566363740269408,0.5477767361875527,0.3569902586781264,1
24,4.833366700033367,-0.8492909247757752,0.5271887060884471,-0.027874598944155126,-0.7355471149162236,0.5812889042052376,0.34795639322520583,1
25,5.033366700033366,-0.8153907604588128,0.5789076789862045,-0.0019511456134281883,-0.6934647128476503,0.6189221991852548,0.3688387227377483,1
26,5.233366700033367,-0.8295668841733427,0.5582744249369926,-0.012184052864396475,-0.7127559090698697,0.6011635409118063,0.3613605002824222,1
27,5.433366700033367,-0.797602244632454,0.6029081502228304,0.018232436813447155,-0.7247108369492655,0.5849637349315998,0.36415880000786477,1
28,5.633366700033367,-0.812164851250974,0.5833810477845044,-0.0074032073007003815,-0.7655862299902456,0.5524090949401856,0.3297300657760645,1
29,5.833366700033367,-0.9944216482397978,0.09678258066554035,-0.04193706703815006,-0.9030538572306903,0.390528213761517,0.17883356842889242,0
30,6.033366700033366,-0.9801908615606884,0.043157907357332,-0.19329580943582744,-0.9778929802878894,0.20314335953215887,0.04957917487875291,0
31,6.233366700033367,-0.8801855279672635,0.02170983937358058,-0.4741330184994117,-0.9856882346155393,0.09776021388520356,-0.13733770320498676,0
32,6.433366700033367,-0.8309860639364912,0.011449772786065076,-0.5561753898245458,-0.9632389422566703,0.03362322650078091,-0.2665337103631149,0
33,6.633366700033367,-0.8447803484683907,-0.028971671612484092,-0.5343283682208937,-0.9618411719610365,-0.02510749971957735,-0.27245398396509357,0
34,6.833366700033367,-0.9995006970430822,-0.011411934551347555,0.029463950179641086,-0.9694537022244183,-0.0837122167599073,-0.23054670678305422,0
35,7.033366700033366,-0.9898502879811735,-0.04339105338582508,0.13532783848734473,-0.9700063256530274,-0.16485293215352728,-0.17863717125362774,0
36,7.233366700033367,-0.9732125010735356,-0.16950475342355223,0.15532406871124138,-0.9401032376984788,-0.3024868100957562,-0.15718661580087406,0
37,7.433366700033367,-0.8383193354509321,-0.5405986121207726,0.07052540238950805,-0.8828247521104692,-0.46091493940063727,-0.09043160785033014,0
38,7.633366700033367,-0.6052104339971687,-0.7938600951440116,0.059215537816524,-0.7998743407258277,-0.6001416443401759,-0.005571873750567135,0
39,7.833366700033367,-0.5090541802724275,-0.8548864242675465,0.10016507949488038,-0.6759329808508872,-0.7352557541954182,0.05013562925267272,0
40,8.033366700033367,-0.32236098968075716,-0.9267292602127053,0.19301883482617604,-0.4707089764666288,-0.8766288049320375,0.09977473546527987,0
41,8.233366700033368,-0.0415105554000626,-0.9956140483745346,0.0838423548670249,-0.20755216413066901,-0.9700618585512617,0.12610348824972303,0
42,8.433366700033368,0.37734275144078727,-0.9248005878498236,0.04854194730042605,0.07777498063728921,-0.9894784487469838,0.12199775347166207,0
43,8.633366700033367,0.3694323272186117,-0.928960058626986,0.023515209579919816,0.27127550625173635,-0.961194928762113,0.05013889338488579,0
44,8.833366700033368,0.49954008588205956,-0.778113730278565,-0.3807869815906542,0.38713742442502164,-0.919167596374143,-0.07249513352868225,0
45,9.033366700033367,0.47057944272861163,-0.7503377413789409,-0.46427175441068885,0.38978779240316175,-0.9016064253564948,-0.18754021075319544,0
46,9.233366700033368,0.4051263004493624,-0.7672607707280579,-0.49717561322534704,0.35604378293925365,-0.905700295969753,-0.2300865022347198,0
47,9.433366700033368,0.3686816650067886,-0.7836487615637796,-0.49996844739180935,0.338292401304511,-0.9108327031407182,-0.2365206927712674,0
48,9.633366700033369,0.3036030300299854,-0.8505214605709662,-0.42946297310110704,0.2776487879529434,-0.9488243223128635,-0.1504777589406387,0
49,9.833366700033368,0.22682518641949562,-0.9488810032453056,-0.2194884427161114,0.24281305339593312,-0.968022441106659,-0.06304264123947091,0
50,10.033366700033367,0.13667108336099698,-0.9871974968777404,-0.08223209307353947,0.14085650477490624,-0.9899417304717952,-0.013221774960451056,0
51,10.233366700033368,-0.12848948530186743,-0.9908613316821826,0.04103990185018478,-0.33677873136507297,-0.9404731234415992,0.04572078503410338,0
52,10.433366700033368,-0.8245904980342211,-0.39657826438953037,-0.4034553144593128,-0.9009907431495223,-0.4307151041831861,0.051963254202739576,0
53,10.633366700033369,-0.9949087690945745,0.09626880063207743,-0.02981374185808094,-0.9998497137808157,0.01717348253331707,-0.002370938653563922,0
54,10.833366700033368,-0.9810609952503893,0.19016401845025926,0.0368370694432338,-0.9375302282012917,0.34319006118162515,-0.0570758540451785,0
55,11.033366700033367,-0.6412635461602285,0.7607532291990425,-0.10017778510846385,-0.8212314801124982,0.5658714239517791,-0.07326928160573974,0
56,11.233366700033368,-0.3679734573396371,0.9273004956412744,-0.06862452533140927,-0.6548430122172105,0.7510148750479924,-0.08460074944667008,0
57,11.433366700033368,-0.3067141719589063,0.9517167145343672,-0.012716603142045094,-0.43156507988092463,0.8979746467010781,-0.0859832292336449,0
58,11.633366700033369,0.13331704331353278,0.9895462630693141,-0.05499781093546643,-0.2365875832099842,0.9675173824881602,-0.08908664352257378,0
59,11.833366700033368,0.27408789272248635,0.9606666483811681,-0.044670099071306084,-0.0677459582880382,0.9946388245126371,-0.07812870092197513,0
60,12.033366700033367,0.38915514206336294,0.9194841891305839,0.05574137910490568,0.09257240537811717,0.9946518579087772,-0.04580427186548321,0
61,12.233366700033368,0.6638751479271887,0.7445821814459582,-0.06976505599389672,0.20266210105618643,0.9777007870435955,-0.055038566567690586,0
62,12.433366700033368,0.6716707746573978,0.7365963569917927,-0.07927280326537459,0.2804131296619616,0.9579315824267931,-0.061119228582209015,0
63,12.633366700033369,0.48639082927992694,0.8711777074099957,0.06688320644413415,0.27053980947925216,0.9621412273811728,-0.03305253485560115,0
64,12.833366700033368,0.2399649473108511,0.9645166132932752,0.11011142875910251,0.16591006001259284,0.9861403018544389,0.0010756602873074788,0
65,13.033366700033367,0.20520446131511438,0.9730076499189909,0.10558050130349075,0.08485816258441098,0.9956696981790861,0.03795977305998425,0
66,13.233366700033368,0.12223914859767826,0.9870425637329506,0.10394502359227752,-0.041063108146113914,0.9979591356120121,0.04890178726699646,0
67,13.433366700033368,-0.1455464982862869,0.9759158374861555,0.16249459984964346,-0.3117862547430697,0.9442375410685465,0.1058527155538045,0
68,13.633366700033369,-0.6223437516224546,0.5793342788745317,0.526364938172572,-0.5261541970756993,0.8421895318853613,0.11780727177191667,0
69,13.833366700033368,-0.9280253873622684,0.3674683775023889,-0.06112177964419479,-0.753125368921163,0.6495326196063426,0.10444881404154151,0
70,14.033366700033367,-0.9565213539869686,0.28806279643363825,-0.045680681669268516,-0.9164144931998597,0.39240703933288446,0.0787476484426327,0
71,14.233366700033368,-0.9197574519022579,0.39182419852301414,-0.02280410318481137,-0.9548314427765843,0.28657508427009387,0.07855976680703375,0
72,14.433366700033368,-0.8101125423828957,0.5860549858699645,-0.01603814861125843,-0.8909039988728344,0.44636139453317675,0.08397362837695385,0
73,14.633366700033369,-0.6530895132888968,0.7561086167385004,-0.042117066919052266,-0.7644111284998074,0.6420245740669243,0.05899214286526192,0
74,14.833366700033368,-0.5086410730699568,0.8594802382715042,-0.050773800399431496,-0.5662311102317483,0.8242465208904534,-5.104610990861225e-05,0
75,15.033366700033367,-0.09094030765108391,0.9250142431700568,-0.3688882085088296,-0.3731564150793622,0.9233241894935202,-0.09070132844260573,0
76,15.233366700033368,-0.03665486722118344,0.9321529270409774,-0.3602045825887501,-0.17124582684963646,0.971187753788641,-0.16573838926922993,0
77,15.433366700033368,0.11282922983947447,0.8849261523427473,-0.4518575768908738,-0.003958663821668595,0.977399498614122,-0.21136354721098458,0
78,15.633366700033369,0.20592184776722616,0.8723149403332171,-0.443466839215276,0.11093681237479436,0.9712952521051896,-0.2104247060067705,0
79,15.833366700033368,0.21096403998333924,0.8801319088257354,-0.42527872848365617,0.20170689831192706,0.9567829612423562,-0.2094771878980862,0
80,16.033366700033366,0.14427490291291506,0.9073322721224221,-0.39488340096113467,0.24085435248398213,0.9490603351226033,-0.203159201579681,0
81,16.233366700033365,0.1583334481558487,0.9620684067905816,-0.2221596269588867,0.2708885601894179,0.9457892793546653,-0.17917038543321653,0
82,16.433366700033368,0.1599003554117745,0.9847949732269488,-0.0679024082497934,0.22836019463630314,0.9685091781504798,-0.09920480504467605,0
83,16.633366700033367,0.13962813364664162,0.9901897169491543,0.005320596067111601,0.18643775086277742,0.9822093192429152,-0.02249040341120034,0
84,16.833366700033366,0.13918555543045058,0.9886924337660494,0.055809072499757396,0.16950478644492745,0.9849859536954074,0.03272305601572969,0
85,17.033366700033366,0.12868598494975947,0.9876747731307883,0.08909803476259447,0.15575746170453675,0.9853306882996278,0.06973555634209735,0
86,17.233366700033365,0.08907537131431159,0.9938601212163704,0.06563259617750637,0.12023855617847934,0.9900316903519945,0.07334808591154571,1
87,17.433366700033368,0.017453721987607362,0.9918195866510418,-0.12644870550597262,0.07210637473950626,0.9932043719530192,0.09135505599218201,1
88,17.633366700033367,-0.003872524025198276,0.9886248813330304,-0.15035241124413776,0.01937508055577919,0.9964734370938421,0.08164126052335358,1
89,17.833366700033366,-0.031336053854317814,0.9895670532785059,-0.14062396237673672,-0.028617821398293164,0.9946861466785183,0.09889635940850823,1
90,18.033366700033366,0.10089067663125495,0.9878790577335118,0.11796626068684528,-0.031973482324767655,0.9930129162174394,0.11359156946430622,1
91,18.233366700033365,0.11121708339955194,0.9874974663311087,0.11171174669540433,0.010338797681242129,0.9918674721095211,0.1268543536248355,1
92,18.433366700033368,0.16556548434188206,0.9795887749021213,0.1139907999813981,0.10170144652243612,0.9856291728127902,0.1348775351035866,1
93,18.633366700033367,0.07793933175226586,0.9886323720793769,0.12857485540616087,0.15638198708969026,0.979271754394937,0.12873035833921198,0
94,18.833366700033366,0.09876642828328586,0.9889573843385072,0.11049201150536272,0.18372059908643396,0.9741433946136703,0.13149672316022695,0
95,19.033366700033366,0.07343790630463737,0.9910506096554772,0.11147000950524101,0.15990753034275929,0.9764393084636297,0.14489947766209593,0
96,19.23336670003337,-0.00048712991312077625,0.9926100292160392,0.12134699256339905,0.08130229739636446,0.9847842739683349,0.15358994167175272,0
97,19.433366700033368,-0.08722132894704837,0.988342902321145,0.12478280012936986,-0.005880204979472281,0.9880714090975327,0.1538840918139879,0
98,19.633366700033367,-0.14182897637590658,0.982885393956274,0.11756208490658544,-0.06470539972925521,0.9868968808953876,0.1478098701874568,0
99,19.833366700033366,-0.1743897275049467,0.978878536955653,-0.10670066929645391,-0.12205148967266077,0.9845095841123782,0.12587419377917305,0
100,20.033366700033366,-0.15296008289113178,0.9680920325155393,-0.19849692597587001,-0.16292648825779427,0.9822459994621666,0.09299331139685511,1
101,20.23336670003337,-0.17964255808719415,0.9552175371909246,-0.2351340212874223,-0.19734443301049298,0.9788328396303527,0.05423510690454345,1
102,20.433366700033368,-0.18967872167288424,0.949845495020257,-0.24862726747938163,-0.22763896993348504,0.9729749146456389,0.03873389778906278,1
103,20.633366700033367,-0.21075131715938572,0.9444418014188662,-0.2522172992644856,-0.27135550039091416,0.9619910637879301,0.030649398032639396,1
104,20.833366700033366,-0.0020608705225423907,0.9986717983550423,-0.05148195783957399,-0.2905196609176245,0.9554501320121513,0.052090036074775324,1
105,21.033366700033366,0.09107054778744123,0.9938179595683226,0.06349817765220436,-0.1931214909086127,0.9772822485140042,0.08731263647747056,1
106,21.23336670003337,0.05167668793322977,0.9975157381378338,0.04787350093302788,-0.20871125780191013,0.9751737050900536,0.07399902545089102,1
107,21.433366700033368,-0.15833504385627512,0.9544880843671519,-0.2527498975037506,-0.23006259457867217,0.9718338491959337,0.05108984373380722,1
108,21.633366700033367,-0.16062613453729802,0.9534558360116921,-0.2551885845386729,-0.2504451596133785,0.9672274215799181,0.041813119592933934,1
109,21.833366700033366,-0.1930050678224864,0.9458007572122009,-0.26117038777714613,-0.29184991678742933,0.9557946999421806,0.03577873158187491,1
110,22.033366700033366,-0.17881111246220716,0.9569611958680734,-0.2285866480413391,-0.3315813892784079,0.9426350037356293,0.038639772469969524,1
111,22.23336670003337,-0.18530756540758908,0.9562981927240032,-0.22617443002142734,-0.3682192821205752,0.9291618882480954,0.03275279685526225,1
112,22.433366700033368,-0.1991538670808703,0.9510851085094921,-0.2361670036186734,-0.39859131088812355,0.9168309769436448,0.02336507224575318,1
113,22.633366700033367,-0.20842354492485704,0.9477130213727635,-0.24166020574654853,-0.42533886443269237,0.904930121505202,0.013723177317519122,1
114,22.833366700033366,-0.22494670365680197,0.9685084862989521,-0.10672531321505517,-0.4355285124157153,0.8999925470835184,0.018119880437668243,1
115,23.033366700033366,-0.3173352861584364,0.9342531976156896,0.16269381950031916,-0.44730035127320456,0.8942826923577627,0.013448490629772979,1
116,23.23336670003337,-0.31693681298426307,0.9355618288175543,0.1558047529279242,-0.44556540825223995,0.8952252453803313,0.0065747245372218144,1
117,23.433366700033368,-0.1609642161342753,0.9710364515590422,-0.17657500068781554,-0.4263840722589392,0.9045316614406732,-0.004369939960580416,1
118,23.633366700033367,-0.07983352793009657,0.9916930113377209,-0.10085424672346545,-0.38304564328722995,0.9236749747578309,-0.01002876686302246,1
119,23.833366700033366,-0.11008083512604111,0.9930307070265478,-0.042097798520920694,-0.3168641423191255,0.948467595354153,-0.002517116500195483,1
120,24.033366700033366,-0.03550549576993883,0.9987943147853868,-0.03390098114392293,-0.24956842369061555,0.9683018752158354,0.010347963571562627,1
121,24.224224224224226,-0.002163217412021412,0.9996695897824038,-0.02561311684877015,-0.18992729030780686,0.9815307215429863,0.02291434187662519,1
