,timeStamp,x_gaze,y_gaze,z_gaze,x_head,y_head,z_head,fixations_head
0,0.033366700033366704,-0.9986837277507905,0.05083991310384418,0.00679081448566537,-0.9961428140468584,0.07753604031989902,-0.0410810963134743,0
1,0.2333667000333667,-0.999605512022208,0.000112712824140165,0.028085719336317462,-0.9991629265891094,0.032796909745300494,-0.02445012967337364,0
2,0.43336670003336675,-0.9786799462965545,-0.1470229755193462,-0.1434217814225262,-0.9988201578128398,-0.034859783024458836,-0.03380958257981447,0
3,0.6333667000333668,-0.8880151143421524,-0.3139621626972162,-0.33594183587993426,-0.9602285893733603,-0.23134878586750493,-0.15632912533395096,0
4,0.8333667000333668,-0.6731021166643543,-0.5970141362294636,-0.436471833781005,-0.8084648610799015,-0.4807742475726129,-0.3394711935791372,0
5,1.0333667000333666,-0.5007569059380876,-0.525473735103074,-0.6878370990809802,-0.6392201049788002,-0.6212638413018684,-0.45324264680382714,0
6,1.2333667000333668,-0.49405303168720305,-0.3052618729866801,-0.8140803343536482,-0.5515102024484939,-0.5984863946953001,-0.5810770447710382,0
7,1.4333667000333667,-0.4757917307820096,-0.23240238815679803,-0.8482990975466597,-0.5369193385058993,-0.5207786109118226,-0.6637072113177166,0
8,1.6333667000333667,-0.5253089796838614,-0.3035404410118147,-0.7949299821580853,-0.5660352592548324,-0.5546888323096156,-0.609856035955462,0
9,1.8333667000333667,-0.6372964212015118,-0.7024601055457984,-0.3168644373234892,-0.6056069567175697,-0.6822782833488726,-0.4095565382774386,0
10,2.033366700033367,-0.6020104454950892,-0.7781751297650119,-0.17896058485043922,-0.5919675383413724,-0.7669334418156771,-0.24776506891572855,0
11,2.233366700033367,-0.5356571929544983,-0.8408224885515829,-0.07803149608991555,-0.5364891262744503,-0.8309965649486666,-0.14705144145092075,0
12,2.433366700033367,-0.20817031742266068,-0.9780916123802372,-0.0013844621977282335,-0.4534151084826375,-0.8899176314101829,-0.04961198146585566,0
13,2.633366700033367,-0.004008770072100654,-0.9999887266962977,0.0025448463266542183,-0.32528234895106484,-0.944051010255959,0.054397458539723643,0
14,2.833366700033367,0.050358995708874754,-0.9974310724705325,0.050943372694366225,-0.2100709065215151,-0.9729713517989097,0.09590079672156594,0
15,3.033366700033367,-0.07713396725036925,-0.9797154554277034,0.18495398750042422,-0.13316507703323388,-0.9717984526873237,0.1946145668064361,0
16,3.233366700033367,0.0006038643808958799,-0.8786344025569908,0.4774947350402195,-0.10402221040182291,-0.928514256728133,0.35642762911385234,0
17,3.433366700033367,0.04169884450381112,-0.8174021160058581,0.5745563393751674,-0.0517897415370952,-0.847433953513049,0.5283687321414513,0
18,3.633366700033367,0.05245050048369637,-0.7781834855833973,0.625842957749214,-0.03880264657186733,-0.807841213849926,0.5881215247076889,0
19,3.833366700033367,0.05863898647099891,-0.7602410785170141,0.6469891589516328,-0.02636670670232394,-0.7916122830673281,0.6104545765858472,0
20,4.033366700033366,0.0293173802418909,-0.92225111231356,0.3854781148809282,0.017414133003972543,-0.8144145805657199,0.5800221021079136,0
21,4.233366700033367,0.0891004587322402,-0.994044978680876,0.06273506685292994,0.09485411063046245,-0.8921659431796714,0.44163630684855587,0
22,4.433366700033367,0.10298336151763438,-0.9543980910277257,-0.28021190391052436,0.13842172834866423,-0.9898700320121154,0.031571266133972695,0
23,4.633366700033367,0.21522822838686514,-0.7232355148091701,-0.6562066746263456,0.18153630287073574,-0.9225736613615716,-0.3404444302700941,0
24,4.833366700033367,0.2340715966849092,-0.7242074054017088,-0.6486402096591781,0.21016224067915557,-0.8328164200310015,-0.5121021803502338,0
25,5.033366700033366,0.6134136804946075,-0.6698743731901753,-0.41832042829047883,0.3821421276493346,-0.7875625765938813,-0.4834382920543706,0
26,5.233366700033367,0.778126676102715,-0.5440231775587179,-0.3139389402674612,0.6794643351312558,-0.6167933215443017,-0.39735905146729494,0
27,5.433366700033367,0.8745540041445297,-0.43251051159367865,-0.21929421149621006,0.835126598932564,-0.443309509073959,-0.32563820863027393,0
28,5.633366700033367,0.974690027017101,-0.151011738620356,-0.16484782689577987,0.9208838759792846,-0.27085225166167953,-0.2803782172908017,0
29,5.833366700033367,0.9593491712658521,-0.2276704253743438,-0.16677933025824399,0.9366065194351035,-0.2513775570966194,-0.2440851317466858,0
30,6.033366700033366,0.9845073663510177,-0.16797614721961573,-0.05029174450978675,0.95993826076387,-0.2258184040864931,-0.16590534619916716,0
31,6.233366700033367,0.9953735231906936,-0.09403576114710634,0.019718644893348923,0.983262196925078,-0.15547339860621248,-0.0949919703127755,0
32,6.433366700033367,0.9900877102513823,0.004808936547401324,0.1403680880344898,0.9991463071948742,-0.04124477522044983,0.0023506032972163953,0
33,6.633366700033367,0.980734587404527,-0.027043232354713828,0.19346403451877414,0.9952973893925965,0.09228956314460213,0.029423514454613216,0
34,6.833366700033367,0.7503824744171639,0.6556486820397651,-0.08396992215724243,0.915482898915937,0.4016261042442702,0.024239104398532794,0
35,7.033366700033366,0.7374175883736508,0.6693667580117437,-0.09035177710502912,0.8140749452236873,0.5802217554020843,0.02499396161424489,0
36,7.233366700033367,0.37069806147554996,0.9282342350106428,-0.031050799868543234,0.6779612862667168,0.7342973681702558,0.03429095247750829,0
37,7.433366700033367,0.3866618991252711,0.9221665538442482,0.010070885555002093,0.516296473647833,0.8544981516627139,0.05719143383251123,0
38,7.633366700033367,0.24432492153758456,0.9696061984238923,0.013005871505615479,0.37324143687287265,0.9238594422683435,0.08470277877790475,0
39,7.833366700033367,-0.012269356283136357,0.9998551295550784,-0.0117975759711526,0.17919093115448176,0.9775477045941753,0.11086521291482326,0
40,8.033366700033367,-0.20873039914511377,0.9779046865018842,-0.011577762753362805,-0.035244423670899194,0.9930113287821299,0.11263361625400722,0
41,8.233366700033368,-0.5962089189736252,0.794543596652131,-0.1150451996190944,-0.33461023757386826,0.940160370873918,0.06429981297777092,0
42,8.433366700033368,-0.553152766104795,0.8245515842766253,-0.11889786464659839,-0.4983574489143093,0.8669433904726566,0.0070007733427721415,0
43,8.633366700033367,-0.7064535301592139,0.6978266286790692,-0.11815839382790236,-0.6013824780602195,0.798849001236105,-0.013393591983756885,0
44,8.833366700033368,-0.7385422691675636,0.665806829388358,-0.10609704327947965,-0.6514590397223181,0.7586613279037817,-0.005840300278722121,0
45,9.033366700033367,-0.7422435326907703,0.6608095718185398,-0.11137884885257188,-0.6651407314528641,0.746657857776364,-0.009478965300063435,0
46,9.233366700033368,-0.7346653952063638,0.6556817417624198,-0.1742073781608487,-0.6678348800883182,0.7431658731786454,-0.04124388294090818,0
47,9.433366700033368,-0.7287824025732437,0.6522829628726539,-0.20833421717433537,-0.6646004774697674,0.7449147661566712,-0.05837976112240604,0
48,9.633366700033369,-0.8039682213024214,0.5715746767049679,0.16412643932478613,-0.7284246530345342,0.6737101204529434,0.12454797650222807,0
49,9.833366700033368,-0.7645906061332752,0.6047945994046564,0.222766015235072,-0.6882082039694153,0.6774104007958868,0.25977801462546424,0
50,10.033366700033367,-0.7562818729680206,0.5902936445598487,0.2821190206495017,-0.6748452946380414,0.6581823266117888,0.33373620307180957,0
51,10.233366700033368,-0.6854807779152109,0.5213454453221997,0.5082470164698997,-0.5916839730212149,0.5753090148989009,0.5647385354709614,0
52,10.433366700033368,-0.2915834187645209,0.9425056688801239,0.16328555977313086,-0.5011001501781425,0.6878005321484585,0.5251943140093394,0
53,10.633366700033369,-0.3525071761865732,0.9170760286149446,0.18630686642421287,-0.47026110019698,0.7334595102780147,0.4908071356696649,0
54,10.833366700033368,-0.48857219865050405,0.8595835107427795,0.149711037552113,-0.6451890812842238,0.6380416960259725,0.42027829294875574,0
55,11.033366700033367,-0.933509265080431,0.3471739599025884,0.08961413713555359,-0.8393019835391926,0.44786096063313924,0.3082089232451564,0
56,11.233366700033368,-0.9487385214564552,0.30030202772636005,0.09855917028900092,-0.8589141329867958,0.4372230801226565,0.26665050227516546,0
57,11.433366700033368,-0.8518092816184932,0.5090700081071896,0.1235664784410911,-0.7053129569721303,0.6553330036392967,0.2703188618434304,0
58,11.633366700033369,-0.08884107860762819,0.9958421732634847,0.02014022595934297,-0.24091216040945623,0.9339043749265884,0.2641665184307557,0
59,11.833366700033368,0.16613619303319577,0.9779003870265368,0.12692359283358914,0.20328700813004524,0.9450626757425188,0.2559900998943626,0
60,12.033366700033367,0.7427381311268226,0.6638314646721221,0.08756628964105097,0.6195567125671059,0.7409731669734176,0.25905259261089103,0
61,12.233366700033368,0.9878182582969545,0.13036546740929353,0.08497019172820545,0.8847620908781182,0.383637548593887,0.2646096631906204,0
62,12.433366700033368,0.9368554531750846,-0.3335033194154469,0.10524920804920748,0.9633897163519628,-0.04156194522554935,0.2648638501878909,0
63,12.633366700033369,0.9519487666150267,-0.2841247493162888,0.11430954713446335,0.9010158979790057,-0.3521042634300417,0.2533632555511424,0
64,12.833366700033368,0.7797652488294837,-0.6222792321424623,-0.06880925782248623,0.8103238645513946,-0.5459594562850246,0.21284620417440753,0
65,13.033366700033367,0.8067807968953618,-0.5419372526954152,-0.23539065381155455,0.7784989630097428,-0.6257950983088848,0.048164920069779925,0
66,13.233366700033368,0.7962207452006514,-0.5338854698760247,-0.28460293386993724,0.753020589864408,-0.6270925462200183,-0.19928604997729593,0
67,13.433366700033368,0.6805194067829229,-0.43065721912079535,-0.5928133741836147,0.6885033495453696,-0.5761755247440165,-0.440437171854016,0
68,13.633366700033369,0.6942009577009711,-0.4772435360310955,-0.5388168869324632,0.6685752725968493,-0.5940623704708611,-0.44732203708580054,0
69,13.833366700033368,0.7682917483747603,-0.6331339972966942,-0.09417606302221232,0.6568152706790163,-0.6814461949785768,-0.3228386339211433,0
70,14.033366700033367,0.7792097249503874,-0.6186920158843865,-0.10026162787256192,0.6593366633790276,-0.7117642754553596,-0.2422122633347002,0
71,14.233366700033368,0.7535868547247527,-0.6483680035460533,-0.10828566093329133,0.6351336421801889,-0.749906800271853,-0.18505417443807978,0
72,14.433366700033368,0.7103513957536168,-0.6912655528113753,-0.1324870938894517,0.5769969058764712,-0.7952002969519214,-0.18636270639952274,0
73,14.633366700033369,0.6917569778763442,-0.6399398276499285,-0.3345882552433163,0.5638973811282646,-0.8167321342332451,-0.12234526745033449,1
74,14.833366700033368,0.41029222375743146,-0.7786024375757207,-0.4748036808253789,0.5422971552716278,-0.8220782344549381,-0.17349689282448963,1
75,15.033366700033367,0.3983790397151673,-0.7927221590358138,-0.46139540449512456,0.5142241351418944,-0.8409530944151005,-0.16843821369047413,1
76,15.233366700033368,0.5798967410204742,-0.6900521966496298,-0.43306781876843964,0.4701837750843562,-0.8659394413828139,-0.17051715897540448,1
77,15.433366700033368,0.5693860812154384,-0.723078012025607,-0.3910980427504366,0.42922219132897127,-0.8953868114443136,-0.1185359370079025,1
78,15.633366700033369,0.6730954232581565,-0.7179510798582767,-0.17745083296298714,0.45752657700094207,-0.8832490565506196,-0.1026671098270609,1
79,15.833366700033368,0.6475407917179874,-0.7446493003315716,-0.16182812665585405,0.4465825746913519,-0.8901320727544446,-0.09071326824626882,1
80,16.033366700033366,0.3831703665395922,-0.9221068735140636,-0.053845928574339876,0.33560901723034126,-0.9399888278456843,-0.06154340808715023,0
81,16.233366700033365,0.15134447053491584,-0.988153612147049,0.025441895354822698,0.21709198537607555,-0.9759636957063683,-0.01912941579455804,0
82,16.433366700033368,-0.13391116774126638,-0.9901225202422407,0.041535455496772095,0.0977032001643498,-0.9947727287687482,0.02968674410614816,0
83,16.633366700033367,-0.2818796763539469,-0.9560448490141864,0.0807594869475768,-0.09427604779955678,-0.9908305126195536,0.0967828604318388,0
84,16.833366700033366,-0.43889852808314567,-0.8966482189459191,0.058224166009997934,-0.34776177825996024,-0.9283039312560432,0.13158098949333846,0
85,17.033366700033366,-0.3901955323291886,-0.9103409022557223,0.13793798690201012,-0.4828780532366027,-0.8667549419441755,0.12475839177297104,0
86,17.233366700033365,-0.913914235483149,-0.37285157597351026,-0.16044460874495406,-0.7519966096056216,-0.6534983607923746,0.08626118236686495,0
87,17.433366700033368,-0.8808021456277155,-0.44533442795386946,-0.16082545674305632,-0.8807275849533154,-0.4723868061578641,-0.034199802196409265,0
88,17.633366700033367,-0.9260364474482734,-0.21041356608812303,-0.3133410748744262,-0.9376486084990535,-0.3365885254837798,-0.08673667904896823,0
89,17.833366700033366,-0.9211336257060774,-0.20081668725699375,-0.3334449005648499,-0.9741199288737816,-0.15130761334608725,-0.1679177486582328,0
90,18.033366700033366,-0.8873562463603766,-0.1772216182917876,-0.4256658196934101,-0.965482726410752,-0.15928175268158884,-0.20608839915226246,0
91,18.233366700033365,-0.8670175871763981,-0.15731736203535857,-0.4727914457020697,-0.9564943682125793,-0.13689483845797348,-0.25763991690183546,0
92,18.433366700033368,-0.8345052537529081,-0.2794584086933272,-0.4748725926702741,-0.9425311406092176,-0.20178579113041406,-0.2663034800368937,0
93,18.633366700033367,-0.7794014359356154,-0.4214478334088513,-0.4635893930802196,-0.9046413953518813,-0.32802074641700063,-0.27207781191386216,0
94,18.833366700033366,-0.7680317322573507,-0.44172118557806483,-0.4636913331703343,-0.8752031750517749,-0.40370082522559925,-0.26654276597098336,1
95,19.033366700033366,-0.6634820216242894,-0.46858401563314933,-0.5832843451306219,-0.8444476458968064,-0.470433085038051,-0.25612669880534505,1
96,19.23336670003337,-0.8022672931643924,-0.4602377459193035,-0.38019522294447333,-0.8346559433738566,-0.49122529324461933,-0.24909268850657865,1
97,19.433366700033368,-0.8165193064713274,-0.4439831053410991,-0.369019273658243,-0.851679584909121,-0.47378584618328007,-0.22398405435526186,1
98,19.633366700033367,-0.8245907171368456,-0.4382722310505099,-0.35772559413851157,-0.8559743798722739,-0.47792104853959033,-0.19722913670422818,1
99,19.833366700033366,-0.8220216611682911,-0.4285086613394242,-0.37504761794633235,-0.8548063077605936,-0.4783728354310918,-0.20116064857302335,1
100,20.033366700033366,-0.8193834361773072,-0.43997842131268866,-0.3674639755097947,-0.8465937596043629,-0.49969676962223236,-0.18325431680605994,1
101,20.23336670003337,-0.7459271410469965,-0.5283846984649567,-0.4054655480772082,-0.8271785587180647,-0.5312489443552401,-0.1831671125462987,1
102,20.433366700033368,-0.7470461753588862,-0.5287123310298557,-0.4029705732415666,-0.8207024980392476,-0.5431266653819132,-0.17737202446626787,1
103,20.633366700033367,-0.7633907326514507,-0.503653325511039,-0.4044353063266771,-0.8159792113532143,-0.551915691458583,-0.17195056313132812,1
104,20.833366700033366,-0.7811029097622874,-0.47612722294444737,-0.4039568193905098,-0.820881970558401,-0.5463145527319131,-0.166412739552855,1
105,21.033366700033366,-0.7767112114334761,-0.4913908083973051,-0.39402381584897267,-0.8157917619358565,-0.5556597621008464,-0.16039336002347948,1
106,21.23336670003337,-0.7676821230691317,-0.5040221295735108,-0.3957598398274565,-0.8107601278224283,-0.5621452092795693,-0.16328128740730946,1
107,21.433366700033368,-0.7647386243991723,-0.5153009444194137,-0.38683300406315174,-0.8117248706169301,-0.5627750313417986,-0.15616337125000182,1
108,21.633366700033367,-0.7689436334897759,-0.5254465136757336,-0.36418628445008566,-0.8110061760368369,-0.5646278878511862,-0.15318071252875037,1
109,21.833366700033366,-0.7715065255132355,-0.5325455621323568,-0.34809898785205867,-0.8104217761506779,-0.5660638021059119,-0.1509579964300667,1
110,22.033366700033366,-0.7889778314444802,-0.5175532483213726,-0.33113836479810266,-0.8184542396688094,-0.5567601776117315,-0.1419533803539204,1
111,22.23336670003337,-0.8016066165022845,-0.5034934547497137,-0.3223680713159381,-0.823996568634908,-0.5491224640874872,-0.1396215395717438,1
112,22.433366700033368,-0.8051189179020396,-0.5010031029905603,-0.3174577433770975,-0.8222971195353561,-0.5518487166049744,-0.138890032706812,1
113,22.633366700033367,-0.8048019100648283,-0.5000894345770417,-0.31969429613369604,-0.8185388377462701,-0.5574536716574604,-0.13870679527911378,1
114,22.833366700033366,-0.8029868794230894,-0.500881294483966,-0.32300154846445445,-0.8142013311987442,-0.5635431762267377,-0.13962550197751616,1
115,23.033366700033366,-0.8013359894211887,-0.5023111145643464,-0.324875631963199,-0.8104733606824971,-0.5687895528275673,-0.14004062345703547,1
116,23.23336670003337,-0.7988853785169322,-0.5046988841533493,-0.3272020603942184,-0.8072892401421741,-0.5726214881492414,-0.14278905441391404,1
117,23.433366700033368,-0.7974490622082875,-0.5038895129661054,-0.33191919484402255,-0.8057990843433697,-0.5733425667414304,-0.14820977307092695,1
118,23.633366700033367,-0.7942304363164403,-0.5065246001291089,-0.33560518990719296,-0.8069360042453132,-0.5712285913211681,-0.15017383763439573,1
119,23.833366700033366,-0.792902229825331,-0.5097902594097068,-0.33379626323402967,-0.806513487771914,-0.5726802114474389,-0.14687875768299405,1
120,24.033366700033366,-0.7913734241156516,-0.5157428099226716,-0.32823384593386534,-0.8016234858674731,-0.580950635994065,-0.14105369702270268,1
121,24.23336670003337,-0.7904677273340253,-0.5169913581071737,-0.3284519868807017,-0.7991409423465472,-0.5844076766961228,-0.14085958144234534,1
122,24.433366700033368,-0.7933946243525176,-0.5128916188344639,-0.3278218378599732,-0.8011897045221367,-0.5817525090793189,-0.1402108253582735,1
123,24.633366700033367,-0.7937420483806363,-0.5126136235309481,-0.3274153838825898,-0.8001423940938225,-0.5831122926319643,-0.14054253219328477,1
124,24.833366700033366,-0.7948590951471146,-0.5148799560588831,-0.3210882273000877,-0.7974211369755871,-0.5869124846300224,-0.14019010553521935,1
125,25.033366700033366,-0.7914287982213184,-0.5240324210897019,-0.31469108502279686,-0.7900869410822876,-0.5968348855152308,-0.13982397849888062,1
126,25.23336670003337,-0.7912237386137284,-0.5281964540004699,-0.30817771080245826,-0.7880149380015917,-0.599854435961986,-0.13858972957284874,1
127,25.433366700033368,-0.7952817052368202,-0.5248418054772097,-0.3034272376353824,-0.7909021330324537,-0.5959550117039667,-0.13896560721862147,1
128,25.633366700033367,-0.8061615936490032,-0.5826861569254879,-0.10286071870595478,-0.7932529189786074,-0.5924023912428605,-0.14074520731328558,1
129,25.833366700033366,-0.8074657106420267,-0.5852864304945271,-0.07374903671467337,-0.7911791123048584,-0.5943886906232013,-0.14400589123967347,1
130,26.033366700033366,-0.8094992529638521,-0.5822171207041869,-0.07572439375717703,-0.7893551690222015,-0.5972250342655759,-0.14226972827841333,1
131,26.23336670003337,-0.8115599485689887,-0.5789575015889251,-0.07860446064066787,-0.7893140212218049,-0.5978639870047677,-0.1397928072020405,1
132,26.433366700033368,-0.8101295352745866,-0.580039101605377,-0.08511625393900726,-0.7874491655058676,-0.5998379078640942,-0.14183897924526767,1
133,26.633366700033367,-0.8084213868213835,-0.5799507012688944,-0.10055866659571717,-0.7875422224606735,-0.5998678177067824,-0.14119436646483507,1
134,26.833366700033366,-0.8073168957868417,-0.5787572130895724,-0.11523679132069327,-0.7890636456538929,-0.5984935558351037,-0.13850641404368846,1
135,27.033366700033366,-0.8064225090397326,-0.577205086501975,-0.12851857854143203,-0.790803820747932,-0.5972755948770754,-0.13375791884859958,1
136,27.23336670003337,-0.8034513340075018,-0.5789463976823759,-0.13887772496756356,-0.7900285988874208,-0.5989390378401521,-0.13086956059791718,1
137,27.433366700033368,-0.7997604077341943,-0.5826461276497661,-0.1445917707048646,-0.7897758017362232,-0.5997800487033692,-0.12852266792006062,1
138,27.633366700033367,-0.7734163063217327,-0.6130400986499898,-0.16127322952945058,-0.7885781713412141,-0.6014068156744045,-0.12827435341688528,1
139,27.833366700033366,-0.6514619164275519,-0.7233028775337433,-0.228976677406125,-0.7880880390489657,-0.6015428868803044,-0.13062694190581578,1
140,28.033366700033366,-0.6494135713247737,-0.7256668024807503,-0.227309711971502,-0.7847759714194008,-0.6053566431808516,-0.1329285869914631,1
141,28.23336670003337,-0.6473150103272313,-0.7287245399108568,-0.22348114537196762,-0.7821941188838648,-0.6088993507102568,-0.13196189256040022,1
142,28.361695028361694,-0.6449896964493231,-0.7332413201936909,-0.21527995223620672,-0.7814520637703259,-0.6100285592866442,-0.13114049292175053,1
