,timeStamp,x_gaze,y_gaze,z_gaze,x_head,y_head,z_head,fixations_head
0,0.033366700033366704,-0.9991887889671822,0.01660707254260377,0.03668745213095284,-0.9884939815066096,0.030292539144165326,0.14819585215993583,0
1,0.2333667000333667,-0.9996494822978859,0.02085694725237999,0.016306449425932897,-0.9887266183430194,0.03622763106159974,0.14528328509378602,0
2,0.43336670003336675,-0.9516362355220871,-0.2093383902302782,0.22486865859240387,-0.9838173785350086,-0.03651511687588808,0.17541383050388043,0
3,0.6333667000333668,-0.8459927970477312,-0.2537216178340983,0.4689579170746608,-0.9069026324175904,-0.15720990428166354,0.3909126006024812,0
4,0.8333667000333668,-0.849438922504084,-0.22984803078805674,0.4749983154474904,-0.8905784872088182,-0.23238703116577544,0.39098110679009823,0
5,1.0333667000333666,-0.8522036510586966,-0.24948954057988948,0.45989553842526393,-0.8973265126262299,-0.30143615871794555,0.322399398193325,0
6,1.2333667000333668,-0.5705420145190335,-0.725471529560038,-0.3849322920545665,-0.8313816627641417,-0.514790722498226,-0.20927265193829186,0
7,1.4333667000333667,-0.6119970820253494,-0.704470502312395,-0.3594174216202938,-0.6266575061390911,-0.7205947731368554,-0.29672132199654805,0
8,1.6333667000333667,-0.006621453441062408,-0.9868718805361578,0.16136929001936967,-0.4308393754287718,-0.8750219373743636,-0.22071257710823952,0
9,1.8333667000333667,-0.09429484961595985,-0.9942805236802822,0.05014699957093243,-0.2513058548090532,-0.9672332718162746,-0.03612707060192057,0
10,2.033366700033367,-0.1223326088902526,-0.991830096143182,0.03616342332676688,-0.17844912038430438,-0.9821966354599212,0.0586999209989141,0
11,2.233366700033367,-0.476110699149123,-0.8662956551784732,0.1511636198780426,-0.27205593871833444,-0.9555515130645188,0.11360841556942416,0
12,2.433366700033367,-0.6097644089668839,-0.7686455074140639,0.19331696637761164,-0.5171996693776271,-0.8080101512478075,0.2821774219815766,0
13,2.633366700033367,-0.8244013229718816,-0.496396603251685,0.2719427714840034,-0.7364771936131124,-0.5797399854525963,0.3485726503258363,0
14,2.833366700033367,-0.894849655876617,-0.016201923088097443,0.44607352652421256,-0.878886110212699,-0.23352492188175228,0.4159631187200538,0
15,3.033366700033367,-0.860722306074678,0.255583325674539,0.44026614162643796,-0.858429009400938,0.21899154013487193,0.4638343898076997,0
16,3.233366700033367,-0.5105269004636451,0.8293542637643626,0.22701054838675644,-0.5830053521996796,0.7316290028810335,0.35330406373240575,0
17,3.433366700033367,-0.10913637205658766,0.9936776153657989,0.026344810025229915,-0.15321962427673974,0.9651037355966259,0.21236413603509613,0
18,3.633366700033367,0.18169911744668182,0.9832515797340426,0.014204283495006397,-0.03647114950235769,0.986061923642602,0.16233218410478023,0
19,3.833366700033367,0.19812509844324439,0.9792874214521382,0.041744359528887526,0.017220677720574118,0.9859069508718683,0.16640592682167268,0
20,4.033366700033366,-0.37124060871396775,0.7748101085726657,0.5117125229025543,-0.053962022790420394,0.9767455292976018,0.20750005082773804,0
21,4.233366700033367,-0.3973431127168414,0.8659050416189867,0.3038534345294,-0.3726041562787795,0.8757350590313971,0.3070085489152606,0
22,4.433366700033367,-0.47883127129069714,0.8167495749807792,0.3219328274700353,-0.5797245178925068,0.7281518149662795,0.36566982062458186,0
23,4.633366700033367,-0.7064508146359446,-0.1769742207821275,0.6852790465779393,-0.895952428030268,0.1676721572111629,0.4112849309211591,0
24,4.833366700033367,-0.5273611967533138,-0.7737570667201074,0.3509845721105251,-0.6672758363615382,-0.6224146991878551,0.4090756659139011,0
25,5.033366700033366,0.1839337954976452,-0.9795734544796822,0.08126626700281249,-0.2753750701656688,-0.9297817906028977,0.24428342677005802,0
26,5.233366700033367,0.39201128512237404,-0.9197330530266009,-0.020451491561080424,0.19828626464316362,-0.9747878108667011,0.10232927752880036,0
27,5.433366700033367,0.8589331506754938,-0.5119951953339928,0.00973460967764565,0.6865447824999651,-0.7208618403854418,0.09494455591654273,0
28,5.633366700033367,0.9871901725338407,-0.15928388112594888,0.009176517098580292,0.9435382562830268,-0.30833104565321473,0.12110955873415101,0
29,5.833366700033367,0.9396601171257278,0.31243418398587647,0.1393690961452464,0.9907810557729965,0.04382358181862634,0.12818889654698157,0
30,6.033366700033366,0.9294003316451358,0.35485142689014787,0.10146668602027745,0.9505034805844043,0.28703002503490493,0.11898276398451743,0
31,6.233366700033367,0.7243813666987924,0.6742584292463664,0.14369135732469182,0.8481140184017817,0.507175105309632,0.15321887724606892,0
32,6.433366700033367,0.49562897588591315,0.8555479330926641,0.14963172271664507,0.6453232261991384,0.7377185261026212,0.19831618686560026,0
33,6.633366700033367,0.13417286972342612,0.9899591984178755,0.0444795064947705,0.3358434189294546,0.9272338506999197,0.16567010616877867,0
34,6.833366700033367,0.18005776971483034,0.9820141275344235,-0.05681067582881213,0.20059362563788924,0.9769682417657736,0.07276848173859178,0
35,7.033366700033366,0.14568232467671727,0.9834751132996521,-0.10748656565833846,0.1548120106936421,0.986392816754271,0.05533942898663966,0
36,7.233366700033367,0.2644278776479054,0.9491533399439648,-0.1708386220848216,0.12231846657489731,0.9884555815825874,0.08940780711434083,0
37,7.433366700033367,0.3121649267525857,0.9344052807011564,-0.17158038904066514,0.17409354471491506,0.9796926162324617,0.09946766001163543,0
38,7.633366700033367,0.4009869204356153,0.902359435410779,-0.1579776533712972,0.27842602337646083,0.951884529148327,0.12804215194551635,0
39,7.833366700033367,0.4106597909236993,0.898623768506816,-0.15438218418299585,0.29290340565366146,0.9458931631217959,0.1396199087377232,0
40,8.033366700033367,0.04216241828197359,0.9855763009808725,0.16389534901722227,0.19691999197563032,0.9599492453458738,0.1992986781697384,0
41,8.233366700033368,-0.20826693224972898,0.9318826196253832,0.29701795934155234,-0.02017405042495296,0.9361764101092066,0.3509511886922317,0
42,8.433366700033368,-0.40209168024757497,0.791353071964616,0.46052426230096416,-0.15894513727266463,0.871218737343217,0.46445059483164075,0
43,8.633366700033367,-0.36708168949752995,0.7883448158619171,0.49372409758819685,-0.14790855722871538,0.8268502743733629,0.5426248081936674,0
44,8.833366700033368,-0.35908614176606996,0.7929034260771408,0.49230204113601833,-0.14365072672787607,0.8131418858633443,0.5640609383436835,0
45,9.033366700033367,-0.3275690547873487,0.8099496116987104,0.48649783232284977,-0.11879744976694656,0.8223623188042436,0.5564237436880075,0
46,9.233366700033368,-0.04875036013703099,0.5833901565992159,0.8107276531423192,-0.05054805469484186,0.8174079145331176,0.5738372551736135,0
47,9.433366700033368,-0.026776462187160108,0.4813773568426019,0.8761043667234915,0.02292393758429928,0.7532109973167107,0.6573794084140434,0
48,9.633366700033369,-0.036450614576776674,0.45204898697514345,0.8912480384672508,0.04007196628774101,0.7277372339267828,0.6846844206453289,0
49,9.833366700033368,0.0035215608972430645,0.46609397902562416,0.8847282076010171,0.10000464455959213,0.741686498443454,0.66324973357944,0
50,10.033366700033367,-0.009393780640589641,0.47139617446716137,0.8818715346256518,0.15838031873860264,0.7554156110002395,0.6358167419102724,0
51,10.233366700033368,0.16843138210326908,0.9819015712098581,0.08660354483734624,0.178728124626591,0.8870971852877498,0.42557589372756216,0
52,10.433366700033368,0.15908882768085225,0.9848500657064421,0.0690006738021368,0.1764279235053834,0.9075659900079829,0.3810474531976412,0
53,10.633366700033369,0.17356364625254123,0.9719828562829264,0.15850863633129675,0.19057482968966188,0.8610731910915391,0.47141721847233176,0
54,10.833366700033368,-0.005927540827664219,0.1251859143243386,0.9921155936253175,0.22273613710293366,0.5763973585616062,0.7862281464509309,1
55,11.033366700033367,-0.023054418485481894,0.1163536370735664,0.9929402423751641,0.23560668722714478,0.5039967376302587,0.830949322998645,1
56,11.233366700033368,-0.03792511004233657,0.12877607077960954,0.9909482376102405,0.23391680962244393,0.5005793819399144,0.8334885773378727,1
57,11.433366700033368,-0.04076784138546192,0.11928664167035898,0.9920225200204769,0.23430836306146158,0.5003809465930148,0.8334977500186411,1
58,11.633366700033369,-0.05927331356213587,-0.058988658057274164,0.9964973720587361,0.22219646873852367,0.5360650094573886,0.8144096235406237,1
59,11.833366700033368,-0.03345028889973188,-0.016593199101219307,0.999302628794757,0.2362778420532294,0.6149500016465875,0.7523358803284151,1
60,12.033366700033367,0.3431380181069099,0.922744298361192,0.17549718052314703,0.2674692306993042,0.8055760687702992,0.5286846016801633,0
61,12.233366700033368,0.06425058462336253,0.9812910902841155,0.18149286075371673,0.24022176006575618,0.861594863480388,0.44715522720317336,0
62,12.433366700033368,-0.2109125919347168,0.9627450613126874,0.1692271416806693,0.10619255776630426,0.9148427870533823,0.38959699132751296,0
63,12.633366700033369,-0.24565945370722458,0.9563262581928466,0.15840303246824847,-0.08879925348259432,0.9305404781439247,0.35525921679332995,0
64,12.833366700033368,-0.19918606924355098,0.9196148186369296,0.3385756860181643,-0.21295976846313258,0.8919936678401674,0.3987423147211423,0
65,13.033366700033367,-0.3565426914873919,0.6808546453890957,0.6397767274596786,-0.34896364576286343,0.7499465336435258,0.5619649193783817,0
66,13.233366700033368,-0.35326775894182444,0.38393434260081877,0.8531097884000031,-0.5364228643712452,0.4282360323197218,0.7272306451207972,0
67,13.433366700033368,-0.37261191362126966,0.06368350871553027,0.9257995315105614,-0.5569604677670836,0.07726850268562765,0.8269368874571944,0
68,13.633366700033369,-0.46798056763523754,-0.43451778587795753,0.7695378366731026,-0.5486079680774701,-0.2199242510685707,0.8066366103480787,0
69,13.833366700033368,-0.4902963628348531,-0.6958342986167059,0.5248086369901995,-0.5981130222766377,-0.4441791300578232,0.6670575035213845,0
70,14.033366700033367,-0.23080228182277207,-0.9623886611352379,0.1433121475092958,-0.5306479512439068,-0.7798032979762097,0.3321438969875423,0
71,14.233366700033368,-0.11475267646431403,-0.9891725241550245,0.09148519388979988,-0.23491833177275484,-0.9691682687844538,0.07433871251542544,0
72,14.433366700033368,-0.16958878059984256,-0.9854126121134403,-0.014199626136810152,-0.2537275463330729,-0.9670912371147294,-0.018891038290710163,0
73,14.633366700033369,-0.34124203988202695,-0.9375896843751237,0.06692872306050211,-0.4074347858184111,-0.9131018214803461,-0.015555028588211707,0
74,14.833366700033368,-0.7099081857608194,-0.5811735852944342,0.3978286459592813,-0.6531787864273892,-0.7496134014621928,0.10694494522661967,0
75,15.033366700033367,-0.7865954078987316,-0.41216292391390535,0.45977101738079174,-0.818278656325877,-0.5077929708224161,0.2693814013343584,0
76,15.233366700033368,-0.8324080646874754,-0.33537194503444895,0.4411603703043403,-0.8966674070497623,-0.2083861203632368,0.39059286472568167,0
77,15.433366700033368,-0.5886977794590535,0.5909356597153428,0.5515704583611892,-0.762190626387494,0.4361224871861545,0.47839588754252715,0
78,15.633366700033369,-0.20934949645819906,0.9437050553942892,0.2561123908676813,-0.4763916436767692,0.784332669375009,0.3973326887962014,0
79,15.833366700033368,0.037388584273361725,0.9992896421610155,0.004722799566344286,-0.0531128749556527,0.9907730044654611,0.12469112292552635,0
80,16.033366700033366,0.13219443361989053,0.9905357128332579,0.03692740610747429,0.15540855470468262,0.9865073265596968,0.05149248264204984,0
81,16.233366700033365,0.11916810796024724,0.9695847410608807,0.2137858553484771,0.1858713850081476,0.9691501799281133,0.16186338987077495,0
82,16.433366700033368,-0.2571997371302167,0.9490731833402111,0.18195710451813984,0.08589219773825657,0.9768666999504352,0.1958417240927947,0
83,16.633366700033367,-0.27852649423663806,0.9391493998401068,0.2010507318768466,-0.07703100273719932,0.9709292029513233,0.22663342091053099,0
84,16.833366700033366,-0.2793211685668441,0.9270836499604129,0.24999118137752654,-0.1316102400881871,0.951694646267358,0.27740952573763245,0
85,17.033366700033366,-0.22361563608701174,0.9390101928709086,0.26125831083802814,-0.1010239241584649,0.9458130761476917,0.30859648691400465,0
86,17.233366700033365,0.012632802436592483,0.9745841150567373,0.2236654085496336,-0.03549546252491054,0.9547568070829892,0.29526176770594365,0
87,17.433366700033368,0.10287919014261865,0.966841751224036,0.2337368185067086,0.07849115249425803,0.9598446572310837,0.26932763126917886,0
88,17.633366700033367,0.23617173342193287,0.9548390530981956,0.18029224889334805,0.1752907426168565,0.9509417435336943,0.2549175473715542,0
89,17.833366700033366,0.09686980395789907,0.9694997963563062,0.22513637188655064,0.19487979878328326,0.9454952946827372,0.2608840964087146,0
90,18.033366700033366,0.00012574254275060648,0.9697761979770818,0.24399612707157692,0.0718356375936538,0.9585062066690798,0.2758722402641563,0
91,18.233366700033365,0.061674175632610184,0.9646716198059744,0.2561346559935919,-0.12325882405103139,0.9493699530446011,0.2889705080966717,0
92,18.433366700033368,-0.2462156162627408,0.9001903243466766,0.3592147689906194,-0.43121249389705407,0.8334221263157706,0.3456346980185628,0
93,18.633366700033367,-0.5580555823205416,0.6861128857689782,0.4667151969056144,-0.6328804479697139,0.6601764434945542,0.40451131261379564,0
94,18.833366700033366,-0.8485035562843652,0.2496606563011331,0.4665954046795495,-0.8460037053589398,0.26311202036837233,0.4637346172722253,0
95,19.033366700033366,-0.8831504810923592,-0.22791621494782324,0.409999300865492,-0.8640858025623814,-0.1894530081326292,0.46632958679417225,0
96,19.23336670003337,-0.9094471120691017,-0.09497685142183354,0.4048275534634047,-0.8708082112908935,-0.19484705960564166,0.45136203042722833,0
97,19.433366700033368,-0.5683949416194667,0.6902599340528671,0.44773699175155823,-0.8121933011460356,0.3520775790809103,0.465170312769453,0
98,19.633366700033367,0.44888604995108544,0.8570943141967141,0.2527659999505004,0.008225334052595568,0.9236023552136793,0.38326366032206605,0
99,19.833366700033366,0.33471382238268443,0.9238245610329068,0.18578169322710472,0.39091392267503994,0.8720708489244529,0.2944125328769101,0
100,20.033366700033366,0.47675200547477453,0.8605416760601201,0.17937544157275206,0.4586892016267782,0.84831909761224,0.26449749514379933,0
101,20.23336670003337,0.5025040677209174,0.8405787585997999,0.2022795405243731,0.5952145061360936,0.7655296167588506,0.24430329009289614,1
102,20.433366700033368,0.6951466494504078,0.6782747132313003,0.23814816637729855,0.6339551150797647,0.733048252669784,0.2464572403521129,1
103,20.633366700033367,0.7094176977729778,0.6606614554159782,0.24546480687489594,0.6682759462569331,0.6966878864365523,0.2608318395958789,1
104,20.833366700033366,0.7098729071454636,0.6622679162906331,0.23975333731339651,0.6816782556292748,0.6821419152733319,0.2645697700597329,1
105,21.033366700033366,0.809521003460036,0.5848570477008209,0.051166187191699776,0.6979225523080664,0.6640899100040306,0.2681206862788343,1
106,21.23336670003337,0.8178026259380581,0.5746036710821735,0.032085607173723656,0.7177495350348538,0.6473960871911978,0.25634724739458065,1
107,21.433366700033368,0.8140331775091809,0.5804848755235961,0.01967981713994385,0.7176821972899743,0.6534875550070042,0.2405956756552417,1
108,21.633366700033367,0.780669271742033,0.6249155730636275,-0.006001224901811688,0.6905977121686632,0.6885953184858665,0.22115896388515796,1
109,21.833366700033366,0.6815294691676897,0.7283290160330071,-0.07109449388242585,0.6256285716898197,0.7611788115400822,0.1708675134359488,1
110,22.033366700033366,0.5317540640279086,0.8381548260641313,-0.12138411319117952,0.5194125976362187,0.8457979057946289,0.1218049915652713,0
111,22.23336670003337,0.4925617105565024,0.8667401391317682,-0.07838681337760693,0.4050039900092075,0.906438366341381,0.11975498361651073,0
112,22.433366700033368,0.36087720431482007,0.9294267275791196,-0.07702987386390484,0.3125200486961673,0.9421334600256608,0.12130854324004439,0
113,22.633366700033367,0.29796477498963775,0.9537121122907878,-0.04062265051936373,0.16581334272573756,0.973012390729202,0.1604768608290922,0
114,22.833366700033366,-0.24564833965921812,0.951884453622856,0.18322903747437652,-0.13669630627519225,0.9466349328084107,0.2918842644568814,0
115,23.033366700033366,-0.4475289602345909,0.8597370091648221,0.24610994458508384,-0.39265935468002167,0.8462568573415751,0.3600943801069795,0
116,23.23336670003337,-0.42234701455847734,0.8644055092473395,0.27281150063072734,-0.4811419124164431,0.7896265355434762,0.3807786686276624,0
117,23.433366700033368,-0.44954200402635547,0.8275723095430215,0.3362083566682981,-0.5324447782351579,0.7424344386711185,0.4065632329727016,0
118,23.633366700033367,-0.42036422517151595,0.8246913091434765,0.3783889041966867,-0.646578664427635,0.6349728934881622,0.422782988354837,0
119,23.833366700033366,-0.7058899346051275,0.5743333114897736,0.4145607887106063,-0.7359754830823898,0.5156066928570261,0.43873662553140375,0
120,24.033366700033366,-0.682181675017437,0.6078553932342099,0.40637419109299766,-0.7562757611770226,0.4900735262588971,0.4334453966952304,0
121,24.23336670003337,-0.561498069557106,0.7826129602921734,0.26876918027624425,-0.6495615097464137,0.640883113352922,0.4090705074617647,0
122,24.433366700033368,-0.37820625606030445,0.91680865892583,0.12814800347827857,-0.5140450189291492,0.7823023643352076,0.3517964315760964,0
123,24.633366700033367,-0.33742814447262287,0.9372459454253743,0.08781961683735152,-0.40617742947403807,0.8673522359382538,0.2876108388061461,0
124,24.833366700033366,-0.31134098402282084,0.9475034183748668,0.07282900408246577,-0.3795492639799151,0.8844294848598969,0.2715268725610086,0
125,25.033366700033366,-0.7305423066298289,0.6364208285079397,0.24754083959063555,-0.59438045295262,0.7294969311545002,0.3384466052186146,0
126,25.23336670003337,-0.9245930473228088,0.26023643587024053,0.2782169913716206,-0.8575258360794707,0.30206064413329947,0.4164238318372053,0
127,25.433366700033368,-0.8859757959407477,-0.3737230611259489,0.27455047366524254,-0.9093694923614134,-0.05786350026182817,0.4119453139675161,0
128,25.633366700033367,-0.8448795877112882,-0.4767060531721563,0.2427546521445652,-0.8765115225361696,-0.2947634952364158,0.3805811775920318,0
129,25.833366700033366,-0.8446170659708366,-0.4683859685981573,0.25930020495784695,-0.8337471546068325,-0.41784800395457905,0.3609275935366886,0
130,26.033366700033366,-0.8362652094064701,-0.48821504820797484,0.2496128326822108,-0.8085973159503106,-0.4758221986160251,0.3460688023242851,0
131,26.23336670003337,-0.7967174941147241,-0.5509863715630003,0.24830475815697522,-0.7687493128503764,-0.5392440524573984,0.34386093974366605,0
132,26.433366700033368,-0.6866819279934793,-0.692517227537383,0.22110590071523367,-0.7130787705643495,-0.607195229791804,0.3504748491525667,0
133,26.633366700033367,-0.6771505838735784,-0.7076097177040481,0.20188009850024555,-0.6790533214996859,-0.6513275240667643,0.3386134122466252,0
134,26.833366700033366,-0.8154542769769706,-0.5781892472621382,-0.027046561896268084,-0.7376064769750864,-0.6077073166915697,0.2943272028948967,0
135,27.033366700033366,-0.897470641460801,-0.39361668288987334,-0.19902852726860856,-0.8945539533580587,-0.4275575894992357,0.13026024793877572,0
136,27.23336670003337,-0.8700641632599324,-0.3194077868859266,-0.375455746376891,-0.9626890460437602,-0.24627537833970106,-0.11215274696141722,0
137,27.433366700033368,-0.7050801602368415,-0.4375205945229743,-0.5580660328389943,-0.9295354576615809,-0.20653155751551322,-0.30546448025931255,0
138,27.633366700033367,-0.5833319045333286,-0.41378990644680136,-0.6989290396572939,-0.8461027599312558,-0.2143655687146318,-0.48801385491230087,0
139,27.833366700033366,-0.4979546864323132,-0.3124566940925835,-0.8089573193789835,-0.7760737575871396,-0.1995276736647796,-0.5982459613123176,0
140,28.033366700033366,-0.48020854815127706,-0.15408965070465414,-0.8635138272362294,-0.750835735228071,-0.1644870698673474,-0.6396793748050476,0
141,28.23336670003337,-0.47819238004487064,-0.16431938884529793,-0.8627463046090256,-0.7462580082064498,-0.16938372764945403,-0.6437453984265195,0
142,28.433366700033368,-0.4893641168005394,-0.19522917087697336,-0.8499460759523028,-0.7782935844643101,-0.14736589790036014,-0.610362505825609,0
143,28.633366700033367,-0.6843289098460998,-0.4937469347905169,-0.536570505650299,-0.8749186430613782,-0.25090319961949203,-0.4142039985856462,0
144,28.833366700033366,-0.8176565104221873,-0.5320079829080774,0.22001212940720047,-0.941053791617571,-0.33687889778095936,0.030501959151494583,0
145,29.033366700033366,-0.8078876765692398,-0.5041478504317267,0.305208857919663,-0.9287480566724424,-0.3279377421590564,0.17286955919068664,0
146,29.23336670003337,-0.9769533290843977,-0.14060599334873797,0.160599338184587,-0.975269272957189,0.08925540429390866,0.20219623643848286,0
147,29.433366700033368,-0.7013872177049307,0.7035778890912625,0.11416709167715092,-0.7471055390433179,0.6124242717274991,0.2583985776466967,0
148,29.633366700033367,-0.29433972557306515,0.9460234260716707,0.13566061798912354,-0.5100937303688373,0.8154968271139275,0.273439776194907,1
149,29.833366700033366,-0.35077356851708086,0.9283893698481016,0.12268284958721001,-0.40751363810590346,0.8732435220059687,0.267167337135927,1
150,30.033366700033366,-0.3469276505242375,0.9296951628181619,0.12372594527520861,-0.38134178453016504,0.8887366638182739,0.2544122358624164,1
151,30.23336670003337,-0.3799719449064335,0.9246522637326117,-0.025288579599871058,-0.40497352714533497,0.8833190772704904,0.23610135544184388,1
152,30.433366700033368,-0.4032973421080062,0.9093308067253502,-0.10231684997517167,-0.43961772833422247,0.8778578325977988,0.19000494383292388,1
153,30.633366700033367,-0.39677479381016567,0.9170888766996634,0.038958378183007604,-0.473228949611717,0.8599725819440351,0.19105370855835474,1
154,30.833366700033366,-0.3883677798564091,0.9204487108889485,0.044098052023609384,-0.47186322118648194,0.86075948239283,0.19088796180572834,1
155,31.033366700033366,-0.33765216569743534,0.9209569773621875,0.19449745717549977,-0.4454060311447471,0.8709836859316394,0.20736655048686153,1
156,31.23336670003337,-0.3496426562388504,0.9139462153413113,0.20603962823091732,-0.45509930633760143,0.8630633906804829,0.219103183541779,1
157,31.433366700033368,-0.4050798628938262,0.8923237745877157,0.19916974163625106,-0.5159806197996343,0.8279670455174339,0.21962370438619938,1
158,31.633366700033367,-0.4005238616661724,0.9108016211607826,0.10010516034105175,-0.5830414936577041,0.7873217491698066,0.2004671543110986,0
159,31.833366700033366,-0.3953824654320644,0.9164942364840076,0.06091814606879051,-0.5761181487840301,0.7902142797639551,0.20892407879130753,0
160,32.03336670003337,-0.4007660722469284,0.9145780152260515,0.054162804588998435,-0.5820171931832935,0.7851450682299806,0.21166768452737464,0
161,32.23336670003337,-0.8204115847368915,0.5661108975190895,0.08027006502821347,-0.6777034399637872,0.7010704214976105,0.22185200373765535,0
162,32.43336670003337,-0.9803431973805605,0.12457544948088799,0.15299729649995297,-0.8708757735229212,0.4294697146272193,0.2390212361043857,0
163,32.63336670003337,-0.9930740127409616,0.014216835051975867,0.11662712728893439,-0.9654842399185398,0.1068339320366196,0.23754303491054946,0
164,32.83336670003337,-0.9395742891855567,0.2678792868523662,0.2131685783058174,-0.9723352059987762,0.024031661293813227,0.23235043884352072,0
165,33.03336670003337,-0.870272386055019,-0.43489482731127943,0.23128437744040747,-0.9657832968139475,-0.059871709950685977,0.252345005781299,0
166,33.23336670003337,-0.6914872803181175,-0.7030291390183291,0.16611854456802924,-0.9027662070818743,-0.3559250106231376,0.24151720883598785,0
167,33.43336670003337,-0.5419765480727785,-0.8329472356840789,0.11162582096167048,-0.7085764035660902,-0.6754159635911584,0.20428596729969603,0
168,33.63336670003337,-0.3797782245213735,-0.9181455058911749,0.11303685324367456,-0.5092570745870568,-0.8424173226165037,0.17604058207888998,0
169,33.83336670003337,-0.26449796834158096,-0.9528792605474548,0.14853262120393665,-0.4666810630008505,-0.8716355144105469,0.14986765980243227,0
170,34.03336670003337,-0.778155424226144,-0.5826215702550621,0.23457672864322282,-0.6692788835211945,-0.7231096222479003,0.17081642276175502,0
171,34.23336670003337,-0.9741065886842498,-0.2235836651067214,0.03356633103840234,-0.8513705884133266,-0.48823258946143827,0.1918255972818151,0
172,34.43336670003337,-0.989692010282262,0.09813364293612609,-0.10430490356421483,-0.9864775902574529,-0.006314725134684358,0.16377450401794125,0
173,34.567901234567906,-0.4897962016909242,0.8622441925850963,0.12897531997408987,-0.8027091023185996,0.5718137301411877,0.16937282862634562,1
