,timeStamp,x_gaze,y_gaze,z_gaze,x_head,y_head,z_head,fixations_head
0,0.033366700033366704,-0.9994293816421764,-0.021188660256153687,-0.02630497646618571,-0.997670945776196,0.067962530951256,0.005811913689176992,0
1,0.2333667000333667,-0.9968037578210014,0.0389471573743476,-0.06975232846571064,-0.9950661393874408,0.09382994550245188,-0.03223847967230161,0
2,0.43336670003336675,-0.9869458500518524,0.11572808909455948,-0.11200401091009497,-0.9840980061134992,0.15649989141820564,-0.08401725030924073,0
3,0.6333667000333668,-0.84728322260301,-0.07521431663147093,-0.5257888808914843,-0.967136471464427,0.1502127655073128,-0.20514183055140836,0
4,0.8333667000333668,-0.8227169591393064,-0.016913904909151907,-0.5681995467837834,-0.9480220327873291,0.05665493692304132,-0.31312049353567806,1
5,1.0333667000333666,-0.8228957647423154,-0.05250499787137588,-0.5657612443139659,-0.9375182410260618,-0.022708457309180904,-0.3471942881299115,1
6,1.2333667000333668,-0.8874279396348236,-0.27691320559507954,-0.3684979355743383,-0.9368545593441207,-0.09271282892775569,-0.3372059696807672,1
7,1.4333667000333667,-0.8876330746373537,-0.2729223378088663,-0.37097294016515736,-0.9372919378701574,-0.10291856525909984,-0.3330038920622604,1
8,1.6333667000333667,-0.8993170837216936,-0.26953111002660124,-0.3443570293374842,-0.9448937439915299,-0.09912325737731373,-0.31201024408275446,1
9,1.8333667000333667,-0.9082556153501754,-0.2908254194254189,-0.30081940196886126,-0.9519539959519614,-0.11192976626580343,-0.2850531827831015,1
10,2.033366700033367,-0.9405825865946211,-0.19781211452126904,-0.2759977629322316,-0.9649098495343058,0.003030504865775407,-0.26256389377052974,1
11,2.233366700033367,-0.7100147795310006,0.6292783658447828,-0.3160502351324303,-0.532104325492388,0.8017007901212196,-0.272288137661748,0
12,2.433366700033367,0.4801600491575155,0.8725887980413695,0.08963881260799193,0.36229072788077515,0.9220939869408453,-0.13597098123921286,0
13,2.633366700033367,0.8306689841724771,0.5388814170774283,0.13998520301263417,0.8972531287527891,0.4403357008136732,-0.032269080127308766,0
14,2.833366700033367,0.978688419483999,0.20213226698374925,0.03621497220656995,0.9979043217942649,0.06426557941859415,-0.007543198679635182,0
15,3.033366700033367,0.9793252823620315,-0.2015128942683446,0.017735410063549874,0.992848693829654,-0.11890026007182591,-0.010686407984092676,0
16,3.233366700033367,0.9582319264357382,-0.2767318285967691,0.07218774273200956,0.9829708354153947,-0.1837333548207323,-0.003223515019425274,0
17,3.433366700033367,0.9877369335956364,-0.046772367284594725,-0.14895669058382308,0.9974546648501982,-0.07084215941492455,0.008098149048361597,0
18,3.633366700033367,0.958117822005143,-0.05429901491822751,-0.28117940204615205,0.9946770843668993,-0.0834765306573015,-0.06040833274296884,0
19,3.833366700033367,0.7868742244631199,-0.6159328637499609,-0.038153141788529035,0.9026809359392214,-0.43022638695431714,0.008507870481252443,0
20,4.033366700033366,0.5301900534489139,-0.8327966359998662,0.1592114012599111,0.6348320461116174,-0.7647832342670277,0.1099767148709312,0
21,4.233366700033367,0.2869488982589852,-0.9471868699800441,0.1431690019709634,0.38880893197840233,-0.9022441125517234,0.18650248196623895,0
22,4.433366700033367,0.14272152911633035,-0.9815194947437805,0.12747567048111663,0.20207451451991104,-0.9571742121425054,0.20732442738596096,0
23,4.633366700033367,-0.18536384009006396,-0.978278372204511,0.09279910163335651,-0.003684045500615074,-0.9760172554235342,0.21766199696837582,0
24,4.833366700033367,-0.10442120079319045,-0.9920335555396617,0.07046727969948609,-0.06146353009229227,-0.9808414411194817,0.18485751770283063,0
25,5.033366700033366,-0.4552456953441316,-0.8793723815536392,0.1394832299286152,-0.11114117160637471,-0.9722889183933908,0.20567425493574282,0
26,5.233366700033367,-0.4987806277201061,-0.8568254058853103,0.1306449740350151,-0.19886619622838997,-0.9550559660164352,0.21981887492675636,0
27,5.433366700033367,-0.45444420903035854,-0.8808513474055152,0.13259473840488706,-0.16781861805698245,-0.9624452737994654,0.2133916736297768,0
28,5.633366700033367,0.21976372120789028,-0.9344807162818392,0.28008873190159156,0.1561258761777149,-0.9394239681150451,0.30513491920578906,0
29,5.833366700033367,0.7701295563023808,-0.47759459202777627,0.4228520689027314,0.6468912076435227,-0.6673335376372245,0.36904974599380513,0
30,6.033366700033366,0.936936962561411,-0.14397972352109717,0.3184634475116192,0.8918090987354341,-0.29476714711136054,0.34320381757276947,0
31,6.233366700033367,0.962197872946376,0.175954210585737,0.20788306586785715,0.9543534031627072,0.03572739527752237,0.29653521729879445,0
32,6.433366700033367,0.8950628594376466,0.40228687304277705,0.19242595831323883,0.866444271195312,0.44142621318063124,0.233274994866215,0
33,6.633366700033367,0.3122464492118335,0.9423346575220405,0.12044728385240183,0.2999120572123231,0.9461350808112353,0.12198838795963203,0
34,6.833366700033367,-0.3186617498060337,0.9458445819971572,0.06190893245065817,-0.4154277966201357,0.9093622727561034,0.0219089635353592,0
35,7.033366700033366,-0.7464279143584601,0.6654614952871225,-0.002523282922463054,-0.6359946752534618,0.7716682458782294,0.006236293166659114,0
36,7.233366700033367,-0.6344241913877733,0.7729831391096478,0.0017355212950374067,-0.6206424348264408,0.7840794411893077,-0.004732652213141896,0
37,7.433366700033367,0.4439449781570862,0.8832578860976339,0.15089189181478113,-0.1156327269366147,0.9892967522047189,0.08900004796851169,0
38,7.633366700033367,0.4365485099396538,0.8858092587075804,0.1573764774589753,0.11589732424384946,0.9888456310889784,0.09355280920077193,0
39,7.833366700033367,0.41715858373486064,0.8983544618316947,0.13761532226976725,0.13655347982097427,0.9868483026124399,0.08650765734736307,0
40,8.033366700033367,-0.16655640374522984,0.977766451811526,-0.1274038071776308,-0.48415650987566905,0.8545461091071288,-0.18799846104391038,0
41,8.233366700033368,-0.9117627872340915,-0.0217976466995738,-0.4101383698381333,-0.9169597327857573,0.24332735814179896,-0.31619083672555287,0
42,8.433366700033368,-0.8754760050200583,-0.23980605283758266,-0.4195650386490488,-0.9237440140328765,-0.009415158000889384,-0.3828947000654972,0
43,8.633366700033367,-0.857063924820306,-0.3051610496463464,-0.41511222886148935,-0.9127704179456342,-0.1257267612487501,-0.3886424393054004,0
44,8.833366700033368,-0.8422101416942374,-0.42046752533377385,-0.3374746469989492,-0.9037493374502921,-0.23674814385424384,-0.35663349736070593,0
45,9.033366700033367,-0.8435863714954814,-0.47130985401218556,-0.25735006380045805,-0.9062440505597942,-0.31739795423422396,-0.27924945742634216,0
46,9.233366700033368,-0.7638614208478203,-0.6364153470510292,0.10719718176457681,-0.8903901423066081,-0.4304952319826371,-0.14791636056715918,0
47,9.433366700033368,-0.8934447074539744,-0.443842571931879,0.06899511622844871,-0.8959234573920499,-0.42773212144261574,-0.11985987977999757,0
48,9.633366700033369,-0.9166089623700219,-0.3986329079516059,0.030328448707423506,-0.9386489877015313,-0.30440365975874745,-0.16210024618232952,0
49,9.833366700033368,-0.8916455042970929,-0.4526800530001723,0.007004590105380391,-0.9338135614139285,-0.31447626069272766,-0.17057817556813992,0
50,10.033366700033367,-0.766575720336757,-0.6253305239998558,0.1460253428150339,-0.8980657360299992,-0.42920509510297206,-0.09623367449362244,1
51,10.233366700033368,-0.7749241466185225,-0.613772973390665,0.15091489032808014,-0.8833654355190277,-0.4644633500928826,-0.0627638729746232,1
52,10.433366700033368,-0.77457867363952,-0.6178576827923322,0.13520267067381503,-0.8684672275899415,-0.4932992160683234,-0.04919916695045155,1
53,10.633366700033369,-0.7921481483327764,-0.600436437947172,0.10944128598598316,-0.8733375096151497,-0.4840443809654013,-0.054613474116103664,1
54,10.833366700033368,-0.830515104629835,-0.5513743766559775,0.07893641586065536,-0.8986366963170745,-0.4314751136836657,-0.07925474310097684,1
55,11.033366700033367,-0.8490287830601044,-0.5253274101956449,0.05640246122834631,-0.9110599318761974,-0.40053797157325144,-0.09766848958453238,1
56,11.233366700033368,-0.8568634506952555,-0.5122667963118841,0.05803237250861566,-0.9181930863586911,-0.38323257894928114,-0.1002708661326131,1
57,11.433366700033368,-0.8509759897420586,-0.5214550574823247,0.0626457333633294,-0.9167182596223635,-0.3878604231274823,-0.09587452553371631,1
58,11.633366700033369,-0.8456854200478944,-0.5269186384094202,0.08469308599395486,-0.9169771807295728,-0.3922002507174071,-0.07301926703581375,1
59,11.833366700033368,-0.8048014264021057,-0.5922097394845607,-0.039777990406314856,-0.9168055916795171,-0.38770588890781926,-0.0956642606795695,1
60,12.033366700033367,-0.7703798935245417,-0.5930593109266173,-0.23408432962580356,-0.9007371957297557,-0.3682576747117236,-0.2303449353574113,1
61,12.233366700033368,-0.8882638658763438,-0.38246806300564656,-0.254372729196982,-0.895315584612266,-0.36063868747015304,-0.2614378340068658,1
62,12.433366700033368,-0.7930627462368998,-0.5450794553753938,-0.2719188626389333,-0.8895789365083338,-0.36377331586861195,-0.276257652170319,1
63,12.633366700033369,-0.800544755238587,-0.5363945403222544,-0.2672246095936309,-0.8963922351363105,-0.34142825254783693,-0.2826795166782692,1
64,12.833366700033368,-0.7698716124267077,-0.5079840911410259,-0.38632869881375304,-0.9143398823832074,-0.3059029318543634,-0.26534124399792686,1
65,13.033366700033367,-0.6603907402278605,-0.3763220593386013,-0.6498198041583936,-0.9216742485332609,-0.2825581352560509,-0.2658523646523999,1
66,13.233366700033368,-0.6421214294290002,-0.34107574632106913,-0.6865474529408608,-0.9193358154379825,-0.2390656588351324,-0.3125208300557,1
67,13.433366700033368,-0.4385139794275897,-0.2848018053018236,-0.8524044940891629,-0.8415572204235844,-0.2807266564964135,-0.4614910498430882,0
68,13.633366700033369,-0.46560207580989016,-0.2756478849917195,-0.8409714326308079,-0.8557724142736716,-0.2540335101837607,-0.4506889733196591,0
69,13.833366700033368,-0.8040244549156655,0.041519853038522424,-0.5931448201756688,-0.9109452047261573,-0.14314150122976627,-0.3868970723746932,0
70,14.033366700033367,-0.9227138574524834,0.06500498608636028,-0.379965115568615,-0.9196205914993705,-0.11952209159365897,-0.3741823583647749,0
71,14.233366700033368,-0.8616493270260925,0.05215013360500089,-0.5048175916115268,-0.9259562218101681,0.021290548898589026,-0.37703022135982095,0
72,14.433366700033368,-0.8756230079040744,0.0507083640383112,-0.4803259412582041,-0.9368876680407867,0.06828269388554793,-0.34289790198954173,0
73,14.633366700033369,-0.9974625651355056,0.04973015127000948,0.05094451106801942,-0.9885771721044949,0.11163771184421335,-0.10125312878162514,0
74,14.833366700033368,-0.9988726022276526,0.03671714799162441,0.03008945932247931,-0.9904061131555444,0.10915215025555394,-0.0847439621372314,0
75,15.033366700033367,-0.99794461784521,0.034692811960025854,0.0538790173637569,-0.9921936475587427,0.09970187060156192,-0.07490862929347449,0
76,15.233366700033368,-0.9956075706083963,0.09330001560182989,-0.007789251308406627,-0.9744789810413298,0.15086823948614522,-0.16622120750073713,0
77,15.433366700033368,-0.8770633681507334,0.18698907380837648,-0.442487213967112,-0.9460559021515935,0.22096430558809632,-0.23696625426440945,0
78,15.633366700033369,-0.7195004035393249,0.5860174122063245,-0.372696608379727,-0.8740319970995029,0.3755633077862586,-0.3082535804997229,0
79,15.833366700033368,-0.6335324374619742,0.658955292497111,-0.40548066929699234,-0.7898779600872536,0.5120064454519048,-0.3375532668840646,0
80,16.033366700033366,-0.5515815302191943,0.737597991462497,-0.3894958517257174,-0.705554293804632,0.6328905320483037,-0.3188145431712019,0
81,16.233366700033365,-0.5487820349953774,0.8283223554925585,-0.11278454440920567,-0.5971194766476435,0.7534018937452124,-0.27537958731389645,0
82,16.433366700033368,-0.5848899192382038,0.807062205674397,-0.08095911650645035,-0.5949351169210965,0.7695126528662392,-0.2321690843606104,0
83,16.633366700033367,-0.7988129493258923,0.5965027468503261,-0.07798939023537214,-0.6513058587481914,0.7272337973530507,-0.21663721367240488,0
84,16.833366700033366,-0.8516843662179472,0.5203562991204537,-0.06215353815832778,-0.7455320456742704,0.6342585211371912,-0.2046902470505149,0
85,17.033366700033366,-0.8008492472270764,0.3823066138194342,-0.46095784649547217,-0.853609102670138,0.4754949906573338,-0.21273460860533316,0
86,17.233366700033365,-0.8618316336254654,0.036097788562138834,-0.505908277203867,-0.9180910740311712,0.264926132961721,-0.29482693882723643,0
87,17.433366700033368,-0.840802071970039,-0.07638202190629721,-0.5359269189921286,-0.931903705046626,0.11806998838820432,-0.3429503788631537,0
88,17.633366700033367,-0.8359219187503304,-0.1235768999755126,-0.5347553604642113,-0.9376499544184783,0.029420908631750765,-0.34633361533975876,0
89,17.833366700033366,-0.8816775121965545,-0.2894105280339992,-0.3726745372975953,-0.9522060826545637,-0.04084498512924395,-0.30271317008918214,0
90,18.033366700033366,-0.8806573079388854,-0.4708639511684933,-0.05224792305757217,-0.9760278575538679,-0.1334963500560948,-0.17189632282427456,1
91,18.233366700033365,-0.8751308100190622,-0.48388531056664585,0.0010351681991840422,-0.9780010547949869,-0.15109331334918394,-0.14382192976406238,1
92,18.433366700033368,-0.8876007419486728,-0.45964198059642475,-0.029902718364082426,-0.9793083512409995,-0.13464727687631525,-0.15108032307163094,1
93,18.633366700033367,-0.9007260394082418,-0.42558637041754965,-0.08699909911463968,-0.9817224405348379,-0.11217378495580359,-0.15374684295624055,1
94,18.833366700033366,-0.8982071142041105,-0.4233963590531506,-0.11815034123378383,-0.9808088580353558,-0.11693032235078853,-0.15601693406269235,1
95,19.033366700033366,-0.8922054909428992,-0.4312011541168738,-0.13429417939589386,-0.9783916421072745,-0.13311736292166224,-0.15820733972674583,1
96,19.23336670003337,-0.8821427761024917,-0.4497175379012227,-0.13992233086341735,-0.9742133007871091,-0.15778574721197225,-0.1612826790025683,1
97,19.433366700033368,-0.8814610693749076,-0.450238342061157,-0.14251953730792516,-0.972430116590105,-0.16341539165165547,-0.16635828239041975,1
98,19.633366700033367,-0.8860337824826422,-0.4412786223132872,-0.14218760068581734,-0.9722001890993787,-0.1633054502110363,-0.16780382071485464,1
99,19.833366700033366,-0.8951607253872806,-0.4236761922550339,-0.13851267032439013,-0.9746287714071586,-0.15150339336099167,-0.1647588533144048,1
100,20.033366700033366,-0.9042448675274177,-0.4061260800480181,-0.13191977355633144,-0.97792347325958,-0.13828072750394277,-0.15666563391152577,1
101,20.23336670003337,-0.7855419164131101,-0.6107413682594368,0.09959356733549148,-0.9799440682778816,-0.15077534924448047,-0.13029358045275874,1
102,20.433366700033368,-0.7738732336478137,-0.6010071929352959,-0.19977630561083123,-0.980095682871869,-0.15551272040439443,-0.12340278039148694,1
103,20.633366700033367,-0.8890199997270953,-0.13692612409469102,-0.43691495353860454,-0.9820638543927418,-0.1356849198248284,-0.13092054241944567,1
104,20.833366700033366,-0.8668231456892054,-0.09795858182195871,-0.4888985072025702,-0.9779316836480038,-0.09669191439743247,-0.18520339037809316,1
105,21.033366700033366,-0.8603268239570903,-0.07200734257242847,-0.5046312501179087,-0.9779148461545193,-0.08734044889978548,-0.18987943452772044,1
106,21.23336670003337,-0.8641791343638119,-0.06091083597660169,-0.49948402756328897,-0.9805858036254129,-0.08164532870613346,-0.17828494616419696,1
107,21.433366700033368,-0.8942167775529966,-0.42292700002194217,-0.1466598356578072,-0.9810857804815685,-0.11250531049247975,-0.1575222093797031,1
108,21.633366700033367,-0.9102855616958085,-0.38861646600239447,-0.14267949579374303,-0.9774370068563683,-0.16329906054853474,-0.13397878358766468,1
109,21.833366700033366,-0.9132775973802945,-0.38616344668486247,-0.12962184448519493,-0.9753414422657771,-0.19418565863909137,-0.10488565668296179,1
110,22.033366700033366,-0.9011370542228685,-0.4224212040674624,-0.09753120454873009,-0.9696769008980711,-0.23526217249607037,-0.06616961581527873,1
111,22.23336670003337,-0.9234137826795672,-0.16742132742758242,-0.3453651474596121,-0.9600375802467228,-0.2793065596168058,-0.017767674834979045,1
112,22.433366700033368,-0.9221248375043598,-0.19389305262897275,-0.33480034079996995,-0.9517169813025137,-0.30687943253561406,-0.007733135654464235,1
113,22.633366700033367,-0.9188183552815314,-0.17090821275580145,-0.35575723859165453,-0.9604360868033631,-0.27702222430791645,-0.028656768927034625,1
114,22.833366700033366,-0.9267449444691435,-0.1316901222737912,-0.3518544011326254,-0.9686260178351841,-0.2469991069605285,-0.027478695992630336,1
115,23.033366700033366,-0.9945767575879809,0.049593740522130565,-0.09141955024393215,-0.9783581160801432,-0.20576547579601176,-0.021816637471295995,1
116,23.23336670003337,-0.9925101662165943,0.08138841963017261,-0.09110156478794024,-0.9894287879108717,-0.1434181061061371,-0.021492335707228135,1
117,23.433366700033368,-0.9900566858110806,0.1146375348361803,-0.08152296907904712,-0.9956863241549817,-0.0900142554921628,-0.022498393252246805,1
118,23.633366700033367,-0.990181234816308,0.11450034684435756,-0.08019222400066851,-0.99681487496537,-0.0740752242313023,-0.029546001469848242,1
119,23.833366700033366,-0.991500137264886,0.10534985964085272,-0.0763471340481443,-0.9977899192800171,-0.05866493174975027,-0.03120421070903708,1
120,24.033366700033366,-0.9893600801198474,0.10179101688773315,-0.10394816374621911,-0.9968006692335356,-0.0450209694410609,-0.06604194217436693,1
121,24.23336670003337,-0.9902792720783788,0.06298589717728563,-0.12401507992453412,-0.9928840008755122,-0.0760603492724859,-0.09163069395122757,1
122,24.433366700033368,-0.993254868295936,0.03859419735160695,-0.10934008659777258,-0.9911897474720389,-0.10151822316046419,-0.08507017616449504,1
123,24.633366700033367,-0.957139035299107,-0.08807354068741438,-0.27591288215209664,-0.9853043058975508,-0.15048982545156347,-0.0807975074819988,1
124,24.833366700033366,-0.8777441854793421,-0.4547245370764917,-0.15096602345487176,-0.9797075567935609,-0.18184799396647502,-0.08428766369974285,1
125,25.033366700033366,-0.8828872631977905,-0.4455036605270588,-0.1484471924291825,-0.9765330966536547,-0.1943589007474775,-0.09277784671060492,1
126,25.23336670003337,-0.894017734304849,-0.4187965398143843,-0.15919091992925946,-0.9800899529158802,-0.17368738816690016,-0.09621005864829407,1
127,25.433366700033368,-0.9055843884199442,-0.39069749895773953,-0.16514351261324997,-0.9845782543834007,-0.13898722702832267,-0.10624599624603658,1
128,25.633366700033367,-0.8930515466327504,-0.420482187359418,-0.16016761586004735,-0.9799847048158467,-0.17240142182393844,-0.09953757119842983,1
129,25.833366700033366,-0.882140840033127,-0.4439633347874831,-0.1572389764340452,-0.9745058851507526,-0.2005119351249319,-0.10066401382323181,1
130,26.033366700033366,-0.8789175821601357,-0.4494328111704387,-0.15973112412181373,-0.9706757111232508,-0.21637714586424336,-0.10473583237371716,1
131,26.23336670003337,-0.9052531261976746,-0.39923447553883795,-0.1453568403982647,-0.9699142579963402,-0.21693623550059882,-0.11047625021803456,1
132,26.433366700033368,-0.9055144079048916,-0.3968860290917577,-0.1500837665719721,-0.9724670100715702,-0.19908426879703908,-0.12113367921436784,1
133,26.633366700033367,-0.902218017925039,-0.4090405476051363,-0.13670581021414083,-0.9745966180339383,-0.18973937194361742,-0.11899749094519514,1
134,26.833366700033366,-0.894831052552861,-0.42868366900096666,-0.1245299133502016,-0.9739156331357295,-0.1975552351379413,-0.11162557325014719,1
135,27.033366700033366,-0.8926882610875813,-0.4329470770919654,-0.12515788810120795,-0.9743722399553892,-0.1945468749123446,-0.11291701141173369,1
136,27.23336670003337,-0.8926038985490505,-0.43171851199910866,-0.12991307360043572,-0.9746527247541661,-0.19143605705789948,-0.11577695015591111,1
137,27.433366700033368,-0.891451546737025,-0.43334148308376447,-0.13239825851924716,-0.9741777363578036,-0.1927874124767043,-0.11751915407848763,1
138,27.633366700033367,-0.8909315380157338,-0.4351178497599849,-0.13005172582156097,-0.9738517667160287,-0.1948368263532836,-0.1168389813403465,1
139,27.833366700033366,-0.8871201453370458,-0.4453722944788904,-0.1210841321056867,-0.9720628085804847,-0.20737368002074621,-0.10995477710983498,1
140,28.033366700033366,-0.8986545783669245,-0.43839700178853547,0.015100251752477796,-0.9708875554440226,-0.2264300042564243,-0.07814606744018354,1
141,28.23336670003337,-0.8881134314618094,-0.4544776263809424,0.06859023236784431,-0.9681570884760937,-0.2479995010877794,-0.0341774705574648,1
142,28.433366700033368,-0.8902601125830835,-0.4501211056577829,0.06948325111111499,-0.9650671572395505,-0.26129939513797296,-0.01918353768475577,1
143,28.633366700033367,-0.9231281683025608,-0.38442087708486544,0.007414455317946114,-0.963424473550604,-0.2678488908961812,-0.008381850000284458,1
144,28.833366700033366,-0.9127178121803327,-0.4082111509633884,0.017602600884334043,-0.9623051746645921,-0.2717526325364459,-0.01092050929491353,1
145,29.033366700033366,-0.8909414294579668,-0.4516840462575679,0.046956273614780476,-0.9605941069706908,-0.27784499455999423,-0.007817969758074656,1
146,29.23336670003337,-0.8918178911562863,-0.45068306676057307,0.039314403834210795,-0.9591337027438527,-0.2827424925898245,-0.010918935156871309,1
147,29.433366700033368,-0.8907443855019624,-0.45267072521936824,0.04078791764851892,-0.9582739758217259,-0.28581880326415465,-0.004312651558964019,1
148,29.633366700033367,-0.8915096202795755,-0.45154471535082186,0.036303815057267555,-0.9599630667175492,-0.2800957406165533,-0.004157718930236816,1
149,29.833366700033366,-0.8933835866391716,-0.44773709288011543,0.03737997837068318,-0.9644025134514453,-0.26439464183089084,-0.004823424058700842,1
150,30.033366700033366,-0.8902675737236938,-0.4538060333902805,0.03851923201087281,-0.9650905600137006,-0.26186183971533666,-0.005346762884356587,1
151,30.23336670003337,-0.8833828332451344,-0.46699919665926454,0.03932582163668638,-0.9633489889811955,-0.2681885942662953,-0.005796838308664107,1
152,30.433366700033368,-0.8821589768753856,-0.4695409238248153,0.03642609465633337,-0.9633166473239758,-0.26825441716706777,-0.007784899411809552,1
153,30.633366700033367,-0.9021901477967972,-0.43040774505901175,0.02832155030378908,-0.973858980026584,-0.22675829606579154,-0.013392616880964367,1
154,30.833366700033366,-0.9585496394973325,0.199993404281328,-0.20294143702925557,-0.9940763071794143,-0.043409386469073837,-0.09963895157475895,0
155,31.033366700033366,-0.870711086320341,0.07228600962448797,-0.48645342734060387,-0.9878793988088388,0.04436283285498488,-0.14874889065188926,0
156,31.23336670003337,-0.8384312126870391,0.030513744211624668,-0.5441525640905579,-0.9754693405042347,0.019221986248812536,-0.2192945074115724,1
157,31.433366700033368,-0.8082994195662921,-0.006566705342721335,-0.5887350224929189,-0.9608932749342245,0.009046197721433181,-0.2767711699093053,1
158,31.633366700033367,-0.7824831630956209,0.04390616754830345,-0.6211218462774372,-0.9425895610271848,0.07264565942292799,-0.32595632776429884,1
159,31.833366700033366,-0.7928503846878978,0.0008233097567379541,-0.6094157773321078,-0.9447521519616623,0.03607302227313202,-0.3257945801082189,1
160,32.03336670003337,-0.8201770430764602,-0.04635492476182468,-0.5702287602012724,-0.9568092715511602,-0.001827681493787251,-0.2907106421411081,1
161,32.23336670003337,-0.8558904925571204,-0.144350806359579,-0.49660276827024386,-0.9618980103759845,0.037653002179827894,-0.2708033771236399,1
162,32.43336670003337,-0.8527623845253518,-0.19111263544589333,-0.48607846703136465,-0.9651366253096039,0.0035541689808562325,-0.26172249114060686,1
163,32.63336670003337,-0.8608274842423806,-0.19271279933334468,-0.4709966234974942,-0.9692157257117437,-0.10457831789128941,-0.22289964661274475,1
164,32.83336670003337,-0.8354604511967608,0.037792823490740604,-0.5482495207282017,-0.9801641134976247,-0.0321907546001717,-0.1955557872569541,1
165,33.03336670003337,-0.8512755471630485,0.04242633925608155,-0.5230009068248166,-0.987467860341179,-0.010768317224712916,-0.1574524313478906,1
166,33.23336670003337,-0.994523697523941,-0.08979882237750496,-0.0534676216314372,-0.9931368237011575,-0.018842230549602833,-0.11543058414775534,1
167,33.43336670003337,-0.9887883858020562,-0.12814403880286998,-0.07665920311516987,-0.9915521256739322,-0.06421856934508435,-0.11269586249183018,1
168,33.63336670003337,-0.8613146467902814,-0.0937288475478647,-0.49935156188989954,-0.9858251233190234,-0.08830045291233937,-0.1426599321761658,1
169,33.83336670003337,-0.8790745895482184,-0.2804631981986755,-0.3854455350199327,-0.9847967200526531,-0.08269933439105182,-0.15276203803567776,1
170,34.03336670003337,-0.879785679188116,-0.2921940312757728,-0.3749664075384871,-0.9853203809579352,-0.09383448647206764,-0.14261429107011941,1
171,34.23336670003337,-0.8838495497883481,-0.26435100462905203,-0.3859125803735163,-0.9868845187621031,-0.08095749973608259,-0.1396596930548496,1
172,34.43336670003337,-0.8835162638910611,-0.2358543806931348,-0.4046871909856293,-0.9872465484220908,-0.06364716371041729,-0.14592220934555453,1
173,34.63336670003337,-0.9313714615823959,-0.359677004943264,-0.05638840895888862,-0.990858695083634,-0.06890907610138927,-0.11597665975536413,1
174,34.83336670003337,-0.9393073334155599,-0.34264292234077376,-0.017249961203571383,-0.9946291174052586,-0.05076822546617231,-0.09019704037634735,1
175,35.03336670003337,-0.9866539259192166,0.07352165802353329,0.14528797703068155,-0.9989397808512257,-0.006962648684185354,-0.045506436426135013,1
176,35.23336670003337,-0.987320729457384,0.0690662925325824,0.14292524066638268,-0.9995703814912231,0.0035414161648696174,-0.029094858945144634,1
177,35.43336670003337,-0.9867381412683509,0.05073843873241935,0.15418641769389693,-0.9999788743937981,-0.003149072772045509,-0.005686308713884935,1
178,35.63336670003337,-0.9891012228573122,0.020111348450658085,0.14585713765759362,-0.99958653253404,-0.02813939478661343,-0.005910874522277365,1
179,35.83336670003337,-0.9914785702624866,0.08560497640357811,0.09819385278721997,-0.997422280009232,0.04468048462904743,-0.05614667963912682,1
180,36.03336670003337,-0.9865805008932478,0.139489104274212,-0.08486286022758276,-0.990810266344915,0.11396241946279835,-0.07285316091772413,1
181,36.23336670003337,-0.9937716287204527,0.10553533738503022,-0.03578047670625141,-0.9922824617132074,0.1225489026221247,-0.018901921661311858,1
182,36.43336670003337,-0.9936157072595982,0.08976356716455906,-0.0683398002404338,-0.9903936496476575,0.13272001173613523,-0.03880486080832341,1
183,36.63336670003337,-0.9975231817837806,0.040022353108841655,-0.057842139099396624,-0.9944934670911157,0.1009671211373457,-0.028078183031108723,1
184,36.83336670003337,-0.8649650029623375,0.48055241507798846,-0.1445853381677288,-0.9932372670729699,0.11593973122564522,-0.006140848536112114,1
185,37.03336670003337,-0.8285960098880856,0.5485195218613949,-0.11204903629433947,-0.9748371154418667,0.22231835500752492,0.016344643885041723,0
186,37.23336670003337,-0.7756446973178533,0.6291084885524044,-0.050968746835731965,-0.9308296375821972,0.3643107424323889,0.028876785606385555,0
187,37.43336670003337,-0.7645123989907456,0.6439737964617746,-0.028610160083859484,-0.9148743681158157,0.40258166251176863,0.03054333927303234,0
188,37.63336670003337,-0.9187401526184922,0.3934263767246298,0.033648448164504144,-0.920537659455325,0.3890377490065034,0.03549714597633002,0
189,37.83336670003337,-0.9677565189239131,0.2483807534464401,0.041884620060938745,-0.9785098390974596,0.20020356018739793,0.049366276725661545,0
190,38.03336670003337,-0.7540683100307672,-0.643970357466871,-0.12916331720474425,-0.9539290761198019,-0.28922848216959535,0.07978848811133821,0
191,38.23336670003337,-0.568274383334165,-0.822836770700875,0.0019682552502803432,-0.6482786840092634,-0.7560121254011094,0.09044564171763697,0
192,38.433366700033375,-0.20760392339180056,-0.9779179745114444,-0.02402178427522707,-0.24819214303532677,-0.9676377797852389,0.045582751867624824,0
193,38.63336670003337,0.17347104636500882,-0.9842830351636929,-0.033086292659923355,0.003356251522125542,-0.9999415990951827,0.010272973020966214,0
194,38.83336670003337,0.4456578698786935,-0.8951971716872252,-0.003329687429490175,0.1781510836044501,-0.9839777464034546,0.0070700773219697435,0
195,39.03336670003337,0.5185312102569425,-0.8549083162714805,0.01603604562643058,0.3093261948161347,-0.9509544591821889,0.0017093162612937603,0
196,39.23336670003337,0.4687289806587681,-0.8830187006622925,0.02389805371299078,0.4194144570645478,-0.9077593707397934,-0.008027330773378317,0
197,39.433366700033375,0.561088163854018,-0.8252012021325782,0.06498498581883726,0.4162930729698932,-0.9089239565683199,-0.02360759567330625,0
198,39.63336670003337,0.5780903149430239,-0.813157069188795,0.06772863941763972,0.43766725346840885,-0.8989357682041973,-0.019022615081777626,0
199,39.83336670003337,0.030747106596086038,-0.9982276507117323,0.05095265243836905,0.29970609333731796,-0.9535734170138113,-0.02956342302722501,0
200,40.03336670003337,0.03282677112156923,-0.9980656605509962,0.05279526803261712,0.14256554539257144,-0.9888308094071706,-0.04345912601604881,0
201,40.23336670003337,-0.07346123729433407,-0.9903103694348427,-0.11785083285667175,0.05312174103141515,-0.9946119440231879,-0.08902337578527691,0
202,40.433366700033375,0.1715662879896338,-0.9660850348527775,-0.19298889672456784,-0.03052116421176404,-0.992380507667962,-0.11937079431685281,0
203,40.63336670003337,0.16764474853182487,-0.962847011262362,-0.2117094027029464,-0.04419033606049372,-0.9923903630190636,-0.11492859342109739,0
204,40.83336670003337,0.2626861648336934,-0.9415213436985045,-0.2110297092002171,0.07300191557502728,-0.9921247767376976,-0.10177989833729692,0
205,41.03336670003337,0.1957907876468487,-0.9470714075737579,-0.25440463130392826,0.1614825539167412,-0.9821470665506656,-0.09649105889381368,0
206,41.23336670003337,0.27255074809348584,-0.9254881633445565,-0.26303564249508216,0.27284056382186206,-0.956722957794003,-0.10118897550258651,0
207,41.433366700033375,0.3551700083116408,-0.899538566876635,-0.2543317359226703,0.3827304950443222,-0.919814876442188,-0.08635948841193085,0
208,41.63336670003337,0.7191363814220946,-0.6674275125529896,-0.19334782233701295,0.5652233916668187,-0.8193760063448404,-0.09563199119038696,0
209,41.83336670003337,0.7920558157558681,-0.5745996369985915,-0.20611366254664737,0.6509452087378319,-0.7524528236968534,-0.10042451559202416,1
210,42.03336670003337,0.7700501575573439,-0.6060556846975487,-0.1992969189217329,0.7177261359393675,-0.6835598167232559,-0.13272215621671343,1
211,42.23336670003337,0.7382675296750075,-0.617988086029064,-0.2702809282093285,0.7331283756664473,-0.6649878571297628,-0.14252696117802618,1
212,42.433366700033375,0.693885763215039,-0.6649478132127061,-0.2763457133937909,0.6855103594337619,-0.7136957808120941,-0.14392317242199001,1
213,42.63336670003337,0.6886928348664177,-0.6348934894285253,-0.35016058642418413,0.6256145391926297,-0.7671401473835249,-0.14178308299362602,1
