,timeStamp,x_gaze,y_gaze,z_gaze,x_head,y_head,z_head,fixations_head
0,0.033366700033366704,-0.9548998458353755,0.0418520620336752,0.29396375512485495,-0.9321913624303693,-0.03085667175120412,0.36064820756334043,0
1,0.2333667000333667,-0.9983896185150982,-0.050000508650709444,0.026797738261785744,-0.9284512532733448,-0.08590578742833058,0.36138409757690515,0
2,0.43336670003336675,-0.8856274256028807,-0.44394316510286924,-0.13630307838952557,-0.9261226187506144,-0.21528823587166376,0.3097545327090002,0
3,0.6333667000333668,-0.8253053527160328,-0.5555986412484524,-0.1009020545932485,-0.9241127129928662,-0.3247677591236149,0.2013494383374092,0
4,0.8333667000333668,-0.9594519645573014,-0.2782766567016602,-0.04487794605462249,-0.9444307506480859,-0.3272442250783246,0.03101248753615932,0
5,1.0333667000333666,-0.9316374221144494,-0.2791641137833998,-0.23263514629451978,-0.9556194058127541,-0.2909132174416624,-0.04648710737203508,0
6,1.2333667000333668,-0.960284686938165,-0.2601070712537189,-0.1009833229592054,-0.963947240915009,-0.263566773643527,-0.036582407841525,0
7,1.4333667000333667,-0.9810246537646454,-0.18008560339677215,-0.0718317767786513,-0.9776242644969836,-0.20991605090860363,-0.013639979386676016,0
8,1.6333667000333667,-0.9594545903654447,-0.27106948744783305,-0.07725426849984345,-0.988890504078274,-0.14861017857332823,0.0032535777570346924,0
9,1.8333667000333667,-0.7318952506305572,0.07917280945402658,-0.6768020451709571,-0.9981741619666502,-0.04636145528939911,0.03871637696924454,0
10,2.033366700033367,-0.8771730583667234,0.09671981614415684,-0.4703325449515578,-0.9989128940516047,0.044783964551821716,-0.01293934374182153,0
11,2.233366700033367,-0.8486661106383867,0.06592565796457417,-0.5248043828664655,-0.9902378252150341,0.10219801357532597,-0.09478721187299852,0
12,2.433366700033367,-0.9074069144198563,-0.019453311054901834,-0.41980264452720756,-0.9708427003412444,0.11088716195734914,-0.21252879453656467,0
13,2.633366700033367,-0.9494474058786134,-0.00862661333443556,-0.3138075923440189,-0.969943318216546,0.12939498888412795,-0.20607497737171446,0
14,2.833366700033367,-0.9508132525520046,-0.23665763534829448,-0.19986826262023666,-0.9956366698111402,0.02410949312106449,-0.09014629259613513,0
15,3.033366700033367,-0.9543283509433029,-0.2830900256139413,-0.09548526579391318,-0.9913532469981682,-0.13121921872445144,0.0005062642921476921,0
16,3.233366700033367,-0.9057157949134118,-0.3144505194139505,-0.2842530029474867,-0.9552624067696133,-0.2524841538459871,0.15403079649668183,0
17,3.433366700033367,-0.8097104313206325,-0.5866327124997902,0.015201251122655133,-0.8957709377347327,-0.35977147415165384,0.2610726211163931,1
18,3.633366700033367,-0.7906791502898576,-0.6105165231735092,0.045782706659163154,-0.8905433939236708,-0.36466246066084895,0.2719443938081551,1
19,3.833366700033367,-0.7855900540539491,-0.6168097590256341,0.048928398116559975,-0.8907843063555458,-0.3638233752988957,0.2722790317611476,1
20,4.033366700033366,-0.8031354554691024,-0.5901807449652092,0.08160960997792298,-0.8946772218853845,-0.3562959127751686,0.26945480359266183,1
21,4.233366700033367,-0.9142999694153497,-0.3594602587844941,0.1866651769390184,-0.9084930166549888,-0.3328969227793471,0.2526263594583114,1
22,4.433366700033367,-0.9090720607337768,-0.35609120804530414,-0.21630312051859182,-0.9197972502582593,-0.3128899243777434,0.23679719939271887,1
23,4.633366700033367,-0.9184525801736338,-0.2918545909882342,-0.26695646778358045,-0.929336028670704,-0.28781088007203987,0.23129946633471146,1
24,4.833366700033367,-0.9700123012236784,-0.24305130927413068,0.0014820711437091702,-0.9272714201414444,-0.2949623663339213,0.23057518477833344,1
25,5.033366700033366,-0.860704241078466,-0.4911556970454749,0.1339936216740036,-0.9280377606064281,-0.2937440717296916,0.22904221273002903,1
26,5.233366700033367,-0.8850481409882243,-0.43629416155594475,0.16228737697517906,-0.930261155438302,-0.28924307739138444,0.22572688112796252,1
27,5.433366700033367,-0.9440588812517795,-0.2811308329733274,0.17238991699447476,-0.9332348776788677,-0.27989990808457094,0.22523033662887698,1
28,5.633366700033367,-0.9099718461806268,-0.37684422798449646,0.1730308267141745,-0.9374927169479137,-0.2630110814836148,0.22788720167319246,1
29,5.833366700033367,-0.9061625934006283,-0.38446064656053563,0.17623667486565556,-0.9399291514882824,-0.25543817828498155,0.22646087356752703,1
30,6.033366700033366,-0.9083010891803505,-0.3777060145796798,0.17979793642899183,-0.9410468245968597,-0.24859238073284276,0.22941818183776233,1
31,6.233366700033367,-0.9109539206468418,-0.3727823810444903,0.1766246042909892,-0.9434129188179211,-0.24283880450432976,0.22583485035387899,1
32,6.433366700033367,-0.9162193037409637,-0.36079956552700504,0.17425802985213687,-0.9469285757513917,-0.23057949783591875,0.2239628710370918,1
33,6.633366700033367,-0.9223466624079333,-0.3453243138590391,0.17328517710043648,-0.9510360841411141,-0.21392752265401674,0.22308155843245223,1
34,6.833366700033367,-0.9387464294468766,-0.29944305748829714,0.17055496628008546,-0.9618436899679361,-0.16284241184342071,0.21986146768791243,0
35,7.033366700033366,-0.9680393593533005,-0.16969501786980815,0.18467105797340616,-0.9705312270707369,-0.03240269266933174,0.2387869401544957,1
36,7.233366700033367,-0.8640206068332043,-0.00292830051515384,-0.5034479278174403,-0.964738929482324,0.022686793325851277,0.26222911232334645,1
37,7.433366700033367,-0.8887505841548862,0.015491599028773728,-0.4581292498017128,-0.9604652264319855,0.04176142248404546,0.27524994533526115,1
38,7.633366700033367,-0.9048215426798513,0.004904740807263812,-0.4257627501556096,-0.9570883531608367,0.028502517078570027,0.2883912113155727,1
39,7.833366700033367,-0.7631424975365032,0.10308819123270899,0.6379548207217476,-0.9575231641299982,0.032978899436332136,0.2864642776096958,1
40,8.033366700033367,-0.952498939796319,-0.045697021302756984,0.30109392543016167,-0.952444043325253,-0.03277449352194596,0.30294583164094446,1
41,8.233366700033368,-0.937773695919856,-0.16959248440487953,0.30301631057452044,-0.9404957454818744,-0.15239456262258955,0.3037163973406166,0
42,8.433366700033368,-0.9327766046593586,-0.19336924595944502,0.30419753535693667,-0.9363123207450601,-0.17394245223099958,0.30506271704825993,0
43,8.633366700033367,-0.9261856284823182,-0.22202799309525667,0.3047683577324035,-0.9300950127618077,-0.2031104446740992,0.30605459398594625,0
44,8.833366700033368,-0.8980641007481829,-0.288200165677904,0.3322973599813681,-0.8994416108339502,-0.2783825688227466,0.33690938555652844,0
45,9.033366700033367,-0.768254040504691,-0.6367455816033849,0.06588469895798267,-0.8255123914064428,-0.4350095874099124,0.35957746105098654,0
46,9.233366700033368,-0.7182724400573076,-0.6915931592223428,0.07605000967114268,-0.7814817620866084,-0.5125336520898502,0.35580262927843886,0
47,9.433366700033368,-0.792451429239259,-0.5785578423680027,0.19311021550176358,-0.7324281061477179,-0.5809885485522324,0.3549667248856402,0
48,9.633366700033369,-0.7951405861884607,-0.5907274158319584,0.13708598900094723,-0.676618209655421,-0.646524651927916,0.35241122685320325,0
49,9.833366700033368,-0.7174366777276255,-0.6364033680366274,0.28332907828668874,-0.6431642773932155,-0.6835115611001682,0.3451835136962281,0
50,10.033366700033367,-0.7026245507021297,-0.6678987577837239,0.24541799058257585,-0.5785233959723127,-0.741787115923138,0.33920871887835663,0
51,10.233366700033368,-0.26765185957166465,-0.958231236306958,-0.10077390452626687,-0.48873374342352416,-0.8075525633545317,0.3301487323294667,0
52,10.433366700033368,-0.1678479538814714,-0.9729588458156762,-0.1586762386963816,-0.4040362202679988,-0.8632801114842134,0.3024932756729526,0
53,10.633366700033369,-0.24211569791591103,-0.961214910145376,0.13208287298854685,-0.31402445414906444,-0.9075787388316835,0.2787283175729964,0
54,10.833366700033368,-0.3172367015920991,-0.9455026641441213,0.07338656048170297,-0.25438254465632265,-0.9331506283382829,0.25400674362316145,0
55,11.033366700033367,-0.0883350841126978,-0.9734302862309484,-0.21125906078352447,-0.21993069206154048,-0.9496208743594887,0.22327267112222277,0
56,11.233366700033368,-0.1095400852788232,-0.9939721700581009,-0.004504982474795482,-0.29925051563973293,-0.9370515016746912,0.17995447229385625,0
57,11.433366700033368,-0.467356242203976,-0.8814324030985884,-0.06822801214183369,-0.6465083145234669,-0.7543082238206261,0.11421953742069875,0
58,11.633366700033369,-0.8524067542292704,-0.5122045809054185,-0.10511513993628686,-0.9514750307535642,-0.29983260238413356,0.0692508223782361,0
59,11.833366700033368,-0.9034959032544507,0.2901790097026281,-0.31542240746406525,-0.9771110485925735,0.2118237308981146,0.01961391716931212,0
60,12.033366700033367,-0.3931494585091982,0.7198552872738341,-0.5720505822546027,-0.8480197564159863,0.5279408808977802,-0.04627006597193665,0
61,12.233366700033368,-0.25333077842525287,0.9192438893999019,-0.30135392564789376,-0.6237757041268864,0.7685540986901789,-0.1422268200007796,0
62,12.433366700033368,0.05584261208051361,0.9034852283190014,-0.42496593379397773,-0.27742248920085283,0.9364190814071447,-0.21483962963616005,0
63,12.633366700033369,0.2771309582917616,0.8499054431086064,-0.4481731470432536,-0.046619490162751354,0.9708711515181118,-0.2350230420338843,0
64,12.833366700033368,0.4376927511530442,0.8149576563895715,-0.37982768972271747,0.12260688638461431,0.9750782491762209,-0.1849052714081091,0
65,13.033366700033367,0.6468583388314355,0.7445508774309361,-0.16497963632236454,0.30174588469841573,0.9400879532616342,-0.15869486822176096,0
66,13.233366700033368,0.6256547986822665,0.7557974580697219,-0.1932000912556718,0.5350891943131897,0.8378618540065408,-0.10801420151991113,0
67,13.433366700033368,0.8389739083940926,0.3218570880772019,-0.4387833131380512,0.7209793944170229,0.6837786580678575,-0.1124075602305423,0
68,13.633366700033369,0.980480350738095,0.19065279508357627,-0.04806031151919797,0.8805678963274338,0.46644103472554505,-0.08386263221268908,0
69,13.833366700033368,0.9374437066042505,0.1724609941950181,0.3024177614316827,0.9528872945465279,0.2901708444340892,-0.088355446533909,0
70,14.033366700033367,0.9813858027109013,-0.10037992769502596,0.1637246968341123,0.9827307892021575,0.16694750134451056,-0.0798043090874737,1
71,14.233366700033368,0.9415016334097353,-0.08869726709221813,0.3251268507785419,0.9942726165691664,0.08068584785416434,-0.07008393465522492,1
72,14.433366700033368,0.938506866573504,0.08435756814504841,-0.33479644874316766,0.9936967861209955,0.06712998390075091,-0.0897789647650796,1
73,14.633366700033369,0.9381898917542051,0.10290811523936581,-0.3304688288297621,0.9950479218332934,0.04868270527609632,-0.08665810673125308,1
74,14.833366700033368,0.7763142459520059,0.10859581163126027,-0.6209212037192129,0.997316061234156,0.046054800144759676,-0.056917742295487884,1
75,15.033366700033367,0.9942966376095266,0.10652404660600359,-0.005179182664427673,0.9984531870705132,0.04867741141926568,-0.02686527212321311,1
76,15.233366700033368,0.9870491938554806,0.14503486197102564,0.06854763104799606,0.9936019140865127,0.09383138366989537,0.06285624680340934,1
77,15.433366700033368,0.9550729441644483,0.2813557957380754,0.0931374657677948,0.9676298561918004,0.20802466846144457,0.14289226262377394,0
78,15.633366700033369,0.8561993475713073,0.4750596470753013,0.20307882444794167,0.871796154541585,0.4226168398452722,0.24772256983508936,0
79,15.833366700033368,0.5458650966712,0.837186601706777,0.033910030356812795,0.7165531271708,0.625823694423358,0.30805246215546994,0
80,16.033366700033366,0.5419855513114359,0.83919313190059,0.04479452578740262,0.6979346784394674,0.6504365691415246,0.2996989391956534,0
81,16.233366700033365,0.8915769445573629,0.44855534124583285,0.06235910337385918,0.8428453543763089,0.4976221246281072,0.204899804018655,0
82,16.433366700033368,0.97750082964209,-0.19445115815741765,-0.08173662055813767,0.9887747906750015,-0.13125809061995464,0.07138436083912962,0
83,16.633366700033367,0.8334595681988118,-0.5373425575188381,-0.12887251086622223,0.8826535099098999,-0.46910395988875675,0.029398235668524328,0
84,16.833366700033366,0.7080513493831584,-0.6982770505373856,0.1052256970967553,0.828155313896749,-0.5599524138998979,0.02474005319830432,0
85,17.033366700033366,0.6662340493314969,-0.7343267470011056,-0.12998623061744347,0.7448953975711362,-0.6663643918892154,0.03300521018650796,0
86,17.233366700033365,0.6602783911274701,-0.7466719109730773,-0.0807062796437331,0.6709988887713089,-0.7393709366633651,0.05559774532485127,0
87,17.433366700033368,0.6608936713466208,-0.7062846599196088,-0.25373516574615274,0.59031997086524,-0.8058498992491252,0.046133197134356464,0
88,17.633366700033367,0.693849155517491,-0.7108550278910144,-0.11514546760393973,0.5348334978920772,-0.843085593615608,0.05621219947967866,0
89,17.833366700033366,0.42695607671546115,-0.8786283422740944,-0.2138240975858858,0.3587659230665044,-0.9320344787351947,0.05097786671735794,0
90,18.033366700033366,-0.008630006826263692,-0.9647296001593781,0.263101352255182,0.1753650167708678,-0.9821944322704599,0.06738848647849487,0
91,18.233366700033365,0.10195639239912474,-0.9788243447537479,-0.17750435534474024,0.07565776858623102,-0.9939365562103027,0.07978736918432744,0
92,18.433366700033368,0.1154944407757445,-0.9816423577165118,-0.15178707351637732,0.0578499093823987,-0.9922174903774011,0.11026259462583025,1
93,18.633366700033367,-0.004065283855951063,-0.9965247694396491,-0.08319770045154314,-0.05443812405325915,-0.9825348038186263,0.177937769837255,1
94,18.833366700033366,-0.36415595047790333,-0.9312006441707311,-0.015993874688460655,-0.0948601881153181,-0.9782106883032636,0.1846764576224645,1
95,19.033366700033366,-0.04232430357012623,-0.9945373564504771,-0.0954154073082585,-0.06832293383072807,-0.9802645722065408,0.18550834264121369,1
96,19.23336670003337,-0.033866727117681406,-0.992719085785705,-0.1155935184650534,-0.05853033265452173,-0.9827061562216989,0.17567814514994523,1
97,19.433366700033368,-0.017191215446813013,-0.991987261501229,-0.12516283446276655,-0.036285040447257444,-0.9838325004755253,0.17537675686309298,1
98,19.633366700033367,0.0127776744755847,-0.989385927620988,-0.14474880745813978,-0.008464209668375688,-0.9853381681647336,0.17040261592022823,1
99,19.833366700033366,0.05137148127621943,-0.9839316534471354,-0.17099553285473143,0.03525069381441792,-0.9871103805710675,0.15611049021268567,1
100,20.033366700033366,0.22872622522965502,-0.9554693066247277,-0.18644762800919576,0.1656674292756981,-0.9767593765244429,0.13599787957451145,0
101,20.23336670003337,0.511855418731574,-0.8323036257860185,-0.21277853467530933,0.3004971787649186,-0.9471614495258724,0.1121901692946957,1
102,20.433366700033368,0.5118627154545039,-0.8423658604499392,-0.16857140230767226,0.34429556807785167,-0.9318330940743271,0.11466318759661354,1
103,20.633366700033367,0.5085197131750243,-0.8477652214617183,-0.150671266644822,0.34586096672977273,-0.9293971378887809,0.12884545695091437,1
104,20.833366700033366,0.49378422629001184,-0.8577190768456585,-0.14316117868404926,0.3417610517355425,-0.9313699684271638,0.1254964757616725,1
105,21.033366700033366,0.430638331044449,-0.8999830526201259,-0.06768406630671198,0.3309254038997134,-0.9338613372730855,0.13561482146261197,1
106,21.23336670003337,0.45064781034622653,-0.8876379941619454,-0.09494915665928566,0.3511209407286772,-0.9260327979217283,0.13848228101480836,1
107,21.433366700033368,0.6694266950562635,-0.6933059026753994,-0.26682358453011273,0.4571242842015866,-0.8732448317200514,0.16876271112839566,0
108,21.633366700033367,0.7080496337944169,-0.6621472769602897,-0.24541128681799793,0.5202383857196584,-0.8355072236874239,0.17686068299635524,0
109,21.833366700033366,0.6833631861246087,-0.679140800667859,-0.2679226170330577,0.5123750632390494,-0.8414638360928514,0.1714946270840099,0
110,22.033366700033366,0.6918514827944393,-0.6615650357482057,-0.2892632524718809,0.5437162090536307,-0.8185148206629816,0.18548900875091054,0
111,22.23336670003337,0.8261628259529528,-0.5324407973273344,-0.1842872278668905,0.6635415840379979,-0.7138284006671001,0.22396781164576962,0
112,22.433366700033368,0.9280745406415777,-0.3723837943019024,-0.0028207719232932246,0.7624942387818977,-0.5934208950231896,0.25778707720576505,0
113,22.633366700033367,0.928575942974698,-0.32684302102047946,-0.17584185434320482,0.8265842380639337,-0.49774321218657097,0.2626979103580013,0
114,22.833366700033366,0.9449199775697364,-0.15143452926743708,-0.2901617123866601,0.9382791514082912,-0.259522675081056,0.22864867187742402,0
115,23.033366700033366,0.9475314423414645,-0.03204964126627401,-0.31805186097397226,0.9779285497493441,-0.11827546714709733,0.1722401389231933,0
116,23.23336670003337,0.9807529660294261,-0.1458513925827709,-0.12981136662923606,0.9758546400994541,-0.1582960868144355,0.150499402974237,0
117,23.433366700033368,0.6728565736401149,-0.4714110623108874,-0.5701189714789409,0.8315659295700888,-0.5542287884653867,0.036449345871008725,0
118,23.633366700033367,0.3330459445834899,-0.7430198890733287,-0.5805185985288923,0.41743551846150817,-0.9082432242977285,0.02901436616639533,0
119,23.833366700033366,-0.0028773562597694258,-0.8954192790071019,-0.44521459500263083,0.05925309172878357,-0.9978069141883217,0.029503103541148993,0
120,24.033366700033366,-0.3164404163543867,-0.9472906551771186,-0.05005874061108524,-0.18444846958747751,-0.9821714681341673,0.03630384621512965,0
121,24.23336670003337,-0.31502230903328127,-0.948791368468373,-0.02357719091096225,-0.3196978844653769,-0.9459315539423875,0.05483391217579514,0
122,24.433366700033368,-0.5060960111819036,-0.8624566059759328,0.00595233351226712,-0.5401191930918954,-0.8372171850840049,0.08566587566688938,0
123,24.633366700033367,-0.919590207581941,-0.3482885039155636,0.18179375170687648,-0.7110650179410694,-0.6881773955223083,0.14421654742989673,0
124,24.833366700033366,-0.9041820176808376,-0.4161627686572765,-0.09624670844304177,-0.8011348873788795,-0.5883739426065022,0.10953992827325927,0
125,25.033366700033366,-0.8989047733004558,-0.40404893717995505,-0.16945402002137555,-0.8213175135863837,-0.5627157974432871,0.09374685692888976,0
126,25.23336670003337,-0.8546229653552706,-0.43222933195175034,0.2877453591075065,-0.8566518159366613,-0.5076219374907236,0.09201975239362838,0
127,25.433366700033368,-0.8573882639612838,-0.44754887882781835,0.25413651032745904,-0.9004725546895863,-0.41858596026586475,0.11804648287481617,0
128,25.633366700033367,-0.9177980967683687,-0.3939437937490911,-0.04954736052439261,-0.9294570392205512,-0.3279303884358533,0.16903038952708282,0
129,25.833366700033366,-0.9943931609119483,0.0793906286561175,0.06985248465967825,-0.9504215994782605,-0.20497062779393244,0.23385000531739697,0
130,26.033366700033366,-0.9895667648830907,0.10395844178317368,0.09975099107692419,-0.9497161741093593,-0.15665131125073312,0.27110801411708096,0
131,26.23336670003337,-0.9897313092737564,0.07024132357794674,0.12449133265121062,-0.9421457883047845,-0.17776529239049976,0.28418447248376644,0
132,26.433366700033368,-0.9870497645093416,-0.0447932285109715,0.15403353226365304,-0.9063502230719257,-0.2925239660407681,0.30489178806463507,0
133,26.633366700033367,-0.7809237925603656,-0.6246262112962039,-0.00035549245456355737,-0.8555565958453222,-0.43773756053348317,0.2764213077961959,0
134,26.833366700033366,-0.6790089780343358,-0.5238782572172475,-0.5142940592343902,-0.8103051831657355,-0.4971432409319497,0.31024846193079125,0
135,27.033366700033366,-0.6740632853797277,-0.6198133785819503,-0.401833377202437,-0.7766633690036803,-0.5335464805496494,0.33484647876442686,0
136,27.23336670003337,-0.6262212889562484,-0.43155717038892166,0.6493114090664681,-0.7537656094335422,-0.5695835255834691,0.32773772047048033,0
137,27.433366700033368,-0.7073657482337405,-0.7055870896003728,0.042196649333758676,-0.7185417322494376,-0.6076607715539454,0.3382989295437415,0
138,27.633366700033367,-0.5626018059843001,-0.8267264150834988,-0.001625578786435798,-0.6388069326978264,-0.6993940232465344,0.32058337914530305,0
139,27.833366700033366,-0.5727311670358711,-0.8196914897879607,0.009212593278932249,-0.5740226010944369,-0.7581771568024381,0.30929832255566514,0
140,28.033366700033366,-0.3437481647460223,-0.9389007554619687,0.017394557386906255,-0.5073404441116409,-0.8040974005715272,0.3098919878969383,0
141,28.23336670003337,-0.23085288922934555,-0.9724233811714846,0.03316189508278001,-0.4340472426262808,-0.8482848430601636,0.30334108888002037,0
142,28.433366700033368,-0.09756120218442654,-0.9949919093895333,-0.02174654174117375,-0.29894929085276456,-0.9303549052819567,0.21229477552787474,0
143,28.633366700033367,0.21630648371391015,-0.9715997429693023,-0.09594500802704445,-0.16985404366761098,-0.9645654560199762,0.20189869960635481,0
144,28.833366700033366,0.185173514471086,-0.9825363015550582,-0.01825337406987232,-0.1030238360334555,-0.9760389672986984,0.1916612207084221,0
145,29.033366700033366,0.25015964828638326,-0.9653651475374153,0.07409643911347827,0.017748195848242887,-0.9822665317140199,0.18664796333912434,1
146,29.23336670003337,0.37119751578937893,-0.9245595373048492,0.08603526166890846,0.13650969531192214,-0.972018706271407,0.19116677991823458,1
147,29.433366700033368,0.3233054839760182,-0.7920073757723808,-0.5178782489670518,0.15290109385592748,-0.9667543039150254,0.20495699880568968,1
148,29.633366700033367,0.3410799453350564,-0.9314564185978778,0.12670205658571587,0.13485320119699945,-0.9600816996259575,0.24506681572635372,1
149,29.833366700033366,0.3491073320722311,-0.9312193644246408,0.10466406266707458,0.15128527013154702,-0.961077495734609,0.2311770192595221,1
150,30.033366700033366,-0.24239973480273014,-0.9655139606499858,-0.09500084398332556,0.02665747366388893,-0.977768774038694,0.20798462350070093,1
151,30.23336670003337,-0.14069133223396502,-0.8425609303426328,0.5199009787395953,-0.01942296828541501,-0.9783190317758831,0.20619073783291747,1
152,30.433366700033368,-0.11362790265662004,-0.8440707112841014,0.5240547052457493,0.0529748379411249,-0.9672062434249773,0.24840641945178268,1
153,30.633366700033367,0.08320415255359825,-0.7032237867019591,0.7060831217458715,0.3356476307623578,-0.8072253353748561,0.4855182034615872,0
154,30.833366700033366,0.6289025802504675,-0.5940417627019918,0.5015933898290673,0.4636285247550207,-0.686749494072198,0.559842588077277,0
155,31.033366700033366,0.6067485245401967,-0.6095764367758063,0.5101693794182536,0.5382161506096059,-0.623543413346732,0.5670246792643899,0
156,31.23336670003337,0.6288227511678478,-0.5356652619670603,0.5635997469263622,0.5530445683994432,-0.5551762119389018,0.6212254655606493,0
157,31.433366700033368,0.7352438881886064,-0.26056261006198855,0.6257184279841728,0.6004581163544409,-0.49726839815860036,0.6262381261923108,0
158,31.633366700033367,0.8827373688538601,-0.14931885671150708,0.44550939009108725,0.7934182382259857,-0.40318555523895927,0.4559922228470848,0
159,31.833366700033366,0.9566561610419828,-0.2418584335384138,-0.1622143263301999,0.886339454953205,-0.4134031289931634,0.20856707202220978,0
160,32.03336670003337,0.9510273911140117,-0.21973163927197795,-0.21740494026982518,0.919540639142851,-0.37836759280944016,0.10622136167620405,0
161,32.23336670003337,0.9900672720155649,-0.11348375423247493,0.08299538787764578,0.9182682801444892,-0.37709610344800176,0.12075551517349353,0
162,32.43336670003337,0.9444084901718014,-0.3275874778235372,0.0279114325077064,0.805403517892419,-0.5894295332420877,0.06243395477246954,0
163,32.63336670003337,0.02475154548737013,-0.9883692107465658,-0.15004554056751337,0.44935681416110346,-0.8922939092963569,0.04347450976846386,0
164,32.83336670003337,-0.01989738966831961,-0.9992148330344316,-0.0342609300568491,0.12564247051932942,-0.989502556425473,0.07140490479829197,0
165,33.03336670003337,-0.0024399028327928285,-0.9999885632336788,0.004113426310210591,-0.03806230049539022,-0.9944970551507265,0.09760567902295278,0
166,33.23336670003337,0.039752410789487214,-0.9981456167591605,0.0460985203764654,0.005205976863783546,-0.9903206271975157,0.13870094863415,0
167,33.43336670003337,0.32967799847788726,-0.9439918230122192,-0.013851187879773762,0.001279417878684297,-0.9895698211133944,0.14404836768077853,0
168,33.63336670003337,0.31669285364746713,-0.9485258856963529,-0.0020689641306073626,-0.004324234193703758,-0.9832662785420805,0.18212283349609382,0
169,33.83336670003337,-0.44127187853141203,-0.827225009249481,0.34781879375553393,-0.1481434508416763,-0.9648779836791348,0.21694237618318662,0
170,34.03336670003337,-0.4855893348509314,-0.873269422099976,-0.04004390470725453,-0.32376295941741556,-0.9239530258803818,0.2036868971626877,0
171,34.23336670003337,-0.7491187438415895,-0.6609105730530375,-0.044925739302819366,-0.47565613886047486,-0.8603230032993805,0.18329093692345858,0
172,34.43336670003337,-0.8221629624974437,-0.5689358272038495,0.018975974844489592,-0.6165857985336147,-0.7614943988706798,0.19987054193964354,0
173,34.63336670003337,-0.9183575020241355,-0.38354167466333866,-0.09754630834855679,-0.7501871118545613,-0.6322361918656324,0.19364063339742382,0
174,34.83336670003337,-0.8013161127763124,-0.3814059830552352,0.4608925726183164,-0.8462433892853195,-0.5065538407728386,0.16515245226511494,0
175,35.03336670003337,-0.8370398109240003,-0.5442849216145917,0.05584155290921093,-0.8934065703290804,-0.41624882888937115,0.1690018122419301,0
176,35.23336670003337,-0.9100522621395838,-0.4030275567034342,-0.09681770867091812,-0.9103913378478985,-0.36638842878794653,0.19221636564510805,0
177,35.43336670003337,-0.9082092535251385,-0.40821137147823283,-0.09230074759811675,-0.9101538884058693,-0.3626145712561409,0.20032616437300835,0
178,35.63336670003337,-0.9949182236693638,0.01977445471323945,0.0987253723790999,-0.9198118730850333,-0.3170571012447137,0.23112964474965644,0
179,35.83336670003337,-0.8201284681698732,0.33068095868755726,0.466946891261539,-0.9360810692101511,-0.23325031480204622,0.26333727900000575,0
180,36.03336670003337,-0.9794836810589053,0.15120771165818994,0.13322141897754494,-0.9541435445662192,-0.0980407601681736,0.28283936378845564,0
181,36.23336670003337,-0.8351399085758459,0.5316994462973762,-0.14084399849120988,-0.9573918678937786,0.10919313653127588,0.2673530815706527,0
182,36.43336670003337,-0.7422244121123449,0.4971664626529071,0.4493644739826236,-0.9371517545757734,0.23729892950441914,0.25580423560138005,0
183,36.63336670003337,-0.7789396591047123,0.6152409557452675,-0.1213736950392662,-0.9031607798981427,0.3494915510140102,0.24931157498920933,0
184,36.83336670003337,-0.7421682771978666,0.6647586732326876,-0.08533554173419178,-0.8772110477589367,0.4157627522452991,0.24008771633526482,0
185,37.03336670003337,-0.7411482805190256,0.6660543937357065,-0.08408787587430336,-0.862680176207668,0.4479100357248627,0.23486062563839755,0
186,37.23336670003337,-0.8726863957519555,0.4638658194861238,-0.15246952542042103,-0.8649320145901452,0.4483093632438451,0.2256353805699162,0
187,37.43336670003337,-0.8951050493664334,0.4202877124179668,-0.14881259822067186,-0.8883582800601225,0.4053347028680142,0.21569270942597937,0
188,37.63336670003337,-0.9534769580826031,0.28182504498765876,-0.10703426751863007,-0.9265528350204852,0.2726777105041899,0.2591268224435573,0
189,37.83336670003337,-0.9143624343517238,-0.24157976366357925,-0.3249316180900822,-0.9452235255777939,0.128134696942339,0.30022322717235017,0
190,38.03336670003337,-0.9714066501625253,0.0559707927243083,0.2307301245651166,-0.9409472779297623,0.02220715320961083,0.33782401114026206,0
191,38.23336670003337,-0.9692272130430738,-0.09501616837155775,0.2270914732981929,-0.9189949490826853,-0.11529958133596373,0.3770335397604096,0
192,38.433366700033375,-0.9379532474100628,-0.25897681427050057,0.23059643393431026,-0.8841445027757167,-0.27478164841508357,0.37786709820487174,0
193,38.63336670003337,-0.7602978512866995,-0.6416700240554343,0.10102849873934681,-0.8301649626249257,-0.4254196871850593,0.36033904116168425,1
194,38.83336670003337,-0.7970748925597693,-0.5972453001001917,0.08927299232726893,-0.8009628855828936,-0.5042676624994157,0.3227577736881016,1
195,39.03336670003337,-0.8448537603237244,-0.48099057296952047,0.23424387373273015,-0.8095632312626853,-0.4890061254610067,0.32477743740773385,1
196,39.23336670003337,-0.8531091625893619,-0.49015359767849626,0.1787573981375442,-0.8262818379342556,-0.46420573974190005,0.3190162307636776,1
197,39.433366700033375,-0.8472555030496106,-0.5068175803360879,0.15904104128942603,-0.8256317734127372,-0.46902767551682556,0.3136004055013672,1
198,39.63336670003337,-0.8435866249234186,-0.5149763098285882,0.1521874060678011,-0.8234997714554684,-0.47209352447367703,0.31460424434964857,1
199,39.83336670003337,-0.8405198272893697,-0.5239052544951142,0.1380206660100506,-0.8201583920542188,-0.4773592416570559,0.315386059215748,1
200,40.03336670003337,-0.8433183045416159,-0.5213329885052699,0.1304842991367877,-0.8232906270950052,-0.4745994856390331,0.3113645316484819,1
201,40.23336670003337,-0.8451748753844421,-0.5168574081751173,0.13615377201309395,-0.8242459891827616,-0.47082965459769327,0.31454409177021225,1
202,40.433366700033375,-0.8422120040699302,-0.5216740102202558,0.13614392113211748,-0.8205095095431088,-0.4772098600761905,0.31469810008226934,1
203,40.63336670003337,-0.8422960063958547,-0.5223047692676039,0.1331734418339829,-0.8201638569029613,-0.4782471307303222,0.31402377263238035,1
204,40.83336670003337,-0.8381954700863502,-0.5299650926404476,0.12870646646273892,-0.8165500699074151,-0.48504794698178383,0.3130087418315213,1
205,41.03336670003337,-0.8413160164577532,-0.5255639803869189,0.1263719231930753,-0.8206458501564873,-0.4781670695952622,0.31288439107059407,1
206,41.23336670003337,-0.8377055272075385,-0.5330899929348664,0.11859388314177306,-0.8182327628455385,-0.483692525307636,0.3107035351708743,1
207,41.433366700033375,-0.837628165722516,-0.53416955298309,0.11420133385464044,-0.8188767043019483,-0.48342558204033537,0.30941986002928606,1
208,41.63336670003337,-0.8365597865604952,-0.5367795227037431,0.10970627837913724,-0.8184906181930685,-0.48571363707331405,0.30684747137778673,1
209,41.83336670003337,-0.82987147175272,-0.54810799344123,0.10435980019530212,-0.8148710899751799,-0.4933973170064685,0.3042107728097099,1
210,42.03336670003337,-0.7525918298727147,-0.6561510193922546,0.05542000865521635,-0.8100289798580416,-0.4975517389214836,0.31031487055303764,1
211,42.23336670003337,-0.7569098372584103,-0.648675833955323,0.07941763471555548,-0.8073479703238653,-0.4993208881045101,0.3144326724697338,1
212,42.433366700033375,-0.6741629534784416,-0.6385056603980634,-0.371234203430741,-0.8049496598407134,-0.5043381985527043,0.3125684350713182,1
213,42.63336670003337,-0.6555025791846477,-0.6484418848115545,-0.3870910625477079,-0.7984083611564532,-0.514928212090542,0.31207855618209973,1
