,timeStamp,x_gaze,y_gaze,z_gaze,x_head,y_head,z_head,fixations_head
0,0.033366700033366704,-0.9994969461148756,-0.008838736909739941,0.030458684096298046,-0.9992543073894676,-0.03693690069558769,0.011246978732069698,0
1,0.2333667000333667,-0.9999428712354358,0.010683211901996312,-0.0003510682125827716,-0.9991243170763601,-0.039349309280069744,0.014220790620738197,0
2,0.43336670003336675,-0.8534746038914222,-0.5144091557399219,-0.08345250747174116,-0.9854378541595129,-0.16928688227253316,0.015943245589920052,0
3,0.6333667000333668,-0.8412107816577404,-0.5251084334389023,-0.1289401177063045,-0.934132360496129,-0.34034774977136056,-0.10751810219447454,0
4,0.8333667000333668,-0.8646187720021923,-0.29027166781429137,-0.41009357220728393,-0.9036029434262705,-0.3655407634989423,-0.22334204900105645,0
5,1.0333667000333666,-0.8495967253416306,-0.15497552466355455,-0.504150762217052,-0.8825179503022473,-0.38071639623703796,-0.27607443385906505,0
6,1.2333667000333668,-0.8539003428457536,-0.09022069481732926,-0.5125567585298072,-0.9045814165249423,-0.2997532101613736,-0.30311792074319904,0
7,1.4333667000333667,-0.824298904282674,0.08894447932791157,-0.5591244906060456,-0.9389061187136074,-0.02909420436701483,-0.3429414345254886,0
8,1.6333667000333667,-0.6745571420846068,0.42764730560812264,-0.6017395151298945,-0.8636606548493471,0.28527676729910634,-0.41558084569018433,0
9,1.8333667000333667,-0.5111598252414886,0.6944977132542562,-0.5063482589519784,-0.7648832719498337,0.47842500176767366,-0.4313503193170469,0
10,2.033366700033367,-0.6096295702758114,0.7002502628708465,-0.3714853380614637,-0.7689122102494077,0.515598545210332,-0.3780636892196345,0
11,2.233366700033367,-0.6987133730712363,0.7148329281694669,-0.028522045790607044,-0.8201866363369291,0.5204239719047934,-0.23759791884852993,0
12,2.433366700033367,-0.8836894864189808,0.4664491876017018,0.038962122353262046,-0.8913386068340733,0.43209187742612154,-0.13715719969969808,0
13,2.633366700033367,-0.9213728117663227,0.3801574871533254,0.08094706108988693,-0.9743081224333047,0.22317638143791949,-0.03026524952425087,0
14,2.833366700033367,-0.992855633116319,-0.09427880886014994,0.07313821155254793,-0.9986063228518794,-0.023557008378274142,0.04722795058557908,0
15,3.033366700033367,-0.7646033354960866,-0.6440067468617803,0.025239836464721575,-0.9329757174550463,-0.3513877957461322,0.0779931255939653,0
16,3.233366700033367,-0.7572504823258044,-0.6500347904558986,0.06345453659347507,-0.7799542228937502,-0.6191620189771389,0.09115812880023084,0
17,3.433366700033367,-0.39062117869679147,-0.9203001841944165,-0.021509665856371287,-0.5957936575732731,-0.7975108634101177,0.09490174043878177,0
18,3.633366700033367,-0.04493926177922947,-0.9921735223484404,-0.11649963219438403,-0.3442186310874506,-0.9339931398512759,0.09576193775731924,0
19,3.833366700033367,0.08891209990969323,-0.9889868207651834,-0.11832035683864402,-0.008506514495578543,-0.9972886311463199,0.07309600124108102,0
20,4.033366700033366,0.4045330885799734,-0.914333553332233,-0.01863151885381507,0.29015920230979747,-0.9539055101036029,0.07662842233093048,0
21,4.233366700033367,0.7043606189528311,-0.7041588391585452,-0.08964623641444655,0.5814710071017786,-0.8123870061194003,0.04380433983524149,0
22,4.433366700033367,0.8639751766016258,-0.4821207109308138,0.1452808119049327,0.7923576877860418,-0.6066619884311608,0.06426917145185408,0
23,4.633366700033367,0.7770203574133112,-0.4228561627371215,0.46629607525747724,0.847155089883808,-0.4542084906717748,0.27572250667224424,0
24,4.833366700033367,0.6979299136981785,-0.3756538479625535,0.6097360265526222,0.8085282797356528,-0.3900725644942738,0.4405966582902854,0
25,5.033366700033366,0.6258593775965839,-0.3322638961154289,0.705620820846871,0.7525359411831137,-0.3507523019225987,0.5573710433128397,0
26,5.233366700033367,0.6589549044481078,-0.2318652640501303,0.7155535851567991,0.7099394586403321,-0.31819145583599867,0.6282835048753393,0
27,5.433366700033367,0.6618461009393061,0.028647588649756035,0.7490921534337364,0.7089402186573153,-0.2600227943877592,0.6555851682038721,0
28,5.633366700033367,0.7555318155023247,0.23217017102368442,0.6125917787977524,0.7294350141285869,-0.11005563822693101,0.6751387388216525,0
29,5.833366700033367,0.8898308201289319,0.16725086039664636,0.42453299193967736,0.8915157364832074,-0.07727962113887574,0.4463491366177787,0
30,6.033366700033366,0.8912372913163611,-0.3761079855518928,-0.2534538888460247,0.9667749243429057,-0.2269289145522825,0.1176839555839804,0
31,6.233366700033367,0.9548210289415422,-0.1254856165162907,-0.2693884977844106,0.9588416187658757,-0.281704735948817,0.03556953565120081,0
32,6.433366700033367,0.9442613075762835,0.028454752140385814,-0.3279648000852482,0.986392110231549,-0.15856683991536333,-0.04344147962727882,0
33,6.633366700033367,0.9295184165129523,0.3643908725174708,0.056699253868199025,0.9955138008765266,0.0945937843235028,-0.002070804609329454,0
34,6.833366700033367,0.8010880252076987,0.5925538353490738,0.08448625972270629,0.9461377906921471,0.3163749807514232,0.06877610470737633,0
35,7.033366700033366,0.7342147866371153,0.677675573545275,0.04104222342293556,0.9047664317856114,0.4186933419956595,0.0780614455569357,0
36,7.233366700033367,0.6100225558834622,0.7913922053700038,0.03963405849783847,0.896555517360908,0.43688968204421735,0.07290823007738848,0
37,7.433366700033367,0.926833778462947,0.22840225093528832,-0.29801268239420686,0.9487485847347042,0.3123388537438915,0.048172226498763265,0
38,7.633366700033367,0.8763993994731393,-0.47515933037455454,0.07840729150484811,0.9941735984503922,0.02836792132025547,0.10399094760682864,0
39,7.833366700033367,0.8678601107215441,-0.496632104306943,-0.013243156347594444,0.9453683972018203,-0.3091606735057169,0.10343244911319144,0
40,8.033366700033367,0.7291295507083444,-0.6842832184638921,-0.011250564987824898,0.8045167166257255,-0.5849718940675565,0.10276544079007255,0
41,8.233366700033368,0.5840832111446278,-0.781751262613227,-0.21843023110733958,0.5839060577412314,-0.8083265223462102,0.07524592350935647,0
42,8.433366700033368,0.14782300913733354,-0.9880304308894768,-0.04409337371917188,0.33999362092003577,-0.9378742968440903,0.06925417715117689,0
43,8.633366700033367,-0.24508283529224395,-0.9682471982652852,0.04931294856870886,0.1234684876541488,-0.9895231461926184,0.07482964456322966,0
44,8.833366700033368,-0.3739551913411624,-0.9267543422063054,0.0358316071472217,-0.16680582231650593,-0.9845736015206321,0.05282651635311631,0
45,9.033366700033367,-0.545676458618253,-0.8377285230270177,0.021168944631549114,-0.5176266693827982,-0.8556036374143463,-0.0022465055110836457,0
46,9.233366700033368,-0.8826048173711479,-0.4344046871539836,0.17972563571147207,-0.743763478855997,-0.6679344805735051,0.02606563218160495,0
47,9.433366700033368,-0.8717625801369493,-0.478175153057817,0.10667017798383367,-0.8294378798499806,-0.5527840824295911,0.08039005959970469,0
48,9.633366700033369,-0.8414711085779243,-0.5337370219210558,0.08397121446949714,-0.8762731130696362,-0.47026451182626083,0.10486524795211132,0
49,9.833366700033368,-0.8219513146685392,-0.558524751591057,0.11156226142745676,-0.8769933347296821,-0.46479331637543997,0.12186001761214517,0
50,10.033366700033367,-0.7656289429462733,-0.6260914472629937,0.1477221086604926,-0.827994477488814,-0.5380405921424655,0.15791601076208467,0
51,10.233366700033368,-0.7913041161155412,-0.5977866728556563,0.12840907123239625,-0.7689372083388504,-0.6090039245954448,0.19455022348843765,0
52,10.433366700033368,-0.8350731083035678,-0.5297365555197822,0.14843209064840002,-0.8011117699743604,-0.5455565676573532,0.24614622380705992,1
53,10.633366700033369,-0.8449533841914677,-0.5232772007165536,0.11061080306025269,-0.8377985780576385,-0.45563007528122634,0.30082349825740606,1
54,10.833366700033368,-0.8174543390474789,-0.5624904038785837,0.12398769744195486,-0.8046935167169975,-0.4888813626175266,0.3368432238280319,1
55,11.033366700033367,-0.8113294480753057,-0.5756317357612549,0.10194425668130928,-0.7509223978488907,-0.5705705792318775,0.3325128065561875,1
56,11.233366700033368,-0.8221074819503783,-0.5641472641027441,0.07666258883313048,-0.7548517998474669,-0.5800519080490063,0.3061675100916938,1
57,11.433366700033368,-0.838467328674332,-0.5435245840595962,0.039415292318755644,-0.7774237699450404,-0.5676250134205844,0.2709504125549967,1
58,11.633366700033369,-0.8482531929132048,-0.5274583026197054,0.04747904495767444,-0.7908786288384191,-0.5481897548208644,0.27202754852423094,1
59,11.833366700033368,-0.8454330047344936,-0.5331550903099266,-0.03144334877553348,-0.7978388764375832,-0.5353751704971403,0.27717603442572813,1
60,12.033366700033367,-0.8522780809095246,-0.5212215620823525,-0.04416057089316845,-0.8106958217301146,-0.5280623062727993,0.25282896456535003,1
61,12.233366700033368,-0.8565731870632631,-0.5135855545173633,-0.05012238417490103,-0.8226010852375926,-0.5178132507929789,0.23494018785457374,1
62,12.433366700033368,-0.8556036769089524,-0.5149270443955896,-0.05284398745272194,-0.8245235683232797,-0.5205495686904419,0.22178600455313022,1
63,12.633366700033369,-0.8890743596232719,-0.4436197112692008,-0.1129085241861744,-0.8214795608051454,-0.5271343302260977,0.21748730785144407,1
64,12.833366700033368,-0.9145875111466129,-0.36680756706921813,-0.17024069194938538,-0.8324152815333894,-0.5168071657715996,0.19998788082485075,1
65,13.033366700033367,-0.9241474478724689,-0.3317722586339423,-0.1894166386348751,-0.8614056939064305,-0.4755014533231214,0.17854578794578319,0
66,13.233366700033368,-0.9303819822639858,-0.3098739264912002,-0.19587627921589396,-0.8812712234696576,-0.44277040697888487,0.16527370446639622,0
67,13.433366700033368,-0.9325733230712893,-0.29920326161421396,-0.20195149253023348,-0.8974139511179946,-0.4125621664268907,0.15633508618330083,0
68,13.633366700033369,-0.9939754847940012,0.03664204800838925,0.103296156493265,-0.9198783696060581,-0.3632670440001419,0.14785411686625372,0
69,13.833366700033368,-0.9869147961500992,0.12689349240400102,0.09948480650593892,-0.9590341303004799,-0.24476089803456333,0.14263814255701945,0
70,14.033366700033367,-0.987183800847393,0.11901433064285935,0.1063190126276905,-0.983185145648078,-0.12751637248536268,0.1307155083574332,0
71,14.233366700033368,-0.987071863509297,0.1249290470592107,0.10040851293173228,-0.9896798901735797,-0.08111238986130814,0.11812914626373204,0
72,14.433366700033368,-0.9886686663856827,0.11371581581825206,0.0979948026170034,-0.9908141527445278,-0.07036295977516228,0.11548319623573979,0
73,14.633366700033369,-0.9909303194959143,0.08723841928876497,0.10220841503380755,-0.9890180550821289,-0.08853703495028502,0.11834052629498956,0
74,14.833366700033368,-0.8402188716224669,-0.5359951657200926,0.08210621227507373,-0.9735879115896262,-0.19426119832834057,0.11995484663233816,1
75,15.033366700033367,-0.9220284257801927,-0.34254300861015374,-0.18035484275617406,-0.9493129894377574,-0.2919545310444996,0.11647918220581137,1
76,15.233366700033368,-0.927821592281318,-0.31735971926830286,-0.1960354597579331,-0.9514461999474219,-0.2915910941150597,0.0986142101240642,1
77,15.433366700033368,-0.9348667694107161,-0.29600828225532355,-0.1959673959816377,-0.9609931105889863,-0.26322448655242664,0.08488292572547107,1
78,15.633366700033369,-0.9399013179148362,-0.29867742119071605,-0.16546090369878155,-0.9621358054311275,-0.2583085515741961,0.08701370059385263,1
79,15.833366700033368,-0.9262142615120901,-0.1614419566194262,-0.34068113598276156,-0.9635020560302333,-0.25365439466737527,0.08557590835884256,1
80,16.033366700033366,-0.9200566490563956,-0.15565804066828906,-0.3595362803701819,-0.9643748951951181,-0.2527701811249581,0.07802754033968333,1
81,16.233366700033365,-0.9203269080734946,-0.15656350263555505,-0.3584497899544196,-0.9638746137843404,-0.25449151039111984,0.07861170422357806,1
82,16.433366700033368,-0.9301291758435396,-0.3633899237424426,0.05298565435171859,-0.9615205602621743,-0.2631413636289072,0.07896097099601791,1
83,16.633366700033367,-0.8607038879356191,-0.5033014545000408,0.0766580927929509,-0.9588210160481814,-0.2727495816065014,0.07918285747440326,1
84,16.833366700033366,-0.9054835896127691,-0.2823297500154648,0.3168428335913243,-0.9587607425947733,-0.2729045514064884,0.07937848751861323,1
85,17.033366700033366,-0.9907480439647889,0.037187089205102525,0.13051985970110822,-0.9603213825231881,-0.2669813220557523,0.08064623947907182,1
86,17.233366700033365,-0.9908434145543228,0.04371097643228523,0.127744582560932,-0.9620760857993824,-0.25959576990204153,0.08378330013735519,1
87,17.433366700033368,-0.8304138986345336,-0.5545777955285598,0.053443668112113936,-0.9580754388395978,-0.2730068950413627,0.0869407197588488,1
88,17.633366700033367,-0.8271688161289936,-0.5560493611075199,0.08124566225761297,-0.9545243096209772,-0.284136862577614,0.09027505561973963,1
89,17.833366700033366,-0.8217724452912448,-0.5626138038115283,0.09030922389640914,-0.9466420024526409,-0.3035899342235798,0.10817611118253818,1
90,18.033366700033366,-0.9158182252383238,-0.384257893453693,-0.11671696380500048,-0.9226662811530386,-0.3565910492891686,0.14673021907593423,1
91,18.233366700033365,-0.9102424479465973,-0.38993132042918577,-0.13932785545086804,-0.9012547834611122,-0.40286192526082487,0.1595057505659433,1
92,18.433366700033368,-0.8919410445534506,-0.4358901481167119,-0.12017051142310504,-0.8995224361241065,-0.40630549792949777,0.1605466575846892,1
93,18.633366700033367,-0.8573202471604865,-0.5118974134069882,-0.05443373913224761,-0.894537773832297,-0.4173915014495576,0.1599578247690375,1
94,18.833366700033366,-0.8607942101465325,-0.5088407598820512,-0.010696207779581208,-0.8910710464473618,-0.4255859657054995,0.1576990043650287,1
95,19.033366700033366,-0.8000516072844447,-0.5917875287889844,0.0985136866196963,-0.8952476847940064,-0.41995186831334896,0.1489026902748883,1
96,19.23336670003337,-0.8009764988287746,-0.5908933488919645,0.09634157233114528,-0.895817406793847,-0.41845046127211155,0.14970098578935398,1
97,19.433366700033368,-0.8197240014165683,-0.5666178155130409,0.08364695239421309,-0.8944061284330104,-0.4212426234977167,0.15030745014880195,1
98,19.633366700033367,-0.8343819436408968,-0.5467238086680696,0.06999892257399226,-0.8939373629888442,-0.4231463485859641,0.14772663514382667,1
99,19.833366700033366,-0.8436227719128745,-0.5331210846721839,0.06389466165488922,-0.8944942267302617,-0.422456936235933,0.14632229964151103,1
100,20.033366700033366,-0.8482774990509732,-0.5260404597443907,0.06088283268489172,-0.8955606818834543,-0.4212146546261854,0.14335019983448133,1
101,20.23336670003337,-0.8504330070102348,-0.5226949837002351,0.05961253728990899,-0.8959045733137632,-0.4215987911122226,0.1400337632437154,1
102,20.433366700033368,-0.8507564261467162,-0.5218673808551854,0.06219276621453738,-0.8924378884059448,-0.4283586653115054,0.1416455759636855,1
103,20.633366700033367,-0.8500154025597643,-0.5232597662990973,0.060605547467012605,-0.8886530914442614,-0.4364399651287994,0.14076874619364035,1
104,20.833366700033366,-0.8533676782059026,-0.5181387718527523,0.05740922309514827,-0.8891382948643923,-0.4359015600414983,0.13936614567042094,1
105,21.033366700033366,-0.8546359965815098,-0.5164220781228144,0.05390315922507552,-0.8899252233269326,-0.4347196373858265,0.1380287425054831,1
106,21.23336670003337,-0.8502299753166032,-0.487795962500148,-0.19789918656144834,-0.889898436422173,-0.43586631979449997,0.13454116144203107,1
107,21.433366700033368,-0.8478066925936824,-0.5116036120430549,-0.13959067353466406,-0.8886739884921329,-0.4391375413525785,0.13197258030476164,1
108,21.633366700033367,-0.8630646502777992,-0.5050864419115882,0.0026637638694106047,-0.8890738699535823,-0.43898576430605885,0.129765760131039,1
109,21.833366700033366,-0.8588395906342094,-0.5119003621662481,0.01877702780867287,-0.8890800928031183,-0.4388049780207431,0.13033334126544208,1
110,22.033366700033366,-0.8469329580630391,-0.5299679905687928,0.04287765757438662,-0.8868235826774786,-0.44318546206077475,0.13088383943428147,1
111,22.23336670003337,-0.8408662804704405,-0.5384747752015362,0.054670054321004156,-0.8852762705192452,-0.44611237516988367,0.13141413004628383,1
112,22.433366700033368,-0.8399586729720814,-0.5385271272178206,0.06676796349673779,-0.882292490410324,-0.44757621622356425,0.14572402697066056,1
113,22.633366700033367,-0.8171263821173359,-0.5532703033105536,0.16185316531499158,-0.846165826170267,-0.4656773876460705,0.2591292443100956,1
114,22.833366700033366,-0.8533067810632204,-0.5173189421291114,0.06518166541246251,-0.8186031278847684,-0.47418483869714284,0.3240951369074181,1
115,23.033366700033366,-0.8274901323427208,-0.5553996653625434,0.08240929917552653,-0.8185727240448961,-0.4665330665257037,0.3350904255389012,1
116,23.23336670003337,-0.8142983799159165,-0.5743744556294936,0.08373848091908953,-0.8260126938376133,-0.459914168293742,0.3258557770269008,1
117,23.433366700033368,-0.8179087718509683,-0.5692945737062509,0.08324019028004995,-0.8303806836498233,-0.45270489304832234,0.3248479644870189,1
118,23.633366700033367,-0.8112540612577622,-0.5767750038883972,0.09590330016389963,-0.8333159169882144,-0.4474008211918659,0.32467997734836623,1
119,23.833366700033366,-0.8177922123274571,-0.5680574884135722,0.09233952194931483,-0.8344390594479936,-0.4470752574987599,0.3222346508368794,1
120,24.033366700033366,-0.8312658634446807,-0.5489814998145902,0.08727185762256273,-0.8418909066895839,-0.4348053036398773,0.3196311141926338,1
121,24.23336670003337,-0.853310637972523,-0.5142497207647779,0.08607078375542873,-0.8616336253350853,-0.3975194524980949,0.3155404579091767,1
122,24.433366700033368,-0.8749950521194864,-0.47634736491699653,0.08646876142891868,-0.882861870722843,-0.3511888574900346,0.31180330915275173,1
123,24.633366700033367,-0.894057340299994,-0.43980595813476964,0.0850422920955109,-0.9023049910323839,-0.3044279497149105,0.3052365092685109,0
124,24.833366700033366,-0.9947204008304431,0.02214433756950837,0.10020455321655992,-0.9264177118078958,-0.2403455511457582,0.2898003438456627,0
125,25.033366700033366,-0.9908045816515901,0.08651256109143694,0.10402815845538117,-0.9402218889179086,-0.17123402606182658,0.29438360674177816,0
126,25.23336670003337,-0.9896574842367853,0.11158959423119214,0.09014336555418438,-0.9502977463339067,-0.1282626307206788,0.28369506670597716,0
127,25.433366700033368,-0.9902142952027484,0.11129895003921828,0.08419140868456951,-0.9653446360222047,-0.0191070873948603,0.2602780300264367,0
128,25.633366700033367,-0.8558660007515521,0.5165703148031309,-0.025465636095314274,-0.9613319700299454,0.16636936950415143,0.2194585981207746,0
129,25.833366700033366,-0.8707807958283456,0.486569468713835,-0.07064671069547278,-0.9303287096826762,0.3219073248621132,0.17568200289239908,0
130,26.033366700033366,-0.807053740151128,0.5801156262599647,-0.11013682707017163,-0.9021074104941975,0.41033684192692726,0.13351365506527735,0
131,26.23336670003337,-0.7653056913947136,0.5296547792318714,-0.36574993309048837,-0.8773827442686409,0.47954042752185416,0.015508011857946894,0
132,26.433366700033368,-0.7253790091311944,0.552119576743147,-0.41108304038091253,-0.8305293250527541,0.543651335034605,-0.1210961029204011,1
133,26.633366700033367,-0.6952764035218142,0.5756365499231256,-0.43038736633220626,-0.8012880566944593,0.5732044535830351,-0.17138875281473823,1
134,26.833366700033366,-0.6210864639481757,0.6514336391860379,-0.43575889897647124,-0.7944659966100222,0.5797859740372099,-0.18075398900209078,1
135,27.033366700033366,-0.5971593537793789,0.7012262939804883,-0.3894642356162945,-0.7938998404988815,0.5849716478670022,-0.16592532792679549,1
136,27.23336670003337,-0.7685713998245097,0.6315758684233781,-0.10202904388971634,-0.8040132792297612,0.5806989898475654,-0.1278723191790283,1
137,27.433366700033368,-0.7997863015677953,0.5970479354554947,-0.062254594953618576,-0.8322233063255529,0.5486750846133611,-0.07974973312235194,1
138,27.633366700033367,-0.856565907983454,0.5157535262381174,-0.017121490981482062,-0.8827629377346127,0.46883288743021406,-0.030419063529383002,0
139,27.833366700033366,-0.8793645109988867,0.4758424492215199,-0.017088601889979065,-0.9470807125904427,0.3204775437540474,0.018228214080162054,0
140,28.033366700033366,-0.9718728000775438,0.2233373926562153,-0.07472395540225509,-0.9931680961152225,0.11625060983063415,0.010145371992699388,0
141,28.23336670003337,-0.9861896091864497,-0.1395419889512433,-0.0892081165153116,-0.997141001220892,-0.0748213152059726,0.01056382861685032,0
142,28.433366700033368,-0.9738281689933368,-0.21435543302023083,-0.07556749042937935,-0.9826273241019465,-0.18143192658272336,0.03906402366282673,0
143,28.633366700033367,-0.8003334107498473,-0.5941948371247388,0.07999329454286684,-0.9392826922153957,-0.32888454829028363,0.09789268614403325,1
144,28.833366700033366,-0.8218292090156354,-0.5650191478979097,0.07314447154402949,-0.8924458916311286,-0.42703268820245066,0.14554522911215143,1
145,29.033366700033366,-0.8327679537951594,-0.550019878016331,0.06305290571197723,-0.8831028824961127,-0.44320320767240673,0.15394874353481014,1
146,29.23336670003337,-0.8485287031608624,-0.5267070518684971,0.05078111286828342,-0.8900869215190783,-0.4308316743876636,0.14875933747167747,1
147,29.433366700033368,-0.87917075333425,-0.4277153641474881,-0.21004369486816132,-0.8963830336914487,-0.4187264668354868,0.14548402964444387,1
148,29.633366700033367,-0.8748176832830343,-0.4372136441063264,-0.2086582143663928,-0.8921276103179847,-0.42739098055147756,0.1464420590252961,1
149,29.833366700033366,-0.8648072608176258,-0.4528576535864526,-0.216860202031834,-0.8891896903855289,-0.4366944318216787,0.136527168461186,1
150,30.033366700033366,-0.8522190202080301,-0.4695854108491546,-0.2306778782486444,-0.8869107875253219,-0.44219909171615923,0.1336009665257596,1
151,30.23336670003337,-0.8537209457682472,-0.45639842413557985,-0.25072101069341785,-0.8856014224068917,-0.4454476492112835,0.1314781823841197,1
152,30.433366700033368,-0.8548150498521707,-0.5189111309736296,-0.004740115810789038,-0.8843227001689038,-0.4470203104022023,0.13470784703905606,1
153,30.633366700033367,-0.8523815048090153,-0.5226694776754685,-0.01619837541149614,-0.8828185699894086,-0.4497665050491336,0.13543065907593985,1
154,30.833366700033366,-0.8508913542554799,-0.5250975267291429,-0.01601532629116662,-0.8808641240057055,-0.4532618443131001,0.13649943417299762,1
155,31.033366700033366,-0.854474049960103,-0.5193286422015351,-0.013109513106498884,-0.8844183660043057,-0.44673865972578686,0.13501379107588185,1
156,31.23336670003337,-0.8543564848237135,-0.5195111545160908,-0.013533557293857539,-0.8853405250291155,-0.44552944827867597,0.13294986069067133,1
157,31.433366700033368,-0.8517063309079544,-0.5237864035908556,-0.015624637745167444,-0.8834709241695164,-0.44949082269028806,0.1320497120946077,1
158,31.633366700033367,-0.8498069177235408,-0.5268599512605008,-0.015709689589482122,-0.8817113269392213,-0.45263928707833445,0.13305191370399494,1
159,31.833366700033366,-0.8524417084755599,-0.5121869282911498,0.10491751111680696,-0.8820080958357174,-0.45099179651752813,0.1366313227416923,1
160,32.03336670003337,-0.85591121918958,-0.508280623902359,0.09521970505539108,-0.8857155444070445,-0.44335767942318116,0.13762972968157866,1
161,32.23336670003337,-0.9847292324482518,-0.08577205187972785,0.15149750452802316,-0.9117594246702135,-0.38291936037175195,0.14855138833928674,1
162,32.43336670003337,-0.9891347536190669,-0.001832840272643273,0.1470002716986707,-0.9541056056306396,-0.24837734343232823,0.16730567406304628,1
163,32.63336670003337,-0.9794869389820093,0.14198323393142473,0.14298985154908186,-0.971148461942166,-0.1556349287585791,0.18068877612535197,1
164,32.83336670003337,-0.9843045354129903,0.11980207459047043,0.1295841212851201,-0.9734284144515539,-0.14222017821145516,0.17947295854204898,1
165,33.03336670003337,-0.979506024219561,-0.04422942001690122,-0.19649861811869704,-0.9739451358896882,-0.14818952185582981,0.17167043393944545,1
166,33.23336670003337,-0.9818368532429067,-0.07058592961393008,-0.1761079786795713,-0.9757493194383289,-0.16352189711308815,0.14551238703345867,1
167,33.43336670003337,-0.9736705367923664,-0.08611757114283089,-0.2110674056384006,-0.9757284100780579,-0.18255879375337142,0.12093947490319108,1
168,33.63336670003337,-0.9369049252047895,-0.21233387500406484,-0.27771115687484665,-0.9747362553788688,-0.19587052818032918,0.1073497491396212,1
169,33.83336670003337,-0.9278836340787704,-0.235649054731427,-0.28896623438208047,-0.9737625088867564,-0.20530252540306393,0.09817051160961716,1
170,34.03336670003337,-0.9263309383062333,-0.24472869764019042,-0.2863893456258977,-0.9717718346939814,-0.2153918575924146,0.09625927995981448,1
171,34.23336670003337,-0.8356507953289105,-0.5384730562391945,0.1083259708960903,-0.968361956150995,-0.22786303876637945,0.10175243212606731,1
172,34.43336670003337,-0.8834366686254043,-0.46854596218626116,0.0020817893740804057,-0.9629090363516009,-0.24714577616385996,0.10828274579449369,1
173,34.63336670003337,-0.8821710516695526,-0.4708601460122999,-0.00805968321410482,-0.9569337366232866,-0.2686556170831554,0.1100090138209759,1
174,34.83336670003337,-0.8824625324963433,-0.46979412766544715,-0.02352352760964214,-0.9531756321892404,-0.2823634338508706,0.10829176064958536,1
175,35.03336670003337,-0.8845584351687061,-0.46296136271074123,-0.05677280518790364,-0.9525053550964266,-0.286467476826683,0.10329536888546383,1
176,35.23336670003337,-0.8837002645644384,-0.46061109766803504,-0.08313398290584843,-0.9499513832463855,-0.293817149192608,0.10613129749799641,1
177,35.43336670003337,-0.8813795559307046,-0.4613765602586298,-0.101497527217706,-0.9472397420215043,-0.3018565520538165,0.10779375268175691,1
178,35.63336670003337,-0.8832107913418763,-0.45433612479112695,-0.11626428414194209,-0.9484694873265622,-0.2991112798250281,0.10458524700894462,1
179,35.83336670003337,-0.8835162275846328,-0.44875311660360373,-0.1342375354853174,-0.949562858862662,-0.29867087794948916,0.09553053822443315,1
180,36.03336670003337,-0.8851854900778419,-0.4416764181909976,-0.14617999100294918,-0.9512438888038312,-0.2948444365519922,0.09056391250218065,1
181,36.23336670003337,-0.8865512795626799,-0.43610946631197417,-0.15438705288611626,-0.9529145093991482,-0.290774960702016,0.08604568557064277,1
182,36.43336670003337,-0.8892717093381014,-0.4282533060053061,-0.16060800996966834,-0.9555194149518076,-0.2831481479044777,0.08252135474178546,1
183,36.63336670003337,-0.8899465201444637,-0.42473671702612453,-0.16611415500380902,-0.956882459859001,-0.2795973868454886,0.07874807479146184,1
184,36.83336670003337,-0.8890718152897659,-0.42489704885003876,-0.17033439211118936,-0.9565074778813107,-0.28142021637019654,0.07678610925998303,1
185,37.03336670003337,-0.8853212625443789,-0.43011176332542705,-0.17666389879066557,-0.9548721457434227,-0.28823337589099135,0.07169871899716658,1
186,37.23336670003337,-0.8837577798010987,-0.4326441113567364,-0.17830103631042904,-0.9538439285573392,-0.2918431360216392,0.07077671871001698,1
187,37.43336670003337,-0.8835164267229082,-0.4322199087227767,-0.18051225502568793,-0.9537383271944614,-0.2923959520354435,0.06991287773791803,1
188,37.63336670003337,-0.8845709954383736,-0.43103771330112856,-0.1781590405825625,-0.9534411415427575,-0.29272278894477555,0.07254900720227803,1
189,37.83336670003337,-0.8843894534278106,-0.43217573444686264,-0.17629358814481363,-0.9526507697487985,-0.29451244993364656,0.0756235924239464,1
190,38.03336670003337,-0.8783578392679552,-0.4778060701494756,0.013742835400446898,-0.9509809803951055,-0.296906615320409,0.08649645487384344,1
191,38.23336670003337,-0.8768795203881098,-0.48057205816856224,0.01152404579786341,-0.9486488596881055,-0.3030572105785882,0.09067341467476954,1
192,38.433366700033375,-0.8765152523408206,-0.48110287712254873,0.016156547846415684,-0.9479025689849393,-0.3044663513007706,0.09370678010340638,1
193,38.63336670003337,-0.8771795441514845,-0.4798011478098584,0.018625409593789968,-0.948534186179506,-0.30192562737774853,0.09551865357790383,1
194,38.83336670003337,-0.8749138428473884,-0.48381791306052885,0.021118584132713464,-0.9473534322782419,-0.3050707551761155,0.0972281270359004,1
195,39.03336670003337,-0.8447237261119989,-0.526944632141408,0.09365458451574524,-0.9485963280677218,-0.3017932266862327,0.09531974980426516,1
196,39.23336670003337,-0.8452584311204322,-0.5257802301178496,0.09535897565015554,-0.9487409732908533,-0.30090639642024125,0.09667422713685982,1
197,39.433366700033375,-0.8445371188328735,-0.5274618795375388,0.09241764197487243,-0.9472183221210402,-0.3048377941582016,0.09925406536239999,1
198,39.63336670003337,-0.8460684163392918,-0.5259810642669426,0.08667268834954685,-0.9469119012519938,-0.30614053015540127,0.0981622486677245,1
199,39.83336670003337,-0.8512653725340859,-0.5191594840057838,0.0762934839370468,-0.9492118106649681,-0.30124954494649997,0.09080556240484372,1
200,40.03336670003337,-0.8541306073278216,-0.5149642387570351,0.07261362425326294,-0.9499426911708978,-0.2992657472384102,0.089715639778293,1
201,40.23336670003337,-0.8542025586992715,-0.5153568214256358,0.06888639431471856,-0.9492287877267578,-0.3018163642035883,0.08872198628140177,1
202,40.433366700033375,-0.8566902485889062,-0.5115988069438032,0.06594299588550347,-0.9500762892679434,-0.2994774911410543,0.08756869800742421,1
203,40.63336670003337,-0.8571947026570532,-0.5114357552560275,0.06042110543827567,-0.9500895765172569,-0.30046628337396053,0.08396314160807845,1
204,40.83336670003337,-0.85602014024602,-0.5134922562943902,0.05962568422149038,-0.9492033368812343,-0.30312687671055305,0.0844222830136411,1
205,41.03336670003337,-0.8572489642820591,-0.5115680608233094,0.05850070412239541,-0.9495741885147635,-0.3020904019767288,0.08396576409505704,1
206,41.23336670003337,-0.8593025023200606,-0.5080446991393764,0.05907447149880288,-0.9505472095400975,-0.2987183555702609,0.08501380170850695,1
207,41.433366700033375,-0.8576574884002192,-0.5108902342700401,0.05843629966494865,-0.9492490003806895,-0.30265440877764865,0.08559581837750088,1
208,41.63336670003337,-0.8583343699096784,-0.5096624287159784,0.05921417218104126,-0.949127956332477,-0.3025324705408261,0.08735116929154355,1
209,41.83336670003337,-0.8576173116893459,-0.51068361899866,0.06078476764100866,-0.9480812185803258,-0.3046009779229397,0.09143438753353925,1
210,42.03336670003337,-0.8581025032773937,-0.5096634665955441,0.062475952868952016,-0.947783943377457,-0.3046021613675929,0.09446226741968963,1
211,42.23336670003337,-0.8593770611832098,-0.5074682590197392,0.06282541523606806,-0.9479902807404539,-0.30337287947360686,0.09632924593044284,1
212,42.433366700033375,-0.8609677884773481,-0.505017495162541,0.060760157868275905,-0.9485166686193749,-0.3020205112222079,0.0953925581598431,1
213,42.63336670003337,-0.8626047937626875,-0.5024607534161599,0.058704012248706645,-0.9491474648724141,-0.3002558126736504,0.09468651900854444,1
