,timeStamp,x_gaze,y_gaze,z_gaze,x_head,y_head,z_head,fixations_head
0,0.033366700033366704,-0.9954222922876184,-0.05863032110890359,-0.07547811247991133,-0.9875352792912997,-0.09766220890398467,0.12343486179782882,1
1,0.2333667000333667,-0.9947345005687223,-0.09619040082357871,-0.035364956774946776,-0.9785467453593573,-0.14523113561240178,0.146130709966598,1
2,0.43336670003336675,-0.9924179057558102,-0.11851139210693784,-0.03258450975736018,-0.9738802993209257,-0.1736853966889206,0.14625507024235654,1
3,0.6333667000333668,-0.9631863206211366,-0.22412904779714243,-0.1484529612431623,-0.9727081647591969,-0.18482258061963774,0.14028342704643698,1
4,0.8333667000333668,-0.9691247864987931,-0.1996569899307901,-0.1446866772216616,-0.9766051748057765,-0.15906795733114273,0.1447056235710171,1
5,1.0333667000333666,-0.998185814997959,-0.03252403902069611,0.05066819142855942,-0.9767797801763135,-0.1422536747373781,0.16020347393994033,1
6,1.2333667000333668,-0.9982056039504408,-0.048181412465997206,0.03555451778209142,-0.9753203310064577,-0.15751814600433436,0.15472002328338613,1
7,1.4333667000333667,-0.8257979208223165,-0.5523554102853451,-0.11384768198802854,-0.8397203518247984,-0.5364974636124782,0.08390591319218575,0
8,1.6333667000333667,-0.22408278342214544,-0.9636963122263718,-0.14517687135034776,-0.37174429315253593,-0.9283241028168077,0.004532178051494695,0
9,1.8333667000333667,0.11425766898232187,-0.951430121129436,-0.2858774382254624,-0.11491417848092028,-0.9932440513973008,-0.016155059514945197,0
10,2.033366700033367,0.42037402335247664,-0.8695214909475947,-0.25926445431397604,0.14333473271120534,-0.9893659136192775,-0.024703104398024926,0
11,2.233366700033367,0.4911418751413478,-0.8315763628448692,-0.25934612247022193,0.3898406715122125,-0.9204692584434866,-0.027578888581766096,0
12,2.433366700033367,0.7005799679709073,-0.7096155765152314,-0.07505625919827175,0.5227660213518275,-0.8524212755779618,-0.009677595880242543,0
13,2.633366700033367,0.6995100068485834,-0.7105670460795134,-0.07602778008418748,0.5509606887799825,-0.8345210341159487,0.004118620780647067,0
14,2.833366700033367,0.4215178005897312,-0.9061707590067652,-0.034311795451394886,0.4152365272515488,-0.909033097068686,0.03517747673990279,0
15,3.033366700033367,0.44523841568079303,-0.8942231981968011,-0.04612618571638234,0.27520532621923,-0.959708680348239,0.05675629731411863,0
16,3.233366700033367,0.49111278949253057,-0.8323326117425515,-0.25696429990698805,0.4520030837907587,-0.8919751947634591,0.008571124216457008,0
17,3.433366700033367,0.3261168594059896,-0.9106841908153648,-0.25357858468360084,0.2541442841033513,-0.9671271966952557,-0.008698751058137817,0
18,3.633366700033367,-0.9263071909461047,-0.3679816391350614,-0.08089809182552046,-0.7956385315474889,-0.6036588122338138,0.05055062343252415,0
19,3.833366700033367,-0.9827930316239378,0.17895726385727986,-0.04574007765784304,-0.9977017921813343,-0.0076585439051757385,0.06732370001274858,0
20,4.033366700033366,-0.983745384015824,0.17956897694448373,-4.412109113351041e-05,-0.9729155346509774,0.22421458377204836,0.05624218042297497,0
21,4.233366700033367,-0.9758273693931069,0.21272534200797766,0.05008866150056459,-0.9445768110399704,0.3170383213853496,0.08521356006364178,0
22,4.433366700033367,-0.741011502247222,0.589872954716165,-0.32086110831906167,-0.8676764141852298,0.48072286217029525,0.12666163607604733,0
23,4.633366700033367,-0.49808013056621125,0.8654535729826883,0.05391007834018471,-0.7163088126512451,0.6794221827970082,0.15901944045151434,0
24,4.833366700033367,-0.3837556032941131,0.9182740914396156,0.09749015299567391,-0.49239267676916976,0.8515253493483345,0.18015002437215746,0
25,5.033366700033366,-0.1648223170077509,0.947918749103675,0.27255026859997894,-0.29782138858335383,0.9225280904882588,0.24544723009716388,0
26,5.233366700033367,0.12359211059974373,0.9569079800965643,0.2627776775622578,0.015922032007436637,0.9631050753400763,0.26865424387293874,0
27,5.433366700033367,0.5018571432114982,0.8395256652679466,0.20817316148823142,0.3282093007701715,0.9054291216811228,0.2692150822292579,0
28,5.633366700033367,0.7697816172133741,0.6236754062307718,0.13588689952767444,0.5699928111218866,0.7781874055855336,0.26369026727853545,0
29,5.833366700033367,0.876818411937434,0.39529864246041496,0.2737306262669,0.7355405974731309,0.6056618063138631,0.3035684533041906,0
30,6.033366700033366,0.8918269078323581,0.2895219208281046,0.34759433802376505,0.7972595715356741,0.47896554707490896,0.3673815187376556,0
31,6.233366700033367,0.9082031989445168,0.2731355538287235,0.3171181462193914,0.8419722346669258,0.4251012221599842,0.3322223757787409,0
32,6.433366700033367,0.9675052450221804,0.13737972546695712,-0.2122743787770774,0.9221383783683375,0.35897963507045694,0.1442027487425069,0
33,6.633366700033367,0.9164579421796482,0.06906165737310194,-0.3941260302196816,0.9601845073967744,0.275090160638999,-0.04869409897332232,0
34,6.833366700033367,0.8925101917320719,0.03308190156463281,-0.44981234469859555,0.9692521242554405,0.18765137116256986,-0.15917689068179425,0
35,7.033366700033366,0.869847230737238,-0.035163718482673544,-0.49206636552525046,0.9646771937565368,0.10788602361458473,-0.24033001842184934,0
36,7.233366700033367,0.9037483673474728,0.04525124938649222,-0.42566561165513345,0.9594047059908862,0.06964056127797222,-0.2732998396403301,0
37,7.433366700033367,0.936077528770237,-0.014997817021808205,-0.35147393305334446,0.9685264475120823,0.02938830253229723,-0.2471696748063889,0
38,7.633366700033367,0.9541602571619259,-0.21888193272459172,-0.20412962347350455,0.9760601424440402,0.07699173261036889,-0.2034179722683662,0
39,7.833366700033367,0.9678372078433416,0.14311601212971856,-0.2069032290373707,0.864439835236123,0.47413162964834193,-0.16716150580786393,0
40,8.033366700033367,0.451741991002606,0.8668982040442124,-0.21075264503659347,0.48047476896993707,0.8678758758350573,-0.12623573395365645,0
41,8.233366700033368,-0.18423740501183616,0.9681261680985037,-0.1696711561739726,0.01223784129088018,0.9976695981997348,-0.06712382638466607,0
42,8.433366700033368,-0.6038016874299226,0.7810016273861144,-0.15956183841075317,-0.46908250874170443,0.882354069320868,-0.037588513478105275,0
43,8.633366700033367,-0.7857710929947329,0.6039634473455455,-0.1333864449048231,-0.7477839010433244,0.6635295916719459,-0.02340338257791949,0
44,8.833366700033368,-0.9872285383239631,0.13886618002511084,-0.07807686702196269,-0.9268381684313243,0.3752089952485587,0.013755705123174257,0
45,9.033366700033367,-0.9915783083612625,-0.11365350871781743,-0.06209137092661318,-0.990802029848242,0.13092188079829423,0.03421693698800452,0
46,9.233366700033368,-0.9910656328695853,-0.09586113561443017,-0.0927337803797524,-0.9983638655839429,-0.04385645757563353,0.036690639476622926,0
47,9.433366700033368,-0.9155587790891984,-0.36236600114665585,-0.17447923442541255,-0.9770043337585049,-0.21243100214539937,0.018319419876224725,0
48,9.633366700033369,-0.8851461807055228,-0.406683371447286,-0.2261081028417488,-0.9447680970372845,-0.3268421550625027,-0.024237336789487914,0
49,9.833366700033368,-0.783451911104807,-0.43798519622292253,-0.44087648029328347,-0.8983075142918184,-0.42674843441933275,-0.10454369176331424,0
50,10.033366700033367,-0.6152733940783306,-0.5653582084964507,-0.5493712284284782,-0.8195038602311873,-0.534122997463042,-0.20766811658817053,0
51,10.233366700033368,-0.4781986106034572,-0.6372408049594978,-0.6043593676873839,-0.7054480911259948,-0.6487284209183568,-0.28547228695525867,0
52,10.433366700033368,-0.3931960747600582,-0.677490142978663,-0.6216139903187781,-0.5827785452927862,-0.7471705199185036,-0.3195393267050824,0
53,10.633366700033369,-0.16929601837722028,-0.7746093137378015,-0.6093597207169771,-0.47384506571088414,-0.8210208422911511,-0.3184268051294942,0
54,10.833366700033368,-0.08438206651997054,-0.7661640703560896,-0.6370810655993543,-0.3633454703626667,-0.8592428236937799,-0.3601136474748948,0
55,11.033366700033367,-0.04205803524704174,-0.5831921270582289,-0.8112447624536367,-0.22654739269412572,-0.872101501122245,-0.43372255025974876,0
56,11.233366700033368,-0.004966372464033031,-0.5663172267325739,-0.8241723932833925,-0.1535861173627513,-0.8722451397560479,-0.46432716991943074,0
57,11.433366700033368,0.056544133982507405,-0.7627638839919255,-0.644200293534333,-0.12871325692855246,-0.9048218088728363,-0.4058699196527542,0
58,11.633366700033369,0.10137594091448787,-0.9625284126065208,-0.2515193303284538,-0.06646277506530673,-0.9399271059858714,-0.3348428511460913,0
59,11.833366700033368,0.2429680060211868,-0.958466563674269,-0.14935994901086233,0.012098332522525956,-0.9550533264105605,-0.2961870592417874,0
60,12.033366700033367,0.30652903074981236,-0.9432432031274625,-0.12779754716513717,0.14709434943552252,-0.9636072200504031,-0.2232137491976568,0
61,12.233366700033368,0.6584305506650782,-0.7291302561487957,-0.18665015274377367,0.3312232649252717,-0.9292950904744065,-0.1634068039966767,0
62,12.433366700033368,0.6560664641255354,-0.7388412940044374,-0.15391665577079877,0.4606294256957397,-0.8802004592742814,-0.11431396973492418,0
63,12.633366700033369,0.833504904239013,-0.5425789879799521,-0.10429581205477362,0.603098256417268,-0.7902322024042865,-0.10865339106407274,0
64,12.833366700033368,0.8401373801510017,-0.5344949577463861,-0.09211038278446497,0.6771536605751299,-0.730202107217041,-0.09092745781937873,0
65,13.033366700033367,0.8822948619725748,-0.4651301464495121,-0.07217841367507818,0.7526390024276758,-0.6525233055670419,-0.08802197291889086,0
66,13.233366700033368,0.8399614393486069,-0.44768941273415247,-0.3066577410292562,0.7270335102663632,-0.6755926319314404,-0.12246171087209004,0
67,13.433366700033368,0.1675270155525338,-0.9029465836286987,-0.3957551846449043,0.4163967073397159,-0.8847842862651457,-0.20921412212114093,0
68,13.633366700033369,0.1152298832971696,-0.901229461323969,-0.4177409867813182,0.09795453511326291,-0.9695515594051505,-0.22444305002780993,0
69,13.833366700033368,-0.37430781510356514,-0.8722222592051796,-0.31483644976305974,-0.24710150635055145,-0.9456124358639924,-0.2115607872424738,0
70,14.033366700033367,-0.6315387966483186,-0.6923364425873605,-0.3490401102931761,-0.46270064084814067,-0.8636731764171953,-0.19994189479984528,0
71,14.233366700033368,-0.7365072776848072,-0.5752964114826272,-0.3557963867895882,-0.6165065221247716,-0.7628680195227024,-0.19481296919642785,0
72,14.433366700033368,-0.800856558656253,-0.48121874663663006,-0.35645096485033406,-0.7451576416495297,-0.6424286522090994,-0.17895674313115867,0
73,14.633366700033369,-0.8470607597689793,-0.2645468733553986,-0.4609804996499113,-0.8242451258785624,-0.5376681177819644,-0.17757524485758988,0
74,14.833366700033368,-0.8514944038798352,-0.22425923720389665,-0.4739884752713414,-0.8773698676504686,-0.43582878174037804,-0.20068728994556903,0
75,15.033366700033367,-0.8812794035397526,-0.0500364968293256,-0.46993931723326493,-0.9373470559542135,-0.2726622717049041,-0.2168773438667349,0
76,15.233366700033368,-0.8943442940128408,0.07069892120925436,-0.4417577914497055,-0.9684612439567228,-0.13710686685000822,-0.20804933553455768,0
77,15.433366700033368,-0.8931617724052283,0.14241542758420456,-0.42659101525929904,-0.9788297480665881,-0.03658559726888577,-0.20137978640464108,0
78,15.633366700033369,-0.8932417350106325,0.1880954417221503,-0.408337247429798,-0.9798430000657719,0.0497978455070895,-0.19346283830482863,0
79,15.833366700033368,-0.9290654498232122,0.1429982377360878,-0.34115816559063417,-0.9737831096812437,0.12831456695828353,-0.18783457404278642,1
80,16.033366700033366,-0.9541243124225153,0.10203793623287259,-0.2814872217589973,-0.9660543328332105,0.18313393571683412,-0.18221138165066136,1
81,16.233366700033365,-0.9469426082117491,0.1397144439940434,-0.28944700878151247,-0.9528850524004033,0.2476403032841567,-0.17516950962199893,1
82,16.433366700033368,-0.9028784127379283,0.09736910713464923,-0.41872404849451933,-0.95183768149375,0.25131268530481704,-0.17563303303617175,1
83,16.633366700033367,-0.9041794122934139,0.0631895869623186,-0.42245315300547626,-0.960735203837982,0.2138919055877224,-0.17674309273757724,1
84,16.833366700033366,-0.8996487055373736,-0.049061236588182906,-0.43384928453250515,-0.9765571407403717,0.10315180407585398,-0.18893347026106053,1
85,17.033366700033366,-0.8637609980824832,-0.25332008433517467,-0.4355982932289484,-0.9750034026441564,-0.07896940155574186,-0.20768292768122573,0
86,17.233366700033365,-0.8168506587055737,-0.4143977772430289,-0.40128479112509113,-0.9547226353508813,-0.20678561307065282,-0.21387940474870926,0
87,17.433366700033368,-0.801783290841646,-0.47353535352739484,-0.36456525271455303,-0.9324078527493709,-0.28834359400109244,-0.21788429941104334,0
88,17.633366700033367,-0.6947608776350416,-0.23286083810940103,-0.6805021329744485,-0.9016607559287434,-0.3345803644197865,-0.2739778475766424,0
89,17.833366700033366,-0.6499290341959821,-0.05204484569395746,-0.7582107784420969,-0.875889590598452,-0.2680806403084803,-0.40118598601281147,0
90,18.033366700033366,-0.6126666235600735,0.12625488890605713,-0.7801918426917949,-0.8734657248067238,-0.08739122493464539,-0.4789784978391905,0
91,18.233366700033365,-0.5892432292618499,0.07730803525396995,-0.8042486459138354,-0.8623638052437663,0.07663259113101555,-0.5004559055321837,0
92,18.433366700033368,-0.545915879124893,0.12039486231068712,-0.8291446978956606,-0.8364346570265131,0.16937562328899114,-0.521237913778733,0
93,18.633366700033367,-0.49886501854668686,0.1483449522118126,-0.8538896113805862,-0.8025449840122607,0.22569857738298785,-0.552251483297289,0
94,18.833366700033366,-0.4853842572494081,0.1912442305201384,-0.8531282243058196,-0.7894855178428803,0.28264918071361883,-0.544813782643463,0
95,19.033366700033366,-0.7399039361906803,0.3963728685204184,-0.5435353845983104,-0.812346496359569,0.3322998868883385,-0.47923893312869487,0
96,19.23336670003337,-0.7321035529977917,0.41218437153984994,-0.5423360872616799,-0.8214170758666341,0.36478859395061336,-0.4384099328234288,0
97,19.433366700033368,-0.8305608596982696,0.3591474085900191,-0.42565455153251347,-0.8464130583374947,0.3633409164796153,-0.3893177533680203,0
98,19.633366700033367,-0.9118311487709072,0.1807138288782552,-0.3686549446071332,-0.8605424433371367,0.35629805151909616,-0.3640307702640624,0
99,19.833366700033366,-0.9173848127503907,0.1479297605655432,-0.36948868896618714,-0.8888866172308262,0.3058630245247561,-0.34106948256404795,0
100,20.033366700033366,-0.8244210817079467,-0.13771119504935575,-0.54896767372367,-0.927720262142134,0.1652787831230571,-0.33469096052969866,0
101,20.23336670003337,-0.8072714391844942,-0.18738976549497025,-0.5596408663283408,-0.9372712311781002,-0.048399241317169356,-0.3452247856771168,0
102,20.433366700033368,-0.7414475591093694,-0.35932694905442536,-0.5666918569857843,-0.9228709925059418,-0.1842079129792543,-0.3381960614598067,0
103,20.633366700033367,-0.7283709052658445,-0.3725729520416488,-0.5750349726487822,-0.9058804958290632,-0.2607270302270503,-0.3337692960496426,0
104,20.833366700033366,-0.7187350128235162,-0.38299110350473176,-0.5802911303628618,-0.8919531198720132,-0.3071071716776446,-0.33182045906595314,0
105,21.033366700033366,-0.7365374564156254,-0.1438827867999593,-0.6609162722762079,-0.8782225152425898,-0.33570799015352193,-0.3406249536778863,0
106,21.23336670003337,-0.7305559770630398,-0.16595987430486997,-0.6623785054620804,-0.8687288667684181,-0.3598620308618433,-0.3403079117317878,0
107,21.433366700033368,-0.6943259153948982,-0.4048701502316276,-0.5949720032593605,-0.8496247395749335,-0.4185599512590951,-0.3208510076409459,0
108,21.633366700033367,-0.6496621298397457,-0.5170566094087091,-0.5573074373439272,-0.8272088971713052,-0.4632978534643698,-0.31793165840466525,0
109,21.833366700033366,-0.61606710850468,-0.6568430498951507,-0.4347626083543979,-0.7973185936821043,-0.5173056267886105,-0.3109307779259465,0
110,22.033366700033366,-0.5024074976072963,-0.7732269083559081,-0.38691970038024537,-0.7578112359031636,-0.5721055320545888,-0.313715461734764,0
111,22.23336670003337,-0.48131528056261486,-0.7803437716984173,-0.3992482920043866,-0.7259652786031218,-0.6079292777884446,-0.3215531176498094,0
112,22.433366700033368,-0.46840771435454964,-0.781241495115652,-0.4126208179946904,-0.7023343781945884,-0.6239070610490509,-0.34273371643180467,0
113,22.633366700033367,-0.4654012353680844,-0.7099909513662557,-0.5285021656492057,-0.6782372304164765,-0.6331596674735352,-0.3729652728630241,0
114,22.833366700033366,-0.5342366673641066,-0.42510881185850324,-0.7306666006626721,-0.657194313241872,-0.6277695455705001,-0.41713430966147164,0
115,23.033366700033366,-0.6394021567983241,-0.30553963238078535,-0.7055568119763751,-0.6594372527804571,-0.5910481827793829,-0.46454768891746034,0
116,23.23336670003337,-0.634406257972498,-0.2735144405688961,-0.7229927735777284,-0.6989395301133886,-0.523831628406079,-0.4869126803917832,0
117,23.433366700033368,-0.6709384603429824,-0.23068523170159663,-0.7047168979862547,-0.7653652501873989,-0.4292410054921983,-0.47954999010491817,0
118,23.633366700033367,-0.7022316441524072,-0.15309247312541122,-0.6952937599485216,-0.8225676496784545,-0.3226840353761508,-0.46824937268065475,0
119,23.833366700033366,-0.7037077658531111,-0.11318823291144514,-0.7014155716894281,-0.859194043605166,-0.2322143229125543,-0.4559189661197131,0
120,24.033366700033366,-0.5764167570202077,0.01218525027467081,-0.817065016936872,-0.8812829541751077,-0.12049008102715898,-0.45697100023356413,0
121,24.23336670003337,-0.5590905661328233,0.028945305166873513,-0.8286011755785023,-0.8849884016994607,-0.04097968055422206,-0.46380620375228704,0
122,24.433366700033368,-0.7498816030699571,0.25536828291665625,-0.6102987968671004,-0.8886220574501643,0.06711286486983745,-0.4537033197828732,0
123,24.633366700033367,-0.776302749284806,0.3656728392292183,-0.5134563429376389,-0.8695925254480426,0.22677622221442703,-0.43861302388671586,0
124,24.833366700033366,-0.7917883551046824,0.2855859080758773,-0.5399184103446545,-0.8542179381518975,0.27885425594059216,-0.43880749547306047,0
125,25.033366700033366,-0.8166803923686837,0.09057192744714126,-0.5699384727135403,-0.8902291369121306,0.16825147237769006,-0.42330075104519105,0
126,25.23336670003337,-0.8562127383523528,-0.28260672753964045,-0.43247333355075357,-0.9034595360832773,-0.23064303018924154,-0.3613373206372602,0
127,25.433366700033368,-0.5013945501473,-0.8347220995333245,-0.22768952903738304,-0.6252302240874583,-0.7494429004032842,-0.21776709100013156,0
128,25.633366700033367,0.055145447027414474,-0.9682468525562262,-0.24383808600607979,-0.14770674089482244,-0.9830967447575104,-0.10818275805976035,0
129,25.833366700033366,0.44406303926581364,-0.8699671419811634,-0.21439493704641166,0.15614914679381792,-0.9857233249185946,-0.0629838921232518,0
130,26.033366700033366,0.42275165880978094,-0.8800876235964571,-0.2161638493502547,0.29511323469954576,-0.953688745747662,-0.05818895891337471,0
131,26.23336670003337,0.6856948054472233,-0.7153347366960782,-0.13460627124561222,0.4602380900181689,-0.8872904972164327,-0.029941176427186356,0
132,26.433366700033368,0.6256732301413634,-0.7616002631590868,-0.16881364944956992,0.5067130454722879,-0.8609403618044572,-0.04498425240247823,0
133,26.633366700033367,-0.07369337213078675,-0.9058741679337909,-0.41708665619299723,0.12601076620138862,-0.979236173141733,-0.15880114612959564,0
134,26.833366700033366,-0.35515594493513836,-0.8196415432036451,-0.4495019415219207,-0.30723755516087686,-0.917360044270817,-0.25309214502669153,0
135,27.033366700033366,-0.43810790999177374,-0.7575354074544044,-0.48394376290590757,-0.4499049664864874,-0.847874627977279,-0.28052475178348146,0
136,27.23336670003337,-0.6177712700424236,-0.5373073299445221,-0.5741598132036582,-0.5563063225304388,-0.7710798791415625,-0.3097726513036509,0
137,27.433366700033368,-0.6290901345327087,-0.5145799578288266,-0.5826260118073184,-0.6421203482160983,-0.6898523493296873,-0.3343429295366479,0
138,27.633366700033367,-0.5345540168160944,-0.6024589287981565,-0.5927016468824402,-0.6906061513240533,-0.634089857593007,-0.34784076277955017,0
139,27.833366700033366,-0.6537405568532908,-0.2696343645380431,-0.7070506302842219,-0.74279074368476,-0.5514240041850597,-0.3797281642237733,0
140,28.033366700033366,-0.6088800784545564,-0.2922450290761622,-0.7374672148925988,-0.7419089143906848,-0.5170354873468849,-0.42690217564637106,0
141,28.23336670003337,-0.5493223003753962,-0.2367945823248896,-0.8013571838399308,-0.7159413685097701,-0.4974421225494249,-0.48987681264771105,0
142,28.433366700033368,-0.2667989792748845,-0.5360611735303377,-0.8009099343191823,-0.6257818197162313,-0.5786634501195573,-0.5230159898209356,0
143,28.633366700033367,-0.19488806388278188,-0.5501836581357034,-0.8119831185907969,-0.5086582071388024,-0.6684808340400511,-0.5425865855616568,0
144,28.833366700033366,-0.16230421817794677,-0.5696473390508088,-0.8057041950207153,-0.4335440078953736,-0.724820387802316,-0.5354203943109719,0
145,29.033366700033366,-0.11110904043953074,-0.6107550653271939,-0.7839853514637771,-0.374169820594313,-0.7667122446724961,-0.5216792877100666,1
146,29.23336670003337,-0.07620694811160011,-0.61743147058006,-0.7829245686506844,-0.31068293546342207,-0.8010950420866472,-0.5115885526045558,1
147,29.433366700033368,-0.06300974942462856,-0.6091064281285375,-0.7905815142601935,-0.275435385620623,-0.8107832948308212,-0.5164937532742252,1
