,timeStamp,x_gaze,y_gaze,z_gaze,x_head,y_head,z_head,fixations_head
0,0.03333333333333333,-0.9989078326276903,0.013879726229487667,0.04461496514449648,-0.9997267428677905,0.016732881449529922,-0.016323304608891653,0
1,0.23333333333333334,-0.9976591560860011,-0.010646159161822445,0.06754900127218065,-0.9999328334151891,0.0011685945034172155,-0.011530960287773659,0
2,0.43333333333333335,-0.9970477332026912,-0.03437513702810786,0.06865979660379035,-0.9995202771607035,-0.01902682010687154,-0.024437587057881013,0
3,0.6333333333333334,-0.8871350301170984,-0.10606944723866983,-0.4491555529007942,-0.9934823442141281,-0.052087276681262146,-0.10138908887414955,0
4,0.8333333333333334,-0.8700915172421397,-0.08900258628929308,-0.48478788274573087,-0.9852537098135314,-0.0415141039102658,-0.16598706719260226,0
5,1.0333333333333334,-0.817626889735626,-0.0901612921739689,-0.5686450655503545,-0.952354989456107,-0.05198213777690868,-0.30052925217056825,0
6,1.2333333333333336,-0.8111021532285891,-0.19233627573992373,-0.5523767320067373,-0.8653415671183056,-0.1660319976549722,-0.47288195987152526,0
7,1.4333333333333336,-0.47248840688434146,-0.23897914382107394,-0.8483181444354729,-0.7555298420793746,-0.258814114176647,-0.6018221598034365,0
8,1.6333333333333335,-0.4644278068104406,-0.20008228842421003,-0.8627130983821769,-0.7236925867609861,-0.2547967383517308,-0.6413639076160371,0
9,1.8333333333333335,-0.3949813964602845,-0.19244281979818803,-0.8983069951627928,-0.6727877330965519,-0.2568983373066126,-0.6938010597310307,0
10,2.033333333333333,-0.4287892822022256,-0.1829340394186587,-0.884689148057369,-0.7031459619228125,-0.24467046179437937,-0.6676242366458606,0
11,2.2333333333333334,-0.9816932854993035,0.1862351624756655,0.03993441452237985,-0.8687887264914201,-0.18795711672125248,-0.4581247330097452,0
12,2.4333333333333336,-0.9955505077047379,0.00588561289617209,-0.09404544736283249,-0.9590159941210828,-0.15754218240288745,-0.23551811773977535,0
13,2.6333333333333333,-0.9923122695933208,-0.12345136235804532,0.008724720425052653,-0.9807972430710786,-0.15925448579153556,-0.11258231095267664,1
14,2.8333333333333335,-0.9891330897868306,-0.14697556857048674,0.003730004308336993,-0.9848780873492582,-0.1610256060229052,-0.06392110186959786,1
15,3.033333333333333,-0.9882640583512661,-0.15265410642512361,-0.005556506333371147,-0.9848169367175763,-0.165675407216873,-0.051838794331394385,1
16,3.2333333333333334,-0.987472835230643,-0.1574728285828917,-0.009985386304939947,-0.9842785667933307,-0.1706894714794575,-0.04539611522289486,1
17,3.4333333333333336,-0.9863039180311822,-0.16353935727470875,-0.021435015710611148,-0.9825632506840072,-0.17865759920255722,-0.051487092095544786,1
18,3.6333333333333333,-0.9861688613694992,-0.16539187844982894,-0.010793674444905865,-0.9821276076563453,-0.18301249727198918,-0.04395211168412798,1
19,3.8333333333333335,-0.9867957977803198,-0.1618701146861835,0.005667402807656419,-0.9827279294627654,-0.18186728328229443,-0.034206840329730336,1
20,4.033333333333333,-0.9878094499240306,-0.15556877514929243,0.0055539930980298274,-0.9834672054904028,-0.17759977029927593,-0.03536350257740833,1
21,4.233333333333333,-0.9894422458615778,-0.14492211716670847,-0.0012736013174553713,-0.9843811232334141,-0.17119595697721138,-0.04105786814216095,1
22,4.433333333333334,-0.9904400018751166,-0.13786914308086726,-0.004549952941139363,-0.9849966786090816,-0.167118801311953,-0.04304473692722366,1
23,4.633333333333334,-0.990798026873242,-0.13533770811715462,-0.001724733511723549,-0.9852588901786344,-0.1664354279091502,-0.03954955955082016,1
24,4.833333333333334,-0.9914954124643278,-0.13014161841718197,-7.885397552337371e-05,-0.9860050596950491,-0.1626095705190949,-0.03677159000313399,1
25,5.033333333333333,-0.9914487693948475,-0.1304795987982376,-0.0021004673036564957,-0.9857269154783695,-0.16418006291836065,-0.03724721521969501,1
26,5.233333333333333,-0.9992403218648136,0.03335891489914151,0.020148497617837227,-0.9861843969907196,-0.161811819711991,-0.03545800521102557,1
27,5.433333333333334,-0.9989221201932417,0.040677297759920926,0.022359678789946758,-0.9874690785133213,-0.15468742134368643,-0.031250930515635135,1
28,5.633333333333334,-0.9983819190768133,0.04733712144410835,0.03150778624221245,-0.9890697082147422,-0.1460579758943561,-0.02020346429820351,1
29,5.833333333333334,-0.9898879589524449,-0.06102971593825406,-0.12805156185482083,-0.9886223796032095,-0.14763114787221657,-0.028824203815881484,1
30,6.033333333333333,-0.9809828783591601,-0.07081963900174176,-0.18071295221383638,-0.9882113005099913,-0.14883570530044324,-0.03586583851063694,1
31,6.233333333333333,-0.9823502087825154,-0.05228722255495733,-0.17959430297878914,-0.9886036452289028,-0.14847174816875605,-0.024879160673931942,1
32,6.433333333333334,-0.9971127824128987,0.07077189635270094,0.02752158853427431,-0.9920710420931599,-0.12563043961654005,-0.003469882122908209,1
33,6.633333333333334,-0.9896605870309897,0.13014811231760695,0.060277618878327534,-0.9982135723506329,-0.02221205113439774,0.05546430166684611,1
34,6.833333333333334,-0.9904304545007381,0.11792124533384783,0.07170840045891616,-0.9961895329818284,-0.005301629242280905,0.08705347267527129,1
35,7.033333333333333,-0.9899084135575285,0.12559293328595475,0.06563343566085139,-0.9945400144432265,-0.010174155132283614,0.10385878026729994,1
36,7.233333333333333,-0.9873402653733421,0.1412485390761162,0.07216682465899064,-0.9930364073989189,-0.0008554263064981292,0.1178047614745807,1
37,7.433333333333334,-0.986173550498401,0.14583923801070295,0.0786933602906585,-0.99174388463693,0.0003900800639537978,0.1282338298687031,1
38,7.633333333333334,-0.9939825242557907,0.043595042220386446,0.1004898689813505,-0.9907608975642647,-0.0013309345170319346,0.13561368836133053,1
39,7.833333333333334,-0.996718184707472,0.05867774141468646,0.05576542778382455,-0.9902013144452404,-0.001657440676367141,0.13963742249598587,1
40,8.033333333333333,-0.997150887658091,0.0585359825446287,0.047577788832779265,-0.9897280977268773,-0.00442708293054096,0.14289399394888364,1
41,8.233333333333334,-0.9976191245759004,0.05675973616045449,0.03917160491235854,-0.9902425863011717,-0.008848367718319237,0.13907309827672723,1
42,8.433333333333334,-0.9977166089699117,0.05471651943927086,0.03959382131132015,-0.9897946804945706,-0.012578110813496135,0.141944642706285,1
43,8.633333333333333,-0.9972367807175369,0.05858755175013225,0.04567605460248156,-0.9883983032807452,-0.010057911309208719,0.1515507587966513,1
44,8.833333333333334,-0.9973424298115763,0.06216302751096015,0.03799783820446445,-0.9891413619836897,-0.00634431660587827,0.14683022733707077,1
45,9.033333333333333,-0.9977597511389744,0.06195114917074787,0.025249438083169012,-0.9906817207071246,-0.006697188785008502,0.1360326281417394,1
46,9.233333333333334,-0.9978094092323659,0.06428320160275504,0.015622190597245785,-0.9918982241079054,-0.004455487186466345,0.12695692830844216,1
47,9.433333333333334,-0.9978262005570202,0.0651959324902457,0.009610612294157137,-0.9927059329014991,-0.0034361727757003966,0.12051192264178558,1
48,9.633333333333335,-0.997558780001944,0.06892531170728894,0.011215250647516427,-0.9925134096863076,0.00010352001854621248,0.12213566586573076,1
49,9.833333333333334,-0.9978117029328741,0.06604942744148826,0.0030460835263234286,-0.9936448817068054,-0.0028163398366983193,0.11252518512667761,1
50,10.033333333333333,-0.8960111610494754,-0.051366760196775815,-0.4410503998656594,-0.9818610253897961,-0.0761444880906235,-0.17364027111795086,0
51,10.233333333333334,-0.7204864178513798,-0.086147480248478,-0.6880973283907773,-0.8136854433833529,-0.17228457060891442,-0.5551882797359272,0
52,10.433333333333334,-0.48919934978301544,-0.2119279647151036,-0.846032229849188,-0.6935862591363304,-0.21485326680970945,-0.687587212561772,0
53,10.633333333333335,-0.36722311885620007,0.15476338749333157,-0.9171670921206854,-0.6728486393463954,-0.21710141110302097,-0.7072069610989286,0
54,10.833333333333334,-0.33096812056689334,0.1992839492648539,-0.9223589381221511,-0.6379102968387416,-0.17469733955293099,-0.7500341943806543,0
55,11.033333333333333,-0.057863375174491104,0.023901757417283873,-0.9980383438554763,-0.49961461037052146,-0.11998105330059973,-0.8578984718212239,0
56,11.233333333333334,0.014879511286689701,0.015483883037662622,-0.9997693981663699,-0.3662465576045576,-0.10018877348010467,-0.9251084632146459,0
57,11.433333333333334,-0.491473721701969,0.3448744966474323,-0.7996969191128575,-0.3609592819895275,-0.06359149160235858,-0.9304109408972964,0
58,11.633333333333335,-0.5573905900751205,0.5119252610018927,-0.6536423006842912,-0.44554527808167926,0.16632879230019887,-0.8796727448495132,1
59,11.833333333333334,-0.5153348065964061,0.4288790524569851,-0.7419520169619083,-0.4657775977573928,0.2458792406715562,-0.8500556619622807,1
60,12.033333333333333,-0.39409549865170734,0.28292859796283215,-0.8744370454167917,-0.4549751079192474,0.20444773097044586,-0.8667172413624327,1
61,12.233333333333334,-0.3895795436667534,0.2743294793481548,-0.879187759194232,-0.452795406072733,0.1961143588680319,-0.8697789825497109,1
62,12.433333333333334,-0.38947422346725663,0.2436945971346571,-0.888213247245252,-0.45684851332657095,0.17574579457794906,-0.8720108093134324,1
63,12.633333333333335,-0.3911072544796928,0.21772666766064044,-0.8942204502709329,-0.46255288554182966,0.1520198953772867,-0.8734613783599171,1
64,12.833333333333334,-0.38004001344608995,0.19929510876593515,-0.9032447330606863,-0.4624361745169303,0.13835218876238098,-0.8757919024304839,1
65,13.033333333333333,-0.3763237878167594,0.19325008052172502,-0.9061097136117645,-0.4630093135644473,0.13208994946602565,-0.8764557152547084,1
66,13.233333333333334,-0.3680622008405728,0.16179579986121395,-0.9156158230719171,-0.4490601917769777,0.08516024597148991,-0.8894339079815311,1
67,13.433333333333334,-0.004665897485092399,-0.3204091319099783,-0.9472677644622735,-0.3695588251831629,-0.16321871978509156,-0.9147600364253766,0
68,13.633333333333335,0.08840876742677814,-0.33232498243389375,-0.9390122448042894,-0.3325908228164848,-0.25881127608784105,-0.9068627613636132,0
69,13.833333333333334,0.12501790212168062,-0.4744386378934225,-0.8713658835546226,-0.26359572024530176,-0.384525719547515,-0.884679188901167,0
70,14.033333333333333,0.24878550767970176,-0.5497458170429469,-0.7974241705719337,-0.08508497019099245,-0.5373036830455306,-0.8390859908455786,0
71,14.233333333333334,0.45160925836806454,-0.5851990779550524,-0.6734917348541135,0.19410981744689065,-0.6502078068796807,-0.7345414805465045,0
72,14.433333333333334,0.5768194516047609,-0.6017368399090564,-0.5524419388013962,0.37838840723037503,-0.7051086791862374,-0.5997032297811142,0
73,14.633333333333335,0.7412375304763354,-0.4206463312083622,-0.5230904199603432,0.4794873902769144,-0.7049648204265059,-0.5226054386690387,0
74,14.833333333333334,0.7177580940224249,-0.4008105394166825,-0.5693630036785005,0.6036551096055751,-0.6230984234849347,-0.4973417972558412,0
75,15.033333333333333,0.5403191497288097,-0.27878414213489866,-0.793936155197913,0.6121062666378874,-0.5579947976368665,-0.5603282289451602,0
76,15.233333333333334,0.5459086649067949,-0.2523548661145159,-0.7989372635745599,0.6318965294501386,-0.4992275701685134,-0.5928563141710751,0
77,15.433333333333334,0.2534127739755609,-0.12152186813775506,-0.9596949523417957,0.5752347269702225,-0.500737966455524,-0.6468125677794772,0
78,15.633333333333335,0.2063743433969107,-0.0798958672940011,-0.9752057633016908,0.4908029373845857,-0.4554265861016904,-0.7427644992367517,1
79,15.833333333333334,0.20696715095254117,-0.03897577321956809,-0.97757121864779,0.4903844962438281,-0.3735703877245992,-0.7873806012716975,1
80,16.033333333333335,0.15551206490472375,-0.14471413036975636,-0.9771764518961731,0.45911423143952285,-0.3511094420167798,-0.8160491910518399,1
81,16.233333333333334,0.17676456371346577,-0.14864225202926348,-0.9729644237724507,0.4775884800683492,-0.34870736492630006,-0.8064195045707665,1
82,16.433333333333337,0.1815944091157711,-0.17509371812963892,-0.9676598888294549,0.4698590091377007,-0.399802859556256,-0.7870134592386454,1
83,16.633333333333336,0.17466216027504392,-0.18080934663359902,-0.9678848639884736,0.4568847580457868,-0.4196333823063244,-0.7843240034064985,1
84,16.833333333333336,0.2079652137744513,-0.2736341364715209,-0.9390819076189426,0.4548034033523238,-0.530584903636665,-0.7152856243012399,0
85,17.033333333333335,-0.03314058882810006,-0.755021210685367,-0.6548623311714682,0.31985522641865743,-0.7038302797571669,-0.6342835102930056,0
86,17.233333333333334,-0.11722551755148947,-0.7153781822715005,-0.6888339671972556,0.15114801645103815,-0.7834311901166883,-0.6028182540992488,0
87,17.433333333333337,-0.262186832113826,-0.6577860299889339,-0.7060988626371764,-0.044023807806265525,-0.7870498485994382,-0.6153165365613364,0
88,17.633333333333336,-0.26963819210024503,-0.4987122829400927,-0.8237604653086917,-0.25117089199845627,-0.7102101692147159,-0.6576584969090755,0
89,17.833333333333336,-0.4739610125619688,-0.19575123101679623,-0.8585117437325144,-0.51200063851482,-0.5217640671499062,-0.6823617840937495,0
90,18.033333333333335,-0.4886880767416963,-0.18711210188490007,-0.8521578638836333,-0.6479614461294384,-0.34642008203971036,-0.6783355298740054,1
91,18.233333333333334,-0.5580621325201719,-0.1893848207884763,-0.8078985368856382,-0.6975540263689051,-0.28369216429291827,-0.657979586473113,1
92,18.433333333333337,-0.5866539958992169,-0.16064370879566658,-0.7937447246563942,-0.72737204114123,-0.22994406576420823,-0.6465722236423916,1
93,18.633333333333336,-0.5865770761460153,-0.15278733597553554,-0.7953510946151334,-0.7333687188250795,-0.21734983225437424,-0.6441501165627912,1
94,18.833333333333336,-0.4342771701324649,-0.15255449211010252,-0.8877671239907272,-0.7234484627663063,-0.22586449271770115,-0.652386045720204,1
95,19.033333333333335,-0.41730712932570624,-0.1475538488229955,-0.8967065414679761,-0.7158181990388455,-0.236593870919073,-0.6569837487855485,1
96,19.233333333333338,-0.3957762618027201,-0.14062775569606098,-0.9075158317744951,-0.7019119452489904,-0.24156839901585156,-0.6700480055292285,1
97,19.433333333333337,-0.3713092764598,-0.1314096243635846,-0.9191631693227933,-0.6805346416590742,-0.2478766571879908,-0.6895141509231432,1
98,19.633333333333336,-0.3425462224642603,-0.16887489176404508,-0.9241987645561683,-0.6452714126138583,-0.3068498700689798,-0.6996198691446422,1
99,19.833333333333336,-0.1311149080586796,-0.5811009094265381,-0.8032002327865789,-0.5033789925632028,-0.5412566186272405,-0.6735360885938194,0
100,20.033333333333335,-0.09572295725984808,-0.5560267461331521,-0.8256339219278777,-0.40650975433507874,-0.6228346092698501,-0.6684510970341117,0
101,20.233333333333338,-0.08039633894139064,-0.5382338900465921,-0.8389521489871362,-0.33225593758305777,-0.6704400613730543,-0.6634124780608958,1
102,20.433333333333337,0.005895346287003639,-0.5405209704073751,-0.8413098866898132,-0.24578290175093714,-0.7055401750863278,-0.6646832527949257,1
103,20.633333333333336,0.15763646760024067,-0.6443481356386875,-0.7483089095964752,-0.20445335101328999,-0.7174407910371046,-0.6659410924514947,1
104,20.833333333333336,0.1858598063929178,-0.659427837554956,-0.728430545368041,-0.18262664722126365,-0.7254535143841027,-0.6635998087646462,1
105,21.033333333333335,0.16643490430056068,-0.7658814277506295,-0.6210676784836903,-0.20521432679459295,-0.7208018126368911,-0.6620663312520992,1
106,21.233333333333338,0.01616807780386742,-0.6746039225925172,-0.738002805470899,-0.24866066770644263,-0.7014643487812694,-0.6679188870848436,1
107,21.433333333333337,-0.0103626888807401,-0.6707919364802087,-0.7415731876438715,-0.29547017527118563,-0.6778218875947754,-0.6732420547044511,1
108,21.633333333333336,-0.37707324208145243,0.0718848978242779,-0.92338958818636,-0.5040430742345428,-0.48937311157447555,-0.7116561929640656,0
109,21.833333333333336,-0.4009884738443309,-0.0016898285170337294,-0.9160815402154865,-0.634320658614683,-0.2581064228164729,-0.7287100771606763,1
110,22.033333333333335,-0.3709511400724856,-0.13346138110715952,-0.919012138892568,-0.6176686109479539,-0.26564434735315323,-0.7402152171962847,1
111,22.233333333333338,-0.3720296212013897,-0.12088802135888574,-0.9203151890742021,-0.6172175430284745,-0.26153990866620247,-0.7420507939169447,1
112,22.433333333333337,-0.36235515744189667,-0.1260982859098362,-0.9234706070936202,-0.6105067737121819,-0.27170819420166137,-0.7439463263268498,1
113,22.633333333333336,-0.3610128413509762,-0.14171168138920678,-0.921730724093289,-0.605543447007997,-0.2806222067420707,-0.7446934341518556,1
114,22.833333333333336,-0.35705933735896794,-0.1289513493572818,-0.9251379243678811,-0.6010057846072652,-0.2814827694924391,-0.7480370962375273,1
115,23.033333333333335,-0.25592575948971863,-0.4700589069911664,-0.844716893158815,-0.5827671988089917,-0.3249065432620821,-0.7448611482268398,1
116,23.233333333333338,-0.23444280984100033,-0.5093055981834008,-0.8280364584804855,-0.5646243351796854,-0.3698593188358259,-0.737837003946805,1
117,23.433333333333337,-0.3572609272703143,-0.0747521883804607,-0.9310084533334204,-0.5732342562116521,-0.35477522081290025,-0.7386047862034417,1
118,23.633333333333336,-0.3583088758554512,-0.07054963002721519,-0.93093367066952,-0.5825959881712588,-0.341087326114001,-0.7377271518191232,1
119,23.833333333333336,-0.36719244190601524,-0.06012288239892623,-0.9281998435784952,-0.587367588663553,-0.3387344393217287,-0.7350226495863632,1
120,24.033333333333335,-0.37143693120691273,-0.04508031518023876,-0.9273631280781234,-0.5876803741379824,-0.33787884968542486,-0.735166417070513,1
121,24.233333333333338,-0.3774328018263746,-0.02744927227693265,-0.925630065175586,-0.5938300262284877,-0.3271720228130089,-0.7350675937884336,1
122,24.433333333333337,-0.3817249257959106,-0.022884811541418994,-0.9239926224958835,-0.5972996326290292,-0.32432343783072437,-0.7335171821674574,1
123,24.633333333333336,-0.38394997482598175,-0.01783946364849333,-0.9231815478917798,-0.5988622374288236,-0.32244530157857815,-0.7330709706922268,1
124,24.833333333333336,-0.38484810980307027,-0.00863783596817562,-0.922939499734837,-0.5991475614722755,-0.31624393159452546,-0.7355351625255336,1
125,25.033333333333335,-0.48833896485012707,-0.26489234857004196,-0.8314788626767093,-0.5965938846403489,-0.3207700689553089,-0.7356509360234271,1
126,25.233333333333338,-0.4831023108036544,-0.28695282831168817,-0.8272062811778526,-0.5880216103015213,-0.3391628186234334,-0.7343018236950076,1
127,25.433333333333337,-0.19603637359690843,-0.6037909777051703,-0.772661760066336,-0.5524782165616258,-0.42351262740450807,-0.7179170388379259,1
128,25.633333333333336,-0.1869658502139193,-0.6049305149820442,-0.7740173401787234,-0.5481363412870855,-0.46117654768589267,-0.6977555039015667,1
129,25.833333333333336,-0.4588766084671323,-0.11867731961653041,-0.8805384443681822,-0.5790709631369179,-0.43684589976716304,-0.6883621717586609,1
130,26.033333333333335,-0.3157255908290187,-0.48254757791936104,-0.8169854260265758,-0.5778147343715634,-0.4250564987416854,-0.6967475192783823,1
131,26.233333333333338,-0.2999543435416613,-0.48318777342967045,-0.8225308306675005,-0.5629002674402669,-0.4414505329621114,-0.6987594120032616,1
132,26.433333333333337,-0.12018517890175509,-0.7608240986977911,-0.6377320860777252,-0.4994589461190239,-0.5507049281433454,-0.6687786205167652,1
133,26.633333333333336,-0.0814417381383794,-0.7853824445091193,-0.6136299040511959,-0.4621866664018297,-0.602292383189167,-0.6508666303880372,1
134,26.833333333333336,-0.10183685679143628,-0.7754528303415602,-0.6231389592330947,-0.47100413140877084,-0.5916558648927849,-0.654292324373319,1
135,27.033333333333335,-0.10389893899626748,-0.7740746861774754,-0.6245105208839106,-0.4695271010145662,-0.5908176120898968,-0.656108871039898,1
136,27.233333333333338,-0.35113324639151733,-0.565186491234418,-0.7465049721232148,-0.46985019013164336,-0.5902002433633647,-0.6564331432576237,1
137,27.433333333333337,-0.35671833394406005,-0.5567450996895613,-0.7501912584133692,-0.4755643831062074,-0.5850384606284208,-0.6569387468450468,1
138,27.633333333333336,-0.35827943161295384,-0.553828567270817,-0.7516047943952016,-0.48040413500987666,-0.5798026040086783,-0.6580583617356199,1
139,27.833333333333336,-0.10753887961052969,-0.5742346994543329,-0.8115971287003817,-0.48356826000329606,-0.5733331045900105,-0.661400702372295,1
140,28.033333333333335,-0.10138388975101739,-0.5657199508307401,-0.8183411538783926,-0.4848187563068083,-0.5680746805402991,-0.6650127298497052,1
141,28.233333333333338,-0.10019978612550917,-0.5666055856557644,-0.8178741426185884,-0.4862627679298137,-0.5677386746164965,-0.6642449231043774,1
142,28.433333333333337,-0.10331916883729136,-0.6485201860210918,-0.7541529802857905,-0.48832380824216326,-0.5679594294763193,-0.662542032457417,1
143,28.633333333333336,-0.10287619502583234,-0.6524236693120694,-0.7508394263878149,-0.48889353477741626,-0.5690016409285487,-0.6612263184972769,1
144,28.833333333333336,-0.17042750439196083,-0.6115171308491857,-0.7726585691136212,-0.48906339405706106,-0.5699023769323449,-0.660324372835239,1
145,29.033333333333335,-0.31797498966057514,-0.25905344665903085,-0.9120215006919705,-0.5008315492161624,-0.557217291732962,-0.6623266936365482,1
146,29.233333333333338,-0.3405123611666147,-0.21770658790404546,-0.9146885663852561,-0.5417829757576015,-0.5007761050479365,-0.6750514793645419,1
147,29.433333333333337,-0.38458489649788424,-0.0413059580725409,-0.9221649934872942,-0.6076095070295606,-0.3838341938584529,-0.6953286982372624,1
148,29.633333333333336,-0.3991008483407227,-0.04017462076026547,-0.9160264803489497,-0.6383604573876125,-0.3202513222987482,-0.699953582039396,1
149,29.833333333333336,-0.39052845072604647,-0.07633522865786381,-0.9174205480799228,-0.6315633105121761,-0.3310218114698152,-0.7011079411518194,1
150,30.033333333333335,-0.33735370711538415,-0.43687840352549145,-0.8338643395831996,-0.6185768856116377,-0.361147265651573,-0.6978074871333778,1
151,30.233333333333338,-0.33062235846463633,-0.4389163627274034,-0.8354886490033412,-0.6089434991206415,-0.38244199339652496,-0.6949287276876684,1
152,30.433333333333337,-0.32881180862744414,-0.43247953407225975,-0.8395500265712522,-0.6033847439304032,-0.3949445118024097,-0.6927811222811994,1
153,30.633333333333336,-0.3279035514450285,-0.4274944174144834,-0.8424534313712474,-0.5996898371667537,-0.40509349929618527,-0.6901241598631974,1
154,30.833333333333336,-0.33216550002521134,-0.4176331309477719,-0.8457237424406168,-0.6004597998030665,-0.4046149602323247,-0.6897352845669531,1
155,31.033333333333335,-0.3379266680357731,-0.4124080240871151,-0.8460054306556204,-0.603178564439771,-0.40467603594372975,-0.6873230138248291,1
156,31.233333333333338,-0.3391457479676643,-0.40882686005760277,-0.8472548377736743,-0.6027804536820422,-0.40592653815043134,-0.6869347642127874,1
157,31.433333333333337,-0.3413011056885313,-0.4048457478251035,-0.8483003452337613,-0.6032744570254687,-0.4056600573054385,-0.6866584648918083,1
158,31.633333333333336,-0.34375509490987843,-0.40126275246369025,-0.8490115654151973,-0.6039254992076223,-0.40612098167411387,-0.6858131958856424,1
159,31.833333333333336,-0.34306132263195804,-0.400261489582749,-0.849764478470953,-0.602723012283858,-0.4083994201648928,-0.6855179677240065,1
160,32.03333333333333,-0.1902660913991804,-0.5273799801422583,-0.8280514301713574,-0.6001416507812787,-0.4141936133914382,-0.6843052313282909,1
161,32.233333333333334,-0.17621014474679722,-0.5330499223718627,-0.8275311263920313,-0.5969467964364593,-0.41472661214401235,-0.686772421842781,1
162,32.43333333333333,-0.2101316670966897,-0.4604603814555822,-0.8624505316787425,-0.5949983178113618,-0.41262893172406984,-0.6897204988297093,1
163,32.63333333333333,-0.3920331877987009,-0.32987854666842537,-0.8587724518825207,-0.5979287460098677,-0.40941115408107037,-0.6891035637762101,1
164,32.833333333333336,-0.41605025094486026,-0.29553882425160904,-0.8599761578373529,-0.6040335911351364,-0.39935286647582624,-0.6896815995935599,1
165,33.03333333333333,-0.5842807782100863,-0.2607499502033958,-0.7685215909023916,-0.6081894642548147,-0.3900852843334851,-0.691331357972359,1
166,33.233333333333334,-0.602328398088231,-0.22163986332476937,-0.7668613119996621,-0.6117114393950918,-0.38408551895623544,-0.6915832770110224,1
167,33.43333333333333,-0.6033205048405086,-0.18208302243170102,-0.776434247944493,-0.6209242146581635,-0.36736101738259536,-0.6924586648737724,1
168,33.63333333333333,-0.5181941306300075,-0.09387449849414707,-0.8500955366975429,-0.6374946558503435,-0.33683069983481767,-0.6929254241338237,1
169,33.833333333333336,-0.4086068159249629,-0.051956597085153704,-0.9112304768822183,-0.6454703904827351,-0.3211054268118508,-0.6930074169026222,1
170,34.03333333333333,-0.3951752874252354,-0.047083550926324914,-0.9173982948755416,-0.6486454408391847,-0.3124240438095893,-0.694010308949517,1
171,34.233333333333334,-0.39573288834478165,-0.024371225409897397,-0.9180422236772755,-0.6775533338048052,-0.2515507214015431,-0.6911177283302443,0
172,34.43333333333333,-0.3846695368172432,-0.07780204226470006,-0.9197696394555812,-0.6944395207505788,-0.15449094837566413,-0.70277044537295,0
173,34.63333333333333,-0.4024041329586795,-0.08853089343458953,-0.9111713311367114,-0.7108526240847701,-0.12568203654183466,-0.6920206445782481,0
174,34.833333333333336,-0.4034860664591633,-0.08274474333137222,-0.9112366880368333,-0.7158297595795172,-0.09326984082146082,-0.6920176963730552,0
175,35.03333333333333,-0.41994365311007803,-0.08103868079473633,-0.9039248090563792,-0.7210358159414878,-0.07284922955231694,-0.6890575751584382,0
176,35.233333333333334,-0.4402763812728835,-0.07220814431597548,-0.8949540166889569,-0.7314838366168296,-0.04580327407226471,-0.6803186436167865,0
177,35.43333333333333,-0.316401277272463,0.43200363560576116,-0.8445490456828183,-0.7379573140273334,0.2365509588768302,-0.6320305740452878,0
178,35.63333333333333,-0.32813569077258914,0.43918997811948723,-0.8363247763641828,-0.7108549317786761,0.3826775302043604,-0.5901213212913298,0
179,35.833333333333336,-0.3117442144216297,0.47245010964780576,-0.8243824589766677,-0.656032379889185,0.503013798773827,-0.5626709827066403,1
180,36.03333333333333,-0.3759077814559792,0.4515404505215719,-0.8091999514233919,-0.6171946033248419,0.5693885592414916,-0.5430170257290188,1
181,36.233333333333334,-0.39538359532340966,0.41204801087237963,-0.8209069674970786,-0.6327112966705201,0.5356599823022402,-0.5592359058800438,1
182,36.43333333333333,-0.37177491875636526,0.42094350130148955,-0.8273995277347826,-0.6792930279889801,0.4289133386823551,-0.5954782363998856,1
183,36.63333333333333,-0.3439311906734397,0.468112694016408,-0.8139913032598389,-0.6624034746436999,0.4548086668525664,-0.5952904445190974,1
184,36.833333333333336,-0.2745986102211977,0.5606752969609229,-0.7811778380384123,-0.6551105991357219,0.46233020322804547,-0.597562453709359,1
185,37.03333333333333,-0.33490429056937393,0.6556238246229306,-0.6767543991323776,-0.6608905399768803,0.4636273144839252,-0.590146937155054,1
186,37.233333333333334,-0.34188205417024986,0.6572139195282489,-0.67170419457872,-0.6568932102990244,0.47175054353028495,-0.588168968020179,1
187,37.43333333333333,-0.39419699078907644,0.5987948568432748,-0.6971753379680604,-0.7003929779731587,0.37468192315776067,-0.6075056648827997,0
188,37.63333333333333,-0.5169496449786863,-0.11786980728436279,-0.8478618832611581,-0.772427958106008,0.043460069113788066,-0.6336136614127005,1
189,37.833333333333336,-0.48801159850442594,-0.0989153080377502,-0.8672141843633279,-0.7661070587126934,-0.03551602886719713,-0.6417309298172333,1
190,38.03333333333333,-0.46909568614167513,-0.07284789634661219,-0.8801377285636292,-0.7645263940565167,-0.04531834457026921,-0.6429973875812797,1
191,38.233333333333334,-0.4586687537338942,-0.07385445862800097,-0.8855328866219262,-0.7596422954208837,-0.06192226963451891,-0.6473864499130338,1
192,38.43333333333334,-0.45871209228844223,-0.06661966070409105,-0.886084102778078,-0.7611151819735522,-0.06204040643471354,-0.645642832949288,1
193,38.63333333333333,-0.6691249631952649,-0.014670509496482622,-0.7430050873177442,-0.7681233525311636,-0.05762034245117564,-0.6377040155370635,1
194,38.833333333333336,-0.7236792668383377,-0.0025704360918598476,-0.6901316625156564,-0.816736382503994,-0.037344271656305175,-0.5758012563973357,1
195,39.03333333333333,-0.9895997901526701,-0.016654810011881935,-0.14288062371525206,-0.9969984609140832,-0.010956747381146624,-0.0766421465107518,0
196,39.233333333333334,-0.9645352641135589,-0.15440228512939222,0.2140832983401774,-0.9789787850949888,-0.07153570931972396,0.19100570835989264,0
197,39.43333333333334,-0.7321320746692623,-0.07023920283799305,0.677531607842147,-0.8494132617115747,-0.0881975179176897,0.5203059760003366,0
198,39.63333333333333,-0.6679344944362117,-0.3762314507811402,0.6421163497259366,-0.7387391991629293,-0.2822233602982556,0.6120574895563935,0
199,39.833333333333336,0.06415400482315209,-0.8271528449455554,0.5583031745956895,-0.38366285803796707,-0.7267781537648864,0.5697335575268866,0
200,40.03333333333333,0.24066114792465537,-0.909792085149893,0.33817240230124856,-0.01715044306349761,-0.9235150631898712,0.38317853588651585,0
201,40.233333333333334,0.6164699713321642,-0.7556311738105713,0.22132849706122099,0.31303218496746876,-0.9135784844016209,0.25958660214450563,0
202,40.43333333333334,0.625965059729978,-0.7620891283866824,0.16549291341949385,0.5175572610953738,-0.8305702347983738,0.20563940904999045,0
203,40.63333333333333,0.9069728565499116,-0.42066435349723924,-0.02101759211812166,0.6550747984507772,-0.7365575438762562,0.16840425467799525,0
204,40.833333333333336,0.9024774957335344,-0.4300085697894608,-0.02503996010681929,0.7414767401744984,-0.6540408906129804,0.1498090691059088,1
205,41.03333333333333,0.9265528831189144,-0.37616393074787496,0.0006723007772230997,0.7905716681927191,-0.5915097713611737,0.1584696432608898,1
206,41.233333333333334,0.9194251664775039,-0.3930228924331053,0.013797437129051788,0.7943476026468573,-0.5863988054238177,0.15858224101932158,1
207,41.43333333333334,0.9014982075998478,-0.4323961829456984,0.018289960859775873,0.7748408817813475,-0.6124932035698814,0.1564406708660125,1
208,41.63333333333333,0.893997624529212,-0.448066660031207,-0.002124971671664915,0.7668003926995283,-0.6281374272487028,0.1321382996910068,1
209,41.833333333333336,0.685586805873977,-0.705067115397607,-0.18124870867516632,0.7436134972979974,-0.6602915428471609,0.10513821893468218,1
210,42.03333333333333,0.6011958899697014,-0.7700565337393354,-0.2134863853478687,0.6274383496729308,-0.7767292409822668,0.05488901131211409,0
211,42.233333333333334,0.35895738238210617,-0.8776912471777728,-0.3175022397730641,0.276975188137907,-0.9576407591073464,-0.07879671092296309,0
212,42.43333333333334,-0.29679391234739183,-0.6559855665720049,-0.6939714043407944,-0.22830319976103985,-0.9181261025955298,-0.3239168237551326,0
213,42.63333333333333,-0.4144255726223921,-0.4338455893302804,-0.8000184056478106,-0.566256731866756,-0.6261811312267006,-0.5359575584980873,0
214,42.833333333333336,-0.4175286069220767,-0.3590976867149525,-0.8346967795539166,-0.6643555051961982,-0.4102004106713112,-0.6247938746503455,0
215,43.03333333333333,-0.4281715731734985,-0.3816412513008014,-0.8191575301684594,-0.671196194313745,-0.3352412417337797,-0.6611421772807565,0
216,43.233333333333334,-0.6597187819576269,-0.30520725217577727,-0.6867457039921379,-0.6858161984695443,-0.3194528393640161,-0.6539159161077599,0
217,43.43333333333334,-0.7114552819203321,-0.2780211779094897,-0.6453956975851954,-0.7387478677815759,-0.2872711624320726,-0.6096940766344229,0
218,43.63333333333333,-0.8979527661742419,-0.2657989669656637,-0.35075880442265955,-0.8450337221679391,-0.27616740355765057,-0.45787506332101524,0
219,43.833333333333336,-0.9142886202065366,-0.28709089370724133,-0.28575363114264274,-0.9015096414694035,-0.2840181655773857,-0.3265180668198384,1
220,44.03333333333333,-0.9136455786380673,-0.29468922963345606,-0.28001788259529437,-0.9168772640213583,-0.2893271154928023,-0.2750016417429603,1
221,44.233333333333334,-0.9144069233184425,-0.29225902146821425,-0.2800797082220386,-0.9261230426550953,-0.2845209582704319,-0.24767707638807354,1
222,44.43333333333334,-0.9197759006821087,-0.28260895473788117,-0.2722948240903199,-0.9350314882354914,-0.27337529174680875,-0.22579208549120824,1
223,44.63333333333333,-0.9110692001706238,-0.29252656212705686,-0.2904842903679735,-0.9308464548917121,-0.2801167693286136,-0.2346475505016673,1
224,44.833333333333336,-0.9116868323399783,-0.28326487412492946,-0.29763758301814724,-0.9332096907539539,-0.2698982713058442,-0.23722267224914922,1
225,45.03333333333333,-0.9411915136552951,-0.2641364784290154,-0.21069042547390032,-0.9596731832854808,-0.2461708238755668,-0.1357472163808029,0
226,45.233333333333334,-0.9819257408435381,-0.06012946841533284,-0.17946110023333384,-0.9780767579025528,-0.20756693667177276,-0.016787568362556307,0
227,45.43333333333334,-0.9957069053983675,-0.07490316077650246,0.05438083345900478,-0.9823972120833034,-0.16702196897270294,0.08366229480139153,0
228,45.63333333333333,-0.9626348458447735,-0.2153490301086759,0.1641918049010409,-0.9711526735133607,-0.1413919722842133,0.1920176942404858,1
229,45.833333333333336,-0.9635438064554507,-0.15538691081762487,0.21780321620191198,-0.9469998130303288,-0.10729939027471186,0.3027840731729428,1
230,46.03333333333333,-0.9520296733586661,-0.10096982139079146,0.2888677832727333,-0.937919281672692,-0.08289531964733783,0.3368022966773647,1
231,46.233333333333334,-0.9509195986345473,-0.1151783906019744,0.2872035084588109,-0.9355300030435864,-0.09820712718450153,0.33932134264651664,1
232,46.43333333333334,-0.9514564978300363,-0.11670617525851822,0.2847985277236008,-0.934960800323577,-0.10251488531179685,0.3396159597954812,1
233,46.63333333333333,-0.9532096554653066,-0.12050722205002107,0.27725324553826014,-0.9357058645116035,-0.10823129957063575,0.3357685525951534,1
234,46.833333333333336,-0.9541268028198733,-0.11334599324402464,0.27711862073172333,-0.9350137316498242,-0.09986505284320564,0.34025915541965185,1
235,47.03333333333333,-0.8296242181692524,-0.35175300685144834,0.43358214769293957,-0.895964723017545,-0.16764351752213177,0.41126982157812236,0
236,47.233333333333334,-0.8691901351048303,-0.3245502741753389,0.37306249954821114,-0.8790851942112715,-0.2391629359369151,0.41232306677236286,0
237,47.43333333333334,-0.9899869148341953,0.14100262149891093,0.006645990333028459,-0.9290596806913851,-0.1707690775393924,0.32815549952723116,0
238,47.63333333333333,-0.9932415260122244,0.10122642940299019,0.056784513691934324,-0.9714186465042918,0.03234028571453302,0.2351593484079947,0
239,47.833333333333336,-0.9918987148947893,0.12032846464258307,0.04071854598121477,-0.9743162440068597,0.10365478464966806,0.19990883493131711,0
240,48.03333333333333,-0.8807813724222578,0.45824210412403316,-0.1193245490330589,-0.9639840344570169,0.2183879554248525,0.15179421015745653,0
241,48.233333333333334,-0.8834302779478674,0.4564530556785435,-0.10583738454192097,-0.9131834549438551,0.3910347916747716,0.11483801337828914,0
242,48.43333333333334,-0.7082595702030476,0.7043108758289608,-0.048109992775270005,-0.8190622581476041,0.5615015245860127,0.11769900239904828,0
243,48.63333333333333,-0.5276079629240397,0.848401599586598,-0.04294837922491736,-0.7002024975429798,0.7070231614366834,0.09917011458423813,0
244,48.833333333333336,-0.5651825592387427,0.8240653533233071,-0.0385352849279518,-0.7123319297091536,0.6925864677575079,0.11360988775635676,0
245,49.03333333333333,-0.9989500720711066,-0.017963021140953266,0.042143604267085605,-0.9162349112282595,0.36039975950787834,0.1750017165436021,0
246,49.233333333333334,-0.9995644962918278,-0.0060192550372655486,0.02888920770220668,-0.9624341109147208,0.16760152371266904,0.21361252631103542,0
247,49.43333333333334,-0.9955811263140354,-0.07978979624800105,0.04951574842390354,-0.9667580171925674,0.08758045144947271,0.2402261449505497,0
248,49.63333333333333,-0.9943855689139738,-0.09819960946108036,0.03942305210564548,-0.9679124927075701,0.033791386185938625,0.2490051177792362,0
249,49.833333333333336,-0.9999272908284875,-0.011867374665172615,-0.002139737123567235,-0.9657212379727815,-0.013736617616907618,0.2592176611744765,0
250,50.03333333333333,-0.9962458804486809,0.0593170359229856,-0.0630526362521353,-0.9625498047489875,-0.02521453346888286,0.26992980694920066,0
251,50.233333333333334,-0.5978509068117819,-0.5962520655158399,0.5357777221874991,-0.8192117512948358,-0.2681723349972357,0.5069277120878073,1
252,50.43333333333334,-0.7571322174356481,-0.4555785766013142,0.4681868920237933,-0.7448108602601025,-0.3446349615208209,0.5713873692479984,1
253,50.63333333333333,-0.754025304013654,-0.45190158576332784,0.47668731647874435,-0.7434596552019614,-0.35064182688283974,0.5694892890364538,1
254,50.833333333333336,-0.7442709478015082,-0.45833069321147113,0.4857918606964692,-0.7362410581312834,-0.3700544184179436,0.5665764129674705,1
255,51.03333333333333,-0.7159600511786273,-0.47599186555352635,0.5107180719762827,-0.7178463295047641,-0.3910967772615224,0.5759687127198739,1
256,51.233333333333334,-0.8662338102260501,-0.3019118841554858,0.3981057651264851,-0.7578147514574886,-0.33664081516048755,0.5589183876394725,1
257,51.43333333333334,-0.9931418244773187,0.08443572001301614,-0.08086980684869974,-0.8574420626952823,-0.20162131817375517,0.4734363243127177,0
258,51.63333333333333,-0.9990678718277699,0.028095309299289183,-0.03277256591888688,-0.9022459630162898,-0.11323843016659207,0.416088067786393,0
259,51.833333333333336,-0.9986797446679514,0.03194380197733994,-0.04022885910870072,-0.920017460331728,-0.08340499927392632,0.38289878398980837,0
260,52.03333333333333,-0.9901265616975058,0.024039507691216065,-0.13809957961934435,-0.9647981890892408,-0.07391385898683761,0.252390958197388,0
261,52.233333333333334,-0.8751664295122239,0.03246954701640257,-0.4827312390672224,-0.9944160425058854,-0.058214310280305936,-0.08802175007077347,0
262,52.43333333333334,-0.720994598372196,-0.0169603573746237,-0.6927330910212397,-0.9468051162460145,-0.07331454574995037,-0.31334493650265033,0
263,52.63333333333333,-0.6436502913929576,-0.042581596428041685,-0.7641342225259908,-0.8467382128009466,-0.1239742805435585,-0.5173632928091885,0
264,52.833333333333336,-0.5762844891277108,-0.04282476879509988,-0.8161263546586763,-0.7296838766436535,-0.1585985252266558,-0.6651375406351827,0
265,53.03333333333333,-0.23334078978202658,-0.04625481311059177,-0.9712942747118428,-0.6090552958013911,-0.1753897306620261,-0.773492138961077,1
266,53.233333333333334,-0.21746531580304884,-0.05085632397990355,-0.9747422586170825,-0.5613060859974547,-0.1979172935409928,-0.8035945636573375,1
