,timeStamp,x_gaze,y_gaze,z_gaze,x_head,y_head,z_head,fixations_head
0,0.033366700033366704,-0.9989114394223464,-0.03074622411853732,0.03507999278262318,-0.9846517034725449,0.17239946400596082,0.027192786894195218,0
1,0.2333667000333667,-0.9930158719706328,-0.10810874086531601,0.04724381613417895,-0.9944721825844133,0.09767773631933589,0.038524510293104094,1
2,0.43336670003336675,-0.9898978959978518,-0.14099853946253074,-0.014885139181733736,-0.9972266124977863,0.06713778093084062,-0.03211855690831742,1
3,0.6333667000333668,-0.991706916149973,-0.1196969676042961,-0.04679773933264878,-0.9943291193501504,0.08554405788216754,-0.06318082441221118,1
4,0.8333667000333668,-0.9782836178142745,-0.18003297730613002,-0.10270973760313586,-0.9931508871332005,0.021755581336074414,-0.11479551414260834,1
5,1.0333667000333666,-0.972211639644945,-0.21856803918605047,-0.08386024078938291,-0.9960015754045317,-0.007356824245254618,-0.08903223533482557,1
6,1.2333667000333668,-0.9740743749324725,0.21990312289286643,-0.05311994580077851,-0.993820985196529,0.10268186845475044,-0.04214597577043348,1
7,1.4333667000333667,-0.8564241183447807,-0.31506802507897713,-0.4089863923044361,-0.9881677966403297,0.1525915434893632,-0.015499243159898484,0
8,1.6333667000333667,-0.8779447193979424,0.4742641321694638,-0.06547215147536864,-0.9716044228406892,0.23634279938532365,-0.011266174822018558,0
9,1.8333667000333667,-0.8326877419266379,0.5505359608305839,-0.05950865716400135,-0.9391092100278607,0.3433970296502857,-0.012343891939266119,0
10,2.033366700033367,-0.7921792619950399,0.6084910108798343,-0.046804984172968946,-0.9121172931277981,0.4099222129018631,-0.002413078295187292,0
11,2.233366700033367,-0.7133393291996917,0.4925053655117255,0.4985834597728808,-0.897974190140027,0.4400415581431374,-0.00240436048108994,0
12,2.433366700033367,-0.7279145399970544,0.4768176139219243,0.4927325699755189,-0.9091309928893935,0.41641146769915877,-0.009073441275404976,0
13,2.633366700033367,-0.7889855266602214,0.3828082317192376,0.4805826634916032,-0.9554623746368905,0.2939368304465754,-0.026320911083306968,0
14,2.833366700033367,-0.8906501678320198,0.0920458589683628,0.4452750143311117,-0.9964906921873562,-0.03059139160605189,-0.07791320262682981,0
15,3.033366700033367,-0.8575367428879913,-0.28971151404942974,0.42508584218277917,-0.896649450788978,-0.4320910604093262,-0.0965250118579036,0
16,3.233366700033367,-0.6799899714313906,-0.6102957011599498,0.40638995545955847,-0.6525219273858146,-0.749073821655087,-0.11447071237545949,0
17,3.433366700033367,-0.48183111089041936,-0.7730319022906346,0.4126262941440202,-0.4207705744281391,-0.900987828813897,-0.1057026774714539,0
18,3.633366700033367,-0.3741091294425731,-0.827752216555205,0.41817296332458553,-0.2952796049590124,-0.9504556860245473,-0.09717995574632066,0
19,3.833366700033367,-0.3764832688347482,-0.8258702083576482,0.4197603450003314,-0.29591168278201174,-0.950524494375708,-0.09454872598254847,0
20,4.033366700033366,-0.4398287030190714,-0.7875337425574458,0.43167269584029105,-0.3743477740978747,-0.9238237816939154,-0.0800834839696646,1
21,4.233366700033367,-0.3091838155268314,-0.9504611070625114,-0.032078843148959854,-0.4528486243900049,-0.8881355846649993,-0.07837924878333864,1
22,4.433366700033367,-0.3696016965959992,-0.9284920752970851,-0.03601460792333232,-0.5065557776467213,-0.858220147776899,-0.08282162810838395,1
23,4.633366700033367,-0.37769676510597694,-0.9252197656485149,-0.03624277696021333,-0.5118650449753166,-0.8549697372203775,-0.08379095517856096,1
24,4.833366700033367,0.11965383660934603,-0.9878374219513975,0.09929847520018067,-0.507686938005903,-0.8581644145041942,-0.07620899328074042,1
25,5.033366700033366,0.18003961628733806,-0.9707302008221239,0.15896104484730572,-0.4959002674871521,-0.8645062959505398,-0.08192550865297453,1
26,5.233366700033367,-0.49979148632939585,-0.7389473416323005,-0.45184654086006903,-0.4950131739638296,-0.8643273846724168,-0.08888267383239486,1
27,5.433366700033367,-0.08746581358740485,-0.8671803381259937,-0.49025298838577314,-0.5017252042641026,-0.859190119689315,-0.10032027529071538,1
28,5.633366700033367,-0.5565492915148903,-0.7728238215499031,0.3049528274328301,-0.5092268949158115,-0.8544043342346651,-0.10334990631548616,1
29,5.833366700033367,-0.5630628238266904,-0.7669799248460524,0.3077369839773203,-0.5173074724541411,-0.8497985204490714,-0.10117041853070279,1
30,6.033366700033366,-0.5770188622703375,-0.7571764560142945,0.3061585325315605,-0.5298412953292424,-0.8418843945928017,-0.10246398345244362,1
31,6.233366700033367,-0.5820695506572726,-0.7504219013952372,0.3131485399997859,-0.5369575415836587,-0.838312990054275,-0.09438182686669495,1
32,6.433366700033367,-0.5867798129168118,-0.7439815233094655,0.3196575419530072,-0.5441362578014588,-0.8343791434052175,-0.08790436847051625,1
33,6.633366700033367,-0.5881049731637538,-0.7403347760820771,0.3256331676343203,-0.547474907819113,-0.8328639359325137,-0.0812950769201637,1
34,6.833366700033367,-0.5890839917182684,-0.7378264876857814,0.32953319221367483,-0.5513432419600406,-0.830600066868221,-0.07825700264831865,1
35,7.033366700033366,-0.5905363145875989,-0.7369377083341677,0.3289219895180037,-0.5525999279372691,-0.8296957177456702,-0.07898313489740771,1
36,7.233366700033367,-0.5958375348456426,-0.7335610645088456,0.3269033445924301,-0.5565479391380731,-0.826901754200298,-0.08054737948334625,1
37,7.433366700033367,-0.592255942587131,-0.7352818557952058,0.3295352651971974,-0.5527641365383397,-0.8297520423916412,-0.07722277840070212,1
38,7.633366700033367,-0.5959253652819242,-0.7318753515723534,0.3305017833150819,-0.5562929865755832,-0.8274825134328246,-0.07622862355908945,1
39,7.833366700033367,-0.5984628940289234,-0.7300775874262709,0.3298922260502082,-0.5584699503753927,-0.8259252271677018,-0.07719348195078889,1
40,8.033366700033367,-0.12712699149940454,-0.9660158760139005,-0.22506011490578876,-0.563211075271462,-0.822493920155655,-0.07935386568117968,1
41,8.233366700033368,-0.06842545304995473,-0.8852387532699658,-0.4600764143965058,-0.5662138316512815,-0.8202902080594645,-0.08078286581036125,1
42,8.433366700033368,-0.0746083184064506,-0.8839330378183341,-0.4616232050902696,-0.5725034672861098,-0.815724760849953,-0.08266132397723151,1
43,8.633366700033367,-0.07999090943425125,-0.8824785861198111,-0.4635008084651641,-0.5779230067454393,-0.8116012001451218,-0.0854897081367638,1
44,8.833366700033368,-0.08964891129391683,-0.8824468608636408,-0.46179065652709156,-0.5871370796195257,-0.8051303930768179,-0.08387550226271999,1
45,9.033366700033367,-0.13968824381842837,-0.8755258868299138,-0.4625382319653335,-0.6408529057978911,-0.7619708486528035,-0.09331655230303869,1
46,9.233366700033368,-0.871595445768737,-0.3416662439529099,-0.3515473746997798,-0.7576892934255893,-0.6413171517610103,-0.12091007189385189,0
47,9.433366700033368,-0.9097735898650309,-0.3113984084477893,-0.2744868783754124,-0.8547364868181466,-0.5049071477871875,-0.12039231792427552,0
48,9.633366700033369,-0.930651753811268,-0.2849246442506248,-0.22957626233272943,-0.9339040633275045,-0.3474285313255022,-0.08436003865208482,0
49,9.833366700033368,-0.6446917895331014,-0.6244985238563687,-0.4408787704231447,-0.9714020554326298,-0.22654738222157544,-0.07109381344261724,1
50,10.033366700033367,-0.992122339350997,0.007415560324826159,-0.12505308163245835,-0.9886582382750818,-0.13470308267559264,-0.06640758547413243,1
51,10.233366700033368,-0.9929722505795597,0.0372554919909406,-0.1123304851564213,-0.9958776014152195,-0.07402016809534866,-0.05242916854772409,1
52,10.433366700033368,-0.8221801280613565,-0.28140022875673365,-0.4948067787295049,-0.9963339036642261,-0.06684545383879352,-0.05338949063524018,1
53,10.633366700033369,-0.7191401098355074,-0.5407347896626669,-0.43639820081462993,-0.9918562980274699,-0.11234865182117923,-0.05999053673043885,1
54,10.833366700033368,-0.6822081824751757,-0.5793145601215096,-0.4460791815307455,-0.9825048098565123,-0.1728373189772159,-0.06936540764377416,1
55,11.033366700033367,-0.6002391731249896,-0.6508071577880549,-0.46493330534396327,-0.9531205378866281,-0.28880333711191064,-0.09029879695615471,0
56,11.233366700033368,-0.5391762579528862,-0.74915151272714,0.3847869200460954,-0.9225139923164561,-0.37581799664339227,-0.08791340841590069,0
57,11.433366700033368,-0.3786384077983585,-0.910760575913072,0.16476689443699943,-0.8867744535003236,-0.4536999755628274,-0.08824625087499675,0
58,11.633366700033369,-0.3111332092165967,-0.9205290726075552,0.23626754454824284,-0.8391620835268624,-0.5370675937458429,-0.08582189300467447,0
59,11.833366700033368,-0.19381470454670363,-0.9514957769549647,0.23893858361165216,-0.764160083156678,-0.6395476700457783,-0.08389365321045295,1
60,12.033366700033367,-0.09571917780283784,-0.9638982511630168,0.24847132712976547,-0.6992559287863294,-0.7110620682475207,-0.07370129684561963,1
61,12.233366700033368,-0.055316628655501465,-0.9653273854530475,0.2551139147294257,-0.6707476653698311,-0.7384969849044487,-0.06870060180202148,1
62,12.433366700033368,-0.04793635291199044,-0.966008195403037,0.25402809388661113,-0.6647183147910419,-0.7435813270316528,-0.07236278098030532,1
63,12.633366700033369,-0.05554056397597423,-0.9673393971925721,0.24732516328174545,-0.669779002122025,-0.7380853649657385,-0.08140075146961039,1
64,12.833366700033368,-0.07655561124445709,-0.9672939436615356,0.24182982641250356,-0.6833768338749854,-0.7244294332599972,-0.09054335508252524,1
65,13.033366700033367,-0.7553023957646383,-0.5464778128866413,-0.36177381189747715,-0.7234634267825975,-0.6839530572964972,-0.0938556632428518,1
66,13.233366700033368,-0.8933758601488897,-0.34259060686274934,-0.2907081845986532,-0.7950376450309502,-0.5984363939432473,-0.09893950367696369,0
67,13.433366700033368,-0.9082025426319307,-0.3180466211472865,-0.27205603895831937,-0.8664167068068219,-0.48887184711917486,-0.10161893160384773,1
68,13.633366700033369,-0.9123691432704621,-0.29530645237690073,-0.2835077522617183,-0.9176574647140726,-0.38067896683846125,-0.11396623035506155,1
69,13.833366700033368,-0.44482161686997185,-0.8922941013191512,0.07710360507935062,-0.9204309934194107,-0.3726838251761567,-0.11795572391802302,1
70,14.033366700033367,-0.39716979512869216,-0.9150659487503341,0.07007469782370417,-0.8993674474789055,-0.4200372482305745,-0.1212720269236282,1
71,14.233366700033368,-0.43767225321804487,-0.7517381628081551,-0.49328767807523777,-0.8695507860931845,-0.477981374879799,-0.12415810755944329,1
72,14.433366700033368,-0.42760905589362586,-0.7545052708484506,-0.49786774506857584,-0.860599717429807,-0.49282873719308323,-0.12840545999453168,1
73,14.633366700033369,-0.41467119389701657,-0.7636038755903504,-0.49493122970309705,-0.8503937301414002,-0.511025365884488,-0.12523409742885785,1
74,14.833366700033368,-0.38488312170801187,-0.7827427977288235,-0.48905898951757354,-0.8265578357661583,-0.5501108975533019,-0.11908041201921332,1
75,15.033366700033367,-0.33152783044906403,-0.8116480992271496,-0.4809539070001323,-0.7874917711008418,-0.6060626344659197,-0.11200354258990652,1
76,15.233366700033368,-0.2832422474963787,-0.8309053486236663,-0.47892601815080404,-0.7513838276909136,-0.650426495521741,-0.11121023967179623,1
77,15.433366700033368,-0.2673862471798837,-0.8335963137871154,-0.48334437046436285,-0.741651238791357,-0.660684726203309,-0.11597039519163747,1
78,15.633366700033369,-0.5762814858018995,-0.6820742027510551,-0.45019377057381355,-0.7562400073601491,-0.6438965361780312,-0.11618219298091872,1
79,15.833366700033368,-0.8131064449131012,-0.4460605073133573,-0.3740159529433581,-0.7784764921388077,-0.6165289844390176,-0.11775552018419637,1
80,16.033366700033366,-0.9118311671116268,-0.31742172212945763,-0.26039848886700073,-0.8136977424111683,-0.5698014738063909,-0.11498810565894524,1
81,16.233366700033365,-0.8931247318080018,-0.3958076683455041,-0.21369254341642402,-0.8419588009256153,-0.5280076991328306,-0.11096507198373048,1
82,16.433366700033368,-0.8905784309934919,-0.40158198068256107,-0.21354618011156654,-0.8377313986414743,-0.5347591971779717,-0.11062867966206054,1
83,16.633366700033367,-0.7549770573992323,-0.6514128786826578,0.07530540675920577,-0.8315631866929583,-0.5444964537634364,-0.10966438973565756,1
84,16.833366700033366,-0.7562658943497179,-0.49331357114270996,0.42977158767169327,-0.8347097125150034,-0.5393407347231564,-0.11122620060672103,1
85,17.033366700033366,-0.9015396094803529,-0.34921861257992176,-0.25548521124669377,-0.8589332784778181,-0.49956772741248523,-0.11254203148722723,1
86,17.233366700033365,-0.9162683824961766,-0.30203437401203265,-0.26311117071116524,-0.8964910537455045,-0.42761598611030016,-0.11596705987990874,1
87,17.433366700033368,-0.89708040932584,-0.3407512612752966,-0.2813100018539648,-0.9189415298945834,-0.3761082572281386,-0.11869727663183673,1
88,17.633366700033367,-0.8923537998844389,-0.35382485113894385,-0.28020112517316464,-0.9162243449516528,-0.38335635718079925,-0.11649400468257029,1
89,17.833366700033366,-0.8755479807446991,-0.3952003342299291,-0.2779072313532566,-0.8985226424699855,-0.4235261527985007,-0.11525041806629661,1
90,18.033366700033366,-0.6983464174606201,-0.602485538936101,-0.3864239337732495,-0.8801707501979366,-0.4598005126801644,-0.11782588440177234,1
91,18.233366700033365,-0.45294511838181334,-0.7543674387961304,-0.47515311955016293,-0.8802280344367005,-0.45945710408681056,-0.11873405954427943,1
92,18.433366700033368,-0.3648041490139077,-0.9104584388370649,0.19489321181768546,-0.8815871558452708,-0.4569249799765581,-0.1184214901192698,1
93,18.633366700033367,-0.3504252250402061,-0.9164062377554989,0.19339536979548635,-0.8742286955242504,-0.47105418051126324,-0.1176101481370958,1
94,18.833366700033366,-0.2445734686132635,-0.9480200089176009,0.2035727907711371,-0.8131399589631078,-0.5712158879559711,-0.11187410998147593,0
95,19.033366700033366,-0.14240530726752876,-0.9675341943235382,0.20880208638024364,-0.7520264205275704,-0.651147180052098,-0.10229180191340025,1
96,19.23336670003337,-0.08333124473864195,-0.9752019961736831,0.20502919379730383,-0.7136915918287268,-0.6933087522201685,-0.09983629524321809,1
97,19.433366700033368,-0.03511157253278535,-0.9793849679969938,0.198927780703959,-0.6814388985660244,-0.725035663706838,-0.09982140989942197,1
98,19.633366700033367,-0.01012742404315875,-0.9796977040107209,0.2002244841131389,-0.6637876061425431,-0.7416384634838215,-0.09673884128367506,1
99,19.833366700033366,0.004751964500042616,-0.9785796203763522,0.20581386109167943,-0.6542602815380205,-0.7509699318990659,-0.08937362801913645,1
100,20.033366700033366,-0.005652875955551306,-0.9777268996138105,0.20980503989417568,-0.6633050220028592,-0.7431623923193734,-0.08795513872385421,1
101,20.23336670003337,-0.03261380146620019,-0.9766677935743183,0.2122648368161722,-0.6823625269929264,-0.7257628814929837,-0.08746211524328429,1
102,20.433366700033368,-0.05674548358740167,-0.9749871082307817,0.21489553014478968,-0.700754496012904,-0.7082330154203909,-0.08572707965539018,1
103,20.633366700033367,-0.08741563432140492,-0.9723133478945147,0.21671469812254707,-0.7226123575569083,-0.6862370301482211,-0.08312712649548697,1
104,20.833366700033366,-0.09561240889594308,-0.971788157077167,0.21560622678781474,-0.7275539757320724,-0.6808858278208064,-0.08402203204654442,1
105,21.033366700033366,-0.0946508236388558,-0.9719385734830779,0.2153523414318177,-0.7267631600921096,-0.6816532218436149,-0.08464156356749727,1
106,21.23336670003337,-0.09702602598901183,-0.9715988014201579,0.21582798558039712,-0.72765139747138,-0.680444138107535,-0.08671342844704988,1
107,21.433366700033368,-0.10044546042151403,-0.9717253196517112,0.2136834402299121,-0.7296060775205475,-0.6779055178647705,-0.09010594039006817,1
108,21.633366700033367,-0.4446162912667909,-0.7935208648476673,-0.4155008912043082,-0.7381713653482016,-0.6684983056263814,-0.09062588346950823,1
109,21.833366700033366,-0.7315349195879607,-0.6055338745900041,-0.313345477304928,-0.7548319419021847,-0.6490093857041406,-0.09495028568735685,1
110,22.033366700033366,-0.2941386409400291,-0.840163053989925,-0.455640760486016,-0.7703751980262765,-0.6302416268188247,-0.09652743698418981,1
111,22.23336670003337,-0.8799482055692098,-0.3993807928790728,-0.25726666669977,-0.7976107116781658,-0.5944755571634781,-0.1020586329098225,1
112,22.433366700033368,-0.8914171723628408,-0.36520644654548334,-0.26832755396764296,-0.8355608326943007,-0.5384357424951526,-0.1092018592831682,1
113,22.633366700033367,-0.8903268093104475,-0.36499806886393843,-0.27220320047470764,-0.8509743092467873,-0.512762719243129,-0.11365350305355827,1
114,22.833366700033366,-0.8860995315467967,-0.3732839528429527,-0.27474844993646097,-0.8567022069308828,-0.5022432308556521,-0.1175289993977266,1
115,23.033366700033366,-0.8807994422164389,-0.38139518491811886,-0.28058876583442227,-0.8590678468832558,-0.49709863675441013,-0.12204662956540188,1
116,23.23336670003337,-0.4239954347236616,-0.7703391089841365,-0.47624104033883996,-0.8581016684199684,-0.4986612334475944,-0.12246836698262421,1
117,23.433366700033368,-0.8010605174250197,-0.41629051666438943,-0.4301212075195269,-0.8613742915701686,-0.4922335124504289,-0.1254611455499421,1
118,23.633366700033367,-0.8919169347967756,-0.3196827374738196,-0.3198235900992447,-0.8727567050996716,-0.47112228540810974,-0.12782615497387328,1
119,23.833366700033366,-0.9074738897179435,-0.3266220820918278,-0.26421422174096826,-0.892209758204975,-0.4334377233922571,-0.12686010919259574,0
120,24.033366700033366,-0.9043953996419558,-0.3465457223379407,-0.24894783275968171,-0.8939141278559709,-0.43131476930992513,-0.12200451546817877,0
121,24.23336670003337,-0.8151899469091712,-0.5646405200863325,-0.12902105849379344,-0.8852435020860401,-0.4490973545392904,-0.12105993623100149,0
122,24.433366700033368,-0.6129158922490552,-0.7095991549238486,0.34756747310400715,-0.8672285058054011,-0.48312538332126137,-0.12043497294895564,0
123,24.633366700033367,-0.8449260014891006,-0.49321032479501214,-0.20698702259619808,-0.8340951561930667,-0.5401557357061151,-0.11187962995581217,0
124,24.833366700033366,-0.7646856813744222,-0.6145396354361166,-0.19389905925243967,-0.7463153868507589,-0.658265406537126,-0.09848856738888251,0
125,25.033366700033366,-0.7177341709601905,-0.6696068317853028,-0.19100877116650275,-0.6982067279956683,-0.7093914538310216,-0.0962867083926557,0
126,25.23336670003337,-0.6853470216215457,-0.7043254374449608,-0.1850003733035188,-0.6643979721159754,-0.7419640047700928,-0.08980395466629289,0
127,25.433366700033368,-0.7079151649225851,-0.6835464939650271,-0.177821005116799,-0.6956511163780942,-0.7135998590817109,-0.0827330973702403,0
128,25.633366700033367,-0.9751682774179107,-0.07417595684221819,-0.20867380799785637,-0.8711336299300265,-0.4850308086871424,-0.07662449627392331,0
129,25.833366700033366,-0.9886482562958149,-0.0029380599263252255,-0.15021981602676185,-0.9635199086856752,-0.25621728464064103,-0.07734396303348524,0
130,26.033366700033366,-0.9693770128146156,0.15933997135373038,-0.18686621030995718,-0.9950890300370079,-0.05589428105566358,-0.08169242097818383,0
131,26.23336670003337,-0.9205034100783923,0.2916105582040259,-0.26007067189129196,-0.9914455943524225,0.09627103292738341,-0.08813354445536864,0
132,26.433366700033368,-0.8940441199566035,0.35432389595177566,-0.2741161949403538,-0.9699701752633556,0.22011357710795293,-0.10347884939598283,1
133,26.633366700033367,-0.8466474514569646,-0.21323165279417178,-0.48756574447769924,-0.9534333015308942,0.2798063827940898,-0.11257587521128183,1
134,26.833366700033366,-0.840940901454387,-0.21478441055966951,-0.4966750016274411,-0.9528808630398318,0.27677522760438594,-0.12415125547897671,1
135,27.033366700033366,-0.8236113677659264,-0.25801966523266523,-0.5050645178984201,-0.9650468762612388,0.22504933440450464,-0.13430310384542543,1
136,27.23336670003337,-0.7984095951059562,-0.30846418464447356,-0.5170995699421564,-0.9742863095623934,0.1680166896001606,-0.15012188053410475,1
137,27.433366700033368,-0.7806654062271023,-0.34360367764654154,-0.5220134444897417,-0.9789261578155468,0.12879455102514095,-0.15847883508760288,1
138,27.633366700033367,-0.7647902206016193,-0.3798304198667903,-0.5204082730087448,-0.9839452059284511,0.08262797858416397,-0.15819117827967835,0
139,27.833366700033366,-0.7354081256030987,-0.43633108402030385,-0.5184496831078245,-0.9880866632684511,0.005712472506773505,-0.1537924365138885,0
140,28.033366700033366,-0.6865294988030142,-0.5169234908465885,-0.5113387838647283,-0.9834257194251925,-0.10896945791864922,-0.144912082360162,0
141,28.23336670003337,-0.5984236332003717,-0.6220748525351806,-0.5048881391660932,-0.9540776419697673,-0.2666167336128539,-0.13657002032298843,0
142,28.433366700033368,-0.5075747681128968,-0.7068276583148259,-0.49270936282591515,-0.9081187017550708,-0.3993343153845201,-0.1259068230044001,0
143,28.633366700033367,-0.3928254405476636,-0.7868342484104053,-0.4760042424043787,-0.831633620671064,-0.5452242557509922,-0.10543259415528639,0
144,28.833366700033366,-0.26345456609761064,-0.8462738723405359,-0.4630466764766536,-0.7342043979675761,-0.6726615636056316,-0.09203435691466831,0
145,29.033366700033366,-0.16107977900734355,-0.8763531711203573,-0.45393658616841986,-0.6496047204498621,-0.755705672971625,-0.08320242188638333,0
146,29.23336670003337,-0.059642486734351186,-0.8909482707554807,-0.45017102596009156,-0.5568957959709528,-0.8270531030277052,-0.07648684332696376,0
147,29.433366700033368,0.05319812911038346,-0.8942282092911132,-0.4444388245497509,-0.44443734304194504,-0.893113697374666,-0.06945049799368225,0
148,29.633366700033367,0.2646681260331809,-0.8601894731529225,-0.4359184021568506,-0.18964239125847443,-0.9810164954262713,-0.04052652389885417,0
149,29.833366700033366,0.6659934751999431,-0.6138109887306169,-0.42389711146060627,0.356068233638315,-0.9344324035079218,-0.007176090028604759,0
150,30.033366700033366,0.8462699036843,-0.3008228809896351,-0.43969630927637066,0.7012490742919633,-0.7129121000876029,-0.00246441744603622,0
151,30.23336670003337,0.9215773989787761,-0.11649326052725936,-0.3703031433072665,0.8522277058423058,-0.5228246649554509,0.01903436652430399,0
152,30.433366700033368,0.9023357385921714,-0.1656632992303372,0.39792698595023746,0.8715115565506921,-0.4903187537973433,0.007424720412953527,0
153,30.633366700033367,0.8627402915855469,-0.2649108943832194,0.43069874310470024,0.810807001564292,-0.5840941508664457,0.03776280098097128,0
154,30.833366700033366,0.803739004725872,-0.3620876852645563,0.4721187567360785,0.7386065080488773,-0.6704233016563822,0.07066132509371345,0
155,30.997664330997665,0.7058638856129779,-0.4807296111011767,0.5202453421202928,0.6120608670833942,-0.7821924893827222,0.1164319738662173,1
