,timeStamp,x_gaze,y_gaze,z_gaze,x_head,y_head,z_head,fixations_head
0,0.033366700033366704,-0.9886811793553021,0.046496768450521114,0.14264493020176866,-0.9912966321616645,0.002480194048117007,0.13162384169452607,0
1,0.2333667000333667,-0.999190154436325,-0.01486810795312219,0.03738949910613648,-0.988799915282409,-0.009490284942380717,0.1489451645043005,0
2,0.43336670003336675,-0.9997079853931229,-0.009755838830555332,0.02210808788511582,-0.9945756829992343,-0.014117251113985464,0.10305296700042904,0
3,0.6333667000333668,-0.9804036336373192,0.07111857243730159,-0.18371408167372832,-0.9997747814220705,-0.015269699025517294,-0.014738477673121853,0
4,0.8333667000333668,-0.8719789817415258,-0.3159225405642658,-0.3739593611135204,-0.9623179976917755,-0.15214656104022062,-0.2253785599433251,0
5,1.0333667000333666,-0.7277799251106365,-0.39863549400370923,-0.5580556634659087,-0.8443315058748468,-0.28057332826559167,-0.4564897760663233,0
6,1.2333667000333668,-0.6800259560649601,-0.42487053923427165,-0.597536378782678,-0.7510528228066147,-0.3729114208174284,-0.5448456015956658,0
7,1.4333667000333667,-0.5698892906561683,-0.5318082335392809,-0.6264233385939891,-0.6424163157221716,-0.4933606853852308,-0.5864269020177764,0
8,1.6333667000333667,-0.6184179134332295,-0.48378432497954377,-0.619283465990315,-0.6910371537025268,-0.4728242233980188,-0.5467219640464164,0
9,1.8333667000333667,-0.9468313920982983,-0.0989141971019187,-0.3061475078273243,-0.9215758870001265,-0.20995304453342528,-0.32652351154407794,0
10,2.033366700033367,-0.9659278312030848,0.20414838729853693,-0.15908130270623225,-0.9775741645444718,0.019885875820681378,-0.20965043467167566,0
11,2.233366700033367,-0.967950340257122,0.22494020127782613,-0.11168726268117261,-0.9827134117938607,0.12667432414970062,-0.1350109843001165,0
12,2.433366700033367,-0.9220456220372351,0.3804912816748598,-0.07112141345186217,-0.9713252541745304,0.2151150307347289,-0.10125598330360899,0
13,2.633366700033367,-0.8850364752525391,0.4553011230775094,-0.09701198274914442,-0.9271577046940437,0.35172108188788564,-0.12911572786492,0
14,2.833366700033367,-0.5751948615547491,0.7990268083644996,-0.1752342168523447,-0.6592296990338883,0.7394139185622987,-0.13668672557360975,0
15,3.033366700033367,-0.07235605823469354,0.9886281919772638,-0.1318290516711095,-0.23326050663810588,0.9683899854633311,-0.0883763095929211,0
16,3.233366700033367,0.23656095054641402,0.9523247385881964,-0.19265645317377936,0.023691537601552348,0.9943793909119282,-0.10319078435450234,0
17,3.433366700033367,0.5023398721786826,0.8455220878648063,-0.18096146482675138,0.23405461157095986,0.9650674353268772,-0.11774244805494101,0
18,3.633366700033367,0.6171307848997861,0.7801898404250264,-0.10224190543288059,0.47850944489119673,0.8759414399958012,-0.061280542164713986,0
19,3.833366700033367,0.8212264632621941,0.5665760823208742,0.06766564105806391,0.7033141414411024,0.7061150632146922,0.08216286235444899,0
20,4.033366700033366,0.945419544283482,0.31364808413911954,0.08835589738479831,0.8520327737668201,0.5066652148546373,0.13164540433878782,0
21,4.233366700033367,0.9799215308186356,0.12049959227071368,-0.15885100472031538,0.9211879898700163,0.3841120553937376,0.06221427666088595,0
22,4.433366700033367,0.9265147427880657,-0.09465038030905983,-0.36415894456090864,0.9712890043083193,0.21451973554282414,-0.10285403819194933,0
23,4.633366700033367,0.9302340958314407,-0.11065854991267376,-0.349884569942555,0.9749462395341347,0.08096125980562398,-0.207183745571258,0
24,4.833366700033367,0.8156920221184224,-0.20408379977869745,-0.5412913519725288,0.9444481825117829,0.025155394346522773,-0.3276962567461848,0
25,5.033366700033366,0.8593602705326149,-0.11173764211233118,-0.4990136518826793,0.9131971361486783,0.13131332225111012,-0.38578206532863685,0
26,5.233366700033367,0.39999382607697115,0.8790404984280042,-0.25940844478110575,0.6314842275429602,0.7221517498657739,-0.2823553090173296,0
27,5.433366700033367,-0.3115179598035308,0.9388311897473741,-0.14680789446543946,-0.2843672254640594,0.9536753352750791,-0.0981765550925405,0
28,5.633366700033367,-0.7978007504860921,0.5981481136695924,-0.07571523385248428,-0.8567208189236625,0.515301763450186,-0.022215557789491972,0
29,5.833366700033367,-0.9799190810916644,0.06046930669828972,-0.19000541429100562,-0.9756948782449539,0.21563015268248642,-0.039027449579649535,0
30,6.033366700033366,-0.9711794230170306,-0.1708818857259437,-0.16616229848871597,-0.9960233948025047,-0.04089586335268967,-0.0791512815229953,0
31,6.233366700033367,-0.9727974602586282,-0.15316398738706494,-0.17379843003335138,-0.9717575585116273,-0.2165319042807221,-0.09381461455490728,0
32,6.433366700033367,-0.9824443826994513,-0.11335475958112899,-0.1481679229205804,-0.9717370064097117,-0.2266047531122919,-0.06616249874974037,0
33,6.633366700033367,-0.9761827767551092,0.20458487133331876,-0.07219568399990722,-0.9926980141976967,-0.1167116162552163,-0.03048034184593082,0
34,6.833366700033367,-0.976372112898536,0.18818481882020213,-0.10622603786104444,-0.9981713961282228,-0.026945015046867124,-0.054109427233696085,0
35,7.033366700033366,-0.9359723703963675,-0.17978185215545744,-0.3027114260977914,-0.9620709408064922,-0.21967441156435485,-0.16174874886553384,0
36,7.233366700033367,-0.8290095438902856,-0.4920897781025785,-0.2656893419499093,-0.8066297846540872,-0.5677712576286266,-0.16426865044709246,0
37,7.433366700033367,-0.3126179844585645,-0.9300075944039032,-0.19327666735570964,-0.5407537659546757,-0.8292915626687096,-0.14092859430337765,0
38,7.633366700033367,-0.19159281856626464,-0.9625195491263815,-0.19195913477451781,-0.4083383394047551,-0.9029558792846322,-0.13390474464141935,0
39,7.833366700033367,-0.28003740651052145,-0.9449668520436808,-0.16916471113538212,-0.36380335100216643,-0.9149539559428984,-0.174660757767839,0
40,8.033366700033367,0.12049753601035745,-0.9339680407720833,-0.3364283618124204,-0.20253603915719215,-0.9533517632738047,-0.22382932851895,0
41,8.233366700033368,0.29815387400954946,-0.874482255804033,-0.38260299488763494,0.01344342079339711,-0.9607969787845683,-0.2769267773181525,0
42,8.433366700033368,0.4333538077086685,-0.7929398465267717,-0.42831165888228906,0.2287979694306042,-0.8821509349336232,-0.411656673916708,0
43,8.633366700033367,0.5150815024444498,-0.6749143675980411,-0.5283764209815806,0.28797907142488866,-0.8230804149924145,-0.489496358390105,0
44,8.833366700033368,0.2869943578833726,-0.745702647510368,-0.6013000915010229,0.14133374513580493,-0.8372962139153275,-0.5281664724771407,0
45,9.033366700033367,-0.2891297059618676,-0.6393812980449062,-0.7124574154578048,-0.21104892858217025,-0.7823160958977398,-0.5860374355309026,0
46,9.233366700033368,-0.48648415485240876,-0.5366344809362303,-0.6894610945860836,-0.4292478721442279,-0.6466324388876357,-0.630565423439853,0
47,9.433366700033368,-0.628060108711934,-0.2315961929192593,-0.742902216492897,-0.5838137791812268,-0.47972608044878334,-0.6549995106680471,0
48,9.633366700033369,-0.6559380026408939,0.057113792393453336,-0.752650882820124,-0.7305277083513716,-0.15603498330261098,-0.6648175323475213,0
49,9.833366700033368,-0.7924137235047852,0.18943659793377857,-0.5798226161202735,-0.7761691810339184,0.058261646247778624,-0.6278271919801144,0
50,10.033366700033367,-0.8755927291774437,0.17044908919938037,-0.45197840723058647,-0.886990672762602,0.08817998373189946,-0.45329001412030806,0
51,10.233366700033368,-0.9600147964646181,0.27391289166183075,0.057821435043176196,-0.9873385438093798,0.14510670833257633,-0.06408309531583213,1
52,10.433366700033368,-0.9764802176614452,0.20889709629989975,0.053370288300954735,-0.9941265393401336,0.10622914047009785,0.02068316935564751,1
53,10.633366700033369,-0.985942069824347,0.1670322056411939,0.004298514757503656,-0.9970606920567039,0.07489213083569496,0.016159984353220688,1
54,10.833366700033368,-0.9932812226481534,0.11298056300781308,-0.02505603953196419,-0.9993197296947565,0.034660983105934746,0.012597384368559169,1
55,11.033366700033367,-0.9821080187481841,0.17860521480378655,-0.059699386558072165,-0.9997187365733688,0.018636424042666636,0.014667359784541764,1
56,11.233366700033368,-0.9615406617543838,0.2662683439901193,-0.06738490024999289,-0.999335680617292,0.03605384880601216,-0.005321412542447436,1
57,11.433366700033368,-0.9919837704949448,0.08756955517037711,-0.09110308491974972,-0.9986564883387915,0.05142829736358958,0.006352049206014169,1
58,11.633366700033369,-0.993293459467608,0.07120921223366557,-0.09108979894550484,-0.9994616810598176,0.028547138788367753,0.016168146464008996,1
59,11.833366700033368,-0.9751956403854715,0.20838552169606145,-0.07462531286788973,-0.999777545680383,0.01327757484109766,0.016387957763209417,1
60,12.033366700033367,-0.9786177121880998,0.19593223654167452,-0.06259338683524923,-0.9996211163285547,-0.011335376599150697,0.02508252434286032,0
61,12.233366700033368,-0.9899121595661755,0.008291256582779247,-0.14143963874144022,-0.9967994233171427,-0.0727381644432464,-0.033167289730088666,1
62,12.433366700033368,-0.98904433856726,-0.010877747040015918,-0.14721742752603867,-0.9895649304073267,-0.131923748049709,-0.057942844324902126,1
63,12.633366700033369,-0.9897094193406893,-0.003710695413621456,-0.1430436856623292,-0.9878301674139686,-0.14382017381956125,-0.05922261349689201,1
64,12.833366700033368,-0.9904959914896942,-0.017677425956847997,-0.13640087776252807,-0.9823227380934902,-0.1770519073683713,-0.06078371757082471,1
65,13.033366700033367,-0.9896139198010176,-0.04250184954241337,-0.13732400562734698,-0.9756452181873935,-0.2082082384432311,-0.06903432242327377,1
66,13.233366700033368,-0.9908269319102008,-0.030167284803052915,-0.13172670924694768,-0.9787072936814802,-0.1943533465563775,-0.066021284272645,1
67,13.433366700033368,-0.9859554808458373,0.08083929896925811,-0.14613965078722757,-0.9891944647124602,-0.13894816029719473,-0.046773066312299764,1
68,13.633366700033369,-0.9803464531496213,0.17475805800611569,-0.0915448139377048,-0.9959611415566698,-0.08442562544337792,-0.030556804113481446,1
69,13.833366700033368,-0.8900797304401382,0.4086032868589594,-0.20199363214632848,-0.9981017446491698,-0.06097497890138046,0.008657902532359533,1
70,14.033366700033367,-0.9843182865348087,0.15691261110035062,-0.0805974147901057,-0.9973687747565481,0.04132849409078246,0.0595607481216474,0
71,14.233366700033368,-0.9776502273267207,0.1794628665568567,-0.10951307015697576,-0.9991740777523754,0.014050159604778062,0.03812814397227927,0
72,14.433366700033368,-0.96101975951619,0.26459050374071386,-0.08020528130790269,-0.9985792385564412,0.047084163039917686,0.024951671584667823,0
73,14.633366700033369,-0.8956259162461426,0.4372808469187273,-0.08148422587408014,-0.9888364217671823,0.1472923441899561,0.022527679190334837,0
74,14.833366700033368,-0.8393624976245093,0.5374282931617816,-0.08149495254774716,-0.9373695527007454,0.3483354123790867,-0.0008730133425333871,0
75,15.033366700033367,-0.6130202706601733,0.7896003563743631,-0.027155569837641887,-0.7956837873588709,0.604942665003701,-0.030523476087483327,0
76,15.233366700033368,-0.6169632145541228,0.7860742826719296,0.03799492082969415,-0.7133001918205504,0.7005215585202632,0.02173435982741546,0
77,15.433366700033368,-0.6511642796969139,0.7588425435733108,0.011961392476929957,-0.7187035092335906,0.6942027570716095,0.03934206259841931,0
78,15.633366700033369,-0.5794993277331387,0.8144905327693847,-0.02803036185789491,-0.6470763617416517,0.7622208708712414,0.017650101514542476,0
79,15.833366700033368,-0.744908512563014,0.66482460537831,-0.055852949740659595,-0.7750113721198647,0.6311477312603546,-0.03177915055176929,0
80,16.033366700033366,-0.9815740890701319,0.13675898758994925,-0.13345144052992972,-0.9600762305927372,0.27848767293176135,-0.026424372762545938,0
81,16.233366700033365,-0.9954232534210595,0.016641903134694908,-0.09410416360973857,-0.9968840380455306,0.07758961909865073,0.01421498146898273,1
82,16.433366700033368,-0.9944979379368344,0.036579037101844555,-0.09816224062278929,-0.9995354908087455,0.024483902790374046,0.018147757929614403,1
83,16.633366700033367,-0.9924746147692207,0.0649138563758591,-0.10382836938477719,-0.9996290959121146,0.02225404548585137,0.015698027437941815,1
84,16.833366700033366,-0.9928372692422053,0.044672203290565954,-0.110808623567154,-0.999787909942413,-0.017469377011864358,0.010906695182278594,1
85,17.033366700033366,-0.9930795310269063,-0.007199557725187839,-0.11722291339129128,-0.9974567688612203,-0.0699966800670916,-0.013433504104278775,1
86,17.233366700033365,-0.9924928202387633,-0.026820813296511682,-0.11932579666031962,-0.9957674233395857,-0.08507407788607493,-0.03477987762308252,1
87,17.433366700033368,-0.9931277105725008,-0.022457048514768804,-0.11486092227136706,-0.9959475585501036,-0.07891900173015326,-0.0431306362578143,1
88,17.633366700033367,-0.9899092229880613,-0.031142951556392465,-0.13823836953439897,-0.9942014643209214,-0.08941461500667994,-0.05973671371395841,1
89,17.833366700033366,-0.9883283701016257,-0.0448870504759071,-0.14557536038711166,-0.9925925157718534,-0.10458266244689429,-0.06182689017912996,1
90,18.033366700033366,-0.991134597593148,-0.06212939611267562,-0.11743997442328874,-0.9909979734685354,-0.12849143605763677,-0.03758945917544605,1
91,18.233366700033365,-0.9899897704006909,-0.14028679521704918,-0.015487723839148884,-0.9766055703845234,-0.21441986448205982,-0.016299742618049274,1
92,18.433366700033368,-0.9796652404863962,-0.2000101448049305,-0.015873202507454165,-0.9719768022508825,-0.2345583456761585,-0.015603793122591959,1
93,18.633366700033367,-0.9426419701633965,-0.3290165165765273,-0.056340464200419535,-0.9695953228553168,-0.24435262179551234,-0.01329308537373171,1
94,18.833366700033366,-0.9419468537406891,-0.3315987697499497,-0.0527103465017722,-0.9688188848690207,-0.24725609794031086,-0.01594961919542432,1
95,19.033366700033366,-0.986893830348945,-0.048823304208358856,-0.15380784305543616,-0.9771709419445139,-0.20914648491380194,-0.03734565660786348,1
96,19.23336670003337,-0.9830566387271911,0.010953528005201305,-0.1829744935192773,-0.9908766110999868,-0.11901128072006092,-0.0632444198042542,1
97,19.433366700033368,-0.9778792920539539,0.14207180607009579,-0.15351772566071886,-0.9975290679158673,-0.02059250351752396,-0.06716924491001773,0
98,19.633366700033367,-0.9758256458276999,0.1545385110169516,-0.15453853098051606,-0.9978131486982804,-0.0006161596898565827,-0.06609493650848292,1
99,19.833366700033366,-0.9519765556481514,0.27750923710581243,-0.12934164378587687,-0.9969909773016447,0.03510767956745978,-0.069111808068521,1
100,20.033366700033366,-0.9374718638484053,0.331450948903387,-0.10623922516491614,-0.985562892315105,0.15048240286166226,-0.07759401858690805,1
101,20.23336670003337,-0.9565824725349491,0.2678503989998905,-0.11491795766773354,-0.9824013815335569,0.16983547599851534,-0.07773954369120381,1
102,20.433366700033368,-0.969301187279511,0.13701787766670342,-0.20416000964499054,-0.9875304737742356,0.13794300446308183,-0.07586363349412928,1
103,20.633366700033367,-0.9730979416828497,0.12067259207631181,-0.19626135996213176,-0.9920935574834533,0.10660000947731678,-0.06623300672068538,1
104,20.833366700033366,-0.9727440792096642,0.13062485360559262,-0.19158837121041733,-0.9933377022412135,0.09903549510201051,-0.058925206966512794,1
105,21.033366700033366,-0.9736281561238597,0.13364442969820178,-0.18489829640506686,-0.9944756717358547,0.09193116190318462,-0.05066359439134607,1
106,21.23336670003337,-0.9732637184371433,0.1330054257011642,-0.1872626260308167,-0.9951079031832222,0.08507463572516037,-0.05022516678441914,1
107,21.433366700033368,-0.9759605402541157,0.11736862640671447,-0.183645390364953,-0.996476061344495,0.07083571598305617,-0.04491948918376829,1
108,21.633366700033367,-0.9792717940426899,0.1006089003676542,-0.17579704934731777,-0.9975521786570716,0.059755802266534534,-0.03631659334260673,1
109,21.833366700033366,-0.9822495773563578,0.09917715980222676,-0.1592157616469574,-0.9980998447816838,0.059413647881931826,-0.01633151224291747,1
110,22.033366700033366,-0.9878254476436498,0.09283332325694742,-0.12483132251439968,-0.9987535961330931,0.04626374689666718,0.018732857077762236,1
111,22.23336670003337,-0.9887527198599104,0.09888121578986718,-0.11220768304152391,-0.9983533449446425,0.04768062450510745,0.03189289395221154,1
112,22.433366700033368,-0.9853859724948666,0.14111240059720237,-0.09540322640268095,-0.994840940904433,0.0860844656398945,0.05367464090123242,1
113,22.633366700033367,-0.9819091533735049,0.1664694647166684,-0.09023487041201451,-0.9919607341704892,0.10829316536619511,0.06547130821141618,1
114,22.833366700033366,-0.981434539696743,0.1569055331769856,-0.11030366244458348,-0.9938299126354961,0.09863017749963998,0.05073650399181553,1
115,23.033366700033366,-0.9272411486610318,0.3430381300945775,-0.15016222404781535,-0.9945262683147174,0.09598364351556175,0.041287308091959234,1
116,23.23336670003337,-0.923386643655065,0.3492408389362381,-0.15933594302148743,-0.9936167390982125,0.10734687695786853,0.03467598291652985,1
117,23.433366700033368,-0.9233158468176039,0.3468411082917267,-0.16489115383930686,-0.9899700104208677,0.13820995494315144,0.02928116838378379,1
118,23.633366700033367,-0.9778885886958695,0.14415075183286277,-0.1515073227419108,-0.9908587741462358,0.13178935707100978,0.028817617185133867,1
119,23.833366700033366,-0.980441770975651,0.13445780796017112,-0.14371858475741928,-0.9923696882289021,0.11705734229109037,0.038729581720161714,1
120,24.033366700033366,-0.987129439775419,0.15952211854187992,0.011320902109727863,-0.990348413813469,0.1179700955289105,0.07275352787354106,0
121,24.23336670003337,-0.984675317574341,0.16981404811106607,-0.03972037290866312,-0.9896301454329824,0.12408331722055614,0.07235679399916306,0
122,24.433366700033368,-0.888687500530692,0.37149454048492897,-0.26874957263296817,-0.9830556173445413,0.18272300141215972,0.014627301947894347,0
123,24.633366700033367,-0.6843453235641943,0.6576446543775196,-0.31492060377893727,-0.8773733785815665,0.45847439320987143,-0.14148210249783358,0
124,24.833366700033366,-0.28360863798162017,0.807920865543267,-0.5165559170912951,-0.6274287535250832,0.7243536977571673,-0.2857356816981017,0
125,25.033366700033366,-0.26935280365923425,0.8333473942968205,-0.4826812484234392,-0.3290799454904212,0.8638872299682239,-0.38132039464713985,0
126,25.23336670003337,0.27617147299215544,0.8390591382879274,-0.46873135158730755,-0.0393152785784891,0.9224577450297037,-0.3840911578063345,0
127,25.433366700033368,0.5968898599666848,0.7313001104816435,-0.33003430651750065,0.2717017455012432,0.8990997388234562,-0.3432168718742865,0
128,25.633366700033367,0.6457258146733643,0.7369086340882307,-0.20000959294653411,0.4616456492988732,0.8564941601969598,-0.2308701973662398,0
129,25.833366700033366,0.7284155270697179,0.6772699436203796,-0.10351928995213064,0.5648830615962197,0.8195225528832555,-0.09638418976882668,0
130,26.033366700033366,0.785349833403205,0.6029620029200523,-0.14022290186769557,0.6026534555099812,0.7962879106536831,-0.052291260346937034,0
131,26.23336670003337,0.6398520877273479,0.7604335453689435,0.11104111359570185,0.5704426689178856,0.8199138978938043,0.04833592368443766,0
132,26.433366700033368,0.49989654931838645,0.8505910903951519,0.16308965914476925,0.5145016530773054,0.8514761019517886,0.10137305749412695,0
133,26.633366700033367,0.5079566325970655,0.8492211496408815,0.14423417903974498,0.4767074735520299,0.8717815528372782,0.11290220897867657,0
134,26.833366700033366,0.58761918279675,0.8049622430525488,-0.08209435589058184,0.4964656005268838,0.867889431260215,0.017024764324405237,0
135,27.033366700033366,0.7135493090388642,0.5662499087554075,-0.4125632368554574,0.5700516508973598,0.806996189730358,-0.15426686316211474,1
136,27.23336670003337,0.7267598764633524,0.5773571698170659,-0.3721273712370546,0.6232770814523267,0.7370828328513757,-0.2612174903257072,1
137,27.433366700033368,0.7319414984219365,0.5779584541253887,-0.3608679373300453,0.6451185539930266,0.7159622954210813,-0.266870835479119,1
138,27.633366700033367,0.6397788212154643,0.7383072197457394,-0.21350763263983716,0.6393527761477835,0.7242132343762467,-0.2583470897579804,1
139,27.833366700033366,0.6177972188136176,0.7599063346093156,-0.20216072577727418,0.6239774258729696,0.740653353410121,-0.24916818031860605,1
140,28.033366700033366,0.6147458153743928,0.7663828582356946,-0.1863998312288956,0.5938985619453996,0.7691393127061217,-0.23602799785013034,1
141,28.23336670003337,0.5814096857821164,0.79400064038367,-0.1775549502240444,0.5678286987048613,0.7914846754942129,-0.22610302382976766,1
142,28.433366700033368,0.5777518550069568,0.7962681248671897,-0.1793317243448857,0.543512665582698,0.8085989263730388,-0.22530370307555855,1
143,28.633366700033367,0.5085296281510896,0.8414796196379937,-0.18250936147609612,0.5079095970806955,0.8319273017783678,-0.22343859503024616,0
144,28.833366700033366,0.35623829560076237,0.9151879169009396,-0.18848170602470476,0.44628997121003855,0.8694002160198496,-0.21205783640785847,0
145,29.033366700033366,0.28602634056011084,0.9539806693473877,-0.0900545113656298,0.31551737419574843,0.9318230131712575,-0.17931720136411528,0
146,29.23336670003337,0.11663483460697321,0.9847045519128799,-0.12943438800511622,0.03837439816742522,0.9842117045590493,-0.172785202416929,0
147,29.433366700033368,-0.36782322309832616,0.8914013277582099,-0.26478245678379003,-0.3365904520409475,0.9219430456262685,-0.19164521443602828,0
148,29.633366700033367,-0.663083802911698,0.6760981165357345,-0.32126501075123737,-0.6545541317751375,0.7237921873994543,-0.21836611008947635,0
149,29.833366700033366,-0.8351110008306875,0.4150111867931038,-0.36104754690780966,-0.8135977396609523,0.5312582162423799,-0.23626981545164458,0
150,30.033366700033366,-0.8272263752034619,0.4443078152345253,-0.3439289017940547,-0.8829404722475147,0.4048540214761663,-0.2377169404184558,0
151,30.23336670003337,-0.8289395760843825,0.4940931922978913,-0.2621661620536173,-0.8685928418096158,0.4385341609532627,-0.23072551838518782,0
152,30.433366700033368,-0.8489739032131898,0.47428794843530653,-0.23301127361565502,-0.8779081751605786,0.43053709559372555,-0.2095591689808441,0
153,30.633366700033367,-0.9506233163562161,0.2505744417223922,-0.18310586980056356,-0.967900105903696,0.19276859155076911,-0.1612750913909097,0
154,30.833366700033366,-0.8728042654632888,-0.4090021899565665,-0.2663267219034193,-0.9421419017887975,-0.2953989921517251,-0.1584552691756678,0
155,30.997664330997665,-0.5063402143709026,-0.8092168626790001,-0.297972576702597,-0.6887170321785018,-0.6949977192985635,-0.2065115487255667,1
