,timeStamp,x_gaze,y_gaze,z_gaze,x_head,y_head,z_head,fixations_head
0,0.033366700033366704,-0.8143822860722425,0.5356870882509863,0.22320581446935572,-0.9943777422935411,0.0688517927168907,0.08045083138706652,0
1,0.2333667000333667,-0.8304611626844447,0.5248124119676374,0.1868319820520881,-0.9968261411739229,0.0560925788844987,0.05649129903261921,0
2,0.43336670003336675,-0.8430553132706148,0.49842949977698375,0.20205388518474782,-0.9971202228680561,0.02617089438989958,0.07117826518250761,0
3,0.6333667000333668,-0.8640528039113556,0.46255254677949037,0.19864011055356384,-0.9978044663806248,-0.01469687352595156,0.0645774634020177,0
4,0.8333667000333668,-0.8988942908009144,0.40605468871968076,0.16464702771166018,-0.9960070947071584,-0.08663852606944049,0.021532140941405056,0
5,1.0333667000333666,-0.9793132152479446,0.1425839707409268,0.14358077074763176,-0.9315277879556058,-0.3636595076883039,-0.0027825769417672707,0
6,1.2333667000333668,-0.974721302013491,-0.16888715496356532,0.14627204890011547,-0.7733331884892676,-0.6339769961197783,-0.005380331956831909,0
7,1.4333667000333667,-0.8677671538157288,-0.47624782962262924,0.14201468775547293,-0.5265845428306691,-0.8499934327322993,-0.014828471390447826,0
8,1.6333667000333667,-0.6694063021302739,-0.730535175775155,0.13495762158335517,-0.23363044621805545,-0.9719232548860383,-0.02796428457303731,0
9,1.8333667000333667,-0.5676674533392493,-0.7994284054493361,0.196641518962968,-0.11484313971664395,-0.9919154555292163,0.053988724214327204,0
10,2.033366700033367,-0.5547378004313237,-0.8077745604129838,0.199414724436857,-0.09492026582532959,-0.9932710643831859,0.0663531144313656,0
11,2.233366700033367,-0.5249413293534926,-0.8253143354439852,0.20806933567261057,-0.05943645788966312,-0.996054539617005,0.06589887390454324,0
12,2.433366700033367,-0.4480790480145725,-0.8729287412832659,0.1929263573801343,0.030982591756282818,-0.9981563025500361,0.05219266890765889,0
13,2.633366700033367,-0.17469360424089947,-0.7346874656273024,0.6555276290801596,-0.0392550027043122,-0.9961387438711734,0.07852800596885941,0
14,2.833366700033367,-0.9492868422069882,-0.1497987882968636,-0.2764322959378596,-0.6028255995761995,-0.7862956415643404,0.13542695652091538,0
15,3.033366700033367,-0.9959110313899763,0.08916483817630773,0.014520646980998376,-0.9611759281270541,-0.25891580004940934,0.09541196818989969,0
16,3.233366700033367,-0.9945803160514759,0.1010367420745705,0.024526958105375685,-0.9946484445571608,-0.05403513324203057,0.08806063885491665,0
17,3.433366700033367,-0.9977839368163887,0.06260653036922106,0.022530818589579553,-0.9926006800116058,-0.08325043876858437,0.0883926155588601,0
18,3.633366700033367,-0.9690833214005322,-0.24605573443747986,0.018278176433801047,-0.9103124236740026,-0.40586647173282453,0.08126314310874452,0
19,3.833366700033367,-0.7595037561113177,-0.647754669427685,0.05973217464173286,-0.6405693570263064,-0.7590666159683035,0.11614116996712548,0
20,4.033366700033366,-0.5592564808549394,-0.8283332393556425,0.033109412564054676,-0.4229721647638864,-0.9017944857662983,0.0886637089030736,0
21,4.233366700033367,-0.4188574344883209,-0.9080468120122037,-0.0030719323456185918,-0.2779652449520296,-0.959019737793717,0.05492235538311353,0
22,4.433366700033367,-0.3590725133246188,-0.9332482794524459,-0.01070416151742131,-0.22285734476197816,-0.9735404660758326,0.050532809129232095,0
23,4.633366700033367,-0.4075361343515469,-0.913066561004029,-0.014958421510105162,-0.2831619336160782,-0.9579197790828192,0.047000172262736756,0
24,4.833366700033367,-0.5382599078187976,-0.8422254376943399,-0.030538233994081163,-0.42240242686365187,-0.9054911959949472,0.04076620849843002,0
25,5.033366700033366,-0.6368214816760469,-0.7708546859238469,-0.01553877939775181,-0.5258074287072507,-0.8486383486620709,0.05778841662810253,0
26,5.233366700033367,-0.6884738639735541,-0.7252611157806316,-0.00022926394753874764,-0.5811060850278,-0.8106932914089647,0.07135898827872289,0
27,5.433366700033367,-0.7056277812164616,-0.7085379967767611,-0.00795873728099654,-0.5982558065533461,-0.7990465718151408,0.06012126076253336,0
28,5.633366700033367,-0.7190482625774434,-0.6936793591312006,-0.04217277320365607,-0.6166269702768546,-0.7868220789396879,0.026118874788451332,0
29,5.833366700033367,-0.7687485987644116,-0.6370170605774452,-0.05687579828912609,-0.6762148031851868,-0.7365966970683496,0.012603405143732307,0
30,6.033366700033366,-0.8313205577641721,-0.5532196400982795,-0.05342433947365235,-0.7495963832930066,-0.6616859930470752,0.016640575691669116,1
31,6.233366700033367,-0.8789373054451635,-0.47385622806304645,-0.054124746859985855,-0.8059275141860684,-0.5918344729713811,0.014587613943063986,1
32,6.433366700033367,-0.8882240011251299,-0.4571946476935018,-0.04506859156530263,-0.81499582699168,-0.5788761535317609,0.02615723338621229,1
33,6.633366700033367,-0.8701806941131317,-0.49127213787968516,-0.03791102921198123,-0.7903397738356053,-0.6119072539370738,0.030537754872846202,1
34,6.833366700033367,-0.8530501923011992,-0.520706710220391,-0.034203674456780096,-0.7708244571621581,-0.636149013484589,0.033824382969227344,1
35,7.033366700033366,-0.8701235240417057,-0.49052128192312694,-0.047685688521145964,-0.7958310565660556,-0.6051745768777659,0.02041227341020023,1
36,7.233366700033367,-0.8908472300730288,-0.4504761751054265,-0.05884240251381025,-0.8217696015627118,-0.5697097889559006,0.011201710373207148,1
37,7.433366700033367,-0.9105261130409691,-0.4089707950048358,-0.06070491169268702,-0.847252032865879,-0.5310814292062307,0.010793903691583544,1
38,7.633366700033367,-0.9314668754707269,-0.35861450541740686,-0.061360381395736414,-0.8752535843398322,-0.4835413356274325,0.01090595433307539,1
39,7.833366700033367,-0.9468166886815778,-0.3162163858671147,-0.0595428865876724,-0.8959541370933853,-0.4439449059043677,0.013383002159818833,1
40,8.033366700033367,-0.9551346696642226,-0.29003789135521363,-0.05996485957323815,-0.9074329151081724,-0.4200228702133169,0.012095167466891732,1
41,8.233366700033368,-0.9612021654555505,-0.2682198114373021,-0.06440908224853838,-0.9168383717502302,-0.39917908759803805,0.007965934394945027,1
42,8.433366700033368,-0.9662191515314593,-0.2495202484792459,-0.0644995876938965,-0.9241100097748339,-0.38204389730913074,0.007946720254752376,1
43,8.633366700033367,-0.9702235004411655,-0.23334316610575592,-0.06494094258196147,-0.9304992801456753,-0.36622325680317835,0.0071844154148709,1
44,8.833366700033368,-0.9746317175490598,-0.21216489450713438,-0.07126761316437225,-0.9382430171067199,-0.34597351752951744,0.0015381868325798642,1
45,9.033366700033367,-0.9809116149109535,-0.18205836505623835,-0.06831658250992033,-0.9489683923687623,-0.3153375547408933,0.00460617575449493,0
46,9.233366700033368,-0.9877237418604696,-0.14219978976937936,-0.06466088117785387,-0.9609459854332401,-0.27659186553127885,0.008930453609209707,0
47,9.433366700033368,-0.9976174812431797,-0.06683755991332659,-0.01709098308601468,-0.9724285033997832,-0.233044283938306,0.008553800286439255,0
48,9.633366700033369,-0.9978091151858175,-0.06594880913834314,-0.005265379884737552,-0.9825507312115864,-0.18566528778272431,0.011066232788769958,0
49,9.833366700033368,-0.9994863348347788,-0.03196293238736898,-0.002331830127006003,-0.9883772889164026,-0.15138121861633994,0.013930592395676717,0
50,10.033366700033367,-0.9994396313792344,0.033198095808194814,-0.004278979229926238,-0.9963805006249984,-0.08397279996085577,0.01320858966777563,0
51,10.233366700033368,-0.9520830972071163,0.3057990302219238,-0.004972839011666023,-0.9985384045073957,0.05120470467895089,0.017295460172150348,1
52,10.433366700033368,-0.939451840237626,0.34250818381323656,-0.01088043634678775,-0.9919788581243377,0.12507290107574168,0.018295202945932024,1
53,10.633366700033369,-0.9994161475094382,0.03413951983071599,0.0013628217496719902,-0.9911026039614219,0.13255726700681347,0.012008304816812584,1
54,10.833366700033368,-0.999314533916219,0.036607609479483404,-0.005508650652148374,-0.9908411475901142,0.13495923683917255,0.004452486282231364,1
55,11.033366700033367,-0.9994952756117631,0.030437610052828263,-0.009096478661442144,-0.9918383709113896,0.12750137086296195,0.00021544351098188197,1
56,11.233366700033368,-0.9998278452759369,0.007464177241101133,-0.016987226642122984,-0.9943800390119635,0.10563710957166927,-0.007009928381194192,1
57,11.433366700033368,-0.9996401743882559,0.01189076702503963,-0.02404436334306851,-0.9937669294290379,0.11059264630574957,-0.014019862919204583,1
58,11.633366700033369,-0.9996108899785314,0.015377110132851068,-0.0232725830171544,-0.9933880552110769,0.11409843491125672,-0.012716875196238493,1
59,11.833366700033368,-0.9993612415106032,0.02896091466757312,-0.02093739210129207,-0.9916740564906079,0.12837481152124833,-0.010122917086820796,1
60,12.033366700033367,-0.9987407740484703,0.05003809617492563,-0.0036131958501486746,-0.9888489904850151,0.14869775403932767,0.008164065189993502,1
61,12.233366700033368,-0.9698018894913245,0.24275107623209,0.023584107513735766,-0.9855885753021303,0.16892832693700158,0.008853281435860687,1
62,12.433366700033368,-0.9342762726521225,0.3554701077348649,0.02772812410208577,-0.9818843033886923,0.1890751952203457,0.012401020574572397,1
63,12.633366700033369,-0.932092157743617,0.36041129531690186,0.03616500630224201,-0.9805459427654569,0.19513587076217398,0.02125196621703251,1
64,12.833366700033368,-0.9207394035304001,0.3876141589939097,0.0446566292271048,-0.9738710101955268,0.22497187344840236,0.031030817872893898,1
65,13.033366700033367,-0.8963032044888476,0.43862316554101893,0.06519420429608207,-0.958474892854677,0.2800622280500242,0.05376828235002114,1
66,13.233366700033368,-0.8721304271163921,0.4837503564166593,0.07330832670668853,-0.9428335916758388,0.3274925776827436,0.06175297539673392,1
67,13.433366700033368,-0.8597548250941378,0.5041686223456179,0.0814594437095554,-0.9346116141150709,0.34889238159324987,0.06910308840718975,1
68,13.633366700033369,-0.8515732032366101,0.5155831955594784,0.09485277004924926,-0.9292074215522841,0.3604563185318308,0.08151570500605852,1
69,13.833366700033368,-0.849082407471605,0.5189354631232058,0.09881826974465492,-0.9271023534565802,0.3651262378367899,0.08464075057808916,1
70,14.033366700033367,-0.8414399259765881,0.5321723800321218,0.09365580015920519,-0.9220192028518535,0.37863254833497184,0.08073402574997651,1
71,14.233366700033368,-0.8431359037079401,0.5297093342262446,0.09235729051993827,-0.9235914584103649,0.3749530844274547,0.0799312356325939,1
72,14.433366700033368,-0.8506622061273186,0.5179151089799934,0.09020948374115192,-0.9289046407787915,0.3618861049190505,0.07857872107728964,1
73,14.633366700033369,-0.8454877177328589,0.5293450038301271,0.07031632870794938,-0.924301015338177,0.3774878304259676,0.056307822947714546,1
74,14.833366700033368,-0.8146316618406212,0.5780151407320506,0.04768388209128748,-0.9011696526024878,0.4322549961776348,0.032386347552392475,0
75,15.033366700033367,-0.780981447573083,0.6222257818183986,0.05388000544854072,-0.8766038678360731,0.47945595642384764,0.04108095354942609,0
76,15.233366700033368,-0.7435330841642233,0.6650764582627949,0.06951156319530755,-0.8440525876712739,0.53316573904548,0.05752846211671094,0
77,15.433366700033368,-0.563677181225084,0.8252581527978513,0.03488576510301166,-0.6982922663759016,0.7140458994646037,0.050262950345083074,0
78,15.633366700033369,-0.2819944553814782,0.9586219605682776,0.039026450649980095,-0.45486059783082733,0.8872773568997239,0.07642465880867755,0
79,15.833366700033368,0.08221821904464033,0.9951230522591374,-0.0545002322892811,-0.21428381403736485,0.9749635816883765,0.059400853722589915,0
80,16.033366700033366,0.0411078431593192,0.9990761813475197,-0.012527134342968966,-0.14582228090252708,0.9871604120289037,0.06519343000111105,0
81,16.233366700033365,-0.011867252042490783,0.9999210625109555,-0.00412759929281087,-0.2039017111778499,0.9763294221284938,0.07214535095892355,0
82,16.433366700033368,-0.16289751019794513,0.9866378207355699,0.003195600956862279,-0.35345235617817916,0.9325724546994933,0.07334881490423109,0
83,16.633366700033367,-0.2926984846661693,0.9561825770982642,0.0065173865813470365,-0.46917314488020606,0.8795106315025586,0.07960910247696294,1
84,16.833366700033366,-0.33809666671875765,0.9409668988088631,0.0164905821515307,-0.5092239243734573,0.8558126586448203,0.09097080932354161,1
85,17.033366700033366,-0.3653614372134196,0.9305385379735354,0.024678929138442118,-0.5316766499304959,0.841315514505416,0.09750971731664393,1
86,17.233366700033365,-0.3457264355119869,0.937860119742319,0.029860133708662397,-0.5128642611312323,0.8524109961857754,0.10181229412939054,1
87,17.433366700033368,-0.3267139436974733,0.944729953502127,0.027263784577957428,-0.4950341367382203,0.8633958120857512,0.09741085738577346,1
88,17.633366700033367,-0.28630125784148586,0.9579836608626233,0.017288588103997492,-0.45792020260195604,0.8844588934004408,0.0896747117857189,1
89,17.833366700033366,-0.24545472320693057,0.9691395687530772,0.022813924092736103,-0.41751800618440577,0.9035207502583433,0.09658658480554623,1
90,18.033366700033366,-0.18231363852410515,0.9829035449272188,0.025736327974454073,-0.35791840123741275,0.9282278641603333,0.10142706863554854,0
91,18.233366700033365,-0.1119044186824335,0.9934170291179635,0.02449504720931337,-0.29089924922105176,0.9514553137132057,0.10055054852925617,1
92,18.433366700033368,-0.06393477590738167,0.9976089185905309,0.026244808597223886,-0.24546101171717183,0.9639412497662629,0.10279182227121923,1
93,18.633366700033367,-0.02261921997991062,0.9994777523380225,0.023077986672052703,-0.20498345318116412,0.9736697982593306,0.09974421226096108,1
94,18.833366700033366,0.014665040231727544,0.9997530842063708,0.016694526493775567,-0.16946237032719463,0.9809867767460032,0.09459095565949124,1
95,19.033366700033366,0.025496348268449764,0.9996180649455204,0.010661165956284118,-0.15953839245476348,0.9832345717777176,0.0883021981268772,1
96,19.23336670003337,0.052942419080565795,0.9985944981401595,-0.0024755900510721887,-0.13011216987404467,0.9887013818982076,0.0744338678508849,1
97,19.433366700033368,0.14256513054385583,0.9785999676751729,-0.14838223215454133,-0.051953948038159614,0.9973283318353677,0.05135159006039834,1
98,19.633366700033367,0.2064756271139827,0.9658155227515955,-0.1567424365637774,0.008989925302164414,0.9990466646669626,0.04271935229938563,1
99,19.833366700033366,0.20460707351369029,0.966362440433253,-0.15581905912965432,0.002355176339560061,0.9990811958294985,0.04279272466563731,1
100,20.033366700033366,0.1872697934870315,0.9702093926409802,-0.15370022406797165,-0.015338426263740157,0.998912322086282,0.04403300425753362,1
101,20.23336670003337,0.19411033546642908,0.9682078711961047,-0.15778053054485924,-0.005798018733546517,0.9991563223922041,0.04065742739588115,1
102,20.433366700033368,0.22982382134121115,0.9591857369606023,-0.16475355278557607,0.03459390237923038,0.9987880805252981,0.03500902910345976,1
103,20.633366700033367,0.3174757498986334,0.932376981404268,-0.1728650131569893,0.13435633045673434,0.9905577536902258,0.0272711032115528,0
104,20.833366700033366,0.643713864764969,0.7579252024625388,-0.10574425649399169,0.3559972470361406,0.9344501729855998,0.008296644494701414,0
105,21.033366700033366,0.8528674720490221,0.5204338904199408,-0.0420195290677526,0.6167253336670875,0.7871779939721093,0.0008176914244723199,0
106,21.23336670003337,0.8859128841597749,0.463694735924726,0.012064557820656982,0.76392509945974,0.6445714647048892,0.030758239605357424,0
107,21.433366700033368,0.9172133099909898,0.39645033905228605,0.039330301812977156,0.8026148004224551,0.5939975118938848,0.054556741166390706,0
108,21.633366700033367,0.8937207311221593,0.4476478644300013,0.029574384756613743,0.7587295676461181,0.6498025373640592,0.04567390518409227,0
109,21.833366700033366,0.7178139266125867,0.6947253104087331,0.04582477319648849,0.5274650677346666,0.8469469618499859,0.06679405761549723,0
110,22.033366700033366,0.5767129506935651,0.8150242614871369,0.05601451320567817,0.3668607470318406,0.9269622039956629,0.07844912141472855,1
111,22.23336670003337,0.5177951442798358,0.853837547748785,0.053381931536482456,0.30785571105590676,0.948330633223095,0.07677155241979941,1
112,22.433366700033368,0.49458857962244385,0.867864051975877,0.04684147942866678,0.2845318374374064,0.9562432120730642,0.06812160339189191,1
113,22.633366700033367,0.49946990627590826,0.8659538056007049,0.025569890308574844,0.2907814089951587,0.9556688574739097,0.04629478412631584,1
114,22.833366700033366,0.5025610321447477,0.8644035926439257,0.015454384293142316,0.293199476394954,0.9553839414329118,0.035715423752758164,1
115,23.033366700033366,0.495679836571686,0.867987807584698,0.029977750091961262,0.28591160395821114,0.9568897305980972,0.051152694923573806,1
116,23.23336670003337,0.4991632437960445,0.8659459060870732,0.03120486779411568,0.29028404465473767,0.9554708253074103,0.05301580335393057,1
117,23.433366700033368,0.5173032123051747,0.8550376788234224,0.03616565125919038,0.31222746997786954,0.9480513899461033,0.06093085435541329,1
118,23.633366700033367,0.5420130748650533,0.8403685328888861,-0.0015986261323857503,0.37055826245640394,0.926490776255978,0.06558517849244955,1
119,23.833366700033366,0.5529217293085753,0.8332288672679333,0.0026862631687810637,0.3868187332141953,0.919560256009229,0.06913901360886177,1
120,24.033366700033366,0.5732853611853436,0.8191701573088342,0.017439840171574687,0.4097187520718176,0.9082280882323405,0.08516034256941524,1
