,timeStamp,x_gaze,y_gaze,z_gaze,x_head,y_head,z_head,fixations_head
0,0.033366700033366704,-0.993118668305927,-0.05055598745333702,-0.1056380745511777,-0.987844484455384,-0.11826617907247954,0.10087807204082119,1
1,0.2333667000333667,-0.9930733930406774,-0.05563104865808877,-0.10349117092717558,-0.9872493118477641,-0.125247237479223,0.09824421489298812,1
2,0.43336670003336675,-0.9936159863012248,-0.053522046355449805,-0.09931093756766946,-0.9873273811130842,-0.12402640878202906,0.09900551716450583,1
3,0.6333667000333668,-0.9934684278098866,-0.04740722504613602,-0.10379324620791812,-0.9886300499281511,-0.12012432415738762,0.09044761536266488,1
4,0.8333667000333668,-0.9935908956333019,-0.013907329433855364,-0.11217717371475873,-0.9928417407736592,-0.09069451322486059,0.07771604112689007,1
5,1.0333667000333666,-0.9539368816587124,0.2664823694891628,-0.13780991460229836,-0.9990941647645804,-0.010407429302413632,0.04126179042020359,1
6,1.2333667000333668,-0.8572567296215744,0.49005841571327924,-0.15796723934763787,-0.9740470122109479,0.22628549827956465,-0.005224104831916117,0
7,1.4333667000333667,-0.635485753939428,0.7653249272056682,-0.10215484490554474,-0.8500331573254515,0.5260445086672528,-0.026847836939934255,0
8,1.6333667000333667,-0.36433138009610216,0.9289797217919068,-0.06526348118742381,-0.6631472126247375,0.7476352850708528,-0.035738703181083416,0
9,1.8333667000333667,-0.09161971925965012,0.9861803428788252,-0.13803680075322516,-0.4773507564919233,0.8782566534069939,-0.028310881705384257,0
10,2.033366700033367,-0.03724614364358997,0.9883109522298471,-0.14783161531355213,-0.3725836166681013,0.9274485298948763,-0.031947973118032054,0
11,2.233366700033367,0.13825225426630167,0.9874927928290647,0.07579114922561749,-0.3460057149843813,0.9379279055534603,-0.02390165647494394,0
12,2.433366700033367,-0.5370620764583218,0.7084765697322194,-0.4578485297243438,-0.4550074394801628,0.8872792091801821,-0.07552373781995142,0
13,2.633366700033367,-0.6123937877653758,0.4793322485136554,-0.6286608340283488,-0.6635150669619888,0.6689209853258169,-0.33510068830900014,0
14,2.833366700033367,-0.6401118381728359,0.31205558913342785,-0.7020528070747829,-0.7534986705712523,0.49382637562350506,-0.4340221931951272,0
15,3.033366700033367,-0.6723116563368194,0.31960874043614185,-0.6677179717444074,-0.813854076338711,0.3499572562928823,-0.46386577928838596,0
16,3.233366700033367,-0.6437859491181588,0.10288015480682444,-0.758258086316892,-0.8589535224856374,0.191492014517895,-0.47489962580043615,0
17,3.433366700033367,-0.5856952622914869,-0.01879576869788456,-0.8103133830860516,-0.8675574433921219,0.059018223160793123,-0.4938227736241699,0
18,3.633366700033367,-0.566586738497501,-0.04431862910947715,-0.8228094110257985,-0.8562144468512269,-0.035387927976682367,-0.5154071357255005,0
19,3.833366700033367,-0.5401581656443336,-0.1035849233747266,-0.8351642471617189,-0.8349219040907488,-0.14779938439672338,-0.530151634951198,0
20,4.033366700033366,-0.3989649037924682,-0.24999420316868978,-0.8822300742572308,-0.7753292798192543,-0.23984705474851903,-0.5842413013331201,0
21,4.233366700033367,-0.3366964521289436,-0.31094059682361913,-0.8887921266363433,-0.7259873525809231,-0.3180839059742463,-0.609725341980067,0
22,4.433366700033367,-0.33613280806981627,-0.5215344658847597,-0.7842299001143725,-0.6774678739120458,-0.4220404515185033,-0.6024277027985603,0
23,4.633366700033367,-0.3853251966393242,-0.6751109392228967,-0.629086411056895,-0.6434546540105728,-0.5178525069035338,-0.5637329947110243,0
24,4.833366700033367,-0.7020832057567452,-0.5414441194418866,-0.46251209467010923,-0.6200336906793336,-0.596269434163589,-0.5099225277478902,0
25,5.033366700033366,-0.7585933738119466,-0.5087746371408439,-0.4070435625468248,-0.6525476300309823,-0.6017171262790627,-0.4605627975460185,0
26,5.233366700033367,-0.7640137703138131,-0.5754559428946865,-0.2917763125376343,-0.6968873789454713,-0.5954492848257203,-0.39973507510231016,0
27,5.433366700033367,-0.7314704104658646,-0.6545126329257719,-0.1912178128561087,-0.7034031811722707,-0.6540254104347665,-0.2783428231917702,0
28,5.633366700033367,-0.5023091368337179,-0.8646846581093801,-0.002443989285940469,-0.6222961731442456,-0.7731861398855793,-0.12219110433605601,0
29,5.833366700033367,-0.5055863012183184,-0.8564449387982935,0.10432908907474829,-0.5333385502106783,-0.8458724674520196,-0.007054053147236402,0
30,6.033366700033366,-0.4011747636013404,-0.8979011329175257,0.18119703241177124,-0.41634985479050085,-0.9055235534385262,0.08173060983495599,0
31,6.233366700033367,-0.09446398014478846,-0.968199609095185,0.23165939092369317,-0.2834649295695263,-0.9469945607711934,0.15115864372876012,0
32,6.433366700033367,0.14696697236108358,-0.956059379192152,0.25367532890238537,-0.15734452302291646,-0.9665842196974451,0.2023799577689753,0
33,6.633366700033367,0.23798866159226628,-0.9413984765300897,0.23901946644645516,-0.0417521144648737,-0.973799831556103,0.22354115728209312,0
34,6.833366700033367,0.2005352574127704,-0.9532804319607073,0.22592482947918988,0.05126298616620922,-0.9757952717699978,0.21259278877854626,0
35,7.033366700033366,0.24677482696907443,-0.9630599850133836,0.10778520325353105,0.12079555142386256,-0.9710277091706111,0.20618831872606272,0
36,7.233366700033367,0.2664083868365054,-0.9278689965928505,-0.26093236017203414,0.19686737428908757,-0.9729723772166412,0.12069792920310826,0
37,7.433366700033367,0.25764264071488013,-0.8132434910333529,-0.5217808869413945,0.22424843895616026,-0.9637797314091833,-0.14436504753772086,0
38,7.633366700033367,0.28102752955989946,-0.6371669705035994,-0.7176641131676611,0.2947437098456529,-0.8769326744175469,-0.3796251177745096,0
39,7.833366700033367,0.25602320897533204,-0.5955610142571937,-0.7614191977898356,0.373874785587339,-0.780305818140742,-0.5013386828060735,0
40,8.033366700033367,0.4553074475391654,-0.4047724611757862,-0.7930033939959319,0.4359730283897952,-0.7072343442709078,-0.5565492797590612,0
41,8.233366700033368,0.49121142261776585,-0.365954839577214,-0.7904355721245384,0.5223661570000635,-0.6419749150317533,-0.5612502173638408,0
42,8.433366700033368,0.7095897509751985,-0.2307790817234862,-0.665750254036617,0.6113901665218019,-0.5629785543802899,-0.556108992544018,0
43,8.633366700033367,0.7663654881118174,-0.18455470203884347,-0.6153238989235585,0.6978596329892344,-0.49061137715318337,-0.5218164516877443,0
44,8.833366700033368,0.8209880386405781,-0.12701531258910523,-0.5566378991561647,0.777790156361119,-0.40809415274060795,-0.478018446471129,0
45,9.033366700033367,0.6678310521550388,-0.09352455183925917,-0.7384137349621549,0.8164737614950416,-0.31409869448013583,-0.4844714717256453,0
46,9.233366700033368,0.6468852684292008,-0.015635168129331353,-0.7624270397925617,0.8375562297281238,-0.1988831322298161,-0.5088664478604067,1
47,9.433366700033368,0.6139914239512062,0.029583010533213466,-0.788758123129114,0.8401483055530636,-0.1257488016206045,-0.5275775427056179,1
48,9.633366700033369,0.6046119037513359,0.030881341939278866,-0.7959213457133907,0.8418325726025634,-0.09379551969097787,-0.5315264059209567,1
49,9.833366700033368,0.5914386387800727,0.04927032008829222,-0.8048433214709385,0.842243652546437,-0.07848781423632634,-0.5333528782725762,1
50,10.033366700033367,0.6096339196911477,0.004805797219629716,-0.7926685235803749,0.8541981090785814,-0.12810207988677133,-0.5039200805437897,1
51,10.233366700033368,0.7747806395302475,-0.1243391179272345,-0.6198828472882424,0.8731383685143657,-0.1661440802636261,-0.45828542855018406,1
52,10.433366700033368,0.8791683793940227,-0.17128660015771802,-0.44466151315365493,0.9054425095833434,-0.15424547685976422,-0.39545188671660314,1
53,10.633366700033369,0.9472732558211432,-0.2754389515681248,-0.16372770921582988,0.9528861361199096,-0.13370272883418838,-0.27227117345169066,0
54,10.833366700033368,0.9601131958569655,-0.2785785072605156,0.024013880024418784,0.985551276069203,-0.12229002645439696,-0.11719143171814567,0
55,11.033366700033367,0.9697782756922297,-0.23388923861011338,0.06946884235243284,0.9972129092182432,-0.06499936751803853,-0.03662643731982488,0
56,11.233366700033368,0.9459285081360181,0.3206270564015242,0.049168569217141245,0.9981659711850116,0.058952590250192706,0.013758127455259265,0
57,11.433366700033368,0.9391306285894752,0.34072179962825955,0.04407173360803469,0.9930642100974014,0.11418270727014526,0.02803183875675072,0
58,11.633366700033369,0.9044822720570471,0.13192435087850418,0.40559559314643323,0.9893979585779692,0.10613398266896183,0.09913252384849233,0
59,11.833366700033368,0.916787046456754,0.10525277279330195,0.38525753109890454,0.9814770611210727,0.10404914974146086,0.16086190640179898,0
60,12.033366700033367,0.8948369503033964,-0.10893990538472842,0.4328959798687016,0.975224047456537,0.09086248515265097,0.20169795748686928,0
61,12.233366700033368,0.901791939419518,-0.13944565068043102,0.40905526338661835,0.9645558353785011,0.07246888261472166,0.2537327363385646,0
62,12.433366700033368,0.9123362821715791,0.004677225769961267,0.4094149872591839,0.9434437809368879,0.08719356327189115,0.3198610866227091,0
63,12.633366700033369,0.9142508560741288,0.018255841835536486,0.40473707070961373,0.9368311462703225,0.0919536376426444,0.33747878733650605,0
64,12.833366700033368,0.826910806536774,0.008922018890942329,0.5622623192172953,0.9242015447718992,0.08976673752345153,0.37120538449170043,0
65,13.033366700033367,0.7053512064992666,-0.040058704957611616,0.7077252119623466,0.8925650288475958,0.06117433547735756,0.44674978450716063,0
66,13.233366700033368,0.5816572971574355,-0.06188499982995239,0.8110764670852889,0.8378216885286907,0.042093283673561306,0.5443188162286057,0
67,13.433366700033368,0.45864102327422385,-0.0833524493656586,0.8847037814741829,0.7769083400770854,0.027239580279880875,0.629024193799288,0
68,13.633366700033369,0.3949759526189195,-0.0865152568118914,0.9146087180819729,0.7515006494464582,0.019230820592299518,0.6594520069124805,0
69,13.833366700033368,0.17934709548744596,-0.0538862136427649,0.9823089612334113,0.7322428212082113,0.017387490105895177,0.6808216550440045,0
70,14.033366700033367,0.019841539044229427,0.11403413046326316,0.9932786771182819,0.7114059349387964,0.011731298068085655,0.7026834083564908,0
71,14.233366700033368,0.14520764147882467,-0.10579189084574699,0.9837290362124314,0.6679003621827152,-0.003760467713562676,0.7442412008742683,1
72,14.433366700033368,0.046419453828659536,0.01805774039925453,0.9987588058775362,0.6280499249602678,-0.007026838007451533,0.7781413209083675,1
73,14.633366700033369,0.07237281443270538,-0.06311904522111776,0.9953784013436617,0.5962629287395523,-0.014886679458313111,0.8026511736648974,1
74,14.833366700033368,0.037032393845240416,-0.06960987760783727,0.9968866870138817,0.5781965968351004,-0.018662309290959408,0.8156840157930256,1
75,15.033366700033367,-0.10484545232348094,0.06781207029724926,0.9921738528348174,0.5602005629541293,-0.021704021092071688,0.8280726204472114,1
76,15.233366700033368,-0.15535922424053356,0.1828459683622413,0.9707887840807877,0.5534472891078664,-0.019041455228362952,0.8326665125738756,1
77,15.433366700033368,-0.2298402450930138,0.11157456929994661,0.9668115520726444,0.5390724827378581,-0.012896557787769694,0.8421606361924481,1
78,15.633366700033369,-0.11586690578325158,-0.008217030556522372,0.9932307589644253,0.5240407637087336,-0.008992497742400133,0.851645708587744,1
79,15.833366700033368,-0.23150574299211085,0.10371023019714672,0.9672896562633789,0.5104784055890517,-0.004223456692848048,0.8598802008656924,1
80,16.033366700033366,-0.19339391450722376,0.11227864534030782,0.9746754842675167,0.48516427474485097,-0.006018152108631724,0.8744023149308905,1
81,16.233366700033365,-0.26364809607872514,0.04542309334075166,0.9635488695574402,0.46268652535105215,-0.0071646476278469685,0.8864930045313043,1
82,16.433366700033368,-0.14283184664908935,-0.013895689999750683,0.9896494194320745,0.4389271797043121,0.0008225628665453075,0.8985222614421691,1
83,16.633366700033367,-0.06472987641948855,-0.020195420793134182,0.9976984454622078,0.46895594675923646,0.004580724334188298,0.8832096789345795,1
84,16.833366700033366,0.8439393398306788,-0.04072052743572362,0.5348908574013157,0.6367907379413839,-0.017314010289575812,0.7708422543684021,0
85,17.033366700033366,0.9569022064070369,-0.019842491862761595,0.2897316739502611,0.8422790890793699,-0.04923991780998606,0.5367880089883648,0
86,17.233366700033365,0.9584994836145484,-0.007690512098251501,0.28499051902530104,0.9354621134234653,-0.03718492281118595,0.3514653835939323,0
87,17.433366700033368,0.9305580260487165,0.19555240302266463,0.3095497017093994,0.9572575511690734,0.015113280784175915,0.28884177238364867,0
88,17.633366700033367,0.8954175743411832,0.23548102997320883,0.37785718477185015,0.9636868859980201,0.09378918952149573,0.25002234636995957,0
89,17.833366700033366,0.841157339130387,0.2667460443095329,0.47042627336523607,0.9589577517654767,0.16675830968731956,0.22932879557336572,0
90,18.033366700033366,0.8504111040732438,-0.08793747316887543,0.5187176061033593,0.9583588889480932,0.15587279009220484,0.2392737204187867,0
91,18.233366700033365,0.8293390819802672,-0.19401253839741925,0.5239807458721342,0.962130274233674,0.07369397782319051,0.2624395797810055,1
92,18.433366700033368,0.7886615053560397,-0.3052612592108625,0.5336933516491879,0.9622087332152737,-0.020287835784925757,0.2715561773251016,1
93,18.633366700033367,0.8035002350422441,-0.31022278178670754,0.5080838493276237,0.9618520111930541,-0.07178424625951763,0.2639843377036414,1
94,18.833366700033366,0.9428755824539431,0.021072556447741145,0.3324779441961443,0.9648295395303966,-0.05512003452954539,0.2570325688371512,1
95,19.033366700033366,0.9016490971082224,0.3028511782025274,0.30872328960619155,0.971676726694537,0.0072517259718248815,0.23620277574706902,1
96,19.23336670003337,0.9119912774008205,0.34335940265271386,0.22444649820122245,0.9735170772095666,0.09306441423842686,0.20881454734716526,1
97,19.433366700033368,0.9315763487763282,0.35855853815198935,0.06001067504097615,0.9697515194061329,0.17249833735379616,0.1727029652891719,0
98,19.633366700033367,0.9348390733564742,0.35287974812394457,0.03939276951408964,0.9671407928878143,0.2098360031514946,0.14355326019890954,0
99,19.833366700033366,0.920254222605154,0.13139306647138996,0.36860280500917053,0.9666582817411977,0.20448414016510427,0.1541363122761589,0
100,20.033366700033366,0.9276438826928214,-0.00670429402732852,0.3734057837583426,0.971179389206607,0.17439665116499614,0.16246969576729328,0
101,20.23336670003337,0.885250474502608,-0.2265204601297419,0.40622663444869955,0.9813438195713949,0.08039147017669968,0.1746468416887475,0
102,20.433366700033368,0.8962881934649493,-0.24538405050372486,0.36939699784070157,0.9828685150916875,-0.0010356893839632902,0.18430520716724585,0
103,20.633366700033367,0.9422250207542955,-0.3332056204683643,-0.03443871009286171,0.9851237129361728,-0.059455157040725015,0.1612338503916349,0
104,20.833366700033366,0.932239811844957,-0.3402139897477538,-0.1232208358646975,0.9936840164700044,-0.09150426053758075,0.0649541816630075,0
105,21.033366700033366,0.9348471902452264,-0.34068155954407797,-0.09998402811059667,0.9880095701617764,-0.12735653239055914,-0.08727773442404704,0
106,21.23336670003337,0.9303161598461159,-0.33813122280000824,-0.1420532255774124,0.9720414915806663,-0.13101643466618795,-0.19485900670226738,0
107,21.433366700033368,0.8381456611954883,-0.17201633941459765,-0.5176120454486932,0.9544154662555377,-0.12585473526228508,-0.2706505189063657,0
108,21.633366700033367,0.8261740694122226,-0.15788903136055357,-0.5408395887940104,0.9443736368028763,-0.10860321524134378,-0.3104251532188577,0
109,21.833366700033366,0.8372129008591842,-0.10731640711764633,-0.5362441117609682,0.9438146478210935,-0.05900651080723445,-0.3251647924371599,0
110,22.033366700033366,0.8491655811602246,-0.04996880159298754,-0.5257574865279417,0.9448857839385871,-0.010068908568505282,-0.32724527863821223,0
111,22.23336670003337,0.8646536658465588,0.06738718105868613,-0.4978282896411889,0.944496860752361,0.03471358534118335,-0.3266812621221115,0
112,22.433366700033368,0.8020859073012848,0.3792847206970051,-0.4613039106212625,0.9393726889156387,0.11147553794979384,-0.3242717313584506,1
113,22.633366700033367,0.7848664896963681,0.41610752737660944,-0.4591722106271517,0.9246308993022596,0.18565437036209512,-0.3325509807848244,1
114,22.833366700033366,0.7752030695708865,0.436826952306454,-0.45633585730964754,0.9154694666625258,0.21994639287728818,-0.33695584260983025,1
115,23.033366700033366,0.9004825407702424,0.39000064613043117,-0.19243359838088378,0.9121038500607499,0.24173155458013454,-0.33110787097957756,1
116,23.23336670003337,0.8832671723238293,0.3617381005788505,-0.29830294816624314,0.9064526737739067,0.25923592832519454,-0.3333770893050547,1
117,23.433366700033368,0.7145916410867841,0.1518545524447943,-0.6828608799680123,0.9107271553904466,0.22500003826048687,-0.34633947395179315,1
118,23.633366700033367,0.7172236349526998,0.13868644314203105,-0.6829028686085956,0.9170444030528908,0.18846846906610934,-0.35143875568474797,1
119,23.833366700033366,0.7175212369905274,0.1297659086576995,-0.6843420807007452,0.9207644418740896,0.15805736147098376,-0.356666108657842,1
120,24.033366700033366,0.71892901802505,0.12688097046165028,-0.6834049212408757,0.9235686963057629,0.13810930192345205,-0.3576963571610571,1
121,24.23336670003337,0.7172760878496518,0.12353915481018746,-0.685750020800498,0.9243816779190914,0.12020439821417767,-0.3620351035154646,1
122,24.433366700033368,0.7608470341676811,0.14565677954821077,-0.6323732230019607,0.9290611973268904,0.12662353875195712,-0.3475798772303376,1
123,24.633366700033367,0.9538596651277672,0.1857136838280179,-0.23592830877487114,0.9509445194270816,0.13514450470506348,-0.2782813033957195,1
124,24.833366700033366,0.9631149215531651,0.1923920849285106,-0.18813541277096593,0.9699729462993951,0.14581205799943028,-0.1946569474466343,0
125,25.033366700033366,0.9595183698271473,0.2802335126105284,0.02817226249733653,0.9768930994801138,0.1711641583208923,-0.12799493386238875,0
126,25.23336670003337,0.9587451162430077,0.27890048785588784,0.05497563054599307,0.9794477267517248,0.17901996754559715,-0.09291932942532691,0
127,25.433366700033368,0.9583438359999441,0.27716488783384297,0.06896895644393845,0.9808967120072459,0.18290501539221515,-0.06623741931678696,0
128,25.633366700033367,0.9544539217200356,0.28686421236986304,0.08201606534492224,0.979114983998225,0.19914503466680988,-0.04092802557797179,0
129,25.833366700033366,0.9611317178824701,0.27063323132791495,0.054621195348539826,0.967870301096687,0.25142684228740886,-0.0034092861996681562,0
130,26.033366700033366,0.8193518134900097,0.5679462402922111,0.07810040888865145,0.9430628316027992,0.3296267638008792,0.04448249358422133,1
131,26.23336670003337,0.7964882940631758,0.5993642216961853,0.0798055585210599,0.9163594407809373,0.3949547148955872,0.06554501104884722,1
132,26.433366700033368,0.7843762179132076,0.6151983803692652,0.07927737106643523,0.893864250112195,0.4415152152221353,0.07791673182773486,1
133,26.633366700033367,0.8462677029842517,0.5179649049781648,0.12467290041031169,0.8782525130988426,0.469998664328148,0.08816903518426596,1
134,26.833366700033366,0.9594413938506612,0.26037036464093277,0.10807166595666066,0.8910733049968608,0.44331246219557535,0.09727500184563594,1
135,27.033366700033366,0.9694410518089449,0.22294765731479593,0.10236400326975845,0.9126245868791292,0.39569185144009167,0.10268554975073915,1
136,27.23336670003337,0.9789581311284994,0.18533582036073312,0.08539093153614286,0.9326225883393297,0.3463308131787576,0.10134138129209637,1
137,27.433366700033368,0.9741158917054579,0.21975770329349145,0.05296018665044866,0.95639823724153,0.2755910927013594,0.09670553978426039,0
138,27.633366700033367,0.9785374853944572,0.1993637334751893,0.0521391546990033,0.9706316883586389,0.22183936675294405,0.09306675514227054,0
139,27.833366700033366,0.9810062065665894,0.18686860813107375,0.05202831895213975,0.979432353244525,0.18040985582087182,0.09035789583973239,0
140,28.033366700033366,0.9800201698999786,0.015551293814564871,0.19828924290013858,0.9840086680719852,0.14333186444178356,0.1057493158126335,0
141,28.23336670003337,0.9543979452819826,-0.2976751743418745,0.022672728597693242,0.9882613392587863,0.07624259628178012,0.1323880351037945,0
142,28.433366700033368,0.9398663527922759,-0.34118925204434375,0.015528463490193968,0.9897218972753973,0.003853128742884953,0.14295355697735912,0
143,28.633366700033367,0.9298000603588888,-0.36792822740662917,-0.010033306235861024,0.9899723884765774,-0.04318396904196969,0.134498382413183,0
144,28.833366700033366,0.9290309818541609,-0.36968467979506986,-0.015319016936826253,0.9892847695315957,-0.06265184289802259,0.13187263307562852,0
145,29.033366700033366,0.952922796626884,0.3032084903687393,0.001659830445862255,0.9902408058568049,0.02949529818802614,0.1362100356099554,0
146,29.23336670003337,0.934759862786802,0.35450943619990305,0.023389283187522574,0.9696069137675216,0.209543006372506,0.12630978289346337,0
147,29.433366700033368,0.8797620942768388,0.47489197120963034,0.022277189101461932,0.9100801733384647,0.39587448366411654,0.12262736758121913,0
148,29.633366700033367,0.669488461801605,0.7419655171007753,0.03567030905249036,0.7765887447338964,0.6166240729363593,0.12916916903040984,0
149,29.833366700033366,0.3917112248296254,0.9196500190427138,-0.028392936044215757,0.5735917890435227,0.8124000830784924,0.10487404138255635,0
150,30.033366700033366,0.16813256948578226,0.973712119580162,-0.15367546082838704,0.37791520620082897,0.925086598127285,0.03734813097695549,0
151,30.23336670003337,-0.20240960301857164,0.9656444147734148,-0.16297612347449517,0.1692281098590689,0.9855541738017801,-0.0066945750737101364,0
152,30.433366700033368,-0.2592285279015195,0.956153473212853,-0.13627584520012678,-0.015577065577618787,0.9997624510124289,-0.015244558819846297,0
153,30.633366700033367,-0.5469779298798787,0.8306600591516428,-0.10401447185133458,-0.2576809088332154,0.9661067970013052,-0.01543392402363407,0
154,30.833366700033366,-0.7832127823761955,0.6107140462491695,-0.11664515093438647,-0.5260027067170433,0.8493181353245856,-0.044495590063657185,0
155,31.033366700033366,-0.9022322691585849,0.41598693969151523,-0.11371806582526287,-0.6568271733495904,0.7524341751375168,-0.049202402733119356,1
156,31.23336670003337,-0.9239249579401493,0.36864668785350496,-0.10228534416002147,-0.7095066705707299,0.7010993675115594,-0.0711334048849711,1
157,31.433366700033368,-0.8082104128011618,0.5805599375280256,-0.09872227498002176,-0.7016949144083736,0.7081964221102545,-0.07798765802138147,1
158,31.633366700033367,-0.8431131141976456,0.5270025979210574,-0.10690434253296226,-0.6989922297626171,0.7100988667460234,-0.08467267668792428,1
159,31.833366700033366,-0.8324913870266264,0.5399955723007768,-0.1239470549147508,-0.6866122552811089,0.7210070695060514,-0.09334032686939656,1
160,32.03336670003337,-0.7115235979726336,0.5138690970342799,-0.47924181854388753,-0.6635231599264564,0.7370991651135714,-0.1281477156647225,1
161,32.23336670003337,-0.7039984137967719,0.5049462502590792,-0.4994151757014644,-0.6581963957915455,0.7380965820540276,-0.14829342577195265,1
162,32.43336670003337,-0.85918484631936,0.4961966389763753,-0.12486110412665306,-0.6548731193616647,0.7410818958762769,-0.1481175922770345,1
163,32.63336670003337,-0.8685754726364104,0.4887089070673755,-0.08209904072184958,-0.645476465583861,0.7488103894447369,-0.15047635374698712,1
164,32.83336670003337,-0.6433325251531996,0.7626781130356195,-0.06667351780455719,-0.6197564241001291,0.773142105261289,-0.1347340337804924,1
165,33.03336670003337,-0.5835332857974247,0.8106179864664784,-0.04886086760889003,-0.5552696943957457,0.8276285220273777,-0.08189380936575245,0
166,33.23336670003337,-0.4305806442754814,0.883787005935521,-0.18308696544221595,-0.4886077035132032,0.8683187887672241,-0.08535217127510505,0
167,33.43336670003337,-0.20543870918055868,0.9396837769277363,-0.27347639047831984,-0.4751112433477921,0.8741539764979489,-0.10061874486068119,0
168,33.63336670003337,-0.13068070961948108,0.9556086605623844,-0.2640731716617856,-0.37592668557066894,0.9230815907447114,-0.08123733072956357,0
169,33.83336670003337,0.0319637574649938,0.9760948116986844,-0.21498194525036152,-0.2270933084102612,0.9714902169273908,-0.06808368152247007,0
170,34.03336670003337,-0.03228457420756209,0.9724532439348579,-0.2308514557649757,-0.15273458959041064,0.9855888322611872,-0.0727103765956313,0
171,34.23336670003337,-0.17911770124941878,0.9633780777771282,-0.1995483108361706,-0.0972213673700118,0.9927370835614409,-0.07085964047770932,0
172,34.43336670003337,0.21353559006817996,0.9470482580518269,0.23979605646305882,0.0057912502493718265,0.9997872817289355,-0.019795269980867856,0
173,34.63336670003337,0.46158569675685257,0.8374065581497251,0.2927266658801722,0.30643207818587015,0.949475935765547,0.06778516696761762,0
174,34.83336670003337,0.7140072338775904,0.6676496209639445,0.21080240415415866,0.6677698151845878,0.7370613828649529,0.1040384151049267,0
175,35.03336670003337,0.975869457890455,0.21822873970441747,0.007417433761810427,0.8410026183603918,0.5309153974015666,0.10413182372791624,0
176,35.23336670003337,0.9853292341174404,0.16713338981731013,0.03453592914217599,0.8804661726486265,0.46253018970936666,0.10414001358217934,0
177,35.43336670003337,0.6538911164953887,0.7564743433460976,0.013152019902067649,0.7917192970853808,0.6034192380680994,0.0952143778635615,0
178,35.63336670003337,0.32561795502643603,0.945456769962089,0.009189314297360193,0.49992697595654145,0.8620946870088887,0.08285993810035058,0
179,35.83336670003337,-0.3514437264371864,0.9310320069759171,-0.09831942399312779,0.0794303900268063,0.9941390889715342,0.07333679103313341,0
180,36.03336670003337,-0.4674895330197234,0.8775143390348548,-0.10687432481762627,-0.22339987286359697,0.9717807916657785,0.07572707411462185,0
181,36.23336670003337,-0.5217576749079152,0.8478639095742501,-0.09431712207311155,-0.3482588911248196,0.935288646438937,0.06285612615276114,0
182,36.43336670003337,-0.6340381726825977,0.7631613439415668,-0.12482130705378171,-0.36690135341985647,0.9287759850789759,0.05252205631214228,0
183,36.63336670003337,-0.5914261575942348,0.7954475144945206,-0.1322057177198061,-0.2871039941751385,0.9563534921998579,0.05439939784426618,0
184,36.83336670003337,-0.45941135363458996,0.8789649011393261,-0.1279136846344788,-0.1899628602692836,0.9805673508479821,0.04900798066930611,0
185,37.03336670003337,-0.39499397381909956,0.9083062541966,-0.13769353374046894,0.07125921258144191,0.9960341368343837,0.05327403572902291,0
186,37.23336670003337,0.7004149390416535,0.7130907876607476,0.030338782451695967,0.4639209479899854,0.8849442954155335,0.040631859760266544,0
187,37.43336670003337,0.8516131927319616,0.5112056451467212,-0.11586094395869358,0.7300323346560903,0.6827101543489098,0.03097798420597209,0
188,37.63336670003337,0.9078164559860011,0.2417308741146168,-0.3426885856587584,0.9149051504795145,0.39957932478353975,-0.057314298666104685,0
189,37.83336670003337,0.8736505504185357,0.171733935507403,-0.4552385870601578,0.9758631435758498,0.18171423047350477,-0.12112416544060281,0
190,38.03336670003337,0.8688366209629783,0.013529891056892849,-0.49491400073307934,0.9870242281309792,0.06995604907730156,-0.14453139548187818,1
191,38.23336670003337,0.8680106460498389,-0.018334674033270996,-0.4962069710032654,0.9876912296562895,0.007948774675845056,-0.15621412177264835,1
192,38.433366700033375,0.8372622014377792,0.31901273743723696,-0.4440978263810401,0.9858756125149896,0.0040225916198478135,-0.16743086753897585,1
193,38.63336670003337,0.8349124577859557,0.31670679451646705,-0.4501310855083429,0.9845885069325376,0.006226215249378081,-0.17477616044536715,1
194,38.83336670003337,0.8566893419265814,0.23208841524143128,-0.46067161725042527,0.983459649828827,0.002566144472206064,-0.18110917166479668,1
195,39.03336670003337,0.8511828664009482,0.25273049097469974,-0.46001633327214886,0.9829826492152743,0.031019324919108533,-0.1810605225422809,1
196,39.23336670003337,0.875825799676948,0.09224629434166426,-0.4737296589833339,0.982938489803149,0.030677455855269403,-0.18135826136614885,1
197,39.433366700033375,0.881808017859017,0.08656699791585118,-0.4635954858617466,0.9856222273192701,0.018448808782498726,-0.1679537628893964,1
198,39.63336670003337,0.8561822862929002,0.2590870661752259,-0.44701877452627964,0.9858083294121944,0.0026657144578948644,-0.1678536017724006,1
199,39.83336670003337,0.8509203990387529,0.2721217044248432,-0.4493153152082042,0.9857029241748111,-0.0020278630509116304,-0.16848036397359084,1
200,40.03336670003337,0.8390935954383146,0.3079019131709161,-0.44846220572094136,0.9851763432973549,0.025711783448860853,-0.1696068300485908,1
201,40.23336670003337,0.9411901103109791,0.19790944639849542,-0.2738485480681764,0.9852081588056996,0.02956116970225143,-0.1687928347665209,1
202,40.433366700033375,0.9805524411467635,0.195542522441578,-0.01673415902601849,0.987107985659325,0.043803103425178375,-0.1539451615930588,1
203,40.63336670003337,0.902918768007502,-0.027153574632445044,-0.4289526567868477,0.9924142501853412,0.022136481157928014,-0.12092945146246156,1
204,40.83336670003337,0.8620951466588084,-0.1393409746937904,-0.4872125315288107,0.9931138525211228,-0.039874888789314056,-0.1101583822261991,1
205,41.03336670003337,0.8583438123065174,-0.15950550308379263,-0.48765140660219614,0.9872170278067847,-0.10790019521714288,-0.11730340097559344,1
206,41.23336670003337,0.8520917492545746,-0.17161339398901604,-0.4944577776270187,0.9783242731712796,-0.15807189748429468,-0.13377178981236157,1
207,41.433366700033375,0.8331512950818205,-0.2959132950425686,-0.4672196927790345,0.9734920160529241,-0.17719861268134685,-0.14461654934695164,1
208,41.63336670003337,0.8247886771487506,-0.3292870282949485,-0.45966693490384575,0.9704167454962508,-0.18992459753115526,-0.14906370219840268,1
209,41.83336670003337,0.9467721974213433,-0.30581092052472325,-0.10050913927490722,0.9712522546667381,-0.19410466809186766,-0.13781304593442428,1
210,42.03336670003337,0.9557272517837356,-0.29318171671231386,-0.02509783224761143,0.973711681425847,-0.20511908899652606,-0.09905413057558468,1
211,42.23336670003337,0.9577998054752856,-0.28600922548712926,0.028605166801775796,0.9755543461889696,-0.21579196830999262,-0.04156373473006572,1
