,timeStamp,x_gaze,y_gaze,z_gaze,x_head,y_head,z_head,fixations_head
0,0.04,-0.9997473103637271,-0.0210627996744935,0.007853272589557411,-0.9845274335243979,-0.08353012450412395,0.15404041981956684,0
1,0.24000000000000002,-0.9606133737597599,-0.267301759938149,-0.07597180587468033,-0.9836225060735244,-0.1293678892081976,0.1255018517291882,0
2,0.44,-0.9943931594717754,0.006030601535731157,-0.10557403203845857,-0.9877173158177076,-0.14508470854546715,0.058008028583462136,0
3,0.6400000000000001,-0.9934111983457483,0.003150240279589497,-0.1145611932001655,-0.9898441674509807,-0.1412075640046909,-0.016399635091556782,0
4,0.8400000000000001,-0.9840025566192115,-0.04163976441143235,-0.17321979848336,-0.9761842800153406,-0.17671466309191686,-0.12584188213485226,0
5,1.04,-0.6622188499263901,-0.5678784017345785,-0.48885612980257287,-0.9103916278230817,-0.256356890255884,-0.3247587239905531,0
6,1.2400000000000002,-0.6824282567430748,-0.5637482083168168,-0.4652737173086259,-0.8775405542405663,-0.2846584658776204,-0.3858654344034452,0
7,1.4400000000000002,-0.9556845328046255,0.02193677584351957,-0.2935742693486535,-0.9085514889582476,-0.19118606498721039,-0.3714593927557333,0
8,1.6400000000000001,-0.9674073403689172,0.05572628213095738,-0.24701744731941339,-0.9414467443111664,-0.12811095300373454,-0.3118743518572513,0
9,1.84,-0.9999956402502407,-0.000944987231568002,0.002797584608800128,-0.9753481795493599,-0.10738604981604229,-0.19278009480923175,0
10,2.04,-0.9997709695390651,0.014683381149160107,0.015569418259726454,-0.9898464979594293,-0.0766167380024163,-0.11972379018107844,0
11,2.24,-0.9989460800646062,0.033566504559370956,-0.03130525347642758,-0.9912492655686835,-0.03652125425525165,-0.12685066612820373,0
12,2.4400000000000004,-0.9968432366403748,0.047928967640288006,-0.06329593687811629,-0.9908300287507578,-0.002501438809373554,-0.13509106902255064,0
13,2.64,-0.9927521349283749,0.060398000660557144,-0.1039003373977252,-0.9884278697603999,0.02575010699040966,-0.1494900607762945,0
14,2.8400000000000003,-0.9879050348265588,0.10017144584529389,-0.1183609885122594,-0.9851468306795229,0.07297344515037822,-0.15543679842616556,0
15,3.04,-0.9842519992936131,0.163448860694533,-0.0673236349596851,-0.9842788089905827,0.13805753108869565,-0.11016053867776,0
16,3.24,-0.962652727562446,0.27039949669634117,-0.013558698423837112,-0.9676105389991636,0.24692041562210476,-0.05253715986570995,0
17,3.4400000000000004,-0.6920299001081431,0.7218424218080582,-0.006175389428294549,-0.9260883890140321,0.3717084920896416,-0.06475409362997697,1
18,3.64,-0.7259298280705424,0.6877605410352792,-0.0033649535410483155,-0.8865651801393746,0.45659384355951277,-0.07432525403918583,1
19,3.8400000000000003,-0.7151438037509364,0.6950145248192963,0.07432462745853612,-0.8712458825507515,0.48829226490144195,-0.050012760129614635,1
20,4.04,-0.7233103855573512,0.6862272301820362,-0.0769043217353009,-0.8546454373475377,0.5095695140638329,-0.09959963231751977,1
21,4.24,-0.7271583852579437,0.6759994279233187,-0.11943808520068325,-0.8487469575873787,0.5140663208976194,-0.12395329646667055,1
22,4.44,-0.7310645148866803,0.6751189885559747,-0.0987877844911023,-0.8491130405977075,0.5181490776590048,-0.1026088573566585,1
23,4.640000000000001,-0.7567709065858752,0.6413467299910721,-0.12638103843121207,-0.8667503255498402,0.48436456459992033,-0.11889004045409317,1
24,4.840000000000001,-0.7036045645082706,0.7072630520115956,-0.06869928720423799,-0.8579772658324764,0.49513683748193704,-0.13680103611820504,1
25,5.04,-0.6995951198402943,0.703772036825738,-0.12357826863084231,-0.8399993772497392,0.5224991294671589,-0.14627271080455018,0
26,5.24,-0.6925092994812196,0.7029379789794968,-0.16220070234204,-0.822682337474063,0.5425252276751874,-0.16988275057874005,0
27,5.44,-0.6519021451548153,0.7217728665872568,-0.23252424002878533,-0.7761384747526254,0.5833706184186898,-0.23934867782058802,1
28,5.640000000000001,-0.7244659029479888,0.6639121968005954,-0.1853908045323789,-0.751164153231535,0.612872003614182,-0.2452352382629571,1
29,5.840000000000001,-0.6437886692175088,0.7644084795704956,-0.034868692947580986,-0.7273415342569994,0.6394110055074593,-0.2492546059366086,1
30,6.04,-0.4841128895163172,0.874210492622665,0.03729242272365347,-0.703720416456696,0.6591794193718662,-0.2650661587954666,1
31,6.24,-0.4855611749941369,0.8721160249699892,0.06036542328898749,-0.7144637328876051,0.6570118024482503,-0.24057652801553633,1
32,6.44,-0.733442126831795,0.655331003304354,-0.1805655634293595,-0.7761565829342856,0.5796502051816558,-0.2481664731599295,1
33,6.640000000000001,-0.9945785469287511,-0.026249277111540292,-0.10062052196354306,-0.8983629431700875,0.37872322319479,-0.22251458952555753,0
34,6.840000000000001,-0.9931937173317178,-0.05265223913958031,-0.10389408821676498,-0.9617804194352275,0.22075205520954258,-0.16200911984132613,0
35,7.04,-0.9841503240489091,0.13488322160459468,-0.11512886781339189,-0.9631497542533931,0.23000646459381524,-0.13942588399103964,0
36,7.24,-0.947883742201549,0.3052578122926132,-0.09129117867743557,-0.9470323215349367,0.2825344075711708,-0.15265677353644103,0
37,7.44,-0.9168884218011193,0.38621756081912917,-0.10075523649902823,-0.9281096361219469,0.3454080568303124,-0.13894523242736853,0
38,7.640000000000001,-0.7186964002410359,0.6950927020450295,0.017933762692663287,-0.8985058413654075,0.4246259166637342,-0.11126582552484339,1
39,7.840000000000001,-0.6861668396985611,0.7274259326035412,0.005155644863447052,-0.8533993847804089,0.504949437564396,-0.12936597527874255,1
40,8.04,-0.7480749147045787,0.6460923295915942,-0.15148803131813549,-0.8365178311625008,0.5270106445394084,-0.1499923287683193,1
41,8.24,-0.7594432615944335,0.6298583428529423,-0.16286313381902742,-0.8455229380050399,0.5146832694443565,-0.14209888620743555,1
42,8.44,-0.7819841187899274,0.5911762930400454,-0.1975131097111554,-0.8496776652762845,0.5047589345371895,-0.1525328919791527,1
43,8.639999999999999,-0.7916639323359542,0.5561581681240871,-0.2528958486555948,-0.8519288084171829,0.4863481385326368,-0.1941205644302486,1
44,8.84,-0.7950679984029106,0.5319406943229952,-0.2913862996758073,-0.855201118533884,0.4637543796709593,-0.23143664833901625,1
45,9.04,-0.7437329842696477,0.6229956894052046,-0.2423584516617854,-0.8332248941121023,0.48482940584306206,-0.26585094143474314,1
46,9.24,-0.7109864381636961,0.6745385103648783,-0.19873621406787392,-0.7945836261382635,0.5448701213013872,-0.26786827357113435,1
47,9.44,-0.7107704852127549,0.6805732560363064,-0.17783520607170397,-0.7806940226254274,0.5667166626257074,-0.26334211083552284,1
48,9.64,-0.7102499365617297,0.6820098314655275,-0.1743778007615122,-0.7736601459764925,0.579493650279098,-0.2561973610594755,1
49,9.84,-0.7322195082382636,0.6620086169441313,-0.15999744637660315,-0.7978503893288702,0.5547244461768837,-0.2360414053964269,1
50,10.04,-0.6944726167216383,0.6862845337815012,-0.21615115848893307,-0.7592837913239235,0.6204724383793147,-0.19621946245058486,1
51,10.24,-0.7349223719758633,0.6469690378368299,-0.20327363638666374,-0.6969849307028068,0.6821072575146037,-0.2212277008403562,1
52,10.44,-0.7250721221379232,0.6679258882096538,-0.1677659845074502,-0.6569809718485694,0.7234002856672037,-0.2122923204581772,1
53,10.64,-0.7322038801324582,0.6641405811992138,-0.15097935727556616,-0.6605268540323882,0.7296354551227445,-0.1770208398180902,1
54,10.84,-0.7593185135771506,0.6422296559423873,-0.10476862109958948,-0.6860337274049193,0.7116839063181991,-0.15120761340151528,1
55,11.04,-0.7770534927447117,0.6177715275901219,-0.12060766605905178,-0.712925238102321,0.6820828591479684,-0.16278998167357075,1
56,11.24,-0.8014179738683478,0.577737250898879,-0.1547543216991301,-0.7543755867632415,0.6312631711572287,-0.1800674396889525,1
57,11.44,-0.7443578178107646,0.6222165868070009,-0.24244165930434217,-0.8035232403793663,0.5623169129230097,-0.19532048436090907,1
58,11.64,-0.739655976407275,0.6400887924295068,-0.20783496907675755,-0.8178136049318244,0.5490977918544844,-0.17225714083585386,1
59,11.84,-0.7538015144048069,0.6321392721820285,-0.1793968155965848,-0.8427399043954049,0.5194533411268761,-0.1412716529660118,1
60,12.04,-0.7377413856803142,0.6500169566907621,-0.1822514852311773,-0.8365160645447829,0.5311236335112067,-0.13471659023432112,1
61,12.24,-0.680325164211347,0.7059207833212989,-0.1970622201637034,-0.7911116394868728,0.5928633377157321,-0.15051723044540097,1
62,12.44,-0.7390846410283529,0.6598566707495112,-0.13543658096453126,-0.740693729147085,0.6515905504317246,-0.16371485635172797,1
63,12.64,-0.7374118784259,0.6589221411316983,-0.14847671023700781,-0.7267269169514787,0.6682796010592749,-0.15896654675199864,0
64,12.84,-0.7632173624654479,0.6296391173204796,-0.14509941271822052,-0.7516535955614414,0.6408065295814683,-0.15615333465959558,0
65,13.04,-0.794126567562752,0.5882114355616733,-0.15287348287220198,-0.7983382549855208,0.581382771811755,-0.15700351355034817,0
66,13.24,-0.83506282445759,0.4999755333160194,-0.22955292482186837,-0.8563740911542245,0.4902537405875277,-0.1620946817132284,0
67,13.44,-0.800050425622743,0.5608246926081608,-0.21306097864656048,-0.8983264170908716,0.40975802730712224,-0.15845506433703357,0
68,13.64,-0.764963977621415,0.6241688573447501,-0.15888156111573326,-0.9050260339011349,0.3966275095134294,-0.15367009031804718,0
69,13.84,-0.7418517501229283,0.6564016510241568,-0.13708702846115448,-0.8969932147942606,0.41411559140640775,-0.15463327445016245,0
70,14.04,-0.6273479818117912,0.7743672911703015,0.08240029176066394,-0.8638278445682197,0.4792579723981752,-0.15528441918432734,0
71,14.24,-0.5341209871723601,0.8421802731092233,0.0738048687262439,-0.8000666856286061,0.5763789402116557,-0.1663749254778074,1
72,14.44,-0.6929699710454161,0.6969917068863475,-0.18437781797431865,-0.74198287076329,0.6480559927105006,-0.17171153078892185,1
73,14.64,-0.6842087671816274,0.6999095422101114,-0.20490240514701138,-0.7016412450747922,0.6901857706824216,-0.17704001004690326,1
74,14.84,-0.7831798267623271,0.614746199969716,-0.09336202962299985,-0.7093351530302212,0.6818702280886404,-0.17859628417729898,1
75,15.04,-0.7293079195162975,0.6409089895721851,-0.23946946698143023,-0.755116553228161,0.6360132449965045,-0.15901617285621783,1
76,15.24,-0.747938025988689,0.6263605636931441,-0.21968421320192788,-0.7934089905859198,0.5838549107063747,-0.17209188505412842,1
77,15.44,-0.7543853964616539,0.6204283790819876,-0.2144091883177847,-0.8178716737228433,0.551814365266329,-0.16305468900805606,1
78,15.64,-0.7459944291360319,0.6345724707674503,-0.20201507627427093,-0.8223724541551233,0.5477377817138988,-0.15390539019156216,1
79,15.84,-0.7161639790537658,0.6651127755846681,-0.21150449371097624,-0.8018309511139667,0.5765478939674813,-0.1570339192573822,1
80,16.04,-0.6926302412584757,0.6873065899702439,-0.21879899514783227,-0.7834961006575009,0.5995969431274651,-0.16314829464842925,1
81,16.24,-0.6695030529711987,0.729460807556209,-0.14018770381773044,-0.7759582261575904,0.6076661754931745,-0.1692059408527505,1
82,16.44,-0.7005630080969618,0.6841919312823495,-0.20271377075636796,-0.7810810928633076,0.6000164864619152,-0.17289459894791273,1
83,16.64,-0.7067548711668848,0.6723462307779515,-0.22010928658410023,-0.7868791899166209,0.5915953499227494,-0.17560205700942844,1
84,16.84,-0.7112599667202026,0.6660865636061348,-0.22458394761101513,-0.7920720133852914,0.5844683138457207,-0.17612130967634546,1
85,17.04,-0.7087057524955531,0.667347286835292,-0.2288749770798158,-0.7875430310284373,0.5892692005691371,-0.1803823260165798,1
86,17.24,-0.7193331549596156,0.6540076366907277,-0.23416623011453866,-0.7909692339163565,0.5838088737589989,-0.18312528475888132,1
87,17.44,-0.7236635234903436,0.6481646569859959,-0.23705206644061885,-0.7877527679758097,0.587351893436329,-0.18564301716792211,1
88,17.64,-0.7788370600760938,0.5856938565150575,-0.2244449604971042,-0.7810114778820891,0.5951876155878741,-0.189136917779835,1
89,17.84,-0.7427064638774242,0.629647955694306,-0.2278827777711024,-0.7970977526392786,0.5727222127480606,-0.19137512837977977,1
90,18.04,-0.7995247425233538,0.5577379301975478,-0.22290937017523615,-0.8587457818205053,0.47654496581363537,-0.18830979200023085,1
91,18.24,-0.9477352413310424,-0.22330749338941838,-0.2278852249166802,-0.9436090210302857,0.27663495419248785,-0.18186565797089413,0
92,18.44,-0.9697881467677507,-0.22436237937629128,-0.09577302913336741,-0.975053430095977,0.11643778480761524,-0.188978969007573,0
93,18.64,-0.9631156198211748,-0.25484610446356865,-0.08638151362541743,-0.978425255776999,0.022779228786972264,-0.20534148532039367,0
94,18.84,-0.9535926532530905,-0.12507942636207764,-0.27389083365944356,-0.9652074600933167,-0.08297710973476435,-0.24797047856604476,0
95,19.04,-0.6721125110691595,-0.6547926802596542,-0.34570409072310326,-0.918177023549722,-0.2789770925189326,-0.28128763797055956,0
96,19.240000000000002,-0.7177778937459565,-0.6444813830074663,-0.26351212914475547,-0.863199637933151,-0.408783476689402,-0.2962810393153816,1
97,19.44,-0.6919216582441999,-0.631740523042,-0.34949725377922053,-0.8402138254837985,-0.43326340761678334,-0.3260729168240964,1
98,19.64,-0.6678235231790819,-0.6224477128064215,-0.4081306000666127,-0.8191849383194086,-0.45048479404820496,-0.3549640646065082,1
99,19.84,-0.6514904078894933,-0.6148199648340755,-0.44447346295297324,-0.8062106490002898,-0.46417252408775406,-0.3668354635535328,1
100,20.04,-0.6453051579512188,-0.5959915790357507,-0.4778862739606832,-0.8043957325222207,-0.4582533721863895,-0.37808907995318036,1
101,20.240000000000002,-0.6432973860515256,-0.5791677999796049,-0.500732595869351,-0.8045878374763085,-0.4490931782433752,-0.38852764256930455,1
102,20.44,-0.6356290168070109,-0.5687901785383421,-0.5219707710123946,-0.8008395496138354,-0.44549226149449755,-0.4002407534507544,1
103,20.64,-0.6311167632021992,-0.5806605342468049,-0.5143199152020019,-0.797616400140767,-0.46228163700729763,-0.38743227319408685,1
104,20.84,-0.6302097932103504,-0.5723359667791778,-0.5246590870962891,-0.7979339621172288,-0.4588139955013026,-0.3908850337785167,1
105,21.04,-0.6286014126525274,-0.5731214190140718,-0.5257300667438988,-0.7976442348475226,-0.4615722904941379,-0.38821990580405086,1
106,21.240000000000002,-0.6523194728465014,-0.5737216780045513,-0.49530065771499315,-0.8152665643740906,-0.4617883365598844,-0.3494166012526056,1
107,21.44,-0.7346326654337035,-0.6307406283766193,-0.24996221032956145,-0.826350968647242,-0.4863221608394049,-0.2839627308156072,1
108,21.64,-0.7419051231781835,-0.6254484198346467,-0.24164242659000895,-0.8327156329254635,-0.4781899497570957,-0.2791398334757175,1
109,21.84,-0.7651491165090384,-0.5971502779543137,-0.2407454569551077,-0.8550485406174008,-0.4346212722965832,-0.2828362474212814,1
110,22.04,-0.6477688329166861,-0.5367453433558885,-0.5406477369669866,-0.8499345696596778,-0.4130839733503638,-0.32706705468220804,1
111,22.240000000000002,-0.6451614590462474,-0.5319320459453092,-0.5484660338232031,-0.8480915888322427,-0.3994415965775828,-0.34811932993666633,1
112,22.44,-0.6601391534531728,-0.5629711914324587,-0.4972722953224387,-0.8436897097818084,-0.39463394941893104,-0.363939170156641,1
113,22.64,-0.6536969874114109,-0.5538597722718447,-0.5156739292500891,-0.8401915059818701,-0.3955092024051151,-0.3710130780562693,1
114,22.84,-0.6581148436785627,-0.5504785923697553,-0.5136712682957401,-0.8438016755383324,-0.3960784120159792,-0.36210581864090885,1
115,23.04,-0.99681599828803,-0.07583192252009123,-0.024645183788018644,-0.9017809429282233,-0.3384475578432235,-0.26878314969774897,0
116,23.240000000000002,-0.999827097277745,0.008766893723638723,-0.016398692740499814,-0.9451748266832422,-0.25108025355017854,-0.2088139202291876,0
117,23.44,-0.920561861649074,-0.3688228920435284,-0.12859056412442943,-0.9529282160560346,-0.23032923371865938,-0.1971706345753314,0
118,23.64,-0.9243329296918772,-0.3613497057499836,-0.12261739371570275,-0.9567628079159831,-0.22368591135713262,-0.18592886394815838,0
119,23.84,-0.9981440736541705,-0.05882965232352989,-0.015731504586362327,-0.9748618543722198,-0.17307902414287057,-0.14031399178880474,1
120,24.04,-0.999485066940079,0.02979902299503365,-0.011900386225980242,-0.9923276926578477,-0.08920353831549685,-0.0856065367617919,1
121,24.240000000000002,-0.9987351068460788,0.04462652416507856,-0.023165916646989658,-0.9964631939057493,-0.046010036742763216,-0.0703148612320507,1
122,24.44,-0.9962249490209026,-0.03165600414762357,-0.08083160489379017,-0.9969760761887985,-0.02893299463185245,-0.07212201694919716,1
123,24.64,-0.9945002857222472,-0.019280687109086248,-0.10294385267207716,-0.9964737429020365,-0.011642913542053414,-0.08309345504345315,1
124,24.84,-0.9937646017826531,-0.0186080668131236,-0.10993478108971327,-0.9951369886164231,-0.009012162135847462,-0.09808748554772126,1
125,25.04,-0.9950369857888933,-0.027175452504043816,-0.09572299459040226,-0.9956000316728529,-0.014101554448922382,-0.09263759007626722,1
126,25.240000000000002,-0.9953276386993648,-0.04269101567322368,-0.08660466974670213,-0.9955401012319253,-0.021052386045429545,-0.09196033862988126,1
127,25.44,-0.994579171700265,-0.04466937515647333,-0.09389844590377629,-0.9949764458398154,-0.02310764516214006,-0.09740589796839931,1
128,25.64,-0.9935011750086153,-0.05171583034143431,-0.1013947145989223,-0.9934422947119661,-0.028167622300600468,-0.11081061380280326,1
129,25.84,-0.9928210979938226,-0.06022751156345078,-0.10333883214559281,-0.9922149516809637,-0.03453371284871942,-0.11965330057138174,1
130,26.04,-0.9914837367168254,-0.08019814754317739,-0.10260729485121187,-0.9914743232126646,-0.047314298962783455,-0.12140849856434958,1
131,26.240000000000002,-0.9903544846160308,-0.09171411215786153,-0.1038581553466612,-0.9907085366009706,-0.053109159496195144,-0.12520388445879518,1
132,26.44,-0.99045859388139,-0.09695789098027106,-0.09793335071954576,-0.9906512270560808,-0.056372663157883605,-0.12422668465659509,1
133,26.64,-0.9909788602710916,-0.08526790033797643,-0.10339382799645801,-0.9905721680199073,-0.050914964918229534,-0.12717879654925165,1
134,26.84,-0.991679541712469,-0.06842518252633187,-0.10903981357827906,-0.9903557573329076,-0.04000373512300627,-0.132646805818202,1
135,27.04,-0.9924295059226559,-0.05433400123808007,-0.11014305281575258,-0.9903709962248693,-0.02960825967226999,-0.13523550124039058,1
136,27.240000000000002,-0.9920038417577396,-0.057590903892965915,-0.11230167285787312,-0.9897454876025258,-0.035255959204914485,-0.13842285617259936,1
137,27.44,-0.9921145722925737,-0.05885148198919357,-0.11065793470149073,-0.9895343526636928,-0.038497822374375455,-0.13906718725449796,1
138,27.64,-0.9926029856589144,-0.06282685769319107,-0.10388502689708932,-0.9901189051474563,-0.04418106105683593,-0.13308864532143633,1
139,27.84,-0.9256680181734417,0.3756106761563383,0.04533585874593691,-0.9913538480149896,-0.04504256712927572,-0.12324250554203274,1
140,28.04,-0.9904044076185406,-0.024449738849228096,-0.13601955609386518,-0.9927122299040853,-0.033997104016296985,-0.11561412334729655,1
141,28.240000000000002,-0.9903090629572463,0.000497161440546638,-0.13888020973213885,-0.9928625718071059,-0.004172226031493446,-0.11919104846640968,1
142,28.44,-0.9887470429509688,0.01786841862943676,-0.14852610770971694,-0.9924972667704663,0.019472675363041755,-0.12070621511487789,1
143,28.64,-0.9858992109200018,0.05403426007738111,-0.15837627551249034,-0.9904274503034729,0.06158146957459198,-0.12353618211032406,1
144,28.84,-0.9847480228314401,0.06761307762851866,-0.16031158181232422,-0.9890114942655188,0.07572010249393137,-0.12697531369913745,1
145,29.04,-0.9939494207636244,-0.05341442073526924,-0.09597629197448451,-0.9879025327107838,0.07584436144571187,-0.1352635157775801,1
146,29.240000000000002,-0.9933605042684515,-0.057943340909886454,-0.09938550097337434,-0.9883743383768969,0.06147563347978008,-0.13905723183743898,1
147,29.44,-0.9932313028083161,-0.05431843464906199,-0.10266979487157452,-0.988677139748142,0.050585242799522645,-0.141275074058896,1
148,29.64,-0.9940236073324895,-0.04231284646795248,-0.10063146172785425,-0.9887025156162431,0.05239608079304054,-0.14043498969858498,1
149,29.84,-0.9941962879457141,-0.029903938857198796,-0.10334164444108686,-0.9875048667406545,0.0580917615312428,-0.14649056422077167,1
150,30.04,-0.995414163631301,-0.03543972378037722,-0.08885194888446823,-0.9865240946784982,0.05663220175609752,-0.15350245712374044,1
151,30.240000000000002,-0.9955238754468625,-0.036053658417241626,-0.08736330539758684,-0.9860613422948152,0.05523449056956739,-0.15694642488208466,1
152,30.44,-0.9958620176270252,-0.011003082858796209,-0.09020961154684946,-0.9861043079986358,0.051740837672484094,-0.15786443381421203,1
153,30.64,-0.9936646041625036,-0.00857611811359184,-0.1120584875530498,-0.9863526954079582,0.049407563444201164,-0.1570581196117013,1
