,timeStamp,x_gaze,y_gaze,z_gaze,x_head,y_head,z_head,fixations_head
0,0.03333333333333333,-0.9950101910858824,-0.039379583794277674,0.09167315864213071,-0.9957101125877977,-0.01158018029869461,0.09180016946958698,1
1,0.23333333333333334,-0.9942901822549643,-0.031981628799668246,0.10180475868401347,-0.9920384290032846,-0.08328600924532138,0.09446267011197378,1
2,0.43333333333333335,-0.9675527570406515,0.21515052329630951,0.1324836392478637,-0.9939171336953772,-0.046053941456759555,0.10003882157974053,1
3,0.6333333333333334,-0.9632651118663921,0.2269155696578652,0.14363024927874243,-0.995323005114366,-0.01423586763425399,0.0955481845081734,1
4,0.8333333333333334,-0.9620452284413972,0.2317889385505302,0.14402383968898597,-0.9942765221408204,0.01268630069157878,0.1060813616726255,1
5,1.0333333333333334,-0.9611047583728294,0.24092327093347435,0.13503192569100447,-0.9925404803642167,0.04264082115526464,0.1142153895478851,1
6,1.2333333333333336,-0.9630481300356656,0.23817228073468705,0.125746824709197,-0.9921972243558899,0.05628426681244303,0.11125083950179197,1
7,1.4333333333333336,-0.9703774028061742,0.21003158097069377,0.1193919223318539,-0.9936299555749607,0.035364323595859226,0.10699942056249295,1
8,1.6333333333333335,-0.984363803991857,0.13441283551536173,0.11384678756733262,-0.9936135704463078,-0.0425380644228675,0.1045111750010298,1
9,1.8333333333333335,-0.8922324748106142,-0.4252116101519787,0.15204044687282578,-0.9621844604340192,-0.25595282661242197,0.09321595704817448,0
10,2.033333333333333,-0.7854503519896869,-0.6065132102432202,-0.12332668145920593,-0.9112318487898668,-0.40669988676908564,0.0652052133883023,0
11,2.2333333333333334,-0.7804992492689645,-0.6094757800895538,-0.13914091912450738,-0.8894116224208956,-0.4541074189931674,0.0522820994030876,0
12,2.4333333333333336,-0.9096938467980433,-0.3429408179799357,-0.23419799414390977,-0.9187795679124963,-0.3930083130943103,0.037263540160478066,0
13,2.6333333333333333,-0.937164616539108,-0.13188570583049392,-0.3229994459820317,-0.9509001689509549,-0.30713487859998717,0.038171128309452254,0
14,2.8333333333333335,-0.9854696308422455,0.1683962318313241,0.022188190387220023,-0.9780007546272609,-0.19734939920642336,0.0675850470250075,0
15,3.033333333333333,-0.9705484786898848,0.23565406055240193,0.050028134663559286,-0.9918993848743598,-0.09900702853018631,0.07958152164598238,1
16,3.2333333333333334,-0.9609935771427094,0.27173951153223286,0.051468267531396085,-0.9942954528327805,-0.027771658446659613,0.10298197639965057,1
17,3.4333333333333336,-0.9613372010108595,0.27246431988767067,0.03992468335197942,-0.9949014124098333,-0.004358329614545849,0.10075804954389371,1
18,3.6333333333333333,-0.9628215857926138,0.2685446618937223,0.029297755889886937,-0.9957999890231253,0.007148512061385627,0.09127584914341945,1
19,3.8333333333333335,-0.9900805475722363,-0.09177658323346283,0.10638405937475884,-0.9960299090366657,-0.005112401551672281,0.0888722884525104,1
20,4.033333333333333,-0.9877273276741165,-0.08261846509356062,0.13254778531281758,-0.9943871166765988,0.0004973343557513354,0.10580177146975751,1
21,4.233333333333333,-0.9630633377955509,0.2651567565826405,0.046913770181762966,-0.9924859803650565,0.07424634557939609,0.09725769351016651,1
22,4.433333333333334,-0.9394619867951879,0.3415581865602804,0.027371162936408625,-0.9735127836646875,0.20997842728306387,0.09045396684038737,0
23,4.633333333333334,-0.7723757922720617,0.6330558289675051,0.051729613591925364,-0.9357776210549538,0.3404103994088081,0.0918749362289151,0
24,4.833333333333334,-0.6760556203727728,0.7354083465671232,0.046079951842377335,-0.8582571081897781,0.5036709690659666,0.09854080962662087,0
25,5.033333333333333,-0.39181825778014906,0.9174701598236319,0.06875288141836935,-0.7253201356346834,0.6795540580898964,0.11007716827952437,0
26,5.233333333333333,-0.37033937174221254,0.9284827454737524,0.02772257374607729,-0.5435689196189346,0.8317928475685057,0.11248772536673161,0
27,5.433333333333334,0.12149630568046743,0.9833546457969583,0.13510102995735282,-0.3188882066804944,0.944078099011951,0.08382633599340508,0
28,5.633333333333334,0.042461371725339925,0.995922271726256,0.07959811926682692,-0.10671825478840236,0.9925873247712914,0.05815167064056346,0
29,5.833333333333334,0.5050758092252676,0.8578530739950747,0.09479731205388796,0.07621621798386363,0.9959354112991474,0.04799733989123431,0
30,6.033333333333333,0.48696015478478283,0.8722390809867794,0.04548398895566632,0.24894991557954188,0.9668967752217852,0.05598719138027579,0
31,6.233333333333333,0.5474248326888069,0.8358846464491125,0.04028536193550341,0.3967145193079615,0.9147498121142804,0.07648772062979635,0
32,6.433333333333334,0.8099969815581995,0.568421234926781,0.14422964172083172,0.565913658920508,0.8137167233980571,0.13269071071304428,0
33,6.633333333333334,0.8837194860102562,0.4669219229787705,0.03199668557172281,0.6780880147050221,0.7219649359137214,0.1377072097767517,0
34,6.833333333333334,0.9089566536549814,0.4163149727525301,0.02190080451486887,0.7192014384208236,0.6811115800947116,0.13724542409240212,0
35,7.033333333333333,0.9037977223500862,0.4276736718882253,0.015649519112081296,0.7154919245500616,0.6849726109867741,0.13741844163579559,0
36,7.233333333333333,0.45444786959619077,0.7503205569708826,0.48010019329967807,0.6349145330506758,0.7425604603160744,0.21327798408701812,0
37,7.433333333333334,0.43940629614755905,0.7933793954883153,0.4212733574776355,0.49667039326810475,0.8381762495613096,0.22534217342131768,0
38,7.633333333333334,0.15198612506564135,0.9323157339473301,0.3281578736245445,0.2991740097317115,0.9315513661793908,0.20665663326000505,0
39,7.833333333333334,0.1384784145275923,0.9334365380383649,0.3309379974630846,0.10498806754636475,0.9753071144349708,0.19430269737039388,0
40,8.033333333333333,-0.14133427120544606,0.928436177555438,0.34355623701087545,-0.07048636297902833,0.9771186589305205,0.20067585555768788,0
41,8.233333333333334,-0.14979519399092284,0.8495987408779898,0.505710766501719,-0.26049404728403547,0.9448452314886047,0.19852037644238948,0
42,8.433333333333334,-0.3178695860051709,0.8996685165208113,0.299258227412621,-0.4538075741665786,0.8720329880457419,0.1833498115326552,0
43,8.633333333333333,-0.733733236230707,0.6715487561109842,0.10323665151584323,-0.6848839943734322,0.707084082129517,0.17597163137889954,0
44,8.833333333333334,-0.7987822651894351,0.5948574131020462,0.0899530482884079,-0.8580508992965059,0.4844215541839643,0.1705415259063039,0
45,9.033333333333333,-0.9917271082437085,0.12319949527416645,0.03604479350422971,-0.9432689312599831,0.2891477648653147,0.1632093544899987,0
46,9.233333333333334,-0.9652980333834421,0.250722164799592,0.07306232150887,-0.982312158871091,0.0879236853362616,0.165324674779377,0
47,9.433333333333334,-0.9539584321106473,0.2847064666993429,0.09436915610818603,-0.9800300348362864,-0.09850393827524653,0.17273709781935673,0
48,9.633333333333335,-0.9417902169723257,-0.3225929745998197,0.09468347244403254,-0.9526839093843236,-0.25225491142693535,0.1695901779620253,0
49,9.833333333333334,-0.9373486502926888,-0.3335356580114461,0.10065521660274931,-0.9346196795511117,-0.31718902926295367,0.16086383779769367,0
50,10.033333333333333,-0.9408234824208643,-0.31212811361595816,0.13201217980179575,-0.9333606850934668,-0.31663292343019384,0.169060413231198,0
51,10.233333333333334,-0.9092108505189433,-0.2865216534782875,0.3020612047030992,-0.9498509531651879,-0.27465814355213175,0.14948602259636534,0
52,10.433333333333334,-0.8401670079564361,-0.3660736598900038,0.400136819445884,-0.9521272467922679,-0.2776425339040219,0.12793877161802766,0
53,10.633333333333335,-0.8241459013094745,-0.48456511209282593,-0.2932237805793745,-0.9395658905133201,-0.3423674762132238,0.0006697875036643946,0
54,10.833333333333334,-0.786065667558304,-0.4758020326093093,-0.39460510900261775,-0.9199587555051283,-0.36959322694661656,-0.13067798117756038,1
55,11.033333333333333,-0.827320036419339,-0.22531929130098732,-0.5145607586152725,-0.9082098259053046,-0.36135925955228726,-0.21112649683277396,1
56,11.233333333333334,-0.8192273989734713,-0.1723815755868517,-0.5469470368960376,-0.8998676169766345,-0.3420762518917654,-0.27059584218622945,1
57,11.433333333333334,-0.8764771323545205,-0.2931341748813934,-0.3819164725122516,-0.9013752435391655,-0.3298357334281135,-0.280590554525003,1
58,11.633333333333335,-0.8693333646129948,-0.3705512085325846,-0.3270341007076955,-0.9091859798602637,-0.32401858592286,-0.2615201904291183,1
59,11.833333333333334,-0.8538147785816017,-0.4313026802872963,-0.29151041465554073,-0.8964415878311144,-0.38208871688563995,-0.22450098448673997,1
60,12.033333333333333,-0.8130726525179908,-0.534816850251986,-0.22996477646349187,-0.8552396008330148,-0.4957664123198737,-0.15093339452376717,0
61,12.233333333333334,-0.61774483871724,-0.768490449354923,0.1667745288959914,-0.7690466798346292,-0.6363824956252709,-0.05987089023127724,0
62,12.433333333333334,-0.6691439864542901,-0.73691388805722,0.09593876682786731,-0.7515703930653134,-0.6584512505205264,-0.039798177792524744,0
63,12.633333333333335,-0.8759208803455704,-0.46147313752526936,0.14073078809281425,-0.7928700139545292,-0.6083726192937222,-0.03521217212045974,0
64,12.833333333333334,-0.9063079087584913,-0.39223637198416916,0.1573423115837153,-0.8333777952218581,-0.5526913463738502,0.003704871740768431,0
65,13.033333333333333,-0.910073065326464,-0.3333433609233299,0.24627062247785964,-0.8593126867208736,-0.5076176407158877,0.06249829817354856,0
66,13.233333333333334,-0.9008539358773328,-0.2821965530186196,0.32988981748263774,-0.8756038877926794,-0.4659869750826838,0.12717692689963528,0
67,13.433333333333334,-0.9130023318023195,-0.20992590041167608,0.34979688171834045,-0.9069501948095124,-0.38795705779563583,0.16410565328940055,0
68,13.633333333333335,-0.9012926993885773,-0.31919337594333436,0.2928942791908864,-0.9368530029514505,-0.29712191602853283,0.18445871591329957,0
69,13.833333333333334,-0.9267880750087681,0.3549268199712091,0.12284468440541892,-0.9733924703759553,-0.1233570571814345,0.193106538105086,0
70,14.033333333333333,-0.9005723229404718,0.4212958358190981,0.107141541313771,-0.9827819684581286,0.001476443903493981,0.18476315267651733,0
71,14.233333333333334,-0.926000077477073,0.36576816375172444,0.09347463237770211,-0.9771265404765895,0.07737597616943696,0.1980825136353004,0
72,14.433333333333334,-0.909761005631839,0.40763959190329246,0.07851672270709212,-0.9644328714743151,0.1714937339067445,0.20114456405911255,0
73,14.633333333333335,-0.8692253260156637,0.494129580473098,0.01683123033065701,-0.9415124056196982,0.27694047463235244,0.19198532124778753,0
74,14.833333333333334,-0.8763305230853344,0.4817101383304489,-0.00039615482325526074,-0.8948448762689086,0.4039188306644119,0.19000585688334964,0
75,15.033333333333333,-0.6940082865629997,0.7198679099690921,0.01194530780768509,-0.8446965380163907,0.5020698702398065,0.18550904037406932,0
76,15.233333333333334,-0.697630800241616,0.7160405297136679,0.024438215188764337,-0.8352327684446296,0.5123872995055441,0.1996133207522385,0
77,15.433333333333334,-0.7618339843123082,0.647684118618711,0.010689379586165969,-0.8858509891313353,0.4289716177173083,0.17678058787103923,0
78,15.633333333333335,-0.9912743053303464,0.1265997950276519,-0.03671162609849321,-0.941213386534828,0.30263196535332554,0.15010414569232802,0
79,15.833333333333334,-0.9945455995393846,0.10157906017939762,-0.0236800542633792,-0.9630629600164993,0.21964486208878,0.15577506091239193,0
80,16.033333333333335,-0.9860877810588354,0.15779711639543267,-0.052258569668032114,-0.9794990754671928,0.12285924251097427,0.15964700964485373,1
81,16.233333333333334,-0.9890490914654765,0.13534443777986432,-0.05885386846561903,-0.9876086734115737,0.05003161786833335,0.14874792575262594,1
82,16.433333333333337,-0.9990212733962729,-0.011950162946320448,0.042587426633294186,-0.9895675176346518,0.030624167392771018,0.14077744284470195,1
83,16.633333333333336,-0.9992542551214733,-0.011581839051812573,0.03683469323624085,-0.9912614968670023,0.025390773135264756,0.12944478926779526,1
84,16.833333333333336,-0.9996573335209712,-0.013633197564631008,0.02234617331682842,-0.9942378299154736,0.017605206090315344,0.10574116645605772,1
85,17.033333333333335,-0.9859499409882007,-0.06549322160733073,-0.15366636518398136,-0.9943885872368297,-0.02292020717671407,0.10327633647704103,1
86,17.233333333333334,-0.9796830211671116,-0.07651931052600013,-0.1853806169843707,-0.9950353532513967,-0.06136338601982006,0.07835292359606764,1
87,17.433333333333337,-0.9789473868652225,-0.07197556770121934,-0.19100139110446304,-0.9954461914480512,-0.06628233683798145,0.0685093552361004,1
88,17.633333333333336,-0.9825886934871939,-0.06457360265375113,-0.1742116794920633,-0.9953447942474463,-0.05656947835270673,0.07802970385315798,1
89,17.833333333333336,-0.9840014817341396,-0.07729827154063237,-0.1605181022870897,-0.9936748379931611,-0.065042569640487,0.09154114088117855,1
90,18.033333333333335,-0.9854008737204227,-0.06898177798000515,-0.155649068027229,-0.9934358940165773,-0.05564945652062405,0.09994129511089628,1
91,18.233333333333334,-0.9855682864007708,-0.08847106391465426,-0.14431917298425007,-0.9902763496231821,-0.0780359837303155,0.11516569202773604,1
92,18.433333333333337,-0.9762352839812879,-0.14200229924589752,-0.16370710833330676,-0.9856644715243332,-0.1381742146706586,0.09681650672692181,1
93,18.633333333333336,-0.968043805901303,-0.19102995874485784,-0.16247690518365443,-0.9765997925786802,-0.19044918539640912,0.09990972383668734,1
94,18.833333333333336,-0.9724465933577859,-0.12765125472090078,-0.19507121836656524,-0.9636864986870484,-0.24553406876188458,0.1049826334473081,1
95,19.033333333333335,-0.9685722532795342,-0.23538367964456938,-0.08038851618228099,-0.9554749345543438,-0.27449952811929224,0.10824813393614752,1
96,19.233333333333338,-0.9323248357591748,-0.3608132010643903,0.024170944629776297,-0.952365045848473,-0.2833402957480279,0.11277897078558673,1
97,19.433333333333337,-0.9847980025656589,-0.13074700982230855,-0.11435958011996028,-0.9542662846201889,-0.28620675818075514,0.08638026168543188,1
98,19.633333333333336,-0.9886582575861568,-0.11326855560094613,-0.09861584060778472,-0.9588206540599152,-0.2698815207923321,0.08846987104621888,1
99,19.833333333333336,-0.9899333108471541,-0.1195043760198399,-0.07583366130750212,-0.9577308271738255,-0.25995563115650416,0.12318576423825857,1
100,20.033333333333335,-0.9832710099220451,-0.1540494143074489,-0.09719515933632669,-0.9540783700463521,-0.2749252508034291,0.1189561695767293,1
101,20.233333333333338,-0.9719088044943461,-0.1967608132750451,-0.1291451048461141,-0.9459871901183539,-0.31039091787958006,0.09362539308250456,1
102,20.433333333333337,-0.9704794780455233,-0.2057978918634902,-0.125764901292181,-0.9465079798620186,-0.3094291749198103,0.09152174477120789,1
103,20.633333333333336,-0.9623448515353834,-0.23964225223975516,-0.12831203242408093,-0.9398793812699695,-0.3307887137067169,0.08488566161510899,1
104,20.833333333333336,-0.9459715009148881,-0.2830621768747847,-0.15815727450782088,-0.930796761985318,-0.3617181229995831,0.05270092381833648,1
105,21.033333333333335,-0.9285208845356974,-0.3055533163597754,-0.210917372073969,-0.9244483540969086,-0.3810822892165499,-0.013096925325839304,1
106,21.233333333333338,-0.927898808594513,-0.35006019759680984,-0.12830299710983328,-0.9180156004579935,-0.38870898177888724,-0.07843905149968784,1
107,21.433333333333337,-0.9261270381769204,-0.3482402855768433,-0.144973834394361,-0.9225790537956862,-0.37030195273830074,-0.10827905289416584,1
108,21.633333333333336,-0.9342263818117419,-0.33161345599372666,-0.13135289616463894,-0.9360563391930306,-0.3350324675869522,-0.10747918644621346,1
109,21.833333333333336,-0.9323892063323214,-0.3354193932767499,-0.13470040285329815,-0.9406597007862381,-0.3185621221294794,-0.11695085147662682,1
110,22.033333333333335,-0.9133171650006975,-0.37336822645841217,-0.16262817586872402,-0.9315582954302136,-0.33951722759888675,-0.13010455172176177,1
111,22.233333333333338,-0.9034711856218689,-0.39864637561029037,-0.157546450178333,-0.9275796424548967,-0.3568501799872167,-0.11069758780722151,1
112,22.433333333333337,-0.8947705357668473,-0.41948176989674474,-0.15303833849007775,-0.9211879658499378,-0.37601447225279483,-0.10012915773992197,1
113,22.633333333333336,-0.9038542403412912,-0.40778318112030026,-0.1294619226354828,-0.9268693990780759,-0.36625158361087384,-0.08229759750547899,1
