,timeStamp,x_gaze,y_gaze,z_gaze,x_head,y_head,z_head,fixations_head
0,0.03333333333333333,-0.9998851205701504,0.008244035404145932,0.012719337351879025,-0.9950954789956667,0.028974160372525006,0.09458057788516513,0
1,0.23333333333333334,-0.9994810290632498,0.009529446202830782,0.030771126039439548,-0.9945569149638709,0.032870375494824994,0.09887406794694528,0
2,0.43333333333333335,-0.9921330790365206,0.11570011767727659,0.04780623652806764,-0.9950570909992446,-0.01528015152898322,0.09812187636491998,0
3,0.6333333333333334,-0.9954229785181082,-0.049442442331609125,0.08178348692996418,-0.9678662256945696,-0.217667756734412,0.12591948553721796,0
4,0.8333333333333334,-0.6506518530793803,-0.7572592438784878,0.056662188847142955,-0.8092049319333743,-0.5683322127815118,0.1489492331285172,0
5,1.0333333333333334,-0.5206715611368167,-0.8524310550034112,0.047564922885692036,-0.6414864570763548,-0.7447867638040702,0.18381458551999208,0
6,1.2333333333333336,-0.46351490152966257,-0.885751365246269,0.02446334041618382,-0.47580192495832474,-0.8572646098875293,0.19674835918079414,0
7,1.4333333333333336,-0.1291105742160552,-0.98819682318093,0.08244694221569693,-0.2575526455272077,-0.9432466426520699,0.20964829097213022,0
8,1.6333333333333335,0.17825449808030658,-0.9829286252288871,0.045570293172068226,-0.07855655350207669,-0.9751381105098975,0.20720649925391424,0
9,1.8333333333333335,0.5629898603159262,-0.8262852547958701,-0.017178326122707387,0.15583547184826513,-0.9676985227063121,0.19817889611623632,0
10,2.033333333333333,0.6306526180719956,-0.7760618186862662,0.0023084402316131576,0.3909631815418386,-0.9042294143099389,0.17180499694534104,0
11,2.2333333333333334,0.7567395553029705,-0.6518319441837936,-0.0496020360614216,0.4779963817714149,-0.8618436548562464,0.16954342687778623,0
12,2.4333333333333336,0.7909032074858262,-0.6104858849609551,-0.042179386577703606,0.551763020573448,-0.8175163558945708,0.16499871809358543,0
13,2.6333333333333333,0.7603993182333821,-0.6470243263250526,-0.056146219586178166,0.5314059239912721,-0.8359423515108839,0.13714273184327463,0
14,2.8333333333333335,0.3998302374429927,-0.9129128131553036,0.08201205279195413,0.48162905554362895,-0.8655729990862171,0.13717447324135554,0
15,3.033333333333333,-0.037509799678395794,-0.9992746249891133,-0.006575620195339702,0.24518406532029485,-0.9524837309797746,0.18071944093500952,0
16,3.2333333333333334,-0.0844962508775185,-0.9956621718972979,-0.038951547342811116,-0.0539655791909317,-0.966682394624942,0.2502256265548663,0
17,3.4333333333333336,-0.5493715195505329,-0.8355302731065061,0.008949649675041523,-0.3751872201073187,-0.8853033809426774,0.2747225392275036,0
18,3.6333333333333333,-0.8410118649844667,-0.540936673061385,0.009303692419135765,-0.6167262315915221,-0.7286035030644236,0.29796927792839767,0
19,3.8333333333333335,-0.9925471260360742,-0.11446729128418277,-0.0418024140880852,-0.8024642949325927,-0.5181189133690323,0.29597947051718054,0
20,4.033333333333333,-0.9993482621723306,0.0071419589133312885,-0.03538422411220549,-0.9139511126658977,-0.28302980193277244,0.2908392938972718,0
21,4.233333333333333,-0.856971488942441,0.4607434493753456,-0.23090114984010804,-0.955111102788704,-0.11014261709776764,0.27501160926150126,0
22,4.433333333333334,-0.9641228886237108,0.26215311481904785,-0.041746856439051946,-0.9800720465731323,0.03036051384528081,0.19630848867281048,0
23,4.633333333333334,-0.9567468523340134,0.2746892428568253,-0.09581899815643057,-0.9931487528487866,0.09382227571411753,0.06966301238622824,0
24,4.833333333333334,-0.6879453886464832,0.09736366581733204,-0.7192019596877153,-0.9787134222249593,-0.021245954282639166,-0.20412899495987502,0
25,5.033333333333333,-0.7344506868701941,0.06132486397418698,-0.6758856779178325,-0.9157656139046068,-0.12002999268105456,-0.38336163246588034,0
26,5.233333333333333,-0.6512394756129366,-0.20124224929329282,-0.7317026052316362,-0.8772719433739105,-0.21184483239826243,-0.43071534028301617,0
27,5.433333333333334,-0.6984723897930756,-0.48698225861173283,-0.5243897410268107,-0.7726662494595375,-0.3734120598899073,-0.5133715033724677,0
28,5.633333333333334,-0.6786097964792721,-0.5535473492675641,-0.48277746036990415,-0.5838698536995531,-0.5523811602228275,-0.594954660265592,0
29,5.833333333333334,-0.6107166807706725,-0.6895286951382364,-0.38932674504767023,-0.45495037961759865,-0.6742818705680106,-0.581690734934903,0
30,6.033333333333333,-0.7903401348902284,-0.49020055437220555,-0.36751311224890726,-0.43705720323287234,-0.7418546160933284,-0.5085594652381179,0
31,6.233333333333333,-0.7927755009812572,-0.5786034428679822,-0.1916378379789203,-0.5486669146320269,-0.7928565451810883,-0.26522276590006566,0
32,6.433333333333334,-0.8009257065957958,-0.5226136674246993,-0.29222075069188913,-0.7122673809162301,-0.6924854030800258,-0.11462610786303662,0
33,6.633333333333334,-0.760044969251769,-0.539358311783882,-0.3625248353212767,-0.7941166792252398,-0.6017296705354385,-0.08544064239921545,0
34,6.833333333333334,-0.7715836251911439,-0.5091255085248642,-0.381378979371164,-0.8256458876005786,-0.5541405767381691,-0.10600513902892814,0
35,7.033333333333333,-0.7722519339914289,-0.5230674453997846,-0.36059311974778613,-0.8281751345343392,-0.5526804972537739,-0.09311398656673607,0
36,7.233333333333333,-0.7909813035927835,-0.6073814956465561,0.07373124244724007,-0.789570691310556,-0.611806469235506,-0.04765467054712284,0
37,7.433333333333334,-0.8342335348967346,-0.5496186944905694,0.044426342637909726,-0.8063102140457833,-0.5910292775963701,0.02341434921914849,0
38,7.633333333333334,-0.9374263211470215,-0.31465502027742814,0.14907753229434934,-0.9197419437560097,-0.3700713632932085,0.13085084243604747,0
39,7.833333333333334,-0.985261185422859,0.14933040483711504,0.08343156890725603,-0.9741052950105709,-0.17067152256952875,0.14829061202978533,0
40,8.033333333333333,-0.9283152744605037,0.3628695423086462,0.0809718868993034,-0.9674304977032779,0.18493596010064567,0.17284942225891506,0
41,8.233333333333334,-0.9363106093558613,0.34483383847395643,0.06642338933668727,-0.8781375759040043,0.44248247427998716,0.1818891358506603,1
42,8.433333333333334,-0.9577699751907803,0.28595543122436407,0.03010259085759702,-0.8098489713623733,0.5636481530956817,0.16262042643878707,1
43,8.633333333333333,-0.9605707285044586,0.2774635854281866,0.0178279079465118,-0.8080392403422799,0.5614749132058054,0.1783774310488996,1
44,8.833333333333334,-0.9707305925268539,0.23860418257849816,0.027389063301070403,-0.8248757171503236,0.5381349343387785,0.1731786467782279,1
45,9.033333333333333,-0.9752177728391878,0.2185989186128253,0.03412928830019751,-0.8380581337674884,0.5210608836016701,0.16172235468976315,1
46,9.233333333333334,-0.9694251147392051,0.23370685417842446,0.07480677257377183,-0.8908786960132283,0.4294496203626141,0.14801409581582622,1
47,9.433333333333334,-0.9772870292134413,0.2018664791911358,0.06449796206192006,-0.9288423279013914,0.34869718793352367,0.12514871563854227,1
48,9.633333333333335,-0.9827997070901752,0.17181172927736724,0.0677160647570904,-0.9524252320923952,0.2760056922664562,0.1292556966259572,1
49,9.833333333333334,-0.976451272337717,0.2054005064745737,0.06598139654510367,-0.9499061877974979,0.28278417569179143,0.13308397485173992,1
50,10.033333333333333,-0.9746872645493138,0.21525477039756336,0.060416224199039366,-0.9514035261509792,0.2785831623192426,0.13123548338652022,1
51,10.233333333333334,-0.9739803570784749,0.21975526008752316,0.05540658525077847,-0.9525328188685925,0.27532792147239765,0.1299067536194436,1
52,10.433333333333334,-0.9715918638639154,0.22823671014259012,0.0625879718215113,-0.950844631453235,0.2781672013175656,0.13607900259670916,1
53,10.633333333333335,-0.9651180759953106,0.2575534586709096,0.047045885194796716,-0.9451564492229129,0.3036213340676509,0.12038842133409461,1
54,10.833333333333334,-0.9640040781482996,0.26217545066565867,0.04427381146576915,-0.9457485847182108,0.30432165148537577,0.11378904578523848,1
55,11.033333333333333,-0.9626681290449596,0.26793477978307806,0.03848411495241774,-0.9451198710400863,0.30973474350769137,0.10398470093910757,1
56,11.233333333333334,-0.9606007621817845,0.27590940991676877,0.03346898885767863,-0.9441915812706124,0.31538593685989036,0.09504719190333899,1
57,11.433333333333334,-0.9621898312073456,0.2696642744840473,0.03836545044923661,-0.9463510831551931,0.3083639810875822,0.096598564061846,1
58,11.633333333333335,-0.961229957723925,0.2706144259073151,0.05296037070221209,-0.9450932206348805,0.30888122203297735,0.10672954129669739,1
59,11.833333333333334,-0.9595539843612285,0.27665850554147303,0.05211739064890174,-0.9434795160698234,0.31399535217172203,0.10608167405922787,1
60,12.033333333333333,-0.9586306370674581,0.27861310843960435,0.05832698758946121,-0.9428419177569513,0.31389173280715277,0.11189771309422503,1
61,12.233333333333334,-0.9621632863000567,0.2656986666625887,0.06038235694305079,-0.946950135271882,0.3006018828886116,0.11368354899626396,1
62,12.433333333333334,-0.9591923349296436,0.2744183035299621,0.06815173732162717,-0.9432900382434898,0.30926765706971215,0.12065413395821525,1
63,12.633333333333335,-0.9555328627287102,0.28390179911044794,0.07972902048393002,-0.9386969100879949,0.31863128945659075,0.1316138760559893,1
64,12.833333333333334,-0.9464450420374965,0.3117654607064433,0.08392901711053727,-0.9283421150739614,0.3462319015593301,0.13529370910213978,1
65,13.033333333333333,-0.937637780109101,0.3368278656364383,0.08592079051591031,-0.9180949961237124,0.3715344101875604,0.13807157614506374,1
66,13.233333333333334,-0.916448807505142,0.3911472064203239,0.08441235769708028,-0.8936302958685108,0.427689222167807,0.13603978663411073,1
67,13.433333333333334,-0.9403231276138286,0.332718169926676,0.07135148964941816,-0.8654653172264828,0.48301440652089256,0.13291677009065989,0
68,13.633333333333335,-0.9250607632346909,0.3708689042478807,0.08196853167910001,-0.8217721139871937,0.5508130017739731,0.14593022219459537,0
69,13.833333333333334,-0.9291076149483639,0.36186624477669765,0.07623556083727781,-0.8065013317191504,0.5709171986982975,0.1536527063403895,0
70,14.033333333333333,-0.9837177175666142,0.1762584446395724,0.03510573797500347,-0.8655068159504756,0.4764163949783473,0.15467827946775642,0
71,14.233333333333334,-0.9964975917565203,0.07937994704146595,0.02629398469517138,-0.933337230965752,0.3279129333718517,0.14613254743776255,0
72,14.433333333333334,-0.9957729290669001,0.08369719905735473,0.037829255973121416,-0.9804141660855188,0.1468418585248421,0.1312460724128823,0
73,14.633333333333335,-0.9856777059344924,0.06959366370205913,-0.15361048791095294,-0.9928220130968285,-1.4971403247352108e-05,0.11960121272888027,0
74,14.833333333333334,-0.9832436294940187,0.041821789254808124,-0.17743422162298805,-0.9888856625264559,-0.0902735316205683,0.11813482102396061,0
75,15.033333333333333,-0.9850572380140153,0.0012007242446187014,-0.17222309977900227,-0.974197958242282,-0.18605262893482855,0.12776054720847121,0
76,15.233333333333334,-0.17148191005871044,-0.9837915198505566,0.05242327720343418,-0.7457934211478088,-0.6108814495732691,0.26573676362127374,0
77,15.433333333333334,-0.32016751271097577,-0.9288418968670581,0.18640143354833003,-0.38142217147346114,-0.8755552561293354,0.2965132721696678,0
78,15.633333333333335,0.05716037660392881,-0.9980922307218754,0.023336459010059374,0.05557549014270835,-0.9536326931942698,0.295797314670775,1
79,15.833333333333334,0.08501805851450778,-0.9963792678998772,0.0005331282480595723,0.1448034967177499,-0.958270268964682,0.24647522990489104,1
80,16.033333333333335,0.11553140791685812,-0.9931051773401621,0.019864554485666663,0.1721501006444046,-0.9545617120860006,0.24326175340066233,1
81,16.233333333333334,0.09754798379633428,-0.9945853136011438,0.035839152140983835,0.16767607292904718,-0.9551305475395176,0.2441523535089395,1
82,16.433333333333337,0.058709186792204826,-0.9973484581795945,0.043003306302935425,0.13740679337006095,-0.960047217523011,0.24378005099286112,1
83,16.633333333333336,-0.044343883643758186,-0.9975538352527219,0.05403670748643148,0.021657662456034565,-0.9667987844071009,0.2546194339124419,1
84,16.833333333333336,0.011452598837111694,-0.9970774416543767,0.0755341864577837,-0.10443440290122297,-0.9576764579795626,0.26823358723766216,1
85,17.033333333333335,0.022202891889640308,-0.9976892124476426,0.06421266975714117,-0.14125154839397058,-0.9531029005890113,0.26766184069665117,1
86,17.233333333333334,0.004846343078051207,-0.997689031430516,0.06777248351660535,-0.1922152560582973,-0.9432980523825055,0.2706327395379496,1
87,17.433333333333337,0.0023739080305050786,-0.9984632283050003,0.05536737562337146,-0.2182498587193123,-0.9408982737709718,0.25899312265735147,1
88,17.633333333333336,0.02266001131119011,-0.9989844771172345,0.03894275755750235,-0.21545679975202942,-0.9459307008385771,0.2424736617689686,1
89,17.833333333333336,0.049776647064013024,-0.9979751703875415,0.03959601870166181,-0.20388207238456763,-0.9500786163647422,0.23618366430943386,1
90,18.033333333333335,0.05422488627074912,-0.9971279044460969,0.0528734705108355,-0.20990791376638773,-0.9468171453073504,0.24387693841419836,1
91,18.233333333333334,0.052207172239486954,-0.9967034053924869,0.06210259934798559,-0.21706867850136735,-0.9432180052373131,0.25143783209734816,1
92,18.433333333333337,0.0502130834888026,-0.9974666378377643,0.05038802086977969,-0.22450427609972545,-0.9444079472219368,0.2401904645005416,1
93,18.633333333333336,-0.015794195004352585,-0.9984565703345322,0.05324491111804322,-0.3135088543674047,-0.9190239618869691,0.23897103529678282,0
94,18.833333333333336,-0.765439124898052,-0.6323341122015658,0.11940065586738609,-0.9166676713034894,-0.3096411349580691,0.25267122497212974,0
95,19.033333333333335,-0.967445627619022,0.22065080779322344,-0.1239442561034386,-0.9841727933682323,0.03353750078554877,0.17400904814069415,0
96,19.233333333333338,-0.9603437207189571,-0.19605820133979618,-0.198245100224631,-0.9933568464963819,-0.06852272902128066,0.09244896498198316,0
97,19.433333333333337,-0.9602922836311467,-0.2215362760099847,-0.16958893952762788,-0.9719756999980314,-0.222514886027273,0.0758311552701577,0
98,19.633333333333336,-0.9408419801952139,-0.3019008380903717,-0.15385789632865757,-0.9458054613725309,-0.31447506824756727,0.08097814945145515,0
99,19.833333333333336,-0.760294963158036,-0.6379590624546304,-0.12231027605450634,-0.9054734503308267,-0.4153750322476983,0.08707131175772832,0
100,20.033333333333335,-0.7848942883554366,-0.6033198768562106,-0.14123059971981927,-0.8275824076813503,-0.5540272536989267,0.090339142430979,0
101,20.233333333333338,-0.7458594065084039,-0.6531472242670168,-0.13073809374173564,-0.7228231047422606,-0.6836012974512546,0.10107435566809271,0
102,20.433333333333337,-0.7845036781290584,-0.6111899982335958,0.10488453203974382,-0.6257437574336857,-0.7714620598522848,0.11528677392156854,0
103,20.633333333333336,-0.39073755755936745,-0.9173531099543645,0.07607517840659733,-0.5036342439152204,-0.8543496166607618,0.12821575904526558,0
104,20.833333333333336,0.0059939427907133025,-0.9999519899534774,0.0077518022357681736,-0.37463281585255753,-0.9163891787242848,0.14100044823834626,0
105,21.033333333333335,0.041518176245148364,-0.9990201495822636,0.015329115105200094,-0.29814234204305906,-0.9436555893585563,0.14361501506957966,1
106,21.233333333333338,0.05443450477201911,-0.9981486596336128,0.0271318624839366,-0.2548663870385158,-0.956003700855228,0.14525855812667715,1
107,21.433333333333337,0.08104181328514964,-0.9965065161205505,0.020173939346051415,-0.20812989842820817,-0.9692498192828047,0.13128873980853878,1
108,21.633333333333336,-0.002564736004924073,-0.9977744167878537,0.06663058856774091,-0.1784783744676569,-0.9763832840774048,0.12174215548282848,1
109,21.833333333333336,-0.04068689816079307,-0.9967546593128088,0.0694602437100518,-0.1926067993411945,-0.9732974412508549,0.12487878803896184,1
110,22.033333333333335,-0.05873686916048548,-0.9947926581310076,0.08329194156621011,-0.21509445807179706,-0.9671486258948093,0.13549136332837663,1
111,22.233333333333338,-0.05428733678711917,-0.9940601639934998,0.09432537000074917,-0.2233771429791392,-0.9639765782662245,0.1444015531378355,1
112,22.433333333333337,-0.04209346560929622,-0.9960872182700431,0.07770710232691885,-0.2232486615760434,-0.9666141074596809,0.1257664596163455,1
113,22.633333333333336,-0.03993317570908839,-0.9951831455094147,0.08953127035720186,-0.22636310628638034,-0.9653104585622784,0.1301363235329214,1
