,timeStamp,x_gaze,y_gaze,z_gaze,x_head,y_head,z_head,fixations_head
0,0.033366700033366704,-0.9979617299763295,0.008884733994075905,0.06319372599005336,-0.9935499520851275,-0.016172410563785045,0.11223611650532701,0
1,0.2333667000333667,-0.9988407641731974,-0.006946665224602398,0.047632674375480404,-0.9949208482341468,-0.03626145617737466,0.09390214345233297,0
2,0.43336670003336675,-0.96590002769889,-0.16124929774095867,-0.20257295098144573,-0.9957696025113931,-0.0666898459515858,0.0632088851448608,0
3,0.6333667000333668,-0.9482106675490756,-0.18452357310502446,-0.2585489913240643,-0.9930685553311508,-0.11575534671625912,-0.0203848992908914,0
4,0.8333667000333668,-0.7669648211470363,-0.3087089739414095,-0.5625510932625911,-0.9710315534487016,-0.1742999495845069,-0.1634541213363558,0
5,1.0333667000333666,-0.7484630296911977,-0.32860089802351605,-0.5760421364827512,-0.9487408905088923,-0.2219702832205776,-0.22498870203494817,0
6,1.2333667000333668,-0.6932377467437538,-0.4235323039474432,-0.5831310435936451,-0.9358993739675159,-0.26313746028555707,-0.23420298632100953,0
7,1.4333667000333667,-0.6494459395235788,-0.4607181141301806,-0.6049452793010837,-0.9114414331363847,-0.3276129376250148,-0.2488860724568595,0
8,1.6333667000333667,-0.8452657683276372,-0.24480041856195206,-0.4749721423045593,-0.8958207709668802,-0.36371652668443116,-0.2553731280321372,0
9,1.8333667000333667,-0.8402712924966582,-0.25290096972947657,-0.4795677788549664,-0.8863300338985343,-0.38503266541579934,-0.2572331968705219,0
10,2.033366700033367,-0.6288678588614695,-0.6437353450247127,-0.43603901391607736,-0.8518153051119124,-0.4662729149752352,-0.2387472612148599,0
11,2.233366700033367,-0.4429128551273256,-0.8209952371686566,-0.3602707638836961,-0.7757629880111715,-0.5917716093979266,-0.21908479806359676,0
12,2.433366700033367,-0.3200261079364472,-0.8981497086420157,-0.30151350070156435,-0.6871887318431522,-0.7028961669987994,-0.18359908835883823,0
13,2.633366700033367,-0.21539142198279454,-0.9446795090148652,-0.24736038604364946,-0.5938002275034944,-0.7891314605914659,-0.15707586613346444,1
14,2.833366700033367,-0.27333918670765744,-0.9347263870728733,-0.2270952890741903,-0.5320062809395335,-0.8312806232101103,-0.16106471530505068,1
15,3.033366700033367,-0.29623296070382016,-0.9337673585813351,-0.20080974339081592,-0.5485109286161668,-0.8222167655042553,-0.15197154902267276,1
16,3.233366700033367,-0.34470411281051994,-0.9168709225013024,-0.20131265753330893,-0.5881056067120186,-0.7954351104390057,-0.14633789814936954,1
17,3.433366700033367,-0.371591670809167,-0.9096286546152482,-0.18572921387898358,-0.6082681600753241,-0.7808341665672301,-0.14250561308186835,1
18,3.633366700033367,-0.351000319467605,-0.9217828908413145,-0.1646665657802722,-0.5911654321233099,-0.7960224574629817,-0.12989102770036048,1
19,3.833366700033367,-0.3224796186116348,-0.9314580577877353,-0.16850157910949912,-0.5850079721952425,-0.7996917535961301,-0.13512502247310496,1
20,4.033366700033366,-0.7333216301738297,-0.5585975171950814,-0.38756702710974683,-0.6225779993840189,-0.7678054206646159,-0.15123316660383984,1
21,4.233366700033367,-0.7977714354766026,-0.4703683594270242,-0.37724573316013954,-0.7542135143107899,-0.6404850580648064,-0.1447095892699912,0
22,4.433366700033367,-0.9056468400557416,-0.2997933388722477,-0.2998795676015293,-0.869985557603402,-0.4677337057643138,-0.15604585881554303,1
23,4.633366700033367,-0.9083180018395627,-0.2996302010615934,-0.29185638616616477,-0.9005054837729916,-0.4124997601937057,-0.13760022360049454,1
24,4.833366700033367,-0.9024469279342331,-0.30253438597665155,-0.30669608338515797,-0.9119075193168966,-0.3844964793968015,-0.1434821715223497,1
25,5.033366700033366,-0.8929520580924529,-0.44820188950373174,-0.04185317423729157,-0.9216068041343263,-0.36228701378950784,-0.13924445487269682,1
26,5.233366700033367,-0.8882083575597952,-0.45801880593303984,-0.0361204508914816,-0.9226906563460893,-0.36297368467309427,-0.12996944612662,1
27,5.433366700033367,-0.9290688612657929,-0.30717279496447364,-0.20609688270324814,-0.9361554444465274,-0.3323886104878186,-0.11458968300463225,1
28,5.633366700033367,-0.9302042350123795,-0.3003229279523044,-0.2110123695691531,-0.9448301418421959,-0.3099147417842125,-0.1060606236606258,0
29,5.833366700033367,-0.8678562235758613,-0.16003024655476222,-0.4703359388652609,-0.9476549525225646,-0.2910947401542321,-0.13120191772225076,0
30,6.033366700033366,-0.8560579930966843,-0.1063214137380976,-0.5058265210880206,-0.9497005568654394,-0.27960310754272716,-0.14103529537645645,0
31,6.233366700033367,-0.8511848968487744,-0.15799004383778628,-0.5005231437452973,-0.937925479216735,-0.30500769758080326,-0.1651244980386489,0
32,6.433366700033367,-0.7007306069402259,-0.4256860293143815,-0.5725102802079091,-0.9160713797436804,-0.3377904335408257,-0.21612693081337803,1
33,6.633366700033367,-0.6695552388815393,-0.45296420807221005,-0.5886588216376277,-0.8846773263430228,-0.39321929192254734,-0.2504488305312918,1
34,6.833366700033367,-0.7624365816802067,-0.41402926917443006,-0.49726273053858444,-0.8465463750717896,-0.4677970457978386,-0.2540180284854363,1
35,7.033366700033366,-0.7650430674188169,-0.40927587739028587,-0.49719449029612106,-0.8364800102376367,-0.4856572445878134,-0.25384686969158315,1
36,7.233366700033367,-0.7266462126775235,-0.35377929763478966,-0.5889189164617203,-0.8445249557731245,-0.46757743068330215,-0.2610535297443886,1
37,7.433366700033367,-0.7312708464245464,-0.3454599032827237,-0.5881329818956075,-0.8570123675707817,-0.44788067394748754,-0.25481896266774995,1
38,7.633366700033367,-0.564624995614342,-0.5370601833567548,-0.6267096407271181,-0.8479739257934618,-0.45818624454215623,-0.26646873453893294,1
39,7.833366700033367,-0.6890810472923512,-0.3239775308029101,-0.6482328823789533,-0.8370392227085407,-0.4751053374884176,-0.2713673855449454,1
40,8.033366700033367,-0.6990416728845859,-0.31821347856704973,-0.6403756098017613,-0.8413921605509034,-0.4695666406100985,-0.26751897538236324,1
41,8.233366700033368,-0.7108411568185318,-0.31478883248892237,-0.628977615430909,-0.8487498200104815,-0.46254914916011336,-0.2562655412719987,1
42,8.433366700033368,-0.7172889275048926,-0.3181451363814851,-0.6199034333472331,-0.8531021338907995,-0.45729259900674196,-0.2511975876568561,1
43,8.633366700033367,-0.7260867875052439,-0.5741652063519715,-0.37832828710673033,-0.8525012815949866,-0.46030615917785755,-0.24770911307788807,1
44,8.833366700033368,-0.7222233708160436,-0.5781149100077295,-0.37970587758667396,-0.8516730415989964,-0.47178607777652265,-0.2281905498257097,1
45,9.033366700033367,-0.7782294173423276,-0.6279385378625204,-0.007222648413266931,-0.8535031952183261,-0.4864793778638812,-0.18673540281713868,1
46,9.233366700033368,-0.7872779686716102,-0.615589658352291,-0.035252979647304485,-0.858499792251855,-0.49429683406599206,-0.1365604135020793,1
47,9.433366700033368,-0.9853362910091606,-0.15731058884710655,-0.06607399077464181,-0.8776096414937612,-0.47015522951824784,-0.0935701732061865,1
48,9.633366700033369,-0.989372191752165,-0.14304485678035947,-0.026092817713004954,-0.8906039584007841,-0.44610353788974405,-0.08840940426848558,1
49,9.833366700033368,-0.9872428863978083,-0.14762584655231956,-0.0596497500970052,-0.901182449062001,-0.4259444599566648,-0.08025902151683303,1
50,10.033366700033367,-0.9882375714079654,-0.13738419283949027,-0.0671720627607065,-0.9119664266793965,-0.40369319728332753,-0.0731371251607357,1
51,10.233366700033368,-0.9043605112802121,-0.3162999155983482,-0.2865072931523228,-0.9242894827374261,-0.36986243717462336,-0.09429066585950585,1
52,10.433366700033368,-0.9096419806973544,-0.3132793648524932,-0.27277739369422227,-0.9336845116206459,-0.3480761939647055,-0.08412012811902232,1
53,10.633366700033369,-0.9052025867762838,-0.318964035642878,-0.2808384248281084,-0.9336474968249221,-0.34664858787850134,-0.09020592106064004,1
54,10.833366700033368,-0.8888658805569559,-0.2126143419725739,-0.40584798628215074,-0.9324962168395442,-0.3508926567705816,-0.08558708433181199,1
55,11.033366700033367,-0.8814656350774631,-0.2070712346885283,-0.4244288373120438,-0.9296014254544313,-0.35893384556506885,-0.08371191253914191,1
56,11.233366700033368,-0.8925138663021656,-0.4243259009645518,-0.15286114034960416,-0.9218337953080954,-0.379883293726533,-0.07688391883452131,1
57,11.433366700033368,-0.8335856442277567,-0.5417506601000716,-0.10789437435998629,-0.9202816120591263,-0.38397541319753375,-0.07513079638629815,1
58,11.633366700033369,-0.836070489564038,-0.5363780292710695,-0.1152594733435556,-0.923477824498843,-0.37588876640088864,-0.07678764843711804,1
59,11.833366700033368,-0.8543205777366789,-0.4844273474851626,-0.18832550401938905,-0.9221073156696459,-0.37806132913749196,-0.08238767990005162,1
60,12.033366700033367,-0.8647269746224886,-0.4383663153271001,-0.24511677410324031,-0.9202950379259534,-0.3804750019409318,-0.09108137058101674,1
61,12.233366700033368,-0.8607280690382999,-0.4301207686144816,-0.27229270202502254,-0.9168964462963453,-0.3867390519500213,-0.0986600854749905,1
62,12.433366700033368,-0.8480287846033567,-0.410411259792445,-0.3352756751089049,-0.9122602313516036,-0.39209246598803393,-0.1185106257250433,1
63,12.633366700033369,-0.7285469833232279,-0.43042305897099953,-0.5328745475219021,-0.8937863708290352,-0.410293926855832,-0.1811210007301302,1
64,12.833366700033368,-0.6788706176603465,-0.42980754550759775,-0.5953151756021294,-0.8510752238126886,-0.44202017129032634,-0.2833533687547266,0
65,13.033366700033367,-0.6791219951126048,-0.3346844943646711,-0.6532837094143247,-0.8079004162152377,-0.4881911564013128,-0.33010045787728765,1
66,13.233366700033368,-0.6683854579514883,-0.352210096822315,-0.6551403874708038,-0.7668241411145397,-0.5393433751835408,-0.34797910892692224,1
67,13.433366700033368,-0.6641619300558788,-0.35591442843315035,-0.6574297303115775,-0.7468735479590571,-0.5584461302684501,-0.3609955996231026,1
68,13.633366700033369,-0.5214128265003751,-0.593546577331815,-0.6130506707431107,-0.7468700133154522,-0.5548370867349385,-0.3665255658118033,1
69,13.833366700033368,-0.49466085752225236,-0.6184874701300782,-0.6105603044150884,-0.7404389836485803,-0.5630669088164058,-0.3670228435525443,1
70,14.033366700033367,-0.47907680680871395,-0.628518756810911,-0.6127394107733185,-0.7119825567453129,-0.5954754708366774,-0.3721421805200868,1
71,14.233366700033368,-0.4785741882644557,-0.6420570037566914,-0.5989403561741334,-0.6925476312240781,-0.6262902153377237,-0.35796416672363485,0
72,14.433366700033368,-0.5071453862889959,-0.8402561717099774,-0.1917631952932539,-0.6985978792156224,-0.6724663976510891,-0.24443802319934216,1
73,14.633366700033369,-0.6143427561857221,-0.7890307634090644,-0.0036650124474386088,-0.7199923907648933,-0.6690641605158077,-0.18429353313106486,1
74,14.833366700033368,-0.4828713355797912,-0.8516166225289787,-0.2039225380082441,-0.7110964780075043,-0.6792701979301209,-0.1814767124710427,1
75,15.033366700033367,-0.7424938502638493,-0.668665900122392,0.039859708150914316,-0.71371566047366,-0.6818722645992552,-0.16018792328053572,1
76,15.233366700033368,-0.6896352741619443,-0.7226361694709009,-0.04690581204929127,-0.7533718349363208,-0.6398944367172335,-0.15154533375533333,1
77,15.433366700033368,-0.6153423142554952,-0.774960207576511,-0.14418915687270714,-0.7865455463097343,-0.5995452483534974,-0.14795809797731632,1
78,15.633366700033369,-0.8066399590783748,-0.5731335815229482,-0.14439485499392243,-0.8069026043181404,-0.5710102807070516,-0.15118017883127702,0
79,15.833366700033368,-0.8265069247931398,-0.5485750510025418,-0.12630010564740593,-0.827000481494239,-0.5424680474431732,-0.1476435610227836,0
80,16.033366700033366,-0.8307441861293683,-0.5452865347464704,-0.11192270652749572,-0.8352110371718545,-0.5319907938097829,-0.13931374192071874,0
81,16.233366700033365,-0.8855028403831597,-0.42549688665539415,-0.18664704423034154,-0.8568644897691015,-0.4990565524275999,-0.129328278623878,1
82,16.433366700033368,-0.9576218068148521,-0.1437436433642541,-0.2495961540269164,-0.8979025178520894,-0.41813067909969415,-0.1376146926403833,1
83,16.633366700033367,-0.8679430300674487,-0.45209402545207156,-0.20563532942536417,-0.9262365924802298,-0.3515406625187505,-0.13603285392319975,1
84,16.833366700033366,-0.8637586707654283,-0.4603774002239059,-0.2048746154129844,-0.9294015701275694,-0.3437629806718283,-0.13431207899526107,1
85,17.033366700033366,-0.8577675892690964,-0.47091828694388943,-0.2060842784428632,-0.927506281429618,-0.34928038094898545,-0.13317399668379107,1
86,17.233366700033365,-0.7925691704799386,-0.6022522763057848,-0.09553169991810515,-0.924824834924448,-0.35892067658735993,-0.12599592304927656,1
87,17.433366700033368,-0.7088887240454577,-0.567456400794992,-0.41889140611618764,-0.913608256345703,-0.3817750907047642,-0.13988471701488298,1
88,17.633366700033367,-0.6733164370624753,-0.5890587469215595,-0.44682744796699364,-0.8856983562035805,-0.4273864505725888,-0.18132634581119136,1
89,17.833366700033366,-0.6435724299656542,-0.5934320855021319,-0.4833765481327093,-0.8526396616581211,-0.4636233384329773,-0.24095436793672292,1
90,18.033366700033366,-0.630505239330885,-0.5808054811094524,-0.5149059489746851,-0.8409017539116971,-0.4696148431002265,-0.2689723766638157,1
91,18.233366700033365,-0.6389380288274906,-0.5566473763378246,-0.5309443414655226,-0.8456098704050821,-0.4530874174638983,-0.2822334835015067,1
92,18.433366700033368,-0.6395416855890758,-0.5418918656923437,-0.5452885825783945,-0.8446450844550015,-0.4463032341493256,-0.2956147907224124,1
93,18.633366700033367,-0.8077238163499276,-0.23254068215730628,-0.541762925681449,-0.8458523725499231,-0.43849841243547333,-0.30373163507154766,1
94,18.833366700033366,-0.818241976551439,-0.18686471444224642,-0.5436558160321772,-0.8561940909796704,-0.41480229819533865,-0.3080109283505408,1
95,19.033366700033366,-0.8349853464253915,-0.14242255712606952,-0.5315216707496893,-0.880964285651388,-0.3580170257534222,-0.30939576060025914,1
96,19.23336670003337,-0.8230676537720536,-0.36684754974758726,-0.4335695014162762,-0.8972247302522832,-0.3177149732172232,-0.3066675385776862,1
97,19.433366700033368,-0.8276046037675022,-0.30136816969684915,-0.4735481455104721,-0.8965599083066582,-0.31422092793691353,-0.31216268076697024,1
98,19.633366700033367,-0.8465216028913674,-0.19809890699791605,-0.4941234652234817,-0.8979050026189959,-0.3030954663441549,-0.3192173938766505,1
99,19.833366700033366,-0.8452553756403769,-0.1972684923034517,-0.49661704752794034,-0.8985674761721578,-0.29833885404965477,-0.3218235835515126,1
100,20.033366700033366,-0.8427477696030556,-0.20017626166534175,-0.49970557440833446,-0.895550739973166,-0.3037449780357452,-0.32515820834107767,1
101,20.23336670003337,-0.8426313222536662,-0.19132479562411114,-0.5033560145030859,-0.8942132467071038,-0.30181692279691436,-0.33058919299780826,1
102,20.433366700033368,-0.8463537611968697,-0.1809130014600922,-0.5009548850052398,-0.8960726789626003,-0.2969015005606788,-0.3300049287232026,1
103,20.633366700033367,-0.6848200256509347,-0.3492696328728544,-0.6395562962087975,-0.894045693409979,-0.29955923896839515,-0.3330864158799427,1
104,20.833366700033366,-0.6844517784720646,-0.3596083339214225,-0.6341983988632318,-0.8876342925668205,-0.31860577264911827,-0.3325593545430033,1
105,21.033366700033366,-0.6853777524643965,-0.3665825163053242,-0.6291856603309622,-0.8804521734384501,-0.3328480334408451,-0.3376627858116317,1
106,21.23336670003337,-0.6916299295393225,-0.3752070868735253,-0.6171447824662497,-0.8788928102312574,-0.3427510260722548,-0.33176672866672335,1
107,21.433366700033368,-0.6981239508762581,-0.3738841547006251,-0.6106010056302914,-0.8793406258923,-0.3466422074889399,-0.32649539605105177,1
108,21.633366700033367,-0.8700635920226952,-0.22054440921296894,-0.44085089248119663,-0.8864471518235748,-0.33473886542558634,-0.3196268746483368,1
109,21.833366700033366,-0.9661670492052303,-0.015664277359850987,-0.25744099021883043,-0.9023253326149185,-0.2997751264195452,-0.3097480713443144,1
110,22.033366700033366,-0.9636639209597636,0.03331429494972626,-0.2650320833266367,-0.9329503034464621,-0.21268125905937893,-0.2904658557284683,1
111,22.23336670003337,-0.9763647767375061,0.15714568998707104,-0.14838145054152535,-0.9685092402359705,-0.04685956255271805,-0.24452818441830218,0
112,22.433366700033368,-0.9758378347096414,0.2172147556290276,-0.023627743993467346,-0.9739399481414946,0.13629203642548285,-0.1812883289711113,0
113,22.633366700033367,-0.965403225430031,0.2602878788076619,-0.015710903064461136,-0.9549078162152776,0.2644746584300997,-0.13492300611553204,0
114,22.833366700033366,-0.8502441713386958,0.5246374541477385,-0.04289977633920998,-0.9118923179495788,0.3938171139062594,-0.1155875480278428,0
115,23.033366700033366,-0.6210024985236234,0.7579995810317797,-0.19948065566130416,-0.8518870341095749,0.5099571199198182,-0.11929885564864515,0
116,23.23336670003337,-0.5496870116635019,0.8096993260864013,-0.20550228841469592,-0.766545665095567,0.6334704564993557,-0.10546527421712172,0
117,23.433366700033368,-0.29556501884664016,0.9311789375825766,-0.2134176792975909,-0.6392643330038854,0.7577899726062431,-0.13074964614302834,0
118,23.633366700033367,-0.12246003183872117,0.9744225770474794,-0.18842553420969346,-0.45648218053361367,0.8816085100737755,-0.11996021765891847,0
119,23.833366700033366,0.097817281938129,0.9910323225765102,-0.09103139547894923,-0.2290557738870294,0.967987353180401,-0.10263496739325967,0
120,24.033366700033366,0.2074362545488404,0.976765320084056,-0.053848953377390485,0.0214394669020343,0.9961360234237231,-0.08516673116028793,0
121,24.23336670003337,0.5737399533897043,0.8108029084113023,-0.11584951271435547,0.23628285029934226,0.9686842973059833,-0.07629644033133057,0
122,24.433366700033368,0.7948637171302761,0.6015734293575667,-0.07937934416973216,0.4473718672975996,0.8925789278833075,-0.0562251709587821,0
123,24.633366700033367,0.8229778370144835,0.558045038160973,-0.10626954016500133,0.6313712773005965,0.7738186516615497,-0.050744502564458935,0
124,24.833366700033366,0.7997916376451721,0.5990842457345875,-0.03783388514908138,0.758323524433518,0.6515705425864982,-0.020031483326599642,0
125,25.033366700033366,0.9667078525571055,0.23512972501051177,-0.10094523377015309,0.8352195621943654,0.5497449257259358,-0.013740435452995393,0
126,25.23336670003337,0.995725343859715,-0.0479396659348333,-0.07894826170036233,0.9201664495232207,0.3907577360012899,-0.02453766343758865,0
127,25.433366700033368,0.9639970493364098,-0.2640792041672407,-0.031174714065926284,0.9744586947385688,0.21870024187929757,-0.050994670803348366,0
128,25.633366700033367,0.9590155121856255,-0.28334552890576353,0.0021350963574592705,0.9973373649828136,0.049841342743871475,-0.05323552350288673,0
129,25.833366700033366,0.9077536219329397,-0.4144588655678316,0.06486301426742394,0.9982176489962005,-0.03094719165479337,-0.05102740990075946,0
130,26.033366700033366,0.8753378080009399,-0.4805254471568863,0.053656467632378003,0.9993606908768013,-0.012569103375965002,-0.03346979489878318,0
131,26.23336670003337,0.8920616920469087,-0.17006776337649476,-0.4186918836597179,0.9878862410079514,0.12161260711632461,-0.09639060440494304,0
132,26.433366700033368,0.8358255692268618,-0.06679543592765612,-0.5449164959567908,0.9644966452427056,0.21773472222303064,-0.1494583957294693,0
133,26.633366700033367,0.8136442931504227,-0.0550081232971122,-0.5787547585938964,0.9375830345219096,0.28441953495810296,-0.20010892411610168,0
134,26.833366700033366,0.666831322119698,0.2929371878692611,-0.6852180614981956,0.8418759951683057,0.48761933302853516,-0.23124055616647635,0
135,27.033366700033366,0.5246910739706135,0.5899290400891323,-0.6137450647908133,0.6805466539796037,0.6946650496159124,-0.23301656722063346,0
136,27.23336670003337,0.20461634832810405,0.7906194535004623,-0.5771074681058133,0.35717939448981084,0.8999725142666029,-0.24994470131719515,0
137,27.433366700033368,-0.5158387011521189,0.6848950142052399,-0.5146156370637209,-0.12060985677076819,0.9530144594702855,-0.277878934952426,0
138,27.633366700033367,-0.7970185399960839,0.3690107997776776,-0.47811345572986125,-0.532680582287569,0.7996560741260785,-0.27713094444151093,0
139,27.833366700033366,-0.9130625508103369,0.1871048886867548,-0.362365201057218,-0.8246504697241388,0.5192326924198738,-0.22438585941668876,0
140,28.033366700033366,-0.9342314385468488,-0.14343742299388906,-0.3265537090825302,-0.962829216482872,0.184500188655632,-0.19728046095094043,0
141,28.23336670003337,-0.85955064442289,-0.43186222030739957,-0.2732539338113127,-0.9632986015761541,-0.17009388777406878,-0.20766288436629282,0
142,28.433366700033368,-0.48514847316834675,-0.5027033387270445,-0.715486067100614,-0.8355101333774843,-0.5052537547352997,-0.21596634077888285,0
143,28.633366700033367,-0.19437676046588687,-0.9354487173003513,-0.29521749997572166,-0.6341241727927582,-0.747702904813894,-0.1970454252520597,0
144,28.833366700033366,0.04677714838372754,-0.939055010109774,-0.3405695030046281,-0.3888525857810393,-0.8993834530020434,-0.1997575305151758,0
145,29.033366700033366,0.2916877962786784,-0.9096139364684339,-0.2958390036565293,-0.11490032120398064,-0.9709923819686295,-0.20969432597499932,0
146,29.23336670003337,0.3803385931564724,-0.9082913783101019,-0.1742105813183893,0.07668444143984038,-0.9774976369643523,-0.19651428998972884,0
147,29.433366700033368,0.47823520340160863,-0.8571537067098536,-0.19125536149603825,0.08554590080594365,-0.9760770366202921,-0.19988876266025762,0
148,29.633366700033367,-0.15161987387729603,-0.9822659024278757,-0.11029556098494578,-0.12905865470455935,-0.9723470179016777,-0.19464105533921713,0
149,29.833366700033366,-0.3739298440984362,-0.924389805154621,-0.0753655081500898,-0.3850343957994375,-0.904761826032938,-0.18208391528332707,0
150,30.033366700033366,-0.6093893557639265,-0.7901920250809035,-0.0651243163508655,-0.5647029703616457,-0.8078493018019139,-0.16878999035160436,0
151,30.23336670003337,-0.37026152346125807,-0.9097577555841171,-0.1877424576346494,-0.6299962288082432,-0.7576665000763861,-0.17042953485059908,0
152,30.433366700033368,-0.35764058050386305,-0.9204215452896221,-0.15785244421143568,-0.6423111474042997,-0.7464395498684245,-0.17396662988169895,0
153,30.633366700033367,-0.3624935947061843,-0.9119995872207183,-0.19197694316304806,-0.6551086203388043,-0.7362848407004033,-0.16946188041140864,0
154,30.833366700033366,-0.44671147831975455,-0.868373194603468,-0.2153528500659944,-0.7349979913593196,-0.659150961725441,-0.15905333179217532,0
155,31.033366700033366,-0.965521654967797,-0.25572526452902833,0.048708550274105956,-0.8692958639790276,-0.4814253263815452,-0.11204622254846056,0
156,31.23336670003337,-0.9568122495759558,-0.29064849312234153,-0.005811411800165809,-0.9301143496182257,-0.35609584073192607,-0.08990577761016302,0
157,31.433366700033368,-0.9975118105794135,0.0040807844968711255,-0.07038135372718252,-0.9717551944435634,-0.21946213522653907,-0.08676527688978286,0
158,31.633366700033367,-0.9957995437327182,-0.04491683103771803,-0.0797856314836167,-0.9890350224154205,-0.13614985862206275,-0.05720961836021032,0
159,31.833366700033366,-0.9980600449920667,-0.005703056284100299,-0.061996949436680195,-0.992617353700342,-0.11423793707526596,-0.04074902288053186,0
160,32.03336670003337,-0.997366273338143,0.05389193210030648,-0.04854046211235266,-0.9976474681499927,-0.06165072190497897,-0.029978622091492702,0
161,32.23336670003337,-0.9902821979712425,0.1298611836016079,-0.04977189342223225,-0.9995019013915796,0.019025337152937038,-0.02517907188191492,0
162,32.43336670003337,-0.9670068092587689,0.2323406508805287,-0.10447800149116307,-0.9897662037142683,0.1103936628009108,-0.09042179603637962,1
163,32.63336670003337,-0.9554683284023132,0.28589547319327524,-0.073103022014708,-0.9862093319311507,0.14776524856275308,-0.07454250417782936,1
164,32.83336670003337,-0.9610367650848157,0.23301345938347803,-0.14870461963724332,-0.9765498990491844,0.20271426496360057,-0.07250669932699244,1
165,33.03336670003337,-0.9637142638258406,0.21329335582281858,-0.16050159519599438,-0.9780285089100057,0.19199002857386865,-0.0812407821692781,1
166,33.23336670003337,-0.9258083351770643,0.37625802941337944,-0.03617764252454067,-0.9819124713448963,0.168334989235,-0.08666735265721932,1
167,33.43336670003337,-0.994904031592865,0.06724940389789963,-0.0751231362207441,-0.9823234443877228,0.16685820342701976,-0.08484686532423004,1
168,33.63336670003337,-0.9972977240178632,0.027583980939283197,-0.06809092204054297,-0.9845041790959472,0.14670118103791988,-0.09607437132083965,1
169,33.83336670003337,-0.9947190167893201,0.04004640666204712,-0.0945005976232229,-0.9870685922025204,0.1311312949790991,-0.09219640863091855,1
170,34.03336670003337,-0.9432917563868105,-0.06348921854201775,-0.32583704740500263,-0.9899805812127362,0.10345118208014038,-0.09610568010224378,1
171,34.23336670003337,-0.8968855120135517,-0.2896123022856021,-0.3342470533976658,-0.9930581613192978,0.05673678368658706,-0.10303604036470418,1
172,34.43336670003337,-0.8824886919571433,-0.33644897031829546,-0.32865757094509396,-0.9943328166602591,-0.003197770066283512,-0.10626393545826852,1
173,34.63336670003337,-0.871708861834465,-0.3653294612713682,-0.3265854328141926,-0.9924313490845179,-0.05242795991487753,-0.11104650545356226,1
174,34.83336670003337,-0.8644768723742077,-0.3809947936191423,-0.32790654821948173,-0.9887886800522891,-0.08724052623873858,-0.12118595950868136,1
175,35.03336670003337,-0.896914759168416,-0.33945002912817557,-0.2834035859172278,-0.9896740816405709,-0.09279913744747817,-0.10924070769588096,1
176,35.23336670003337,-0.876720340900846,-0.32665330518140134,-0.3530709023195923,-0.9894952053017331,-0.076363274031599,-0.12275133019261475,1
177,35.43336670003337,-0.8541197898741453,-0.3442316624045053,-0.3898511858947933,-0.9861862937017041,-0.09130409082229632,-0.13820331802822308,1
178,35.63336670003337,-0.8608703983394765,-0.17253670762807718,-0.478678641453423,-0.9836872079796967,-0.10682122597112204,-0.14473666618772052,1
179,35.83336670003337,-0.8596324078124673,-0.15661813719229697,-0.48631562029298975,-0.9824575527616708,-0.10675897792795858,-0.1529041453111274,1
180,36.03336670003337,-0.7579629663725138,-0.25873760296412246,-0.5987879377710942,-0.9823167768274851,-0.10725158789249521,-0.15346285171923138,1
181,36.23336670003337,-0.7519603658878438,-0.2582067221268088,-0.6065351570868328,-0.982181001607941,-0.10448008584859043,-0.1562190505075913,1
182,36.43336670003337,-0.7480224301038083,-0.26730478758714554,-0.6074624223724333,-0.9823554284554619,-0.10609253433109597,-0.15402008422050398,1
183,36.63336670003337,-0.7549262471007132,-0.2627164458366681,-0.6008880349327834,-0.9851948398073476,-0.09368427960495794,-0.14357709905090932,1
184,36.83336670003337,-0.870603064989644,0.10273221768267912,-0.48114072232626115,-0.9908928275082302,-0.040626969346554034,-0.1283777774946244,1
185,37.03336670003337,-0.8700765530817092,0.12414810228494903,-0.4770262471567971,-0.9922973270035469,-0.016284235511941424,-0.12280406546775001,1
186,37.23336670003337,-0.9761649510898934,0.1025131944627619,-0.19129305587162942,-0.9939499890834809,0.002764838054994269,-0.10979879266857986,1
187,37.43336670003337,-0.9824525387682621,0.1066978107866881,-0.15297903856778708,-0.994207867627563,0.025228136619165127,-0.10447132175951251,1
188,37.63336670003337,-0.9815606381159613,0.08951770335408063,-0.16889432935299428,-0.9938525273763441,0.029741109856021065,-0.1066424878375651,1
189,37.83336670003337,-0.9791324707877469,0.09087090138827879,-0.18177481654498837,-0.9930144923355463,0.03965024445258702,-0.11113089636292925,1
190,38.03336670003337,-0.9750716722096976,0.10789723392169265,-0.19389022916648385,-0.9915118454929699,0.05785168148549058,-0.11643643414510182,1
191,38.23336670003337,-0.973503331305464,0.11441116753449967,-0.19799330463567985,-0.9910092296812507,0.06429217806674754,-0.11733380811176337,1
192,38.433366700033375,-0.9756402024394586,0.11329113837623112,-0.1878598236699642,-0.9911949852031646,0.06063189551853041,-0.11771267796600624,1
193,38.63336670003337,-0.9800505616019528,0.11336102993397919,-0.16324880886550108,-0.9923947775398652,0.058927256814570124,-0.10807489956466149,1
194,38.83336670003337,-0.9801841428067213,0.12044496705696736,-0.1572642874301065,-0.9925338892990698,0.06548169912563281,-0.1029010479659069,1
195,39.03336670003337,-0.9797672373965944,0.12813177909615436,-0.15374787058655537,-0.9925161224052612,0.07218528013060903,-0.09849381756277935,1
196,39.23336670003337,-0.978449111852322,0.12873919508220924,-0.16144211087875343,-0.9919492593759169,0.07126579076920389,-0.10467976829172979,1
197,39.433366700033375,-0.9777973794374761,0.1299999759588387,-0.16435416336651223,-0.9919259367513875,0.06999482053004259,-0.10575283021673541,1
198,39.63336670003337,-0.9782678978694392,0.12633931168663584,-0.16440893625547262,-0.9922239625474549,0.06344775770275331,-0.10707936397420126,1
199,39.83336670003337,-0.9802072144644716,0.10900117813792812,-0.1652651199628802,-0.9931713290571287,0.044455159631073125,-0.1078631073216075,1
200,40.03336670003337,-0.9805987536430771,0.10260816825829062,-0.167025890688605,-0.9932869043693618,0.038364916007191656,-0.10912955066384043,1
201,40.23336670003337,-0.9793959322271566,0.10908886513770917,-0.1699506617811951,-0.9928007011945545,0.045618400473419626,-0.11075075280036546,1
202,40.433366700033375,-0.9774597889292959,0.11476152650702125,-0.17720652657302116,-0.9919531083913704,0.052781390600265043,-0.11507891013995741,1
203,40.63336670003337,-0.9770034339603264,0.11453149107424183,-0.17985223819024782,-0.9918259938923796,0.053604851600491436,-0.11579169972101998,1
204,40.83336670003337,-0.9913322679826126,0.130482231999689,-0.015320626254458663,-0.9920642004880655,0.051718839805840515,-0.1146027212552702,1
205,41.03336670003337,-0.9896641435233735,0.14150135935043942,-0.023286226103113625,-0.9922948607058498,0.053108118029498864,-0.1119394354824215,1
206,41.23336670003337,-0.9888043908089843,0.14688025430902346,-0.026307177936645193,-0.9920099682769501,0.05585942954207332,-0.11311917154222362,1
207,41.433366700033375,-0.9130603129420252,0.29306392468877585,-0.2836095925320985,-0.9922276531283166,0.052293820815268684,-0.11291430676408436,1
208,41.63336670003337,-0.9842833543071497,0.17637854129370525,-0.008768614769200909,-0.9923093141175947,0.0509596392502298,-0.11280664999438413,1
209,41.83336670003337,-0.9830763168633838,0.1813642920963931,-0.025844704964429498,-0.9923469251617381,0.0565710905328789,-0.10976015596729577,1
210,42.03336670003337,-0.9852418998175588,0.16750659755319056,-0.03521276217568317,-0.9928419864457592,0.057994368099871775,-0.10440997662644995,1
211,42.23336670003337,-0.986514958107179,0.16015395476824976,-0.03374830666685511,-0.9936778399950899,0.05921102218337908,-0.0953855605146406,1
212,42.433366700033375,-0.9880257376415256,0.1527278713310601,-0.021893813660537022,-0.9945599543598944,0.06511663690768156,-0.0813038792523348,1
213,42.63336670003337,-0.9888188755378496,0.14773606628326238,-0.020280189821845707,-0.9943928406022542,0.0718062392699315,-0.07763209749124098,1
214,42.83336670003337,-0.9913955538160948,0.1297905760802106,-0.017007711029001112,-0.9952707531097106,0.06404475559075502,-0.0730369583550004,1
215,43.03336670003337,-0.9934173263380056,0.1133965448460944,-0.016224652489857713,-0.9961384359028274,0.05443828051369167,-0.06888171115602326,1
216,43.23336670003337,-0.9944010654207927,0.10514270499963688,-0.010560903150402076,-0.9962359839127333,0.053857387698238626,-0.06792088152954008,1
217,43.433366700033375,-0.9943393751485156,0.10501249929445894,-0.01617349749408296,-0.9962629655790063,0.05579190537313373,-0.06593456385355813,1
218,43.63336670003337,-0.9942788992911168,0.10464572256585325,-0.021418290620770605,-0.9963669850606598,0.05772267364398992,-0.06261728218727455,1
219,43.83336670003337,-0.9941338026955013,0.10483769658786361,-0.026590218358134042,-0.9965940681992762,0.05780884099627409,-0.058808172329057856,1
220,44.03336670003337,-0.9610566346405147,-0.10055888032416498,-0.257406403574967,-0.9962119016201214,0.04984381599641874,-0.07125616518826092,1
221,44.23336670003337,-0.9023040718216377,-0.2866384888126298,-0.32200269984163926,-0.9959956786525219,0.03861970429334123,-0.08062956372074317,1
222,44.433366700033375,-0.9009958617647653,-0.29634258826868354,-0.3168399082517627,-0.9959155256340386,0.026786083253320096,-0.08622512131057071,1
223,44.63336670003337,-0.9978416025625181,0.016116213890563055,-0.0636584938975106,-0.9957757536260904,0.020141372810484816,-0.08958221693897113,1
224,44.83336670003337,-0.8816699150321513,0.09870385295134546,-0.461427903729021,-0.9960898088045811,0.026819481116637876,-0.08417724293589095,1
225,45.03336670003337,-0.8818888828127983,0.1034525888297889,-0.45996691210956614,-0.9964038734403642,0.03020021169573424,-0.07916607989898108,1
226,45.23336670003337,-0.8844527651075869,0.10138541902066525,-0.45548249483766995,-0.9968285254948104,0.02940657327054853,-0.07394690127602317,1
227,45.433366700033375,-0.9965795102712018,0.05064630487323726,-0.06530108353081816,-0.9971228768066185,0.028671205681784055,-0.07017072404960459,1
228,45.63336670003337,-0.9962825794839926,0.047854267504064595,-0.07163093534480192,-0.9975820654348446,0.02440358946170116,-0.06507294018356974,1
229,45.83336670003337,-0.9958923609773543,0.04693347905093136,-0.07743160782992424,-0.9981205963700375,0.01870283584381817,-0.05835648235903579,1
230,46.03336670003337,-0.9953793188414493,0.04737968815897367,-0.08351752374616407,-0.9981918107371718,0.016476955759882398,-0.057806737549641406,1
231,46.23336670003337,-0.9947067542106562,0.04702521909493965,-0.0913624753209674,-0.998070389341903,0.013833136751928118,-0.06053215877948584,1
232,46.433366700033375,-0.994101434082819,0.050598499015412204,-0.09592773661392393,-0.9979932334741886,0.015834316049544297,-0.06130889311492223,1
233,46.63336670003337,-0.8814804244057377,-0.08035518888347616,-0.4653335416762712,-0.9966262534397585,0.011413786823566105,-0.08127629682125401,1
234,46.83336670003337,-0.7464006312143661,-0.19207768462880176,-0.6371752198496382,-0.9875487425266994,-0.020659294399006694,-0.15595087267748828,1
235,47.03336670003337,-0.7318946531068027,-0.2442783321226365,-0.6361275919255946,-0.9824340776421199,-0.06650285527836958,-0.17435783127609084,1
236,47.23336670003337,-0.7368147164746515,-0.26524240524381226,-0.6218927078257599,-0.981814281360869,-0.07121790145091791,-0.17597933807344404,1
237,47.433366700033375,-0.7487710977161763,-0.2613576944730251,-0.6091256017970823,-0.9852307706976944,-0.05366153866841113,-0.16260617373939273,1
238,47.63336670003337,-0.9943449429854214,0.10110118043441549,-0.032506701987238366,-0.9914928327991782,0.0002992700657520114,-0.13016095015514093,1
239,47.83336670003337,-0.9889248249357496,0.12355230258202232,-0.0822345374674023,-0.9924705786317665,0.03543436741394765,-0.11724570847711233,1
240,48.03336670003337,-0.9878089585872549,0.12061138871850219,-0.09841927781769817,-0.9931701873261742,0.04162874197876244,-0.10899553590747448,1
241,48.23336670003337,-0.9870352117684176,0.11971652444504918,-0.1069085801237359,-0.99353954576085,0.03594779135907142,-0.10764259057514801,1
242,48.433366700033375,-0.9855373802467468,0.1233510662646588,-0.11619202463057116,-0.9935642513785238,0.032317332440996785,-0.10856181836415564,1
243,48.63336670003337,-0.9853489831996197,0.12171658319934289,-0.11946737915327826,-0.9938757922236265,0.03423477546611402,-0.10506612099360929,1
244,48.83336670003337,-0.9857289432347074,0.11852651820410888,-0.11954043228882036,-0.9943671070935263,0.03933325302811594,-0.09842231218924738,1
245,49.03336670003337,-0.9847629399335659,0.12405921065287,-0.12186576379601945,-0.9943390182483175,0.043673948822556395,-0.09686332114488548,1
246,49.23336670003337,-0.9839849973488508,0.12277711300164897,-0.12922579276352922,-0.9942458398032858,0.04244829557171058,-0.0983532014573789,1
247,49.433366700033375,-0.976276443801083,0.01198249265397108,-0.21619603407303328,-0.9941151166136749,0.04539531912784012,-0.09835852744658848,1
248,49.63336670003337,-0.974848335908552,0.014394742744819205,-0.22240394186623086,-0.9936415975444203,0.04985250643411866,-0.100950994208126,1
249,49.83336670003337,-0.9750755038371395,0.015172060677568926,-0.22135394821765642,-0.9938576097937925,0.05038224431626806,-0.09853263881895039,1
250,50.03336670003337,-0.9747065773797622,0.014501475198493702,-0.22301747740860442,-0.9937224881452665,0.04939904210121621,-0.10037604890541979,1
251,50.23336670003337,-0.9745479314252228,0.017113961512627413,-0.22352503590462422,-0.9935295993921583,0.050269771352732404,-0.10184245293492207,1
252,50.433366700033375,-0.9748334485359611,0.019144554019459224,-0.22211085895759838,-0.993558543716498,0.05073247176171115,-0.10132934677031882,1
253,50.63336670003337,-0.975856262005482,0.023396939459696134,-0.21715694584472162,-0.9936725532843302,0.04978192169373612,-0.1006807683814492,1
254,50.83336670003337,-0.9781601944496134,0.04091044925227083,-0.20378657741929992,-0.9937918845582706,0.047132017150797886,-0.10077828707324744,1
255,51.03336670003337,-0.8362197919123027,-0.18548497873948774,-0.516073427213761,-0.9933481909200214,0.04423473845533643,-0.10631396667281726,1
256,51.23336670003337,-0.7417453218386234,-0.17931042706137437,-0.6462674742531801,-0.9928337097021689,0.02889055911612212,-0.11595930524536435,1
257,51.433366700033375,-0.7441562292825675,-0.19676605415712828,-0.6383687228799554,-0.992319293687082,0.0173227177015881,-0.12248405132016874,1
258,51.63336670003337,-0.7396165395164997,-0.2037249861962453,-0.6414542107375847,-0.9916932853830246,0.008623373981495342,-0.128335751633745,1
259,51.83336670003337,-0.7381972324541298,-0.20707454117753116,-0.6420163396621448,-0.9913119355412332,0.0045413308412470006,-0.13145350040103215,1
260,52.03336670003337,-0.7324521091721107,-0.21396510363641222,-0.6463225527514773,-0.9904526247090985,-0.004299957994326206,-0.1377864600318381,1
261,52.23336670003337,-0.7290203126379893,-0.21928999661663418,-0.648414436255922,-0.9898729491817642,-0.010531192878803901,-0.14156496196003657,1
262,52.433366700033375,-0.9869167433563699,0.11110246204233011,-0.11683999576767277,-0.9895456342252593,-0.0013575187123730452,-0.14421371269291794,1
263,52.63336670003337,-0.9832080280398332,0.11872715855617584,-0.13858511976110224,-0.9892340055933015,0.013096638879497564,-0.14575513791250186,1
264,52.83336670003337,-0.9823702091993045,0.1200658377708897,-0.1432932890197212,-0.989661818065067,0.02077787541055047,-0.14190759584169535,1
265,53.03336670003337,-0.9830836143658238,0.11707114886905969,-0.1408579187263076,-0.9902420741706932,0.025072351916368116,-0.13708395862209766,1
266,53.23336670003337,-0.9834919248353804,0.11497440831955091,-0.1397301657308403,-0.9905231780792193,0.029558549774706965,-0.13412727471718708,1
267,53.433366700033375,-0.9789842362103804,0.011401020087148798,-0.20361699828980467,-0.9908348888525462,0.0238302782193258,-0.1329599220537988,1
268,53.63336670003337,-0.9777917813474187,0.00029439446919665404,-0.20957849522634286,-0.9915178234828605,0.01108860248363576,-0.1294969057961289,1
269,53.83336670003337,-0.9766313500349127,-0.0003284482702940166,-0.2149211442616048,-0.9914018639139982,0.005951476220262167,-0.13071696201583788,1
270,54.03336670003337,-0.9792146866107673,0.02897346813561845,-0.20074644622003074,-0.9913896646489763,0.018663391586530617,-0.12960791118476642,1
271,54.23336670003337,-0.9762437304297895,0.009003802739651963,-0.21648812977332937,-0.9920524617395506,0.019977697593894044,-0.12422884027207619,1
272,54.433366700033375,-0.9552264664609788,-0.1214888965363665,-0.26978296052725215,-0.9915173046404392,0.011423417018134804,-0.1294717735345763,1
273,54.63336670003337,-0.9179594358759058,-0.32055298552269673,-0.2336584206889925,-0.9915073089741093,0.000488424083842412,-0.13005005841149983,1
274,54.83336670003337,-0.9173339648018075,-0.32752414468039587,-0.22633234782587167,-0.9911303534536257,-0.005464958890208804,-0.1327808596418139,1
275,55.03336670003337,-0.9203529937469215,-0.32068283324783,-0.223859079246797,-0.9909591841534585,0.002318488330653192,-0.1341436541688532,1
276,55.23336670003337,-0.8056719283600803,-0.2964617207587249,-0.512838368277302,-0.9904941269157468,0.015820468587058212,-0.13664222377837176,1
277,55.433366700033375,-0.8495763503444916,-0.29296381663273713,-0.4386253835328206,-0.9902396486432636,0.02310724838109984,-0.137446328896483,1
278,55.63336670003337,-0.9962910240466682,0.07842240733791571,-0.035413576935511094,-0.9904042396276191,0.021298876656893923,-0.13654962460875456,1
279,55.83336670003337,-0.9920452536173636,0.08921112343912597,-0.08881210632560053,-0.990735531948946,0.021470806296627398,-0.13409739076809735,1
280,56.03336670003337,-0.9895760769435007,0.09677442227058597,-0.10664848398034174,-0.9905311740362478,0.026730508708219254,-0.13466058505209563,1
281,56.23336670003337,-0.9876038202729001,0.10250176337186745,-0.11887843659819611,-0.990466814018621,0.029906407517768702,-0.13446597010836578,1
282,56.433366700033375,-0.9865538006801273,0.1031351299226772,-0.12678621115652997,-0.9907927332750752,0.027292221255060024,-0.13260804782618213,1
283,56.63336670003337,-0.9860207570059158,0.10575235782987735,-0.1287614288787684,-0.9913613371238511,0.02842391534804246,-0.12804210359212873,1
284,56.83336670003337,-0.9820951575686141,0.08988942979301208,-0.1655566123468517,-0.9915562278849481,0.029481342373187277,-0.12628181735486665,1
285,57.03336670003337,-0.9782454030059186,-0.00718760077852951,-0.2073264814075551,-0.9919139539457259,0.028862244030421796,-0.12358672597526396,1
286,57.23336670003337,-0.9813997111353953,0.014597648133506815,-0.1914197368411462,-0.992252411574474,0.029295204184507102,-0.12073501040058483,1
287,57.433366700033375,-0.9817337611314423,0.014969267184078035,-0.18967009066978494,-0.9915702300800918,0.008416024981859595,-0.12929674915642253,1
288,57.63336670003337,-0.9827709463551717,0.01990432030676233,-0.18375278238243384,-0.9919451048741535,0.0010220395635593855,-0.1266643768047482,1
289,57.83336670003337,-0.9817698246092037,0.034800155249275835,-0.18686080563199942,-0.9918926924663372,0.008134090131142007,-0.12681767703920138,1
290,58.03336670003337,-0.9811534092636014,0.050268994036097324,-0.186577103978518,-0.9920901968504559,0.02136415414037847,-0.12369565162563294,1
291,58.23336670003337,-0.9795687983522223,0.054260843590356,-0.1936510525343108,-0.9916930871584173,0.024912790834350232,-0.12619102081785222,1
292,58.433366700033375,-0.9778460180384887,0.051354930123178176,-0.20292815516412507,-0.9911201318996157,0.02288295427664121,-0.13098570359723305,1
293,58.63336670003337,-0.975090383369817,0.05829169638224756,-0.21401126697579057,-0.9901508392271297,0.03145105562306243,-0.13642634158404193,1
294,58.83336670003337,-0.9731381983132942,0.05770630695895911,-0.22287222599667803,-0.9895701182614861,0.03188210299175671,-0.14047958055450974,1
295,59.03336670003337,-0.9724891026368503,0.05524341600279874,-0.22630313793872886,-0.989644708619548,0.029522725487439637,-0.14046978102468438,1
296,59.23336670003337,-0.973716367559036,0.0529290024733421,-0.22152868041139337,-0.9895620378899946,0.028377691937804,-0.14128580879650948,1
297,59.433366700033375,-0.975653956996652,0.054623020376624684,-0.2124045240613062,-0.9897657868624142,0.030471418681214644,-0.13941011369402276,1
