,timeStamp,x_gaze,y_gaze,z_gaze,x_head,y_head,z_head,fixations_head
0,0.033366700033366704,-0.9734475340615605,-0.2138612531978348,0.08162881115218266,-0.9883817289946196,-0.0036975617302583575,-0.151946983605656,0
1,0.2333667000333667,-0.9507036114530161,-0.19981443938227025,-0.23714306438211902,-0.9832798260551106,-0.06789612057358449,-0.16897011713344176,0
2,0.43336670003336675,-0.9169800276282916,-0.22797928475400253,-0.32737299011047266,-0.9750789794813566,-0.07675379282456582,-0.20815820680588068,0
3,0.6333667000333668,-0.8622180874385607,-0.1312601425955815,-0.4892348563415924,-0.9659500829775186,-0.06353124524721226,-0.25080713321806397,0
4,0.8333667000333668,-0.6250799965854799,-0.2037292723799446,-0.7535047321976385,-0.9484706798078602,-0.05916978255151386,-0.31129135287961673,0
5,1.0333667000333666,-0.4732075508137714,-0.1953850687932153,-0.8590106453039467,-0.8588862501350369,-0.060983705465689715,-0.5085227595660284,0
6,1.2333667000333668,-0.0849439065985744,-0.048753743495092344,-0.9951922453611604,-0.6811561484229778,-0.04916228918031828,-0.7304857088185402,0
7,1.4333667000333667,0.08213631050381871,-0.026209322719132067,-0.9962764164123452,-0.49962022611905194,-0.024967732006967263,-0.8658846586071237,1
8,1.6333667000333667,-0.06759209805198446,-0.03286089935095035,-0.9971717352466314,-0.4283169530281264,-0.02130000261742337,-0.9033774945376931,1
9,1.8333667000333667,0.10259949648211543,-0.023942059084996775,-0.9944345735785673,-0.3781052136721369,-0.03198862035338639,-0.9252098008353754,1
10,2.033366700033367,0.09961259752622545,0.007382904123742468,-0.9949989061002922,-0.3639793772264609,0.0016908527854174896,-0.9314054723753216,1
11,2.233366700033367,0.010391728147933713,0.04094153897782806,-0.9991075029105861,-0.4181780109350645,0.057300249219471806,-0.9065560283897406,1
12,2.433366700033367,-0.3810565769559285,0.012648851195829734,-0.9244651922717568,-0.4637899600651948,0.06659147287964091,-0.8834389897907186,1
13,2.633366700033367,-0.5320842802364922,-0.08851285299765185,-0.8420521323406469,-0.532827733776649,-0.02335673841485109,-0.8459013351975871,0
14,2.833366700033367,-0.5197374515414528,-0.5283096480106046,-0.6713880377874685,-0.5687347523899731,-0.29293143135094973,-0.7685908911446975,0
15,3.033366700033367,-0.35978100654918155,-0.6854245913005388,-0.6330487792950457,-0.49654923431819437,-0.505487928346858,-0.7056350417840775,0
16,3.233366700033367,-0.1855346494551511,-0.8158960243676526,-0.5476226540900342,-0.3457092378190953,-0.6771894945194883,-0.6495379214479942,0
17,3.433366700033367,-0.06302251334169068,-0.9597648980364455,-0.2736411944667469,-0.2309565787153814,-0.8165346271559165,-0.5290843613294905,0
18,3.633366700033367,-0.14895376830783613,-0.9809615502776411,-0.12460823321026088,-0.17192796456660903,-0.9125674629191677,-0.3710274930800361,0
19,3.833366700033367,0.15635643073910782,-0.9677008436785371,-0.19775677917678128,-0.02207959387331354,-0.9643957445864456,-0.2635400147187235,0
20,4.033366700033366,0.16929870942726094,-0.9562423136304778,-0.2386180726786947,0.11227764105147697,-0.9675164215288519,-0.22650762766829913,0
21,4.233366700033367,-0.2318769304320783,-0.9512032579536277,-0.20358155906614336,0.0919768854228109,-0.9761890565224305,-0.196456556199497,0
22,4.433366700033367,-0.28366268681747897,-0.9367669658877813,-0.20494665581289534,-0.05089826359934041,-0.9783908317820377,-0.20040146468383108,0
23,4.633366700033367,-0.34642742576512536,-0.914976758618424,-0.20689506969928217,-0.1682954804568249,-0.9673946016004997,-0.18927312554088954,0
24,4.833366700033367,-0.21397657342500145,-0.8458724117407528,-0.48858355383821295,-0.34205262798551556,-0.9157210683223203,-0.2108433653659307,0
25,5.033366700033366,-0.35046440008639634,-0.7680291200648117,-0.5360093049607938,-0.5369266638581336,-0.8025913945876638,-0.2599169309067875,0
26,5.233366700033367,-0.8500328694561086,-0.24485330164476085,-0.4663592837264787,-0.7510204800592283,-0.6039068527633464,-0.2669545873684821,0
27,5.433366700033367,-0.8510632247637175,-0.2727716929275743,-0.44865018777685517,-0.8746735284101606,-0.4140725674492992,-0.2519724738626541,0
28,5.633366700033367,-0.9329128887432729,-0.015113211793940963,-0.359784842434966,-0.9464848593910887,-0.23966517784873462,-0.21616432052992812,0
29,5.833366700033367,-0.961190804834459,0.10020928708127008,-0.2570415053728657,-0.9791846304212171,-0.11009391487471691,-0.17051917620732088,0
30,6.033366700033366,-0.9593498096790757,0.2047584138660424,-0.1942213546955737,-0.9902502169773654,0.043896059650599055,-0.13220303976623193,0
31,6.233366700033367,-0.8736204136251399,0.4623999211872927,-0.15157072864978083,-0.9650733654137319,0.2410765770033186,-0.10254503103211064,0
32,6.433366700033367,-0.5741034621779036,0.7378997509893073,-0.3548368247593013,-0.8715824661815758,0.4779842772528068,-0.10897263575758268,0
33,6.633366700033367,-0.46566831590690405,0.8139610616721007,-0.3473044912494719,-0.6265805332543496,0.76680556562129,-0.13930563477084654,0
34,6.833366700033367,-0.02842509717635966,0.970872347023762,-0.2379052324668095,-0.23697733602013876,0.9607422197616309,-0.14427795874731844,0
35,7.033366700033366,0.4576916720431001,0.8676998584939075,-0.1939466135616813,0.15861935347830586,0.9808096580580178,-0.11336805265258247,0
36,7.233366700033367,0.8130657285469731,0.5074369556788175,-0.2853626763853215,0.5439459908350259,0.8339523738719778,-0.0929849297886198,0
37,7.433366700033367,0.9531669207340271,0.2267346497375089,-0.20016048517832521,0.8001225101388582,0.5897333957488239,-0.10962887716133096,0
38,7.633366700033367,0.98606686022244,0.021984928575435235,-0.1648902971268854,0.9503218268451387,0.30014529863527073,-0.0824695406126564,0
39,7.833366700033367,0.8492298346341108,-0.21087352038271728,-0.4840878498462037,0.9947958330796915,-0.03211362255489999,-0.09669522084200582,0
40,8.033366700033367,0.7463114705202684,-0.46160791509562316,-0.47951780122425774,0.9516119491964105,-0.2858712221573362,-0.11274902433670826,0
41,8.233366700033368,0.4840488652217932,-0.5493550422635523,-0.6811062572147643,0.8470249426742145,-0.510883613662274,-0.1467878734062185,0
42,8.433366700033368,0.5352150167599277,-0.5237843056766786,-0.6627178034136928,0.7061784872746054,-0.6734436536480526,-0.21859915249540965,0
43,8.633366700033367,0.24465824171513217,-0.8230004074390299,-0.5126525861790329,0.5575597963832218,-0.7866602133679935,-0.26512786002403316,0
44,8.833366700033368,0.03167179109806295,-0.9248737098260275,-0.37895318777031306,0.424021029797414,-0.8597876638076879,-0.28455463351289634,0
45,9.033366700033367,0.031987096459536124,-0.9454895140905814,-0.32407777524052034,0.315559366794117,-0.8860386755960314,-0.3396435651922864,0
46,9.233366700033368,-0.08270216373097883,-0.9599888083012884,-0.26754782759440693,0.31327776812717417,-0.8958820571088845,-0.3150434569192168,0
47,9.433366700033368,0.2952353635866967,-0.931051827940771,-0.21442614993507714,0.367680387040434,-0.8891762769925795,-0.27235396347292673,0
48,9.633366700033369,0.6303783255727249,-0.7605061324143434,-0.15573563885092145,0.4865047209104536,-0.8430096710564405,-0.2294511953273596,0
49,9.833366700033368,0.8959850784223828,-0.4432694344916,0.026887686585761343,0.6486506845642076,-0.7483213548789933,-0.13880720170961125,0
50,10.033366700033367,0.9480066111696758,-0.3094121000817856,0.07448233012981265,0.7703073133626102,-0.6318964654175452,-0.0856358568176372,0
51,10.233366700033368,0.9761421260121188,-0.20603590208459038,0.06852559285938217,0.834778123585157,-0.5433073670118215,-0.0892333420551233,0
52,10.433366700033368,0.7453174069172082,-0.3795115982996836,-0.5481540930269775,0.8323552527042887,-0.536603667356793,-0.1387127877119496,1
53,10.633366700033369,0.7358875560490106,-0.37563677945728335,-0.5633529220401498,0.834575462443598,-0.5238175260668333,-0.17058428084755406,1
54,10.833366700033368,0.566129374567295,-0.3902922999666398,-0.7260643579179423,0.8347951871382195,-0.5015815514409795,-0.22700868438217342,1
55,11.033366700033367,0.5531946893356522,-0.40229031568425394,-0.7294779897964669,0.8170008585175091,-0.5153001190752237,-0.25879602868420093,1
56,11.233366700033368,0.5636306986490517,-0.4042162345519652,-0.7203677333591595,0.8192046391637984,-0.506099905177673,-0.26975293353671165,1
57,11.433366700033368,0.5825227001672876,-0.4072144752285485,-0.703451259828391,0.8248418222759704,-0.4952492269216396,-0.27269794912682266,1
58,11.633366700033369,0.8757644231370485,-0.11845004174051887,-0.467981049594,0.8266191777240861,-0.5035680066668266,-0.2512369353426262,1
59,11.833366700033368,0.863297252151528,-0.08792303583852171,-0.4969782633038987,0.8409915302434594,-0.496340744001624,-0.21535810154874385,1
60,12.033366700033367,0.8524338408686558,-0.21143379299052262,-0.47817601165632767,0.8677336271688726,-0.45171399483463714,-0.20734709824563657,1
61,12.233366700033368,0.6575698949119579,-0.347285401588487,-0.6685766097830527,0.8757617537426506,-0.4241161172475119,-0.23057942183224345,1
62,12.433366700033368,0.6483730487422461,-0.33432780849813887,-0.6839863347534927,0.8854413074753646,-0.3919066788310397,-0.24980561663810058,0
63,12.633366700033369,0.7069370908142074,-0.5693268030880801,-0.41965097511700283,0.9093551541555204,-0.33780275770011364,-0.2428219522633579,0
64,12.833366700033368,0.7311575991055578,-0.5400791322139478,-0.4168010271307237,0.9362794639556918,-0.2770869110455574,-0.21587869070863422,0
65,13.033366700033367,0.9137846017978319,-0.28644619713215547,-0.28800395425359043,0.9634152357194743,-0.17639703886215413,-0.201779999663627,0
66,13.233366700033368,0.9133682557413662,0.344591926939656,-0.2168290416249389,0.9830404844467318,0.048212947032510924,-0.1769376095610404,0
67,13.433366700033368,0.6925347893499267,0.6900349872535425,-0.21035037890637687,0.9380301447351227,0.3116417272805603,-0.1515878668818646,0
68,13.633366700033369,0.6450050785972437,0.7568331059422775,-0.10569814725684189,0.7955591816733831,0.5998029655625954,-0.08556863302339987,0
69,13.833366700033368,0.49658707296713234,0.8475235337749196,-0.18736365351798862,0.6258734020031237,0.7746827952851126,-0.09027209621073926,0
70,14.033366700033367,0.3140429475151404,0.9273479695023055,-0.20347670769882722,0.46198325564480935,0.8854780715190932,-0.05000056362332106,0
71,14.233366700033368,0.3948301729144852,0.8886080973873798,-0.2334197588335212,0.37888335475099355,0.9251007345106886,-0.02521972443183048,0
72,14.433366700033368,0.38500591918602206,0.884684241956043,-0.2628768423166794,0.19650648654772235,0.9799929509558203,-0.03160722736295305,0
73,14.633366700033369,-0.468586132097902,0.8645198987345135,-0.18174812653118164,-0.12418373098612429,0.9904764801221951,-0.059453707059468223,0
74,14.833366700033368,-0.6895626928479274,0.6955793142559795,-0.20167476344723168,-0.4391961630288468,0.8967282697079597,-0.054636441019775,0
75,15.033366700033367,-0.6558817674274982,0.7322077942933465,-0.1835506827343708,-0.6042632084323792,0.794915848001814,-0.054541447822402306,0
76,15.233366700033368,-0.8179924673052816,0.5672269602610968,-0.09561327828693256,-0.7067224073334655,0.7063778212089813,-0.039671307980000424,0
77,15.433366700033368,-0.8171355650585281,0.3299030040886561,-0.4727086589113426,-0.7713920805532767,0.6357750240604939,-0.027283270342194705,0
78,15.633366700033369,-0.9108609441481721,-0.12789337042188367,-0.39239728111651245,-0.8474723556653517,0.5306078351030528,-0.015682209993216137,0
79,15.833366700033368,-0.875411489033969,-0.2509615556048564,-0.4131259160059071,-0.9163066617331042,0.3999800305957002,-0.019951861772722016,0
80,16.033366700033366,-0.8387649942097479,-0.3394572679239908,-0.42572531959222454,-0.9528882009641516,0.30202091702222916,-0.028061399543766775,0
81,16.233366700033365,-0.9946936899937451,0.07512318215941789,-0.07029203787678007,-0.9824368517780371,0.1811629135190896,-0.04469710319175595,0
82,16.433366700033368,-0.9990779224455492,-0.03954415102903016,0.01672019740550005,-0.9974613509299477,0.03658152770447719,-0.0610953781542494,0
83,16.633366700033367,-0.912245690756709,-0.3950650792533603,0.1083115083929271,-0.9905505560821721,-0.11763513661288783,-0.07050936447995623,0
84,16.833366700033366,-0.8374084956130236,-0.5374037587994749,0.09972066738308946,-0.9593500514688893,-0.2716487410658338,-0.07651431385033328,0
85,17.033366700033366,-0.8584035318614781,-0.5062156022464505,0.0830008465619724,-0.9209382793294887,-0.37692789327684567,-0.09898509451184816,0
86,17.233366700033365,-0.7459872927425424,-0.6644772383196315,0.044418001100547264,-0.8754006960291228,-0.4702602118990206,-0.11193281242073655,1
87,17.433366700033368,-0.7117319460054691,-0.6953137366030328,0.0998821541938134,-0.8393819480515431,-0.5370483834018888,-0.08376741114905292,1
88,17.633366700033367,-0.7217170982634051,-0.6799507391694403,0.12958172084512004,-0.8385376079718042,-0.5426284020932567,-0.04908255554312559,1
89,17.833366700033366,-0.8449594978598342,-0.5336820703497406,-0.03502705759369239,-0.8403041469475588,-0.5417102210539886,-0.020951778644657058,1
90,18.033366700033366,-0.9105662651681816,-0.37248648011125857,-0.17922862179906787,-0.8349217984284161,-0.5500223102541586,-0.019520469557298494,1
91,18.233366700033365,-0.7590304045534538,-0.6093358443927893,-0.2293091225868404,-0.8247815613292646,-0.5647380647333605,-0.028395322369702995,1
92,18.433366700033368,-0.37055100966687565,-0.8942314509563335,-0.25108178220530003,-0.7880234420958515,-0.6145856516093325,-0.036104453234176354,0
93,18.633366700033367,-0.49645138975280256,-0.7804632007320085,-0.38001738107047167,-0.7530879262720057,-0.6565046145857943,-0.04313080489496863,0
94,18.833366700033366,-0.7152814709588815,-0.5382497786780105,-0.4457124555764307,-0.7620320569892769,-0.6449343050364088,-0.058024876629737085,0
95,19.033366700033366,-0.8441731080799504,-0.19906009398776361,-0.4977417428508678,-0.7932907549898587,-0.6055446063548574,-0.06328908090785343,0
96,19.23336670003337,-0.8514364519813413,-0.13651046172404743,-0.5063801556906754,-0.8501476797401439,-0.5197600293380401,-0.08425220789373833,0
97,19.433366700033368,-0.862038740723787,-0.12221706800708454,-0.4918863667343296,-0.934648048288064,-0.33410921919779796,-0.12167191737763766,1
98,19.633366700033367,-0.8631321516059071,-0.12109142908111425,-0.49024458657618175,-0.9577757280303346,-0.2556103979781211,-0.13163958083125737,1
99,19.833366700033366,-0.8039998445388755,0.09750217888154845,-0.5865812604361095,-0.9597942964642217,-0.24944390380507286,-0.1287347945554558,1
100,20.033366700033366,-0.8516524602615176,-0.16369429666455798,-0.49788780279295836,-0.9634291673785015,-0.23835445366343655,-0.12243934769171479,1
101,20.23336670003337,-0.856371143230721,-0.17342902646010958,-0.4863649224839376,-0.9619362898064935,-0.25466195645242107,-0.09912548758590353,1
102,20.433366700033368,-0.9753472871628492,-0.12473584430034379,-0.18204021141152005,-0.9622338854885142,-0.2700128057690542,-0.034627075221571234,1
103,20.633366700033367,-0.9905597010694251,-0.11333166911411861,-0.07711946183071783,-0.9643377943760235,-0.2643127121485542,0.013835047331402475,1
104,20.833366700033366,-0.9912899328606177,-0.11150367767801857,-0.0700799463004152,-0.9655497404259523,-0.25899189417318325,0.02523682856388608,1
105,21.033366700033366,-0.9596898012864211,-0.2810610411755241,-0.00042004780698671226,-0.9639082890697637,-0.26541532738833756,0.020868978171983098,1
106,21.23336670003337,-0.9590910710525082,-0.2830803069272871,-0.0031396269373277423,-0.9626490449929267,-0.26991510310020683,0.021275650227704945,1
107,21.433366700033368,-0.9603136227789546,-0.27868452468778526,-0.01151875013632082,-0.963242899272641,-0.26800447529958854,0.018349883384616003,1
108,21.633366700033367,-0.9826980344419461,-0.07103572901313793,-0.1710511569896786,-0.9640386946864847,-0.2651337631823279,0.018261510560623476,1
109,21.833366700033366,-0.9819388404525742,-0.05243144954503257,-0.1817884944358724,-0.9670223536276786,-0.2539394229898647,0.019558554035499023,1
110,22.033366700033366,-0.9958540012622051,0.02591133630507429,-0.08719753907617646,-0.9656170709185441,-0.25909440208147805,0.021301717318867597,1
111,22.23336670003337,-0.9962502086471554,0.015184138419631652,-0.08517607475666426,-0.9617676525081803,-0.27300270743965516,0.02173716447750503,1
112,22.433366700033368,-0.9961306654100887,0.013180735187286354,-0.08689053832021543,-0.960328469945291,-0.27804929374380777,0.021396730149870615,1
113,22.633366700033367,-0.91741780509186,-0.32349307446025394,-0.23172570353046085,-0.9613573682813021,-0.27392346072492907,0.02753085751891773,1
114,22.833366700033366,-0.8487727764093854,-0.2032364667912027,-0.48813902998278275,-0.9589532000774181,-0.28279856981509444,0.020826160755572077,1
115,23.033366700033366,-0.8501910502970339,-0.19859437223747453,-0.48758122739747745,-0.9603004553456804,-0.2780417900447604,0.022711196612782942,1
116,23.23336670003337,-0.8460745336110673,-0.19803429679936768,-0.49491443792436973,-0.96080464606955,-0.27679311963329156,0.015491966138535235,1
117,23.433366700033368,-0.8402463518055499,-0.1986420819769647,-0.50450707779507,-0.960628895259969,-0.2778072120132232,0.0039087779486040065,1
118,23.633366700033367,-0.7895058398934217,-0.3517845291258632,-0.5029196494887408,-0.9620405183075516,-0.27165654283512414,-0.026091452037133794,1
119,23.833366700033366,-0.6592511359387908,-0.2123525435511575,-0.7213143122181677,-0.9592579342356877,-0.25652948474948556,-0.11839273229402547,1
120,24.033366700033366,-0.5688860623459122,-0.20349184828926709,-0.7968435955370292,-0.9318925857569668,-0.2599030747760518,-0.25303478087636155,0
121,24.23336670003337,-0.620057824685805,-0.3807823900492499,-0.6859541278207227,-0.8989378143521153,-0.29033224289185133,-0.32805181704302283,1
122,24.433366700033368,-0.6112025560617118,-0.3811078630491324,-0.6936773256967206,-0.8762312914613477,-0.31087511021306347,-0.36820563509266724,1
123,24.633366700033367,-0.615749705870583,-0.3771756827075265,-0.6918025759524186,-0.8673843366141694,-0.3149356362050713,-0.38530501897134,1
124,24.833366700033366,-0.6248165148398993,-0.36866552004295106,-0.6882514490466275,-0.860366914134763,-0.316030326838715,-0.39986698485926603,1
125,25.033366700033366,-0.639880746602264,-0.36205809364473596,-0.6778396321801113,-0.8587177080819508,-0.3144496130505525,-0.40462987862840655,1
126,25.23336670003337,-0.6504214078715895,-0.35969505584899997,-0.6690078168303601,-0.858645315944401,-0.3147677965259308,-0.4045360993495517,1
127,25.433366700033368,-0.6590954374850571,-0.35844611361296713,-0.6611426381062875,-0.8592335094614908,-0.31407745814586885,-0.40382313765201755,1
128,25.633366700033367,-0.6700887717303271,-0.35422996904964,-0.6523052713477279,-0.8636192843658026,-0.30721441813237244,-0.39972619749409355,1
129,25.833366700033366,-0.6864948856763173,-0.3371347616928786,-0.6442553254716223,-0.8716356566348957,-0.2898593315434673,-0.39526301370078704,1
130,26.033366700033366,-0.6943655335114916,-0.33446448017747094,-0.6371734594056124,-0.8740434503091669,-0.28706865159953926,-0.3919689225442108,1
131,26.23336670003337,-0.691830960165184,-0.34515337790513717,-0.6342232006774849,-0.8697525091615117,-0.2952287886142963,-0.39543714441183897,1
132,26.433366700033368,-0.5324081245373037,-0.5573236268389886,-0.6371279023035383,-0.8665064200383386,-0.3027227022136604,-0.3968949352118296,1
133,26.633366700033367,-0.5197721281960239,-0.5585912325186693,-0.6463843823174029,-0.8644365614013214,-0.3045033930471829,-0.40003389223341174,1
134,26.833366700033366,-0.6162001429967606,-0.3050888364967075,-0.7260979173746865,-0.8615502258711683,-0.31253472849193326,-0.4000665591971072,1
135,27.033366700033366,-0.6130747498178446,-0.3041268663886788,-0.7291407273471905,-0.8576926203663038,-0.3205970259322413,-0.40197128744797905,1
136,27.23336670003337,-0.6114114563927938,-0.30248569615907744,-0.7312170913010727,-0.8566804273622883,-0.32059518553140237,-0.40412544140211343,1
137,27.433366700033368,-0.6081175042211917,-0.2943844924533273,-0.7372454622870094,-0.8550595937572721,-0.3133050644128989,-0.41317433092688377,1
138,27.633366700033367,-0.6046284735507881,-0.29193424533784423,-0.7410794865401867,-0.8515513690696614,-0.3124708772514394,-0.42097769145799346,1
139,27.833366700033366,-0.601707349433179,-0.2892855067852711,-0.744487851614845,-0.8487612974970302,-0.30984813374952114,-0.42848383153054587,1
140,28.033366700033366,-0.601463376423134,-0.2867100464626305,-0.7456803310260234,-0.8474641414110772,-0.30582559007337645,-0.4339069456446359,1
141,28.23336670003337,-0.5991198753858933,-0.2849142975008562,-0.7482507721327025,-0.8449138317589922,-0.30198153302015623,-0.4415062520702666,1
142,28.433366700033368,-0.5948307583382595,-0.27870935858937096,-0.7539877070413235,-0.8422597685149171,-0.2909679351730082,-0.4538018764200458,1
143,28.633366700033367,-0.59757994062309,-0.26893173088975536,-0.755363448073538,-0.8437519522070993,-0.276207167594651,-0.4602089131210403,1
144,28.833366700033366,-0.5977526356802686,-0.27019372493643623,-0.7547762168631611,-0.8426562532430234,-0.27436708935633636,-0.463306744121605,1
145,29.033366700033366,-0.5987741199424645,-0.2717657079725851,-0.7534009246458933,-0.842137461042853,-0.2732689748342795,-0.46489629392082643,1
146,29.23336670003337,-0.5968915505916959,-0.2726377455227668,-0.754578780876128,-0.8393546273544186,-0.2725186008023105,-0.47033756149756517,1
147,29.433366700033368,-0.5981436648135108,-0.27351640836390106,-0.7532681664581176,-0.8391146623613269,-0.27106080713030906,-0.4716064272760731,1
148,29.633366700033367,-0.5968668000495339,-0.2783209005837271,-0.7525207633659643,-0.8358482261619915,-0.2783529532674288,-0.4731568199119112,1
149,29.833366700033366,-0.5937548034745621,-0.28230495552764134,-0.7534979399012453,-0.8324381389765896,-0.28435908312015684,-0.47559085002158724,1
150,30.033366700033366,-0.5964789154278429,-0.28370417635289363,-0.7508161184803842,-0.8329991069560285,-0.2852574956869819,-0.47406819020564017,1
151,30.23336670003337,-0.5921542220146161,-0.2899816558596172,-0.7518404196471348,-0.8291886416305172,-0.2890859195400977,-0.4784093725195969,1
152,30.433366700033368,-0.5952895067467355,-0.28507005889842124,-0.7512426137253388,-0.8312107234840941,-0.2837890817081667,-0.47807163717196627,1
153,30.633366700033367,-0.5946792929223734,-0.28265832836933125,-0.7526359066459699,-0.830776139362065,-0.27932076289272234,-0.48144669246313326,1
154,30.833366700033366,-0.597466158246488,-0.28542477592522636,-0.7493776664928151,-0.8321197697855691,-0.27928802678850123,-0.47913973621960926,1
155,31.033366700033366,-0.600229654244382,-0.2825044551357536,-0.7482750797628642,-0.8344973523615442,-0.2727970032705727,-0.47874415287099636,1
156,31.23336670003337,-0.6051624528552233,-0.2784430091872937,-0.7458202841764058,-0.8381872712420909,-0.2649620924522499,-0.47669401914756926,1
157,31.433366700033368,-0.6052224384550398,-0.280697891637749,-0.7449258309527588,-0.8379481893036458,-0.26543702031506256,-0.4768501025364287,1
158,31.633366700033367,-0.6036100463209974,-0.28332640437791556,-0.7452389285072576,-0.835909621563413,-0.26845461608139815,-0.4787350244992535,1
159,31.833366700033366,-0.5469454917872392,-0.001930239898827944,-0.8371659950019162,-0.8347033651203349,-0.2654745398299135,-0.48248685055541657,1
160,32.03336670003337,-0.5436089276936004,0.0034794454723180686,-0.839331416778271,-0.8331742363349228,-0.2586003170615185,-0.48882161155517717,1
161,32.23336670003337,-0.37053591174414324,0.018745186005225588,-0.9286289657928868,-0.8265033551575234,-0.2521054937870236,-0.5033239751052578,1
162,32.43336670003337,-0.34397640499172616,0.03173077362932752,-0.9384420018380745,-0.8112349574124287,-0.2414757843772005,-0.5325291442085317,1
163,32.63336670003337,-0.33600469821220363,0.03170433932749282,-0.9413265520780413,-0.8043978692683729,-0.23285921271294505,-0.5465534328601456,1
164,32.83336670003337,-0.3681105462023174,0.02738146437412973,-0.9293787608845816,-0.8029541360753636,-0.2304325289042059,-0.5496958295114478,1
165,33.03336670003337,-0.2900891020594181,0.005091900010747408,-0.9569860946851012,-0.8022817946313633,-0.23396348481003873,-0.5491857698253134,1
166,33.23336670003337,-0.2894200134571431,0.004241197254402997,-0.9571928061035128,-0.7994495417187724,-0.23832972006406253,-0.5514339260326937,1
167,33.43336670003337,-0.24744263077754414,0.013640975103856008,-0.9688065174595516,-0.7683068208841252,-0.23024460692677395,-0.5972370132234474,1
168,33.63336670003337,-0.21246559926815423,0.030568456045323097,-0.976690298212606,-0.7356759813851653,-0.20666838994308478,-0.6450341285632158,1
169,33.83336670003337,-0.22657215044516762,0.02347138101488087,-0.9737115357824957,-0.7327045864716315,-0.204592202707482,-0.6490654971223906,1
170,34.03336670003337,-0.24767848991927455,0.013310702730900159,-0.9687508404249865,-0.7370654859748397,-0.21026848167248732,-0.6422784715369343,1
171,34.23336670003337,-0.25318193361959457,0.008012202972222587,-0.9673855038670859,-0.734952194293539,-0.21537482358778917,-0.643007742929773,1
172,34.43336670003337,-0.25859345081301377,0.007630476732332065,-0.9659561082272087,-0.7373931247169718,-0.2091378972368117,-0.642271531020569,1
173,34.63336670003337,-0.25913564961091257,0.008283078671886577,-0.9658054181399304,-0.7367872658282724,-0.2033402924310779,-0.6448234257433133,1
174,34.83336670003337,-0.2547199647922874,0.01081172004296852,-0.9669544178739391,-0.7304964431166764,-0.2037883484324144,-0.6518015462064148,1
175,35.03336670003337,-0.2489909380245091,0.0120521387925323,-0.9684308228945424,-0.7240868785989234,-0.203530865641006,-0.6589942177077814,1
176,35.23336670003337,-0.24330382648173807,0.010561744483240201,-0.9698926216714998,-0.7222514589575346,-0.19361368487806874,-0.6639778392850539,1
177,35.43336670003337,-0.2419996020871227,0.009641673514823729,-0.9702284425440783,-0.7213425530133443,-0.18632423770067788,-0.6670443760781228,1
178,35.63336670003337,-0.24495710431384915,0.00722619811821686,-0.9695069876524515,-0.7225938857606038,-0.185765785146163,-0.6658446885951872,1
179,35.83336670003337,-0.253638684655038,0.004379816331912619,-0.9672891164772616,-0.7248525226415639,-0.18665193611058814,-0.6631363925817451,1
180,36.03336670003337,-0.4235716233047535,-0.47293051687453624,-0.7726084429643263,-0.7280076403503596,-0.21376254237466374,-0.6513911659433386,1
181,36.23336670003337,-0.39101351345710156,-0.5111874665737792,-0.7653729850940746,-0.7147329741157047,-0.26894852690299587,-0.645618668866095,1
182,36.43336670003337,-0.3653379299652545,-0.5382309155498588,-0.7594969904318674,-0.7017874526403521,-0.3098750094754541,-0.641460715725564,1
183,36.63336670003337,-0.37001556828617643,-0.5371355063389898,-0.7580065481615677,-0.6966118980232279,-0.31110371620652244,-0.6464876961667315,1
184,36.83336670003337,-0.37904646908396616,-0.5200782576396935,-0.7654034101083159,-0.6994689606200732,-0.294395999737994,-0.6512097730127685,1
185,37.03336670003337,-0.44107025786358456,-0.0012673199612962668,-0.8974716828559368,-0.7081601099541619,-0.2660459437816594,-0.6540097969197673,1
186,37.23336670003337,-0.43486870739018085,0.026035742147119526,-0.900117407599499,-0.7209651034548065,-0.21397038249303377,-0.6591100022122144,1
187,37.43336670003337,-0.43741237716803993,0.01921108499030117,-0.8990558083421185,-0.7243543431048787,-0.1953866018605439,-0.6611617513426568,1
188,37.63336670003337,-0.44152632984909845,0.004353617199472085,-0.8972377310764778,-0.7266738805661088,-0.19795442627175425,-0.6578442949683561,1
189,37.83336670003337,-0.6177172847456981,0.04203196527199074,-0.7852761743627374,-0.7364452609949422,-0.18553795639606252,-0.6505567187374709,1
190,38.03336670003337,-0.661801558914652,0.07261974596882884,-0.7461535157818123,-0.757171578166687,-0.14855804492068983,-0.6360988197645954,1
191,38.23336670003337,-0.7139037042389587,0.10256866522270823,-0.6926912515604088,-0.7776808463435481,-0.1078750101375416,-0.619334710328921,1
192,38.433366700033375,-0.7392477386418495,0.10481899413210405,-0.6652260964379302,-0.7898680026726107,-0.09263314366942783,-0.6062405785229985,1
193,38.63336670003337,-0.7521225801425842,0.08971010656967676,-0.6528887510280134,-0.7957274321822622,-0.09612189853823537,-0.5979786236095976,1
194,38.83336670003337,-0.7648905926618025,0.08507554183552676,-0.6385174495962254,-0.8056572556714097,-0.09384676336007751,-0.5849009928106215,1
195,39.03336670003337,-0.8362849572308737,-0.11945719444047732,-0.5351237698007494,-0.8112307808775199,-0.10731471821679105,-0.5747940252045947,1
196,39.23336670003337,-0.8368273338176333,-0.13110418116124944,-0.5315371172907024,-0.8142252805255975,-0.1265513739721169,-0.5665879828400716,1
197,39.433366700033375,-0.8262279053505954,-0.3069816644347484,-0.4723449016564475,-0.8250896704603891,-0.15912503546128218,-0.5421312191610186,1
198,39.63336670003337,-0.7586143835566397,-0.46326187023148196,-0.4581404333287007,-0.8183526309022506,-0.2627946130750849,-0.5111144322302802,1
199,39.83336670003337,-0.7374261159220477,-0.5293410900646844,-0.4195244139799906,-0.8017196040626964,-0.3482422170405803,-0.48577055770416466,1
200,40.03336670003337,-0.7577750961457879,-0.49702659316002207,-0.42277827445717236,-0.8039098258760076,-0.347583356818096,-0.4826124759297795,1
201,40.23336670003337,-0.7852729499419138,-0.4559456812391775,-0.41887937386420376,-0.8243729408651811,-0.3145930251357304,-0.47057463053722165,1
202,40.433366700033375,-0.9133272428976302,-0.32847439018353025,-0.2407029754169459,-0.8469337458025281,-0.2974782307924157,-0.4406925599842974,1
203,40.63336670003337,-0.9240739425240166,-0.32174717693764854,-0.2063155420242833,-0.8639194756611261,-0.2828420034342142,-0.41670558031627697,1
204,40.83336670003337,-0.9307227504952372,-0.3227716264659997,-0.17196987776664274,-0.8802399742050468,-0.2831152331312636,-0.3808193174991636,1
205,41.03336670003337,-0.9954849986567487,0.023221848568984238,-0.09203457610274896,-0.9279069134273145,-0.23258660013351373,-0.2913627180202152,0
206,41.23336670003337,-0.9955773740853757,0.08968185264604236,0.027979591048508536,-0.9760765665082893,-0.1548467082852696,-0.1526336569915243,0
207,41.433366700033375,-0.9858463432790701,0.14057473636944665,0.09135497215776878,-0.9921891594852443,-0.11393926966650435,-0.050779076673642023,0
208,41.63336670003337,-0.9983285041250999,-0.057794408079178954,6.516224704195675e-05,-0.9852740973519208,-0.1635914513482288,0.049727156897793404,0
209,41.83336670003337,-0.9172781240400344,-0.39559993422555884,-0.04584250427636924,-0.9610620661394711,-0.25818218590873687,0.09849702486429554,0
210,42.03336670003337,-0.6095095918382544,-0.7889049069997056,-0.07827582748812396,-0.8937045363734912,-0.42038710536418894,0.15673826370405386,0
211,42.23336670003337,-0.5656722384705826,-0.8213547478183167,-0.07342545103702132,-0.7800850216271602,-0.6086693597072763,0.14487570392059496,0
212,42.433366700033375,-0.31473476536243267,-0.9473515670876467,-0.058881540476065336,-0.643982686035612,-0.7512189724891107,0.1447631011644996,1
213,42.63336670003337,-0.26552560054999624,-0.9632086655218616,-0.04153579319284407,-0.5712368489996366,-0.811336286292851,0.12418491409785504,1
214,42.83336670003337,-0.34529850116144417,-0.9370823806456535,-0.05143497816792334,-0.5319290195437996,-0.8395469598112166,0.11050982055417354,1
215,43.03336670003337,-0.3963682917688306,-0.9157071946066858,-0.06612496522352494,-0.514420564351312,-0.8527632934082188,0.09036729711596793,1
216,43.23336670003337,-0.5490993496655079,-0.8353264429931497,-0.026826066303661265,-0.5316330221743678,-0.8436061568039239,0.07546510409627416,1
217,43.433366700033375,-0.6392441782228077,-0.768857289797017,-0.015011613312149574,-0.5692870320742043,-0.8193841558515884,0.0672449273293062,1
218,43.63336670003337,-0.7837087063881634,-0.6211222142233853,0.0028033069097647715,-0.6245642666284543,-0.7782355518821809,0.0653368398187315,1
219,43.83336670003337,-0.7935363193708,-0.6085050157548356,-0.0046642942285839975,-0.7318426306694501,-0.6790950939853557,0.05688776019355733,0
220,44.03336670003337,-0.9783209225695296,-0.2070885064893213,-0.0015883773880398925,-0.8518324261055686,-0.5234146517189663,0.020460210189881978,0
221,44.23336670003337,-0.998316731424042,0.054362932896931594,-0.02020829744587417,-0.9477483503125055,-0.31880922298405584,-0.011564766328241478,1
222,44.433366700033375,-0.9734572881274263,0.1679406198439819,-0.1554890877136288,-0.9810943578631216,-0.1929765528249094,-0.014625697554791591,1
223,44.63336670003337,-0.9722726520852288,0.16235878044132165,-0.16830186101396016,-0.9864071704746056,-0.16413162619007002,-0.00785514611484248,1
224,44.83336670003337,-0.9787028161548321,0.13598109116633264,-0.15378537152738167,-0.9811113744500931,-0.19342545009581344,0.002658228711238272,1
225,45.03336670003337,-0.990671734351139,0.13589782001133197,-0.010064654682310754,-0.9760193118642144,-0.21765299499318955,0.003671054153829385,1
226,45.23336670003337,-0.9949674957449379,0.09750830458474208,-0.0230610699677254,-0.9678410465758871,-0.25155761905181223,0.001572532948791739,1
227,45.433366700033375,-0.9975477057101249,0.06784193595150421,-0.017206003569057528,-0.9603194895152879,-0.2788591168140087,0.00490622327339066,1
228,45.63336670003337,-0.9969709073504799,0.07362953706710293,-0.02505396511623414,-0.961879511258751,-0.2734667324334081,0.0019370267993506958,1
229,45.83336670003337,-0.9958247013125187,0.08312331147188863,-0.0377316756291154,-0.9666801919605954,-0.25586723149922047,-0.007833665550109645,1
230,46.03336670003337,-0.9947283026838869,0.09111545482955756,-0.047048674060344214,-0.9704644793338062,-0.24049246784490622,-0.01902806509425337,1
231,46.23336670003337,-0.9945597938457171,0.09067110263486845,-0.05127930979003297,-0.9720126249826503,-0.23353923551097336,-0.02551239603189272,1
232,46.433366700033375,-0.9954954169167471,0.08105764624005889,-0.049178581555121816,-0.9695855334387837,-0.24301830076050815,-0.029086059232983654,1
233,46.63336670003337,-0.7876252238392173,-0.11190775910599118,-0.60590689072175,-0.969934952369145,-0.24118983337402103,-0.03246001308805684,1
234,46.83336670003337,-0.7882225396994923,-0.1000200341566029,-0.6072077244872586,-0.9743340286417437,-0.22254419505274242,-0.033871549699961624,1
235,47.03336670003337,-0.7855722681309519,-0.09188803964929346,-0.6119091433480969,-0.9759349118923483,-0.21439096578363126,-0.039844215891851754,1
236,47.23336670003337,-0.7836881759785321,-0.08311497469134954,-0.6155686345270509,-0.9780612898002915,-0.20353522557735468,-0.044379334643114596,1
237,47.433366700033375,-0.782689567994674,-0.0742813160103269,-0.6179638551275348,-0.9798064181567911,-0.19417508203544334,-0.04770136743625136,1
238,47.63336670003337,-0.7837947770403442,-0.06739309703781104,-0.6173523450639266,-0.9820324552003374,-0.18297936679831442,-0.04616067871343707,1
239,47.83336670003337,-0.9065745207649314,0.21149032511082674,-0.36523209153133335,-0.9857973506504896,-0.16218745910143242,-0.043575354969257345,1
240,48.03336670003337,-0.9916708437661221,0.08999499926820285,-0.09214031544825382,-0.9889529900348846,-0.14135573346165436,-0.044615469498589355,1
241,48.23336670003337,-0.9902699648746913,0.10072977505548847,-0.09601515028550744,-0.9893685907710952,-0.13798223863255407,-0.045942283547583736,1
242,48.433366700033375,-0.987838438072715,0.1301761048944575,-0.08502589006041487,-0.9914798566137394,-0.1235670174774198,-0.041217546275025496,1
243,48.63336670003337,-0.5766115271815908,0.3422571709276061,-0.7418754448490295,-0.9947919798176187,-0.1019092129803595,-0.0018518099974959561,1
244,48.83336670003337,-0.5985316496510074,0.36947083291575117,-0.710810219390932,-0.9965982253051363,-0.07002376434476397,0.04345859806346679,1
245,49.03336670003337,-0.8161569254160632,0.22068902455133887,-0.5340264296249556,-0.9887828674508048,-0.10144625050333662,0.10962253096229056,1
246,49.23336670003337,-0.9774641952173446,0.11771876117882207,-0.1752313908368952,-0.982747608731817,-0.12715752352438411,0.13430600039849908,1
247,49.433366700033375,-0.9805355639912992,0.12332362924329365,-0.1527785659656741,-0.9813871008273283,-0.12465053654177916,0.1460876520092592,1
248,49.63336670003337,-0.9754068257489236,0.14082823736318706,-0.16955509972745483,-0.9878302088662098,-0.1089874502112684,0.11096492305132646,1
249,49.83336670003337,-0.9981395755073634,0.03896098591236216,-0.046898074403084085,-0.9848243712112852,-0.09573165999916818,0.14476327967444275,1
250,50.03336670003337,-0.9969416713708503,0.05162640771351286,-0.058668713220025634,-0.9871066678533233,-0.06927700777724298,0.1442952614361989,1
251,50.23336670003337,-0.9948282936636947,0.06644410524653624,-0.07682347951094631,-0.9902750241279216,-0.06340144503631695,0.12383712430346337,1
252,50.433366700033375,-0.9968998562373181,0.03962521438712035,-0.06797439973099739,-0.9862455842099732,-0.10493517905214204,0.12770378155569206,1
253,50.63336670003337,-0.9909596768438963,0.1077698614102662,-0.07990354085428689,-0.9810170009698049,-0.14314377942105055,0.1308262291028365,1
254,50.83336670003337,-0.9903473412764348,0.1030163909947128,-0.0927349276870457,-0.9798864783960293,-0.1533442016988767,0.12770295713867572,1
255,51.03336670003337,-0.9907156172755094,0.09702144682755386,-0.09523342134930807,-0.9803688086302953,-0.148847026893772,0.12931187745021835,1
256,51.23336670003337,-0.9924012795004948,0.07567142686727157,-0.09702337657313316,-0.97679746365237,-0.1669797687934705,0.13410619603872248,1
257,51.433366700033375,-0.993214106285301,0.05976597693469025,-0.099768567579838,-0.9731206720818497,-0.18491508303913906,0.13726823970459326,1
258,51.63336670003337,-0.9937425325918421,0.05147743590935834,-0.09912543825955916,-0.9738929372950922,-0.18282373373631508,0.13456607696388592,1
259,51.83336670003337,-0.9936851216209523,0.040709049688929834,-0.10455932451282103,-0.9765455997249468,-0.1770865632321624,0.12247057107919927,1
260,52.03336670003337,-0.9929083369395673,0.03720609052038196,-0.11291032399250292,-0.979469575133678,-0.164858919250953,0.1160210676164483,1
261,52.23336670003337,-0.9911272773350239,0.04433821125414628,-0.1253030053320553,-0.982379428925288,-0.1529791498045922,0.1073686981828946,1
262,52.433366700033375,-0.9890115139287604,0.059632259426052034,-0.13527830185246092,-0.9852690082033164,-0.1381034636517261,0.10085838984164697,1
263,52.63336670003337,-0.985254934790081,0.08294836957205538,-0.14964050740735813,-0.9897018825272503,-0.11369939715314482,0.08696338775041196,1
264,52.83336670003337,-0.9852208183269271,0.08014981996414974,-0.1513801357342984,-0.9899004768308963,-0.11395216434762764,0.08433237937148316,1
265,53.03336670003337,-0.9869580367875588,0.055686572578416034,-0.15103919774322366,-0.9869652313883688,-0.13821843984999096,0.08243357881311607,1
266,53.23336670003337,-0.9887990281848948,0.025017850808121887,-0.14714139119075254,-0.9823467102879011,-0.1673950687806011,0.08350947092681367,1
267,53.433366700033375,-0.9894342157628503,0.019135550952510905,-0.14371417246568577,-0.9819781274713042,-0.16835052482054064,0.08588980126068528,1
268,53.63336670003337,-0.9878317207613594,0.04522884347504209,-0.14880471489694855,-0.9874109219923465,-0.13670692566864964,0.07956687504514943,1
269,53.83336670003337,-0.9856342397339226,0.06795208966918166,-0.1546210172445,-0.9908316030406139,-0.11556613895438955,0.06998001102559387,1
270,54.03336670003337,-0.9853705307038773,0.0687013417617486,-0.15596487700920209,-0.9914784954773613,-0.11365114578764372,0.06366953798406352,1
271,54.23336670003337,-0.9857067891882667,0.05425868244801132,-0.15949332627782253,-0.990247894279135,-0.12820811765332862,0.05451409398980804,1
272,54.433366700033375,-0.9873315248484953,0.03565116798962403,-0.1546138876728773,-0.9878189244632715,-0.1459971071372475,0.053838807377029736,1
273,54.63336670003337,-0.9880654645666737,0.03313754233756264,-0.15042785984806778,-0.9879191616810103,-0.14587942115178898,0.05229650531258275,1
274,54.83336670003337,-0.9874135842020783,0.043403583729527566,-0.15208728629520493,-0.9898514496818508,-0.1343790235002168,0.04622105154436185,1
275,55.03336670003337,-0.9883333579287805,0.13813058412315696,-0.0641647514996859,-0.9903234204826551,-0.13297481757961313,0.03971423841902536,1
276,55.23336670003337,-0.9901242952472629,0.12518003533457794,-0.06311765770958934,-0.9897495771356956,-0.1387647127200153,0.033765797242828154,1
277,55.433366700033375,-0.9926681658683527,0.11029266560657941,-0.0494513941659486,-0.9893981499371165,-0.14145092712753396,0.03290799470907434,1
278,55.63336670003337,-0.9938431355026056,0.10418675317064068,-0.037695390674585445,-0.9893468712281529,-0.14097731571614325,0.036306539969209364,1
279,55.83336670003337,-0.9946247241449998,0.09984096299915143,-0.027448865675748873,-0.989233377795543,-0.14069575799199618,0.04027440798172442,1
280,56.03336670003337,-0.9950544454562943,0.09630289698143202,-0.024339322312889253,-0.9902241382454853,-0.13272721293172268,0.042891059480544946,1
281,56.23336670003337,-0.9965120699445209,0.07805314720414756,-0.02951949637805848,-0.9905344646984161,-0.13122832582609517,0.04025668572427374,1
282,56.433366700033375,-0.9280806257426397,-0.3264688147678941,-0.17912136976139184,-0.989991394240638,-0.13678644334732426,0.03473482756351444,1
283,56.63336670003337,-0.9957925339312717,0.08076710425150688,-0.0432886155653371,-0.9883908225861857,-0.14746777109034195,0.0365627996336439,1
284,56.83336670003337,-0.9950387936141337,0.08954207227355462,-0.04335915700157377,-0.9876838593806191,-0.15151378845634106,0.03904056642279616,1
285,57.03336670003337,-0.9947898196898342,0.09428315833544773,-0.038780158531913814,-0.9879551778294072,-0.14576427514712126,0.05193594796380123,1
286,57.23336670003337,-0.9950613883069427,0.0895874799464074,-0.042742448894650585,-0.9872531111698207,-0.15190900377595215,0.04748630389183362,1
287,57.433366700033375,-0.9958181182802475,0.08467030662390596,-0.03431055932218074,-0.9857459256102422,-0.15990403581003107,0.052303627737196746,1
288,57.63336670003337,-0.9962678159008165,0.08345975894753706,-0.022020618443541064,-0.9842666359458322,-0.16378254196102865,0.06629078603138441,1
289,57.83336670003337,-0.9963213999072933,0.08566987589609716,-0.002083374838795777,-0.9835062699494659,-0.16191510162998435,0.08061585969423639,1
290,58.03336670003337,-0.9949950940702584,0.09953816459546261,0.008770208953294067,-0.9843544727166075,-0.14935042673565518,0.09349182893005886,1
291,58.23336670003337,-0.9938382144385659,0.11055139419234139,0.007999547718021525,-0.9859374562603771,-0.138935177991047,0.09286737133898533,1
292,58.433366700033375,-0.9928756341377093,0.11894617790735186,-0.007055628736976562,-0.9885559158038596,-0.13018909845400325,0.07621023535540583,1
293,58.63336670003337,-0.9937093120054947,0.10950341814649243,-0.023469227677984716,-0.9885317453227265,-0.14009643998067803,0.05637353983869272,1
294,58.83336670003337,-0.9956984114968767,0.08666294770760624,-0.032775094770655565,-0.9858052506126047,-0.1616418860794219,0.04538621519037458,1
295,59.03336670003337,-0.9947824081234455,0.09009127926256774,-0.04786984321003279,-0.9870606886043457,-0.15718305719710776,0.03169674339874987,1
296,59.23336670003337,-0.9917599752465304,0.10983229036541325,-0.06594709616116076,-0.9906502511524359,-0.1357452844112231,0.013612408006367704,1
297,59.433366700033375,-0.9875377036779774,0.13744558430804305,-0.07666808442010417,-0.9944156313936874,-0.10551882970487907,0.0018244499463327486,1
