,timeStamp,x_gaze,y_gaze,z_gaze,x_head,y_head,z_head,fixations_head
0,0.033366700033366704,-0.9931466998298977,-0.06278295844490867,0.09857957570352914,-0.9776366770579098,-0.018871404455720876,0.20945261460539707,0
1,0.2333667000333667,-0.9939399170949019,-0.07942567219642642,0.07599344578005414,-0.982438057609134,-0.036453850818805415,0.18299338709820093,0
2,0.43336670003336675,-0.9653584235985895,-0.22660971828197063,-0.12934894497989602,-0.9892732804440354,-0.05177477274940741,0.13659337284892248,0
3,0.6333667000333668,-0.9486596766132628,-0.27137779486327945,-0.16247741511719102,-0.9885755957242743,-0.122517892615735,0.08779326584309047,0
4,0.8333667000333668,-0.9526400916490504,-0.22504928889133252,-0.20452303868365138,-0.9855424614296131,-0.16257912597171933,-0.04768736224128713,0
5,1.0333667000333666,-0.844146583946239,-0.27334411313258006,-0.4611936042787874,-0.9612932147349513,-0.16997587541358955,-0.21684915743882163,0
6,1.2333667000333668,-0.9821989419056932,-0.08448896445409702,-0.16777023992595047,-0.9561057757855187,-0.1388226586743108,-0.2580504116411511,0
7,1.4333667000333667,-0.9727267553513256,-0.11373153149956347,-0.20215785457519672,-0.9347121423283946,-0.16266339641864436,-0.31599656714814756,0
8,1.6333667000333667,-0.7318597629916997,-0.5257460186694963,-0.43355785215690296,-0.8665962199878512,-0.28407958452530446,-0.4102557509148395,0
9,1.8333667000333667,-0.4410598315256016,-0.5600989345814553,-0.7012527422372955,-0.6623072986556224,-0.4926891957563842,-0.5644522996076992,0
10,2.033366700033367,-0.2226035850356503,-0.7305608150199695,-0.6455451490690902,-0.49989261596217316,-0.6388425435131975,-0.5847970392401829,0
11,2.233366700033367,0.030639870349716603,-0.9755189247523429,-0.2177705806462047,-0.31135364604297494,-0.8243878808009665,-0.4726981373818151,0
12,2.433366700033367,-0.07298234590152158,-0.985679029999822,-0.1520211399948079,-0.121451567524195,-0.9343585119715115,-0.3349980415648709,0
13,2.633366700033367,0.01592758290379953,-0.9938414095797444,-0.10966113581114105,-0.1067606289129796,-0.9525379891618599,-0.2850851580099989,0
14,2.833366700033367,-0.3104523081181824,-0.9438775433894444,-0.11275880218058587,-0.1969523984193492,-0.940239158833402,-0.2777770274034968,0
15,3.033366700033367,-0.38537900803996206,-0.9087560612068193,-0.16014194135829363,-0.4504165551308848,-0.8314945088587569,-0.3251796558854226,0
16,3.233366700033367,-0.8218230661573064,-0.15027040277224085,-0.5495686071660866,-0.7440329236351835,-0.5245016048996084,-0.4138998369226742,0
17,3.433366700033367,-0.7496803578640014,-0.20555184744061236,-0.6290689938684422,-0.832324750455751,-0.31841871426950075,-0.453701479148712,0
18,3.633366700033367,-0.8611801986415064,-0.07993503527548018,-0.5019751543685037,-0.8529334395290696,-0.20492475852604775,-0.4801149769338091,0
19,3.833366700033367,-0.848738704457494,-0.046872382384184966,-0.5267310426825493,-0.8476548488689271,-0.1302655144666743,-0.5143074498096731,0
20,4.033366700033366,-0.6621479613259227,0.19075517489608637,-0.724687891828122,-0.765936083255437,-0.038298374948983784,-0.6417750001702992,0
21,4.233366700033367,-0.4668916278837765,0.1141322973634424,-0.8769184833897505,-0.713798349226749,0.05547829474774059,-0.6981504676307615,0
22,4.433366700033367,-0.4409364951511854,0.0994952103776776,-0.8920065640765714,-0.7075257452775928,0.0456280234638886,-0.7052130197636499,0
23,4.633366700033367,-0.6352714334121965,-0.46118259099288345,-0.6194681780814123,-0.7530838753800857,-0.12558863352106922,-0.6458267351022428,0
24,4.833366700033367,-0.7063960816267023,-0.38294149602010086,-0.5952817706669078,-0.7695290684582496,-0.17860192328701413,-0.6131283436573111,0
25,5.033366700033366,-0.7831823521413799,-0.4042629765792289,-0.4724371376824625,-0.7931185550486147,-0.2047910790202,-0.5736057632131499,0
26,5.233366700033367,-0.7934754880850126,-0.4186908728832475,-0.44169514687453304,-0.803047234942298,-0.25772989718892375,-0.537299207654838,0
27,5.433366700033367,-0.7882158832767188,-0.3471514792785295,-0.5081353872591745,-0.7966493833323557,-0.30607701476255933,-0.5212164819633178,1
28,5.633366700033367,-0.8903944262077982,-0.39431817283630854,-0.22740040534071362,-0.8000217517497203,-0.3831791220155516,-0.4616697490400471,1
29,5.833366700033367,-0.9094154622113433,-0.37311941739010507,-0.1836992581841245,-0.834990928310622,-0.39504026813565574,-0.3830578757711103,1
30,6.033366700033366,-0.7977830279568032,-0.20456783157861108,-0.5671809610585495,-0.8393634635981112,-0.36488119826660903,-0.40290282591228643,1
31,6.233366700033367,-0.7422068400607775,-0.28017392438120614,-0.6087951861372015,-0.8378732222546654,-0.3212305084756396,-0.4413382193432451,1
32,6.433366700033367,-0.6975630944426907,-0.32791589659017545,-0.637084683566478,-0.8240855221243415,-0.3205545861229955,-0.4670415501222204,1
33,6.633366700033367,-0.5496088038222801,-0.603194365153672,-0.5780023534622514,-0.8090980519570932,-0.35971404035285554,-0.4647215849218342,1
34,6.833366700033367,-0.5112927409239926,-0.647465067269478,-0.5651271713023197,-0.7779152874038961,-0.44683070519970947,-0.4418032667534778,1
35,7.033366700033366,-0.4878337129323423,-0.7248041382596102,-0.48649484035125096,-0.7202352606849572,-0.5860583364269164,-0.37120990769453743,0
36,7.233366700033367,-0.33213328047735363,-0.9290906690892115,-0.1627206582174286,-0.4229539634460788,-0.8617131155665131,-0.28028637367147585,0
37,7.433366700033367,0.7136451047150055,-0.691133787831745,-0.11421362367797357,0.29183664573877927,-0.9347019781150645,-0.20288810786175757,0
38,7.633366700033367,0.9668244744733459,-0.09215816132210554,0.23823792490085946,0.7480658536203796,-0.6358007336837393,-0.1901444337718871,0
39,7.833366700033367,0.9666337578891775,-0.14909298675300656,-0.2083037671529605,0.9153442492518332,-0.34313484174669995,-0.21072110891191081,0
40,8.033366700033367,0.8987966378031617,0.001238315758209907,-0.43836408434977353,0.9562794890913813,-0.1514836800601966,-0.250164412773974,0
41,8.233366700033368,0.8955920410352916,0.06747325025205769,-0.439729753979264,0.9692668603825252,-0.008154932326923152,-0.2458764942871635,0
42,8.433366700033368,0.7343682161823658,0.5268818090933013,-0.42790055188992276,0.9316268379123791,0.2694010163915318,-0.24391500004836003,0
43,8.633366700033367,0.7521887234771297,0.5091973216511626,-0.41824659221221266,0.8897125208334006,0.3819815857031355,-0.25000339688891055,0
44,8.833366700033368,0.8041885392355648,-0.187959901023955,-0.5638722097862542,0.9347606435934849,0.144727379616866,-0.3244634413580821,0
45,9.033366700033367,0.7929187917691309,-0.3154475224052341,-0.5213181852456149,0.9084301357026313,-0.26566632085928904,-0.3227632174030807,0
46,9.233366700033368,0.7229576309412256,-0.6626165498545973,0.1956312135694114,0.8154003264341824,-0.5409455274239168,-0.20615587309385497,0
47,9.433366700033368,0.5804544458406398,-0.7858045795720197,0.21350362766818953,0.724151532039468,-0.6893827128262872,0.01886886062167615,0
48,9.633366700033369,0.5813193355488283,-0.8004537048842973,0.1460879750495268,0.5957987357730363,-0.7907746428334195,0.14035430418383782,0
49,9.833366700033368,0.04074476024896617,-0.9924944892599944,0.11530200909263143,0.2890812895722115,-0.9462850033715552,0.14483335393949456,0
50,10.033366700033367,-0.21808175710521555,-0.9229562312391182,0.31716264350453566,-0.12505835212298805,-0.9604133661026238,0.24893086344547613,0
51,10.233366700033368,-0.558981779022607,-0.8172359596305236,0.14023108431264045,-0.3789325756835894,-0.8932910728336136,0.241746069836869,0
52,10.433366700033368,-0.5513918172558083,-0.5549654184742353,0.6228807656053079,-0.5976292699399071,-0.7248151514447979,0.34275684084661034,0
53,10.633366700033369,-0.46863489245889145,-0.42720162076990786,0.7732270771135782,-0.6783794118668501,-0.5583516895428249,0.47754032744875025,0
54,10.833366700033368,-0.5351021076348091,-0.34191767122963485,0.7725011589024889,-0.6922531410482107,-0.4732680714691309,0.5447962199178478,0
55,11.033366700033367,-0.9683485013033853,-0.22741797060425314,0.10287004748579875,-0.8508419359188986,-0.32861434592377015,0.40997635509242936,0
56,11.233366700033368,-0.9834795173745651,-0.18023103766913298,0.016876372993050122,-0.9458733060965825,-0.1468753308925274,0.2893982135209746,0
57,11.433366700033368,-0.9826051054432028,0.14597138120047268,-0.11480227622908176,-0.9865555624439303,0.05278666680727414,0.15466638296125845,0
58,11.633366700033369,-0.9183404532311584,0.365421206963919,-0.1520465503068832,-0.9715130314789553,0.2286051580131851,0.062466882396492375,0
59,11.833366700033368,-0.8691208143684083,0.4586780970523595,-0.18504975902719137,-0.917015226758255,0.3987133944835527,0.010521547077736448,0
60,12.033366700033367,-0.4745699935095726,0.860440702377416,-0.18554007371073153,-0.7143312754320249,0.6996266962568273,-0.015915867064474135,0
61,12.233366700033368,-0.31015351262326446,0.9215272975277912,-0.23364982028363787,-0.4778340877933319,0.8742308863064855,-0.08599384844563764,0
62,12.433366700033368,-0.2849977471820399,0.9303734503813572,-0.23061120295131082,-0.3545136211634769,0.9285853909844615,-0.10976913983353266,0
63,12.633366700033369,-0.3336711149122694,0.9145894535332475,-0.22845069174541635,-0.359556524497064,0.9250581034736792,-0.12241981412039724,0
64,12.833366700033368,-0.7769735936181817,0.615312307818878,-0.13305186457413787,-0.43958300943425516,0.8888579005786876,-0.12922232932265026,0
65,13.033366700033367,-0.8016548895634449,0.5752672958105819,-0.1625330009868822,-0.5975188766546925,0.7893759751214265,-0.14091402322839214,0
66,13.233366700033368,-0.882107466735864,0.445019652998677,-0.15441478418135257,-0.7561644614730337,0.6359503784233114,-0.15421550955868232,0
67,13.433366700033368,-0.9824487760638154,0.1678188802378699,-0.08143233907004345,-0.887022304682161,0.43827312003297014,-0.14528628033270585,0
68,13.633366700033369,-0.9975968060104766,-0.0642627371277825,-0.025901993254219026,-0.9656986697617118,0.23154438119519852,-0.11752990580015463,0
69,13.833366700033368,-0.978814652413649,-0.14971405881072586,-0.1396695271516532,-0.9938214158160767,0.04738167228633356,-0.1003691715452496,0
70,14.033366700033367,-0.9745654189993854,-0.2181357142458422,-0.05137172628021149,-0.9949729117982944,-0.06568746930260058,-0.0755914093283336,0
71,14.233366700033368,-0.971797396766422,-0.2356439788279158,0.009040734491980966,-0.9898746201677648,-0.1341004238873575,-0.04653292018511267,0
72,14.433366700033368,-0.9052629603738068,-0.42467440576000404,-0.012272801947369731,-0.9777197475493962,-0.20641564889553735,-0.038166413808210155,0
73,14.633366700033369,-0.8099548798663068,-0.5861677605558544,-0.019505103580636018,-0.9499824688223969,-0.310477083415612,-0.03372372464362694,0
74,14.833366700033368,-0.8279876489119216,-0.5607460905891876,0.0005245362251734117,-0.9146768197076482,-0.40308016973576466,-0.029877956009234246,0
75,15.033366700033367,-0.8456419351885797,-0.5335324790202004,-0.015258154576285295,-0.9079701298684333,-0.41796863025180053,-0.029874192744473872,0
76,15.233366700033368,-0.9950640030240491,-0.0033460612802923245,-0.09917879692587608,-0.9503664809400137,-0.30665092067863603,-0.052619053133248515,0
77,15.433366700033368,-0.9867623336766274,0.10213702915044562,-0.12596874260457513,-0.985975609118737,-0.1537647183542158,-0.06487302684771105,0
78,15.633366700033369,-0.9804815112650062,0.15214111554710497,-0.12453548501360011,-0.9969740972588551,-0.0324956226891835,-0.07061645630399078,0
79,15.833366700033368,-0.960591606306856,0.2544178262511536,-0.11196131286499066,-0.9950603765851158,0.07110680430087823,-0.0692724283709233,0
80,16.033366700033366,-0.9721515718945641,0.21176327394851752,-0.10038743481897237,-0.9891163463471244,0.13540963392301478,-0.0575593991434135,0
81,16.233366700033365,-0.9731495550102643,0.2098563339832866,-0.09455296225089921,-0.9866102430042992,0.1586975478346781,-0.03762069523889249,0
82,16.433366700033368,-0.9962005976277151,0.023528368009031502,-0.08384977748935803,-0.990844607935521,0.13399043034636743,-0.016538666835612066,0
83,16.633366700033367,-0.9313940875663508,-0.3545589673106709,-0.08241961141643063,-0.9999543682425664,0.009496662000248979,-0.0010367465761032093,0
84,16.833366700033366,-0.8134668655386424,-0.5805323365653111,-0.03540995443031469,-0.9586117847815433,-0.28363182970941336,0.024828033624003355,0
85,17.033366700033366,-0.6844621151204363,-0.7283345602740541,-0.03225494187343713,-0.8862594386119722,-0.4602096908890166,0.05245233915687546,0
86,17.233366700033365,-0.6988395624758402,-0.7141597444908764,-0.03998906434642501,-0.8195518433592804,-0.5716987936549478,0.038668661470020224,0
87,17.433366700033368,-0.5434813220646855,-0.8328664030264163,-0.10469769470557093,-0.7860803988495485,-0.6181044971183467,0.00494339828566404,0
88,17.633366700033367,-0.5045930740315383,-0.8621547931127395,-0.04555153512377142,-0.6947145691641816,-0.7188870007262529,-0.023940500785042482,0
89,17.833366700033366,-0.24983718685034323,-0.9542053143540337,-0.1645405668071759,-0.5957613608069207,-0.8027114945134339,-0.026882290555228564,0
90,18.033366700033366,-0.20248883650882604,-0.9668015244088731,-0.15586238638613673,-0.5224758493819325,-0.8517631120528237,-0.03896906155807598,0
91,18.233366700033365,-0.5116131878516874,-0.855155828429021,-0.08342934208124023,-0.5519958415143222,-0.8333307775450559,-0.029332680529539815,0
92,18.433366700033368,-0.7845449537246829,-0.6200332518929446,-0.0069269136125554185,-0.7164381888734144,-0.6976439988522013,0.003028595267080632,0
93,18.633366700033367,-0.9931012074402727,-0.04481441885444022,-0.10835893891789165,-0.8912408354568173,-0.45308144000249023,0.02017379338409488,0
94,18.833366700033366,-0.9893744329922994,0.04292154675044355,-0.13890994264528322,-0.983927749183225,-0.1775797144701697,0.018751783806504593,1
95,19.033366700033366,-0.9917101223741572,0.07990048872488403,-0.10063272371430271,-0.9993767151521056,-0.02755322479601048,0.022068099490622075,1
96,19.23336670003337,-0.9932943471357072,0.05443621086305583,-0.10199528859276893,-0.9997116853145052,-0.009766416076423588,0.021935436231221357,1
97,19.433366700033368,-0.9957362945261652,-0.04709537728911761,-0.07931744575626243,-0.9993662939512438,-0.030057054204332398,0.019067878925403667,1
98,19.633366700033367,-0.9982940026921644,-8.514076903567151e-06,-0.05838736264268063,-0.9990052133091271,-0.04115869885320875,0.017162321809618544,1
99,19.833366700033366,-0.9984440729918225,0.009029622145852408,-0.055026348519628496,-0.999255520256489,-0.0323484835320478,0.021023340603029093,1
100,20.033366700033366,-0.9988808946443776,0.01340429139776854,-0.04535728482362263,-0.9992939532101766,-0.02705187001732141,0.02607280970942353,1
101,20.23336670003337,-0.9992432484625957,0.017424904409050552,-0.03477503570456985,-0.9991160620438204,-0.022234320512573683,0.03567533542089189,1
102,20.433366700033368,-0.9865634988194231,-0.08668146822151211,-0.13848749352971051,-0.9987093921296362,-0.04113152401245649,0.029795096987020743,1
103,20.633366700033367,-0.9593341356069779,-0.2819808934520334,-0.012837133138122419,-0.9949060016996424,-0.09660316363919122,0.02880757811638035,1
104,20.833366700033366,-0.8747588919177169,-0.4844771271973934,-0.008876611597271267,-0.9845440156896175,-0.17264411313100925,0.02944641524820511,1
105,21.033366700033366,-0.8508215822293298,-0.5254546549270923,0.00020205996667966078,-0.9688455429657213,-0.2457901863367244,0.03042200151231569,1
106,21.23336670003337,-0.8848349519238923,-0.4647066551463784,-0.03338910775250279,-0.9533564773217346,-0.3001627676545579,0.031839284895379454,1
107,21.433366700033368,-0.8946245570323492,-0.44383782232249136,-0.05152561916854288,-0.9517620000813601,-0.30537742739063045,0.02989518425113984,1
108,21.633366700033367,-0.9967712729180973,-0.027948313446351826,-0.07527231403869745,-0.9588099079190886,-0.2824656339625615,0.029945385392694986,1
109,21.833366700033366,-0.9965323873521376,0.005084760088925622,-0.08305026293207947,-0.9723721209608073,-0.23160719901048937,0.029164426013501218,1
110,22.033366700033366,-0.9949505438157162,0.057553641375828114,-0.08222526208649986,-0.9867611789160787,-0.15996913156147125,0.026688063467013374,1
111,22.23336670003337,-0.9837116273973883,0.15754594323313587,-0.08654888730632776,-0.998203175198847,-0.05524701096301075,0.02319889658137072,0
112,22.433366700033368,-0.9600383787263123,0.26390399203049847,-0.0931718539201653,-0.9977759830946901,0.06547446085768172,0.012497301101478425,1
113,22.633366700033367,-0.9469856428002096,0.3097913861076253,-0.08513218794199102,-0.9875461333920172,0.1567308660922548,0.013713862929449571,1
114,22.833366700033366,-0.9647758709259174,0.24678574277040913,-0.09112802008380982,-0.9797557578554003,0.19997040931962817,0.009512641364559928,1
115,23.033366700033366,-0.9970602954036001,0.04172721419413622,-0.06426201774985683,-0.980228543484905,0.19770775626314338,0.007977822438206095,1
116,23.23336670003337,-0.998083454351371,0.02226675163386409,-0.05773742219489095,-0.9865373145788776,0.16306552218337766,0.012400097522164229,1
117,23.433366700033368,-0.9833986572086024,-0.18062664458055191,0.01735212574552677,-0.9950127293925713,0.0977368139924215,0.01992946405090433,1
118,23.633366700033367,-0.9503190616182692,-0.3111517844562708,0.00884579870058593,-0.9960092623478939,-0.08061073003287715,0.03830743427548842,0
119,23.833366700033366,-0.8179969514369362,-0.5751872682063762,-0.006371336842840632,-0.9524310026829768,-0.29937011655311185,0.057032608596097226,0
120,24.033366700033366,-0.6618670711843578,-0.7467429138402933,-0.06562774345616748,-0.8944920267881691,-0.44297007356472445,0.06051056055314644,0
121,24.23336670003337,-0.6062288629446044,-0.7922814570537807,-0.0691133745495817,-0.840723840136028,-0.5390007619001425,0.051590728798849954,0
122,24.433366700033368,-0.70519032824817,-0.7042579842736605,-0.08202007395777534,-0.8346996598029871,-0.5490721231919086,0.04238256078043734,0
123,24.633366700033367,-0.8545587919271515,-0.5012766745363471,-0.13583433551863439,-0.8865396631669902,-0.46153261249281585,0.03217255409998307,0
124,24.833366700033366,-0.9860949597765032,-0.03383584806995525,-0.1627017691629795,-0.9654762037703349,-0.2587389615369615,0.030163715553587284,0
125,25.033366700033366,-0.9600565078627662,0.2613817734699538,-0.09985524627205225,-0.9999925809769097,-0.0029063621229410987,0.0025280526792750796,0
126,25.23336670003337,-0.9657332801057193,0.2313947851623589,-0.11754014248721094,-0.9800680035359803,0.19780551153829032,0.018430628043367713,1
127,25.433366700033368,-0.963389391493332,0.24389517567553995,-0.1113374314429115,-0.9570471136531452,0.28936878481455075,0.01807010301947551,1
128,25.633366700033367,-0.9707029110812759,0.21229746211802414,-0.11254175223703786,-0.9525270705169196,0.3043555963772155,0.007736335458406524,1
129,25.833366700033366,-0.9996846879649862,0.003411351658289179,0.02487744617543574,-0.9587111344276965,0.2843614795855553,0.0033925878431394748,1
130,26.033366700033366,-0.9998986317511105,-0.010867494282795018,0.009199118994254291,-0.9667646784923362,0.2554859793915361,0.009642134305083677,1
131,26.23336670003337,-0.9992715670851255,-0.038155441315538774,-0.0007053461944223408,-0.9783003612129116,0.20636287449922497,0.018513975237751074,1
132,26.433366700033368,-0.9896259645457263,-0.14336730145488802,-0.009288012192302308,-0.9943980008166685,0.10361211593499368,0.020908022462353508,0
133,26.633366700033367,-0.9321751964743362,-0.338423014396575,-0.12852729828627313,-0.9984250592037507,-0.053480066845913665,0.016949442590939987,0
134,26.833366700033366,-0.8044852072555201,-0.5798729504222174,-0.1286503504685292,-0.9564703654175074,-0.29163089981964774,0.010763751598883051,0
135,27.033366700033366,-0.7690708403128759,-0.619479665640332,-0.15740071930772703,-0.8788257976037537,-0.47711182583274003,-0.005433517891348221,0
136,27.23336670003337,-0.645711402716132,-0.7353005062017853,-0.20588819777190714,-0.8201604843651401,-0.5714724128838481,-0.027496567033935552,0
137,27.433366700033368,-0.670514373227511,-0.7041144903971487,-0.23373758728129715,-0.8299377847463374,-0.5548251015309217,-0.058072197836352535,0
138,27.633366700033367,-0.9434938144963094,-0.23542625295820413,-0.2332250017156465,-0.9047978243038569,-0.4196799544971255,-0.07217778694513614,0
139,27.833366700033366,-0.979149016384911,0.12860082576573117,-0.15725467027987836,-0.9904936190385146,-0.12827994930968203,-0.049665332467343296,0
140,28.033366700033366,-0.9709590229303737,0.1629319340779643,-0.17519064086790762,-0.9988943644499936,0.00527261348060298,-0.04671453967586514,0
141,28.23336670003337,-0.9695746394649276,0.17059854199911625,-0.17555955107664103,-0.9968651770270707,0.0675541677877177,-0.04118559511888097,0
142,28.433366700033368,-0.9623272161535303,0.22016309819821805,-0.15954478757376714,-0.9890214183274784,0.1464331508342443,-0.01984858751293736,0
143,28.633366700033367,-0.9444637044397401,0.3005269654357889,-0.132935525883486,-0.9749778276216293,0.2222831767337714,-0.0029025828759418567,0
144,28.833366700033366,-0.914077967781268,0.3866648682860668,-0.12227734234184945,-0.9480991102143996,0.3179696281046384,0.0018419591910866233,0
145,29.033366700033366,-0.7166782660051794,0.6973966282384413,-0.0031946764253342327,-0.8993617524292516,0.4371704582541999,0.005516221278933627,0
146,29.23336670003337,-0.6327498391604052,0.7729363238413575,-0.04687302346861743,-0.8290912777517105,0.5591115898457957,0.0013723177994976064,0
147,29.433366700033368,-0.7252300483342685,0.6609260785320761,-0.19291992045739195,-0.7684895255116282,0.6397506697156766,-0.01195532422212527,0
148,29.633366700033367,-0.7268304018437988,0.6509396546690073,-0.21907791521505687,-0.7544320543442213,0.6559604359867504,-0.02341328251293554,0
149,29.833366700033366,-0.741812160912498,0.6248599016824448,-0.24344367149658255,-0.7752923028402888,0.6304896814262715,-0.0374780838837958,0
150,30.033366700033366,-0.779744848089878,0.5683476834620279,-0.2626383113345039,-0.8284137401239944,0.558219518637324,-0.0460613089923615,0
151,30.23336670003337,-0.9984948873357813,-0.028386220242769027,-0.046927416982341194,-0.9183114674913717,0.3936606682971292,-0.04165725518683922,0
152,30.433366700033368,-0.981963722020518,-0.1317404213284443,-0.13561603896226598,-0.9775954042725867,0.2068125930930876,-0.03918898931117037,0
153,30.633366700033367,-0.9709608159023069,-0.19289797241970347,-0.14151136427401634,-0.9964242746579268,0.07417075318656596,-0.04046435770109969,0
154,30.833366700033366,-0.9371303382785011,-0.3482073318672432,-0.023203084103582412,-0.998932192101264,-0.02133533255060302,-0.04097900887915827,0
155,31.033366700033366,-0.9366250112000786,-0.3414943652919009,-0.07819966028273129,-0.9943208372002086,-0.0966138475588493,-0.044630003017607424,0
156,31.23336670003337,-0.9260926153514891,-0.36524711796581916,-0.09458863890077897,-0.9840837741416314,-0.1725478015701796,-0.042501548730145486,0
157,31.433366700033368,-0.9534078841265989,-0.2688740797085611,-0.13682154708274655,-0.9685707506367844,-0.24401357640808113,-0.0482501351234762,0
158,31.633366700033367,-0.9409583150936733,-0.30644249427571013,-0.1438417427527789,-0.948162875948052,-0.3136788137962626,-0.050919175654054766,0
159,31.833366700033366,-0.8944477164512159,-0.42770995722403193,-0.1304893674849502,-0.9434419301786767,-0.3286144353381201,-0.04393036840434816,0
160,32.03336670003337,-0.9957441445468338,-0.030527765145942302,-0.08695777225693171,-0.9685415743679588,-0.24703190921310045,-0.030040881334707822,0
161,32.23336670003337,-0.9675279715133006,0.25063486284527164,0.032738201934279565,-0.9918945973037255,-0.12618382618856266,-0.01492480646759265,0
162,32.43336670003337,-0.9687490300007302,0.24448155431844423,-0.04188181551320767,-0.9999658862768913,-0.005791565588680534,0.0058893166414778235,0
163,32.63336670003337,-0.9837319490269439,0.1553557490427441,-0.09020002052670725,-0.9951209531285299,0.09581630993952146,0.02352707789207795,0
164,32.83336670003337,-0.8955480064627579,0.44202540697517423,-0.05106180283746176,-0.9771952703746329,0.2087770425403386,0.03874983955525322,1
165,33.03336670003337,-0.8695717967368287,0.4908045807267592,-0.054366845204717414,-0.9471791878999122,0.31716606857242385,0.04751074568532324,1
166,33.23336670003337,-0.9204687144719375,0.3800887616193075,-0.09093887490551396,-0.9395644395286542,0.33918703876849093,0.04659202404562683,1
167,33.43336670003337,-0.998485291282839,0.0027039731926047214,-0.05495281267413104,-0.9461269595983235,0.32010315262159234,0.04876215748867241,1
168,33.63336670003337,-0.9982570688719137,-0.023669282864604072,-0.054060979420750506,-0.9608416752344097,0.2724566915843844,0.05050372603704898,1
169,33.83336670003337,-0.993978087248948,-0.028568276471537892,-0.1057894874189715,-0.9828850145528187,0.17896231639593835,0.043698254858812666,1
170,34.03336670003337,-0.9885476287047539,-0.07998572262494737,-0.12796823808419389,-0.9966615514563437,0.07186001887714015,0.0387542195846001,0
171,34.23336670003337,-0.9526463942688115,-0.2864058354476822,-0.10215940929815169,-0.9989678101086237,-0.025922130127607964,0.03730090530307152,0
172,34.43336670003337,-0.9442342885757342,-0.3116800877076336,-0.10619383788355674,-0.9918025015435956,-0.1207329891912616,0.04184905318891527,0
173,34.63336670003337,-0.9370349655525329,-0.32759125929982974,-0.12103487167884808,-0.9813022406419303,-0.18884378629992601,0.03720130222230507,0
174,34.83336670003337,-0.9728510381863905,-0.1903014831113298,-0.1317049848156512,-0.9817573707785338,-0.18676117976291176,0.035675294751213595,0
175,35.03336670003337,-0.9864917250815575,0.15092650467017335,-0.06368097466007698,-0.9947384763697774,-0.09174932371448435,0.045578780451749734,0
176,35.23336670003337,-0.9602058662537285,0.27218850158994917,-0.06259484015592445,-0.9967030071235714,0.051728915629262816,0.06250787853263622,0
177,35.43336670003337,-0.9183019487498083,0.3925573360811253,-0.051188561331563937,-0.9807427839611959,0.17891739438283064,0.07830809469845441,0
178,35.63336670003337,-0.9454039145426103,0.3230678189445323,-0.04287916428677278,-0.9631688962656784,0.2547536471424488,0.08605961035222089,0
179,35.83336670003337,-0.9948113016836149,0.08182846635937135,-0.06045309037448283,-0.9622454442400544,0.2581656533702171,0.08622180964923981,0
180,36.03336670003337,-0.9976600233900039,0.03390120746109851,-0.05937327565611068,-0.9727016412844387,0.21535497850258953,0.0864508546904457,0
181,36.23336670003337,-0.997707471979794,-0.0460742028913235,-0.04956781398869485,-0.9861702945800177,0.14026336028681008,0.08828555855299174,0
182,36.43336670003337,-0.9912736660620587,-0.12405660871633464,-0.044569909195429316,-0.9945028847385347,0.04933460375007219,0.09235858985257683,0
183,36.63336670003337,-0.9818679566819004,-0.18232442929122986,-0.051895261102891097,-0.9957848407615109,-0.017640411984724207,0.09000759287183259,0
184,36.83336670003337,-0.9668193814469853,-0.25008823295603017,-0.052116786119247194,-0.9933719735768569,-0.07160280021030825,0.08991752395424764,1
185,37.03336670003337,-0.9042911898578669,-0.4193812493555308,-0.07985494120239432,-0.9889511916590583,-0.12167533074215736,0.08467971660861381,1
186,37.23336670003337,-0.8724743624278708,-0.48320821346371245,-0.07278948651617073,-0.9783384070443528,-0.19153240920722925,0.07854487586846706,1
187,37.43336670003337,-0.9767843008140725,-0.006188968337060523,-0.21413576617203958,-0.9720519125319422,-0.22555592822510584,0.06511223069058886,1
188,37.63336670003337,-0.9739957424961581,0.035555221098869286,-0.22375906652461738,-0.9821549724917991,-0.18146410588095344,0.049420524951278105,1
189,37.83336670003337,-0.9992486933037434,0.012611096771099067,-0.03664708950232238,-0.9910663000259564,-0.12316577171166003,0.0511642612722209,1
190,38.03336670003337,-0.999818785563422,0.008242363915731448,-0.01715982143161259,-0.9939216711475841,-0.08842975268714467,0.06557355002502468,1
191,38.23336670003337,-0.9927879033023312,0.11888652498394438,-0.01543286213905013,-0.9953347605912523,-0.058895085303137674,0.07642043761907145,1
192,38.433366700033375,-0.940887385646907,0.3387040643589652,0.003237949543576535,-0.9952499509671481,0.005994426153703305,0.09716790599255055,0
193,38.63336670003337,-0.9292943390473846,0.36928211893124385,-0.006538199456696108,-0.9891055831214701,0.08971718208144991,0.11670892286925166,0
194,38.83336670003337,-0.9495285209781688,0.3120527648171332,-0.031916450601443935,-0.9823602268179819,0.1384292810267194,0.12572079748613268,0
195,39.03336670003337,-0.9945966480502269,-0.0891745609615665,-0.05315454227594645,-0.993147303622679,0.04713918305000573,0.1069407814090593,0
196,39.23336670003337,-0.848704655106307,-0.5191136420469734,-0.10110111295931075,-0.9859330837153918,-0.14334466904913215,0.08595498991130607,0
197,39.433366700033375,-0.7784331486629732,-0.620181361070653,-0.09704077721866135,-0.9427482899451716,-0.32738938771365234,0.06357555047291918,0
198,39.63336670003337,-0.6884798607639583,-0.7194049061893997,-0.09193509815659269,-0.8875772864036169,-0.45762637229715636,0.05276991603685619,0
199,39.83336670003337,-0.6681709344565233,-0.7381942091522311,-0.09282732314145818,-0.8546641825772519,-0.5170884314980522,0.04656918541742287,0
200,40.03336670003337,-0.7374070355763647,-0.6709342481389007,-0.0779621610575689,-0.8399327220037242,-0.5408448545745915,0.04471985898461364,0
201,40.23336670003337,-0.7561309813377024,-0.6500652672921946,-0.0753729880103649,-0.840387055795906,-0.5398748393673839,0.04779910322098637,0
202,40.433366700033375,-0.8183406477725852,-0.5697807812436896,-0.07528907974252907,-0.8894270362654108,-0.4548400819586241,0.04516687950257152,0
203,40.63336670003337,-0.9981665238289852,-0.059100944266770566,-0.013064038194067255,-0.9495969548243292,-0.3088321114515672,0.05374337470542796,0
204,40.83336670003337,-0.9852450308110893,0.17106470970224077,0.005393918477673397,-0.9947291767742015,-0.071189223662971,0.07379674320986514,0
205,41.03336670003337,-0.8825542457743367,0.4643601454905627,-0.07394361734237281,-0.9776554106852581,0.19440772820202867,0.079972077459358,0
206,41.23336670003337,-0.7254557647267501,0.6874477804309372,-0.033607775964853606,-0.918636077544418,0.38727989683227754,0.0782434568726765,0
207,41.433366700033375,-0.6458163192865282,0.763434436025146,-0.009441590658781288,-0.8392963570385695,0.5334991412319191,0.10469141018532079,0
208,41.63336670003337,-0.7087599413383175,0.7032827370570146,-0.05525158198367077,-0.7906420380358145,0.6047133238278133,0.09595292426858049,0
209,41.83336670003337,-0.8823105193448312,0.4639236211894932,-0.07939156854403465,-0.8234641502221136,0.5601978220740575,0.08991770372098476,0
210,42.03336670003337,-0.9036196558141144,0.4197253563005444,-0.08545257693459418,-0.8631659333009583,0.4968114536504514,0.09012741597544702,0
211,42.23336670003337,-0.9419094726670849,0.3272871229476004,-0.07542999703497413,-0.9055177152534669,0.41329465759384776,0.09604787018214142,0
212,42.433366700033375,-0.9644883782407152,0.2573120948157427,-0.05960414499118014,-0.936653205778645,0.33373404502077075,0.10631255475559716,1
213,42.63336670003337,-0.9768689184849046,0.20967919076664132,-0.04197324216187846,-0.9525094936311669,0.281352131648136,0.11647593124567882,1
214,42.83336670003337,-0.9796257604919523,0.19702457807686238,-0.038918954433523,-0.9602966304797088,0.25333858719892327,0.11683296506282488,1
215,43.03336670003337,-0.9835091832033871,0.17678394129393424,-0.038172302199232,-0.9628890364958975,0.24369565031456705,0.1160048853012766,1
216,43.23336670003337,-0.9831071278909986,0.1785804616347391,-0.04011725080604597,-0.9626878237131844,0.2462296020557811,0.11226369469167125,1
217,43.433366700033375,-0.9965309549868357,0.08018080938680085,0.02229559506051822,-0.9542281665772218,0.2726318704571272,0.12296531755630163,1
218,43.63336670003337,-0.9994076859650413,-0.03312564016528134,-0.009325727727222179,-0.9562747532326158,0.2598057542445109,0.13431145294181207,1
219,43.83336670003337,-0.9963116310047593,-0.08575109804879114,0.003143741093523156,-0.9701357118445602,0.18475325581273433,0.1571716738806434,1
220,44.03336670003337,-0.9992797150942513,-0.005376044380644369,-0.037565265179013464,-0.9768218670927388,0.10295369382484224,0.18766879574739323,1
221,44.23336670003337,-0.9991468614912117,0.03246907660729257,-0.025520741300584137,-0.972908734554877,0.09050350480629532,0.21273859509878568,1
222,44.433366700033375,-0.9982316674518403,0.057089110621173535,-0.016564164476429506,-0.9686965005004735,0.08563466664296716,0.23301028686966588,1
223,44.63336670003337,-0.9985238681496831,0.0529630541069525,-0.012041579425421082,-0.9680596086997548,0.07687991395565552,0.23864214387707958,1
224,44.83336670003337,-0.9980925576740179,0.05943510161230916,-0.016694760018400385,-0.9686736609239358,0.07949109016210143,0.23527113128699148,1
225,45.03336670003337,-0.997379366556933,0.05548512231744275,-0.04643059732449492,-0.9754043174016309,0.06769318357181961,0.20977142439372018,1
226,45.23336670003337,-0.9970340346008877,0.05592478248723487,-0.05287298507963553,-0.9765930149702382,0.06129174564954914,0.2061780905590386,1
227,45.433366700033375,-0.9970106024705069,0.038795654873270274,-0.06681882761880317,-0.9803840838555394,0.04118821061385638,0.19274485577872974,1
228,45.63336670003337,-0.9963575988081632,0.03638172649245208,-0.07712266381978529,-0.9825567956394926,0.035233351200263954,0.18259450787428225,1
229,45.83336670003337,-0.9964053913294315,0.02597378872415759,-0.08063286196678954,-0.983937373241909,0.024507769591048955,0.1768236827110118,1
230,46.03336670003337,-0.9957562653590623,0.010469515569917735,-0.09143221118349966,-0.9865784198908031,0.010537149628894325,0.16294781337429762,1
231,46.23336670003337,-0.9937936082465842,0.027137708932458822,-0.10787867705034321,-0.9882743926123799,0.037284799986726784,0.14806609536481238,1
232,46.433366700033375,-0.9911832526574498,0.029026305070413882,-0.12927967073502947,-0.9916466792068999,0.027746309927778094,0.12596430408381457,1
233,46.63336670003337,-0.9895191040658436,-0.002772246358405793,-0.1443754042032746,-0.993954290023253,0.0027222811257654033,0.10976091531070543,1
234,46.83336670003337,-0.9925309084823597,0.019204659314223663,-0.12047230705770556,-0.9913088676457493,0.021662545691022866,0.12975925031028354,1
235,47.03336670003337,-0.9927424188590499,0.0416674868509845,-0.11281094954571576,-0.9899089702547784,0.04036061518046555,0.13583538328204114,1
236,47.23336670003337,-0.9927235070903956,0.04927414504976444,-0.10987309543177735,-0.9891546482638469,0.044912229000102936,0.139842674117266,1
237,47.433366700033375,-0.9921433241500099,0.054575420546272464,-0.11257507635691782,-0.9892122762089595,0.047880630565069214,0.1384431934555849,1
238,47.63336670003337,-0.9912486091744924,0.06359763924244233,-0.1156785852801755,-0.9887670426195139,0.059501039928614635,0.13711076426332883,1
239,47.83336670003337,-0.9897186139374582,0.08521361440595043,-0.11487256045544704,-0.9868120988263402,0.08230029371462495,0.13938630945842487,1
240,48.03336670003337,-0.9882724935295736,0.1083911292325932,-0.10755854980671108,-0.9831002960605704,0.10768076185406117,0.1480495235120616,1
241,48.23336670003337,-0.9877658139946851,0.11780028108002194,-0.10218507954141257,-0.9810919885197789,0.11947253185228812,0.15226563694776957,1
242,48.433366700033375,-0.9878651265595657,0.11836496158908946,-0.10055957237114273,-0.9807501422127786,0.12075136229675401,0.15345444618222345,1
243,48.63336670003337,-0.9868431168332412,0.12418975079974623,-0.1035256903147768,-0.9801566549105392,0.12801617938895202,0.1513432841233375,1
244,48.83336670003337,-0.9863215396067504,0.13034739487862182,-0.10089289943364137,-0.9790552006111805,0.1327059968597723,0.15440217794336825,1
245,49.03336670003337,-0.9860105923019904,0.12990241388321014,-0.10444364382571704,-0.9799797327311686,0.12966009457266997,0.15108932229497077,1
246,49.23336670003337,-0.985985009762997,0.12303635374317229,-0.112674824962135,-0.9824256359730807,0.11936396580026667,0.14349952421984255,1
247,49.433366700033375,-0.9849322701263721,0.12300525774198467,-0.12156533153633654,-0.9839208540225931,0.11796037643337604,0.13410854786756737,1
248,49.63336670003337,-0.9860861193128609,0.11296956974821157,-0.12195098035442997,-0.9852907072743802,0.10781239736945077,0.13258472435466936,1
249,49.83336670003337,-0.9859082385281113,0.10851476176796598,-0.12731650199734063,-0.9864960571638062,0.10374656477920867,0.12673665411702512,1
250,50.03336670003337,-0.9866434631737839,0.10788251204800589,-0.12204933498653134,-0.9858677960859514,0.10367493700017293,0.13159101822935731,1
251,50.23336670003337,-0.9866527458576171,0.11159695874033791,-0.11858531903879227,-0.9850148703130903,0.10736785653175916,0.13497351090440454,1
252,50.433366700033375,-0.9872369213481484,0.10950225160263022,-0.11563960403332683,-0.9845744900569331,0.10651291545494224,0.1388094822784781,1
253,50.63336670003337,-0.9869539599755286,0.11322584456418261,-0.11446304648815876,-0.9837485598462785,0.11160969440344588,0.14064866553061506,1
254,50.83336670003337,-0.9865955532143571,0.11485066733862695,-0.1159247108667045,-0.9835526155626706,0.11373409930452653,0.14031680966732954,1
255,51.03336670003337,-0.9868799608456658,0.11365851707520817,-0.11467207322413984,-0.9833555845039994,0.11243148156794762,0.14272685934060814,1
256,51.23336670003337,-0.9877763385835714,0.11149951041992731,-0.10893008817838407,-0.9826545401480444,0.10988188850509967,0.14938549228418482,1
257,51.433366700033375,-0.9880249206798124,0.11012520820616663,-0.10807032262929041,-0.9824358345228346,0.1093754487378587,0.15118479506489224,1
258,51.63336670003337,-0.9879933378044103,0.11078178415642424,-0.10768732865671825,-0.9821042895323333,0.11046367833070693,0.15254160170865186,1
259,51.83336670003337,-0.9877369814102817,0.1129451348575071,-0.1077917068541222,-0.9815772890746721,0.11337033886468613,0.15379594220435133,1
260,52.03336670003337,-0.9904304437405601,0.0035787600168428204,-0.13796640384028058,-0.9817518771290612,0.1122985705900975,0.1534675301064883,1
261,52.23336670003337,-0.9894859376366625,-0.00014493691496966787,-0.14462903654725098,-0.9837836945401182,0.1021350504977324,0.14743837294551607,1
262,52.433366700033375,-0.9889341975944064,0.0053150928806711935,-0.14825957849655955,-0.9842804181990255,0.1033839256355989,0.1431915579569006,1
263,52.63336670003337,-0.9887643457780343,0.013917789997689927,-0.14883334182808783,-0.9837488794132525,0.11178842211714857,0.1405044160648647,1
264,52.83336670003337,-0.9885955387287806,0.025317982609367063,-0.14845154280823156,-0.983552964894024,0.11468311873233787,0.13953977040972823,1
265,53.03336670003337,-0.9882864451430492,0.03668312434081738,-0.14813591980040278,-0.9833357285560926,0.11713697564566754,0.13903155714313625,1
266,53.23336670003337,-0.9873227787676394,0.040329004442409,-0.15351645490706,-0.9844063009428017,0.11399616040951754,0.13397428886169802,1
267,53.433366700033375,-0.9869325222702674,0.04825582763178085,-0.15373864701115342,-0.9839353069009813,0.11845109458818859,0.13356889617172032,1
268,53.63336670003337,-0.9866807753344721,0.05330114307057814,-0.15368811187835899,-0.9837506827073779,0.12029131996211191,0.13328387980000223,1
269,53.83336670003337,-0.9861815595958882,0.05751805210032996,-0.15536281793146509,-0.9838709796500211,0.12172292496370798,0.13107793460681041,1
270,54.03336670003337,-0.9864880181523116,0.058149295530897045,-0.15316673748299736,-0.9837502493592458,0.11998222666457108,0.13356538537448026,1
271,54.23336670003337,-0.9869409704657643,0.06102234478215342,-0.14907647115954642,-0.9831676347036988,0.12016627198597932,0.13762801004201888,1
272,54.433366700033375,-0.9876172454377301,0.06515997127500125,-0.1427107377089448,-0.9820431740680953,0.1219583752688239,0.1439352596414447,1
273,54.63336670003337,-0.9871604979701105,0.0648197380979497,-0.14598819404430272,-0.9835936022924479,0.1160712021694323,0.13809815913439435,1
274,54.83336670003337,-0.9863900628770836,0.05955267401394123,-0.15325835336167618,-0.9855141986863434,0.10713861209110545,0.13146513601258236,1
275,55.03336670003337,-0.9863275979949699,0.06672692703400229,-0.1506830668723994,-0.9848918794032199,0.11101835987379959,0.13290187980809473,1
276,55.23336670003337,-0.987029144342621,0.0682979973129648,-0.1452888563562674,-0.9839788116662207,0.11300979517982201,0.13789301789919176,1
277,55.433366700033375,-0.9885420796532749,0.06346764774058043,-0.1369540596150991,-0.9837311693243578,0.10866234231989286,0.14305761727809777,1
278,55.63336670003337,-0.9898849549136858,0.06482556680630411,-0.12619596635301805,-0.9821200763717004,0.11140764076837724,0.15175141899194738,1
279,55.83336670003337,-0.9909769510255919,0.06577168255189636,-0.11678513736907843,-0.9808470710016806,0.11195681872376574,0.15938850036523294,1
280,56.03336670003337,-0.9909001187284063,0.06607139413894449,-0.1172668989125537,-0.9811315780061102,0.11278865375182691,0.15703358310912582,1
281,56.23336670003337,-0.9903939437325859,0.06517345409450065,-0.12195186386114742,-0.9821989968203213,0.11122443097720748,0.1513745573038969,1
282,56.433366700033375,-0.9899116235227627,0.06950838523437708,-0.12346482088691144,-0.982099442212341,0.11551113439211283,0.14878798149600822,1
283,56.63336670003337,-0.9885309554843216,0.07909667621454826,-0.12864783659690968,-0.98231126158261,0.12262442769349952,0.14151973396252288,1
284,56.83336670003337,-0.9876642060097756,0.09009471191201208,-0.12807169497032186,-0.9815560871917823,0.13018996671062374,0.13999364365800815,1
285,57.03336670003337,-0.9876368087647305,0.0897171175948769,-0.12854716170918273,-0.9824025559551565,0.12644129896061063,0.13746932737861645,1
286,57.23336670003337,-0.9876770305785791,0.08865190964380765,-0.1289764404222209,-0.9828805137222716,0.12496620956895373,0.13538590107914428,1
287,57.433366700033375,-0.9873081783434973,0.09065085274932398,-0.1304031589796259,-0.9828000089582667,0.1280733966389966,0.1330464109436294,1
288,57.63336670003337,-0.9867833252301281,0.09499876938316991,-0.1312779603111439,-0.9823555000444499,0.13270464429907908,0.13178447903252366,1
289,57.83336670003337,-0.9870853835276203,0.09278757463255208,-0.1305867972650323,-0.982346244372785,0.13175490846160387,0.13280248590654917,1
290,58.03336670003337,-0.9870949992221167,0.09085735070735768,-0.13186509899564033,-0.9824158903992583,0.13098237114675157,0.13305125606249382,1
291,58.23336670003337,-0.9868227990616634,0.09168050010878413,-0.13332460070035013,-0.9820653044797083,0.13317022136957565,0.13346696174543116,1
292,58.433366700033375,-0.9875978351837272,0.10853983618550321,-0.11344434715418773,-0.9814497846181629,0.13775372622078208,0.1333425332939638,1
293,58.63336670003337,-0.9923607263312874,0.1032018908646864,-0.06759851002199453,-0.9791906974861446,0.1462844932777295,0.14066422780179558,1
294,58.83336670003337,-0.9926820974816168,0.09961067376522913,-0.0682639510395842,-0.9775357324822348,0.14809303634224846,0.14997447885341897,1
295,59.03336670003337,-0.9927841447540874,0.09615604896528425,-0.07164953713933926,-0.9779602119243456,0.14261760728646952,0.15249276043396848,1
296,59.23336670003337,-0.992564095214648,0.09778350733706928,-0.07249070687742708,-0.9779048537817892,0.141958652445203,0.1534595645307251,1
297,59.433366700033375,-0.9932223395291122,0.09407352700975018,-0.06826093887622095,-0.9776972782080102,0.1352132122868597,0.16070289172170366,1
