,timeStamp,x_gaze,y_gaze,z_gaze,x_head,y_head,z_head,fixations_head
0,0.041666666666666664,-0.9804966616812562,-0.1956945717014501,-0.01816400392255351,-0.9888612818499076,-0.12141094180262327,-0.08609731975362318,0
1,0.24166666666666667,-0.973476690898517,-0.2263194595376184,-0.033505738491698155,-0.9474250911326991,-0.29934060528407935,-0.11305263694561811,0
2,0.4416666666666667,-0.9499173987489282,-0.2874096536350705,-0.12268914602131231,-0.9592907333461769,-0.26470553377713407,-0.09844932353204419,0
3,0.6416666666666667,-0.7885168029878884,-0.45849146446720923,-0.4099107566489,-0.9508764953498628,-0.2715716888504761,-0.14860251816864586,0
4,0.8416666666666667,-0.7146741194388226,-0.5559662350422022,-0.42443191267545144,-0.8298266671020994,-0.4410169977261096,-0.34189429694405604,0
5,1.0416666666666667,-0.4322520983113982,-0.7452963206937716,-0.507633251339705,-0.5955805456954584,-0.6560217902991338,-0.4635938138519751,0
6,1.241666666666667,-0.39284750140779845,-0.7878556013101133,-0.4742935716641429,-0.4904794476868408,-0.7212509474524399,-0.48910835424859567,0
7,1.4416666666666669,-0.4242796838587418,-0.8103344030788786,-0.40415950446763416,-0.4871576736895922,-0.7338775474463073,-0.4733932258910531,0
8,1.6416666666666668,-0.7670118806883409,-0.5596624850166158,-0.31380037882061407,-0.8062940061535684,-0.43335337378203415,-0.4026100210781618,0
9,1.8416666666666668,-0.7096001634820802,0.5853811981781857,-0.3921689187144707,-0.8737229791827483,0.29416826419430553,-0.3873928083856646,0
10,2.0416666666666665,-0.46025027645096117,0.7715330530665797,-0.4392111463209656,-0.5872145205763523,0.6839206630548784,-0.4329337518268361,0
11,2.2416666666666667,-0.5154499889967197,0.7821164001639626,-0.3501503183460591,-0.44786839224620884,0.8006410380061629,-0.397979687279653,0
12,2.441666666666667,-0.5799130491078268,0.7820592146814515,-0.22821971914428246,-0.4985311025809793,0.8141272264707552,-0.29776433446339523,0
13,2.6416666666666666,-0.705514409269138,0.7076903549831783,-0.037733006471822705,-0.5684639645103255,0.7993324184137851,-0.1947213545710195,0
14,2.841666666666667,-0.7163437300257044,0.6974256534885723,-0.021192411587608692,-0.6032564918795714,0.7856546131572448,-0.13721674034130363,0
15,3.0416666666666665,-0.5876401986847036,0.8072344992881757,-0.05524002216482907,-0.4466498527696361,0.8804267928746762,-0.15922490825644978,0
16,3.2416666666666667,0.24499935867063977,0.9133864804441354,-0.32511605865113863,-0.052903288940703175,0.9782888256619782,-0.20038017767275476,0
17,3.441666666666667,0.37349520880036335,0.8484808309050595,-0.3749421403227878,0.32401826965268216,0.91781200527297,-0.22941944971621744,0
18,3.6416666666666666,0.7177136245889957,0.6290536045741902,-0.2986280557006399,0.5410428020071918,0.8080788916752824,-0.2329832423696045,0
19,3.841666666666667,0.7138800740077881,0.6998368431068269,-0.02456894309704334,0.5813077104792791,0.785160327744704,-0.21355234832042408,0
20,4.041666666666667,0.7589949242125779,0.6497594853859022,0.04170510964607301,0.6479177534543319,0.7439126409717671,-0.16369657101204785,0
21,4.241666666666667,0.7655199261229579,0.6412461583401186,0.052750422962673266,0.7560525931949243,0.6384664544784628,-0.1440314647184121,0
22,4.441666666666667,0.9824908873707615,0.01609831133542956,-0.185613848097499,0.9153890218111093,0.3747562830615036,-0.14703967850082839,0
23,4.6416666666666675,0.8633132457993312,-0.40344391040164346,-0.3031884740343119,0.9662586205527347,-0.11063470193868367,-0.23260318341429717,0
24,4.841666666666668,0.7212638574206877,-0.6041470901567033,-0.3387989690566049,0.8409410806593408,-0.4786053081873079,-0.2524976392650679,0
25,5.041666666666667,0.7016557393595724,-0.7076523435169036,-0.08311067403653077,0.7072276645495392,-0.6655598529758407,-0.2384514889921671,0
26,5.241666666666667,0.7138268157731626,-0.6994634507443597,-0.034672152456115615,0.6662013600623204,-0.7161339978040219,-0.20815341707582793,0
27,5.441666666666667,0.0926085758950208,-0.9716683429788121,-0.21744949510979816,0.38091006984290304,-0.9030200072521393,-0.19865141629150632,0
28,5.6416666666666675,-0.15020048627398297,-0.8929776780014828,-0.42430022450399346,-0.010364603535015227,-0.9463370859671225,-0.32301500695295415,0
29,5.841666666666668,-0.49073311523214347,-0.7517379207130883,-0.4405350249146131,-0.3560990980571326,-0.858680549262435,-0.36859347075234516,0
30,6.041666666666667,-0.5349608917319839,-0.7860327389857723,-0.30978924700487176,-0.5070880214216257,-0.7712103721835591,-0.3848328213227109,0
31,6.241666666666667,-0.4946861651261598,-0.8191953462973598,-0.29018025886941856,-0.5043454436544599,-0.7792837826548809,-0.37195760451439475,0
32,6.441666666666667,-0.4092300227029928,-0.8676197019477258,-0.2824302414945104,-0.423159457608853,-0.8321295458682006,-0.35846407397306,0
33,6.6416666666666675,-0.369561453811639,-0.8847340111161799,-0.284024754961435,-0.24929721259120474,-0.9048186780019235,-0.34518699241586104,0
34,6.841666666666668,0.3918472405563739,-0.5312713094243354,-0.7511368289805175,0.2741987196261499,-0.9183655238402434,-0.28534159664692377,0
35,7.041666666666667,0.931810444698879,-0.36080693662065894,-0.03934017839936005,0.8469874557530741,-0.4793888128143584,-0.22977949417947402,0
36,7.241666666666667,0.9215901525925294,-0.37691412190870177,-0.09277572608323056,0.9761692776646597,-0.04610200188853571,-0.21205694227147187,0
37,7.441666666666667,0.9225087545136994,0.38508542998578815,-0.02620704978137663,0.9622352505968156,0.19685566937302432,-0.18801906271594443,0
38,7.6416666666666675,0.6681804957792483,0.7423721895039901,-0.04917679647201081,0.7621600317988008,0.6223149908120155,-0.1784268425408369,0
39,7.841666666666668,0.6613254655748058,0.7496729546994189,0.02528022101385788,0.4677597583484166,0.8658807126999887,-0.17734542521303157,0
40,8.041666666666666,0.740427598037627,0.6721283264383076,0.003238033889637728,0.5298803502911336,0.8311447511232719,-0.16859779671033726,0
41,8.241666666666667,0.787458432356188,0.6162741028378469,0.010744649019029209,0.6050134426173429,0.7767438584296622,-0.1750077502401322,0
42,8.441666666666666,0.7628621222567599,0.6452841992685998,0.040616309534407855,0.595140021320917,0.7888790169439848,-0.15322614544401458,0
43,8.641666666666666,0.3127184142002018,0.943968192564644,0.10550471480625978,0.4563086909931373,0.879427716796572,-0.13560704057716944,0
44,8.841666666666667,0.05581020372958745,0.9982052912953768,-0.021712153038655986,0.08781703628078624,0.9850311404442971,-0.148330106498534,0
45,9.041666666666666,-0.548001334930609,0.8329526365005325,-0.07671011837484455,-0.37550637712004226,0.9095544420249969,-0.17806088210153662,0
46,9.241666666666667,-0.7951151298339603,0.5984686659109411,-0.09811822578860253,-0.6706805514805124,0.7177175394787435,-0.1872675396067732,0
47,9.441666666666666,-0.775273167200299,0.6211282987403816,-0.1146784754132021,-0.7927519522154902,0.5769317491246141,-0.19670815720387064,0
48,9.641666666666667,-0.7184784688567292,0.6908528083678253,-0.08069130659234092,-0.7727825548031669,0.6087408122329393,-0.1795598688846469,0
49,9.841666666666667,-0.6148609775901738,0.7839362389770436,-0.0859648268501927,-0.6778791446697734,0.7103125148172439,-0.18956792058726507,0
50,10.041666666666666,-0.6746718771135787,0.7316735233158257,-0.09732272864365392,-0.615733951168915,0.7543689622784068,-0.22759431040541392,0
51,10.241666666666667,-0.702373641051153,0.6237744594042747,-0.3428945787723267,-0.6629628409873848,0.7147065158173179,-0.22287859412291125,0
52,10.441666666666666,-0.6807424300418567,0.6121358424448702,-0.40234245902591137,-0.6458070066107225,0.7331462306203043,-0.21314294438178882,0
53,10.641666666666667,-0.7178965605918891,0.5600743940129891,-0.4134503615445499,-0.713072438720304,0.6682709817163924,-0.2119943209930113,0
54,10.841666666666667,-0.6939573629147394,0.3452754304012096,-0.6318291348281435,-0.8294043463925461,0.4610994360443017,-0.3153977493020209,0
55,11.041666666666666,-0.6334028551409094,0.31189889854613295,-0.708180697410663,-0.8482903650015172,0.24254529016744675,-0.4707177911054374,0
56,11.241666666666667,-0.5452339999034541,0.023903898580631817,-0.8379430105812251,-0.8351194135322728,0.04704054695414352,-0.5480536032942107,0
57,11.441666666666666,-0.5276629396791737,-0.14273947933583422,-0.8373752224230592,-0.8095722127928872,-0.041949353070449,-0.5855194992915261,0
58,11.641666666666667,-0.44510825669491205,-0.15512100638428117,-0.8819388375620751,-0.7528667077308896,-0.07589694283725643,-0.6537823601615523,0
59,11.841666666666667,-0.22461407085083107,-0.11653616368964474,-0.9674543098918513,-0.5939927572457484,-0.12236019672381909,-0.7951104241533387,0
60,12.041666666666666,0.050453544826759546,-0.03762075029908892,-0.9980175945149204,-0.40747071923876194,-0.18516369104344116,-0.8942494173787396,1
61,12.241666666666667,0.10702548081022613,0.0009012320076460255,-0.9942558696020901,-0.30206099172447376,-0.1416128650882502,-0.942711490181341,1
62,12.441666666666666,0.10095179626066922,-0.005030709180769436,-0.9948785990244655,-0.29296193154636574,-0.13189750472021702,-0.946982763788868,1
63,12.641666666666667,-0.09556246171403712,0.009430943122569563,-0.995378758675798,-0.2791872681349933,-0.13628198572516728,-0.9505165383506615,1
64,12.841666666666667,-0.11704057547281926,0.020659427515899862,-0.992912227615164,-0.3091734138616974,-0.13227585069256154,-0.9417615937617454,1
65,13.041666666666666,-0.12304830596883297,0.01873578659863438,-0.9922238077665398,-0.3306420835651637,-0.1345709301043517,-0.9341126684434469,1
66,13.241666666666667,-0.36929460064201514,0.20643992848000453,-0.9060927402125155,-0.47890594866962394,-0.1308436413041543,-0.8680605012665407,0
67,13.441666666666666,-0.7880147998491894,-0.10237672451188708,-0.6070845752420821,-0.7115772370358804,-0.1185928671451982,-0.6925269435875144,0
68,13.641666666666667,-0.9377465412631466,0.013422650902288918,-0.3470608834077404,-0.8591912504888454,-0.0455429271249108,-0.509623622757334,0
69,13.841666666666667,-0.9201566454924404,0.04555760003263024,-0.3888910552267391,-0.8760987825201105,0.004636422416201979,-0.4821093515520714,0
70,14.041666666666666,-0.9293655533280478,0.11557286366038695,-0.3506031680869259,-0.9028811178977907,0.06393083261936093,-0.42511002762135747,0
71,14.241666666666667,-0.9843409880977805,0.1311943760924488,-0.11773213169053766,-0.9346599993765697,0.1291274275417253,-0.33126544193719815,0
72,14.441666666666666,-0.9842420172941856,0.17614517910428343,-0.01550894164642027,-0.9487617698373796,0.19894345886512996,-0.24550479480006476,0
73,14.641666666666667,-0.9871892243270091,0.07204750367990825,0.1423607831747631,-0.971705431478983,0.18280791898859342,-0.14956543447368958,0
74,14.841666666666667,-0.9424619188057439,0.13858613628413916,0.30423578755765995,-0.9928470429883969,0.10808826062621446,-0.050711706183054296,0
75,15.041666666666666,-0.9151856850180944,0.09987760068516548,0.39046078781272825,-0.9967709133364744,0.07746836473908364,0.021128151623438517,0
76,15.241666666666667,-0.912981098015669,0.04122321019148715,0.40591398301562887,-0.9989900473681963,0.03057424681181192,0.03292568436919029,0
77,15.441666666666666,-0.862014243880078,-0.4923588641612895,0.12047486140130059,-0.9931102041565603,-0.1099292753300515,0.0405915856493039,0
78,15.641666666666667,-0.834052784200247,-0.5440508030551089,0.09145860737463514,-0.9328311161947308,-0.35759166859895564,0.04420754695193256,0
79,15.841666666666667,-0.8289863853309796,-0.5592420649347952,-0.005466785467059943,-0.890462321793804,-0.4550337079254229,0.004601968842650197,0
80,16.041666666666668,-0.8087014729340081,-0.5868839664042871,-0.03961234216677615,-0.8778044964581918,-0.47844398734231963,-0.02346522903707956,0
81,16.241666666666667,-0.7464445881950954,-0.6627604470372627,-0.059741665504254665,-0.8740338087054556,-0.4820989124065249,-0.060378306503918906,0
82,16.44166666666667,-0.9991612081683129,0.040704068508500134,-0.0044787161656665,-0.9564099598618928,-0.2811356544565142,-0.07901096424092131,0
83,16.64166666666667,-0.9775829190442794,0.20856346400537787,0.0288603166119719,-0.9961207550156082,0.06188304657674302,-0.06256140961899657,0
84,16.84166666666667,-0.8523382548860092,0.5194991874722997,0.06033318716505031,-0.950376096580828,0.3022185971338484,-0.07381866020348407,0
85,17.041666666666668,-0.6182330550680458,0.7855783251723506,-0.025584851780605964,-0.8496131554224094,0.5194027288691344,-0.0915330070328384,0
86,17.241666666666667,-0.5666112890453352,0.819857743966507,0.08237066701522536,-0.6934702124009922,0.7181052346392843,-0.05851441272183605,0
87,17.44166666666667,-0.29427303318120845,0.9515231229729713,0.08948255913917198,-0.5618938101856181,0.8268719974419095,-0.023622995608416967,0
88,17.64166666666667,-0.1823416353529682,0.9821084132946717,0.0470594576321026,-0.40326141971948,0.9138823120601596,-0.04689719681821804,0
89,17.84166666666667,0.1754567496456329,0.9843087405204806,-0.01874119363262141,-0.09397623971235664,0.9932447052741061,-0.06806924279349412,0
90,18.041666666666668,0.5131343608599439,0.8552974434282677,-0.07182903987891058,0.232326445235449,0.9686557094045181,-0.08792348652260241,0
91,18.241666666666667,0.6590452177146202,0.7511303451548914,-0.038244026919015406,0.48189191190969094,0.8691099218462911,-0.11148151857754741,0
92,18.44166666666667,0.7688198014199366,0.6394630461631795,-0.0017679186398208084,0.6252391688727228,0.7721067041502323,-0.113697929240653,0
93,18.64166666666667,0.7815695737184127,0.6136549168214842,-0.11214563967643099,0.6222389106265305,0.7681253654518544,-0.15100384449332416,0
94,18.84166666666667,0.33026382465339915,0.8967799447489555,-0.2944682271848169,0.643814864114006,0.7438967440658794,-0.17922068774013694,0
95,19.041666666666668,0.6056416916896689,0.6996186574711871,-0.3791198694416981,0.6830458701892757,0.7091922908317664,-0.17462712802473318,0
96,19.24166666666667,0.9192000271657863,0.35609570749682784,-0.1681283948675878,0.7655276414376477,0.6256199541216222,-0.15022351080896643,0
97,19.44166666666667,0.981079323995086,0.16040316703373367,-0.10841671473944153,0.9184753447037894,0.375928714027721,-0.12280327007339505,0
98,19.64166666666667,0.9736560436792698,-0.2143921311072284,-0.07765257707334915,0.9911436124148688,0.052047139731063216,-0.12216969679515392,0
99,19.84166666666667,0.827815318861992,-0.5477935484727132,-0.12101250393695717,0.9586087742232353,-0.262460689552476,-0.11037936592436629,0
100,20.041666666666668,0.815699057192385,-0.5599695269769637,-0.145152254383629,0.8927964027500251,-0.43472469881979164,-0.11802126703546507,0
101,20.24166666666667,0.7297254884573529,-0.6798346388101633,-0.07297653985722358,0.8820623148601154,-0.4557129134528121,-0.11954837186663869,0
102,20.44166666666667,0.6579176934247193,-0.7513307578229748,-0.0514431825206399,0.8200458238497419,-0.5629811798450686,-0.10284472726811536,0
103,20.64166666666667,0.6960149338315587,-0.7151410188862524,-0.06431589997647591,0.7481609244742436,-0.657326615204672,-0.09042650072525327,0
104,20.84166666666667,0.692348645467331,-0.7194447950131052,-0.05524979681503867,0.7126703751724851,-0.6974474130732012,-0.07528640215210702,0
105,21.041666666666668,0.49269577560903094,-0.8695863439900547,-0.03271793152119887,0.5624990784101624,-0.822805595966394,-0.08115256024368497,0
106,21.24166666666667,0.30453555466064086,-0.9516196701663592,-0.04096461033631041,0.4316740901094905,-0.8965328655809758,-0.09942987911743287,0
107,21.44166666666667,0.23240736108016274,-0.9711495985744126,-0.053434779914512856,0.3163634294810145,-0.9436331770631631,-0.09731704697889347,0
108,21.64166666666667,0.2787758252766763,-0.9602525273609565,-0.014111092736001874,0.2384948872102025,-0.9664725642162973,-0.095136593336991,0
109,21.84166666666667,0.34121941553428387,-0.9397877253948315,0.019192229147508316,0.2978155037509301,-0.9529682549021452,-0.056191021296465464,0
110,22.041666666666668,0.6053614283462586,-0.7953511532491877,-0.030888251743422423,0.5230231921066104,-0.8491883237863216,-0.07297897823064824,0
111,22.24166666666667,0.8008839886264161,-0.5959872924683771,-0.05817202057738407,0.7159961316733598,-0.6941080345996654,-0.07458938083249211,0
112,22.44166666666667,0.8244136343524066,-0.5636193980368983,-0.05172362758334889,0.7953974920620711,-0.6014977911178842,-0.07445291734830786,0
113,22.64166666666667,0.7984701294786982,-0.6010208862844504,-0.03491914346206964,0.7935568544504245,-0.6054134593874937,-0.06117239530388773,0
114,22.84166666666667,0.7326050194665042,-0.6696436792782036,-0.12193124396656368,0.734146955623919,-0.6734775174721549,-0.08634975974300825,0
115,23.041666666666668,0.6698918759528479,-0.6438108373892716,-0.3698005951759673,0.6746318791047785,-0.7239285857766152,-0.1442193828548223,0
116,23.24166666666667,0.6924149621664255,-0.602773553804446,-0.39651678779343835,0.6891157549771924,-0.7068531002263304,-0.15961883016310902,0
117,23.44166666666667,0.7193955691635552,-0.5501996752626064,-0.42396973053363984,0.7332042762638551,-0.6540709796763426,-0.18601785616877234,0
118,23.64166666666667,0.680344752595372,-0.45276785074348813,-0.5763091973490135,0.7682931720110114,-0.514263740136659,-0.3811278098248846,0
119,23.84166666666667,0.6170518389903324,-0.43388801418241824,-0.6564969300366047,0.7787205261337076,-0.4111193181601489,-0.47389371003799546,0
120,24.041666666666668,0.668117199349491,-0.4394958395485561,-0.6003855552500432,0.7986412372274441,-0.38118999893998834,-0.4656891225999906,0
121,24.24166666666667,0.6971217287656726,-0.5833538801246513,-0.4167967680132296,0.7829438149984598,-0.4441130354258679,-0.43561748624278085,0
122,24.44166666666667,0.6718343665216322,-0.6106636931077339,-0.4191997589222834,0.7462106105315491,-0.5125232228761545,-0.4248407592766641,0
123,24.64166666666667,0.7071480089609646,-0.5309882288120774,-0.4668974130208441,0.7422402503950458,-0.5402065798731736,-0.3965554964380501,0
124,24.84166666666667,0.9364259124276394,-0.21632650260330843,-0.2762414791545325,0.8383930990961663,-0.4175958538995577,-0.3503008909406672,0
125,25.041666666666668,0.968913404247504,0.03937786331881152,-0.2442461851287708,0.9367902792715644,-0.16276014839338365,-0.30973070037900396,0
126,25.24166666666667,0.9635928533994826,0.0835092262959431,-0.2539980747976184,0.9578178083984297,0.0740837765354622,-0.2776628170444745,0
127,25.44166666666667,0.9047378927831291,0.3060992460681411,-0.2962306481761448,0.948987978195748,0.1392956641876205,-0.28287547645293754,0
128,25.64166666666667,0.9127941245854863,0.2818735618274994,-0.2955574077313823,0.9519688656984555,0.10128876227650024,-0.2889565112214825,0
129,25.84166666666667,0.8077979135289397,0.2359779970876259,-0.5401637860767826,0.9387726229154086,0.09295651712070446,-0.3317605286789141,0
130,26.041666666666668,0.7789740889800283,0.3184950063784728,-0.540148405171867,0.9110467991225492,0.22038494995254312,-0.3484597590009113,0
131,26.24166666666667,0.6856735583126664,0.6144928331320608,-0.39019268247902833,0.8799642855265497,0.3418422373873246,-0.32985866812284415,0
132,26.44166666666667,0.6299471728689658,0.675491707405403,-0.38324602101121774,0.8067482587876202,0.4972955342833609,-0.31914635909715394,0
133,26.64166666666667,0.529333391200471,0.7455250842750253,-0.4049672945768899,0.6334850482815342,0.6952952817708429,-0.3395013472004888,0
134,26.84166666666667,0.1834588069148293,0.9130064421246638,-0.36436534248505426,0.47419515132562373,0.803311297462085,-0.36031918881604214,0
135,27.041666666666668,0.07376528787918274,0.9221343821397472,-0.3797721205931895,0.3336864476885514,0.860056016191481,-0.38594948327706713,0
136,27.24166666666667,0.051788575806931636,0.9497661100703233,-0.30864588054561215,0.23116104530775572,0.8941894652345163,-0.38339245088529805,0
137,27.44166666666667,0.01204160069997201,0.9721151215972361,-0.23419476982753729,0.21428182038328364,0.9140377518704187,-0.34441006026087223,0
138,27.64166666666667,0.04555820146043971,0.9737531073522246,-0.22300075381392057,0.23615038951636796,0.9130329510934073,-0.33257153177764825,0
139,27.84166666666667,0.05448805034237103,0.9776955535664134,-0.20283603453615395,0.22643982599666568,0.9215613427422162,-0.315356459844671,0
140,28.041666666666668,-0.048465739637559124,0.991679148452809,-0.11926247777610628,0.1554443854245522,0.9485857639125282,-0.2757210393540344,0
141,28.24166666666667,0.01983905204116837,0.9908164901846874,-0.13375012071846953,0.11911240219764174,0.9657957636492753,-0.23032754624625554,0
142,28.44166666666667,0.013524374176838494,0.9966323207114549,-0.08087712047560097,0.05630107649915317,0.9840997756037393,-0.1684571768780022,0
143,28.64166666666667,-0.07601077809612938,0.9962588484277021,-0.04111774000027153,-0.05912033666872585,0.9882503582885903,-0.14094685216296657,1
144,28.84166666666667,-0.12916545376741373,0.9911830763380854,-0.02953632905469958,-0.12954582627435424,0.9821528641231153,-0.136358462845752,1
145,29.041666666666668,-0.17652232059505657,0.9842499656660612,-0.009585166565768286,-0.20163016549589047,0.9716858077080378,-0.12317454063595241,1
146,29.24166666666667,-0.44091335409354604,0.8962640941048594,0.04802174299601225,-0.19632615303756906,0.9763265399512221,-0.09078837491851086,1
147,29.44166666666667,-0.46899187930066205,0.882372654680896,0.038276826167038654,-0.17578372101270828,0.9797563311647562,-0.09579986936057132,1
148,29.64166666666667,-0.4978322900142601,0.8664162647743138,0.038546947397739284,-0.20494220622300247,0.9739640103918464,-0.09691645149240459,1
149,29.84166666666667,-0.6381718097098549,0.7693583316808236,-0.028714086524714924,-0.28158227938775393,0.95542126745347,-0.08877849757909947,0
150,30.041666666666668,-0.6978641225209409,0.7119158889647113,-0.07849479943067929,-0.3949100713558233,0.9150936083769479,-0.08154583649332448,0
151,30.24166666666667,-0.7392423898962216,0.6628854494963305,-0.1187584516005944,-0.5559090356294989,0.8244762670371697,-0.10584908690174935,0
152,30.44166666666667,-0.7499632444595701,0.6345561926577175,-0.18679820748448636,-0.6852859740473762,0.7165019080723015,-0.13041529627574458,0
153,30.64166666666667,-0.7521338245517288,0.6233588755544777,-0.21381866670767194,-0.7537866701017386,0.6426336501509182,-0.13721387564907617,0
154,30.84166666666667,-0.7280099001975119,0.6305252754081947,-0.2691458011670051,-0.7808210814115581,0.6106477188938725,-0.1320144016120793,0
155,31.041666666666668,-0.705245642048659,0.6243360013378241,-0.33590644799537733,-0.7569738851379545,0.6359613820488383,-0.1501454553480815,0
156,31.24166666666667,-0.6867902516712319,0.6320705610781426,-0.35889546671381645,-0.726451459596567,0.6671844113106099,-0.16472169909921372,0
157,31.44166666666667,-0.6154265208172749,0.6958774642786073,-0.37014152993675314,-0.6434250449471486,0.7442514574870431,-0.17914792648303846,0
158,31.64166666666667,-0.22801340217229293,0.9380488162203466,-0.2609105341250577,-0.4693239280646868,0.8614959163302744,-0.1938036034035326,0
159,31.84166666666667,-0.18058641517506246,0.8475226488608235,-0.49909308382520506,-0.3195795208489973,0.9257757631680175,-0.2020103120749038,0
160,32.041666666666664,-0.05796833577125826,0.956504428935605,-0.2859002439216926,-0.2729587334934275,0.9370112529314097,-0.21795284281140712,1
161,32.24166666666667,0.1855076882334022,0.9448879074897262,-0.26976608364652793,-0.2318955564902465,0.9449039565134749,-0.23104320774534795,1
162,32.44166666666666,0.05262986558664895,0.9649805237230353,-0.2569877158222706,-0.20615691811636216,0.9510467638031548,-0.23023765585218678,1
163,32.641666666666666,0.1348976073037153,0.9594193470819219,-0.24762300375496532,-0.18748304748886147,0.9578645999567499,-0.21759024576939315,1
164,32.84166666666667,0.31974210512970186,0.9385822057947444,-0.12972443552661397,-0.12930635369860294,0.9714163241214631,-0.19907333353193443,1
165,33.041666666666664,0.3337400840018399,0.9334306629900776,-0.1316235302685233,-0.11845855630144136,0.9742009671381856,-0.19209384702796212,1
166,33.24166666666667,0.32754999164766074,0.9344809120862174,-0.13948630010911098,-0.12741331367550285,0.9726917157451133,-0.1940017361238191,1
167,33.44166666666666,0.3089628456493536,0.9410056934560512,-0.1380226245640561,-0.14613402791099056,0.9707254553782033,-0.19062249648792845,1
168,33.641666666666666,0.05780960902445714,0.8877145577558136,-0.4567503837467897,-0.15436850073935504,0.9693178511791399,-0.19129367309176412,1
169,33.84166666666667,0.04947721178083564,0.9128191093676169,-0.40535574386914186,-0.15469357287931618,0.9692427371169837,-0.19141163772302286,1
170,34.041666666666664,0.030399941958956622,0.9298966569528012,-0.3665624788721517,-0.15153073008842383,0.9731114613466597,-0.17347196209946422,1
171,34.24166666666667,0.016744208622781254,0.9460713338012389,-0.3235253666053746,-0.15054951722219634,0.980222183571195,-0.1284496543361745,1
172,34.44166666666666,-0.17188316378787838,0.963603226454327,-0.20475595222869694,-0.157816948380802,0.9836668603727123,-0.08656395675026937,0
173,34.641666666666666,-0.0006231523893168167,0.9950064194675202,-0.09980900209663053,-0.15767306693789218,0.986535806125824,-0.04343163816930791,0
174,34.84166666666667,0.0018698162192438694,0.9983277515977478,-0.05777719426462128,-0.13434301274162613,0.9909160068327821,-0.006117379347164078,0
175,35.041666666666664,-0.020463190745395154,0.9997124066784954,-0.012504469505279186,-0.11844311186599837,0.9928209674983194,-0.016666005736231147,0
176,35.24166666666667,-0.11257070502246269,0.8884915929905094,-0.4448713584351471,-0.11840224405015859,0.992391004038952,0.03377874637175474,1
177,35.44166666666666,-0.17821296451139573,0.8658702384844614,-0.467449322800795,-0.12466952809504622,0.9854313203073979,0.11568328194591342,1
178,35.641666666666666,-0.24900463631318825,0.9665006940638234,0.06223423068283866,-0.12743869641991457,0.97697877269186,0.17109019949810222,1
179,35.84166666666667,-0.27375786518900064,0.9606314543508154,0.04736918997616749,-0.1482938435030141,0.9723324745000296,0.18049513847124368,1
180,36.041666666666664,-0.10322174036134046,0.9933855970757477,0.050302364151563916,-0.1589351249812639,0.9753591872878865,0.1530166063546819,1
181,36.24166666666667,-0.09458632056173955,0.9927962450703888,0.07354620137524823,-0.1537255563909602,0.9738088504410993,0.16752544915586634,1
182,36.44166666666666,-0.08731218666073498,0.9845444573299005,0.1518182913930096,-0.14558959544608613,0.9737882344238299,0.174757386669535,1
183,36.641666666666666,-0.037843423825719646,0.9290235347270291,0.3680803542658088,-0.14318657792992057,0.9735944661950839,0.17779600472178272,1
184,36.84166666666667,-0.2010174703298626,0.9308953980440504,0.30500120413301973,-0.14466354020788091,0.9741989051358112,0.17323092497215933,1
185,37.041666666666664,-0.09159003821969469,0.9605337357218704,0.26265225572818296,-0.1557325767641189,0.972164487127133,0.17505306196478476,1
186,37.24166666666667,-0.038780732178948396,0.9892263256967905,0.1411641999945184,-0.1602713612020098,0.9719439228185948,0.17215720047229133,1
187,37.44166666666666,-0.11964847271682705,0.9731650047099832,0.196555632288544,-0.16590088432024797,0.9711625054036513,0.17123166961710776,1
188,37.641666666666666,-0.17269332790391922,0.9519400060204406,0.25295699127573706,-0.17353038005410992,0.9699755519434663,0.17039552761221188,1
189,37.84166666666667,-0.1310373627995906,0.9296320853183888,0.3444029551225024,-0.1794360442386253,0.9687551443383302,0.17121967277744307,1
190,38.041666666666664,-0.3222712055507514,0.8530005293809048,0.4105257202036945,-0.18357440591024254,0.9679268047463002,0.17151716575409806,1
191,38.24166666666667,-0.3217419564214209,0.8573597826478254,0.4017664950891134,-0.18705910525734792,0.9684490308627894,0.16466743989400134,1
192,38.44166666666667,-0.1311636622774377,0.9849657782934622,-0.11242112474408397,-0.18534940563673147,0.9708418554232938,0.15202529259424785,1
193,38.641666666666666,-0.14809388027376946,0.9887906788544443,0.019005158142627352,-0.1819749717505273,0.9730944011239487,0.1413237282186477,1
194,38.84166666666667,-0.2709833718363713,0.9621538614253076,-0.028774279010275464,-0.19408402191745744,0.9725793305685051,0.12814381837319552,1
195,39.041666666666664,-0.2798211859835553,0.959695037136081,-0.026182810604158367,-0.2096222094199095,0.9702520642369337,0.12111755100680144,1
196,39.24166666666667,-0.3063148450287167,0.9514035656936429,-0.03166182086449889,-0.2556726404622456,0.9601715957787332,0.11270318353438179,1
197,39.44166666666667,-0.3080472321093578,0.9506731471895732,-0.03643446174208808,-0.3485954828414286,0.933210190331437,0.08717757741595401,0
198,39.641666666666666,-0.6088702675274915,0.6859491676887558,-0.3984353607150149,-0.5143843205124251,0.8575526027998761,0.0035077403166239147,0
199,39.84166666666667,-0.681767704086654,0.6888778327137661,-0.24625216600062028,-0.6644344861966298,0.744569224589267,-0.06436989472694776,0
200,40.041666666666664,-0.9091360214379139,0.3770215878409311,-0.1769927027477243,-0.7979909275486553,0.5938807992898473,-0.10254791945665978,0
201,40.24166666666667,-0.985208437860573,0.08219434602630382,-0.15036097715044935,-0.9260718031219174,0.3568652032401277,-0.12263051079932354,0
202,40.44166666666667,-0.9729207382142534,-0.025669553527466256,-0.2297091882671069,-0.9765710424537222,0.17211950703029497,-0.12916607271454442,0
203,40.641666666666666,-0.9362556601001204,-0.2722025969920148,-0.22210602225354123,-0.9818998088587136,0.07925499816558881,-0.17202154117724558,0
204,40.84166666666667,-0.8667343292651901,-0.3970046581317021,-0.30192532834287317,-0.9727605230607995,-0.11595752152322801,-0.20072572823798612,0
205,41.041666666666664,-0.7667682379364059,-0.5542739717442261,-0.3238006076874783,-0.918012237982766,-0.33008975401174884,-0.21975960777708115,0
206,41.24166666666667,-0.7701380880824689,-0.53194240483114,-0.35202926473113455,-0.858593062417288,-0.4597061734887871,-0.22691008621302072,0
207,41.44166666666667,-0.6511051562999456,-0.5279336243219694,-0.5452963999054948,-0.8300925820129352,-0.4975142870390436,-0.251844871853946,0
208,41.641666666666666,-0.6223478601405555,-0.5550877293957757,-0.551870232620599,-0.7026303828562181,-0.6292122697602395,-0.33226866338927047,0
209,41.84166666666667,-0.4027898768714254,-0.6950994397996625,-0.5954805487000377,-0.5489958313409186,-0.7407906584899334,-0.3870823910543388,0
210,42.041666666666664,-0.2082328470408109,-0.8470148669595018,-0.4890857762835229,-0.3788123576593146,-0.8268904672337454,-0.41563608226734866,0
211,42.24166666666667,-0.14582818088540028,-0.8465033276283114,-0.5120217358412148,-0.22931268323420767,-0.8823519152962525,-0.41093891380710434,0
212,42.44166666666667,0.1146705129753035,-0.8793979928962731,-0.4620712537520457,-0.12456335913837857,-0.9166296728296747,-0.3798341907310706,0
213,42.641666666666666,0.027907659369019622,-0.8968149948038945,-0.44152466255401196,-0.13706133886289884,-0.9270450954353909,-0.3490008315438471,0
214,42.84166666666667,-0.010011848111358093,-0.46787183073180105,-0.8837396182728644,-0.2554243900343359,-0.9096853254479121,-0.32746143229442126,0
215,43.041666666666664,-0.04500604286768753,-0.521060658469617,-0.8523322393882571,-0.2797590005825653,-0.9232838242806833,-0.2632145159649836,0
216,43.24166666666667,-0.4674920940926185,-0.8748618414887027,-0.12675922162862427,-0.3253708430479051,-0.9279659356121768,-0.1816949004174666,0
217,43.44166666666667,-0.5537399828864563,-0.8268394807051183,0.098531743616955,-0.41683199329042814,-0.908502605970424,-0.029565255190460295,0
218,43.641666666666666,-0.6446850882462871,-0.7496272456541252,0.14980029895125946,-0.5019755978389979,-0.863355546352537,0.051358541222396435,1
219,43.84166666666667,-0.7131285774455455,-0.698160229197195,0.06340288950680932,-0.5313456566303273,-0.8454409470703652,0.05386462843880443,1
220,44.041666666666664,-0.5562755945692016,-0.7169926759003198,0.4200939961389363,-0.5449940669375246,-0.8322791197635311,0.10145409705151574,1
221,44.24166666666667,-0.5585195300092958,-0.7384200171096896,0.3778780397561118,-0.5473427941954911,-0.8271824938739273,0.12722023215975725,1
222,44.44166666666667,-0.5088454232269011,-0.8132846416176046,0.2822134422205306,-0.5442153478390926,-0.8282165633652238,0.1337422122737385,1
223,44.641666666666666,-0.5230088781169966,-0.815173989976599,0.24890375544863289,-0.5257060071911891,-0.8392480001888315,0.13891000029567535,1
224,44.84166666666667,-0.501461338721551,-0.8326683955569453,0.23494652329458418,-0.49556425536140936,-0.858225296523139,0.1336615472597181,1
225,45.041666666666664,-0.4834618316726004,-0.844032709192805,0.2321065340063222,-0.47819642987225397,-0.8683931416727189,0.13123081175248294,1
226,45.24166666666667,-0.4746102018114504,-0.850792040157671,0.22560598560508666,-0.46954834162444914,-0.8741282544319539,0.12419400018308023,1
227,45.44166666666667,-0.4811390628483374,-0.8486961721912565,0.21959054968129435,-0.4769809051142857,-0.8709324067563654,0.11817765870891893,1
228,45.641666666666666,-0.4878448588286119,-0.8466235906348636,0.21268730449893614,-0.4833590473791769,-0.8683947833928536,0.11070018741074368,1
229,45.84166666666667,-0.4955487117864123,-0.844342993739703,0.20375569481490147,-0.4911449503957671,-0.8650806309136395,0.10203989278120013,1
230,46.041666666666664,-0.49645514207593094,-0.84347298762607,0.20514777856832575,-0.4914532493532281,-0.8646918841170932,0.10383472079312259,1
231,46.24166666666667,-0.4977394680672318,-0.8426504730665579,0.2054156814093199,-0.49237294230933304,-0.8641774952786394,0.1037600228199078,1
232,46.44166666666667,-0.4953026474344582,-0.8441510452748153,0.2051445836619964,-0.490076924768879,-0.8654890204188922,0.10369842498044607,1
233,46.641666666666666,-0.4980545312437491,-0.8425725850978802,0.20497102904811867,-0.4926775443627225,-0.864029162943207,0.10354922918292937,1
234,46.84166666666667,-0.49794830294507375,-0.8429680511068804,0.20359850787073364,-0.4927998444427152,-0.8641479782981024,0.10196364509244815,1
235,47.041666666666664,-0.4973438878990031,-0.8432621667389879,0.20385773303009858,-0.4920714673494114,-0.864497025168602,0.10252104415794376,1
236,47.24166666666667,-0.4042946078668348,-0.83072382910073,0.38267974837195595,-0.49196106372407467,-0.8646597442079291,0.10167516179360377,1
237,47.44166666666667,-0.4167758879582581,-0.8255939226285455,0.3803847185881908,-0.49509121867713063,-0.8633157322619641,0.09782960501700022,1
238,47.641666666666666,-0.4188912466240025,-0.8269158873027729,0.3751536203051452,-0.4966227473278937,-0.8630322632905003,0.09241839295384378,1
239,47.84166666666667,-0.41672905233013674,-0.8286516666918026,0.37372892881462083,-0.49394552913070455,-0.8647055025946558,0.09111645314821865,1
240,48.041666666666664,-0.41355035153823333,-0.8308966992485056,0.37227245656983854,-0.4904489942648859,-0.8668687691788889,0.08943333297401157,1
241,48.24166666666667,-0.40944331824949287,-0.8328839348819294,0.3723714813951774,-0.4852579982420293,-0.869778966670001,0.08949426954059103,1
242,48.44166666666667,-0.40906250673097316,-0.8345401386072632,0.3690672332249813,-0.4841265181805193,-0.8708274270751317,0.08532940084234442,1
243,48.641666666666666,-0.4071195189142185,-0.8374718898038436,0.3645470218057399,-0.4815894305452392,-0.8726631642417015,0.0808122649278789,1
244,48.84166666666667,-0.4073354218938584,-0.8381491204995889,0.3627449598220739,-0.48138543834567765,-0.8729504841004828,0.07890191415594762,1
245,49.041666666666664,-0.4031814949501594,-0.8404949583090567,0.3619570515776867,-0.4772348301564074,-0.8752928591922868,0.07816218735793554,1
246,49.24166666666667,-0.4027707829560178,-0.8408515855900539,0.3615858230181167,-0.4770673768805717,-0.8754317283995943,0.07762735875701096,1
247,49.44166666666667,-0.3996026170006794,-0.84445782628468,0.35666332599913053,-0.47302244694240486,-0.8780696887094344,0.0724112315758897,1
248,49.641666666666666,-0.399361689755687,-0.8462659783167529,0.35262463711299524,-0.47277844100997946,-0.8785665611633731,0.06783320220761216,1
249,49.84166666666667,-0.7499676053445548,-0.6607359957336009,-0.031249558007778542,-0.47591813103351627,-0.8773253237046381,0.06166205429692495,1
250,50.041666666666664,-0.6468767359749239,-0.7400224732313159,-0.18416630410320747,-0.4859947005110466,-0.8727669404375614,0.045683900385540696,1
251,50.24166666666667,-0.6673731053507487,-0.7143212914565928,-0.2106139378727918,-0.5328542093513899,-0.8458377757643767,-0.024996973146300495,1
252,50.44166666666667,-0.6417378644796643,-0.7188291956527797,-0.26731461009503027,-0.6065300312227376,-0.7905781747967185,-0.08430581688136626,0
253,50.641666666666666,-0.5208604862448969,-0.8027575551163798,-0.29031820744194053,-0.648878323110467,-0.7516051464812363,-0.11851846092599927,0
254,50.84166666666667,-0.510256275329783,-0.8079756383348232,-0.29464198842665273,-0.6641129828044782,-0.7328456849619909,-0.14795657505879714,0
255,51.041666666666664,-0.5017883026713554,-0.8174829973099018,-0.28271902732469095,-0.6706054984988091,-0.7244883165457723,-0.15938928625173354,0
256,51.24166666666667,-0.83268699935541,-0.5483982953979306,-0.07675721926390644,-0.7196001186865899,-0.6754019177122488,-0.1612697080572251,0
257,51.44166666666667,-0.9288314832099792,-0.37047889394423733,-0.004179107536890032,-0.8021106636755294,-0.5763374678420944,-0.15637648921549704,1
258,51.641666666666666,-0.9284131070988697,-0.3628416608640084,0.07996894214925673,-0.8584163594253504,-0.49208605619625007,-0.14481942952570026,1
259,51.75,-0.8863296087211529,-0.45343074522248317,0.09391689939085295,-0.8731958550521123,-0.4690774347958583,-0.13227002262473583,1
