,timeStamp,x_gaze,y_gaze,z_gaze,x_head,y_head,z_head,fixations_head
0,0.041666666666666664,-0.9995374683742926,0.02743286388650433,-0.01312582549384252,-0.9991780802465509,0.013229191061178877,0.038316477639319314,0
1,0.24166666666666667,-0.9997296321181481,0.01571731918794833,-0.017135592853967634,-0.9993120212860591,0.004662883179084639,0.03679322809471252,0
2,0.4416666666666667,-0.999458517132535,0.024874897841829793,-0.021538616218162117,-0.9992680003256901,0.016806767513654595,0.03436562367888509,0
3,0.6416666666666667,-0.8794718121481506,0.46708010971196995,-0.09146312234065859,-0.9957220072468291,0.08529861369319802,0.035522257619192144,0
4,0.8416666666666667,-0.7828936268440294,0.6127748699332198,-0.10763144440788276,-0.9516791769619836,0.30689632803253647,0.011017621209110815,0
5,1.0416666666666667,-0.5572314231177663,0.8240298590797978,-0.10231291431230728,-0.8121178017015221,0.5834925956363645,0.0010329554808066904,0
6,1.241666666666667,-0.6147226713886054,0.7839016526391271,-0.08725959128085631,-0.6422457291706074,0.7664674717407998,-0.006930954146516753,0
7,1.4416666666666669,-0.5956298075081408,0.7997766873379903,-0.07471534513395336,-0.5675586392101383,0.8233099214346253,0.0061615197189924,0
8,1.6416666666666668,-0.34268107148396143,0.9294701581118836,-0.13658297267988523,-0.46556040605583576,0.8841751749071505,-0.038571600835787694,0
9,1.8416666666666668,0.10427321322391597,0.9672934892105317,-0.23123668120537164,-0.2321204754615656,0.9666153934858389,-0.10851159360968607,0
10,2.0416666666666665,0.38139091745015985,0.8697640821338194,-0.31313161692240576,0.023062743769802996,0.9854142388374136,-0.16860275130106758,0
11,2.2416666666666667,0.6739128400453589,0.7125609140283405,-0.19518818565962148,0.2312027554102542,0.9562494130564616,-0.1792549746028811,0
12,2.441666666666667,0.7719167075127884,0.6204369731165268,0.13857329848357655,0.43525922026492014,0.8969906283865651,-0.07718305358722669,0
13,2.6416666666666666,0.7926502030406843,0.6058187443581391,0.06847849738341129,0.6172295288732035,0.786499427288025,-0.021127223257492334,0
14,2.841666666666667,0.7649958342952697,0.6421429426213775,0.04933370807513425,0.7183241406292806,0.695705876216587,-0.001939790431096135,0
15,3.0416666666666665,0.9030631717966702,0.4256903810131495,0.057136741746597726,0.7708654285367448,0.636303600703122,0.02973581710838483,0
16,3.2416666666666667,0.9877177504581871,0.15584487737204739,0.01122584636941027,0.8213586793291722,0.5695377852186317,0.03156946465960395,0
17,3.441666666666667,0.7710163413169987,0.5497867965467312,0.32135382332412493,0.7941041858341598,0.5956076373587057,0.12103753285922036,0
18,3.6416666666666666,0.4774243241870893,0.7380567258945819,0.47680004617897354,0.6532137656749604,0.7042137912838419,0.27819905193651445,0
19,3.841666666666667,0.2702227922694342,0.8516520150064935,0.44907514724541314,0.4776643942360863,0.817493645482145,0.32177766559440657,0
20,4.041666666666667,0.1601534436399406,0.945517070312623,0.28345783502613303,0.2957015934126571,0.8886360828172113,0.35055167945468235,1
21,4.241666666666667,0.1823158116705102,0.9591884780882695,0.21614441542087634,0.20735437755622083,0.915200121154426,0.3455617171319711,1
22,4.441666666666667,0.06565008999899252,0.9746600946695114,0.21384051426692605,0.16965240986385144,0.9286524303378346,0.32988289354712136,1
23,4.6416666666666675,0.2089356779547073,0.9449777674513277,0.25171988697818765,0.15103481061897894,0.9367701849997854,0.31567405100317836,1
24,4.841666666666668,0.19169428655335802,0.9524479052762077,0.23684654998070587,0.16397528992928245,0.9382634794749293,0.3045878319569038,1
25,5.041666666666667,0.08799264155005548,0.9809377126018769,0.17325847462228594,0.1711642239562211,0.9355662633658831,0.30889897262545896,1
26,5.241666666666667,0.1484918674894395,0.9723660304263457,0.1801512369161244,0.23655453131113618,0.9226646583390407,0.30451909951310163,1
27,5.441666666666667,0.1036430276746077,0.9785683652116067,0.17793840906764397,0.2194509615932394,0.9308389854598963,0.2921986629055542,1
28,5.6416666666666675,0.04627116777692192,0.9860480136718373,0.15990088732206725,0.18611134414873104,0.9423083041498973,0.2782402334481795,1
29,5.841666666666668,0.6300214166873724,0.7731546725847435,0.07283451637523622,0.23302768904885462,0.9355685864861152,0.2653479152300293,1
30,6.041666666666667,0.6503102617126209,0.7569906137475029,0.06373205009601669,0.2901249575392187,0.9279559270786429,0.23393440621781683,1
31,6.241666666666667,0.6682860355391287,0.7420345141843783,0.052711995433186366,0.3141506483713409,0.9247623099600843,0.21476508143819656,0
32,6.441666666666667,0.6649015738544855,0.7453284626285801,0.048901736999264214,0.31168103505516165,0.9280198422419398,0.2040443696654929,0
33,6.6416666666666675,-0.05756074766505592,0.9982259172835495,-0.015224269823422221,0.23202107612477652,0.9555073888462989,0.18213140886192244,0
34,6.841666666666668,-0.4174485288658767,0.9048351852483479,0.08372582208795025,0.004818794079586797,0.9867502151323159,0.16217518971762376,0
35,7.041666666666667,-0.6270587533478355,0.7789570036172118,0.004827666678014265,-0.2665159819421817,0.950926508555693,0.15718780708272026,0
36,7.241666666666667,-0.6886238178377817,0.7225565211085351,-0.060904115706977326,-0.4276943933740272,0.8871073012864422,0.173545791884184,0
37,7.441666666666667,-0.7262888957485816,0.685671253677651,-0.04857336505148011,-0.5148134811348741,0.8385705458105808,0.1782316451720553,0
38,7.6416666666666675,-0.7071157329149069,0.6996766258746207,-0.10217611985645307,-0.6126913933019956,0.7795364426340003,0.13012375332423753,0
39,7.841666666666668,-0.8788735423285143,0.4721383992611644,-0.06831272603281921,-0.7626127137396957,0.6397041126124725,0.09591922200094392,0
40,8.041666666666666,-0.9958307191870723,0.09121353432706994,-0.0011268890463405283,-0.9213324245323197,0.38470092214200785,0.056140573638735286,0
41,8.241666666666667,-0.9988639128770451,0.0465925250933163,-0.010001007818616956,-0.9911173734812837,0.12335075515324596,0.049708582625997505,0
42,8.441666666666666,-0.909282762539404,-0.4153213669993422,0.026702431771429388,-0.9931377391064924,-0.09506334852242934,0.06812041492935637,0
43,8.641666666666666,-0.782410577913716,-0.5910698896908847,-0.1961378929975813,-0.9601046281933446,-0.2664283149866292,0.08494148512420209,0
44,8.841666666666667,-0.8212592209813947,-0.5112725840943192,-0.2532461978126227,-0.9341445360908406,-0.35071884501633754,0.06610807395495978,0
45,9.041666666666666,-0.8028648947494018,-0.5270024652139249,-0.2787047944285816,-0.89817048812722,-0.43496796511507907,0.06397377260220657,0
46,9.241666666666667,-0.5042839112880211,-0.8212782629534446,-0.26683281585335067,-0.8028552580354006,-0.5960170623153425,0.01367830668978688,0
47,9.441666666666666,-0.49950204149795324,-0.8111545289390921,-0.30418093418387737,-0.7362679701281026,-0.675563817437402,-0.03902569323981636,0
48,9.641666666666667,-0.4266258957485655,-0.8406004681156191,-0.33373821789021496,-0.6510892102621056,-0.7556447922588341,-0.07130068872297846,0
49,9.841666666666667,-0.4716069628358495,-0.8131187659050839,-0.34121070489909805,-0.5568965705876945,-0.8163259659339532,-0.15322573873100911,1
50,10.041666666666666,-0.45980456609328924,-0.8204463161438074,-0.3397758133325825,-0.5073660035112961,-0.8436111401168663,-0.17578390925137738,1
51,10.241666666666667,-0.46646696257127696,-0.8138827174052806,-0.34641520627496003,-0.5083741205740882,-0.840833058140319,-0.1858911559728482,1
52,10.441666666666666,-0.5080881276234586,-0.7901431237395068,-0.3428123372564974,-0.5544023556405913,-0.8104226203779429,-0.18934942418690434,1
53,10.641666666666667,-0.529048925832687,-0.7821294238113343,-0.32921239114564105,-0.5846130686330366,-0.7908602910826533,-0.18101812056290095,1
54,10.841666666666667,-0.5331567303458312,-0.7812671280021787,-0.32460064015674733,-0.5964939026764802,-0.7819716463859332,-0.18087390170573336,1
55,11.041666666666666,-0.5128049937474798,-0.8015185344075433,-0.3075696301471114,-0.5861585665420346,-0.7921092103217585,-0.1702384615556296,1
56,11.241666666666667,-0.5127585197435627,-0.8152047010787682,-0.269295369008579,-0.5947898581102022,-0.7938907536017517,-0.1263427719930527,1
57,11.441666666666666,-0.5527028179163621,-0.8321388946745085,-0.04543627446435128,-0.6475870709523628,-0.7615548339813861,0.02579186644900676,0
58,11.641666666666667,-0.5742706470151109,-0.8130922551841266,0.09536355979323204,-0.6585030543720649,-0.7357489789064582,0.15826296920241767,0
59,11.841666666666667,-0.5588579639115396,-0.8106896827891749,0.17452797595753958,-0.6398066636772792,-0.7316813547891914,0.2351378918167016,0
60,12.041666666666666,-0.344659797564201,-0.918142077370583,0.1955115078572997,-0.6322254126118643,-0.7390787711004402,0.23249429618040435,0
61,12.241666666666667,-0.3936438064990503,-0.9024577909348545,0.174969966525462,-0.6125689451881617,-0.7695032978009235,0.18062104546416002,0
62,12.441666666666666,-0.5175695127730933,-0.8361222982151276,-0.1817176432691005,-0.5556013237135385,-0.82325857514613,0.11641515166046029,0
63,12.641666666666667,-0.481137954003444,-0.8099586265833926,-0.3353703809827648,-0.5211688527761085,-0.8534242068027574,-0.00708167629305787,0
64,12.841666666666667,-0.4935007598979807,-0.813013938395264,-0.30897465260946194,-0.5213151928564398,-0.8532852129809573,-0.011610986396322048,0
65,13.041666666666666,-0.49889479921552665,-0.8128710299607133,-0.30057389767960374,-0.5173723043994105,-0.8556957677022007,-0.010519114838494933,0
66,13.241666666666667,-0.5346915205143878,-0.7841397932310773,-0.31500755953077636,-0.5608289630177649,-0.8273446860692321,-0.031171215462709935,0
67,13.441666666666666,-0.5335658026288299,-0.8259093980618016,0.1821570763331623,-0.6570849396819858,-0.7513761576427401,-0.060607357384671656,0
68,13.641666666666667,-0.8778136322429546,-0.4372082001302356,0.19568397171794882,-0.8055985796578703,-0.5923374604025078,-0.012135133173142269,0
69,13.841666666666667,-0.9595472769723791,0.17929392706938363,0.21707766115132796,-0.9388588257126596,-0.31529054713782523,0.13833284594403622,0
70,14.041666666666666,-0.955849077431408,0.19847613858752466,0.2167020156457069,-0.9689856683966384,-0.009224687011630192,0.24694468933641325,0
71,14.241666666666667,-0.8126529893317153,0.43131551923806755,0.39186992968920636,-0.9282776825497037,0.25022544213935805,0.2751141075741377,0
72,14.441666666666666,-0.6843490490887552,0.5620045306507514,0.4645613915720347,-0.8437430466964169,0.44848502502125104,0.29488786594761157,0
73,14.641666666666667,-0.551551417425252,0.6701667813771467,0.49665633900594813,-0.7466720269719358,0.5858021022216682,0.3151456507240661,0
74,14.841666666666667,-0.42156783317448215,0.7524486387366051,0.5060648259818126,-0.6367803246784469,0.6925455307417462,0.33895649566285785,0
75,15.041666666666666,-0.6760118109866626,0.6098271112084512,0.4136652340258816,-0.5361020316409406,0.7634229329964051,0.3602499646712298,0
76,15.241666666666667,-0.44288146850030286,0.7707225437703151,0.4580859803390956,-0.46018702926907507,0.8081737771953696,0.3675364525407959,0
77,15.441666666666666,-0.15969031641303988,0.8772891306643892,0.4526177018876126,-0.34186127159072455,0.8633559918418304,0.3711432369546594,0
78,15.641666666666667,-0.01585635987575651,0.8849841973643714,0.4653509925495271,-0.18572658748063176,0.9052504291098746,0.38213517935304964,0
79,15.841666666666667,0.30426572644937394,0.9006864541758575,0.31013912841232455,0.04656337314613074,0.9298032976664082,0.36509954797277816,0
80,16.041666666666668,0.5540952904818479,0.8076699598924191,0.2016126110966635,0.2678166398140054,0.8978004590317912,0.34961204670468776,0
81,16.241666666666667,0.7844943604284772,0.5999530586480177,0.15692331208205723,0.47732971746174724,0.8270892710429463,0.2967822072724984,0
82,16.44166666666667,0.8763089550653642,0.24609839566768565,0.41414755211402754,0.7068281058433974,0.6577518771985693,0.2603007814655838,0
83,16.64166666666667,0.9613013720479378,-0.16175173243698276,0.22301580471434626,0.9247525721650942,0.29992227985079983,0.23426332688481336,0
84,16.84166666666667,0.9544442476243418,-0.2979549783807372,0.016093757638863292,0.9847091877077107,-0.0034738676920325513,0.17417160471006485,0
85,17.041666666666668,0.9543775342789835,-0.29294714405838657,0.057840235576997426,0.9768091376966564,-0.16382391179762437,0.13786092425208424,0
86,17.241666666666667,0.9004020703109799,-0.4285667887726415,-0.07487736200486271,0.9840092532379359,-0.11869014788630763,0.13280978253444264,0
87,17.44166666666667,0.9930929786642293,-0.1135444392057597,-0.02956342424784553,0.9805260297994157,0.13796333749769554,0.1397670289885724,0
88,17.64166666666667,0.4597569589347572,0.8738714073110472,0.1580262705858548,0.822978016059907,0.5528423826945603,0.1306617196377752,0
89,17.84166666666667,0.32514343082505204,0.9346494910216249,0.14391691465680018,0.4855631818874637,0.8604759638016952,0.15430331206706305,0
90,18.041666666666668,-0.3196312162832167,0.9464543256723599,-0.045388269336805835,0.004971736256648818,0.9944323341109161,0.10525974878038695,0
91,18.241666666666667,-0.5653108677510823,0.8248149950770529,-0.010190520033828103,-0.4631516652473797,0.8806898824729952,0.09937739123302218,0
92,18.44166666666667,-0.7975846930645063,0.5847844371993047,-0.14793856629929053,-0.7218222862430711,0.6891380328692344,0.0637287904792491,0
93,18.64166666666667,-0.8301320458804836,0.40870380484979163,-0.3792650607472122,-0.8160061023341145,0.5777505337756038,0.01839460995758084,0
94,18.84166666666667,-0.8223481064053795,0.4265383404309378,-0.3765748744060182,-0.8501745825862393,0.5264929701637017,0.0028864324896898884,0
95,19.041666666666668,-0.9612173176511472,0.05128836780999237,-0.270981127709884,-0.9366389784274803,0.3501705184307534,-0.00938254295291197,0
96,19.24166666666667,-0.9775345212024095,-0.21067679519892757,-0.006445760023854236,-0.9894791060248448,0.13074443936303987,0.06194344449510954,0
97,19.44166666666667,-0.8991712757059691,-0.4349356162129551,0.048187412202330464,-0.9890481167054395,-0.09391183597024204,0.1138612748309205,0
98,19.64166666666667,-0.8656445439017999,-0.49976979669282945,0.029827402277988618,-0.9543135183780657,-0.27600859449788845,0.11447691646868216,0
99,19.84166666666667,-0.6819912826728242,-0.7303223268670536,0.038951113434265064,-0.8749885050250867,-0.46693297918958054,0.12794025566297168,0
100,20.041666666666668,-0.41253005584828,-0.8884592378782974,0.2011445640591126,-0.7411308416819259,-0.6587677958547249,0.12942204855644915,0
101,20.24166666666667,-0.3733589268767606,-0.8905813526206989,0.2597459645224935,-0.5562690011658527,-0.8222651215535259,0.12018680550921575,0
102,20.44166666666667,-0.26320721417956305,-0.9057209208088117,0.3322522776642352,-0.41988411274859533,-0.8948718969965491,0.1513328114690341,0
103,20.64166666666667,-0.2916498605421217,-0.8809541124108711,0.3726395183983252,-0.36401922085097504,-0.8941145759947987,0.2608622852094394,0
104,20.84166666666667,-0.33749331358546014,-0.8592583929431209,0.3844128996819851,-0.4236567819525553,-0.8497986103111227,0.31361959922633975,0
105,21.041666666666668,-0.3518636778392113,-0.8420034481474291,0.4089280444348413,-0.43513651245503937,-0.8490466937371084,0.2996263129008369,0
106,21.24166666666667,-0.3003833426416874,-0.8529911900652252,0.4268206615600023,-0.36896176503542466,-0.882462795653542,0.2917646829711905,0
107,21.44166666666667,0.3332310826879198,-0.9276836315297533,0.16840464756771342,-0.07503073702853125,-0.9729683753529076,0.21841000220703966,0
108,21.64166666666667,0.5065476017328121,-0.8558515572898846,0.10453534839094394,0.21262921767777765,-0.9666917601049696,0.14246352773567197,0
109,21.84166666666667,0.5502765690478364,-0.8138309364384103,-0.18674823815158767,0.3150319328505468,-0.9453343003073204,0.08424928454840346,0
110,22.041666666666668,0.5539431792919258,-0.8094614611798461,-0.19472826446240923,0.33837615927613574,-0.9406807073982474,0.024927526196232497,0
111,22.24166666666667,0.6981009138773364,-0.7150174228240102,-0.037485985404397515,0.3599703786471641,-0.9328246957760111,0.0161063169908523,0
112,22.44166666666667,0.7477735154606302,-0.6620540554973862,-0.05019160462781041,0.44523280880752436,-0.8954129497622015,0.0018426501337993322,0
113,22.64166666666667,0.7727978838903251,-0.6333890430794068,-0.040021878536487684,0.6102546097471345,-0.7921217466153141,-0.011508684611067268,0
114,22.84166666666667,0.8801992606410434,-0.394388134800299,-0.26402132621381574,0.7098663436237127,-0.7042410974252455,-0.01158666852841699,0
115,23.041666666666668,0.8445930625666692,-0.5063864277187684,-0.173883134565947,0.6809568873916088,-0.732322145734634,-0.0014115171105438145,0
116,23.24166666666667,0.6457138616206983,-0.7609163886297798,-0.06371701833497678,0.5154885446326685,-0.8567634758534765,0.015096582260998173,0
117,23.44166666666667,-0.24189146632669883,-0.9453529722284095,0.21862359528932698,0.10004876390263157,-0.9920065615987432,0.07689750702457383,0
118,23.64166666666667,-0.7175936532150559,-0.667775510981253,0.19782622626739094,-0.3995244622309053,-0.9091068103120579,0.11791951290326098,0
119,23.84166666666667,-0.8589928591928612,-0.4786493178017943,0.1817308405955099,-0.7410019062479368,-0.6545675981949465,0.14985804726548177,0
120,24.041666666666668,-0.9716365580421673,0.15408424258934042,0.17938908902617098,-0.933263145099543,-0.329536052780609,0.1429191796669904,0
121,24.24166666666667,-0.9643534090061516,0.22499275674378946,0.1392866179898277,-0.9877035079909446,0.006656543382006871,0.15619689732061282,0
122,24.44166666666667,-0.9194987927059965,0.34245763428807025,0.1929889606429155,-0.9651212916137191,0.21832615814060313,0.14448038325472248,0
123,24.64166666666667,-0.874223050374944,0.48459260817107663,-0.030067628757213374,-0.9406466335057082,0.31724716131868735,0.12057424894898859,0
124,24.84166666666667,-0.6925230941048621,0.7201110637938928,-0.04303277742670754,-0.9091267166122828,0.40313142221650483,0.10475528417921691,0
125,25.041666666666668,-0.7222760878265972,0.6916048291712389,-0.00011498229086806443,-0.9084554396298451,0.38416363913658486,0.16470280074206714,0
126,25.24166666666667,-0.7962257299687745,0.02742914545014872,0.6043775549402597,-0.8949670988487041,0.30957202360589897,0.3212460959745396,1
127,25.44166666666667,-0.8205296123239809,0.18037548516245328,0.542398229764688,-0.88474976947851,0.27290032751176563,0.37781378568243773,1
128,25.64166666666667,-0.8449834662632075,0.22370880170681617,0.4857543759769081,-0.8737494491672444,0.26572918951349606,0.40736948575026766,1
129,25.84166666666667,-0.9058972722870213,0.02317178390460973,0.4228630989973149,-0.8820870093918599,0.23285205710378495,0.40951486830719713,1
130,26.041666666666668,-0.913804026862834,0.010461078053240948,0.40602064767106794,-0.897616449262584,0.19757583552075317,0.3940158616496389,1
131,26.24166666666667,-0.9221697868759688,0.00936647312767729,0.38667189366991667,-0.9074970167111436,0.18408830634428724,0.3775720595166789,1
132,26.44166666666667,-0.9828870706523323,0.18137779354667022,0.03217300658344819,-0.9229551550257795,0.21084627036158163,0.32202116713960044,1
133,26.64166666666667,-0.9850025669100878,0.1715764579490859,0.018206104970144854,-0.9370889862758944,0.22033648408268805,0.2707693955795155,1
134,26.84166666666667,-0.958286331789488,0.0651669972472943,0.27828145603905874,-0.9389930710140545,0.2232585171141436,0.2616250124196626,1
135,27.041666666666668,-0.9464311526565102,0.04369273901209578,0.3199359589650567,-0.9384691459399352,0.21694832393680433,0.2687174852140809,1
136,27.24166666666667,-0.9366083150934618,0.017689824303140332,0.3499313278543531,-0.9432929515308652,0.20414950318529967,0.2617659029388367,1
137,27.44166666666667,-0.9232987622195475,0.11395574261570991,0.3667880647032477,-0.9479994088694836,0.18556646704372393,0.25857727489479826,1
138,27.64166666666667,-0.955234912328691,0.1770886221592228,0.23699342220860523,-0.9466126129802561,0.1935633201124602,0.25779410787241336,1
139,27.84166666666667,-0.9829271845967118,0.1378605019173142,0.12185496211434373,-0.9448946104062453,0.2029553008982784,0.2568721881841609,1
140,28.041666666666668,-0.9758247200024198,0.16601621147335338,0.1421433549633393,-0.9442926559576754,0.2129509478629281,0.25092483677125227,1
141,28.24166666666667,-0.969991869100273,0.1899046851087219,0.15182879981451658,-0.9431662065765478,0.22396906112041412,0.24551042021235062,1
142,28.44166666666667,-0.9634150338604246,0.21058246380000598,0.16579052588020907,-0.9398776816458521,0.23401317283384238,0.24873234306027944,1
143,28.64166666666667,-0.960742689301566,0.21785096128859727,0.17179768222891992,-0.9390577323717264,0.23750675325446732,0.2485178412738056,1
144,28.84166666666667,-0.9346053192083723,0.1285516814963118,0.3316434267279959,-0.9420180186814406,0.22747521203655002,0.2466922787369311,1
145,29.041666666666668,-0.9732178829826654,-0.006747297924071649,0.22978560923927152,-0.944567606098736,0.21929363214956504,0.24434062373570725,1
146,29.24166666666667,-0.9682271108824526,0.017467389928458563,0.24946172460180427,-0.9449245415945151,0.2242971137623588,0.23834516032483533,1
147,29.44166666666667,-0.971020370012649,0.05081650394032393,0.2335318478233356,-0.9443661045244093,0.23062560858630332,0.23448771671366933,1
148,29.64166666666667,-0.9812738317454293,0.0005714223647321136,0.19261708285643886,-0.9464947046840498,0.23197844445977048,0.2243519006183784,1
149,29.84166666666667,-0.9328179948872696,0.31448216403039453,0.17593054573113293,-0.9508918491040839,0.2260140083824593,0.21147661649059368,1
150,30.041666666666668,-0.9446704008902747,0.28724788946748997,0.15838713230019927,-0.9478057094358285,0.24650874330622255,0.2022319871692728,1
151,30.24166666666667,-0.9748764360167103,0.2162591917362029,0.05336568643765117,-0.9395949189655921,0.2952186996460947,0.1732261747927014,1
152,30.44166666666667,-0.9697110640896838,0.2401782057920375,0.04443964046401841,-0.9352920296332803,0.3271056246921663,0.13502121907021442,0
153,30.64166666666667,-0.9372708794832727,0.34031040473628593,0.07557861404443675,-0.918950771406163,0.3721406826440955,0.13054038475967683,0
154,30.84166666666667,-0.8127361615880407,0.5625312524328805,0.15171856077432777,-0.8611293525302299,0.4890806542446785,0.13876725786173205,0
155,31.041666666666668,-0.5476133216718831,0.820227130154103,0.16536960085412045,-0.7339163538851107,0.660007033926461,0.16049143487295733,0
156,31.24166666666667,-0.3738979599332346,0.9195411586933673,0.12101393732386875,-0.6194212032949966,0.7733427258240353,0.13512365197710477,0
157,31.44166666666667,-0.3940852046728809,0.9132905831882893,0.10294251851168468,-0.515286338660605,0.8500933085393004,0.10872605927952227,0
158,31.64166666666667,-0.0921390667731618,0.9881418590816059,0.12282531784985877,-0.3094824907801577,0.9432852172842552,0.12013986329900998,0
159,31.84166666666667,0.28906093943994515,0.9510408626961628,0.10938487451304667,-0.020785691743492485,0.9941282856504242,0.10619278077389849,0
160,32.041666666666664,0.2995235622231676,0.936058837779181,0.1846063051161405,0.23767458842753858,0.9620497810305075,0.1340559914175903,0
161,32.24166666666667,0.7456694495987002,0.6659597430406698,0.021787440978171868,0.452922531864966,0.8857433271178301,0.10158709856701997,0
162,32.44166666666666,0.8015242305666703,0.5934745977172265,0.07312188235325405,0.6000649488435045,0.7941152506929672,0.0964521943052023,1
163,32.641666666666666,0.7676673605656279,0.638298098490817,0.05711708137860124,0.6745705525715177,0.7327635125337214,0.08951091722577925,1
164,32.84166666666667,0.7455050218942745,0.6651031163664268,0.04312895697886889,0.6635008871951885,0.7432911230794138,0.08535150287219143,1
165,33.041666666666664,0.6965744186532156,0.7157728103354289,0.04953143711277916,0.5963270604393408,0.7978437887885483,0.08853996656487591,1
166,33.24166666666667,0.6704948143931493,0.7398044748265051,0.05591102662780532,0.5498701930452418,0.8298608219379133,0.09473007449020615,1
167,33.44166666666666,0.6768581930886556,0.7347002069659665,0.04559158182084054,0.5427862366702373,0.8356396555216432,0.0841989750592648,1
168,33.641666666666666,0.6146146543349675,0.786863701093795,0.055626815275399026,0.4408062285981727,0.8919737524939871,0.10036281029769488,0
169,33.84166666666667,-0.41510818407918776,0.9070890172018358,0.06981912619252234,-0.04000198158789292,0.9951514567182462,0.08985221010411618,0
170,34.041666666666664,-0.6089266729184214,0.7879994571225233,-0.09091293958018656,-0.3258204319276202,0.9430543575893818,0.06700391608090939,0
171,34.24166666666667,-0.7434703975885326,0.6412608849713617,-0.1898321503731532,-0.52890327777907,0.8482561161864494,-0.026886504176571804,0
172,34.44166666666666,-0.6887744795685287,0.5765586172086922,-0.4395109523294085,-0.6845294184177411,0.7190099960283108,-0.12018361340897421,0
173,34.641666666666666,-0.7297542616340718,0.5383684217740614,-0.4214476955251001,-0.8239274478537439,0.5374099253126872,-0.17981694260727568,0
174,34.84166666666667,-0.7338426665484711,0.5484110393880485,-0.4008993297953367,-0.8944561064958046,0.39280166567359176,-0.21367059927940035,0
175,35.041666666666664,-0.857980526305021,-0.02572961357499711,-0.5130374289139547,-0.9269838276838943,0.28656538763563627,-0.2420356622932951,0
176,35.24166666666667,-0.8762399267665473,-0.21970102057920796,-0.42887650005171707,-0.9551979855445293,0.1556931183926054,-0.25170709425214777,0
177,35.44166666666666,-0.8726100880243111,-0.2772688627013339,-0.40208657283539484,-0.9780493029848892,0.02017921276211409,-0.20739421472903702,0
178,35.641666666666666,-0.7502939294167426,-0.489915771097359,-0.44389363220310374,-0.9641537258506736,-0.13817540950616852,-0.22652847312438923,0
179,35.84166666666667,-0.7245243745322922,-0.48918977312172474,-0.48554896414440696,-0.9248218776071546,-0.29935053177115445,-0.2347205867142989,0
180,36.041666666666664,-0.6183145459731438,-0.5958849058262685,-0.5124532185931165,-0.8935308729414353,-0.38707467014973146,-0.22754291645532063,0
181,36.24166666666667,-0.6299921043971306,-0.5794966803416882,-0.5170043963741876,-0.8861416554156539,-0.4066201448321067,-0.22229040544729112,0
182,36.44166666666666,-0.6612909251775614,-0.6765490040806743,-0.323999625548014,-0.8660518611290011,-0.4569750250035099,-0.2028003953596622,0
183,36.641666666666666,-0.5431757433444793,-0.7314132879573954,-0.4123041523457221,-0.808049776364462,-0.5375260748859981,-0.24108354928322123,0
184,36.84166666666667,-0.29014024805410654,-0.7904271632533545,-0.5394845095555172,-0.6513311871458971,-0.6964646965942456,-0.3011720621986746,0
185,37.041666666666664,-0.12229423922125637,-0.8326210590738377,-0.5401724641631181,-0.35485384205164416,-0.8720252736020937,-0.33712115475060384,0
186,37.24166666666667,0.15282044615399676,-0.8310631519349088,-0.534770931084804,-0.04246890436744616,-0.9579502937017061,-0.28377390112313755,0
187,37.44166666666666,0.465510995804362,-0.7792713863277362,-0.41956598913172033,0.11540413587420828,-0.9633474408805472,-0.2421643936916165,0
188,37.641666666666666,0.4128893275628148,-0.7816750813871828,-0.46744675667188873,0.15775566755054737,-0.9579782253186189,-0.2395639145845438,0
189,37.84166666666667,0.28440576691552183,-0.8333277719009428,-0.4740023041334339,0.05991351592111732,-0.9671220847006127,-0.24715429167690234,0
190,38.041666666666664,-0.0046397864605841055,-0.953070620152897,-0.3027125127624768,-0.03671920540298218,-0.9734645045484392,-0.2258728809282679,0
191,38.24166666666667,0.5360160659241049,-0.8370478365853539,-0.1097164360477712,0.08924305055196513,-0.973878524127326,-0.20879726571907226,0
192,38.44166666666667,0.6955241272143433,-0.7184346996444174,-0.009887912295399873,0.31058420006217485,-0.9482138573365864,-0.06654273383782085,0
193,38.641666666666666,0.7038237509167498,-0.7076831802885918,-0.061778993048622145,0.4641854879428571,-0.8845051605307536,-0.04671673980189596,0
194,38.84166666666667,0.7253332749617063,-0.684725243484308,-0.07101395052157419,0.5148111168189059,-0.8562741326799337,-0.042001472627735556,0
195,39.041666666666664,0.7487069409052398,-0.656371756072065,-0.09281182290630478,0.5688470941804522,-0.8199872531158956,-0.06351289766578276,0
196,39.24166666666667,0.7868445527192713,-0.6149633787871583,-0.05192005977165243,0.7152701108158618,-0.6949053260948054,-0.07412999621298595,0
197,39.44166666666667,0.7688901078860773,-0.635605760092281,-0.0693780925973794,0.7928805067301925,-0.5987547359573028,-0.11328401571260527,0
198,39.641666666666666,0.9726940341248151,-0.20726881618066997,-0.10443157480885054,0.814490346561038,-0.5696299277433158,-0.1101236612995823,0
199,39.84166666666667,0.6132512628189961,-0.6423548976402549,-0.4596771411855107,0.7401412835644106,-0.6571947514571335,-0.1424287155766821,0
200,40.041666666666664,0.5699862895003491,-0.6716344868429087,-0.4733104117435908,0.6646149242353008,-0.730214215153173,-0.15834835797046012,0
201,40.24166666666667,0.6276904623198842,-0.7029052789132074,-0.3345576966512601,0.6115836530328714,-0.7728937585094661,-0.1691173361902312,0
202,40.44166666666667,0.6114120124118108,-0.7084746592785186,-0.35247554275258197,0.5695459672946257,-0.802551218523496,-0.17756388367255702,0
203,40.641666666666666,0.579574511451921,-0.747869033944236,-0.32370556643743836,0.4716384679612389,-0.8635688577932567,-0.17834232080138945,0
204,40.84166666666667,0.574499879438981,-0.7613431864517245,-0.3005103009351445,0.38189331041046726,-0.9087146522752516,-0.16850869474304161,0
205,41.041666666666664,0.518755450925602,-0.7913236740585007,-0.32357321429551483,0.3045420633285056,-0.9381203691534815,-0.16487663461798396,0
206,41.24166666666667,0.038844661184699314,-0.9398906891211722,-0.33925887578775893,0.09783601046169982,-0.9834907479540479,-0.15223029838283153,0
207,41.44166666666667,-0.23793296342658443,-0.9703316535212967,-0.042946328011481065,-0.07567959873241553,-0.9900246466387175,-0.11884358368705988,0
208,41.641666666666666,-0.28775703222021354,-0.9403636025961538,0.18141715828498106,-0.2100063663208772,-0.9758069658356664,-0.06081193576339962,1
209,41.84166666666667,-0.2913856565010649,-0.9361649487679785,0.1966966900679603,-0.2756730245151232,-0.9612461150642384,-0.003207776269232018,1
210,42.041666666666664,-0.2746785015569576,-0.9467483654992749,0.16798587204546772,-0.2897031200139764,-0.9571010787550459,-0.005443096553875442,1
211,42.24166666666667,-0.2744135147521367,-0.9475228551205732,0.16400506682885263,-0.3085204090202476,-0.9512109438849614,0.003591302195626024,1
212,42.44166666666667,-0.15681580816257318,-0.976699552701249,0.1465154806274728,-0.34006876164262506,-0.9402243612306699,0.01820406282208772,1
213,42.641666666666666,-0.1605770564775441,-0.9752346851264467,0.1520931223274987,-0.3469345064977881,-0.9372814044765236,0.03376413812985449,1
214,42.84166666666667,-0.15299088951126638,-0.9786535950607905,0.1372258306629682,-0.34746428901785303,-0.9367203413915693,0.04270327716440242,1
215,43.041666666666664,-0.1482898759515811,-0.981350528528738,0.12231620026239942,-0.34326244581647636,-0.9378559484737522,0.050961879915183285,1
216,43.24166666666667,-0.16050654112732193,-0.9819327364980851,0.1002284951933609,-0.3541737180603566,-0.9343520588752143,0.03933455873593979,1
217,43.44166666666667,-0.1753456187078219,-0.9806102609746155,0.08750674300457074,-0.3626369731934782,-0.9314604527504167,0.029594773779535486,1
218,43.641666666666666,-0.18164115646388257,-0.9799506200399893,0.08187351563053599,-0.35803441840736083,-0.9331067590597043,0.033513153131242195,1
219,43.84166666666667,-0.19130441676444465,-0.9781839773891151,0.08098596486816163,-0.3576523700955799,-0.9329270235429609,0.04161671428989055,1
220,44.041666666666664,-0.19561517515278398,-0.9779985185950123,0.0724817278761151,-0.35442410875483815,-0.9342298739700211,0.03997616433948596,1
221,44.24166666666667,-0.5088506765385248,-0.8438987074645952,-0.17001753005461429,-0.36605891280989594,-0.9304969959576556,0.013274519434469891,1
222,44.44166666666667,-0.6857162747448182,-0.679716246615412,-0.26034403130693373,-0.5187350873070086,-0.8548548058034765,-0.01171196786585109,0
223,44.641666666666666,-0.9546070491983015,-0.29754721578963245,0.013821577216434901,-0.7297081101553642,-0.6837566587320263,-0.0017045859035101792,0
224,44.84166666666667,-0.9792214900884653,-0.19909986639479432,0.038529424476639026,-0.9173664861978897,-0.3975080361429836,0.02064197671458416,0
225,45.041666666666664,-0.9596378682833587,0.27052740663866875,0.07687707079440437,-0.9908604696290473,-0.12590667069774242,0.048404958426946296,0
226,45.24166666666667,-0.9649989033420656,0.24832886573725313,0.08432016953410618,-0.9929562905279874,0.07469819747971547,0.09196730067899396,0
227,45.44166666666667,-0.8239503956540184,0.5521742120132678,0.12731608338742392,-0.9691168309065873,0.2005768226910913,0.1434625604564473,0
228,45.641666666666666,-0.7983507583780708,0.5950861807087994,0.09224155314484794,-0.9516687511995643,0.24852898397372541,0.18044370899327553,0
229,45.84166666666667,-0.909415774925906,0.34784419893635027,0.22796350932165244,-0.9218391273167208,0.30147574509885805,0.24356723602536412,1
230,46.041666666666664,-0.902385230931823,0.3239298065858553,0.2842012938066458,-0.8724431480566861,0.3752147719888473,0.3131402693527241,1
231,46.24166666666667,-0.901264319818079,0.34814215152233946,0.25791407126454274,-0.8467030440981564,0.4231456810854832,0.3225549374813818,1
232,46.44166666666667,-0.8247975619399897,0.5653715737286301,-0.007997839549622415,-0.8558273447259801,0.42072518152018495,0.30091506717691363,1
233,46.641666666666666,-0.8215277965854376,0.5699155557742612,-0.016980539567143783,-0.8564240771146845,0.4290512482988149,0.28714600201202545,1
234,46.84166666666667,-0.9305799084443399,0.3120602680857744,0.1914142708419586,-0.8537455577552426,0.4330456944325098,0.289119264572002,1
235,47.041666666666664,-0.8873041700289936,0.2932305184794023,0.3559595101713958,-0.8468888702263282,0.4356046855736201,0.30500458913446027,1
236,47.24166666666667,-0.709257121769401,0.6339712268684242,0.3082771784001053,-0.8375765344074652,0.4371273829323521,0.3276968112458429,0
237,47.44166666666667,-0.6074278073708252,0.7734527191302893,0.18111419078204102,-0.8041034548291788,0.4877705939910697,0.33984920416175474,0
238,47.641666666666666,-0.5561007721920956,0.8184442587523909,0.1445715272195883,-0.7603361105977235,0.5551077584454892,0.3372601005674269,1
239,47.84166666666667,-0.5460925410427351,0.8301309326981857,0.11254141990897858,-0.7438092142469984,0.5884704867900401,0.31693901460431795,1
240,48.041666666666664,-0.5527202777405488,0.8293256250831493,0.08197134959761554,-0.7485511870590016,0.5970792586048702,0.28838772390033923,1
241,48.24166666666667,-0.5464218222105842,0.8362346927263548,0.04620314808456417,-0.7414182964649504,0.6204428883714185,0.25563554513475384,1
242,48.44166666666667,-0.5459872521148887,0.8370191304608777,0.03601243910858089,-0.736917813128416,0.6290640311367387,0.24744813885747813,1
243,48.641666666666666,-0.5454215601595123,0.8378403228456244,0.02321454559330126,-0.7350376393236202,0.6373183880291272,0.23139779829876184,1
244,48.84166666666667,-0.5599660337456962,0.8282756655989756,0.019936469790011378,-0.7509459508406058,0.6230999528803585,0.21869299859984936,1
245,49.041666666666664,-0.6191302393032594,0.785005798927765,0.02106282103780278,-0.7993038513673285,0.5615508518371776,0.2139485779113668,1
246,49.24166666666667,-0.9795570991665501,0.1587377307565911,0.12357274095309977,-0.8700266837326729,0.4421955821425151,0.21798311110443827,0
247,49.44166666666667,-0.8294424628197211,0.5469535642025936,0.11343279718685806,-0.8555734046642846,0.4714533909402312,0.2138360339187999,0
248,49.641666666666666,-0.6793106755493494,0.7325867059256134,-0.04305489967176628,-0.8051394874470631,0.5493596499933003,0.2235047666442916,0
249,49.84166666666667,-0.668150643489453,0.7384335135954904,-0.09105308124192536,-0.7752433049416592,0.602712399034749,0.18903857329368265,0
250,50.041666666666664,-0.6485105243841148,0.7497399015071121,-0.13162135028613917,-0.7520914736753774,0.642574033162265,0.1464821734218187,0
251,50.24166666666667,-0.6295639442154293,0.7548638927352097,-0.18392863721714936,-0.730001498790361,0.6777889867450468,0.08774908096925688,0
252,50.44166666666667,-0.5904268545416459,0.7768986561517242,-0.21868837990552542,-0.6895212061180489,0.7231616502577239,0.03997166383873005,0
253,50.641666666666666,-0.6275369305938505,0.7704000846955289,-0.1126104357596169,-0.6386966987134746,0.7678646080537761,0.04950222975715847,0
254,50.84166666666667,-0.580307165176892,0.803821943995432,-0.13082001527199233,-0.5509502751172777,0.8342484005070109,0.02198637304537059,0
255,51.041666666666664,-0.18117046221559902,0.983451259640021,0.0009399643835394029,-0.39915503871625313,0.9120057463836745,0.09444984717077924,0
256,51.24166666666667,-0.21991534730230422,0.9737334644839224,-0.05899474692754398,-0.2681639279341133,0.9579444855275708,0.10212967444511502,0
257,51.44166666666667,0.23283155215044676,0.968592113569271,-0.08728565663742595,-0.11189745551704616,0.9912926154583985,0.06941116615112175,0
258,51.641666666666666,0.46533155459413544,0.8822521087500169,-0.07139860576477196,0.07175722544391028,0.9951462349444725,0.06734145582353213,0
259,51.75,0.6017247939284264,0.7927703769635847,-0.09717202159474182,0.26679953556712754,0.9628574501303646,0.04151552179146823,1
