,timeStamp,x_gaze,y_gaze,z_gaze,x_head,y_head,z_head,fixations_head
0,0.041666666666666664,-0.9955614187025605,0.04541865358185529,0.08242940917995571,-0.994742225397184,0.09278805778924094,0.04333914331823896,0
1,0.24166666666666667,-0.9960802534958413,0.0454917778717046,0.07585925613748007,-0.993281865961611,0.10997180966754694,0.03601854841973863,0
2,0.4416666666666667,-0.8597957901123636,0.5094155998339083,0.03531212186934994,-0.9876289545095822,0.1522292729871505,0.03762042876036167,0
3,0.6416666666666667,-0.5988728826354318,0.7870364762885104,-0.14807044078847587,-0.9043546796776338,0.42669876429937204,-0.008412959678594643,0
4,0.8416666666666667,-0.5821799926761224,0.8113387787708262,-0.052875724016741975,-0.7318019149933165,0.6794220964729175,-0.05340011270082029,0
5,1.0416666666666667,-0.30648448598779454,0.9518526731595355,0.006614260944643697,-0.4944746626516666,0.8656560160181532,-0.07832285699014993,0
6,1.241666666666667,0.3556098220969434,0.9319922917604103,-0.07022835985098133,-0.062423123247284495,0.9908300255799687,-0.11982993821768123,0
7,1.4416666666666669,0.7412890522910428,0.6551990020296427,-0.1456187099682182,0.431319217470415,0.8860888898903302,-0.1697357117804962,0
8,1.6416666666666668,0.7818758850037517,0.6191982229643993,-0.07255109321940156,0.7403425029525473,0.6505966648230023,-0.1691654753285784,0
9,1.8416666666666668,0.9158090367502109,0.4006065113685767,-0.02842940829052474,0.8742163143340439,0.45787690552403487,-0.1615381538211161,0
10,2.0416666666666665,0.9981909503207361,0.04959564512945876,0.03398674273858768,0.9670655267775891,0.214179575184334,-0.1375186405264489,0
11,2.2416666666666667,0.9904605946232399,-0.13630574950539656,0.02021269775043766,0.9783858466255946,0.15652223309432872,-0.13513669253716237,0
12,2.441666666666667,0.9599470777862565,-0.27948933094805145,-0.01968049124990073,0.9888358232676642,0.07446948552660007,-0.1290659147411293,0
13,2.6416666666666666,0.7104956082988385,-0.6857965908760437,-0.15773086740032904,0.9445478532980426,-0.28088690779702147,-0.17009379135726005,0
14,2.841666666666667,0.6156514082262288,-0.7858453328315029,-0.05848466821318242,0.7859555359520359,-0.5957472722516495,-0.1654058134137589,0
15,3.0416666666666665,0.6529025116171145,-0.7569959470065888,0.0259893543525249,0.6918406125189495,-0.7117043713971759,-0.12179267056582566,1
16,3.2416666666666667,0.6492883480462931,-0.7598863625319159,0.03158096150103228,0.6405392379024981,-0.7583864428599592,-0.12066270340708063,1
17,3.441666666666667,0.7042550934846665,-0.7087994252095817,0.0403501935989174,0.5975341973357742,-0.791081830591522,-0.13092906599475462,1
18,3.6416666666666666,0.7183454899485862,-0.6951347622462792,0.027702335413004618,0.5616833768823748,-0.8169151486298621,-0.13100161858947734,1
19,3.841666666666667,0.7061967665729105,-0.7079081621527646,0.01233534918278199,0.5662057574215238,-0.8183826797578864,-0.09828951996535322,1
20,4.041666666666667,0.707884076701321,-0.7061977146818699,-0.0135985929721559,0.5734803946291394,-0.8132702678989129,-0.09854800011992626,1
21,4.241666666666667,0.680596910712317,-0.7117793574819133,-0.173660563719819,0.5789889947827159,-0.8080030094866987,-0.10910032346853295,1
22,4.441666666666667,0.5744646021194835,-0.8082367548638439,-0.1293977163587767,0.5548601234938377,-0.8255404304843271,-0.10302058528350111,1
23,4.6416666666666675,0.5771369398366359,-0.8057488441325933,-0.13297275230284428,0.5529309457670055,-0.8263358081727845,-0.1069415791197968,1
24,4.841666666666668,0.6051838760529793,-0.7847271171751155,-0.13399935722056613,0.561992842524371,-0.8204753824743884,-0.10480549463116391,1
25,5.041666666666667,0.7215219706407658,-0.6671942404790222,-0.18508887420449352,0.569660056590148,-0.8156799921780845,-0.1007649258723957,1
26,5.241666666666667,0.7341110163566642,-0.6550475459354907,-0.17886790720438622,0.5832002996491201,-0.8073214497905937,-0.09005269122680731,1
27,5.441666666666667,0.8053122169918507,-0.5922594667743721,0.026475595929215306,0.6030863996547668,-0.7942184786206821,-0.0741876187035295,1
28,5.6416666666666675,0.8147019007726729,-0.5778350625532458,0.048656483242017025,0.6233174421960411,-0.7804232736927574,-0.04914142990252126,1
29,5.841666666666668,0.7121632056719555,-0.7007617166522214,0.041911632772729114,0.639889088739085,-0.7676529237032136,-0.035368670353459565,1
30,6.041666666666667,0.7243319056305723,-0.6882365565219646,0.040911279036134784,0.65192121817398,-0.7579105720995178,-0.023880745263402583,1
31,6.241666666666667,0.7989006082902941,-0.5997732519527684,0.045054015530245316,0.64789823870127,-0.7613968882953411,-0.022419874708923586,1
32,6.441666666666667,0.8039847653877167,-0.5932578584025361,0.04066460952836796,0.6513431111072693,-0.758383812461297,-0.024620004260197625,1
33,6.6416666666666675,0.7437687623725132,-0.6366516286712449,-0.20367310040629266,0.6614235103148917,-0.7491498557033102,-0.03596433931599849,1
34,6.841666666666668,0.7466518663426988,-0.6326670893129084,-0.20553185784032788,0.6659753545678588,-0.7447210258299369,-0.04321366444796188,1
35,7.041666666666667,0.7970539398170735,-0.603834726296382,0.009414899928005536,0.668530788683485,-0.7421191264922017,-0.04822641057231324,1
36,7.241666666666667,0.78721258957748,-0.6164900198838007,0.015375116077261294,0.6701472353667959,-0.7409819853574086,-0.04299279365235337,1
37,7.441666666666667,0.7878679809923761,-0.6151716683213013,0.028772608880389995,0.6769357400814342,-0.7351097973012704,-0.03703497957453407,1
38,7.6416666666666675,0.7840596265500107,-0.6193987957986886,0.03994538493233136,0.6802092296148075,-0.7322866300111026,-0.032736759977325204,0
39,7.841666666666668,0.6298714013749307,-0.775382142050766,0.04521671724867536,0.6772761643477969,-0.7347947538194617,-0.03706301344646784,0
40,8.041666666666666,0.5674572451852766,-0.8224999362565074,0.038550353367751325,0.6641950723381378,-0.7470022183455475,-0.028854664589402248,0
41,8.241666666666667,0.7627293307764379,-0.6455628096025343,0.038634529004630415,0.674834336359067,-0.7376897281540318,-0.020309688497093848,0
42,8.441666666666666,0.9314075150992833,-0.36380041910255134,-0.01137083450705167,0.7556589674606379,-0.6549210259603369,-0.007614108705729397,0
43,8.641666666666666,0.9914307813456665,-0.1271799813421211,0.02983719400578447,0.8765390403321202,-0.48077131080267854,0.02320037677969923,0
44,8.841666666666667,0.9858460880820303,0.1663897655918985,-0.0205410934380583,0.9650565959458998,-0.2596215087907832,0.0355308147177855,0
45,9.041666666666666,0.8838747827097323,0.4553115456287538,-0.1070362784619251,0.9986522233942505,0.05141143417252475,-0.007113448252717971,0
46,9.241666666666667,0.6564952666425599,0.7487549588645005,-0.09154221131114461,0.9120725183743363,0.4056379652348669,-0.05984615598693621,0
47,9.441666666666666,0.5895738348059422,0.8049127117871498,0.06721770388574873,0.795468735445915,0.6006622017240167,-0.08021477637027852,0
48,9.641666666666667,0.615874217187072,0.7807591489206258,0.10542343184013409,0.6608060154241214,0.7465136201559573,-0.07779990296229901,0
49,9.841666666666667,0.15200958837220557,0.9869983081472058,-0.05222475234471015,0.44485064666663077,0.8928296247536343,-0.07044972194810684,0
50,10.041666666666666,-0.2648341072936173,0.9594859518857101,-0.09617486027006343,0.16647480660571712,0.9860427417756132,-0.0024187098256874076,0
51,10.241666666666667,-0.5718840668382248,0.811191417022222,-0.12213557649617418,-0.1716838027395739,0.9845660085897509,-0.033977148298905746,0
52,10.441666666666666,-0.7535671795361508,0.6445335676940671,-0.1292787145723862,-0.46026565712951384,0.884568212774057,-0.07546258554308831,0
53,10.641666666666667,-0.7478601160520754,0.6636477419214034,-0.016640957340205657,-0.6527896256605836,0.7536296190350029,-0.07686417854288001,0
54,10.841666666666667,-0.725861908340269,0.6867834336561582,-0.03811830631180066,-0.7955976676246532,0.5996174684572837,-0.08650573848647582,0
55,11.041666666666666,-0.9971398946502734,0.008659370959307529,0.0750802623292643,-0.9336254539464456,0.3489362450525473,-0.08116038831796224,0
56,11.241666666666667,-0.9942224066056975,0.01169703806221159,0.10670044753301879,-0.9840682838454594,0.15817506487133684,-0.08118042610383536,0
57,11.441666666666666,-0.9942211819879888,0.045633866140639794,0.0971688815797763,-0.9966632900145377,0.017811652315019365,-0.07965570525208183,0
58,11.641666666666667,-0.831078453505643,-0.5395356386583888,-0.1349440578023107,-0.9756229992704956,-0.20320185499998142,-0.08287803942546643,0
59,11.841666666666667,-0.564904688827035,-0.7193499999762398,-0.4042502567413086,-0.8682316574420288,-0.46512414669109947,-0.17272323868068387,0
60,12.041666666666666,-0.5037368818629007,-0.7715936938606973,-0.38844861364850636,-0.7459278409645237,-0.6151133609176687,-0.2553961810493148,0
61,12.241666666666667,-0.4420019227578794,-0.8328575657235792,-0.33314047411764847,-0.6890074725230417,-0.667265045964544,-0.2828887789244116,0
62,12.441666666666666,-0.46444626955805424,-0.8287035381096894,-0.31231411850585583,-0.6926488426297008,-0.6534806322923395,-0.30528780523063864,0
63,12.641666666666667,-0.5781041207372748,-0.7081867599625122,-0.4052988263002766,-0.6970158391065987,-0.6347852272306843,-0.33349158208898266,0
64,12.841666666666667,-0.5833121981926973,-0.6980746984050327,-0.4152572634961684,-0.712778993781108,-0.6004053350832745,-0.3625734954846151,0
65,13.041666666666666,-0.7185893212733082,-0.39682590960578945,-0.5711029546566051,-0.7644029373439967,-0.5228020276189572,-0.37731444353135607,0
66,13.241666666666667,-0.7253676048482748,-0.383060213883156,-0.5719324351498765,-0.7942098976478362,-0.4736771087891595,-0.380605616205747,0
67,13.441666666666666,-0.8696289345650705,0.028471313045154586,-0.49288426684233383,-0.8623227517376113,-0.3508614746766831,-0.3650968329407658,0
68,13.641666666666667,-0.865148240466747,0.27005080216965976,-0.4226003860206657,-0.9266430615532384,5.7158454539415605e-05,-0.375942326970711,0
69,13.841666666666667,-0.6449264505935929,0.7010709375858557,-0.304252220694015,-0.8844110365787526,0.31467920883851624,-0.3446652200359967,0
70,14.041666666666666,-0.7114853830926983,0.6761450546738601,-0.19135416035591982,-0.7852075823567881,0.5341849320312253,-0.3132020290486687,0
71,14.241666666666667,-0.5330582852790782,0.803963543986066,-0.26361237534814985,-0.6208862811514444,0.7236169998159185,-0.30146088213122885,0
72,14.441666666666666,-0.5481138038003917,0.7941117327074829,-0.2625981988890733,-0.44435661284812666,0.8408536424361559,-0.3090507282308028,0
73,14.641666666666667,-0.29648162663490674,0.9188470277779932,-0.2604203997605941,-0.2798298228541657,0.9049967090344265,-0.32043131382289103,0
74,14.841666666666667,0.3792123361859521,0.8781107505560479,-0.2917524872940878,-0.02643532387815478,0.9645482318353481,-0.2625792872919732,0
75,15.041666666666666,0.5989242969140534,0.7673834569272489,-0.22893736392382993,0.18726971068768478,0.9619300490963283,-0.19904933083154697,0
76,15.241666666666667,0.5859169737173113,0.7962461284385608,-0.15064329675279522,0.4100116679407482,0.8961917989713782,-0.16950130267608765,0
77,15.441666666666666,0.5783467507499869,0.8012109950253795,-0.15354470797580186,0.49318534637629835,0.8528115463811908,-0.17169938986092154,1
78,15.641666666666667,0.7082786958445566,0.7007786777936704,-0.08515006613320612,0.5281595556022848,0.8341685165755063,-0.1587777370421194,1
79,15.841666666666667,0.7190374565269726,0.6904537687619038,-0.07911213126762567,0.5596103209525616,0.8131681741082649,-0.15998065289528396,1
80,16.041666666666668,0.7254568748226238,0.685161022557865,-0.06531995055151653,0.5842651339901045,0.7982103104003816,-0.14661020965148347,1
81,16.241666666666667,0.7555971094162837,0.646860668444455,-0.10317113870336973,0.5944398701033842,0.7899995395381324,-0.15013982936253334,1
82,16.44166666666667,0.7288366182717607,0.6810369872694432,-0.07061023889737733,0.6058223871976549,0.782730890467791,-0.14251872956785028,1
83,16.64166666666667,0.7378443837409112,0.6714995191751759,-0.0683671056101006,0.629134737042787,0.76447121903024,-0.1406173457313231,1
84,16.84166666666667,0.7569784573599329,0.650475959427775,0.06216623922590128,0.6736927145384793,0.7252938930254059,-0.14172824389593722,0
85,17.041666666666668,0.7897795521933911,0.6088753050931868,0.07429079205988698,0.7368759119149921,0.6627288459269302,-0.133433006470694,0
86,17.241666666666667,0.8161169143634559,0.569464830904597,0.09830050077528002,0.8016279547759958,0.5871398707681837,-0.11251397369204741,0
87,17.44166666666667,0.9990127670451463,-0.043653009459453204,-0.008240512480004212,0.9137947863528578,0.3971001566566046,-0.085384741128819,0
88,17.64166666666667,0.9983218772642066,-0.05359927722989602,0.021921378973577096,0.9870522957446257,0.14012133720310643,-0.07806264359908359,0
89,17.84166666666667,0.9316024423187896,-0.3633795440553042,-0.008496848111240822,0.9926192257895708,-0.09024601263155754,-0.08101067705567015,0
90,18.041666666666668,0.7842251615897962,-0.6188391149194803,-0.04504493062634629,0.958678586320993,-0.28020406479591,-0.049204168537148124,0
91,18.241666666666667,0.7168128225546717,-0.6966250668524064,-0.02988132617680686,0.9032285187319714,-0.42909116367368383,-0.007682200623042558,0
92,18.44166666666667,0.628593327528361,-0.7775752662880299,0.01572049121123081,0.7685229044125075,-0.6397911668988094,0.0063093701447709295,0
93,18.64166666666667,0.5360144253322865,-0.843929011678269,0.021733823488709687,0.5682279407082792,-0.8219986755038771,-0.03788383386486432,0
94,18.84166666666667,0.1922569915456262,-0.9785154356324667,0.07446335629576058,0.392274868377923,-0.9189983256527982,-0.03952853509095628,0
95,19.041666666666668,0.31289933256970587,-0.9469750113132389,0.0730228431774878,0.39116303590901047,-0.9195120024062206,-0.03858959405524758,0
96,19.24166666666667,0.7397553302754887,-0.6709759097297667,-0.05053097952063418,0.5169986510638043,-0.8556319487643204,-0.02462444013531979,0
97,19.44166666666667,0.7910230282489635,-0.6104658855908041,-0.040174261781333424,0.6099765123262078,-0.7921287281655636,-0.021464678547841096,0
98,19.64166666666667,0.7676403095822277,-0.640868634997801,-0.003968347333187666,0.6693042094844466,-0.7428211082395495,-0.015769474314875118,0
99,19.84166666666667,0.7170038037946747,-0.6271802323949907,-0.3042211390369396,0.7189618615146152,-0.6874121202276989,-0.10275416610288453,1
100,20.041666666666668,0.7451889657385153,-0.6277427684273322,-0.225016492792752,0.7473282640220172,-0.6424251055407845,-0.16967748691193607,1
101,20.24166666666667,0.7438096776370737,-0.6337712690507993,-0.21232320169772392,0.7549669499397769,-0.6314816043322592,-0.17679334797606666,1
102,20.44166666666667,0.7285510642620021,-0.6311065394666266,-0.26630411676345445,0.7526596189243248,-0.6272896669631752,-0.2000279274549413,1
103,20.64166666666667,0.7249245038853663,-0.6206857934791458,-0.29871995152603914,0.7557324889632762,-0.6158709434865737,-0.222646325130978,1
104,20.84166666666667,0.6759491996005249,-0.7040167976362877,-0.2178371598358654,0.7544610374251972,-0.6165090780099731,-0.22517792906630105,1
105,21.041666666666668,0.688955213602874,-0.693205358164509,-0.2116767466242648,0.7584954713327814,-0.6113361184414673,-0.22572720318247422,1
106,21.24166666666667,0.6963059349282148,-0.6877436653489563,-0.2053453085807603,0.76215958121061,-0.6071402736925531,-0.22470750060778957,1
107,21.44166666666667,0.6990501431856782,-0.6864774102350124,-0.20019406222241778,0.7617925686575251,-0.6074216217117726,-0.2251911539452886,1
108,21.64166666666667,0.7023750972496198,-0.6845167768559853,-0.19520759454048014,0.7605856518425402,-0.6086203816154813,-0.22603251379720687,1
109,21.84166666666667,0.7053219531664227,-0.6827770824602178,-0.19062108500534733,0.7591835179439859,-0.6102530735937451,-0.22634392470658704,1
110,22.041666666666668,0.70544289738881,-0.6824846801522322,-0.19121971624596307,0.7562918027105823,-0.6119584695646625,-0.2313645190621373,1
111,22.24166666666667,0.7242974219370362,-0.6657497862866162,-0.17936127406630548,0.7705020485645463,-0.5969130876392228,-0.22365455274339358,1
112,22.44166666666667,0.7128381453313881,-0.681391791097633,-0.16603314604399513,0.7564932829785463,-0.6157002983817793,-0.2205245006363901,1
113,22.64166666666667,0.7477507379976223,-0.6635623260467985,-0.023534512431193522,0.7495382824766745,-0.6259731388283639,-0.21529048415404378,1
114,22.84166666666667,0.7531284132047577,-0.6578732255205885,-0.0006421579409897546,0.7602751674862753,-0.614240364835124,-0.21140114453552458,1
115,23.041666666666668,0.7591960477177837,-0.6507727843590597,0.010777024972291058,0.7729051884849159,-0.6000130070155029,-0.20640242495017028,1
116,23.24166666666667,0.7235257584532225,-0.6704161373031808,-0.16447698835451666,0.7766812131600042,-0.5967981325936688,-0.20149015374706172,1
117,23.44166666666667,0.7201642307699019,-0.6738411590213891,-0.16523187685282334,0.7718629327828644,-0.6033219674642165,-0.20057471568206836,1
118,23.64166666666667,0.7410994241355047,-0.6654046078356247,-0.08948939276328823,0.7736236718851628,-0.6026084886975077,-0.19588114674113996,1
119,23.84166666666667,0.7489801310871886,-0.6622779217659542,0.02041366155265879,0.7722941150466766,-0.60499433580355,-0.19376184740524205,1
120,24.041666666666668,0.7562096287583894,-0.6538658667419548,0.024625711825076547,0.7792223109878897,-0.5973952301416403,-0.1895561369692602,1
121,24.24166666666667,0.7618470120958314,-0.647352704856938,0.022882431581032578,0.7855606308771108,-0.5898984249895574,-0.18685380223799453,1
122,24.44166666666667,0.7242987574604454,-0.677110185350618,-0.13005040113627894,0.7913203591205982,-0.5825256241967505,-0.18567710250710504,1
123,24.64166666666667,0.7268837531736083,-0.6740250674140776,-0.13164428536665537,0.7958017792153711,-0.5762937983530558,-0.1859703905933887,1
124,24.84166666666667,0.7220450642507784,-0.6790267197863573,-0.1325656026549454,0.7926951662442442,-0.5800325519967867,-0.18760760122421802,1
125,25.041666666666668,0.7194432683726402,-0.681474379492788,-0.13414191622387442,0.789339634160776,-0.5832874611523381,-0.191621187777845,1
126,25.24166666666667,0.7194128104705984,-0.681865002166438,-0.13230769800491107,0.7866479016971285,-0.5865937769059919,-0.1925949626824869,1
127,25.44166666666667,0.719978235915198,-0.6820699788437001,-0.12810887466758228,0.7845868499463462,-0.589957827591528,-0.19071768810143092,1
128,25.64166666666667,0.7267943337509188,-0.676186376401337,-0.12059013556998584,0.7882355282414931,-0.587078022115221,-0.18445635789295764,1
129,25.84166666666667,0.7307837790199676,-0.6745362258212831,-0.10467066626363904,0.7890087104116958,-0.5887951104293897,-0.1754581797150414,1
130,26.041666666666668,0.7354618214537458,-0.6726333785808631,-0.08161033759782867,0.7903035435099216,-0.5906611212184094,-0.16291024828620568,1
131,26.24166666666667,0.7433473292781341,-0.6665602405478261,-0.055966005538091654,0.796534620321095,-0.5857673397484678,-0.14969710188888843,1
132,26.44166666666667,0.749615360480561,-0.6606465481114594,-0.04028585111440403,0.8011753526447327,-0.5812124766963443,-0.14251354759141255,1
133,26.64166666666667,0.9035728936244426,-0.42568164486852117,0.04848879385158771,0.8069349748684305,-0.5732280422257905,-0.14235714924117035,1
134,26.84166666666667,0.9195894076373807,-0.38910422445326953,0.05434357251553108,0.8135185331093197,-0.5634163561446354,-0.1440472350181088,1
135,27.041666666666668,0.9231882106814852,-0.3804625274208552,0.054514153091220804,0.8187536442514232,-0.5559028705209613,-0.14357739575423886,1
136,27.24166666666667,0.9245844171750969,-0.37713133091773604,0.053996432819243684,0.8236804691903383,-0.5487622686591865,-0.14286517129940127,1
137,27.44166666666667,0.924237164805897,-0.37831749796289454,0.05159005647072769,0.8259213736130095,-0.5453357448830477,-0.1430482784309254,1
138,27.64166666666667,0.9209362838659757,-0.38707514844658547,0.04526798553261585,0.8225187695666862,-0.5488811130068062,-0.14897112973631613,1
139,27.84166666666667,0.9200766237150412,-0.3891851397557945,0.044653482354608,0.8229739052804141,-0.5475757482113547,-0.15124401210718863,1
140,28.041666666666668,0.9727654311374084,-0.22233697373434805,-0.06552622448076591,0.8288544697248249,-0.5391785438658054,-0.14928752744931284,1
141,28.24166666666667,0.9765243525344615,-0.208550719956401,-0.053914618730155586,0.833807969084279,-0.5330324116470176,-0.14366878166572802,1
142,28.44166666666667,0.9380499632398962,-0.3451658377233224,-0.0303778033173314,0.8377180524462615,-0.528310479191613,-0.13826243951981734,1
143,28.64166666666667,0.8783588356768782,-0.477337866512884,-0.025185650305027694,0.8391712232207387,-0.5269775424004172,-0.13448541900081804,1
144,28.84166666666667,0.8726527195155666,-0.48753704795910796,-0.028015317049867802,0.8355727192943342,-0.532257355641093,-0.1360894490290231,1
145,29.041666666666668,0.8718168772730153,-0.4889254589457228,-0.029786374345368412,0.8349651070538384,-0.5325341543448304,-0.13871065012755557,1
146,29.24166666666667,0.7447108350580014,-0.6601759159486272,-0.09784442829617605,0.827513059197858,-0.542637033064548,-0.14410824821608045,1
147,29.44166666666667,0.7042710833143739,-0.6983383973370703,-0.1277721566378635,0.8295649418325063,-0.5384871734890012,-0.14782953449922348,1
148,29.64166666666667,0.7031742803865062,-0.6988234951442132,-0.13111694794093504,0.8287937118448921,-0.5388565680127532,-0.15077991350270475,1
149,29.84166666666667,0.7016455610735969,-0.6997084004713555,-0.13454241314743423,0.8262317785927005,-0.5415216812280983,-0.15522666266926186,1
150,30.041666666666668,0.6924995601738254,-0.6881975266472264,-0.21639899139251637,0.8117356331774549,-0.5450260112632564,-0.20983781564928064,1
151,30.24166666666667,0.6383227434705743,-0.5577553165339835,-0.5305215189285685,0.8073020250661769,-0.5160123807518546,-0.28634710271775576,1
152,30.44166666666667,0.4922308598802698,-0.564879379641935,-0.6622839776386508,0.7668818790829895,-0.4657767087304583,-0.441524904324054,0
153,30.64166666666667,0.37395842799742807,-0.6569150122872899,-0.6546890565461455,0.665043676181877,-0.5079660195602386,-0.5474371486687971,0
154,30.84166666666667,0.1902454702805474,-0.7079896178595265,-0.6801156975403927,0.5506479673788236,-0.5909445767312779,-0.5895517986177814,0
155,31.041666666666668,0.17566185068438367,-0.7699032599248904,-0.6135078520859887,0.48014347852504535,-0.6682751181880725,-0.5682170416668154,0
156,31.24166666666667,-0.03326898863261263,-0.7934084113273003,-0.6077797851446298,0.33655876872076507,-0.7444769049221708,-0.5766128105016987,0
157,31.44166666666667,-0.028333511461738237,-0.7945365255058722,-0.6065549618668568,0.24995567274601257,-0.7530521390154495,-0.6086334180657059,0
158,31.64166666666667,-0.19164823190457303,-0.7075150200786409,-0.6802157389909259,0.22800724757974308,-0.7364734370482581,-0.6368826984409574,0
159,31.84166666666667,-0.25111365747560066,-0.7039557228552814,-0.6643705827988815,0.1963354144835359,-0.7404098368994984,-0.6428418767022235,0
160,32.041666666666664,-0.18077699883463177,-0.5302820456770171,-0.8283239877758832,0.12349508899133818,-0.7317143200553297,-0.6703306026290222,0
161,32.24166666666667,-0.15206276234064817,-0.37843479158982907,-0.9130520383985212,0.036544435791505736,-0.6636060722815139,-0.7471890557574987,0
162,32.44166666666666,-0.05560858175272667,-0.24535256004905634,-0.9678376965756319,0.04516042248678037,-0.6092621838806935,-0.7916818347882838,0
163,32.641666666666666,0.0041610807820290155,-0.17747021184043615,-0.984117375781993,0.12192736503402937,-0.5484338528217665,-0.8272569290945416,0
164,32.84166666666667,-0.0308367382186434,-0.008787229894757831,-0.9994858078866412,0.05756939630592858,-0.46718889666680763,-0.8822813040296287,0
165,33.041666666666664,-0.033051490444149734,0.07262758779822727,-0.9968113324345944,0.0596169142031347,-0.389353943202513,-0.9191568584597246,0
166,33.24166666666667,-0.03521716252879921,0.18712325746583944,-0.9817049648335258,0.04164625964110366,-0.2783798389334295,-0.9595677434831289,0
167,33.44166666666666,-0.05078486387984692,0.26882468443816476,-0.9618493575593982,0.01727850209759891,-0.19240663813579223,-0.9811631561399694,0
168,33.641666666666666,-0.055422178125682356,0.27320033481839384,-0.9603592865313079,0.015399229594460884,-0.17271415133962845,-0.9848516059056458,0
169,33.84166666666667,-0.06681701831727518,0.18775712992687382,-0.9799401748192652,0.003823559574186664,-0.24843131333594218,-0.9686419684002762,0
170,34.041666666666664,-0.35712250741881274,-0.7133954973320514,-0.602934805000719,0.009058619739870516,-0.5574406332578777,-0.8301673817980713,0
171,34.24166666666667,-0.3340279895240436,-0.8601336613663909,-0.38548072169561554,0.05902210439101946,-0.8497749827115715,-0.5238309555102715,0
172,34.44166666666666,-0.03317321861710826,-0.9399757342673857,0.3396250234524404,0.17417041559402158,-0.98235428292818,-0.0681522497388564,0
173,34.641666666666666,-0.10253901521000097,-0.5179979862982825,0.8492136577744658,0.09068853053813558,-0.8648693252677786,0.4937374207407125,0
174,34.84166666666667,-0.07034449273440538,-0.26548185485298376,0.9615461700229264,0.04642319570320258,-0.5610816630748136,0.8264576542460622,0
175,35.041666666666664,-0.023956878779693592,-0.12705958369399878,0.991605733217917,0.07474068932453626,-0.45320911713742573,0.8882653463367849,0
176,35.24166666666667,-0.0004125209467917487,-0.1235385859514302,0.9923396835799673,0.07903538338275896,-0.4807458494411278,0.8732908086191387,0
177,35.44166666666666,-0.2555358949869231,-0.20076631736109748,0.9457242157132782,-0.00902323627938284,-0.6229596270698979,0.7822019459500088,0
178,35.641666666666666,-0.5845180882125399,-0.6534953170150288,0.4809183664529611,-0.24950617658199625,-0.8136071106200617,0.5251572501602814,0
179,35.84166666666667,-0.5977895573019895,-0.7349871964971256,-0.32006478432652846,-0.4842116609398293,-0.8749140232202368,0.008032395811382584,0
180,36.041666666666664,-0.6136791796007729,-0.6359919829112363,-0.46788039304629575,-0.495905248336301,-0.843567797290526,-0.20608579778073324,1
181,36.24166666666667,-0.6459315894315926,-0.6164120590395468,-0.4503427086619733,-0.5252381924492514,-0.8135730744406332,-0.24944677536071547,1
182,36.44166666666666,-0.7057863642384794,-0.59201095930985,-0.38908692102415804,-0.5478081853523753,-0.7990492770680976,-0.2478435895436644,1
183,36.641666666666666,-0.8271931661192393,-0.5164930166485304,-0.22132878185841381,-0.5441784195863097,-0.8061432873308125,-0.23238512850012003,1
184,36.84166666666667,-0.8550479342373295,-0.5168469764341755,0.04197896029353983,-0.566419693976622,-0.7998552114862536,-0.1984952667791125,1
185,37.041666666666664,-0.8767856614370714,-0.47211883497072843,0.09138221689278316,-0.6231904636372374,-0.7645814987189672,-0.164465126541353,1
186,37.24166666666667,-0.8555160221838696,-0.5105934824357343,0.0859455146057014,-0.5969640214262216,-0.7863011969087336,-0.15926200068606022,1
187,37.44166666666666,-0.3695437077043345,-0.9147111038661024,0.16352689246784452,-0.3703647453517006,-0.9195580028423832,-0.13131273665984575,0
188,37.641666666666666,0.15535235365702704,-0.9876860935083117,0.018488561423558033,-0.07438029491048892,-0.9903538726841185,-0.1169049981335175,0
189,37.84166666666667,0.6529673576682017,-0.7263422721622581,-0.21461717892558171,0.22718958077458123,-0.9666213125878438,-0.11844041725029632,0
190,38.041666666666664,0.7491490569900602,-0.6578248241331457,-0.07773153263058313,0.5468188764592292,-0.8261199956321645,-0.1360693542447324,0
191,38.24166666666667,0.8828153791917096,-0.4685761397904135,-0.032762897944368104,0.7882488385975236,-0.5993878026530413,-0.13927681242911324,0
192,38.44166666666667,0.990085026316408,0.13840638335405744,0.02398569804878649,0.9771575572446745,-0.17014295169224378,-0.12733610764065306,0
193,38.641666666666666,0.7710974447429616,0.6340062801741795,-0.05869214096091132,0.9239882642287066,0.36124003640246155,-0.12550427748714643,0
194,38.84166666666667,0.5085355483916035,0.8601134821192132,-0.039954898308128484,0.6845482254035911,0.7184009258104258,-0.12366825336972165,0
195,39.041666666666664,0.021050342386512433,0.9975488056333542,-0.06673277654106095,0.35612133327010653,0.9292865128582611,-0.09800088269834566,0
196,39.24166666666667,-0.2044659970874902,0.9788476922001473,0.007131024433020081,0.054340263389378196,0.995109193944172,-0.08249138077734933,0
197,39.44166666666667,-0.2722974638980979,0.961942275938787,0.02282868626029939,-0.19049924811855784,0.9789012663000272,-0.07390769447403896,0
198,39.641666666666666,-0.6338869313839854,0.7727581377744324,-0.03212816091820238,-0.37043185557356234,0.9271993501087284,-0.055512210677284256,0
199,39.84166666666667,-0.7280788937890315,0.6832036722996968,-0.05598094832305989,-0.4934123736366125,0.8685079502345332,-0.04730930058343372,1
200,40.041666666666664,-0.7449173948860314,0.6666193340972946,-0.02677196675419583,-0.5480050777811268,0.834728816892355,-0.054020708766087555,1
201,40.24166666666667,-0.7361608210166473,0.6758796418234512,-0.035411232239215135,-0.562962270944806,0.8240264624452971,-0.06367001399839857,1
202,40.44166666666667,-0.717613021085229,0.6956658348545635,-0.032872453285903935,-0.552911385924907,0.8308794697937472,-0.06267619954863374,1
203,40.641666666666666,-0.5112414068137658,0.85883827299201,0.03207872820396679,-0.5199971461890607,0.8520077848959515,-0.060709986261954806,1
204,40.84166666666667,-0.45482214695692597,0.889948690410299,0.0335878411703827,-0.4790705787477351,0.8756796512909718,-0.060634387052498025,1
205,41.041666666666664,-0.4206958868597846,0.906172552511549,0.04320041497443063,-0.4242810549511734,0.9042949345207678,-0.04728908763763216,1
206,41.24166666666667,-0.397294506461094,0.9165146751285089,0.04645347575714409,-0.37407237607229304,0.9263107790561121,-0.04492435936201992,0
207,41.44166666666667,-0.15062366170975644,0.9847466689867794,0.08710057664899382,-0.29044245006842895,0.9561279839304805,-0.03824214354979557,0
208,41.641666666666666,0.35783957400837535,0.930847230072696,0.07398833380671625,0.06026115997251691,0.9977717932859633,0.028636360133223075,0
209,41.84166666666667,0.6442273783832109,0.762948943040833,0.05366558724519184,0.37561264929320376,0.9260002604046584,0.03792961140646965,0
210,42.041666666666664,0.751293004462489,0.6580572233140918,0.05019474364785808,0.4702734315978167,0.8818911953818768,0.03332895199579366,0
211,42.24166666666667,0.7666394675359246,0.6385298816453481,0.06740561595454829,0.5301258129216336,0.8470519668995965,0.03833520373888853,0
212,42.44166666666667,0.6703620245974309,0.675476582632147,-0.3071581714576866,0.6008034188462287,0.7992170523894332,-0.016951550744091364,0
213,42.641666666666666,0.6362020483005661,0.6524971150088958,-0.4116970593084581,0.5834929211258664,0.7935082872795588,-0.1728600850823134,1
214,42.84166666666667,0.619679838393446,0.6731438651531446,-0.4035768014831351,0.5656888330458343,0.8027507509752135,-0.18864616607811852,1
215,43.041666666666664,0.4915878937961514,0.8122593116681194,-0.31396839535452775,0.544555839649573,0.8154977675207664,-0.19601614390706337,1
216,43.24166666666667,0.44796203042498817,0.8439562579774084,-0.29507262482021585,0.5126472829888439,0.8377131485939239,-0.18822710728535094,1
217,43.44166666666667,0.43639320729846937,0.8506395049791828,-0.29321221187482355,0.4885908867969243,0.8529001219075708,-0.18395740645335815,1
218,43.641666666666666,0.4109791394748956,0.8644733676221023,-0.28945110742330205,0.4489293865834744,0.8755966530931819,-0.1783056559781644,1
219,43.84166666666667,0.23089394682498737,0.9443707156811137,-0.23420490320128046,0.419059963561081,0.8904064056035282,-0.17766592188822006,1
220,44.041666666666664,0.2210526120775796,0.9466612525686459,-0.23445301358447462,0.39632384249839664,0.9008575823055832,-0.17715255648690312,1
221,44.24166666666667,0.20257529439751792,0.9507433990402453,-0.23462787404986704,0.362131747590112,0.9156360438158195,-0.17456011186020237,1
222,44.44166666666667,0.058430618391743405,0.972723832455867,-0.22448654437789656,0.3122288225401513,0.9341935311374158,-0.17261404565155533,1
223,44.641666666666666,0.05412603942518046,0.9741864353132565,-0.21916012663756662,0.2861706409485033,0.9423217588691515,-0.17359742803645378,1
224,44.84166666666667,0.05135285531330308,0.9822334132605709,-0.18050043248053343,0.26067059540138976,0.9500703759392191,-0.17151420190700206,1
225,45.041666666666664,0.05884306518468435,0.9961870003350071,-0.06441237492292574,0.24218011887782787,0.9554844353896813,-0.1685179033467451,1
226,45.24166666666667,0.07127042207636802,0.9956719127942395,-0.05964871339532193,0.2482466450067604,0.9549058230265642,-0.1628756347427311,1
227,45.44166666666667,0.6424511239611245,0.7625612530601392,-0.07587416327339859,0.29049250026615214,0.945162120393464,-0.1492738204188894,1
228,45.641666666666666,0.6623759492850495,0.7448331989726082,-0.0805084313408268,0.32363409320999553,0.935638692335597,-0.140858834002975,1
229,45.84166666666667,0.5864090656442846,0.8070436289774463,-0.06931802548480108,0.2996743395902091,0.9447309742227977,-0.13296118431788925,1
230,46.041666666666664,0.031615050100494035,0.9986720744548002,-0.04067648351676219,0.18250346104141552,0.9757188790958623,-0.12109977573810166,1
231,46.24166666666667,-0.13725951583826196,0.990384765017452,-0.01725811499476747,0.10286422770304743,0.9886186999442658,-0.10978167779536671,0
232,46.44166666666667,-0.19222746267808755,0.9811904314356013,-0.017718347879056694,-0.004035531673816262,0.9938772107221773,-0.11041650461418563,0
233,46.641666666666666,-0.6488011027434388,0.7419747816702136,-0.1689098944536318,-0.2106700466679821,0.9707951132154575,-0.11478231394207705,0
234,46.84166666666667,-0.726479209514724,0.656811099663607,-0.20205726292698664,-0.322684511288172,0.9332040537837097,-0.15812937796742596,1
235,47.041666666666664,-0.5651624105982561,0.8248423854431332,0.01504954561606675,-0.3253372430623322,0.9321726382169463,-0.15877610285008067,1
236,47.24166666666667,-0.592336043761465,0.8049176842780971,0.035292106729433094,-0.3544091340466781,0.9233369863878594,-0.14779369158549882,1
237,47.44166666666667,-0.613764342928423,0.7837869832475146,0.09471692690011597,-0.37900631873816354,0.9165184874651525,-0.1278595811471886,1
238,47.641666666666666,-0.6208045344680786,0.7711749994220177,0.14103492564015396,-0.38919702464392714,0.9172795081666311,-0.08440367234841352,1
239,47.84166666666667,-0.6375160588800611,0.7508613362029651,0.17257035801531098,-0.4080512707521687,0.9120475197300965,-0.04078580870498325,1
240,48.041666666666664,-0.6530577482757667,0.7324099638247841,0.1925908157393909,-0.43005060130584244,0.9027761932049057,-0.007185074734650276,1
241,48.24166666666667,-0.6629259420195108,0.7246978521701481,0.18799526179539444,-0.4458727006800776,0.8950929787051186,0.0024686557174985876,1
242,48.44166666666667,-0.6688355587887871,0.7226616880118861,0.17441066475276787,-0.4591533125762112,0.8883569568637465,0.00039082230675021175,1
243,48.641666666666666,-0.6827331884952733,0.7125987009286522,0.1614883424952867,-0.4811514665825865,0.8766323964353917,-0.00298458127186749,1
244,48.84166666666667,-0.6091999773091423,0.7817146817737122,0.13340743587208534,-0.48862714227248294,0.8724892087873423,0.00246908571410856,1
245,49.041666666666664,-0.6091087918751601,0.7824182429022519,0.12964633752688814,-0.4819516394412325,0.8761842175956396,0.004882015590415228,1
246,49.24166666666667,-0.6391742489728035,0.7599893058988604,0.11778172340996398,-0.48379603926433734,0.8751807445989712,0.0002380658093664939,1
247,49.44166666666667,-0.6458196728521644,0.757663281623894,0.09414511052643969,-0.4830935241009485,0.8755672388686163,-0.001630089480297186,1
248,49.641666666666666,-0.6457674025411572,0.7615537424385522,0.054957794652647746,-0.47468395313637596,0.880152982220053,-0.0024233291089718403,1
249,49.84166666666667,-0.6071583402017815,0.7945608190868007,0.0056439964148395135,-0.4555877701206263,0.8899138751485972,-0.02220537174924911,1
250,50.041666666666664,-0.4218812642430635,0.9066264609995446,0.006682746150816221,-0.43343437703958926,0.9005940234702523,-0.03263503776565332,1
251,50.24166666666667,-0.40732337145904485,0.913261770301145,0.006372595205725521,-0.411089828658975,0.9106213097937059,-0.042118676649800416,1
252,50.44166666666667,-0.40832555945172805,0.9127692820892185,0.011066850173640777,-0.4035426425461265,0.9139211409621076,-0.043606005886905115,1
253,50.641666666666666,-0.4157948864779731,0.909161562804842,0.023234997246122487,-0.40508464175777426,0.9135757614643584,-0.03585751074452326,1
254,50.84166666666667,-0.41582996511751863,0.9089296938115186,0.03053279905384341,-0.4017123089087587,0.9152462476250898,-0.030846832566524787,1
255,51.041666666666664,-0.41742020395629836,0.9080281613789187,0.03528783745007542,-0.4009634887607815,0.9157351586245063,-0.025639811616569398,1
256,51.24166666666667,-0.4193839380981045,0.9070011788845183,0.03828803948258185,-0.4007715657303007,0.91590483546842,-0.02237151017812654,1
257,51.44166666666667,-0.4165534080493443,0.9083335083705082,0.03759648672151018,-0.39630525919120063,0.9178345105319837,-0.022846286654710952,1
258,51.641666666666666,-0.40421782063313233,0.9138954006198938,0.03745864664406722,-0.38121322877957575,0.9242210501192805,-0.02217937600262537,1
259,51.75,-0.3922292753634884,0.9191200285910749,0.03707517485561668,-0.36634245678247046,0.9302137054516448,-0.02226356998561315,1
