,timeStamp,x_gaze,y_gaze,z_gaze,x_head,y_head,z_head,fixations_head
0,0.033366700033366704,-0.9990557924872774,-0.013352511395972927,0.04134288254390079,-0.9999420928985816,0.00519091372403134,0.009426837450306695,0
1,0.2333667000333667,-0.99975614712208,-0.006185554795882756,0.02119870758987722,-0.9999911943434894,0.0037655262303283965,0.0018525786597591402,0
2,0.43336670003336675,-0.9989060498827033,-0.038386206376787926,0.02670585455912771,-0.9992495265463863,-0.0369289324742,0.011689210543873044,0
3,0.6333667000333668,-0.8561576292963614,-0.4470676751912233,0.25908417087261315,-0.9764979814221679,-0.1988799356170079,0.08305698939527187,0
4,0.8333667000333668,-0.7623937317690304,-0.5973614687119241,0.24882739691928069,-0.9086489578378316,-0.38657558182843205,0.15784926656222364,0
5,1.0333667000333666,-0.791845655379786,-0.5751801441473903,0.20530041362536247,-0.8231686027037218,-0.5263955369512168,0.21284076254477874,0
6,1.2333667000333668,-0.7588594116455256,-0.606540612256239,0.23715159506280678,-0.7473183120491614,-0.601365745222436,0.2826209138564525,0
7,1.4333667000333667,-0.6143333614811199,-0.751548374938952,0.24035299269600977,-0.6450463822306581,-0.6851358467681063,0.33838445035859616,0
8,1.6333667000333667,-0.15196669146548952,-0.9877152280938181,0.036397154787289505,-0.4833544236193998,-0.8217182559824142,0.3019066229031374,0
9,1.8333667000333667,-0.07704023935035048,-0.9948138571292767,0.06640927031982825,-0.2578419195721805,-0.9475801941752049,0.18870431928870748,0
10,2.033366700033367,0.18764978960484574,-0.9763844552660884,-0.10705583578675577,-0.07166581451562926,-0.9972308154251943,0.01986735503819576,0
11,2.233366700033367,0.15711723699111246,-0.8627112048570359,-0.48066989801151533,0.06438065067289472,-0.9859272160480103,-0.15428109564932108,0
12,2.433366700033367,0.3455512674148984,-0.7734556010759593,-0.5313762835808385,0.22394174921023646,-0.9241003511360543,-0.3096588994214136,0
13,2.633366700033367,0.5070820304064616,-0.5102011116318058,-0.6946672873603088,0.3448855631009329,-0.8101717107952049,-0.4739997335354981,0
14,2.833366700033367,0.5125915870138589,-0.5511609438378191,-0.6583855093411596,0.4364228720140122,-0.7132014058285246,-0.5485242305561873,0
15,3.033366700033367,0.5954796027266005,-0.1919633648187571,-0.7800987817603812,0.5232726023551362,-0.6438918317317162,-0.5582016594866583,0
16,3.233366700033367,0.8065034423423288,-0.07866072514553511,-0.5859732825048876,0.6568591876471757,-0.5135540938530924,-0.5520853197561242,0
17,3.433366700033367,0.8863901207278425,-0.017773145350050583,-0.46259774013763516,0.811542725223974,-0.3507210963443393,-0.46732549439878684,0
18,3.633366700033367,0.9426073920661132,0.045729993317344196,-0.3307568172139717,0.8963965582528556,-0.24040088193242468,-0.3723984778681937,0
19,3.833366700033367,0.9482478450705535,0.015023510387445562,-0.31717553255995345,0.8998199610899626,-0.24479564861714775,-0.36110819437139363,0
20,4.033366700033366,0.8363924943328219,-0.0344222749192219,-0.5470490859265796,0.8924650613356577,-0.26258787531908845,-0.3668156512889657,0
21,4.233366700033367,0.7848281905625129,-0.14373411422391294,-0.6028144123249206,0.8073969356177746,-0.3956418954052342,-0.43769587495792195,0
22,4.433366700033367,0.0971796598494479,-0.6074107251087174,-0.7884214131633206,0.5438019318401329,-0.5579994427795751,-0.62683018496609,0
23,4.633366700033367,-0.16117457580487274,-0.5323487598680207,-0.8310400435485044,0.28024842117551574,-0.6968243870407311,-0.6602246557452549,0
24,4.833366700033367,-0.19349278320768148,-0.5026521197578251,-0.8425564606300935,0.014161407070298893,-0.7504906293418665,-0.6607293468734671,0
25,5.033366700033366,-0.3188344561506079,-0.5925343775117119,-0.7397618542733561,-0.22917805726239798,-0.7367424946384028,-0.6361508584160018,0
26,5.233366700033367,-0.6211661873925147,-0.48136374578128954,-0.6184185571986449,-0.42351522870279484,-0.7126129861131242,-0.5593009771846963,0
27,5.433366700033367,-0.6911480502550409,-0.4163597706225663,-0.5907274447964813,-0.5644770870163117,-0.6467678375254793,-0.5128908096039495,0
28,5.633366700033367,-0.8162542907663461,-0.11590280707717751,-0.5659465276129537,-0.7100035016374482,-0.5158372809444809,-0.4793818178136993,0
29,5.833366700033367,-0.8273750311555648,-0.11393110569518022,-0.5499729638585905,-0.8086005522168983,-0.4033189017840266,-0.42836784475291095,0
30,6.033366700033366,-0.7955445758539951,-0.1485667639476679,-0.5873982843687964,-0.8800754734207503,-0.345282312829757,-0.3259559564269017,0
31,6.233366700033367,-0.8061318103565192,0.044284913812956704,-0.5900765634558791,-0.9317427607474343,-0.2077668589158941,-0.2978059101679689,0
32,6.433366700033367,-0.9829130017962906,0.008638240926070562,-0.183867919152605,-0.9863554378796148,-0.03175343614555707,-0.16153844575909387,0
33,6.633366700033367,-0.9113235659266111,0.3094701696542223,0.27150980144553244,-0.9835224797496716,0.16757205074328502,0.06784644159237276,0
34,6.833366700033367,-0.8496521036734942,0.3934810392610005,0.3510896957549299,-0.9034061033453126,0.3217994290014213,0.2833770278847567,0
35,7.033366700033366,-0.7554864134354915,0.4432787874294158,0.4824356907707849,-0.7741324276695782,0.4322659688091411,0.4624555293646085,0
36,7.233366700033367,-0.4581149414275004,0.4783510616147468,0.7492068888450794,-0.5768265394173444,0.46233824586857974,0.6734348445328441,0
37,7.433366700033367,-0.4317754046088379,0.5031814486999202,0.7485842836041405,-0.45281608017633634,0.46674340396322694,0.7596763734581707,0
38,7.633366700033367,-0.3083988149702913,0.49102540949363627,0.8147295368136145,-0.34152349346814886,0.5031981171695611,0.7938219940807388,0
39,7.833366700033367,0.18735993785416863,0.6591256247904367,0.7283197542507679,-0.18418755220403984,0.5936442438219541,0.7833654685969662,0
40,8.033366700033367,0.39436933266205315,0.7496404298607332,0.5315186312575532,0.07487651138361262,0.7548679896993588,0.6515886940166081,0
41,8.233366700033368,0.40167484995374725,0.9144401385105965,-0.04956357528826929,0.2905050150075747,0.8278932447969307,0.47979121654638274,0
42,8.433366700033368,0.6534207382188173,0.7269297091949347,0.21122153478124253,0.458395609340231,0.8249271018527957,0.33070945249016687,0
43,8.633366700033367,0.8569867920148395,0.5149381535600958,-0.0203060660944796,0.642006230037056,0.7577887140730539,0.11655155690557868,0
44,8.833366700033368,0.9640552397054134,0.24838461421558883,-0.09435347485657963,0.7796982679742643,0.6259207738410809,0.017140472342233534,0
45,9.033366700033367,0.9809736588868649,0.18419165844649038,-0.06135237182740916,0.8868974775850093,0.45953552727712266,-0.04732825185325238,0
46,9.233366700033368,0.9505981316234123,-0.05973440020466818,-0.3046227069446176,0.9292847468682014,0.3450623506936785,-0.13176430993199897,0
47,9.433366700033368,0.9408335279929361,-0.07380607991090248,-0.33073393411101715,0.9353172427190425,0.2950407178546103,-0.19527578006574314,0
48,9.633366700033369,0.6314767920868021,0.5561237651563266,-0.5403363941880214,0.8413299948693803,0.4181864164918477,-0.34246745946848134,0
49,9.833366700033368,0.4409097707477066,0.6408991290568149,-0.6283684273047309,0.6749975125853107,0.6047724526111207,-0.422644813722319,0
50,10.033366700033367,0.24115086008197098,0.7622070332255255,-0.6007384632127933,0.5118325237402054,0.7277727281019319,-0.456480365265368,0
51,10.233366700033368,0.2760830065742876,0.7777407502810514,-0.564710101585911,0.3650172054132923,0.8114346451173786,-0.4564386666963087,0
52,10.433366700033368,-0.2904822127761314,0.6884988536721366,-0.6645219428678308,0.1280677603835237,0.8692425365846688,-0.477510273546234,0
53,10.633366700033369,-0.2519663494809405,0.746372850966966,-0.6159874398627717,-0.03900002189897184,0.8479142158721571,-0.5286969650128367,0
54,10.833366700033368,-0.3972098575218934,0.6346240873741676,-0.6629303106752188,-0.22589240658436824,0.7883826724819396,-0.5722109596798696,0
55,11.033366700033367,-0.35075787295465033,0.4426411340126451,-0.8252501081734732,-0.3674482893077583,0.7093531266284686,-0.6014980435772157,0
56,11.233366700033368,-0.4883819491197805,0.31819790044451285,-0.812547332730019,-0.4484073491650778,0.6783879716264397,-0.5819970869062089,0
57,11.433366700033368,-0.6123057701005247,0.1951869728903704,-0.7661486079837888,-0.6209771302139858,0.5425441220132818,-0.5657148393139778,0
58,11.633366700033369,-0.7651859449399128,0.1458994618124473,-0.6270596596092364,-0.7709419998991481,0.3313852761005972,-0.5439046162474014,0
59,11.833366700033368,-0.7561817942650204,0.1653384470197254,-0.6331289694519119,-0.8048707826817526,0.12160911551066628,-0.5808564764293986,0
60,12.033366700033367,-0.526095114265477,-0.20931824565197127,-0.8242631878127131,-0.7943919223401344,-0.06139162931445478,-0.60429507822823,0
61,12.233366700033368,-0.4574504301383009,-0.25089946212483016,-0.8531052478280476,-0.7660973075055899,-0.1617342973710639,-0.6220425487750606,0
62,12.433366700033368,-0.45740109062666084,-0.2640047153087519,-0.8491676822561527,-0.7570986775326758,-0.23969193730440028,-0.6077412012275762,0
63,12.633366700033369,-0.7075574325921925,-0.3907514522302966,-0.588791798655059,-0.7455414265887537,-0.31114403460574974,-0.589370317346626,0
64,12.833366700033368,-0.7142712247425531,-0.36828115714673226,-0.5951349483902265,-0.7612360029929377,-0.3123322545467196,-0.5683030094211184,0
65,13.033366700033367,-0.7027052701809057,-0.3686044194068314,-0.6085524507006222,-0.762221533916755,-0.32275319339432434,-0.5611138114387803,0
66,13.233366700033368,-0.7570196522908195,-0.3594860929670285,-0.5456106624771806,-0.739776272056702,-0.3864200166734804,-0.5508272306412925,0
67,13.433366700033368,-0.5274354886240553,-0.701457713712417,-0.47934213377633816,-0.7133923088445386,-0.47246399975282566,-0.5175414791289881,0
68,13.633366700033369,-0.45511261397958314,-0.7841788825794588,-0.42182459472285716,-0.6438296906730357,-0.6129215158204665,-0.4580508103389894,0
69,13.833366700033368,-0.38289371649533904,-0.8818775957942564,-0.27510781142041246,-0.5300101782158937,-0.7654382064674137,-0.3649569331681552,0
70,14.033366700033367,-0.21521776407796672,-0.9591004582950808,-0.1838684989971008,-0.39572961281981267,-0.8634555771615896,-0.31279792167792236,0
71,14.233366700033368,-0.008943797181164781,-0.9997056057158203,-0.02255460911537194,-0.29636511852317365,-0.9238217337247568,-0.24232441234949847,0
72,14.433366700033368,-0.5295155596689601,-0.8481164482170166,-0.017656792806746927,-0.3066735034248922,-0.9466413386582996,-0.09910367420194674,0
73,14.633366700033369,-0.7049408983861223,-0.7084510863410381,0.03399099946706951,-0.5588575731662327,-0.8292407847076689,-0.0061590496148734636,0
74,14.833366700033368,-0.9780661298495184,-0.20701806884560772,-0.023025308089596255,-0.9215417413433314,-0.3834333830700837,-0.06115275716867829,0
75,15.033366700033367,-0.8668348841725158,0.3679322742653656,-0.3364864412358051,-0.9826956578689767,0.14722715202523778,-0.11239844176854494,0
76,15.233366700033368,-0.46633836565915443,0.7285130083897268,-0.501794106503154,-0.8271988935155837,0.5366602393119791,-0.1665466244275264,0
77,15.433366700033368,-0.5057956681448624,0.7166922393934045,-0.4801280829936524,-0.644416061078,0.7332260205384351,-0.2170427216703805,0
78,15.633366700033369,-0.08885568438356584,0.8703322765633423,-0.4843824890773803,-0.4695504493934624,0.8470153796846733,-0.2491732771627536,0
79,15.833366700033368,0.16263637052115038,0.8547228803829602,-0.4929484848679051,-0.22875942184438303,0.9382488406835513,-0.25953466025445554,0
80,16.033366700033366,0.4389745941930164,0.765761113831036,-0.47001193835617405,0.10680393690440165,0.9488929568546859,-0.2969765571443176,0
81,16.233366700033365,0.2892553808340779,0.7690990847828334,-0.5699279975968374,0.2255441767034303,0.9142930131281259,-0.33644926883597776,0
82,16.433366700033368,0.24097483621865795,0.7945626402020828,-0.5573161931116722,0.20801451343033106,0.9194195887504161,-0.33376276308833214,0
83,16.633366700033367,0.2023034045588381,0.8181613517336997,-0.5382242423313802,0.16633942362142706,0.9316493916005353,-0.3230489239722737,0
84,16.833366700033366,0.14257291749279322,0.8404824300293195,-0.5227449167706977,0.08816569451634781,0.9463613404062042,-0.31084887597516436,1
85,17.033366700033366,0.07102652006774973,0.841975387054959,-0.5348202324526604,0.001539304886342907,0.9507436193500847,-0.3099745163808937,1
86,17.233366700033365,0.15065992253377147,0.8318801054224433,-0.5341133568302358,-0.06796152300512515,0.9500368059322875,-0.3046494686763802,1
87,17.433366700033368,0.17881054503392613,0.8341466574676915,-0.5217529519036262,-0.07081035305927896,0.952367641591372,-0.29661720979961365,1
88,17.633366700033367,0.20962676425111315,0.8326265548169084,-0.5126301199923142,-0.04057963792955677,0.9599878419960388,-0.277085972588463,1
89,17.833366700033366,0.2268276257761796,0.8180370197520036,-0.5285495837667471,-0.01695735450749164,0.9589384396584405,-0.28310690043434616,1
90,18.033366700033366,0.2346113593215528,0.8091849961649543,-0.5386809371592949,-0.0035204060121000746,0.9563993065285225,-0.2920410471376779,1
91,18.233366700033365,0.5054885944507339,0.7276222509817992,-0.4637317551736146,0.09199064103041693,0.9459381064315566,-0.31102864942557,1
92,18.433366700033368,0.600918290823093,0.7119295872226055,-0.3633916215205064,0.2565247311981058,0.9122545965366552,-0.3193534302015309,0
93,18.633366700033367,0.7851115360827713,0.5228489888223435,-0.3320072450974597,0.4949388555576021,0.8040207025753192,-0.3295242617617426,0
94,18.833366700033366,0.8897609912287241,0.3188357335306959,-0.3266024395371557,0.7264451741304137,0.6061719602859981,-0.32377918948824236,0
95,19.033366700033366,0.9309514250191446,0.08684880126333948,-0.35466424964174914,0.8027728919272974,0.4993291102742007,-0.32592349350646516,0
96,19.23336670003337,0.9175882078079853,0.1436060900160242,-0.3706874314055436,0.7699939385230555,0.5313960360446335,-0.3531679310382016,0
97,19.433366700033368,0.26505403100333635,0.8074624675394931,-0.5270206107581711,0.6485359328107821,0.6726040564846354,-0.35637750638004956,0
98,19.633366700033367,0.11944962064084419,0.8346155292556376,-0.5377254935876582,0.46370870613056386,0.8077945968758078,-0.36392598851548025,0
99,19.833366700033366,-0.15743791530683354,0.8278439309220338,-0.5384122294853575,0.12302087926917948,0.906355707449471,-0.40420934531206354,0
100,20.033366700033366,-0.5083490082675928,0.6066188448041251,-0.6112240693247151,-0.3028598176709464,0.8178283813518249,-0.48931857669188816,0
101,20.23336670003337,-0.6726976132829761,0.37071341236600613,-0.6403510654128238,-0.5574721847446602,0.6666143036246643,-0.49482333558454916,0
102,20.433366700033368,-0.7605491620590588,0.35610919801173324,-0.5429099475812762,-0.8128824094425244,0.4551798835720947,-0.36336409014955057,0
103,20.633366700033367,-0.9777970579646214,-0.0731897149525391,-0.19635727402084477,-0.9699139443507253,0.14709116550243448,-0.19398744697828665,0
104,20.833366700033366,-0.9713887164756715,-0.23283194291329623,-0.046832124262812184,-0.992906627846567,-0.07441399987411904,-0.09273071228613487,0
105,21.033366700033366,-0.952374087506114,-0.303174059246602,-0.032696899651725043,-0.9773363392741525,-0.20626829931623505,-0.047613744143755625,1
106,21.23336670003337,-0.9728112208774544,-0.22279079094495705,-0.06326604148385671,-0.9563440937798391,-0.2919723250180269,-0.01257520242326665,1
107,21.35468802135469,-0.9740723077164305,-0.22246611686958515,-0.041133516564424606,-0.9488822450320396,-0.31458132197259614,0.025711416315141098,1
