,timeStamp,x_gaze,y_gaze,z_gaze,x_head,y_head,z_head,fixations_head
0,0.033366700033366704,-0.9769160994555106,0.21231703790977052,0.02358834538182435,-0.9972800995737319,0.049752029271607476,0.054379578681383406,0
1,0.2333667000333667,-0.9960448609017187,0.04037189868797675,0.07915014129869513,-0.997813309428581,0.013709299519217271,0.06465798198115337,0
2,0.43336670003336675,-0.963656760720418,-0.23630957798571325,0.12459306108305243,-0.9952786878430165,-0.04427739849919703,0.08637039717187123,0
3,0.6333667000333668,-0.943653896864754,-0.020794103679269163,-0.3302800753665596,-0.9971925233925933,-0.07251095816202428,-0.018687756321648662,0
4,0.8333667000333668,-0.8805721728060427,-0.038339875617170456,-0.47235865866659504,-0.9958796742500003,-0.018405465925825207,-0.08879703395816116,0
5,1.0333667000333666,-0.9254430791425772,0.019760318478903624,-0.3783710309745163,-0.9936855879783818,-0.008824230843799097,-0.11185296238398583,0
6,1.2333667000333668,-0.9368096404764575,0.05815781288591182,-0.34497154420429815,-0.9936156413337518,-0.007461807446517868,-0.11257121624353306,0
7,1.4333667000333667,-0.8488601896204335,-0.4451267415683954,0.2851290276668878,-0.9968746532192343,-0.049754718305035306,-0.06136280449440042,0
8,1.6333667000333667,-0.8682818298732671,-0.477008614909564,0.13619634802002062,-0.9856039131200289,-0.16020274109793392,0.05403710009979402,0
9,1.8333667000333667,-0.8388957374470932,-0.500612059533064,0.21363873137416406,-0.9686739749551612,-0.2163415927628429,0.12193049448519591,0
10,2.033366700033367,-0.9566060978528523,-0.17444454010403418,0.2333963923856393,-0.9558465398526155,-0.19712426455575757,0.21794360870448684,0
11,2.233366700033367,-0.893099751625607,-0.13340218418437688,0.42962389470456286,-0.9091532145829385,-0.13758560249546753,0.39307840744496364,0
12,2.433366700033367,-0.8742413757362067,-0.170536312595186,0.4545540485325167,-0.9085106244270407,-0.14372936444780016,0.39236502787407057,0
13,2.633366700033367,-0.9584702474019076,-0.13407662582925642,0.2517106339660043,-0.9231601173971666,-0.2066030835194214,0.3241767473578528,0
14,2.833366700033367,-0.953382514486093,-0.17559258532863486,0.24541602443561175,-0.9040733713467861,-0.2871788488031749,0.31651168702235816,0
15,3.033366700033367,-0.836058548780752,-0.49782735955633,0.23059493291873465,-0.8793466985938452,-0.3282576276469086,0.3449584229493885,0
16,3.233366700033367,-0.8385870906678267,-0.49920761055132273,0.21809046960587058,-0.8810786981416974,-0.33827197671368725,0.3305637570139028,0
17,3.433366700033367,-0.7828337438726187,-0.6055880938735098,0.14294890700186608,-0.8645210080828871,-0.4028830182452659,0.3004807817364262,0
18,3.633366700033367,-0.7625984240483222,-0.6257552019568026,0.16393312924182474,-0.845713012127828,-0.4496387798360005,0.2873925343241702,0
19,3.833366700033367,-0.8286098395099878,-0.5261141676985417,0.19133639594730348,-0.8248479139870433,-0.49225285250419687,0.27805223968295106,1
20,4.033366700033366,-0.8390518065159197,-0.5153828640684202,0.1742772773685782,-0.822498973750181,-0.5111614487967622,0.24941814577911972,1
21,4.233366700033367,-0.8174978845158184,-0.5534542981205475,0.1593284303068799,-0.8052205120242097,-0.54352341546333,0.23707008216674264,1
22,4.433366700033367,-0.6680491346719407,-0.7052762129375403,0.23726739583970008,-0.7696586658900028,-0.5914829159954768,0.24036118261048153,1
23,4.633366700033367,-0.6655525899470888,-0.7106514886785993,0.22806624400294978,-0.7583777057222181,-0.6095698352941422,0.2308416586385071,1
24,4.833366700033367,-0.6531191548638334,-0.7248679305879069,0.21909325127707066,-0.7467217814153124,-0.6302250500784279,0.21265692420795024,1
25,5.033366700033366,-0.7191543820813147,-0.6461285606765942,0.2556068422621657,-0.6902822201792567,-0.6899354915964355,0.21794374030923994,1
26,5.233366700033367,-0.5535668086315696,-0.8018760121522225,0.22485250613748586,-0.6325807475764954,-0.7411866250190297,0.2246864141163456,1
27,5.433366700033367,-0.5396750745757801,-0.8140198336660527,0.21476155214543985,-0.6250215016178207,-0.7508587076762646,0.21344630149556218,1
28,5.633366700033367,-0.6697548228177006,-0.7142562346578205,0.203141597327734,-0.6545962080991685,-0.7268483148983524,0.20783486587099873,1
29,5.833366700033367,-0.7047548569897687,-0.6845828833758792,0.1861904061387115,-0.6795877613163889,-0.7072209818222223,0.19493321302279626,1
30,6.033366700033366,-0.7425480448419318,-0.6485897344293718,0.16719377229508772,-0.7011530812258564,-0.6877648679775538,0.18805276669941912,1
31,6.233366700033367,-0.7510942431083403,-0.6401601730626448,0.16140753016484108,-0.7085201840678167,-0.6817260441306463,0.18234239639339997,1
32,6.433366700033367,-0.6454296689758408,-0.7447075779755984,0.16979742551480212,-0.7018320649252666,-0.6895519943525809,0.17874506909874555,1
33,6.633366700033367,-0.629215053016318,-0.7764425745329568,-0.035004935513527076,-0.6804906445645597,-0.7102582976435305,0.18018222245444887,1
34,6.833366700033367,-0.6251793300052197,-0.7795353795675547,-0.03841090127416059,-0.6721709996710219,-0.7195560016547862,0.17442851740422716,1
35,7.033366700033366,-0.6337721704272571,-0.7730274578219174,-0.027593213754613828,-0.6703998484964013,-0.7214209480531273,0.1735392141451887,1
36,7.233366700033367,-0.6499468198887516,-0.7597203598249902,-0.01985210779455144,-0.6799671769420638,-0.7133782094666276,0.16951745791991094,1
37,7.433366700033367,-0.6574170463767309,-0.7534382317268701,-0.011561059881453131,-0.6830442510912732,-0.7105381334495819,0.16907427943110157,1
38,7.633366700033367,-0.6633957810346147,-0.7482379674076421,-0.006780990720674748,-0.6873356289226069,-0.7066934742996958,0.16779173577917844,1
39,7.833366700033367,-0.5219059254360914,-0.8500561509678275,-0.070843102673862,-0.6890190148357009,-0.7052217684498119,0.16707798927255577,1
40,8.033366700033367,-0.653531542920543,-0.755393814500797,0.04771485535795111,-0.6864047974427316,-0.7072757067784706,0.1691435149469756,1
41,8.233366700033368,-0.6522183677801274,-0.7565774554010789,0.04692285913129226,-0.6834956521950128,-0.7095434307879117,0.17141124016888148,1
42,8.433366700033368,-0.6461760632310378,-0.7615785072328989,0.049544652871399524,-0.674809062953356,-0.7168637798723495,0.17532555336613642,1
43,8.633366700033367,-0.6973337470767403,-0.6748189731625827,0.24154709405768107,-0.6497883388371384,-0.7341485707026301,0.19697967115049628,1
44,8.833366700033368,-0.42424713839301154,-0.8883473546348927,0.1756511972020955,-0.6112887657098138,-0.7602967738670151,0.21971540811782317,1
45,9.033366700033367,-0.46292019041155563,-0.8437230244936584,0.27172845866526946,-0.5411770919311134,-0.8067759221485151,0.2371496713267735,0
46,9.233366700033368,-0.4801615529095245,-0.8340363087320513,0.2717136706610986,-0.47225502495362337,-0.848679630172024,0.2381555725510721,0
47,9.433366700033368,-0.3870513490787722,-0.9031923362656772,0.18556631398842488,-0.41676828330960874,-0.8781195943797665,0.23496845744370962,0
48,9.633366700033369,-0.5886068839095617,-0.804184178356602,0.08264226216164025,-0.3957659427772981,-0.8890226781400482,0.23023465484216957,0
49,9.833366700033368,-0.7354166914248839,-0.6761509763688547,0.04452131095466806,-0.46790421527314785,-0.8571713360056618,0.215227661000832,0
50,10.033366700033367,-0.7860761501539384,-0.6174643574447541,0.028671474404012576,-0.5626222968680905,-0.8001498631653668,0.20788541926580506,0
51,10.233366700033368,-0.7639679849440532,-0.6446965679416818,-0.026818897530281376,-0.660122658905702,-0.7235830716468619,0.2016571685444351,0
52,10.433366700033368,-0.8473296761266004,-0.4048119920878528,0.343743612329095,-0.7316277426387877,-0.6297913215758542,0.2609286060764727,0
53,10.633366700033369,-0.8460535786643414,-0.39963049703209325,0.35282971511926686,-0.7539002457607927,-0.5964122372145659,0.2755482947552624,0
54,10.833366700033368,-0.688277649243698,-0.5644331572268901,0.45572918336930557,-0.7498714783543161,-0.5826878584746008,0.3133171325302786,0
55,11.033366700033367,-0.6356303596370341,-0.6095984618150104,0.4736705197291347,-0.7225505340768281,-0.600717861384055,0.34213853439719083,0
56,11.233366700033368,-0.5793145174089036,-0.6648956362623045,0.4714960050717658,-0.6519706432963185,-0.6745260310529706,0.3463364169585863,0
57,11.433366700033368,-0.24117964801652247,-0.9495248105185026,0.2005866685311573,-0.5230828949948213,-0.7813987147000253,0.3402944807501078,0
58,11.633366700033369,-0.24413141113681758,-0.9396765502305124,0.23959932187556277,-0.4310429233301535,-0.8422099863340622,0.3238585141171592,0
59,11.833366700033368,-0.1883212965448619,-0.94723882680741,0.2593717298708253,-0.3556643335844676,-0.8830644649468241,0.30610461049140625,0
60,12.033366700033367,-0.24541063847279226,-0.9184032541777727,0.3103370445822645,-0.26214251367403274,-0.9241229749649268,0.2779892617829562,0
61,12.233366700033368,-0.23791942820689105,-0.9189631064734352,0.31448553960778525,-0.15102046347119413,-0.9551792465058737,0.2546083790008049,0
62,12.433366700033368,0.30262966415687537,-0.9516323205417214,-0.053020872047480884,-0.037112516470567514,-0.976652289855492,0.21159623305070044,0
63,12.633366700033369,0.3212582106297117,-0.9469436307231285,-0.009535320440110812,0.05601992352854063,-0.9864344035224217,0.154301444306982,0
64,12.833366700033368,0.34044714854380187,-0.915619716221755,-0.2138604084780256,0.14299276170699649,-0.9827088917326426,0.11762782072710389,0
65,13.033366700033367,0.44316131002384096,-0.8016991848471996,-0.4011065573052736,0.23044799516352565,-0.9715817728590143,0.05406089319689881,0
66,13.233366700033368,0.5332007797181516,-0.7186561622729305,-0.44635215798189964,0.30066622604501403,-0.9530436993708464,-0.03615975117973382,0
67,13.433366700033368,0.6703597066221278,-0.6077916520222771,-0.4256843566182884,0.42273382962856854,-0.9021116577950992,-0.0865486346382353,0
68,13.633366700033369,0.7842733434567413,-0.6073771565770555,-0.12652395983194373,0.53157362910158,-0.8448519745519304,-0.06045343612633212,0
69,13.833366700033368,0.7492350156361344,-0.6618712325765467,-0.02394499597670666,0.6228816288177577,-0.7822046659041667,-0.013203678240860913,0
70,14.033366700033367,0.7352095048152958,-0.6776640969373937,-0.015438774280179701,0.622657269676723,-0.7824731532709793,-0.005804216475926613,0
71,14.233366700033368,0.4725682086993347,-0.8046102163261047,-0.35955762807978536,0.5708607552640889,-0.815225989923516,-0.0975939724190879,0
72,14.433366700033368,0.4810528378846724,-0.656368514019349,-0.5811785792397506,0.4767488312122563,-0.8636640958354316,-0.16369142159109687,0
73,14.633366700033369,0.4914293123453275,-0.6451602538867758,-0.5850345953638552,0.448130656464546,-0.8750162226230465,-0.18309976756716748,0
74,14.833366700033368,0.28549189909251144,-0.8712465084418682,-0.3992792219492576,0.40849785563351343,-0.8938647270742225,-0.18475754824999002,0
75,15.033366700033367,0.3804458959681032,-0.7059004009373645,-0.5974659355959094,0.3648737750189669,-0.8783841551851805,-0.30872059248295186,0
76,15.233366700033368,0.2955347653904438,-0.5893765107809913,-0.7518607124895141,0.33636092097368536,-0.8654123125495774,-0.3713796711309424,0
77,15.433366700033368,0.18832348435012616,-0.6147002552709255,-0.7659489940016156,0.2995113985492627,-0.8740992759321319,-0.38241780548764737,0
78,15.633366700033369,0.14694102147493243,-0.630044378727156,-0.7625302728693567,0.20144113585287626,-0.9029031473167812,-0.3797201276621434,0
79,15.833366700033368,-0.18281034504277244,-0.6493232224788273,-0.7382138785575991,0.04184080820438674,-0.9277878903045031,-0.3707546053296209,0
80,16.033366700033366,-0.38414298007088066,-0.8471578621674328,-0.3670936221594812,-0.12041568334809288,-0.9428909495102645,-0.3105748227648915,0
81,16.233366700033365,-0.53233654476079,-0.7790081960157449,-0.33130655540215026,-0.22728219876184547,-0.9409640587390008,-0.25085741425640107,0
82,16.433366700033368,-0.5815307801767943,-0.7516366047137197,-0.3112304068715023,-0.34337137783255023,-0.9155081734673135,-0.2096208033567258,0
83,16.633366700033367,-0.525813775562532,-0.8478662240606628,-0.06813765130814069,-0.47105967777002244,-0.8743325577610742,-0.11681334863011512,0
84,16.833366700033366,-0.47090578230017055,-0.8569418070103129,0.2095196496612279,-0.501138534892319,-0.864073205946393,0.04730394921676677,0
85,17.033366700033366,-0.4780348217934194,-0.7977531839706081,0.36752219880939335,-0.5199285362537608,-0.8328627665720445,0.18977336284890553,0
86,17.233366700033365,-0.3488147667996693,-0.863043168231869,0.3653556462281518,-0.542215746271499,-0.8021444636287147,0.2501326527365889,0
87,17.433366700033368,-0.3369116487266873,-0.8660316496692173,0.36943162117431033,-0.5429421802192225,-0.7888206848496431,0.28805505739725795,0
88,17.633366700033367,-0.19781779101522146,-0.8983755366683612,0.39216006511843177,-0.5025123468365306,-0.7911392539853535,0.3486832689997339,0
89,17.833366700033366,-0.1938755193387932,-0.9123318886414069,0.36064221601071167,-0.4686842931728016,-0.7999823750906573,0.37465081459596805,0
90,18.033366700033366,-0.1020216596986972,-0.9312852535355884,0.34971325039162904,-0.3702145445757768,-0.8489114328852881,0.37721422308974173,1
91,18.233366700033365,-0.04350719442607803,-0.9156742882607612,0.39955940966434483,-0.30977204220071286,-0.8651066350677944,0.3945019541554618,1
92,18.433366700033368,0.0028152140524153046,-0.8919492563047247,0.45212675075390996,-0.2609067781328431,-0.8683656656493693,0.4217448563357562,1
93,18.633366700033367,-0.25005196681221087,-0.7612989945038066,0.5982456475903845,-0.2744518235917406,-0.8535605219595587,0.44284380076872965,1
94,18.833366700033366,-0.35836578677919295,-0.6851630163935096,0.6341337428592467,-0.29693623328980545,-0.8441177544149134,0.4464236665334694,1
95,19.033366700033366,-0.36330260515721335,-0.6781870257776219,0.6388063674955701,-0.31725104343801747,-0.83596580814995,0.4477867160174478,1
96,19.23336670003337,-0.34011308266975204,-0.801304912936544,0.49217225389149666,-0.3380351494980005,-0.8318515327014073,0.4401764024186031,1
97,19.433366700033368,-0.07412777511096325,-0.9610911724806159,0.26609928811805084,-0.33461855674625746,-0.8433359660344116,0.420493602655091,1
98,19.633366700033367,-0.15551333163687803,-0.9526057568721202,0.26145339098449966,-0.3112027042252427,-0.8590770152110044,0.40637366895389293,1
99,19.833366700033366,-0.15440612919069086,-0.9506523369714747,0.2691075648862776,-0.3067043524918459,-0.8650023488025353,0.3971188445901993,1
100,20.033366700033366,-0.17120129477241108,-0.9489434345855524,0.26494617307148555,-0.32379496685500403,-0.8627446402538782,0.38836645729590646,1
101,20.23336670003337,-0.24100157113474352,-0.9660452200140173,0.09313901222717645,-0.3466520470989698,-0.8543523199637756,0.38718790220590343,1
102,20.433366700033368,-0.26338160234261004,-0.9633718157556046,0.050446765557256745,-0.3600955027492777,-0.8648341318098158,0.34984732863994716,1
103,20.633366700033367,-0.47013999500661213,-0.8419106996199094,-0.2648674365804472,-0.4003347485271735,-0.8946397129895857,0.19837306536825133,0
104,20.833366700033366,-0.4571512889862392,-0.86481707788644,-0.20761531921845136,-0.38261337057720196,-0.9176263655643861,0.10755864389554219,0
105,21.033366700033366,-0.4253727634533483,-0.8679662072839927,-0.2563058234318978,-0.33186464592454457,-0.9424473095813108,0.040729908523418915,0
106,21.23336670003337,-0.03879749336376276,-0.9128970084034497,-0.4063419822719786,-0.23129368617249246,-0.9717440121425283,-0.047082965092300484,1
107,21.35468802135469,-0.07361505303266541,-0.9265032811678974,-0.3690155741322011,-0.16172151784551975,-0.9835955155197794,-0.07991253040118786,1
