,timeStamp,x_gaze,y_gaze,z_gaze,x_head,y_head,z_head,fixations_head
0,0.033366700033366704,-0.9747559987953496,0.2195499081716161,-0.04060271708045765,-0.9778514647748232,0.13395670853425123,-0.160817017371926,0
1,0.2333667000333667,-0.9709366667528209,0.23846281900559982,-0.020432158643281285,-0.9756493952620253,0.2033225411341219,-0.08226908162613603,0
2,0.43336670003336675,-0.9520743881738619,0.06958289415859703,-0.2978465716167967,-0.98037734277611,0.15974382487835723,-0.11550833816000786,0
3,0.6333667000333668,-0.950430254740395,0.003061090513304299,-0.31092275664379676,-0.9891745154999655,0.05932656224188847,-0.1342167534176284,0
4,0.8333667000333668,-0.9263814328792411,-0.045370893078352834,-0.3738434470174341,-0.9750876018829383,-0.030529598289776867,-0.21970915384308765,0
5,1.0333667000333666,-0.8974060906967051,-2.8063476559339126e-05,-0.4412055162765968,-0.9367431602124571,-0.10113580298899984,-0.33508775141587804,0
6,1.2333667000333668,-0.9717166049537579,-0.168241428598711,-0.16571560385252623,-0.9581646852710949,-0.2843074235274533,-0.033010980393277614,0
7,1.4333667000333667,-0.8427282557513511,-0.5123729536338958,0.16517579526904985,-0.8714934628977521,-0.4532951925173589,0.18714329420830209,0
8,1.6333667000333667,-0.7732545369382221,-0.575215489205566,0.26684182970901993,-0.8181654946594903,-0.49437498153722853,0.2935959825655946,0
9,1.8333667000333667,-0.8828052436724046,-0.36882452735718724,0.2909009621232872,-0.8119065525102607,-0.4546231340743422,0.36623156056698075,0
10,2.033366700033367,-0.8997777287358362,-0.35470809135761067,0.2541302988555703,-0.877866465146885,-0.2743378306519804,0.3925420029037385,0
11,2.233366700033367,-0.944489564761489,0.25043825915296763,0.2126502772372618,-0.926779225064541,0.009867579577534182,0.37547689524396866,0
12,2.433366700033367,-0.7516551047749817,0.6575551057730191,0.05134088368488526,-0.8614108133805748,0.42384272949137863,0.279872741166972,0
13,2.633366700033367,-0.6895134029998587,0.722672596024733,-0.04812053655589854,-0.6975592886977459,0.6874892540494684,0.20191474517231442,0
14,2.833366700033367,-0.6230255885463157,0.7802360353706621,-0.05541520662767629,-0.5747545942128582,0.8007352680350202,0.16876073878748393,0
15,3.033366700033367,-0.6707859726129153,0.7368987019574014,-0.08382411347125998,-0.600924729736326,0.7889469331878218,0.12826615221816798,0
16,3.233366700033367,-0.7357217338478947,0.6634470207238711,-0.1362041887625603,-0.685557998222966,0.7262393199251925,0.05085942653150759,0
17,3.433366700033367,-0.7200952884735666,0.6890547841949828,-0.0816472895825509,-0.741832409651399,0.6691101185981871,-0.04445587902987264,0
18,3.633366700033367,-0.5906518726660321,0.5826222051216522,-0.5582846329743392,-0.7454086731508183,0.6176828057589425,-0.2506668335885248,0
19,3.833366700033367,-0.5304927342802147,0.5659528807638172,-0.6310901644226743,-0.7078211857334964,0.5924837506607946,-0.38464551762596216,1
20,4.033366700033366,-0.5163471974652024,0.58122156809365,-0.6289412217787842,-0.6897664244259416,0.5904497131815836,-0.41903629429732897,1
21,4.233366700033367,-0.48792703488593636,0.5760855419587007,-0.6557840017670215,-0.6755610817042523,0.5793310608049246,-0.4560622182040756,1
22,4.433366700033367,-0.48086435808434236,0.5695822657668522,-0.666592462939713,-0.6757215457757564,0.562263772244675,-0.47671778128743125,1
23,4.633366700033367,-0.4866556962584015,0.5500021025557288,-0.6787222705079949,-0.6874018045028989,0.531125342890718,-0.49536312873020333,1
24,4.833366700033367,-0.7467690695916355,0.17612759084633361,-0.6413384663685079,-0.7290809893057704,0.47185758412124185,-0.49577346776545517,1
25,5.033366700033366,-0.8114067903239887,-0.07197379783218297,-0.5800334413132874,-0.850349473927611,0.27430324327732397,-0.44906959696530013,0
26,5.233366700033367,-0.7885945402284231,-0.06960491417072712,-0.6109613793401412,-0.9009223774500179,0.06644184051200946,-0.4288640246502203,0
27,5.433366700033367,-0.7622773015785473,-0.21005082930652808,-0.6122188861884027,-0.8968930403912645,-0.13352732522385685,-0.4216080259153947,0
28,5.633366700033367,-0.5507691212137141,-0.6795941275763201,-0.4845670200098781,-0.7714895798883927,-0.4693498078266904,-0.42955161042263607,0
29,5.833366700033367,-0.6225486140047493,-0.650063960923569,-0.4357178788036208,-0.6029789571134129,-0.701945730265723,-0.37906275079482815,0
30,6.033366700033366,-0.6624263645612061,-0.6147270377004763,-0.4281378056820272,-0.6081934839840923,-0.7127852010651755,-0.3493392952156529,0
31,6.233366700033367,-0.4727570968226171,-0.6800584172706736,-0.5603760134973281,-0.6205887724160257,-0.685604792015245,-0.3805465079552079,0
32,6.433366700033367,-0.7783452947399331,-0.18173910117690384,-0.6009571542627794,-0.7171462361713055,-0.5488443110033041,-0.42950110386894114,0
33,6.633366700033367,-0.770703132029625,-0.11908895688217289,-0.6259668542570307,-0.7590471882736693,-0.4506710197599078,-0.4698329468251469,0
34,6.833366700033367,-0.5356169346641355,-0.3393778158440879,-0.773263989471831,-0.7273697612523506,-0.44337892441467563,-0.5237827410296979,0
35,7.033366700033366,-0.4843310088018732,-0.3842073232754688,-0.78600776500901,-0.6385437986898522,-0.5307390904447652,-0.5572951058717427,0
36,7.233366700033367,-0.47554931601781897,-0.45851516246087376,-0.7507440934356149,-0.5334629284039029,-0.6591823150245539,-0.5299962071351098,0
37,7.433366700033367,-0.41884187443356297,-0.543743663703329,-0.7272649533721948,-0.3525456972362225,-0.8226802051080144,-0.4459919410523707,0
38,7.633366700033367,0.28519554868360975,-0.876713744736612,-0.3873454644125342,-0.0686582277110771,-0.9236913148310044,-0.3769355418017046,0
39,7.833366700033367,0.2691469461378773,-0.8825187913426663,-0.3856429751878469,0.19932067534887987,-0.9507258101708652,-0.23746937119009337,0
40,8.033366700033367,0.550039854390004,-0.7822209313403699,-0.29255182986203965,0.44226185587742145,-0.8806108844466188,-0.17008504058265245,0
41,8.233366700033368,0.7437346660805313,-0.6544138664407863,0.1363863551829924,0.6502874598350465,-0.7596686393221117,0.005456923288303795,0
42,8.433366700033368,0.8357253699614742,-0.4512178891041942,0.3129944449269227,0.808145858504252,-0.562095158647462,0.17592414276474547,0
43,8.633366700033367,0.8645316872872109,-0.4232691980261556,0.2709762861923973,0.887525761741114,-0.38895866011161156,0.24700037038440956,0
44,8.833366700033368,0.9797888043529741,-0.06466729855854382,-0.1892935269936869,0.9467941812712268,-0.2583675618302275,0.19190357293404112,0
45,9.033366700033367,0.9556025330221432,-0.02422276219237676,-0.2936614661024419,0.9910057133307496,-0.12513395015387113,0.0474254221351905,0
46,9.233366700033368,0.9230716906376173,0.08251289237073002,-0.3756730979668726,0.9918673871506097,0.08311587742423845,-0.09638898913787762,0
47,9.433366700033368,0.8229772115814611,0.10501352259926737,-0.5582836817325909,0.9290603558842675,0.2851710997001741,-0.23563594594202353,0
48,9.633366700033369,0.8214612214469329,0.10031693378995594,-0.5613715119721474,0.8267753649670361,0.43794018981925026,-0.35305932366204884,0
49,9.833366700033368,0.792093527181476,0.09405611595607301,-0.603109684260223,0.779644441072049,0.4554188310087029,-0.42982349152660254,0
50,10.033366700033367,0.7921216071683337,0.025374661577421895,-0.6098356221203277,0.799632462204892,0.39176248397538255,-0.45509348659103016,0
51,10.233366700033368,0.8053088356692056,-0.009138552840539407,-0.5927850926306171,0.8236046634037962,0.34709536602111996,-0.4485534141060396,0
52,10.433366700033368,0.8717874066464972,-0.04073525655989975,-0.4881878291043048,0.8701603214716032,0.2526946500193562,-0.42304423975280864,0
53,10.633366700033369,0.8746930948325158,-0.13094012224071394,-0.46665476986730003,0.9279897787237164,0.08636860116425542,-0.3624574944972694,0
54,10.833366700033368,0.8619225263548868,-0.11898489699162058,-0.4928814795160224,0.9587317046017378,-0.14394331214499406,-0.24518124210505007,0
55,11.033366700033367,0.7653582011632833,-0.5065917506426891,-0.3969781128637679,0.8959455520521238,-0.42367089839844996,-0.1333586802884071,0
56,11.233366700033368,0.6039213864665065,-0.7472136409482061,-0.277399952684383,0.7011588080988462,-0.7098045224453812,-0.06748233651474526,0
57,11.433366700033368,0.2850645586722898,-0.8983098840232163,-0.33433149665439627,0.38489045773114583,-0.9196728238356426,-0.07785391862767364,0
58,11.633366700033369,-0.10052023649731295,-0.9870568576109175,-0.12495776045442383,0.13916893822058174,-0.9892598659340949,-0.04468695879797806,0
59,11.833366700033368,-0.13719798994453347,-0.9839905721764921,-0.1137508919655571,-0.006191987197340432,-0.9993126128764884,0.03655080081904644,0
60,12.033366700033367,-0.24131460383203202,-0.9701529855298304,-0.023884024890005916,-0.14052636483178865,-0.9816931072836474,0.12857287388458008,0
61,12.233366700033368,-0.28506313998755684,-0.9583194417192148,0.019048722881273628,-0.23691003873415495,-0.9469515199146495,0.21715536483890122,0
62,12.433366700033368,-0.532948205494459,-0.7749508459447849,0.339731359502914,-0.34349578256509206,-0.876746793464844,0.3366388383848623,0
63,12.633366700033369,-0.5133975407235378,-0.8255030195910973,0.23445197765214956,-0.4744786083870676,-0.8083013326533561,0.3485957627595039,0
64,12.833366700033368,-0.6827404501198482,-0.6857893885554326,0.25210789816051493,-0.5718926765147787,-0.7570286621669431,0.31598476419993926,0
65,13.033366700033367,-0.6829653436740506,-0.682521443726458,0.2602360816522915,-0.6176758825427604,-0.7123686110738765,0.33317782951705877,0
66,13.233366700033368,-0.7759749146328385,-0.6267411156351895,0.07112317367017003,-0.7427787208862009,-0.6551380962670346,0.1381080975839765,0
67,13.433366700033368,-0.7787833571278384,-0.3400100735745825,-0.5271523807482056,-0.8629522481069577,-0.48584505494335817,-0.13880922186307879,0
68,13.633366700033369,-0.7296821377515076,-0.13590364508801306,-0.670144892615158,-0.8773519347853667,-0.293264525504547,-0.37980192286107123,0
69,13.833366700033368,-0.6432146768161509,-0.025117340154410816,-0.7652738063934125,-0.8277345705805399,-0.10644078732737512,-0.5509317920205531,0
70,14.033366700033367,-0.6279978962906363,0.15959800179950687,-0.7616738935240855,-0.8185376492153655,0.0025440137015250424,-0.5744472515481905,0
71,14.233366700033368,-0.6340472438183625,0.169460171737822,-0.7544980734242643,-0.8243539919333454,0.14281703545465055,-0.547762530999979,0
72,14.433366700033368,-0.6003462744702733,0.18569103205177662,-0.777883790385948,-0.8111388811546102,0.22127389326908933,-0.5413793306331403,0
73,14.633366700033369,-0.5814658171379782,0.16528847930599766,-0.7966035539142254,-0.8105323767856337,0.21381381570873503,-0.5452714171807493,0
74,14.833366700033368,-0.6868148289169523,0.10855774005108523,-0.7186797672501841,-0.8380335008503779,0.21630181124781603,-0.5009125451646962,0
75,15.033366700033367,-0.8640131467922288,0.21633224636406492,-0.4546225262272738,-0.900490685645989,0.15712439663732083,-0.40549777933568826,0
76,15.233366700033368,-0.8609901092979464,0.2594425648914628,-0.4374763847496795,-0.9287906804808777,0.19592502308663037,-0.31458108204463187,0
77,15.433366700033368,-0.8508582964377271,0.2722913258688924,-0.4493301606164997,-0.9351030829169718,0.22530481732139657,-0.2735323812840942,0
78,15.633366700033369,-0.941956480623314,0.10526518507655253,-0.31880594320454436,-0.963918178533703,0.18659195578923385,-0.18985570080199676,0
79,15.833366700033368,-0.9887324489787089,0.04638217065183489,-0.14232652100781898,-0.9912266461236496,0.12144664274860201,-0.05215792345899429,0
80,16.033366700033366,-0.9868613468667045,0.1297098874001037,-0.09633289765748243,-0.9769145017855633,0.16771705282042246,0.1323217532921054,0
81,16.233366700033365,-0.987742376501042,0.1082714397202819,-0.11243795179996609,-0.9466968239068283,0.22579824023219452,0.22973958803995512,0
82,16.433366700033368,-0.9904586647210436,-0.13552456744154112,-0.02499450137111996,-0.9541417661621517,0.17710361045944778,0.24134581253296755,0
83,16.633366700033367,-0.9786317810036452,-0.19595557296508695,-0.062299684056646897,-0.9846138995480698,0.03739243358124879,0.1706964402898184,0
84,16.833366700033366,-0.9506829026938483,-0.3086124653402106,0.030989752535899254,-0.982389059836513,-0.08021551614039743,0.16875190690437253,0
85,17.033366700033366,-0.9092168832998143,-0.4146287197719506,0.03751911330035975,-0.9594174535766258,-0.22558338707377662,0.16920486177668273,0
86,17.233366700033365,-0.8595725761959195,-0.5097396805841758,0.0360616734200242,-0.911020987119086,-0.3781424823712189,0.16446587504615875,0
87,17.433366700033368,-0.8376783741811172,-0.545544863456947,0.025995064628139854,-0.837500532766093,-0.5249586455424813,0.1516946870747746,0
88,17.633366700033367,-0.4274314418190227,-0.903065638545396,0.04212855353685447,-0.682283500944217,-0.7128147133695301,0.16243278223073596,0
89,17.833366700033366,-0.21676955400023584,-0.9599855693241409,0.17730952356809332,-0.4099469977418725,-0.8893778737476639,0.2023621919492627,0
90,18.033366700033366,-0.15734730371704142,-0.9671823984127583,0.1994994591810262,-0.2575921687426739,-0.9420612220458884,0.21486490760441498,0
91,18.233366700033365,-0.04270537331710855,-0.9648561145031471,0.2592854207157361,-0.12786163932586703,-0.9589571825713171,0.2530859995807428,0
92,18.433366700033368,-0.059327463280599346,-0.9500095294632493,0.3065324551001163,-0.011020938815408221,-0.967595431181259,0.25226498065482755,0
93,18.633366700033367,-0.06667009538914803,-0.9363681732341036,0.34462986309231836,-0.015049878335336497,-0.9598192044886034,0.28021526699478033,0
94,18.833366700033366,-0.3627008347626112,-0.9272150764092227,0.09338258157678302,-0.20080214908150595,-0.9501336158557613,0.23858878629371025,0
95,19.033366700033366,-0.5406946532363661,-0.8398261874806635,0.04838663847902038,-0.5267631762432908,-0.831578192973888,0.17606324183191402,0
96,19.23336670003337,-0.9995780308393125,0.0033951623173700918,-0.02884845119311033,-0.8962238660000085,-0.42887531687013514,0.11335230298295718,0
97,19.433366700033368,-0.986317850720352,-0.0416181591057866,-0.1595149716579323,-0.9960719106278498,0.03191235020994398,0.08259752273683939,0
98,19.633366700033367,-0.7986404738893202,0.6016477335361962,0.013906768014199386,-0.9107252617878113,0.3988548189352726,0.1072116176243667,0
99,19.833366700033366,-0.4563110785386858,0.8650903964854225,0.20832379967626388,-0.7196428266333702,0.6755693040461644,0.16037555145880097,0
100,20.033366700033366,-0.4236962131705672,0.8897518880978769,0.16977366277248104,-0.45927910011163,0.8570091935851992,0.23366204294043558,0
101,20.23336670003337,0.17310364866290967,0.9796780189540233,0.10132179428883382,-0.000964206767121556,0.9729704840444614,0.2309274939967018,0
102,20.433366700033368,0.4677227216377034,0.8368653869657375,0.284414802291487,0.2855868290824251,0.924710023692022,0.25169730856357186,0
103,20.633366700033367,0.46905797838527086,0.8055599051744935,0.3620191322131804,0.35373813974665064,0.893981570929899,0.2750750430814996,0
104,20.833366700033366,0.490901916445528,0.7867161995393295,0.374289900762099,0.38226523426105596,0.8793945550756432,0.28379307105468926,0
105,21.033366700033366,0.7171217796253042,0.6725925622758451,0.1826351509382854,0.40335059613803237,0.8859811432483655,0.22879184951263715,0
106,21.23336670003337,0.7259438362511593,0.6776942706547003,0.11720077700571774,0.4557426947882973,0.8785520516056681,0.14298562433535802,0
107,21.35468802135469,0.4488966265250801,0.8223059511221681,-0.34972094796204245,0.4042518158272841,0.9141572550770006,-0.029949664279045447,1
