,timeStamp,x_gaze,y_gaze,z_gaze,x_head,y_head,z_head,fixations_head
0,0.033366700033366704,-0.9954038239884742,-0.07092152371502562,0.06435343551871853,-0.9848336120284998,0.02376426000190705,0.1718662752417128,0
1,0.2333667000333667,-0.9861833975911661,0.12755612939204436,-0.1056964529682243,-0.9845082856755177,0.05286225516759349,0.16717959628749446,0
2,0.43336670003336675,-0.9764725561745478,0.05286981825440047,-0.20906010943193293,-0.9870446928926597,0.08336001256069482,0.13709078210556613,0
3,0.6333667000333668,-0.8600696288606497,0.23277731342578745,-0.45397682304912607,-0.9668621464947114,0.16943317626418303,-0.1909711717947767,0
4,0.8333667000333668,-0.8528801119048319,0.24872601313732218,-0.45905433785774635,-0.9628021258526466,0.18145207035299793,-0.20021791283058415,0
5,1.0333667000333666,-0.8462307148649293,0.2533374746360024,-0.46873628104110276,-0.9575382257484004,0.19098978901111416,-0.21597093953607693,0
6,1.2333667000333668,-0.8862068211272514,0.04353137745091221,-0.46124016451818023,-0.9313229953682481,0.17099114110597718,-0.32155793873202687,1
7,1.4333667000333667,-0.892418063285589,-0.0014276354210204403,-0.4512072275337612,-0.9306047894952996,0.1300059629187559,-0.34215957589109824,1
8,1.6333667000333667,-0.8913190902879591,-0.01773493022607464,-0.45302952612177644,-0.9271128673177589,0.10844080311145748,-0.35875106058991074,1
9,1.8333667000333667,-0.8409505242458287,0.13126786333951282,-0.5249485344535642,-0.9186449703046317,0.10870557440711481,-0.37983485441283776,1
10,2.033366700033367,-0.8368234501220954,0.18972348169959405,-0.5135479664233293,-0.9119577608850388,0.1217574579199591,-0.3918011789191248,1
11,2.233366700033367,-0.8484552521912023,0.20550718239477342,-0.4877401798225412,-0.912421731675439,0.12134974090559829,-0.390846291972353,1
12,2.433366700033367,-0.8591823076096946,0.20230895285109712,-0.4699753715746953,-0.9184190395908464,0.11469890769368649,-0.37861673007264574,1
13,2.633366700033367,-0.8660976475926758,0.19244309457082082,-0.46134642101834833,-0.9237761600318973,0.10223651637924659,-0.36903292654634334,1
14,2.833366700033367,-0.8642982507258867,0.17979482930790733,-0.46974711616604153,-0.9256917067880385,0.10022159970728527,-0.36476087363636045,1
15,3.033366700033367,-0.8645984499803022,0.176814164579087,-0.47032570788322725,-0.9288865408472149,0.10407815920153055,-0.3554399119543501,1
16,3.233366700033367,-0.8648589063932663,0.17799723824792468,-0.4693996753389965,-0.9314166735935222,0.10933348200118541,-0.3471443069754636,1
17,3.433366700033367,-0.8629446810628145,0.17382076588523668,-0.4744605555496336,-0.9317370925977488,0.10801830040148777,-0.34669588554793684,1
18,3.633366700033367,-0.8589107070068057,0.17335488249001013,-0.4818926043279193,-0.9301941219402905,0.11092858881245841,-0.34990533532915513,1
19,3.833366700033367,-0.8553171210044287,0.17172353214684385,-0.4888186279426222,-0.9291864487205249,0.11026434327571928,-0.3527808358118588,1
20,4.033366700033366,-0.8540712491923612,0.17112230285205995,-0.4912020549321912,-0.9295588457518503,0.11001900400368825,-0.3518752208418836,1
21,4.233366700033367,-0.8543993716597529,0.16900232964613027,-0.49136536943663445,-0.9310659592119885,0.10715325659059725,-0.34876117788350436,1
22,4.433366700033367,-0.8546710716960263,0.16330426840965373,-0.4928174866267977,-0.9322182547824316,0.10027878825672104,-0.34772588352919825,1
23,4.633366700033367,-0.8585616277913216,0.15148749208426177,-0.4898198352724575,-0.9355884590406158,0.08796668621594343,-0.3419592043302702,1
24,4.833366700033367,-0.8639295363197377,0.14093795808245127,-0.48348965681378603,-0.9394698917966648,0.07560537433658963,-0.33418580128273995,1
25,5.033366700033366,-0.8656358927741058,0.16585694080725963,-0.47240446264534147,-0.9422961653821508,0.09267813048500585,-0.3216965974888434,1
26,5.233366700033367,-0.8779982162527263,0.14633031398844606,-0.4557483641935244,-0.9524090212645793,0.07728083481995139,-0.2948639157024435,1
27,5.433366700033367,-0.8946972025221338,0.14289028627730654,-0.4232012309607066,-0.9644315594018804,0.07487869309184073,-0.25350532252896607,1
28,5.633366700033367,-0.8962229952509562,0.1523737247759755,-0.4166132388454551,-0.9672044269088712,0.08731106664966586,-0.23852122381117355,1
29,5.833366700033367,-0.890039212417522,0.15365073110943855,-0.42921049985844056,-0.9655034672487901,0.09102806290537932,-0.24396095280650718,1
30,6.033366700033366,-0.8807416786738549,0.1442797777040764,-0.4510847383723181,-0.9617473785236905,0.07918474301777809,-0.2622436965420098,1
31,6.233366700033367,-0.8738086948041619,0.13491720301752147,-0.46717845970739746,-0.9590861866895753,0.083136936187528,-0.2706324746637038,1
32,6.433366700033367,-0.8581370171699664,0.17637924003596753,-0.48217343710221966,-0.9506657390982742,0.12460315478061929,-0.2840927776685796,1
33,6.633366700033367,-0.8497533432370256,0.1823098055812496,-0.4946538086848468,-0.9464581122292575,0.13481300342354272,-0.29333001193767183,1
34,6.833366700033367,-0.8441754404654214,0.17963146442998562,-0.5050746110246985,-0.9436468236640435,0.13624309421127312,-0.3016098331760751,1
35,7.033366700033366,-0.8740558778854425,0.04822251418288951,-0.4834262213200578,-0.9461475141735389,0.1192762969688981,-0.30096186868874286,1
36,7.233366700033367,-0.8813461392525275,0.0329877649465244,-0.4713181411621004,-0.9523334399818331,0.0993840858286189,-0.28841605811115667,1
37,7.433366700033367,-0.8836547099332773,0.03608775339458629,-0.4667462133404699,-0.9552578453876563,0.09774269478363326,-0.27915732919227887,1
38,7.633366700033367,-0.8833029697290156,0.04907809641838358,-0.46622655878858954,-0.9555701559013797,0.11072878190409946,-0.27317542716841753,1
39,7.833366700033367,-0.8794182725421946,0.04330716693631639,-0.47407593401358433,-0.9541629036179604,0.10798859212187521,-0.2791265256669072,1
40,8.033366700033367,-0.8765632551046114,0.053620380763648806,-0.47829040819064056,-0.9514321046089524,0.1225348722558075,-0.2824219456781513,1
41,8.233366700033368,-0.8762280901592436,0.056484934158860904,-0.4785747446626844,-0.9504136485269159,0.12956162058585965,-0.282714844259939,1
42,8.433366700033368,-0.8496753242718904,0.16412105965524523,-0.5011148781478127,-0.9473484734807822,0.13819750213254328,-0.2888465339898634,1
43,8.633366700033367,-0.8467692612596585,0.15883141260187758,-0.507695184689263,-0.9468300882654208,0.13534068173226593,-0.29188299680444013,1
44,8.833366700033368,-0.8360073579557108,0.1459942235515539,-0.5289398681641335,-0.945920877724068,0.1268830585119516,-0.2985538185124785,1
45,9.033366700033367,-0.8301084810222233,0.14227710413286238,-0.5391448185548517,-0.9452332741022569,0.12279118415622002,-0.3024175633514716,1
46,9.233366700033368,-0.8264202070830452,0.1407231148929517,-0.5451849651812143,-0.9445311719059574,0.12149058487345664,-0.30512440591513545,1
47,9.433366700033368,-0.8251856078556021,0.1272553057428299,-0.550340621568388,-0.9445951159577928,0.11817267151883203,-0.3062275079328872,1
48,9.633366700033369,-0.8242098655751352,0.11322488448665678,-0.5548497301266362,-0.9447163348150006,0.11313756237865749,-0.307751423575468,1
49,9.833366700033368,-0.8244780604201815,0.1064595160417867,-0.5557897977922269,-0.94541677169462,0.11172615764607297,-0.3061117336793341,1
50,10.033366700033367,-0.8234269634375098,0.10586732118510447,-0.5574586497572463,-0.9447028940409767,0.1151930535696653,-0.3070293184695878,1
51,10.233366700033368,-0.8187780915256835,0.10230322515232942,-0.5649216644464888,-0.942610566570966,0.11096799347528888,-0.314914947585584,1
52,10.433366700033368,-0.8188856214031222,0.10069314789129888,-0.5650550672518246,-0.9425088861243813,0.11031984108577679,-0.31544656003733423,1
53,10.633366700033369,-0.8187955410825642,0.10069097094494966,-0.5651859784827241,-0.9421031156780393,0.11177583490028685,-0.3161453497397599,1
54,10.833366700033368,-0.8189965551585547,0.10182986195177202,-0.5646904655236386,-0.9417746120156777,0.11465384527649805,-0.31609346074544614,1
55,11.033366700033367,-0.8181460263378746,0.10560888937739862,-0.565229017365544,-0.940685704353136,0.1191659504999422,-0.3176631578686609,1
56,11.233366700033368,-0.8171678525928909,0.10840075262430504,-0.5661148094858567,-0.9400556235914426,0.1186778676358545,-0.31970453279162436,1
57,11.433366700033368,-0.8192212291373535,0.10762170504937987,-0.5632886882700096,-0.9410532630478439,0.11660347897630634,-0.31752540811347313,1
58,11.633366700033369,-0.8178184038015386,0.11217359126370845,-0.5644379007707633,-0.9398560090023595,0.11968426859522774,-0.3199161736970828,1
59,11.833366700033368,-0.847118515014027,0.22266709758051245,-0.4825034561280369,-0.939182819033755,0.12062166300159069,-0.3215370069627139,1
60,12.033366700033367,-0.8470929945598358,0.2243968326187683,-0.481746323367719,-0.9391837837579116,0.12348757166337519,-0.32044444131683003,1
61,12.233366700033368,-0.8482976201622702,0.2235651751830916,-0.4800101666343985,-0.9399492839029294,0.12326343015792843,-0.31827891930831975,1
62,12.433366700033368,-0.84614465840659,0.22590983123886973,-0.48270484273479236,-0.938586725905415,0.12589472914344002,-0.32125608963575064,1
63,12.633366700033369,-0.8445666357944166,0.22452742742854803,-0.4861014626960294,-0.9369288175385249,0.12545838851600935,-0.3262278093860602,1
64,12.833366700033368,-0.9169051492356858,0.22068017211045307,-0.33254354443047857,-0.9369906742765208,0.12251094274194425,-0.3271689857356764,1
65,13.033366700033367,-0.8539193870772562,0.1314843230454701,-0.5035211546369006,-0.9375698658666989,0.11730400842233882,-0.32741795342765245,1
66,13.233366700033368,-0.8540853363097578,0.16316301020692636,-0.4938785988488091,-0.938867836471663,0.11653282029667239,-0.3239556874523463,1
67,13.433366700033368,-0.8529675704316749,0.1848426349587062,-0.4881388369034044,-0.9392113927246409,0.11940968372275372,-0.321905711675752,1
68,13.633366700033369,-0.8530306023044143,0.19128581619721893,-0.4855394196704656,-0.9398421061646703,0.11890242210249315,-0.32024838719050125,1
69,13.833366700033368,-0.8528784340419562,0.19389451414401315,-0.48477138336642556,-0.9405540246037042,0.11754097755199769,-0.3186569399807508,1
70,14.033366700033367,-0.8544590481377878,0.1975182806708615,-0.4805062578742267,-0.9425991541211634,0.11726206456804612,-0.31266026748422504,1
71,14.233366700033368,-0.8576028989576361,0.20814821193506175,-0.4703100993681675,-0.9442193870788109,0.12386006216219236,-0.30513674650178246,1
72,14.433366700033368,-0.8568839473875431,0.22060600856343565,-0.4659215488633806,-0.9432365954410946,0.13447450693885044,-0.30367965358951143,1
73,14.633366700033369,-0.86095176435546,0.22533374628826303,-0.4560556569509006,-0.9455340158909973,0.1373425655901927,-0.295131232623974,1
74,14.833366700033368,-0.8627193934173788,0.2141409068572305,-0.45810361298718605,-0.9465380518748152,0.12269781461535106,-0.2983470506669147,1
75,15.033366700033367,-0.8989152356739494,0.14805856174219986,-0.41234701571380283,-0.9496945746737796,0.11253323963113059,-0.2922609874980096,1
76,15.233366700033368,-0.9248162872128401,0.102777097601869,-0.36626725640492824,-0.9518466187746266,0.11153384421024604,-0.28556648249224725,1
77,15.433366700033368,-0.9245143438869345,0.09269267283890541,-0.36970433639503214,-0.9539301916905321,0.12312177998029114,-0.2736022965469223,1
78,15.633366700033369,-0.9252443481847689,0.11133689245079496,-0.36266650318376864,-0.951302974363409,0.15106748169316772,-0.2687029343758933,1
79,15.833366700033368,-0.9227422331538357,0.08251110469412604,-0.376481989949622,-0.9592569878840633,0.13231968600537386,-0.24963479703565722,1
80,16.033366700033366,-0.9343680404553706,0.060726858411821065,-0.35109630251972473,-0.9623840328166617,0.11889665192052469,-0.24429604896851778,1
81,16.233366700033365,-0.9728064635537892,0.012393189726049242,-0.2312876851809992,-0.9694671729104839,0.10548957660342642,-0.22137152002230034,1
82,16.433366700033368,-0.9750558825358288,0.0030263769801354926,-0.22193888116923172,-0.9725122803156336,0.08938743075876072,-0.2150110505477205,1
83,16.633366700033367,-0.9746216754279714,0.0022525204868728737,-0.223847081592391,-0.9725978739022505,0.08428627598183139,-0.21667763927534528,1
84,16.833366700033366,-0.9728870508075097,0.0012111381202894143,-0.2312775810914666,-0.972153219599045,0.08352846409078458,-0.21895459189029473,1
85,17.033366700033366,-0.97161382550556,0.003990029090857362,-0.23653890537141176,-0.971565447389755,0.08579478587414552,-0.2206803936808944,1
86,17.233366700033365,-0.9710195222088602,-0.004663636958279746,-0.23895467766837702,-0.9722009300456074,0.07609650112294396,-0.22143774324920865,1
87,17.433366700033368,-0.9696022965096329,-0.007491085406145252,-0.24457160555282023,-0.972010937172594,0.07158120208607552,-0.22376521071151337,1
88,17.633366700033367,-0.9693856115376371,-0.008129239971652914,-0.24540874393811865,-0.9719342847962288,0.06953378923444935,-0.22474162541092077,1
89,17.833366700033366,-0.9690221511620581,-0.002140431534044282,-0.24696455031057765,-0.9712717772168158,0.07347291965391359,-0.22634678009553794,1
90,18.033366700033366,-0.9683105143088966,-0.0028156696366502176,-0.24973349771974404,-0.9711409858391806,0.07117899983425355,-0.22763728957686133,1
91,18.233366700033365,-0.9680841846635646,-0.005094911969831898,-0.2505734488653996,-0.9716249067554094,0.06745170285992622,-0.22670533375692448,1
92,18.433366700033368,-0.9675040266569264,-0.003456046294264337,-0.2528319879814367,-0.9716380198744958,0.06751946144984199,-0.22662894929794966,1
93,18.633366700033367,-0.9676226797492684,-0.0003541461921866112,-0.2524009196007805,-0.9720067416043989,0.06911153523327353,-0.2245584333159175,1
94,18.833366700033366,-0.9676419891061174,0.0002866678699962092,-0.2523269679211657,-0.9723812150009306,0.06891370067068105,-0.2229925437614132,1
95,19.033366700033366,-0.9677986173840732,0.0017591913663584167,-0.25171956903509335,-0.9728144665731508,0.06938450076518791,-0.22094751566732235,1
96,19.23336670003337,-0.9683151169436917,0.0019559199123261647,-0.24972386485000106,-0.9736885508373,0.06901326044700161,-0.21718143532731618,1
97,19.433366700033368,-0.9685591852062017,0.0032947934846725025,-0.24876143006622312,-0.9739455294962905,0.07001078358687546,-0.21570488115882377,1
98,19.633366700033367,-0.9684084301098252,0.004676396091628674,-0.24932557793338866,-0.9739605293036879,0.07100450552646852,-0.21531197726420703,1
99,19.833366700033366,-0.9677163715167725,0.005465257955344154,-0.2519824502894877,-0.9736827661395479,0.07155698852905137,-0.21638268950055162,1
