,timeStamp,x_gaze,y_gaze,z_gaze,x_head,y_head,z_head,fixations_head
0,0.033366700033366704,-0.9976358851961147,-0.0467715259103173,0.05034942832829046,-0.9717039208308871,-0.11016526345889079,0.208938040980847,0
1,0.2333667000333667,-0.998395068199894,-0.0027263349615148707,0.05656725989304225,-0.9741972246766661,-0.08554048486739987,0.20886022330958887,0
2,0.43336670003336675,-0.9986765931287227,0.010153680562286011,0.050417904635620465,-0.9763991213852028,-0.07153557386647053,0.20378277019856073,0
3,0.6333667000333668,-0.9984917627798391,0.028660198683043696,0.04682726419788389,-0.9787239160947157,-0.048236504982681234,0.19943102981050884,0
4,0.8333667000333668,-0.9986588299484943,0.03314107641959556,0.03977700868158612,-0.9804083897080086,-0.03976123335783766,0.1929207964736133,0
5,1.0333667000333666,-0.7923827772011462,0.554667000552809,0.25391741352799796,-0.9770985065756048,0.09163030637193502,0.1920478987177639,0
6,1.2333667000333668,-0.7967720567258308,0.6028733024569588,0.041207654695816574,-0.9419079818378739,0.2965353714909201,0.15772167639498788,0
7,1.4333667000333667,-0.5426903654798203,0.8392737571406117,0.03326751854978867,-0.8642934257499735,0.4792937950416543,0.1525592745130372,0
8,1.6333667000333667,-0.2258616971313327,0.961029243404939,0.15940290803333887,-0.7662475591885052,0.6248539413470141,0.14974054234161396,0
9,1.8333667000333667,-0.2705024415621689,0.9605144874820669,0.06511795793763744,-0.6596700339201529,0.7333101417937006,0.1645955111486548,0
10,2.033366700033367,-0.29074274843344605,0.9016889121051195,0.32004024750029875,-0.54509429897011,0.8185590218762393,0.1811997045673616,0
11,2.233366700033367,-0.14144950528046468,0.988699253794188,-0.049657053907047964,-0.47559734476785465,0.8622736342225431,0.17404409031740958,0
12,2.433366700033367,-0.12224831253603258,0.9894579575879351,-0.07764212933713772,-0.42034739427671863,0.8913098434967006,0.16992595743634978,0
13,2.633366700033367,-0.6719428343715387,0.6422869273430067,0.36872798958178193,-0.5222541872050488,0.8326215620594983,0.18436891912791387,0
14,2.833366700033367,-0.8423309257441508,0.5385435228891122,0.0212010728310328,-0.7418358112866044,0.6444813825794389,0.1852656919163411,0
15,3.033366700033367,-0.9690409875434814,0.2448994392981159,0.031366049993946835,-0.8676261027566523,0.4574288103642447,0.19489440542010134,0
16,3.233366700033367,-0.9817730481965523,0.18852672103957296,0.02406984189639054,-0.9227055965456438,0.326402876807639,0.20512324128446588,0
17,3.433366700033367,-0.9916820219298721,-0.10385289577466232,0.0760351459543391,-0.9557027143624026,0.20331153110351952,0.21283031522947674,0
18,3.633366700033367,-0.8878078366865416,-0.4518804808157248,0.08718529793326465,-0.9731874086276034,-0.04792242292022387,0.22496601758964677,0
19,3.833366700033367,-0.7041853577767452,-0.7064259415180921,0.07131178754676153,-0.8336945643948668,-0.5009769628922783,0.23232618438239458,0
20,4.033366700033366,-0.1415059240699485,-0.9886669861884021,0.0501364525495395,-0.5093268343200341,-0.8284734620659013,0.23284737167095623,0
21,4.233366700033367,-0.09257926918799919,-0.9957052409254068,-0.00039001319707335187,-0.2715898356497535,-0.9353070920924009,0.22680300847518972,0
22,4.433366700033367,0.11529604557481349,-0.9932965049205871,-0.008299107624141978,-0.12131886955175647,-0.9699309172879313,0.21098755313922268,0
23,4.633366700033367,0.11227558178879737,-0.993673869155638,0.0025368270045483306,-0.09283415760890446,-0.9669717461668045,0.23737620204259408,0
24,4.833366700033367,-0.054741684496702525,-0.9984878724359666,0.005031558084769847,-0.11235152635615664,-0.9555207610362099,0.2726851843320869,0
25,5.033366700033366,-0.3728614096147534,-0.9057490849968552,0.2014769571128641,-0.17057269325107666,-0.932931946138707,0.31708506775141443,0
26,5.233366700033367,-0.529001465202641,-0.6261593765351544,0.5727843267675591,-0.24494534896732334,-0.8681936668386002,0.43155710268818664,0
27,5.433366700033367,-0.3085332381062752,-0.5794481330710775,0.7543521074830374,-0.2827489540804259,-0.7716847203363558,0.5696979211528036,0
28,5.633366700033367,-0.25831092509969805,-0.5330396895261347,0.8056948276885116,-0.3176736279122965,-0.7058925210750335,0.6330870515334942,0
29,5.833366700033367,-0.5866852855295442,-0.26703294972568997,0.7645219287266484,-0.4080328783057663,-0.6036044420101906,0.6849604717113817,0
30,6.033366700033366,-0.5690946451799429,-0.1246060323717857,0.8127758741031111,-0.5521433701928709,-0.4347262633297258,0.7114427417040899,0
31,6.233366700033367,-0.6245220074985314,0.021768961756439865,0.7807037686946638,-0.6342061970696379,-0.33549834518318805,0.696579758518585,0
32,6.433366700033367,-0.6073782416214285,0.0877494138832793,0.7895515891745154,-0.6655830912031085,-0.2520786434156928,0.7024638825151218,1
33,6.633366700033367,-0.7898998577676051,0.013524198228555398,0.6130867073758753,-0.6751815695003794,-0.18677534267449125,0.7136139149258728,1
34,6.833366700033367,-0.8502760623589634,0.015107008420541196,0.5261201346421917,-0.6939140905312479,-0.1478777243173431,0.7047094533301759,1
35,7.033366700033366,-0.5031970392742607,0.029355812084888345,0.863672956600156,-0.6851839312828698,-0.11907173216861398,0.7185714320164123,1
36,7.233366700033367,-0.4864222717244693,0.028538399196738794,0.8732576557589943,-0.6810205781830873,-0.10733136220696388,0.7243555416906612,1
37,7.433366700033367,-0.5264583149223755,0.04024965040584444,0.8492476719375216,-0.7057025624815032,-0.08745794080908134,0.7030896115691622,1
38,7.633366700033367,-0.9255818273785558,-0.059372998293692456,0.3738624451588999,-0.7533517695959384,-0.07294502138960729,0.6535595880263237,0
39,7.833366700033367,-0.9383130825071502,-0.06788905297219877,0.3390569799937293,-0.7763737546667482,-0.07355442760204704,0.6259660847400532,0
40,8.033366700033367,-0.9936721518000713,-0.0583046818314473,0.09600113964714341,-0.8045426257030734,-0.10288245747488652,0.5849156891131683,0
41,8.233366700033368,-0.9961608832098459,-0.00287984088402458,-0.0874940071037049,-0.8866542143377876,-0.1161681145240241,0.4476039246532291,1
42,8.433366700033368,-0.9908859700685566,-0.13457076180747765,-0.005975314874628364,-0.91872935546995,-0.06672850025473277,0.38920904235580694,1
43,8.633366700033367,-0.9911942185505878,-0.12884683087188256,-0.03053711325849886,-0.9206740553151562,-0.0719510082399905,0.38364350155162763,1
44,8.833366700033368,-0.9907177284926529,-0.13239908524454816,-0.0308036471341482,-0.9224004309121032,-0.07043006531637239,0.3797592012745682,1
45,9.033366700033367,-0.8283645822784858,0.24991062989000096,0.501354959978031,-0.9151540760173003,-0.07066883386178448,0.39686135245137866,1
46,9.233366700033368,-0.7604168783193704,0.18721899217212076,0.6218643100685869,-0.8809313166177464,-0.06599772092482321,0.4686195858421344,1
47,9.433366700033368,-0.6699203081349201,0.034794163682102044,0.741617250960411,-0.8363121560039598,-0.05451136917343573,0.5455368808346931,0
48,9.633366700033369,-0.6322344028614948,0.08323234751557991,0.7702934740509066,-0.8035595746426832,-0.047076021590400294,0.5933598050013928,1
49,9.833366700033368,-0.5578950229985928,0.07606880900783942,0.8264179811751003,-0.7426672714194957,-0.05861267613375657,0.6670906071582487,1
50,10.033366700033367,-0.5362403799302251,0.04088135709656,0.8430747117392572,-0.7285337070620821,-0.07191539920533867,0.681224495325526,1
51,10.233366700033368,-0.5127645898699474,0.034032934456333014,0.8578544368060327,-0.7102111098773297,-0.07898855441127298,0.6995434137198556,1
52,10.433366700033368,-0.5089737352464287,0.028390906330550445,0.8603137179349334,-0.7064641376183526,-0.08035734726422734,0.7031721830389865,1
53,10.633366700033369,-0.503284410154734,0.019735814918419255,0.8638954219723054,-0.7022600369651391,-0.08068100999833562,0.7073340194755022,1
54,10.833366700033368,-0.504688902645887,0.018573878952367378,0.8631014555466543,-0.7042043061875993,-0.07850783397396388,0.7056435468078474,1
55,11.033366700033367,-0.525183719907959,0.08330269213645118,0.8469018371844864,-0.7147357715581667,-0.07906320680990962,0.6949113513133066,1
56,11.233366700033368,-0.5403441558784399,0.06124613913838927,0.8392121922664479,-0.7269732212692286,-0.08583312502763701,0.6812801260901651,1
57,11.433366700033368,-0.5241556761242316,-0.050016333906639066,0.850152453110199,-0.7290108314725036,-0.09574394326191597,0.6777730482428674,1
58,11.633366700033369,-0.8756214423495177,-0.08038202939082716,0.4762623426734084,-0.7370874145173097,-0.10685582785461673,0.6672960178314358,1
59,11.833366700033368,-0.8815037922470788,-0.08029307172108573,0.4652999966555036,-0.7454905743097676,-0.11840093344935272,0.655915408092854,1
60,12.033366700033367,-0.8870759794203463,-0.06726133041117659,0.4566969675471385,-0.7600368691138352,-0.10978172104465991,0.6405403432353902,1
61,12.233366700033368,-0.9586986489751939,0.20382183781597285,0.19837731443503773,-0.7894546493475411,-0.11108835785038726,0.6036727038500709,1
62,12.433366700033368,-0.9792245914632208,0.18771625262804545,0.07669294604442124,-0.88626929964613,-0.04506333339052333,0.4609729107968201,0
63,12.633366700033369,-0.9928043504207218,0.10654021950416304,0.05466903523653434,-0.9041172323514275,-0.0037232492946703867,0.42726826184480965,0
64,12.833366700033368,-0.9931502031703979,0.10224338002266277,0.05655939518894207,-0.9091462565623531,0.016288576637047837,0.416158343001554,0
65,13.033366700033367,-0.8447313689830793,0.5087696250963807,0.16607944735957286,-0.9071972491857485,0.06711214317361401,0.41531808449483065,0
66,13.233366700033368,-0.7750291062414982,0.6181467522487366,0.131242055618021,-0.8685445250242656,0.30261323740519014,0.3924992185947928,0
67,13.433366700033368,-0.6946447208604132,0.7007747909281028,0.1624296899597871,-0.8111314659108435,0.46151922313750326,0.3592572221735863,0
68,13.633366700033369,-0.3122167071024308,0.8950622563812269,0.31840899014924534,-0.757416886442396,0.542907485231511,0.36272733921156775,0
69,13.833366700033368,-0.49810857401295233,0.8510758286340361,0.16600536861701973,-0.7033717341018021,0.6056263456105612,0.37213563813349115,0
70,14.033366700033367,-0.4598807763087139,0.8673778439652509,0.19017188903696525,-0.6813885543752334,0.6164446850420474,0.3945954741882377,0
71,14.233366700033368,-0.576992046051741,0.5682921804440179,0.5866209819288851,-0.7903978127564302,0.34023558176698954,0.5094222673671905,0
72,14.433366700033368,-0.5891768869957664,0.019268587337851698,0.8077742985339295,-0.7757866731377498,-0.0036618464845641755,0.6309846501002905,0
73,14.633366700033369,-0.5292255858785212,-0.0654975499433209,0.8459493780380469,-0.7304537524499807,-0.11396412770609066,0.673386585200457,0
74,14.833366700033368,-0.49017727013723633,-0.14781892356197274,0.8589969788525376,-0.6951747005215939,-0.18937254002780973,0.6934480347063706,0
75,15.033366700033367,-0.47833075091178157,-0.17600964377344328,0.8603605628054539,-0.6834804153297502,-0.23058795870859314,0.6925920264912644,0
76,15.233366700033368,-0.4516638165507346,-0.3145760405423263,0.8348902392144353,-0.6844318538604635,-0.2704502982651815,0.6770595790544609,0
77,15.433366700033368,-0.44975434383606144,-0.3349917497960744,0.8279502145474438,-0.6779673197940606,-0.3110775659481893,0.6660263217433736,0
78,15.633366700033369,-0.49430922068153926,-0.65591257696551,0.5704709332890445,-0.6676681178931003,-0.34269641182368504,0.6608921649348374,0
79,15.833366700033368,-0.3496412100091384,-0.5294801290398004,0.7729177299139556,-0.632223027180649,-0.4035046415489175,0.6614212335199229,0
80,16.033366700033366,-0.15728383470543478,-0.8563787350739555,0.49181018437348933,-0.5810196654919457,-0.5008323049114004,0.6415474656397309,0
81,16.233366700033365,-0.20481838075540065,-0.7035202957978459,0.6805208478108862,-0.5085319279870172,-0.5994155962384862,0.6181393218392337,0
82,16.433366700033368,-0.11350074005380317,-0.701410489105951,0.7036624956464496,-0.4248881707071874,-0.6945913981159189,0.5805280631084713,0
83,16.633366700033367,-0.17980149587191452,-0.8709654148016684,0.45726433088704777,-0.3738385088088981,-0.7393958590754228,0.5599451159833944,0
84,16.833366700033366,-0.16120552901555335,-0.9081360326482473,0.38639581211591467,-0.3528122698395971,-0.7685835686722163,0.5336691861234936,0
85,17.033366700033366,-0.6763771045080604,-0.6715165977178187,0.3026210030496524,-0.40748623308407605,-0.7484586952503121,0.5232251440356732,0
86,17.233366700033365,-0.7673821620400029,-0.5677370049560613,0.29799213175238737,-0.5317941423729861,-0.6778977298902805,0.5075920191919735,0
87,17.433366700033368,-0.9468236547755802,-0.2645672863408545,0.18310957854697116,-0.6707762525860768,-0.5623169956123649,0.48358951127176425,0
88,17.633366700033367,-0.960107781101999,-0.26774618313235676,0.08065376671582467,-0.7793130285866499,-0.4352061829634996,0.45085117476329645,0
89,17.833366700033366,-0.9883508762260819,-0.14800371214080327,0.03546049429547042,-0.8389817011076136,-0.338969062141952,0.42568730321349824,1
90,18.033366700033366,-0.970943256073296,-0.23542981220822548,0.04291849262713787,-0.8551756997538462,-0.2978116891574225,0.4242437039623837,1
91,18.233366700033365,-0.974997744103749,-0.21051390079527196,0.07115684481874557,-0.8445156533206142,-0.3086123324206539,0.43766624221470446,1
92,18.433366700033368,-0.9833472869228468,-0.06649022293090753,0.16913652342434732,-0.8519794234357784,-0.288720526248379,0.4367739916305666,1
93,18.633366700033367,-0.7491456263705888,-0.014723044413999156,0.6622416948916775,-0.8599449775476676,-0.23306237161095236,0.4540666983270403,1
94,18.833366700033366,-0.7459660030953216,0.023284699604349764,0.6655768513029325,-0.8435492039561925,-0.2120350724404372,0.4934226064541964,1
95,19.033366700033366,-0.6537534401611309,-0.14473447500857203,0.7427370808176201,-0.8116767980385442,-0.21564975438854084,0.5428406386390561,1
96,19.23336670003337,-0.6347911447561838,-0.09948101100643099,0.7662530463158189,-0.7818261799536852,-0.23150643012509825,0.578923653990542,1
97,19.433366700033368,-0.6166432613185479,-0.10685141459168425,0.7799576036363651,-0.7662535298235162,-0.23413155752889978,0.5983627175903373,1
98,19.633366700033367,-0.6177295620449597,-0.009739418713347214,0.7863302944048821,-0.7414628322341947,-0.20299792236998204,0.6395503982710957,1
99,19.833366700033366,-0.638549368924309,0.12010876861568384,0.7601503714055471,-0.7125312963317586,-0.1834988932776201,0.6772202801996353,1
100,20.033366700033366,-0.561112632142412,0.06889435995704775,0.8248673718946115,-0.6957510818410156,-0.17466460241624568,0.6967228349780358,1
101,20.23336670003337,-0.5438836449639284,0.03477486416525166,0.8384397948350495,-0.7000361583557431,-0.16716220135637538,0.6942666457725187,1
102,20.433366700033368,-0.5467987787086515,0.011920989169227472,0.8371791836996156,-0.7078723631731275,-0.17266172496491433,0.6849121448681081,1
103,20.633366700033367,-0.8560094490133838,0.013699244473046686,0.5167786314280718,-0.7142604241164188,-0.17314094856974308,0.6781255477191543,1
104,20.833366700033366,-0.8660610621249061,0.0224385303500818,0.4994344291564289,-0.7317078228320394,-0.1635645408928092,0.6617025789347671,1
105,21.033366700033366,-0.7933222032140845,-0.003949869621793071,0.6087891920997959,-0.756902236934587,-0.14971213289468419,0.6361487884037372,1
106,21.23336670003337,-0.6523109955390434,0.11230124282815256,0.7495857495697973,-0.7577483865066783,-0.16400145745848926,0.631601856154664,1
107,21.433366700033368,-0.9317289613538838,-0.13805736985299288,0.3358888286378198,-0.7784488041762272,-0.1764296930714693,0.6024035380700462,1
108,21.633366700033367,-0.9983482029962449,-0.011807824834549795,0.05622669158722942,-0.8334851740946497,-0.17701570573113667,0.5234194345731913,1
109,21.833366700033366,-0.9992156474783875,0.010718654057240427,0.038120864228766954,-0.8547601326522669,-0.1574287055554285,0.49457185352122657,1
110,22.033366700033366,-0.9942607692395596,-0.099699768365585,0.03880050178809475,-0.8625891670317292,-0.1380131591780342,0.4867158275762218,1
111,22.23336670003337,-0.992180754759795,-0.1186413907015549,0.0387501006022572,-0.8610183733243979,-0.1390257303172558,0.4892026237741997,1
112,22.433366700033368,-0.9927014330660232,-0.11286137859035592,0.04249910600646088,-0.8599500823250651,-0.13390615890159469,0.49249872742712286,1
113,22.633366700033367,-0.9926295365581861,-0.1120517755740851,0.046162785260162056,-0.8598908689668182,-0.13552650282966433,0.4921587756997244,1
114,22.833366700033366,-0.9928254168140749,-0.10890397702484561,0.04937221400879582,-0.8598954155794643,-0.13056298046404438,0.49349081288081353,1
115,23.033366700033366,-0.693183505759356,0.04461004150435782,0.7193792960185528,-0.8214946734300717,-0.155751806399083,0.5485324751821381,1
116,23.23336670003337,-0.6577806195107546,0.0337887080133808,0.7524513139112953,-0.7913573786320464,-0.176461013201611,0.5853332470520336,1
117,23.433366700033368,-0.6549708402573642,0.05156838155003589,0.7538924992576015,-0.7927561791334764,-0.1581208968872349,0.5886725935639165,1
118,23.633366700033367,-0.7007731930879448,0.19461323154235716,0.6863254490094091,-0.802743358651363,-0.1405824054069965,0.5795167706211029,1
119,23.833366700033366,-0.7082954510455562,0.24156942452395858,0.6632961383600356,-0.8234684785634541,-0.0990338591500262,0.5586519126918327,1
120,24.033366700033366,-0.6733125746892072,0.047716495364444896,0.7378165848200523,-0.8388587338774001,-0.05048436207793597,0.5420030938871011,1
121,24.23336670003337,-0.6552726037372079,0.014833581830660863,0.7552468335859036,-0.8218482956236882,-0.07710190274031033,0.5644649462759073,1
122,24.433366700033368,-0.6503825629295593,0.009092827324268709,0.7595523960388968,-0.816856298957573,-0.08590138262373237,0.5704092735191704,1
123,24.633366700033367,-0.6451981329174838,0.024333565591447916,0.7636276886450621,-0.8133778104055268,-0.07625508983519341,0.5767163070471805,1
124,24.833366700033366,-0.6602667813252214,0.48357589103462945,0.5746321737324639,-0.829329046865223,-0.01495038554976063,0.5585604873221289,1
125,25.033366700033366,-0.6601171584168122,0.2603554546508926,0.7045994425184005,-0.825809126954564,0.008962176458735871,0.563878502189668,1
126,25.23336670003337,-0.6487652742997243,0.247303423777139,0.7196837051447732,-0.8182645797561947,0.010022331142582516,0.5747544087650713,1
127,25.433366700033368,-0.6435859362317001,0.11560596048700282,0.7565926278947236,-0.8215108071219506,0.003524576085507552,0.570182050879593,1
128,25.633366700033367,-0.6509118023173472,0.1395329520901031,0.7462200619689902,-0.824351179504974,-0.010703565299059897,0.5659775318320043,1
129,25.833366700033366,-0.8360327293990015,-0.27391212062435843,0.47541710691636174,-0.830393201528102,-0.03287283975154778,0.5562072520765783,1
130,26.033366700033366,-0.8097780903841632,-0.3215617603234982,0.49077232871407017,-0.8273657572874731,-0.0754290760441418,0.5565755637424743,1
131,26.23336670003337,-0.653499976483808,0.023355219492763646,0.7565661335654061,-0.8172755248681665,-0.10323080699497639,0.5669251422706783,1
132,26.433366700033368,-0.6474491739580067,0.031868144513106045,0.7614420454022661,-0.8075811629573435,-0.11397538829167181,0.5786382947059655,1
133,26.633366700033367,-0.638386923960538,0.026852685377514934,0.7692470790352204,-0.7973001668777532,-0.11346571721984597,0.5928220432073128,1
134,26.833366700033366,-0.6276476219237113,0.01217346049273255,0.778402382802842,-0.7880265326014716,-0.11286966597466104,0.6052062643585826,1
135,27.033366700033366,-0.613928597528023,-0.0031480821742668323,0.7893552854804351,-0.774106173418511,-0.11835495644513641,0.6218936698184186,1
136,27.23336670003337,-0.5769315601900251,-0.03869769882172276,0.8158752741458749,-0.7622992730340041,-0.12557926581974033,0.6349249296790955,1
137,27.433366700033368,-0.5878827242648569,-0.0036275199161170365,0.8089380344687648,-0.7623537568949221,-0.12210918542273685,0.6355360699311987,1
138,27.633366700033367,-0.590541303399308,-0.00047201847895972506,0.8070072776487225,-0.766124592812725,-0.12041890977789756,0.6313100620578124,1
139,27.833366700033366,-0.5853476719037094,-0.008249785747590728,0.8107404295038128,-0.7623982267831068,-0.1258857670994191,0.6347453957609821,1
140,28.033366700033366,-0.5791911070674519,-0.0006387041673422847,0.8151915440870114,-0.7586341172946021,-0.11832621395405575,0.6406818111730183,1
141,28.23336670003337,-0.5710439842885056,0.010934137228961128,0.8208466438080668,-0.7519777417275368,-0.10592988487347392,0.6506214993658345,1
142,28.433366700033368,-0.5677373260267452,0.008605420617283437,0.8231647923544843,-0.7471892852330859,-0.10870998642657231,0.6556602099288967,1
143,28.633366700033367,-0.5697094176228892,0.007481515528315757,0.8218121478763792,-0.7496777851045098,-0.10508894203391078,0.6534061009686011,1
144,28.833366700033366,-0.6173359444206079,0.14512344162247856,0.7731982400509998,-0.7598816754325457,-0.11227747669797512,0.6402918143847875,1
145,29.033366700033366,-0.9559832628231484,-0.09594623074326958,0.2772910420626076,-0.80609921923554,-0.1361256280641389,0.5759113318315561,1
146,29.23336670003337,-0.966178783256311,-0.10741893049385959,0.23443492094163346,-0.8342505821667328,-0.15144661592775893,0.5301791099982137,1
147,29.433366700033368,-0.9841721434102183,-0.1767110399219366,0.013356665191757053,-0.8539891675240081,-0.16617034337513326,0.49304149798393426,1
148,29.633366700033367,-0.9843497154111794,-0.1762238550130629,0.000889209910718902,-0.8671899646104335,-0.1770295950389515,0.4654482653950924,1
149,29.833366700033366,-0.9137976740782162,-0.4059051982070055,0.014655405752612023,-0.865419951109334,-0.192072078358223,0.4627705964482518,1
150,30.033366700033366,-0.8899445681585686,-0.45603358754565376,0.005659738094634405,-0.8642741962154323,-0.20682311050329896,0.45853496564374313,1
151,30.23336670003337,-0.7451789950486631,0.03718549947448178,0.6658269324434825,-0.8648943287980877,-0.20859338436837607,0.45655952515597853,1
152,30.433366700033368,-0.7573417596701348,0.06777065800214643,0.6494925688363956,-0.8696268779712223,-0.19238027242383235,0.45468552197332746,1
153,30.633366700033367,-0.7641300822918563,0.12571289052238524,0.6326938331398116,-0.8706969178845341,-0.17060241223372327,0.46128266185323663,1
154,30.833366700033366,-0.7583454295273324,0.14739486076119465,0.6349700501096047,-0.8689191752852671,-0.14425379729337587,0.4734662699580754,1
155,31.033366700033366,-0.7478203832090775,0.148319282572678,0.6471213679628842,-0.8641294952823727,-0.13326689248497942,0.48530418373472634,1
156,31.23336670003337,-0.7085218545901792,0.02180770849889578,0.7053518309454655,-0.8505867030796566,-0.11577936581111199,0.5129302086994459,1
157,31.433366700033368,-0.6796847896531005,0.0158539348248402,0.7333329663016588,-0.8338367581139131,-0.10483694386351429,0.5419644601073372,1
158,31.633366700033367,-0.6762989661720176,0.04439011046987669,0.7352885327863697,-0.8320042378779536,-0.08982526448077968,0.5474489656708506,1
159,31.833366700033366,-0.6793541267381131,0.14274211724870167,0.7197934831930989,-0.8358036385267458,-0.06734918407304259,0.5448819736696643,1
160,32.03336670003337,-0.6840214113492213,0.1735960676657214,0.7085048440955205,-0.8396858513829379,-0.05469313797135411,0.5403113284451447,0
161,32.23336670003337,-0.6791164607710616,0.1801161287599282,0.7115890758508905,-0.8410288107477197,-0.03362507879728977,0.5399443430281982,0
162,32.43336670003337,-0.8320044845380321,0.4932890009657366,0.25383951472304156,-0.8610322532096465,0.056530840447717494,0.5053985783626563,0
163,32.63336670003337,-0.8093620714517935,0.5622916434397642,0.1695911112442831,-0.8835747721442089,0.15199221889793826,0.44293790470537797,0
164,32.83336670003337,-0.8258997043731587,0.5480820577999677,0.13227144905111643,-0.8757304764458052,0.2499087780234875,0.4130880478672931,0
165,33.03336670003337,-0.7910234517658644,0.6011051144990626,0.11381801298338616,-0.8575853372452,0.31624966532047966,0.405627339471492,0
166,33.23336670003337,-0.47277045743601,0.7909875531611623,0.3883642431015803,-0.8258165977747427,0.4134186821929805,0.3835517436455849,0
167,33.43336670003337,-0.3415155694627257,0.8785083700266515,0.3340511332231427,-0.7817803559370164,0.5090373867856937,0.3601394367816228,0
168,33.63336670003337,-0.4819311334470691,0.8706392377680882,0.09863924306799167,-0.7053351178138763,0.6265860159769483,0.33150012995566225,0
169,33.83336670003337,-0.1214435539949591,0.9422810787492883,0.31202216559749574,-0.6415413499261922,0.6957752909851107,0.3229882982237346,0
170,34.03336670003337,-0.31701962654671273,0.9432079407309639,0.0992841222262517,-0.6383436246922404,0.6989784401758862,0.3224074394055711,0
171,34.23336670003337,-0.318866813387557,0.9453566672257033,0.0680053457602823,-0.6623941581005933,0.6798554185763169,0.31469126004169135,0
172,34.43336670003337,-0.5327836653367922,0.8379708885069213,0.11809469067326571,-0.6867972401253658,0.6561658784904706,0.31265938473202715,0
173,34.63336670003337,-0.6686992091751987,0.7293969047827624,0.14429664910104456,-0.7890085000904283,0.5133807583075625,0.33749930930981864,0
174,34.83336670003337,-0.7287480000579054,0.2777758014949983,0.6259128985053865,-0.8514828028453363,0.3414255220462316,0.39800207204750687,0
175,35.03336670003337,-0.8619305555437793,-0.10190907104620446,0.49667923115275514,-0.8730067673940887,0.20038624082487216,0.44463978518819014,0
176,35.23336670003337,-0.7624812493656549,0.06151408807079946,0.6440794681827765,-0.8828573251165615,0.08727694355741981,0.4614603759926799,0
177,35.43336670003337,-0.7554452682542482,0.05335160159034372,0.6530360275513231,-0.877067346397651,-0.007946924319278747,0.48030169297728537,0
178,35.63336670003337,-0.73750390647033,0.03000905884389147,0.6746758068348878,-0.8581013634218707,-0.07926987698755428,0.5073246856756575,0
179,35.83336670003337,-0.691458139977839,-0.05576566523329525,0.7202609466293968,-0.8153533503536341,-0.16968519887222408,0.5535393819330275,0
180,36.03336670003337,-0.7608454875955557,-0.3185690350289714,0.5653564485580681,-0.7853387100210532,-0.236122411706526,0.5722668234594435,1
181,36.23336670003337,-0.6238308886968343,-0.14534836122704187,0.7679250459493634,-0.7541006997528371,-0.28270202991103816,0.5927998793154905,1
182,36.43336670003337,-0.780711612772897,-0.340819464271287,0.5237666183095048,-0.7374116703912414,-0.3099204583613047,0.600144430833044,1
183,36.63336670003337,-0.8026101589419559,-0.3314850679287786,0.4959179191191029,-0.734643783567439,-0.3076261881694327,0.604702108164064,1
184,36.83336670003337,-0.7161968328565305,-0.5518096416338505,0.4272800206026449,-0.7333642263345923,-0.31743756734479844,0.6011741032104441,1
185,37.03336670003337,-0.7226590433993894,-0.5497493423535718,0.4189744235331019,-0.7336575964624931,-0.33273360764014204,0.5924819638602116,1
186,37.23336670003337,-0.5967102732135552,-0.1315406535443187,0.7916021136319294,-0.7391827483647325,-0.339902922940638,0.5814420585891353,1
187,37.43336670003337,-0.6073288305932162,-0.15118756182077606,0.7799320564516925,-0.759252406909301,-0.3185592529958119,0.5674995902493534,1
188,37.63336670003337,-0.7376381856307512,0.18059091935897012,0.650597284765665,-0.8056288245023886,-0.24581290993458368,0.5390159649216264,1
189,37.83336670003337,-0.7575518564972978,0.22168427492830783,0.613979858763305,-0.8367021214050994,-0.1623435525657897,0.5230431444694842,1
190,38.03336670003337,-0.6932738066312588,0.04114144425051257,0.7194989997241039,-0.8491776396406084,-0.08410981834586362,0.5213663537209049,1
191,38.23336670003337,-0.6960791303820771,0.07914813598330371,0.7135891092336678,-0.8521490507954435,-0.054864310113200275,0.5204151253607326,1
192,38.433366700033375,-0.676377167390308,0.06274870564100454,0.7338777332590506,-0.8377005616635249,-0.06772399061935164,0.5419144121383052,1
193,38.63336670003337,-0.6572557243220453,-0.04639507270305934,0.7522382668242699,-0.8177295370864915,-0.11193484621253016,0.5646140224787989,1
194,38.83336670003337,-0.6026602862265734,-0.18311015315229412,0.7767053825086114,-0.7847429771751139,-0.18705354489739684,0.5909225254766113,1
195,39.03336670003337,-0.48884166736714196,-0.5522340049876986,0.6753306064298871,-0.7417024303593742,-0.32656285622677306,0.5858619340185961,0
196,39.23336670003337,-0.29877749965103556,-0.7771563737656639,0.5538591665917243,-0.6334713228894784,-0.5064730314291707,0.5849779068576869,0
197,39.433366700033375,-0.2901592318670844,-0.7295710044286449,0.6193010331488895,-0.5389638748430643,-0.6308337747868028,0.5581815924969074,0
198,39.63336670003337,-0.18490831625549894,-0.7655041140073995,0.6162891902486228,-0.48395406317983314,-0.6961938405872261,0.5301910986240139,1
199,39.83336670003337,-0.30331581936899615,-0.6171348883495982,0.7260468602660874,-0.4627899817431997,-0.7184873541865793,0.5192315039287373,1
200,40.03336670003337,-0.17675221246667083,-0.8815830133124591,0.4376871554284655,-0.4512342990841389,-0.731718302729544,0.5108580358383745,1
201,40.23336670003337,-0.12164402781187683,-0.9080044060556848,0.40091237082580344,-0.42501696298511904,-0.7596148628209776,0.4922863408184038,1
202,40.433366700033375,-0.1277152587573479,-0.9154450967389643,0.381639997297364,-0.3856644112315266,-0.7876050404599263,0.4805634839972322,1
203,40.63336670003337,-0.23350292191177885,-0.6721106227204671,0.702668980591123,-0.3600483951109949,-0.7725628036363149,0.5229836207909323,1
204,40.83336670003337,-0.2507031033315708,-0.6367725707760933,0.7291561198310864,-0.3795440110783457,-0.7327020400296291,0.5648841157184192,1
205,41.03336670003337,-0.29293943831911656,-0.609640667499759,0.736562788910578,-0.43834672697748917,-0.7025771552996899,0.5605688965676906,1
206,41.23336670003337,-0.8710939331808455,0.030182791094592758,0.4901880850217243,-0.5873568601258277,-0.5864814520612356,0.5577198447708975,0
207,41.433366700033375,-0.6903765454090331,-0.05274420558104646,0.7215249644514831,-0.7281581472455447,-0.385416053213421,0.5667805382379719,0
208,41.63336670003337,-0.6747449326864328,0.09714713509549538,0.7316294895346409,-0.7734229163159797,-0.239933207327588,0.5867274056482975,1
209,41.83336670003337,-0.6336013750357798,0.11889310975203095,0.7644695716680038,-0.7738341567399183,-0.16921377483601485,0.6103666080876033,1
210,42.03336670003337,-0.8994399697999927,-0.03382541170276184,0.43573338436402487,-0.7775928667561429,-0.1503945018987385,0.6105168526491257,1
211,42.23336670003337,-0.8424390220241909,-0.03586817045612029,0.5375964736854731,-0.7889290128154463,-0.1412939039676118,0.5980192684518092,1
212,42.433366700033375,-0.6052086354543905,-0.020854564140009198,0.795793688543686,-0.7747048155914362,-0.1434772446396768,0.6158301137245931,1
213,42.63336670003337,-0.5992253340391502,-0.030616499891172846,0.7999947680954438,-0.7668555517548064,-0.1540356351537894,0.6230614623338536,1
214,42.83336670003337,-0.6116092435849094,0.04942801018001016,0.7896144660346213,-0.7741760251073593,-0.1495920904864586,0.6150395829642683,1
215,43.03336670003337,-0.618762268854969,0.04483430350371943,0.7842978642523436,-0.780397554746556,-0.14772790208016756,0.6075821948449353,1
216,43.23336670003337,-0.8025506340132841,-0.2876135866786814,0.5226766730998242,-0.7820883654163493,-0.15324524263284486,0.6040311947993944,1
217,43.433366700033375,-0.8077961720243974,-0.28452457313018675,0.5162471421207246,-0.7844832659696122,-0.15576428441103987,0.6002695170634333,1
218,43.63336670003337,-0.6323672518173638,0.10008999207971155,0.7681755348320058,-0.7859601060259984,-0.15565351785228618,0.5983633462335487,1
219,43.83336670003337,-0.8132507640382103,0.0946926059316498,0.5741572129418392,-0.778328487401367,-0.16581156423953125,0.6055669169166524,1
220,44.03336670003337,-0.8302670937120473,0.02041429579097688,0.5569917500522865,-0.7741030485203655,-0.16957368703716866,0.6099255978691968,1
221,44.23336670003337,-0.7179541089726312,0.06432984994479403,0.6931115118185496,-0.7745934382937647,-0.15998906997451665,0.6118892896929422,1
222,44.433366700033375,-0.6486408649056571,0.1403686232243228,0.7480385538115997,-0.7752262977216402,-0.1660743697153649,0.6094616403387858,1
223,44.63336670003337,-0.8008525341385364,-0.31574013943340584,0.5088647982661579,-0.7850587000103944,-0.15495963655075864,0.5997252275651298,1
224,44.83336670003337,-0.7782800897546325,-0.339855122611523,0.5279948839962635,-0.7880901442568223,-0.1649811231099539,0.5930389140205213,1
225,45.03336670003337,-0.8162946544156365,0.020163861640115677,0.5772836875022668,-0.7863036862891437,-0.16483920610759237,0.5954448329257065,1
226,45.23336670003337,-0.6572354078616687,0.15976951571543882,0.736556393293114,-0.7957413000295899,-0.1540452045345552,0.5857182414669408,1
227,45.433366700033375,-0.7269081973825411,0.12031819787539964,0.6761124195265762,-0.7816297335531314,-0.167005293240775,0.6009693766368,1
228,45.63336670003337,-0.6458425375255484,0.04898883305041443,0.7618973099827294,-0.7737919870409077,-0.16913055664909332,0.6104431305198312,1
229,45.83336670003337,-0.632180592647458,0.1043480523999626,0.7677624516999015,-0.7644357740082409,-0.16170173144753133,0.6240917380187727,1
230,46.03336670003337,-0.6224294482819881,0.16148993190527125,0.7658345668645485,-0.7595218530769611,-0.14408436077532077,0.6343234598203872,1
231,46.23336670003337,-0.9208680490671066,-0.08283443387869921,0.3809730866758652,-0.756958024387455,-0.13453706408921548,0.6394640941457898,1
232,46.433366700033375,-0.9333300220784084,-0.10406736236057491,0.34360595742569805,-0.757603205649694,-0.13659509941067435,0.6382626117878875,1
233,46.63336670003337,-0.8953576776617024,-0.0571396519871998,0.44166694377440663,-0.7553423897229061,-0.13730434537591188,0.6407849803394132,1
234,46.83336670003337,-0.8795665787443637,-0.006282864191251054,0.47573433676106447,-0.7529103695519388,-0.14004357566514095,0.6430503653183671,1
235,47.03336670003337,-0.8814697915193014,-0.004097727072487529,0.47222263316338303,-0.7549678149660994,-0.13918170188273918,0.6408213887085372,1
236,47.23336670003337,-0.8824976839724994,-0.012709804030745345,0.4701449762197562,-0.7585033096418122,-0.1481052929674371,0.6346160661828901,1
237,47.433366700033375,-0.6125525560313456,0.06022138673521928,0.7881324448842039,-0.764431106155367,-0.14750386156128198,0.627604728126384,1
238,47.63336670003337,-0.600059489720361,0.04668875894339929,0.7985917408694289,-0.7621927322635014,-0.14506336658993746,0.6308873580587044,1
239,47.83336670003337,-0.625468929487907,0.1350602093526485,0.768470791959506,-0.7628539072145997,-0.14504969051884903,0.6300908692623671,1
240,48.03336670003337,-0.8609107934836048,-0.0846523857534452,0.501663810982694,-0.7648531895152617,-0.1370784161500879,0.629451432847773,1
241,48.23336670003337,-0.8606754438912705,-0.0835311347817043,0.5022552436805867,-0.7733724284118738,-0.12323123718843279,0.621859428772556,1
242,48.433366700033375,-0.6614529657911453,0.26015164116440753,0.7034209960226975,-0.7815534108532269,-0.11532791456567706,0.6130854248027915,1
243,48.63336670003337,-0.6569041470966022,0.21833894862464895,0.7216682375169138,-0.7884191671044161,-0.12535096110918226,0.602231146231564,1
244,48.83336670003337,-0.6444614930042141,0.07332025605831914,0.7611133450980359,-0.7934595325437174,-0.13210453158974192,0.5941130893600647,1
245,49.03336670003337,-0.7774864726632463,0.03187590222703985,0.6280913243174719,-0.7873660667133411,-0.12452713662585574,0.6037778310207554,1
246,49.23336670003337,-0.6359841792490506,0.12723028943145612,0.7611416275543598,-0.786274013479266,-0.10660470671526834,0.6086120375357023,1
247,49.433366700033375,-0.612513785269895,0.10209583693653491,0.783838824589962,-0.7730598150787895,-0.10834484914047615,0.6250119326661498,1
248,49.63336670003337,-0.6061019997549577,0.1207403127164376,0.7861692837920965,-0.7549153295303285,-0.10730012021948382,0.6469849530251846,1
249,49.83336670003337,-0.5891417930147762,0.1406750461749535,0.7956899390510158,-0.7374452223417326,-0.09964173584601327,0.6680165181512701,1
250,50.03336670003337,-0.613189750628282,0.3108534497603878,0.7262013925189704,-0.7229982025267894,-0.08949773016079142,0.6850282880575796,1
251,50.23336670003337,-0.5875491428356865,0.26043178629754576,0.7661339892205016,-0.7174844156298861,-0.08479937196726557,0.6913936504207991,1
252,50.433366700033375,-0.5190391374099818,0.06914960155970572,0.8519487698452508,-0.7158878427841513,-0.07293060216646635,0.6943959416798823,1
253,50.63336670003337,-0.5209853045254615,0.07235511419825345,0.850493415564089,-0.7165659213498055,-0.07106694530896569,0.6938895947083781,1
254,50.83336670003337,-0.517508764598275,0.06650664635025909,0.8530894118175476,-0.7121907625246515,-0.08250304802370681,0.6971209112064801,1
255,51.03336670003337,-0.5213469451019906,0.05875944313979338,0.8513193822971046,-0.7146213550114454,-0.09257212069997954,0.6933590133767025,1
256,51.23336670003337,-0.5286990172690726,0.049392805279524055,0.8473710520930816,-0.7214341768689134,-0.09759736327006206,0.6855709176505409,1
257,51.433366700033375,-0.5427493988918858,0.04118758587785429,0.8388841831695549,-0.7334337216478837,-0.09980111404262419,0.6723947602306146,1
258,51.618284951618286,-0.9901692502573636,0.03939549296865824,0.1342119628741326,-0.9117750147042187,-0.13019968974088728,0.38950528026266656,1
