,timeStamp,x_gaze,y_gaze,z_gaze,x_head,y_head,z_head,fixations_head
0,0.033366700033366704,-0.9970418070363425,-0.027377534638784496,0.07181995279034056,-0.9977013935202533,0.06764909041914584,0.003940803624522291,0
1,0.2333667000333667,-0.9970318017072944,-0.017761496011595733,0.07491405504801259,-0.9975938583371335,0.06787340239068232,0.014131350110434631,0
2,0.43336670003336675,-0.9971066160237221,-0.023962433743914255,0.07214012788171757,-0.99825532396268,0.056277078314491975,0.017866130989932887,0
3,0.6333667000333668,-0.9825351788988397,0.17888127779494076,0.051245591817,-0.9992424297166659,0.0360008775870065,0.014781862768263055,0
4,0.8333667000333668,-0.9503998499521707,0.30560622547617144,0.05783563054985236,-0.9940313818667109,0.10885086654858954,0.0072870237942769716,0
5,1.0333667000333666,-0.802045677238355,0.5944193935868775,0.05820924454996741,-0.9451297441035822,0.3232011690975169,0.04765260858227553,0
6,1.2333667000333668,-0.49295608701048094,0.8686303442638215,0.04975561579792464,-0.7174849038830686,0.6866721502868894,0.11703320349492159,0
7,1.4333667000333667,-0.28413263097282443,0.9548418127756133,0.08686633750677918,-0.46921831547789644,0.8744639722077291,0.12307287975327968,0
8,1.6333667000333667,-0.14176771804375615,0.9866385248680161,0.08028907377054265,-0.28016896312186745,0.951135374992275,0.1297954180297689,0
9,1.8333667000333667,-0.2461754386657492,0.967631287410501,-0.055563882351960546,-0.19398714542688628,0.9654978297068966,0.17373234655757272,0
10,2.033366700033367,-0.1828264100595715,0.9774362347897935,0.10579655336863143,-0.110704588807715,0.9290198972180399,0.3530814701876851,0
11,2.233366700033367,-0.19599438956092446,0.951456604576984,0.23731103823353272,-0.1181436955541193,0.8735721096050648,0.47213751865422904,0
12,2.433366700033367,-0.475035146247314,0.4244152033973119,0.7708523496461638,-0.33015136540125134,0.702251971968216,0.6307473692299016,0
13,2.633366700033367,-0.607075144933768,0.1761176403550032,0.7748821492068524,-0.5490860355256347,0.41119572545912275,0.727614321570767,0
14,2.833366700033367,-0.683844252914811,-0.0637556131581337,0.726837161643662,-0.6616846145731871,0.19659768254863033,0.7235487696442039,0
15,3.033366700033367,-0.6152584908213361,-0.18487113075113917,0.7663417347939806,-0.687908465654089,-0.05238539138393077,0.7239044920781947,0
16,3.233366700033367,-0.5919775377627238,-0.2026789360157468,0.7800537440971025,-0.6375628795686245,-0.24927005203472932,0.7289567996491751,0
17,3.433366700033367,-0.6973715973961945,-0.3388205130425216,0.6315643396255702,-0.651663645184144,-0.32694496188926137,0.684427852618918,0
18,3.633366700033367,-0.604077517311393,-0.44590167401113456,0.6605013627487619,-0.6487781504934392,-0.3702025098773369,0.6648586414590946,0
19,3.833366700033367,-0.3639400168981564,-0.7822217732378336,0.5056448967139181,-0.5722137278780515,-0.5812673180037166,0.5785324145185555,0
20,4.033366700033366,-0.19222410424967312,-0.9199824638798194,0.3415877045489602,-0.42205149020167476,-0.8225689523555016,0.3811205298056228,0
21,4.233366700033367,-0.1337821557467797,-0.9609234009516648,0.24233974562013358,-0.33163687760065547,-0.9126799287331574,0.23881442398424516,0
22,4.433366700033367,-0.19624456883780267,-0.9797367418501961,0.04004979238931586,-0.3771613635961216,-0.9108602811201104,0.1675793963711169,0
23,4.633366700033367,-0.657414942760201,-0.7515112891175406,0.055103315367535155,-0.46792743107211504,-0.8816235206547027,0.06151330814269767,0
24,4.833366700033367,-0.6509357976124607,-0.7538232902447023,0.08962719716292157,-0.581673579472169,-0.8131973593072639,0.019128558746732745,0
25,5.033366700033366,-0.8851418113672007,-0.3862814102127223,0.25944295306224996,-0.6990301118590155,-0.7088147166120036,0.09454417078073896,0
26,5.233366700033367,-0.7834559067952046,-0.2839648124615233,0.5527755669269364,-0.8040507126027745,-0.5394143563358611,0.25006919790677884,0
27,5.433366700033367,-0.7117899731772948,-0.1719683892074633,0.6810153501923846,-0.8246300217192518,-0.35397430278148584,0.4412340878146964,0
28,5.633366700033367,-0.6470234618017788,-0.08475382362553709,0.7577449632025894,-0.8055764791312512,-0.2049723499138011,0.5559072512940549,0
29,5.833366700033367,-0.6736721997302275,0.000845407050723879,0.7390298049453456,-0.8025822546411395,-0.09839974543377704,0.5883699640818806,1
30,6.033366700033366,-0.681667804382156,0.0389635921445666,0.7306235986853991,-0.7984435386410101,-0.028017083273150035,0.6014174578836965,1
31,6.233366700033367,-0.5854276641000562,0.036964029018296006,0.809881541131224,-0.780044791990222,0.016924886543684136,0.6254947407488051,1
32,6.433366700033367,-0.5808990897083213,0.010539140447409109,0.8139073498222469,-0.7645450163323615,-0.009017804352893464,0.6445072514766629,1
33,6.633366700033367,-0.6412722746758013,-0.07846995635940276,0.7632904661274614,-0.7399201071877402,-0.02595122586820147,0.6721939964438995,1
34,6.833366700033367,-0.6373423776633316,-0.11593162116964274,0.7618100503717644,-0.7290174586566107,-0.04265726966264843,0.6831646231464163,1
35,7.033366700033366,-0.5879441588079715,-0.1977017204800403,0.7843696168534444,-0.7214563805227195,-0.05856737633353766,0.6899786615776339,1
36,7.233366700033367,-0.6285947960161504,-0.030910450092946566,0.7771184764863499,-0.7285472199658242,-0.04882728255260669,0.6832531337349267,1
37,7.433366700033367,-0.6749923444508092,0.04406629740939471,0.7365076349675046,-0.7346156507734001,-0.02734064584061286,0.677932396868443,1
38,7.633366700033367,-0.6773811198406066,0.4199991164553113,0.6039499653615716,-0.7363179375114008,0.09551235630816388,0.6698606457252279,0
39,7.833366700033367,-0.38768032356389265,0.7328063569322165,0.5591947871369412,-0.5618136372086733,0.5732677224566403,0.5964306794890233,0
40,8.033366700033367,0.29308071293268334,0.8401478654677295,0.4563499313650523,0.03532361867504874,0.8652817814270367,0.5000396791197211,0
41,8.233366700033368,0.5233207384536989,0.772024178117912,0.36071328379425965,0.5509750609130236,0.7178773436575941,0.42553331445964,0
42,8.433366700033368,0.7778320779486432,0.6058436904078179,0.1671247477399221,0.7544974357549576,0.5684765224251604,0.3279757047261116,0
43,8.633366700033367,0.8883527049992347,0.41787870329506904,-0.1902810049715276,0.8787033266111706,0.4767307783276882,0.024662295058236156,0
44,8.833366700033368,0.8761136248325844,0.4550281632435337,-0.1592930853424787,0.9000108585114946,0.41726013894682523,-0.12599377368536385,0
45,9.033366700033367,0.8740430678010875,0.44488705604089446,-0.19525425218450265,0.906492328523032,0.37867296983531984,-0.18675770464693187,0
46,9.233366700033368,0.9700586646150279,0.2419380619635951,-0.021264086592394777,0.9000810844669531,0.38524487523639706,-0.20356922038679304,0
47,9.433366700033368,0.9556035424649008,0.2771445182929812,0.1000639076224992,0.9076247795152594,0.3828211146733335,-0.17223604085714264,0
48,9.633366700033369,0.8881403350264644,0.2093886441853073,0.4091004045284225,0.9520688924754563,0.3058818262297659,0.0010641254161491403,0
49,9.833366700033368,0.7979108123710379,0.17294652578582811,0.5774321039914583,0.9263025851865185,0.29112163558147214,0.23918970289948013,0
50,10.033366700033367,0.6211574986276137,0.14742669357358504,0.7696939209326304,0.8493789409750425,0.3226024523228744,0.41771170965557436,0
51,10.233366700033368,0.4228722552260683,0.1052968580411633,0.9000509026975517,0.6632021336270852,0.35344080523309984,0.6597291316507553,0
52,10.433366700033368,0.41499593511974275,0.146839745890655,0.8978955745858525,0.586338161923176,0.42182245083688696,0.691573119664518,0
53,10.633366700033369,0.3238086394400085,0.30058404421215507,0.8971048976508129,0.2534674425424517,0.7002049435470201,0.6674333619196029,0
54,10.833366700033368,-0.3824474328732409,0.5081914202092522,0.7716705524473323,-0.5725043159414902,0.4906015814888456,0.6569238132911687,0
55,11.033366700033367,-0.5832354306902858,-0.2807536518639144,0.7622426249906215,-0.7873399965965261,-0.16716655675209324,0.5934231812653022,0
56,11.233366700033368,-0.28253031933721084,-0.752888451507985,0.5944203884803433,-0.4935916170482647,-0.67058528781681,0.5537893889768255,0
57,11.433366700033368,-0.03297934798917007,-0.8612988535668755,0.5070272649972536,-0.19831358349257572,-0.8682599313638056,0.45474873742590316,0
58,11.633366700033369,0.2330984728473458,-0.8243810698994137,0.5158109668742347,-0.019710803251323072,-0.8913505087346782,0.4528860285034393,0
59,11.833366700033368,0.39392608507640026,-0.7582137298143208,0.5195519025250865,0.2438688353570792,-0.859359661019873,0.449476322127641,0
60,12.033366700033367,0.418984523178715,-0.7629330037437079,0.49232631570464347,0.246916634210596,-0.8771629279832355,0.41184629841967496,0
61,12.233366700033368,-0.3327324987262853,-0.8901783573182379,0.31124199018378934,-0.08156215971744407,-0.9354623861955121,0.34388622844717803,0
62,12.433366700033368,-0.22344636340027968,-0.9492353179373764,0.22141371652072098,-0.11711283270042844,-0.9665512456502969,0.22817378015175419,0
63,12.633366700033369,-0.2080251916313524,-0.9761998098923943,0.061314360575581754,-0.20414904865036482,-0.9558563323413051,0.2113334754793463,0
64,12.833366700033368,-0.15275027055660811,-0.9881302495557613,-0.01630842597407071,-0.29745834030964313,-0.9433961675935477,0.1467044878319659,0
65,13.033366700033367,-0.6982162717538833,-0.6526025270474417,0.29428554084324454,-0.4875269846351017,-0.8476941465054209,0.20912214907333804,0
66,13.233366700033368,-0.7495990379605147,-0.517247163006996,0.412985053785104,-0.6839780820229499,-0.6787564056352954,0.2673270003595994,0
67,13.433366700033368,-0.7340496555850885,-0.45170472287881963,0.5070837667135302,-0.7882050661664808,-0.5285769943401081,0.31518111416116196,0
68,13.633366700033369,-0.7343101079939551,-0.3651377147177094,0.5722439292719801,-0.8122044618431241,-0.43911513097315164,0.38405964889916905,0
69,13.833366700033368,-0.6254788379727302,-0.2032209118770942,0.7533110142724091,-0.8050677443694463,-0.35910775101636766,0.47213086124067205,0
70,14.033366700033367,-0.689043966740339,-0.13833966434339007,0.7113933856651306,-0.8049793687946754,-0.26859760692638135,0.5290213052121311,0
71,14.233366700033368,-0.745202682267969,-0.07020533811378869,0.6631320930560918,-0.8143044486023109,-0.17355656018575616,0.553883006963541,0
72,14.433366700033368,-0.8692008292212301,-0.0113313921432013,0.4943293618967249,-0.8377041217825828,-0.11739630528453963,0.533357208495405,0
73,14.633366700033369,-0.8711566576596491,-0.02213952658864051,0.49050577894424396,-0.8458718691034864,-0.1092540776899377,0.5220769364447119,1
74,14.833366700033368,-0.766938006779509,-0.024925755905723174,0.6412369300419327,-0.8536951877215267,-0.08691203581554857,0.5134693997615671,1
75,15.033366700033367,-0.7601691197603548,-0.007826292962538567,0.6496781191491922,-0.8500955358678343,-0.058079960593713745,0.5234159895102677,1
76,15.233366700033368,-0.7647272753787006,0.20536490403864302,0.6107515456231514,-0.8455654418589247,0.039909477979110666,0.5323779832988556,1
77,15.433366700033368,-0.9583849368956392,0.07550861417524467,0.27531211727215305,-0.8477810032194686,0.061167836130190216,0.5268072383740958,1
78,15.633366700033369,-0.8155900154315096,-0.044973335320276586,0.5768798192332611,-0.8753931964629567,0.05250687698959874,0.48055153673166723,1
79,15.833366700033368,-0.8795079283877577,-0.12438621013220973,0.45934069559752794,-0.9256751195507799,-0.03196606315954743,0.3769665022926167,0
80,16.033366700033366,-0.9983301872377066,-0.04814454313838326,0.03192084297010687,-0.9618730082617449,-0.09744200848290638,0.25554915566348235,0
81,16.233366700033365,-0.9326123830913609,-0.3520228467944892,0.07946104856693513,-0.9633996790432986,-0.15022152452462004,0.22202376446850997,0
82,16.433366700033368,-0.8654364146899468,-0.48954305723470776,0.10661804369761325,-0.946832975916059,-0.23639203057609784,0.21823410273843297,1
83,16.633366700033367,-0.8477497624985939,-0.5198534999704949,0.10522679673925482,-0.9315474565810349,-0.2827943546686702,0.22857534666917856,1
84,16.833366700033366,-0.8494043468769976,-0.5129025583226456,0.12427075751175867,-0.9269800739574726,-0.2753898076005592,0.2546927489260856,1
85,17.033366700033366,-0.8598813775859911,-0.49765611476775495,0.11376470417085287,-0.9321292562517081,-0.2617474888948526,0.2502464818871126,1
86,17.233366700033365,-0.962278072645039,-0.27195200409462167,0.007938411394508908,-0.9186329177400026,-0.32771607701670685,0.2207164137740317,1
87,17.433366700033368,-0.9777251548205586,-0.20948150979531632,0.01307741124955319,-0.9360973754215713,-0.2717904765219876,0.22327480959749335,1
88,17.633366700033367,-0.9792951421379926,-0.2021557661864297,0.010680392432246567,-0.9413123933851573,-0.2599095667799315,0.21535550876579743,1
89,17.833366700033366,-0.7116297995460292,-0.7024428500992725,0.012532786700864192,-0.8640885883575783,-0.48441500563506995,0.13672239679651157,0
90,18.033366700033366,-0.2521631335247229,-0.9673790611620826,0.024320898753141623,-0.4335047196933142,-0.8928608471685018,0.12195558862621332,0
91,18.233366700033365,-0.05652326137988084,-0.9981273999533516,0.023384062635565587,-0.24438012499102157,-0.9628669135643068,0.11474171548534004,0
92,18.433366700033368,-0.060714302171308354,-0.9978146615610505,0.026070571256831935,-0.26036604878311803,-0.9593068809043154,0.10926952407099273,0
93,18.633366700033367,0.00038693403020634287,-0.9978907754590036,0.06491417823468928,-0.30002128376861914,-0.9466255212180713,0.11784460897489124,0
94,18.833366700033366,-0.29636843722509837,-0.9550732468841022,0.0009178796279676381,-0.3734938907441875,-0.9169417760548995,0.1404282482339506,0
95,19.033366700033366,-0.7900063309783087,-0.5666712658900667,0.23403776068989407,-0.5431278275332776,-0.8112874580131366,0.2163904420938356,0
96,19.23336670003337,-0.7248264653150168,-0.6723583919720599,0.1502024897386359,-0.6423982656470149,-0.7198364351710033,0.26298284144409434,1
97,19.433366700033368,-0.7356989283441147,-0.6715906958540978,0.0878238240771281,-0.6773943982814923,-0.6898647092445858,0.2553889428219984,1
98,19.633366700033367,-0.75273003618147,-0.5802268663418032,0.3110213436492977,-0.6604239351851824,-0.7060173683599448,0.2556945470842431,1
99,19.833366700033366,-0.41302899284875105,-0.9058328138439168,0.09420172201164015,-0.6232047196770462,-0.742502962786593,0.2455712271936313,1
100,20.033366700033366,-0.42529720841300933,-0.9020058250385699,0.07421439289376766,-0.6177455854893625,-0.7490107463280224,0.2395272291275955,1
101,20.23336670003337,-0.7166693925275909,-0.6243340002308592,0.3107925963884404,-0.6410714137793432,-0.7259604249888724,0.24901587054830565,1
102,20.433366700033368,-0.156776985777961,-0.9782181432839457,0.13605234610430816,-0.5194811863129633,-0.8296416317780915,0.204533762219008,0
103,20.633366700033367,0.09022206767949342,-0.9880863156349521,0.12468123900003175,-0.2844380432394056,-0.938043740136581,0.1979114477454819,0
104,20.833366700033366,0.12963057324647798,-0.9873421267688725,0.09138620895577908,-0.21347673109686988,-0.9618622522523858,0.1710224925913616,0
105,21.033366700033366,0.10066166734413967,-0.9915777583403682,0.08149096816327855,-0.2266579986524183,-0.9602366100073775,0.16300860237551948,0
106,21.23336670003337,-0.1012668203298232,-0.9945265354139827,0.025729388989000092,-0.26758604872859065,-0.949261667763765,0.165227094146741,0
107,21.433366700033368,-0.18229824148003443,-0.9829872064443115,0.022438875196759606,-0.3165177065062423,-0.9319514014210022,0.17687036738091175,0
108,21.633366700033367,-0.32802589438522545,-0.9442498340694729,0.02812940583350119,-0.4126333754115925,-0.8880251146455336,0.20284253315126688,0
109,21.833366700033366,-0.5759343849140048,-0.817215900049812,0.021395256004604884,-0.5751171796019281,-0.7880456164937267,0.21960040084605073,0
110,22.033366700033366,-0.9418480983998304,0.3116393109309493,-0.12571037913834596,-0.9593504769103193,-0.1748191576569952,0.22155117821406822,0
111,22.23336670003337,-0.5777024130162116,0.815828576468445,-0.026146812668418753,-0.7493135773944113,0.6514636718054836,0.11884547551382292,0
112,22.433366700033368,-0.47621257458774985,0.8785880394065929,-0.03611981196222098,-0.5528309494176881,0.8267085461350466,0.10455104549078109,0
113,22.633366700033367,-0.4184344014861731,0.9071113980424778,-0.045404440249054254,-0.5043573615613747,0.8596133431570877,0.0817835686745435,0
114,22.833366700033366,-0.3450166332014314,0.9377931779421972,0.03882625682993316,-0.5303398260142346,0.8438866378882739,0.0812096751429101,0
115,23.033366700033366,-0.6587587572407623,0.744633768725663,0.10750558232958238,-0.5926287868687463,0.8015376051876032,0.07955242576188516,0
116,23.23336670003337,-0.7040919406283401,0.7058231042027333,0.0778991958612887,-0.6868452896793512,0.7204401943334363,0.09596600665907033,0
117,23.433366700033368,-0.7811359864873663,0.6233730924442331,0.03510780868870456,-0.7232512751191946,0.6840159101968158,0.09502540521397915,0
118,23.633366700033367,-0.6770387868800015,0.7298998546009435,0.09415244719909319,-0.7850705401102436,0.6065677883499712,0.12545822088342895,0
119,23.833366700033366,-0.6672133511621104,0.7308905867762876,0.1436150904077991,-0.8110668604102053,0.5684369333683132,0.13802174005264722,0
120,24.033366700033366,-0.8604911684069869,0.3894066032169387,0.32850790928777446,-0.8920518088398364,0.392871331304446,0.22337342586943632,0
121,24.23336670003337,-0.966553956438045,0.19844067445313374,0.16246460542698934,-0.930878781061327,0.22618548440271366,0.2868881691797128,0
122,24.433366700033368,-0.9813481135809059,0.14970827010390209,0.12059566258242725,-0.9479873014635618,0.16273026222056547,0.2735670631151708,0
123,24.633366700033367,-0.8028828793502993,0.05504981977193269,0.5935895883430325,-0.9414034165356381,0.07104402299976104,0.32971556549704734,0
124,24.833366700033366,-0.7770796076205894,0.022798768358587313,0.6289892682562733,-0.9126956186557554,-0.00780603745596299,0.40856550694573324,0
125,25.033366700033366,-0.7584538929445028,-0.1920050936008042,0.6228015224039478,-0.8697689572411074,-0.11097940698752705,0.4808175664890101,1
126,25.23336670003337,-0.7478595162703119,-0.2169969902370439,0.6273901897160963,-0.8432644309924626,-0.17730020361111237,0.5074147585776522,1
127,25.433366700033368,-0.901191248520619,-0.06762792366308379,0.428113066293086,-0.856309545592634,-0.15074203234521857,0.49397449510209523,1
128,25.633366700033367,-0.9024057761278824,-0.07044017721983864,0.42509057463589117,-0.8576190795099298,-0.1414365870842294,0.4944544532052533,1
129,25.833366700033366,-0.8366782101347185,-0.20835237044834398,0.5065163989589283,-0.8582702177913151,-0.13725862791668103,0.49450207513708033,1
130,26.033366700033366,-0.7883224257132291,-0.28195538878518817,0.5468536475626767,-0.8521754099829058,-0.1631503211381404,0.4971710403201181,1
131,26.23336670003337,-0.7587339393711292,-0.11999088356514856,0.6402538536452729,-0.8489345809030604,-0.15758544945196307,0.5044570382777589,1
132,26.433366700033368,-0.7502313325065867,-0.0922807047636329,0.6547039172432977,-0.8516719321255948,-0.14015596436027442,0.5049863618789108,1
133,26.633366700033367,-0.7734679406459734,0.058336680717381934,0.6311451310718917,-0.8452182937463398,-0.13560623249158668,0.5169303489116924,1
134,26.833366700033366,-0.775159263666902,0.07216992944222987,0.6276301595969476,-0.8441437325453341,-0.11714628566669993,0.5231616447704547,1
135,27.033366700033366,-0.7920461162041125,0.001218038048589075,0.6104600447116044,-0.8354545117008143,-0.10677568228207727,0.5390869248571614,1
136,27.23336670003337,-0.9206566296849459,-0.20364279968512974,0.33304801508725174,-0.8278429586539847,-0.11191732596166191,0.5496822245230494,1
137,27.433366700033368,-0.9136502715934336,-0.21031107635456353,0.34786841244906136,-0.8179808088150224,-0.11880025372630189,0.5628444688587497,1
138,27.633366700033367,-0.9091791843863115,-0.22582739970042517,0.3498502482822991,-0.8137982127251386,-0.13553659073473157,0.5651214927229157,1
139,27.833366700033366,-0.9018294459569032,-0.24011534664276588,0.35923289202367015,-0.8063117637477893,-0.14609837768907555,0.5731636796575211,1
140,28.033366700033366,-0.9003576119501396,-0.2218234626263811,0.3743668281670858,-0.7995201149282061,-0.12825267728257955,0.5867868749341955,1
141,28.23336670003337,-0.8757017255113417,-0.21164308582543429,0.4339973411885683,-0.7967652880663562,-0.12205330215016624,0.5918344930525569,1
142,28.433366700033368,-0.7394008017742542,-0.056168924758144674,0.6709184050442377,-0.7982367173332889,-0.11700703967174177,0.5908701175116495,1
143,28.633366700033367,-0.8799759332221596,-0.050949450477131154,0.47227800123006813,-0.8016231898490573,-0.11752586562011566,0.5861637419752819,1
144,28.833366700033366,-0.8931006153685447,-0.05423175958174832,0.44657609327078246,-0.8077635411462606,-0.12172697891058895,0.5768020494070338,1
145,29.033366700033366,-0.894309924982093,-0.054230814437239115,0.44414949830434,-0.8114166259530176,-0.1242218538498806,0.5711146908923984,1
146,29.23336670003337,-0.7370387733865,-0.1629422189018623,0.6559143845230574,-0.8119228711963423,-0.1313091140850419,0.5688050349517746,1
147,29.433366700033368,-0.7483676433191176,-0.16277441838247617,0.6430010568834524,-0.818783743256055,-0.13478717085975936,0.5580551947175337,1
148,29.633366700033367,-0.830467351363594,-0.07552245119551569,0.5519242137146716,-0.8709024667401326,-0.2088245342073881,0.44488336374719556,0
149,29.833366700033366,-0.8982848797246792,-0.20868334202098626,0.3866982513808031,-0.9103088457169033,-0.30561951514044894,0.2791675435556153,0
150,30.033366700033366,-0.8080554101170625,-0.5806005394631856,0.09974701878053245,-0.8967534655928378,-0.3677947156984793,0.24608996129771393,0
151,30.23336670003337,-0.8994827304668116,-0.3811927492730216,0.21359519070813582,-0.8794272019300237,-0.39313931278423936,0.26841996432654724,0
152,30.433366700033368,-0.9310323367848258,-0.3618263253408531,0.04754469635324332,-0.885566708934992,-0.33551018222730217,0.3212546056445729,0
153,30.633366700033367,-0.9500021387400696,-0.28628526257763,0.1246462386923539,-0.8828187123916644,-0.2599957127172062,0.3911947729965158,1
154,30.833366700033366,-0.9235341781053856,-0.1891449439286603,0.33362975295592845,-0.8823920736501453,-0.23483199368930235,0.4077231451601739,1
155,31.033366700033366,-0.9600048937014898,-0.2179456535801316,0.17575635452159574,-0.8696871395390361,-0.23315554364511734,0.43506639928631485,1
156,31.23336670003337,-0.9505311109231216,-0.21689087515907826,0.22237121090641557,-0.8485962756462087,-0.2289712476882241,0.4769240282177885,1
157,31.433366700033368,-0.8732790095670135,-0.07872967375573854,0.4808174392843621,-0.8449698308327466,-0.22339321059008538,0.4859233051055833,1
158,31.633366700033367,-0.8820240311843836,-0.06821947484714745,0.4662399721868872,-0.8571841533575479,-0.2083200879680937,0.47099688765603315,1
159,31.833366700033366,-0.8756439467647232,-0.0838513208514334,0.475622365417953,-0.8582504801177266,-0.2097960127200805,0.46839272669891824,1
160,32.03336670003337,-0.7857751326842521,-0.24146870347314878,0.569429807876302,-0.8545025532371757,-0.2149948814475312,0.47286635264365123,1
161,32.23336670003337,-0.8938633148038508,-0.2316652215228089,0.38384840703676215,-0.853237598986677,-0.21773871199856545,0.4738939258659649,1
162,32.43336670003337,-0.8969974424156858,-0.23067040607937495,0.37707658646340647,-0.8549905641369953,-0.21452441071979075,0.4721974295165417,1
163,32.63336670003337,-0.8496810748992326,-0.06660453286319097,0.5230735198422504,-0.8558340404185214,-0.20753212010357197,0.4737916360450289,1
164,32.83336670003337,-0.6942276981926317,-0.08515757172812381,0.7147000007272493,-0.8523552530729314,-0.192475963264071,0.4862545898236305,1
165,33.03336670003337,-0.6910644237659455,-0.08747484126301082,0.7174803930080972,-0.8451918097884432,-0.18261883253242958,0.5022958955347222,1
166,33.23336670003337,-0.7091747016230827,-0.08232668479194254,0.7002096539958443,-0.842574417720735,-0.16849051088924108,0.5115459884925759,1
167,33.43336670003337,-0.7414878757850388,-0.06975829631757861,0.6673301358088516,-0.8447737172358026,-0.14764619289847072,0.5143519888074624,1
168,33.63336670003337,-0.7733594036723958,-0.06920618089203845,0.6301791311030659,-0.8492232015192012,-0.14407248916706328,0.5079990864821363,1
169,33.83336670003337,-0.7922088700574138,-0.07059585240117673,0.6061528947601482,-0.8559741747340431,-0.144146204301432,0.4965179593668938,1
170,34.03336670003337,-0.7983261568096012,-0.3092313339997154,0.5167700933939278,-0.8630380311710171,-0.14516834213259738,0.4838300416416158,1
171,34.23336670003337,-0.782045095737979,-0.2846484263060478,0.5544192832447893,-0.8753774926228144,-0.14403979447244775,0.4614832424018551,1
172,34.43336670003337,-0.8445002208757592,-0.1001524535012038,0.5261072732803488,-0.8762590148254705,-0.14835136202468355,0.45843430535085083,1
173,34.63336670003337,-0.7316545054985163,-0.08761808070283071,0.6760212692790619,-0.8732740751710523,-0.13860653539197587,0.4670980817566871,1
174,34.83336670003337,-0.7292615275848688,-0.08981544136745491,0.6783146842554366,-0.8699982223187569,-0.13876949823174387,0.4731237887939192,1
175,35.03336670003337,-0.7272598076355806,-0.09182652191518759,0.6801919303188021,-0.8664294409135037,-0.1421611229625087,0.47863372116510133,1
176,35.23336670003337,-0.8756842830636759,-0.06308650903685871,0.4787453694531142,-0.8664418374640968,-0.14214426809933628,0.47861628611899926,1
177,35.43336670003337,-0.8752451302053278,-0.05502040081819578,0.48054002699636195,-0.8663386383797179,-0.1326647063629113,0.48151577267626344,1
178,35.63336670003337,-0.8738416969045841,-0.054094297909632515,0.4831919863621304,-0.8663794577260202,-0.12990494396464303,0.4821942977306039,1
179,35.83336670003337,-0.7503851588702939,-0.03869239909091299,0.6598674197138341,-0.8601627364130184,-0.1397039625601331,0.4905128639816344,1
180,36.03336670003337,-0.7328354000354331,-0.037384983911843035,0.6793781269902778,-0.8516976655653511,-0.14581283754263125,0.5033385569160168,1
181,36.23336670003337,-0.7389976371257153,-0.029261940009128323,0.6730722332629032,-0.8516093909215848,-0.13611560365459932,0.5061956022486876,1
182,36.43336670003337,-0.7490076739558345,-0.025079179718015127,0.6620865042424152,-0.8564802048781539,-0.1276335878310697,0.5001513030166415,1
183,36.63336670003337,-0.7505784622562571,-0.02997465874291255,0.6601011224276766,-0.8555638347055168,-0.12971530149204277,0.5011830656584678,1
184,36.83336670003337,-0.748602241597162,-0.03763272808666917,0.6619504978867073,-0.8524691103446647,-0.13549205882936732,0.5049141688468997,1
185,37.03336670003337,-0.7516535406826264,-0.03884526877779892,0.65841324399867,-0.8540979493698022,-0.13591717273505835,0.5020390572834023,1
186,37.23336670003337,-0.7559183981582657,-0.03854180169562092,0.653530339653713,-0.8569625385880114,-0.13561240151360254,0.49721673746214995,1
187,37.43336670003337,-0.7583268474977618,-0.033202342289223565,0.6510284147643753,-0.8593142316308134,-0.12933329501825194,0.4948251712640199,1
188,37.63336670003337,-0.7575152292715365,-0.03457624732348735,0.6519011892478161,-0.8580714168446368,-0.12997884664309642,0.49680875900045046,1
189,37.83336670003337,-0.8336303825540332,-0.15805365962033063,0.5292253073724247,-0.8665172201372158,-0.13679599880332305,0.4800362089645673,1
190,38.03336670003337,-0.846396384949736,-0.08604648226305052,0.5255560507064619,-0.871222895435742,-0.1342465690400001,0.47217425297187793,1
191,38.23336670003337,-0.8437095583002742,-0.09522230933575017,0.5282867526613961,-0.8669483160129126,-0.14014680073464747,0.4782880843238915,1
192,38.433366700033375,-0.8450841220866535,-0.09613613353873382,0.5259188819820535,-0.8635916685896766,-0.13952055228758262,0.4845032976480825,1
193,38.63336670003337,-0.852896393108907,-0.09343392314940781,0.5136514816748099,-0.8625163607682063,-0.1381275626411328,0.486812390809837,1
194,38.83336670003337,-0.8560387364755143,-0.0950488847436769,0.5080978165298374,-0.8598787857917198,-0.1410326455463407,0.49063047870628435,1
195,39.03336670003337,-0.7524202819406411,-0.14627361946205608,0.6422365199627282,-0.8564642981801711,-0.1486124369974444,0.4943513421772291,1
196,39.23336670003337,-0.7090379722234875,-0.1585128902573014,0.6871235824562291,-0.850607003645376,-0.15091471830936556,0.5036789385581264,1
197,39.433366700033375,-0.701704312267516,-0.1601433896623033,0.6942371013512896,-0.842454715375875,-0.15127152247597575,0.5170947485990882,1
198,39.63336670003337,-0.7117868981848843,-0.042369004454050285,0.7011164518351527,-0.8320729192247294,-0.13411941567578622,0.5382068741958086,1
199,39.83336670003337,-0.7105004278814787,-0.03823964657062498,0.7026570083692253,-0.8232550504080474,-0.12047479091810315,0.5547404318515848,1
200,40.03336670003337,-0.7216958452624285,-0.04163384307004946,0.6909571115794148,-0.8253592013945767,-0.11586273469735328,0.5525920876937679,1
201,40.23336670003337,-0.8278481498320408,-0.043469619719971514,0.5592654405388091,-0.827341409610987,-0.1138390013737179,0.5500426108122348,1
202,40.433366700033375,-0.8285457908335387,-0.03720841871977336,0.5586836368360901,-0.8293313685434414,-0.10767319812546378,0.5482845643963522,1
203,40.63336670003337,-0.8332546622208807,-0.037031263202945995,0.5516478527400973,-0.8357244494960282,-0.10400874733765751,0.5392094444571717,1
204,40.83336670003337,-0.8364825991900363,-0.0448824660943759,0.5461523830302022,-0.8407230688211118,-0.10899850674391261,0.5303810395174485,1
205,41.03336670003337,-0.8353159728490526,-0.048797190302682064,0.5476002736684897,-0.8416378429517484,-0.11208105197188448,0.5282836161574617,1
206,41.23336670003337,-0.8328557635812779,-0.04644953299724986,0.5515375943249785,-0.8408019449915654,-0.10919903225410274,0.530214730701787,1
207,41.433366700033375,-0.8304318011988763,-0.04338043420065881,0.5554288086570165,-0.8397525847651912,-0.10624314089627307,0.532473465435298,1
208,41.63336670003337,-0.8327575063012792,-0.042489796705398285,0.5520050297549914,-0.8431950169642317,-0.10476041124369467,0.5273020193425596,1
209,41.83336670003337,-0.8343831274519187,-0.04306595437148918,0.5494998818904586,-0.844949218950187,-0.10498771648948517,0.5244410327022405,1
210,42.03336670003337,-0.8364582081286658,-0.04862302216599493,0.5458694603745725,-0.8470036292603038,-0.10988557215581128,0.5201057710234176,1
211,42.23336670003337,-0.8395772965358663,-0.18813847075158133,0.5096213093707745,-0.8478173467331495,-0.11439123044200823,0.5178034308271106,1
212,42.433366700033375,-0.8416213647833335,-0.201360280824612,0.5011262472136865,-0.8505955597312378,-0.11397362130011789,0.5133197905918294,1
213,42.63336670003337,-0.8407072269092241,-0.20329142704536762,0.5018804183393301,-0.851819939100883,-0.11328854287236872,0.5114376769500107,1
214,42.83336670003337,-0.8375263548477765,-0.2092148427165171,0.504756133714589,-0.8506646824138138,-0.117814963628962,0.5123370301265681,1
215,43.03336670003337,-0.8399158215627601,-0.21271469065091572,0.4992933737491801,-0.8543200637892571,-0.12153676215113333,0.5053375545642129,1
216,43.23336670003337,-0.843543579793202,-0.21616218351630234,0.4916382200430863,-0.8597120223341174,-0.12528491352733206,0.4951756547899254,1
217,43.433366700033375,-0.8424393450665553,-0.2222881704832772,0.49079926563416026,-0.8610455409107973,-0.13183724238568864,0.49114103676822785,1
218,43.63336670003337,-0.8399630243297849,-0.22638124353745923,0.49316695989613446,-0.8603878473082475,-0.136995194375585,0.49088192971658234,1
219,43.83336670003337,-0.838888930370717,-0.22828884311486572,0.4941149325923584,-0.8606685478501318,-0.14007417766530753,0.4895190246486177,1
220,44.03336670003337,-0.8395680425479873,-0.22513159819578912,0.49441001752184494,-0.8620989417006889,-0.1380213154624191,0.48758130726738824,1
221,44.23336670003337,-0.8395860223060851,-0.22494082213333616,0.4944663160279218,-0.8631619943126516,-0.1389482894474817,0.48543253334920305,1
222,44.433366700033375,-0.8381858964691675,-0.22587059468389722,0.4964140181515034,-0.8626574334367938,-0.1405501776951091,0.485868089182771,1
223,44.63336670003337,-0.8375914833821533,-0.2269290377963691,0.4969343203789597,-0.8628864302589501,-0.14256372176389903,0.4848737915290866,1
224,44.83336670003337,-0.8374886440019138,-0.22377395452650228,0.4985358446926429,-0.8629686258291847,-0.14080746418619555,0.4852405680319216,1
225,45.03336670003337,-0.8363332723083955,-0.22636870383374832,0.4993033822783098,-0.8622050433294596,-0.1443160704775781,0.48556702427075465,1
226,45.23336670003337,-0.8341846812082301,-0.22836206832326048,0.501982752082824,-0.8603710959145473,-0.14673348994691118,0.4880889880368139,1
227,45.433366700033375,-0.8823732783842488,-0.15244832856752658,0.4451706467304427,-0.8588256067818247,-0.1468931187614037,0.4907555285438759,1
228,45.63336670003337,-0.882080216874408,-0.14956576318016582,0.44672650859685104,-0.8571092892000542,-0.14500799162018826,0.4943039032146693,1
229,45.83336670003337,-0.8816960363662867,-0.14614373746098455,0.44861353909229534,-0.85626929924776,-0.1399684628432491,0.49720389839083956,1
230,46.03336670003337,-0.8835868645418983,-0.14714021635877658,0.4445492206031973,-0.8578497588412111,-0.1392896959990503,0.49466369570099666,1
231,46.23336670003337,-0.8851026809032565,-0.15207873832892943,0.43984690700987045,-0.8591211999114206,-0.1443889743355345,0.4909812501033961,1
232,46.433366700033375,-0.8852943410733864,-0.15373244459259208,0.43888525282016977,-0.8590068874444337,-0.14657864817428046,0.49053222852573763,1
233,46.63336670003337,-0.8849736545143418,-0.1552694809721625,0.4389909100359207,-0.8587485051639002,-0.14877906515204908,0.49032213355226945,1
234,46.83336670003337,-0.8865369240656507,-0.14861188069952708,0.43814015016106966,-0.8605502546786378,-0.14205534533470765,0.48915594449456395,1
235,47.03336670003337,-0.8870488449710319,-0.14646699978367875,0.43782618081828617,-0.8617616922342202,-0.1395535409144005,0.4877413197750074,1
236,47.23336670003337,-0.8857296625791853,-0.14636743210409692,0.4405218946279688,-0.8608068619806497,-0.13913744050679178,0.4895429695299954,1
237,47.433366700033375,-0.8838155055918191,-0.14862614919652004,0.44359939117461694,-0.8592672245012289,-0.14039099804902733,0.49188434063787084,1
238,47.63336670003337,-0.8836806953792188,-0.14716842718255785,0.44435333086938,-0.8594440105821818,-0.13816671442026565,0.4922051926795607,1
239,47.83336670003337,-0.8846342255155227,-0.14746877512503498,0.4423519497071011,-0.8606577844169108,-0.1378720288597849,0.49016270949620516,1
240,48.03336670003337,-0.8852631724750712,-0.14805764418211148,0.4408946013035493,-0.8615654387268945,-0.13769895959103176,0.48861435848620033,1
241,48.23336670003337,-0.884293496685927,-0.15107733061255552,0.4418151784332005,-0.8606818059991473,-0.14020497389250836,0.489458265961305,1
242,48.433366700033375,-0.8829573620510219,-0.15212563151932856,0.4441217052056182,-0.8595578005658834,-0.14070408242699464,0.49128682933162265,1
243,48.63336670003337,-0.8821427191534892,-0.15440033597618846,0.44495478342740485,-0.8584954492452603,-0.14231454634816443,0.49267852959398867,1
244,48.83336670003337,-0.8785639927379423,-0.15827547794542127,0.45063753033398546,-0.8544701832116803,-0.14591732166480934,0.49858684423113925,1
245,49.03336670003337,-0.8752792633181568,-0.15931281692238816,0.4566241754106751,-0.8505876780317112,-0.14642233546423097,0.5050357429507565,1
246,49.23336670003337,-0.872779052149234,-0.15582857707811268,0.4625734327599197,-0.8474288137232137,-0.14227197009816228,0.5114910480116488,1
247,49.433366700033375,-0.8697930788460668,-0.15679258371055046,0.4678419451960783,-0.8440352121996549,-0.14145107918009034,0.5172969676751173,1
248,49.63336670003337,-0.8656167485701188,-0.15986702723461854,0.47449992433936333,-0.8390601174402735,-0.14332910720929848,0.5248189081461339,1
249,49.83336670003337,-0.866156917072451,-0.15900099933057524,0.4738046825638452,-0.8394524432650318,-0.14106190806166108,0.524805805598959,1
250,50.03336670003337,-0.8725999499569244,-0.15426465951406787,0.4634347226526966,-0.8458401223193074,-0.13608434421902546,0.5157863305026,1
251,50.23336670003337,-0.8773230493763831,-0.1549503929123327,0.45419670052658734,-0.8520607538355315,-0.13658979384392622,0.5053075301149785,1
252,50.433366700033375,-0.892233090224434,-0.1596810947443729,0.4224003559300058,-0.8686271928360876,-0.14079547068586498,0.4750404564877021,1
253,50.63336670003337,-0.8894233252279851,-0.16093840130132306,0.42781418808516447,-0.8663874271623564,-0.141741573429724,0.4788341596175643,1
254,50.83336670003337,-0.8898157211464165,-0.16294326439461398,0.42623640739513324,-0.8676581276719711,-0.14346894733907248,0.47601054046542723,1
255,51.03336670003337,-0.8872428568925915,-0.163846373313907,0.43122439500212917,-0.8652311660743197,-0.1444214201111809,0.48012236218149945,1
256,51.23336670003337,-0.8843320960897225,-0.15953878228648705,0.438752915400118,-0.8625790152666273,-0.13942647401902553,0.48633085524597125,1
257,51.433366700033375,-0.8832213774386333,-0.15472336497146102,0.4426970507777424,-0.8613955817936805,-0.13489760988620714,0.4896940744110712,1
258,51.584918251584924,-0.880633970571221,-0.1519379811719974,0.4487746202197092,-0.8585208475875299,-0.13142091575497247,0.49565158847694013,1
