,timeStamp,x_gaze,y_gaze,z_gaze,x_head,y_head,z_head,fixations_head
0,0.033366700033366704,-0.9838659958337446,-0.06412301038978788,0.1670207824811788,-0.9827959314987335,-0.059295835406651676,0.17491758325841414,0
1,0.2333667000333667,-0.9772147865484284,-0.05404295118727853,0.20525744901971155,-0.9740693370013906,-0.05096472593724184,0.22043485074691208,0
2,0.43336670003336675,-0.9281045491810164,-0.07543308189428731,0.36459812937730807,-0.9641324393877133,-0.04413636504745092,0.26172623216004826,0
3,0.6333667000333668,-0.9875492280072155,-0.053500735073888014,0.1479330713833338,-0.896572868171049,-0.05162730359928039,0.4398769300413543,0
4,0.8333667000333668,-0.942299519076228,-0.04198377492489688,0.3321279557516425,-0.8002568972305826,-0.04343696371935971,0.5980820417114395,0
5,1.0333667000333666,-0.4985192036046855,-0.009368516968818952,0.8668280305384426,-0.6729394280349608,0.0031038046290409564,0.7396910791626492,0
6,1.2333667000333668,-0.47585928581195186,-0.00048258429922882926,0.8795212943521796,-0.6008049648438171,0.01835100562858228,0.7991849815977773,0
7,1.4333667000333667,-0.4333343501760926,-0.10631097168504705,0.8949409579725611,-0.5726414939188821,-0.01445412859249344,0.8196784720907236,0
8,1.6333667000333667,-0.496599050066296,-0.09376814461462861,0.8629002946625891,-0.5646239568199426,-0.045246799102087155,0.824107101386711,0
9,1.8333667000333667,-0.6148659139166286,-0.2630756797213964,0.7434588721930719,-0.5851213940175753,-0.10639973208078707,0.8039353526721326,0
10,2.033366700033367,-0.9274776769642636,-0.3351056642275769,0.16579913309654923,-0.8242897447617885,-0.22958556160400484,0.5175295997172716,0
11,2.233366700033367,-0.9559545864328911,-0.2732494159767149,-0.10717082320437782,-0.9503199873889032,-0.2849476739801059,0.12528664997709277,0
12,2.433366700033367,-0.8495390080474552,-0.5274563666808545,-0.008558916612401355,-0.9276286891057406,-0.3693301939601397,0.055679645987836764,0
13,2.633366700033367,-0.6678315291060393,-0.7443118868854958,-0.0009293938038532931,-0.7753945593241522,-0.6259077904232372,0.08368222785039303,0
14,2.833366700033367,-0.1591083003879824,-0.9868771245602475,-0.027533429996019557,-0.39618264508403284,-0.9171787238797497,0.04269075071409916,0
15,3.033366700033367,0.19188115645133935,-0.9809713424528589,-0.029611603893281484,-0.05764720377576488,-0.9980673743098258,0.023201642940223737,0
16,3.233366700033367,0.3316121757751963,-0.9391963880741984,-0.08912636818596598,0.056579204891440416,-0.9980569621591101,-0.02609777499292681,0
17,3.433366700033367,0.41388665576227135,-0.9053052206802198,-0.09550022822518135,0.18427401123770104,-0.9802890288048196,-0.07124962306757254,0
18,3.633366700033367,0.43566123710919263,-0.8844464375709873,-0.16719385619237773,0.2801901243632652,-0.9521224124428058,-0.12229638561049179,0
19,3.833366700033367,0.3938828494226604,-0.9062226721379022,-0.15367748512363844,0.2591628334379059,-0.9590975875657527,-0.11387029151622352,0
20,4.033366700033366,-0.5560308418124071,-0.831155471632921,0.003207012323381196,-0.24105338628693856,-0.9701105751064115,-0.027905860071092945,0
21,4.233366700033367,-0.9231716826210077,-0.2829286695410324,0.26020263710892455,-0.8485039960828941,-0.5097732808288501,0.14202876745346593,0
22,4.433366700033367,-0.850699901756631,-0.05462753558814646,0.5228054222240086,-0.9170410806613192,-0.14848253761293656,0.3701197001019301,0
23,4.633366700033367,-0.7574700493574084,-0.022550017545633724,0.6524803606509372,-0.8649239395870191,-0.06332795070859545,0.4978917044783143,0
24,4.833366700033367,-0.653169120445459,-0.05680527468489381,0.755078314391613,-0.8032278892351575,-0.07287178729697173,0.5911976493280219,0
25,5.033366700033366,-0.5579184302564327,-0.04839413875294185,0.8284835740764926,-0.7604155084389135,-0.07395565587526398,0.6452122251551412,0
26,5.233366700033367,-0.5337230713878073,-0.08811790939675394,0.8410558347172388,-0.7480877550798792,-0.11937239386451559,0.652774802119844,0
27,5.433366700033367,-0.4871163095092451,-0.02454640637088494,0.8729920818337177,-0.7596356943210871,-0.10413723379114151,0.6419572014173914,0
28,5.633366700033367,-0.9153950681469497,-0.08432474943557379,0.39362571796678797,-0.8037839667747722,-0.09244078835052717,0.5876955295090691,0
29,5.833366700033367,-0.9826620571495912,-0.11505751113580702,0.1453858678474875,-0.8771365773914623,-0.07937987893703555,0.47363515433499376,0
30,6.033366700033366,-0.9944518548636867,-0.09421362351080946,0.04678997224979688,-0.9257606811884052,-0.055553009346919396,0.3740067169424651,0
31,6.233366700033367,-0.9959066038876287,-0.08756432501964144,0.022417076456674016,-0.9462189312188656,-0.028960048394739868,0.3222282572959774,0
32,6.433366700033367,-0.7422812736075625,-0.1716934181115624,0.6477189830695894,-0.9303323949245769,-0.01700324537107582,0.36632297853226764,0
33,6.633366700033367,-0.4863628754534204,-0.028414027237290907,0.8732947935473104,-0.8526210925653837,-0.03422827318391407,0.521407420188339,0
34,6.833366700033367,-0.4213394627897695,-0.05410052694856892,0.9052879045253589,-0.7853589646346444,-0.04551103436436785,0.6173654042939926,0
35,7.033366700033366,-0.45685290739587714,-0.10481925936198727,0.8833449744413214,-0.7739622600842534,-0.09492311960342507,0.6260766896555314,1
36,7.233366700033367,-0.4624711372772241,-0.13461260562357247,0.8763560312982069,-0.7566978606838346,-0.13371091359926032,0.6399451064122293,1
37,7.433366700033367,-0.4333257980629551,-0.1342305602530244,0.891185115128873,-0.7289542453668894,-0.14937970706025386,0.6680654244010701,1
38,7.633366700033367,-0.4397451836610329,-0.015613536564605826,0.8979868545378991,-0.6877320977830624,-0.13222217850410353,0.7138220066588992,1
39,7.833366700033367,-0.45675707112968467,0.12322458788840536,0.8810157086640199,-0.6655829743365772,-0.08692289934362986,0.741244705777365,1
40,8.033366700033367,-0.5218844700394653,0.12233619513773572,0.8441981137688289,-0.6794671660128195,-0.03174300248400904,0.7330189302492863,1
41,8.233366700033368,-0.8441786123496764,-0.03926684040141087,0.5346219091061134,-0.719152838816656,0.003903437672734933,0.6948409584907037,1
42,8.433366700033368,-0.8899405887970984,-0.024171805178601236,0.45543547539237833,-0.7619517010535986,0.021876320675288205,0.647264267401839,0
43,8.633366700033367,-0.5540512673654678,-0.027382780221744393,0.8320320765920307,-0.7625385081152964,0.02324916897594124,0.6465249413466017,0
44,8.833366700033368,-0.5390239344209263,-0.06566520718003109,0.8397269072069732,-0.7559827899617435,-0.02683828206555424,0.654041075084301,1
45,9.033366700033367,-0.4993385019449717,-0.12057944278950937,0.8579753250833752,-0.7192125271082882,-0.08870900720770059,0.6891038041476293,1
46,9.233366700033368,-0.5379466479190583,-0.11129436672802591,0.835599765394448,-0.7047872140086224,-0.13315504777716483,0.6968103875671097,1
47,9.433366700033368,-0.5007750207179632,-0.10696541513660589,0.8589428261471057,-0.6713787145768546,-0.13939718896514347,0.727886698134913,1
48,9.633366700033369,-0.5409914626198511,-0.08773819675432182,0.8364390271877171,-0.6744214636615935,-0.11239259422220461,0.7297421422095323,1
49,9.833366700033368,-0.6085434992095482,0.0628190578184309,0.791030072465392,-0.7075308537453544,-0.07968663531219118,0.7021752852037676,1
50,10.033366700033367,-0.6484448255387252,0.23001893147048735,0.7256794053831401,-0.7666284364211958,-0.03923335030215737,0.6408912424853854,1
51,10.233366700033368,-0.7518580046796796,0.017564659279522905,0.6590910586129093,-0.8129209433337311,-0.01388065027686657,0.5822086116138172,0
52,10.433366700033368,-0.580961377454374,-0.05104603758315248,0.8123288619477803,-0.8094728294361786,-0.0005896364785108656,0.5871570409468077,0
53,10.633366700033369,-0.5283660190576832,-0.06379509120250891,0.8466165225434711,-0.7603531183289729,-0.01577644360349985,0.6493182881104096,0
54,10.833366700033368,-0.49826517655137914,-0.09690664491071356,0.8615920821411789,-0.7172637735084126,-0.06117467382838916,0.6941111859741655,1
55,11.033366700033367,-0.4389381029575832,-0.09991186780139334,0.892945104944551,-0.6591733961072846,-0.08133224493007507,0.7475797614964059,1
56,11.233366700033368,-0.5206274241933225,-0.2829161722420283,0.8055467240711401,-0.6344623232293076,-0.08449173089174813,0.7683220078934263,1
57,11.433366700033368,-0.5348514815888425,-0.09644976891985298,0.839423215498313,-0.641913362207833,-0.07879511971396035,0.7627178800371065,1
58,11.633366700033369,-0.562867869413622,-0.10641823967657156,0.8196675666670666,-0.684966070452643,-0.10016161532957536,0.7216572130473272,1
59,11.833366700033368,-0.6197547382555311,-0.08914548627661202,0.7797160679929102,-0.7422658153874083,-0.09213757601037166,0.6637410085222992,1
60,12.033366700033367,-0.6399246751627069,-0.06400382780058433,0.7657675366224252,-0.7793587375882736,-0.07680398785433404,0.6218529613939969,0
61,12.233366700033368,-0.4926286331490114,-0.028006697329255183,0.8697888563935755,-0.8037009335319916,-0.08776170176660156,0.5885258644637765,0
62,12.433366700033368,-0.45479635196268364,-0.07205701693273368,0.8876756527877684,-0.7852973677709039,-0.10221948762197022,0.610621994790879,0
63,12.633366700033369,-0.4071860565257107,-0.0660503637898709,0.9109538214499496,-0.7370574226970322,-0.10434695552240032,0.6677260430149587,1
64,12.833366700033368,-0.3616939247890836,-0.04133906067574562,0.9313799368856491,-0.6762569001001056,-0.09604433118182266,0.7303780469830896,1
65,13.033366700033367,-0.3582148051053761,-0.03168731848438534,0.9331013167124921,-0.6439247099705764,-0.08637257127396239,0.760197834001672,1
66,13.233366700033368,-0.40717521752976416,-0.029906094216690778,0.9128603221513639,-0.657826056049194,-0.07876861393094067,0.7490396421032476,1
67,13.433366700033368,-0.7252098272599553,-0.11006161318204054,0.6796742953425212,-0.6957221395979123,-0.08032267076505882,0.7138059771635926,1
68,13.633366700033369,-0.7478221194053242,-0.10691842494153687,0.6552331860766444,-0.7394177362175549,-0.07434972114190995,0.669128934012741,1
69,13.833366700033368,-0.5418001446690589,-0.33510068725334335,0.7708178336279747,-0.7830838150713786,-0.0897468758700419,0.6154065622373738,0
70,14.033366700033367,-0.5771238131337082,-0.21142220420853405,0.788814779198269,-0.7917575702032317,-0.12893700543343686,0.5970721888144958,0
71,14.233366700033368,-0.6169085267814736,-0.10014196491941942,0.7806378523018149,-0.7829380576631709,-0.14867147911490736,0.6040734964889679,0
72,14.433366700033368,-0.5679868100232456,-0.08362344918573307,0.8187784208110879,-0.7528398235642189,-0.13808385503122592,0.6435565624212927,0
73,14.633366700033369,-0.543651085150632,-0.056423967597911184,0.8374125825989541,-0.7200261203049229,-0.10932029040012795,0.6852820296676928,1
74,14.833366700033368,-0.5052469644828318,-0.0013124801863365352,0.8629738016166221,-0.6709484360872938,-0.058884884194831205,0.7391622058285828,1
75,15.033366700033367,-0.41019453539314515,-0.014316416234640514,0.9118856745008108,-0.66284682269015,-0.013762332791870587,0.7486285379583779,1
76,15.233366700033368,-0.5850153689909707,-0.013019552614141885,0.8109176957583836,-0.6799144646554597,0.012966005122629654,0.7331767886829478,1
77,15.433366700033368,-0.5984973783987804,0.0005243675322261134,0.8011245927372838,-0.6736710191994646,0.04305965055263685,0.7377758632437359,1
78,15.633366700033369,-0.605487214580954,-0.031593733591410864,0.7952276837338809,-0.6757725644063581,0.019218898990840484,0.7368596033962203,1
79,15.833366700033368,-0.5861144099905923,-0.09854515421116852,0.8042131253485466,-0.6666032956393995,-0.035357904089410495,0.7445736127886187,1
80,16.033366700033366,-0.5100668895332926,-0.10187506305281475,0.8540803473501876,-0.6341099285314139,-0.0894385312234559,0.7680529588970261,1
81,16.233366700033365,-0.5465473680503278,-0.0988575266277351,0.8315727051234343,-0.6179551999909736,-0.11451298787117958,0.7778291241737683,1
82,16.433366700033368,-0.5522750913190413,-0.0952420735095755,0.8282035806141756,-0.6317388013553308,-0.12751641763775526,0.7646212461702616,1
83,16.633366700033367,-0.5646283199010884,-0.05977579343927883,0.8231778148640663,-0.6665262078485433,-0.10843465484254464,0.7375532115584738,1
84,16.833366700033366,-0.5049373498383917,-0.04037476502825381,0.8622111986555819,-0.7067958999587406,-0.08063295577957855,0.7028071444171314,1
85,17.033366700033366,-0.5097129858123554,-0.03314656378834133,0.8597057504770335,-0.7166552589074836,-0.07467237432228559,0.693418543444953,1
86,17.233366700033365,-0.5000500577440792,-0.06574038012423059,0.8634976214045206,-0.6951280082787955,-0.09588277113261578,0.712463013991804,1
87,17.433366700033368,-0.49733594366950534,-0.06732377935048281,0.8649418869891377,-0.6640846852257494,-0.07959800781582478,0.7434081570714498,1
88,17.633366700033367,-0.5486959425226291,-0.27136213515570956,0.790756191416127,-0.642449072847812,-0.08803223464438624,0.7612552229446462,1
89,17.833366700033366,-0.5345953775788737,-0.2986370088907576,0.790584416234018,-0.6411420223021663,-0.10720534735410966,0.7598973093365798,1
90,18.033366700033366,-0.5558957605431738,-0.3274098926413783,0.764056716226412,-0.6817897652275327,-0.12613542282381268,0.7205918200618461,1
91,18.233366700033365,-0.5868974495491848,-0.33721199309603417,0.7360974496796348,-0.7283271141769005,-0.13101206438525156,0.6725886214769495,1
92,18.433366700033368,-0.5718003910699405,-0.1293238621943278,0.8101355759620766,-0.7738143115915446,-0.1684995771319283,0.6105893085228938,1
93,18.633366700033367,-0.6502764985120774,-0.13774958722972344,0.7471047628685775,-0.7775317590715839,-0.17350209344993406,0.604434766706498,1
94,18.833366700033366,-0.7951930850000473,-0.1836472074199975,0.5778768560644599,-0.7781142419356629,-0.1727094987751812,0.6039119600816948,1
95,19.033366700033366,-0.8127549854012508,-0.19677512860283153,0.5483692938784516,-0.7971216435982464,-0.1947294747547273,0.5715570986078102,1
96,19.23336670003337,-0.638715857373357,-0.16385623916033767,0.751793313636167,-0.7978089895677702,-0.21765209959220128,0.5622529499326439,1
97,19.433366700033368,-0.6459063245968921,-0.15534779466939289,0.7474436985734042,-0.8122783297254318,-0.21700082148154518,0.5414005527655077,1
98,19.633366700033367,-0.265348202167869,0.034747880587574755,0.9635262925322543,-0.7845784933931554,-0.16693052889391782,0.5971354839800793,1
99,19.833366700033366,-0.28397931702377793,0.05245859278604712,0.9573942988892384,-0.7280776995582194,-0.094051352842006,0.6790119339412228,0
100,20.033366700033366,-0.35155651324983445,0.03600557611489638,0.9354740063092367,-0.720175972346712,-0.07017451465853349,0.6902333709310983,0
101,20.23336670003337,-0.42614378740958386,-0.013505624237860517,0.904554625529139,-0.740751375496708,-0.08967514855904032,0.6657670519263096,0
102,20.433366700033368,-0.7081566161384538,-0.09627476488404622,0.6994607756449656,-0.7507409431313201,-0.05823368854719424,0.6580249796356399,0
103,20.633366700033367,-0.9009588377636907,-0.091861189689082,0.42406920954533617,-0.7924884110238213,-0.022889031352229174,0.6094573082970582,0
104,20.833366700033366,-0.9980366275421564,-0.051998148192635665,0.03491536436607627,-0.9143981579044828,-0.017296200078175138,0.4044463503157676,0
105,21.033366700033366,-0.9927340213258483,-0.11263213254188852,-0.04234578634618775,-0.9707518348156438,-0.06797106505519557,0.23026247961255822,0
106,21.23336670003337,-0.990028379408433,-0.13994487157892554,-0.016100959122664803,-0.9729030321831338,-0.19081540254500637,0.13057247841889133,0
107,21.433366700033368,-0.7830116924716379,-0.6177748460937224,0.07243568862500818,-0.9124942687396644,-0.3714706762998015,0.17135853105880963,0
108,21.633366700033367,-0.7906416637732708,-0.6068314281711755,0.08149464577238065,-0.8324457602091743,-0.507518505135363,0.22239384716070004,0
109,21.833366700033366,-0.5794464338185633,-0.8075577131455022,0.10996531395925077,-0.8013413521340764,-0.552994612317941,0.22814249079744153,0
110,22.033366700033366,-0.6781627659484155,-0.7121558067304313,0.1814645139450771,-0.834845051194965,-0.5055555624949902,0.21782404303852823,0
111,22.23336670003337,-0.8828928124459953,-0.17866076194431252,0.4342586946425813,-0.9223436835784402,-0.2781174824803887,0.2682028995028294,0
112,22.433366700033368,-0.3730386880577382,-0.0655741803605739,0.9254956315846125,-0.8802150727479687,-0.07649130876807342,0.46837005176487945,0
113,22.633366700033367,-0.5631357082654012,-0.07986383845809977,0.8224961649656267,-0.7960357703507848,-0.021296520948784238,0.6048747891237582,0
114,22.833366700033366,-0.5630717696810047,-0.08642011258154973,0.8218769654453723,-0.7695826981705789,-0.08633241401074326,0.6326841115181966,0
115,23.033366700033366,-0.6213963249064689,-0.154511759084653,0.7681098383026356,-0.7584962309151677,-0.20153575140913857,0.6197312389991639,0
116,23.23336670003337,-0.590722817374141,-0.1577386798357442,0.7913059218262137,-0.7261800724918642,-0.2391466429167919,0.6445706986028296,0
117,23.433366700033368,-0.5783267674312847,-0.09088801382708825,0.8107265377518166,-0.7058742134967763,-0.16817263287382653,0.6880839776310687,0
118,23.633366700033367,-0.6177504878961724,-0.01226788845950481,0.7862784707829575,-0.7207226261739053,-0.08275364365963743,0.6882664677158427,0
119,23.833366700033366,-0.6870444477379225,0.036531783420374955,0.7256964624639011,-0.7720230161100047,-0.021139558215133955,0.6352429312277947,0
120,24.033366700033366,-0.5803196475805936,-0.052479098590674865,0.8126961614546029,-0.7785545096391174,-0.03545811115762031,0.6265744950711988,0
121,24.23336670003337,-0.5166188967248195,-0.10388686484017129,0.8498896604033435,-0.7242004047458568,-0.12809229463437186,0.6775884723202121,1
122,24.433366700033368,-0.4738520490630825,-0.117639201969709,0.8727114378525402,-0.6667067772500554,-0.17293805092149006,0.724978967772391,1
123,24.633366700033367,-0.5010691416569896,-0.27918392009300197,0.8191373841063733,-0.6201773215014632,-0.18764707293660135,0.7616880371343617,1
124,24.833366700033366,-0.5278291228970003,-0.2751259017091695,0.8035559440577239,-0.6311292414788106,-0.1839601483342996,0.7535479708520245,1
125,25.033366700033366,-0.5017380381509896,-0.1541272997273504,0.8511778407308026,-0.6638768798788669,-0.17563901330314047,0.7269239474444351,1
126,25.23336670003337,-0.5743272654407929,-0.13120834847068716,0.8080424255340162,-0.7092010473405281,-0.14894633558436277,0.6890927829886832,1
127,25.433366700033368,-0.6967571343367335,-0.07706668506269053,0.7131551176317191,-0.7771313325510357,-0.08178928049002065,0.6240011262524907,0
128,25.633366700033367,-0.7634761798241969,-0.04488193769136572,0.6442745800589367,-0.8245877151555805,-0.04254909208638285,0.5641317884830845,0
129,25.833366700033366,-0.7502656556692918,-0.01892722647267185,0.6608654976779923,-0.8091461864588791,-0.00432702387465907,0.5875914616495386,0
130,26.033366700033366,-0.6691021376781223,-0.04425803805100006,0.7418514375684956,-0.7574213509326091,-0.026602860203934927,0.652384231094216,1
131,26.23336670003337,-0.6074676011222757,-0.07041445273574573,0.7912173648452578,-0.7100003677076916,-0.05239038317079001,0.7022497601325051,1
132,26.433366700033368,-0.5916564850834971,-0.08939755976173855,0.8012182474003496,-0.6948719408007968,-0.07749250780732325,0.7149460798699898,1
133,26.633366700033367,-0.6054754066022888,-0.08091314183105737,0.7917402323229636,-0.7048783439795673,-0.07555650898815695,0.7052926585029405,1
134,26.833366700033366,-0.6336733153777857,-0.07019224688897648,0.7704097467288447,-0.7292320821976728,-0.06814299480618408,0.680864966459937,1
135,27.033366700033366,-0.6576236845566644,-0.055371965155820865,0.7513088812099186,-0.7548640347828459,-0.05667134473406358,0.6534283799142763,1
136,27.23336670003337,-0.6774676860859855,-0.06834934293987545,0.7323700578457507,-0.7695440948741652,-0.07181117331241761,0.6345431753882442,1
137,27.433366700033368,-0.6809866574187002,-0.08399141199476903,0.7274631366116298,-0.772571549808797,-0.08888471914685338,0.6286753590910168,1
138,27.633366700033367,-0.649023725015075,-0.11923204429318464,0.7513667040674777,-0.7410003922716011,-0.13483799487521864,0.6578275866755392,1
139,27.833366700033366,-0.5918524847282507,-0.20932683809570649,0.7783912327190293,-0.6900346110409661,-0.2305442181367367,0.6860769629198052,0
140,28.033366700033366,-0.5347565069283184,-0.1839338836463939,0.8247446906434612,-0.6281923308630342,-0.327348771364894,0.7058450094254143,0
141,28.23336670003337,-0.521535613933828,-0.13253342760725054,0.8428733558283469,-0.5655811096158632,-0.3714986247367009,0.7362790097948123,0
142,28.433366700033368,-0.6750269164068264,-0.2986199049799252,0.6746590357180966,-0.5563412490400788,-0.35246763384502844,0.7524964994657531,0
143,28.633366700033367,-0.5877951496090535,-0.025692297807031514,0.8086017362889256,-0.6090421597739863,-0.2965606868379385,0.735608188263323,0
144,28.833366700033366,-0.6057242850403732,0.020653123381579964,0.7954065243678319,-0.6685822494615565,-0.22226150056120433,0.7096461097428821,0
145,29.033366700033366,-0.7568208162592629,-0.017223233939326857,0.6533954486291854,-0.728013972215426,-0.13048631601523303,0.6730297003787352,0
146,29.23336670003337,-0.7809154910302843,0.011419363603271178,0.6245323002085853,-0.7800409539221044,-0.05516790448289633,0.6232917555360891,0
147,29.433366700033368,-0.929526533779466,-0.12361917389262955,0.34741721725619046,-0.8329587269322937,-0.06287914492250332,0.549750827522022,0
148,29.633366700033367,-0.9588799747793165,-0.15439705361813832,0.23814017678933408,-0.8997747164041842,-0.10683908222465567,0.42307312633770944,0
149,29.833366700033366,-0.9806335768737149,-0.14115492939920038,0.13576845662439707,-0.9234621770960267,-0.1054252762053611,0.3689215615955382,0
150,30.033366700033366,-0.6311520833778063,-0.04647825063116798,0.7742653420282489,-0.8554618920632043,-0.07053659673145155,0.5130395109045573,0
151,30.23336670003337,-0.5953096728079855,-0.011553364644728888,0.8034132891772673,-0.7990154098527229,-0.012791285811346958,0.6011744820143128,1
152,30.433366700033368,-0.6314957209106187,-0.0127887805655679,0.7752738880958288,-0.7869212602144277,0.012043599602630364,0.6169358815396857,1
153,30.633366700033367,-0.6566064351215576,-0.04886051959573965,0.752649080901448,-0.7962828233538987,-0.024876446853477834,0.6044127957145599,1
154,30.833366700033366,-0.611146521145169,-0.09882668368437035,0.7853236379252233,-0.7731606782565212,-0.08633343056071387,0.6283065369431825,1
155,31.033366700033366,-0.564183960043797,-0.11340031405931673,0.8178244481553164,-0.7372532475260745,-0.11444529273392545,0.6658527795115848,1
156,31.23336670003337,-0.5495870346766193,-0.11042349940961628,0.8281067214396313,-0.7174554978631628,-0.10478506588148703,0.6886782257006051,1
157,31.433366700033368,-0.6712839897056189,-0.22532613875812763,0.7061203412714152,-0.718335380285925,-0.09072527857948377,0.6897559026613334,1
158,31.633366700033367,-0.6887556541370639,-0.23242168477655475,0.6867283373648223,-0.7462394577841497,-0.09504731682627207,0.6588571007510998,1
159,31.833366700033366,-0.6946665171002335,-0.23602250924108112,0.6795085026336132,-0.7586897210836647,-0.10123121782368874,0.6435387693526506,1
160,32.03336670003337,-0.695546515900316,-0.23685770140903387,0.6783166469298543,-0.7657758541959542,-0.10141461057118523,0.6350609560452852,1
161,32.23336670003337,-0.6952880169499167,-0.24547510400706252,0.6755120626595608,-0.7685307872267952,-0.11422568752409128,0.6295338921727812,1
162,32.43336670003337,-0.6848200839913595,-0.264050503807665,0.67918979968856,-0.7623470591147211,-0.13882667098482063,0.6321029321893773,1
163,32.63336670003337,-0.6730327037176033,-0.2608576425155848,0.692084005065703,-0.7512481181246611,-0.14257362220726919,0.6444369847121243,1
164,32.83336670003337,-0.5946261794835181,-0.06344366080171963,0.8014952330344275,-0.7306705545002039,-0.1159662911705034,0.6728093044084056,1
165,33.03336670003337,-0.6041491279542844,-0.03870411806203743,0.7959307899793282,-0.7289310361369674,-0.07274162426035488,0.6807115399758202,1
166,33.23336670003337,-0.631586242279865,-0.04564210786330309,0.7739609916220547,-0.7472732243788558,-0.06428735535228042,0.6613999274782526,1
167,33.43336670003337,-0.6411510421907983,-0.06820577123965496,0.7643777298347051,-0.7582959113926299,-0.08153326912907467,0.6467918032801182,1
168,33.63336670003337,-0.6636114461103602,-0.12439541971155763,0.7376622724161117,-0.785357288132774,-0.14214841974402298,0.6025012504061816,1
169,33.83336670003337,-0.593386760617828,-0.09530559168728713,0.799255276189414,-0.810621577482928,-0.1852242022322947,0.5555039631060247,0
170,34.03336670003337,-0.4623654185143674,-0.07773380878732197,0.8832755372665146,-0.772773231273285,-0.2198644026557535,0.5953832190045961,0
171,34.23336670003337,-0.441013070519355,-0.07396299506096404,0.8944478447582636,-0.7331510457711052,-0.21373362868319776,0.645606288735362,0
172,34.43336670003337,-0.637188605285379,-0.035996858562084476,0.7698668115123128,-0.7075454996513052,-0.17991096860779357,0.6833823302499051,0
173,34.63336670003337,-0.6534829972772526,-0.010485750550361833,0.7568685627669669,-0.720635854658525,-0.13160367643975573,0.6807087757096403,1
174,34.83336670003337,-0.6607252706677198,0.026662123773567154,0.7501541493966101,-0.7327362604468003,-0.06895163810408196,0.6770105200284581,1
175,35.03336670003337,-0.7433071875402864,-0.05088715578448554,0.6670119356706561,-0.7490670647002434,-0.019144501459565075,0.6622175025210572,1
176,35.23336670003337,-0.7542524958321174,-0.056077792326028005,0.6541853359246609,-0.7660485022936245,-0.014216184813401271,0.6426255458842626,1
177,35.43336670003337,-0.5452608534315341,-0.08758091507620953,0.8336787061149691,-0.7695767014054149,-0.03994933145426583,0.6373035003593798,1
178,35.63336670003337,-0.5003309421799726,-0.09976455604269685,0.8600674285513346,-0.7480153149462212,-0.07258004403973685,0.6597008608552025,1
179,35.83336670003337,-0.41258218602256636,-0.2903150248285922,0.8634194381270406,-0.7147829975338642,-0.09128492439730111,0.693363057145593,1
180,36.03336670003337,-0.4178455192483847,-0.30236180236541715,0.856727764528724,-0.694445521585419,-0.10756854044448676,0.7114593640234126,1
181,36.23336670003337,-0.42950912559952,-0.30995670884413706,0.8482032478535122,-0.6829677247679125,-0.13219097684693057,0.7183875225570078,1
182,36.43336670003337,-0.48825039776167556,-0.14711231322217944,0.860214808279877,-0.6650281510127981,-0.17499482515565606,0.7260264248147175,1
183,36.63336670003337,-0.4756490563396688,-0.13635211916149725,0.869002919904963,-0.6472722759726324,-0.18870908845141246,0.7385306227185474,1
184,36.83336670003337,-0.4727318797001195,-0.1142804609321265,0.8737645828049639,-0.6370297917439003,-0.17125317862264727,0.7515752745017381,1
185,37.03336670003337,-0.4744253417236874,-0.09117914153287382,0.8755609397864268,-0.6304731243327208,-0.14478815796949013,0.7625877187615469,1
186,37.23336670003337,-0.4812326265501461,-0.07640229565629438,0.8732570345334161,-0.6299467587515966,-0.12591185793014903,0.7663636768342663,1
187,37.43336670003337,-0.514284307881325,-0.07595248033319252,0.8542498881464737,-0.6489459001671704,-0.1257932971312396,0.7503634219850225,1
188,37.63336670003337,-0.559453006902694,-0.08041901871676198,0.8249515831224082,-0.684307255463505,-0.13062227759536169,0.7173990526309646,1
189,37.83336670003337,-0.5987932641307666,-0.0698530344057322,0.7978516030039253,-0.7218378717550055,-0.11804025631370678,0.6819212452986041,1
190,38.03336670003337,-0.6127993324485288,-0.0664623209848356,0.7874387201807811,-0.7417687840728615,-0.10952070731278836,0.6616526926150723,1
191,38.23336670003337,-0.60770443901448,-0.07975135311162423,0.7901487432622805,-0.7447370013808337,-0.12249015442405285,0.6560205491015172,1
192,38.433366700033375,-0.5937065235660043,-0.09869667773555336,0.7986059915121687,-0.7287653706017547,-0.14539177155939695,0.669150407139163,1
193,38.63336670003337,-0.5845082743878404,-0.10872403202195753,0.8040703713189771,-0.7104899209094732,-0.16063420309258314,0.6851282544771171,1
194,38.83336670003337,-0.5758077781371966,-0.09544210134433019,0.8119952019117376,-0.6950665016107878,-0.14975335485539562,0.703176002895502,1
195,39.03336670003337,-0.5750992696433394,-0.07518375683366649,0.8146215273144173,-0.6980076830837463,-0.1276575663118055,0.7046196279691671,1
196,39.23336670003337,-0.5909733178164887,-0.04810169360668196,0.8052557138581138,-0.7184093353726134,-0.09492862548113981,0.6891128956228736,1
197,39.433366700033375,-0.5947784637423426,-0.0490703460199593,0.8023906032661277,-0.7251421209720681,-0.09578465510370533,0.6819048351777505,1
198,39.63336670003337,-0.5789595956598934,-0.04610118841924355,0.8140518822652931,-0.7142155752487986,-0.0979357375477968,0.6930401888656941,1
199,39.83336670003337,-0.7084621457361173,0.022749412940935163,0.7053820612050035,-0.7124430379500754,-0.12094427292972515,0.6912289060231551,1
200,40.03336670003337,-0.7205616550977082,0.020633167027936297,0.6930838142831277,-0.7272278707223906,-0.1305080724971025,0.6738748155686404,1
201,40.23336670003337,-0.61074165937168,-0.17650031370982497,0.7719081971117163,-0.7266852788570477,-0.13596716034696538,0.67338060322498,1
202,40.433366700033375,-0.601796539962802,-0.17469266595777488,0.7793095642614464,-0.7016331813832105,-0.14088305224075295,0.6984717921100353,1
203,40.63336670003337,-0.5832011753736799,-0.16149413522737,0.7961130782306761,-0.6736982354710219,-0.13540875688652657,0.7264951177273508,1
204,40.83336670003337,-0.5920116500962789,-0.12523709538434966,0.7961393572044861,-0.674608675385305,-0.1261742642720886,0.7273123057739928,1
205,41.03336670003337,-0.6216934485541743,-0.07615404080967708,0.7795497534430861,-0.6988858095290951,-0.08595823788948842,0.710049157860071,1
206,41.23336670003337,-0.7213344137562702,0.17743790550553437,0.6694717717878087,-0.7588848274642842,-0.018408549848481167,0.6509646257186178,1
207,41.433366700033375,-0.6790748978153699,0.1624532743328862,0.7158674575754712,-0.7965065456204194,0.09662475396005155,0.5968592628970301,1
208,41.63336670003337,-0.5646128045650206,0.002030895120716409,0.8253534130214955,-0.7572302058055527,0.14469842297058938,0.6369181908263453,1
209,41.83336670003337,-0.5453250255148676,-0.02495484552576352,0.8378531328532431,-0.7253172699461305,0.13037323833742945,0.6759568600460414,1
210,42.03336670003337,-0.5688074126168433,-0.06486498238783626,0.819908934828715,-0.7355451224533082,0.07187502930374455,0.6736522493080047,1
211,42.23336670003337,-0.7106893157773384,-0.10573162810197956,0.695515290456539,-0.772254328475119,0.02378837900547356,0.6348679903536916,1
212,42.433366700033375,-0.7134844304834419,-0.11920240074484989,0.6904569176381556,-0.7745840922816442,-0.011334428202338905,0.6323693657361555,1
213,42.63336670003337,-0.6961685893481842,-0.11798600437398266,0.7081162319681863,-0.7537202875189117,-0.021830305272875078,0.656832677288594,1
214,42.83336670003337,-0.6536594994199312,-0.09719073278450169,0.7505219652208033,-0.73389920057302,0.002046836898125183,0.6792553083024048,1
215,43.03336670003337,-0.601435589523401,-0.09681706983949666,0.7930332191291444,-0.6989311501975785,-0.0013704246306918755,0.7151876461599584,1
216,43.23336670003337,-0.5764030123847048,-0.092252397015128,0.8119415388799867,-0.6847669379542892,-0.008807184835748343,0.7287089090850853,1
217,43.433366700033375,-0.5565410597926451,-0.08293162684846042,0.8266706684243416,-0.6672132182121221,-0.012657488140992977,0.7447592291720755,1
218,43.63336670003337,-0.5397124599286076,-0.06390753594593059,0.8394202091009787,-0.647134557181298,0.006798801031636918,0.7623454867750562,1
219,43.83336670003337,-0.5311248449977352,-0.11633911670306404,0.8392684963412379,-0.630887743700973,-0.04479125636032951,0.7745801431753584,1
220,44.03336670003337,-0.5444988381642496,-0.13000788273989353,0.8286247435741179,-0.6415427818153548,-0.059187395856683735,0.7648004388546861,1
221,44.23336670003337,-0.562130037436519,-0.16544173872635629,0.8103325564845693,-0.6565521406550607,-0.0970506940312333,0.7480109955002758,1
222,44.433366700033375,-0.5884837325397217,-0.18376321591643252,0.7873487010290728,-0.6806719927358884,-0.12630736272677515,0.7216176885484179,1
223,44.63336670003337,-0.6285873230529002,-0.10471247713504707,0.7706576895285165,-0.700707855740463,-0.13890153473247668,0.699796302185547,1
224,44.83336670003337,-0.644889832149505,-0.09469069289854876,0.7583869573433974,-0.7269068216973309,-0.09899430426071743,0.6795635366128917,1
225,45.03336670003337,-0.8504295793215532,0.021764265492455692,0.5256385139642449,-0.7893843557606409,-0.04478331384943952,0.6122636635315053,0
226,45.23336670003337,-0.8648814202832492,0.039414208146585604,0.5004264671707598,-0.8357444545304045,-0.007253092543113391,0.5490706688307417,0
227,45.433366700033375,-0.5910276832816995,-0.14816363634331028,0.792927370230209,-0.8140152803780775,-0.017226859537353464,0.580587942194359,0
228,45.63336670003337,-0.5545762096001705,-0.16546545870989965,0.8155160389099841,-0.7686292064291168,-0.04004735896394939,0.6384397795126483,0
229,45.83336670003337,-0.4980122555003097,-0.1827980344352971,0.8476842997119189,-0.7127227671190456,-0.08056821112965463,0.6968034303772754,0
230,46.03336670003337,-0.5177522095707738,-0.18123591633350614,0.83611374352736,-0.7060941096545322,-0.10949525984309094,0.6996012409816522,0
231,46.23336670003337,-0.5415443444721465,-0.24881058485750726,0.8030087271213798,-0.71418186473797,-0.21173638364383757,0.6671671214327232,0
232,46.433366700033375,-0.5196026834611742,-0.2157395076534949,0.8267221517398541,-0.6996949025270759,-0.3325209679258061,0.6323423513155759,0
233,46.63336670003337,-0.49848643967077966,-0.23838319196554977,0.8334774881499,-0.6739652465075288,-0.3925206332310941,0.6258581300805378,0
234,46.83336670003337,-0.5407881276354815,-0.07842242191905043,0.8374951490897492,-0.6797004228734321,-0.34860662199389514,0.6453532042592517,0
235,47.03336670003337,-0.521972628024175,0.001864022345576758,0.852960198962549,-0.6954961450746662,-0.24660229229499397,0.6748869695149947,0
236,47.23336670003337,-0.5168974234687544,0.062061785928438494,0.8537946991746528,-0.715295488538496,-0.14158923983420565,0.684328028974151,1
237,47.433366700033375,-0.5321161817164067,-0.019237505875256945,0.8464527674496978,-0.7235807536903924,-0.06287944931769228,0.6873696732780314,1
238,47.63336670003337,-0.5471167527117556,-0.00921940944431559,0.8370055324737358,-0.7285188934392319,-0.012659033911610829,0.6849087317026277,1
239,47.83336670003337,-0.587605206430649,-0.1441403741313805,0.7962057987234585,-0.7123648117904534,0.013040640380959497,0.7016881904530006,1
240,48.03336670003337,-0.5868737440704355,-0.16768381125545723,0.7921245785629895,-0.7105284038986339,-0.008107985172925124,0.7036218073863941,1
241,48.23336670003337,-0.5787186065725104,-0.1823692035072278,0.7948749889252471,-0.7192310795259867,-0.0480847672021587,0.6931049771910445,1
242,48.433366700033375,-0.566721547926829,-0.1842338376008493,0.8030470597656668,-0.7257692584574928,-0.09122969209027601,0.6818622491084063,1
243,48.63336670003337,-0.5599024152450779,-0.19484840866471428,0.8053219126806109,-0.7234739301916243,-0.1155044577214912,0.6806204467833369,1
244,48.83336670003337,-0.5682220910423968,-0.17865588359755594,0.8032469922180744,-0.728149940280995,-0.10510888109269997,0.677310702398998,1
245,49.03336670003337,-0.5465880001923036,-0.16379024249333124,0.8212273220672545,-0.7075162136606687,-0.09651434084801779,0.7000755597919014,1
246,49.23336670003337,-0.495164365609723,-0.006124666957710082,0.8687777273186612,-0.6895490259465391,-0.08640153459019644,0.7190666976273051,1
247,49.433366700033375,-0.48836273462592633,-0.01023692622708688,0.8725806809516862,-0.689235849737112,-0.09088764886394356,0.7188138693160737,1
248,49.63336670003337,-0.4807865078156858,-0.028361802823048284,0.8763788804181809,-0.6817045652449274,-0.12058837865270004,0.7216213194315544,1
249,49.83336670003337,-0.4845571288499612,-0.04780432870209957,0.873452422881764,-0.6869173165992956,-0.12383211516907715,0.7161076786411219,1
250,50.03336670003337,-0.47474425142730714,-0.018539610752993773,0.8799285076469869,-0.6907722341411475,-0.09851026884176294,0.7163305434451133,1
251,50.23336670003337,-0.47422349155454513,0.023001130621112847,0.8801039870651461,-0.6994175356223773,-0.04802106317413999,0.713098231911667,1
252,50.433366700033375,-0.4863146760403719,0.041867782234962785,0.8727801124444086,-0.7106965864798812,-0.025343531815342754,0.7030420096700974,1
253,50.63336670003337,-0.5242874524230727,-0.010334647291303806,0.8514786329069501,-0.7209735393942068,-0.03410549171098123,0.6921228004686322,1
254,50.83336670003337,-0.5689988576317346,-0.077211457065801,0.818705497057127,-0.7274026987010181,-0.06451627803661333,0.6831712550969766,1
255,51.03336670003337,-0.5618584560775887,-0.08069844082153842,0.8232878214713741,-0.7216020547007519,-0.09396710014718986,0.685901347674417,1
256,51.23336670003337,-0.5640184370451061,-0.07431978092424403,0.8224109513111849,-0.7189590162648486,-0.10441334807322622,0.6871650352539925,1
257,51.433366700033375,-0.5978158832276137,-0.042073247946435764,0.8005285826052846,-0.7170766607706269,-0.09177714760594191,0.6909254791620908,1
258,51.584918251584924,-0.6172393550393966,-0.008215350259254201,0.7867325381669855,-0.7217265918579194,-0.04852026873409422,0.6904755680884903,1
