,timeStamp,x_gaze,y_gaze,z_gaze,x_head,y_head,z_head,fixations_head
0,0.033366700033366704,-0.9981009420505251,0.05809337347177675,-0.020485835021379212,-0.9973339324581938,-0.061834755016071045,-0.038749067596235726,0
1,0.2333667000333667,-0.9901286858052945,-0.13673631099252603,0.030795564642267046,-0.9890012410785445,-0.14517383783916443,-0.02830374448985866,0
2,0.43336670003336675,-0.9444277379685575,-0.3158644535276602,0.09102689027571315,-0.9693533836694475,-0.2456704456778276,-0.00022291041019023613,0
3,0.6333667000333668,-0.8004602584543875,-0.5901479841627741,0.10482715022239973,-0.922043301875771,-0.38571051208851165,0.03261211937983249,0
4,0.8333667000333668,-0.8097321017827915,-0.5863801274797291,0.022187145811932915,-0.8235223852031575,-0.5637802418707236,0.06295013856609931,0
5,1.0333667000333666,-0.5180738438423137,-0.8544748431323469,0.03836971175812197,-0.6261342513177248,-0.7765445953814799,0.07024521841809708,0
6,1.2333667000333668,-0.024925121866696154,-0.9990655898553593,0.03530843336787533,-0.3248777653787471,-0.9414029544735398,0.09063616756572718,0
7,1.4333667000333667,0.014696144284748802,-0.9998728885466114,0.006183048812537416,-0.07031896768635448,-0.9923207243451523,0.10175864984677194,0
8,1.6333667000333667,0.22880496906622677,-0.9734565208679008,0.005539685042072257,0.06269244055285805,-0.9931675547847998,0.09842695779261088,0
9,1.8333667000333667,0.3281376916958139,-0.9372212186202894,-0.11807642718359418,0.14175544406569085,-0.9885991478286346,0.05076533256304563,0
10,2.033366700033367,0.34367424157386744,-0.9306121550070452,-0.12589294115148286,0.18393637853043587,-0.9817067667935665,0.049185695937239884,0
11,2.233366700033367,0.26855934246233587,-0.8951694505290753,0.3557352026657906,0.21463247854619483,-0.9155995084233933,0.34001535160630286,0
12,2.433366700033367,0.04260292850479941,-0.8281416211769663,0.5588975270630576,0.12757587374495,-0.8812005538158575,0.4552032297697794,0
13,2.633366700033367,-0.21269981079788003,-0.7465272120595682,0.630441045729983,0.00902713736470001,-0.8354902657641881,0.5494310935907118,0
14,2.833366700033367,-0.27223548251275587,-0.7705332091092516,0.5763388028936156,-0.115075321834467,-0.8537352885672196,0.5078323811650264,0
15,3.033366700033367,-0.2590956269949842,-0.9552742509157419,0.14255020732865997,-0.25958023561897664,-0.9414444024018287,0.21517559913303508,1
16,3.233366700033367,-0.2544887579570625,-0.9416893989887352,0.22012848045109146,-0.2846813682139324,-0.934600798516558,0.21325540087898262,1
17,3.433366700033367,-0.2584253464130162,-0.9563422651180538,0.1364764165714461,-0.2938082672885772,-0.9286898450142393,0.2263004061868035,1
18,3.633366700033367,-0.22730931163937468,-0.9596134252146348,0.1657484569758366,-0.2966406296431848,-0.9189597865658298,0.2598408118825441,1
19,3.833366700033367,-0.19808187063576926,-0.9621364733023267,0.1872350909065814,-0.2895900435809747,-0.9105787106107625,0.29493053155143306,1
20,4.033366700033366,-0.1891671640742389,-0.9605278844623092,0.2039656029983253,-0.2794487698327532,-0.9068243944487854,0.31555966578692296,1
21,4.233366700033367,-0.10106262627505502,-0.782969675017751,0.6137954330010825,-0.24935373716776021,-0.8731127007509669,0.4189235318621101,0
22,4.433366700033367,-0.11855671200287482,-0.756531965419026,0.6431202775051438,-0.23590106619329682,-0.8214894736842896,0.5191394144107868,0
23,4.633366700033367,-0.12627802863656912,-0.7314296229412427,0.6701227993194186,-0.2263657437978041,-0.810789821726565,0.5397947897298307,0
24,4.833366700033367,-0.09928202311177259,-0.7094327196604594,0.6977451512995254,-0.21914437443423454,-0.7985127410922023,0.5606720480523761,0
25,5.033366700033366,-0.34277675289081205,-0.9234119498707757,-0.172668666855001,-0.21675204045261043,-0.8789990289589238,0.42471079577625476,0
26,5.233366700033367,0.06821458086800236,-0.9968365635550768,-0.040787700556764235,-0.11831495149034998,-0.969097611694431,0.2164518220343416,0
27,5.433366700033367,0.08571653266160867,-0.9943568551894244,-0.06250696414216247,-0.07752949435575263,-0.9844878032583221,0.1573942271512669,0
28,5.633366700033367,-0.0351724237737861,-0.997199986335177,-0.06599308947912626,-0.2214600107026649,-0.9651640442682711,0.13933352543910912,0
29,5.833366700033367,-0.02851279873717283,-0.8734271340759706,0.4861193904464313,-0.23790495226460884,-0.9072632219362864,0.34680640105073474,0
30,6.033366700033366,0.08775386068434188,-0.8641372154960917,0.49554629726157223,-0.1531700721167642,-0.9138315401598085,0.37609951504475175,0
31,6.233366700033367,0.3865697698425369,-0.7703612512991322,0.5070575465770366,0.02003672271969359,-0.9209837101774618,0.38908551159148924,0
32,6.433366700033367,0.3310154412124007,-0.6099097947553754,0.7200269577872872,0.11158976941816007,-0.8446799164652039,0.523510804168871,1
33,6.633366700033367,0.3137154927277396,-0.5773171532632771,0.7538484557061702,0.12428279699720318,-0.7868910184070427,0.6044471122611798,1
34,6.833366700033367,0.4055199534222548,-0.6886072524525051,0.6011435928679805,0.1733647790624177,-0.7833028012800042,0.5969768629415527,1
35,7.033366700033366,0.4385758332851337,-0.6969152708724069,0.5674154947506197,0.24460106324588904,-0.7903332150920598,0.5617327914420063,1
36,7.233366700033367,0.22002093839019943,-0.4123042286033466,0.8840791874858809,0.26213612387924506,-0.7808217814830041,0.5670996368534131,1
37,7.433366700033367,0.06362568036748337,-0.6104629806736014,0.7894850993051594,0.15697688965735473,-0.7752249406929729,0.6118697144336196,1
38,7.633366700033367,-0.09836845605360556,-0.6894617402370603,0.7176114238241436,0.007307568659743191,-0.7982217131871321,0.6023194302335622,0
39,7.833366700033367,-0.18465641841403252,-0.7468203767710162,0.6388750519296392,-0.08906088541336504,-0.8298697837299673,0.5508033231030515,0
40,8.033366700033367,-0.31330507143221953,-0.8814545285500708,0.35338059696794943,-0.1654002210530317,-0.8732944357710679,0.45825712796082124,0
41,8.233366700033368,-0.34049395174535546,-0.8649125773206535,0.36876835875299324,-0.34124396640677135,-0.8412021491201169,0.4194418907389569,0
42,8.433366700033368,-0.5032273196448339,-0.8161222747509854,0.2840892419968649,-0.5188148604815019,-0.773767537873442,0.36347618612067495,0
43,8.633366700033367,-0.7665502332754736,-0.6274865027700854,0.13660683989714784,-0.65110406815135,-0.6849104768233142,0.3270491265458801,0
44,8.833366700033368,-0.7904485051950503,-0.6047209709909778,0.09748696260854353,-0.7741727261333103,-0.5696757580642365,0.2759096243070477,0
45,9.033366700033367,-0.893815955872909,-0.43232606631883014,0.11911007265670286,-0.8372728624082253,-0.4686747768228073,0.28163470568243004,0
46,9.233366700033368,-0.7116031085850829,-0.2626744432113639,0.6516311477635542,-0.8351496151565758,-0.28750095979953194,0.46890118193300784,0
47,9.433366700033368,-0.6796316768039004,-0.0669792700348354,0.730489261570846,-0.8280936990575289,-0.13022827669781561,0.5452535387592966,0
48,9.633366700033369,-0.6906802518055558,-0.047285821595004246,0.7216126667692994,-0.8300056503262089,-0.07057681761519827,0.5532716631473894,0
49,9.833366700033368,-0.6776057845464034,-0.04567617135792328,0.7340055095973974,-0.8124452255655185,-0.03895771459276951,0.5817345201460046,0
50,10.033366700033367,-0.6964741534026856,-0.019099507135167688,0.7173276534953926,-0.8124688560950696,-0.003649667580409032,0.582993171316888,0
51,10.233366700033368,-0.8440391807177858,0.24626771620932217,0.4763927721600042,-0.8409796214239704,0.05576962365494826,0.5381849360832958,0
52,10.433366700033368,-0.8606569221787127,0.4677193493428155,0.20126667025664935,-0.9088508770285175,0.3073566763416329,0.28199637733970934,0
53,10.633366700033369,-0.8396483517729751,0.5408502616877764,0.049715589076167,-0.83800679419043,0.5142622061079316,0.18242531693731964,0
54,10.833366700033368,-0.4532046277039644,0.8862750674633096,0.09550952947542579,-0.7404886253603138,0.6520771964916567,0.16270195305396531,0
55,11.033366700033367,-0.30888588941989914,0.9461561721143198,0.09684010164831312,-0.4046533414184622,0.9045392547338315,0.1344039059121362,0
56,11.233366700033368,0.1873060533539076,0.9410358199229008,0.28172331816698554,0.03165081889610133,0.9866450734108928,0.1597802390072713,0
57,11.433366700033368,0.5460414545013701,0.7402542898250172,0.39225287298079514,0.4078587568962912,0.8875740291063182,0.21415783263515803,0
58,11.633366700033369,0.8953244891810213,0.36509490290186275,0.255146567579936,0.7213970080399331,0.6479551680984484,0.24441861002293633,0
59,11.833366700033368,0.9753739051336097,0.21990929525406672,-0.016901095978424572,0.8826803573418623,0.441077764691717,0.1622522488515974,0
60,12.033366700033367,0.9818462951635033,0.1684375433856508,-0.08721609170279222,0.9532677737014051,0.30124105503245463,0.02311662573345441,0
61,12.233366700033368,0.943615970795106,0.3175224848831748,-0.09363958166301246,0.9539517457644306,0.29858667894117846,-0.028671622065611548,0
62,12.433366700033368,0.9898082910235503,0.0967820077055278,-0.1044643001485502,0.945220879052801,0.3222146789570922,-0.05229904843521299,0
63,12.633366700033369,0.983751702865229,-0.14288753832742968,-0.10870022309309944,0.9751510088878562,0.21330422033340146,-0.059848303676516536,0
64,12.833366700033368,0.9609042904739622,0.21840601695667727,0.17018153926278556,0.9900330296351973,0.1373703217217982,0.031048267929177007,0
65,13.033366700033367,0.9264439502243145,0.30698159627245447,0.2178621276008839,0.9642747314954317,0.23210884032391682,0.1276703898439255,0
66,13.233366700033368,0.8520291070747833,0.4219798622871618,0.3098054171919136,0.8039189539012128,0.5504800904493199,0.2251354827149381,0
67,13.433366700033368,-0.05259986179781734,0.9563923238523581,0.28730989787185784,0.23303664959337372,0.9508224690129992,0.20403566444697696,0
68,13.633366700033369,-0.5145792294616955,0.8399672008353389,0.17223042160853388,-0.4140438438147564,0.9025953043360311,0.11785334950543047,0
69,13.833366700033368,-0.8486598763406232,0.39827368606667185,0.34807252875856864,-0.8640729613341964,0.47535676084536954,0.16557133631685822,0
70,14.033366700033367,-0.9456233921245706,0.009542900985422612,0.32512356621383703,-0.9493856013277642,0.10615280383965414,0.29563247830456646,0
71,14.233366700033368,-0.8597083210965929,-0.093996967019974,0.50206192130884,-0.8952877688909375,-0.0299315192159521,0.44448162507769934,0
72,14.433366700033368,-0.9898198399864648,-0.14128252482426001,0.01720269015159714,-0.9418878736375111,-0.08511235051150319,0.3249663386952789,0
73,14.633366700033369,-0.9751788598705883,-0.21770629454842594,-0.040375247064183474,-0.9598243912783773,-0.19354107001803797,0.2031723212530817,0
74,14.833366700033368,-0.7814034234690155,-0.6161688461791951,0.09871495727143957,-0.8575922513209308,-0.4761244892624075,0.19452763608009388,0
75,15.033366700033367,-0.5746213317028505,-0.8071512520067121,0.1353409824703525,-0.7428112742266078,-0.6341957645060515,0.214539374391808,0
76,15.233366700033368,-0.6635229816683031,-0.6688646303233979,0.335197492682074,-0.7197750975355658,-0.630309014053686,0.29091984423606654,0
77,15.433366700033368,-0.6557802627811524,-0.42675772078311186,0.6227600619007986,-0.7135669634663859,-0.4461940875636052,0.5401231571342255,0
78,15.633366700033369,-0.6951170053308335,-0.26619521873512103,0.6677967163908903,-0.7503166294651278,-0.26716201785687715,0.6046895168288696,0
79,15.833366700033368,-0.6744703210451862,0.005700327425119234,0.7382799552313809,-0.7668893454206205,-0.12000120733691083,0.630460500045813,0
80,16.033366700033366,-0.5201802895161342,0.08688744802601654,0.8496252337203958,-0.7266115675864993,0.008487137179828685,0.6869960686583156,1
81,16.233366700033365,-0.4964607534880974,0.28827210145331056,0.8187954053179113,-0.7035664316647863,0.08803214414242237,0.7051557401256601,1
82,16.433366700033368,-0.49007073892514436,-0.030900068083613293,0.8711348096832034,-0.6999230097634858,0.14296457293597353,0.6997634681010854,1
83,16.633366700033367,-0.6238606686680918,-0.02366622272728887,0.7811771732397359,-0.7280835833708537,0.13868398533476856,0.6713129284004018,1
84,16.833366700033366,-0.7350517820149529,-0.021489366608601762,0.6776703364316632,-0.767560984634357,0.10356565910135931,0.6325537835805248,1
85,17.033366700033366,-0.6924190429682953,-0.03984734164230112,0.7203943769206643,-0.7735556240771059,0.08477952182024187,0.6280319491384261,1
86,17.233366700033365,-0.6568382413826597,-0.051849845173960074,0.7522467136603332,-0.7765071902848302,0.06884760239836517,0.6263358452778792,1
87,17.433366700033368,-0.5346222521966569,0.021232225910157974,0.8448243841409139,-0.7685517041804076,0.054433527052265215,0.6374678573340319,1
88,17.633366700033367,-0.537996795911023,0.03388370809310037,0.8422656005770003,-0.7626640910790804,0.06130944024970372,0.6438824711970254,1
89,17.833366700033366,-0.6187182499998014,0.23164249999826048,0.750686005805183,-0.7642640240663561,0.07703032811151615,0.6402865218548122,1
90,18.033366700033366,-0.584358122940292,0.0036902689960057584,0.8114875021024266,-0.7676913947951454,0.04339155950595958,0.639348961773713,1
91,18.233366700033365,-0.5584141776892988,-0.03314634124278767,0.8288998288199853,-0.7453365942784339,-0.009001451611543958,0.6666275835114462,1
92,18.433366700033368,-0.5360150957909268,-0.0007028999716718929,0.8442081040927489,-0.718021160085506,0.002287263167897645,0.69601751565364,1
93,18.633366700033367,-0.6233888416340008,0.4670739064842452,0.6270791959615355,-0.7049216513847576,0.09743278367626465,0.7025612557450638,1
94,18.833366700033366,-0.7539733585361914,0.113660949755015,0.646997189420823,-0.7227176393733046,0.07798503885358368,0.6867296028668659,1
95,19.033366700033366,-0.7703797796362899,0.07664503918248768,0.6329617153479793,-0.7428538361022576,0.039327848574232965,0.6682974625978183,1
96,19.23336670003337,-0.7003949307224685,-0.10338329757785837,0.7062285995343129,-0.7455255619650303,-0.04872869538692628,0.6646932756562339,1
97,19.433366700033368,-0.6870605711045198,-0.11866552682730813,0.7168446584695521,-0.7391450250342477,-0.09006746343377918,0.6674971790185527,1
98,19.633366700033367,-0.5198297591041727,-0.0442914271870953,0.8531209123139746,-0.7272554031431543,-0.1003000354613833,0.6789988817999141,1
99,19.833366700033366,-0.5275887702811797,-0.0306345822959616,0.8489473551644675,-0.728435855882799,-0.09056854322532588,0.6791012758361867,1
100,20.033366700033366,-0.5514879252109335,-0.01849416007802511,0.8339778380685833,-0.7425635213753412,-0.07691417651850314,0.6653447423502601,1
101,20.23336670003337,-0.5735741922891036,-0.020637717722508116,0.8188936014813579,-0.7580732514438423,-0.07459709706053953,0.6478890480286742,1
102,20.433366700033368,-0.5799420367129229,-0.017733907949229744,0.8144646969403373,-0.762103105226535,-0.069153067083674,0.6437520565536035,1
103,20.633366700033367,-0.5713440336537244,-0.023053915793885833,0.8203868064363667,-0.7573086622705731,-0.0735582221333418,0.6489012082024018,1
104,20.833366700033366,-0.5577729962102266,-0.02999089723510673,0.8294515240697915,-0.7519510610214138,-0.08447425170473237,0.6537841406975974,1
105,21.033366700033366,-0.5493327008428265,-0.03299685918811577,0.8349519693182631,-0.7469023077880514,-0.09008673905121793,0.6588029463109595,1
106,21.23336670003337,-0.518713119648846,-0.2582588291856332,0.8150086359369624,-0.7439443722952634,-0.08704255624913232,0.6625483864079842,1
107,21.433366700033368,-0.6705614303922011,-0.05624395679274558,0.7397188556435894,-0.7558390608583686,-0.0853974722263333,0.6491645290818749,1
108,21.633366700033367,-0.6809632899434082,-0.07270148506764325,0.7286998640170105,-0.7673116684496002,-0.11755253935820226,0.6304079662817795,1
109,21.833366700033366,-0.7872118907998499,0.0047099993251681896,0.6166646210783316,-0.769364713488516,-0.12896303215554974,0.6256568340360236,1
110,22.033366700033366,-0.7899477896844572,0.015269085748483268,0.6129839676476428,-0.7686023824079089,-0.1210916215170113,0.6281617601822539,1
111,22.23336670003337,-0.6857812085006937,-0.21659649328319625,0.6948309817248729,-0.7739928528153981,-0.13024374167125932,0.619654445272647,1
112,22.433366700033368,-0.6810402322922631,-0.2182630107980109,0.698960270771299,-0.7714963703708727,-0.1334666434693562,0.6220771701208725,1
113,22.633366700033367,-0.6811687243611418,-0.20916034665389452,0.7016132256021383,-0.7686787224826209,-0.12496513424095983,0.6273091238190507,1
114,22.833366700033366,-0.6181812641562413,-0.07073808620034634,0.7828461201327525,-0.7686153067466449,-0.11658653841331597,0.6289976862402291,1
115,23.033366700033366,-0.6214801800712939,-0.07250901391636201,0.7800671949770924,-0.7712817140465174,-0.1167698205278718,0.6256910792007149,1
116,23.23336670003337,-0.6245396846898263,-0.07525771299533754,0.7773586423795927,-0.7753794630360509,-0.11972324583047958,0.6200427668393046,1
117,23.433366700033368,-0.6255650186781455,-0.08599039561226834,0.7754186348474335,-0.7743200930512926,-0.13395263136664054,0.618453786508734,1
118,23.633366700033367,-0.6329606571172169,-0.08485594339922195,0.7695195094418135,-0.777898832742405,-0.14282357671091206,0.6119434875488965,1
119,23.833366700033366,-0.6455386822224007,-0.06199641967618296,0.7612071030290646,-0.7863548463577235,-0.13002472561003903,0.603936773462053,1
120,24.033366700033366,-0.6561833036991864,-0.04809465290598206,0.7530673119371699,-0.7944471653043776,-0.12099571107591592,0.5951585834389624,1
121,24.23336670003337,-0.6611979719146008,-0.044618676831891954,0.7488834459472246,-0.7988062904056243,-0.1208689167848573,0.5893209782144707,1
122,24.433366700033368,-0.6592353682150269,-0.04612229225956093,0.7505207948159208,-0.797902923808846,-0.1242407604026328,0.5898433331248821,1
123,24.633366700033367,-0.6313474010270494,-0.1630942814183665,0.7581561281062211,-0.7956604133021634,-0.12844579249441504,0.5919680608734835,1
124,24.833366700033366,-0.6324221907750108,-0.1674320869680994,0.7563125470788138,-0.7956342617146681,-0.13445079162619605,0.5906683555235075,1
125,25.033366700033366,-0.7463165394613176,-0.2598801313393184,0.6127592841088108,-0.8016729196903798,-0.1381875649096859,0.581570912906959,1
126,25.23336670003337,-0.760469418467735,-0.10466526053139953,0.6408833332309707,-0.8045529396944262,-0.13701380708520117,0.5778596576134001,1
127,25.433366700033368,-0.7625698125313402,-0.05202738717359721,0.6448103845316119,-0.8046586518201533,-0.1313089118392381,0.5790357706761896,1
128,25.633366700033367,-0.7628146033763972,-0.05200764779675635,0.6445223700123672,-0.8043876326104705,-0.1324449347968325,0.5791535856316407,1
129,25.833366700033366,-0.7610242006810408,-0.05158791017372871,0.64666904479934,-0.8020174052101583,-0.13345829380274227,0.5822001078282498,1
130,26.033366700033366,-0.7611957782765222,-0.05107288302709844,0.6465079641839687,-0.802900045692657,-0.13388644960755924,0.5808837536359681,1
131,26.23336670003337,-0.7645836375408284,-0.05236755611374439,0.6423935711629667,-0.8078556736792488,-0.13630441342607583,0.5734024044114396,1
132,26.433366700033368,-0.7659752679593227,-0.051279125826643,0.6408216133442279,-0.8106107393808845,-0.13607131549786858,0.5695566927875184,1
133,26.633366700033367,-0.7691459843778777,-0.04281327709940303,0.6376374189297516,-0.8157682157800304,-0.12931214156105544,0.5637380492462427,1
134,26.833366700033366,-0.7707141537499278,-0.03649990930082728,0.6361347733228894,-0.8188014093000806,-0.12272015797272866,0.5608065753496039,1
135,27.033366700033366,-0.7728565532631979,-0.034551781425973344,0.6336394262342122,-0.8220780479339984,-0.12071117674023,0.5564319319692357,1
136,27.23336670003337,-0.7729259397202254,-0.03878897354561648,0.6333094877221442,-0.8230348168209576,-0.12345789045570969,0.5544112549224798,1
137,27.433366700033368,-0.7646756046948056,-0.043227474144375326,0.6429639220545202,-0.8213104655328753,-0.12321067806983209,0.5570172780226338,1
138,27.633366700033367,-0.7591370559622479,-0.04764482585718429,0.6491847971371555,-0.8215085858999209,-0.12403687180220456,0.556541550763495,1
139,27.833366700033366,-0.7580998349583933,-0.05777377073778606,0.6495743465153123,-0.8234031174635174,-0.1312970289993236,0.5520583269250743,1
140,28.033366700033366,-0.7515675468993063,-0.06299894760744673,0.6566409635775957,-0.8200419050622949,-0.13406535306917836,0.5563791468488362,1
141,28.23336670003337,-0.7435386001922892,-0.06056195847171729,0.665944892021976,-0.8161499264357795,-0.12938962283009375,0.5631674911451814,1
142,28.433366700033368,-0.6995302331974067,-0.18912933555691164,0.689120850993919,-0.8190971449418112,-0.12330819862283085,0.5602454420167705,1
143,28.633366700033367,-0.8459629911729641,-0.05978949016363097,0.5298790752913959,-0.8251647349315235,-0.12352672803262862,0.5512207431573504,1
144,28.833366700033366,-0.8464871032881423,-0.056059424629365806,0.5294496433817614,-0.8270889182515209,-0.12124440404454473,0.5488385152241162,1
145,29.033366700033366,-0.8443512494262423,-0.05211003345794817,0.5332499526538707,-0.8223492674876892,-0.1185272799794964,0.556500643452569,1
146,29.23336670003337,-0.7112708096399045,-0.05725133224410031,0.7005827005503852,-0.8182980286942002,-0.11107200941613309,0.5639604108086387,1
147,29.433366700033368,-0.6976880019077927,-0.06094846209661202,0.7138044108591439,-0.815482681932543,-0.11094024704081495,0.5680495198964874,1
148,29.633366700033367,-0.6977364919975174,-0.06343030827603853,0.7135407372582206,-0.8143639384651211,-0.11289459616932115,0.5692681142338315,1
149,29.833366700033366,-0.7063745613022641,-0.06691898174958442,0.7046678856217538,-0.8189273598165829,-0.11660821329195953,0.5619257103360713,1
150,30.033366700033366,-0.7125992442410378,-0.0666190438649316,0.6984011885024427,-0.8232299791519772,-0.11655248614558623,0.555614902066817,1
151,30.23336670003337,-0.7138272230546499,-0.06970384987914428,0.6968443649324525,-0.8244058309290043,-0.12092557629526632,0.5529304033311209,1
152,30.433366700033368,-0.7146964746975324,-0.0700766114706585,0.6959153810483785,-0.824836757306576,-0.12231568960200305,0.5519811553605425,1
153,30.633366700033367,-0.716286675115142,-0.06913769301472464,0.6943726510002369,-0.8259537351687678,-0.12230227147208807,0.5503113498316466,1
154,30.833366700033366,-0.7221570721553165,-0.06826132303517096,0.6883527837624751,-0.828885702538447,-0.1192934108472001,0.5465506145415873,1
155,31.033366700033366,-0.7349594646160333,-0.07776613142815336,0.6736371532019394,-0.8344088730463292,-0.1260935604173999,0.5365279550990969,1
156,31.23336670003337,-0.7390147849582951,-0.07913034407535063,0.6690258113552581,-0.835455124726273,-0.1260891587604931,0.5348983628799764,1
157,31.433366700033368,-0.7424608352682445,-0.0783769296329939,0.6652886328459895,-0.8376637750288969,-0.12272738498732279,0.5322193053418026,1
158,31.633366700033367,-0.7464268003712786,-0.07879430542185208,0.6607862658383445,-0.8398488124261774,-0.1214664585349651,0.5290556414190414,1
159,31.833366700033366,-0.745815256177092,-0.0778344704015672,0.6615900534853938,-0.8377929461542755,-0.12013330571527214,0.5326077057573059,1
160,32.03336670003337,-0.7466983856980599,-0.08202895912886544,0.6600854267897047,-0.8353390297352689,-0.1280551583075379,0.5346125530061666,1
161,32.23336670003337,-0.7000956147017401,-0.23418068228170816,0.6745558081593153,-0.8335840054067107,-0.13204379240715702,0.5363787307647842,1
162,32.43336670003337,-0.6953545209394505,-0.2328956701074844,0.6798835908111427,-0.8332276043286161,-0.13115807212191413,0.5371492525379313,1
163,32.63336670003337,-0.6974580248250031,-0.23824655843777576,0.6758630637930736,-0.8358724105469758,-0.13582538741862407,0.5318540941075558,1
164,32.83336670003337,-0.6968468829735524,-0.24816291908611773,0.6729187077802944,-0.8348628880007587,-0.14674878170499298,0.5305362883980071,1
165,33.03336670003337,-0.696215789285248,-0.24670278500128348,0.6741077885787479,-0.833527153855267,-0.14889798760964856,0.5320355938015191,1
166,33.23336670003337,-0.6968228060607213,-0.23510279949813054,0.6776168907441755,-0.8334371815827666,-0.1470594870139021,0.5326874990410254,1
167,33.43336670003337,-0.737801362334382,-0.1400798231315485,0.6603232487872618,-0.8363562727871868,-0.14657202185277232,0.5282280070003059,1
168,33.63336670003337,-0.7382472883455408,-0.1386370139742902,0.6601293203659027,-0.8386610393351772,-0.14202820960360144,0.5258095175803078,1
169,33.83336670003337,-0.7449036850881554,-0.13602014368074006,0.6531592611723095,-0.8444788084028299,-0.13807777079066227,0.5174843682392913,1
170,34.03336670003337,-0.7474536609521699,-0.1356579121829657,0.6503152739951276,-0.8482037412904144,-0.13631140250334092,0.511829673630316,1
171,34.23336670003337,-0.7471432592438341,-0.13800432011992314,0.6501782507856897,-0.8513391875196072,-0.13797938099572107,0.506145510909158,1
172,34.43336670003337,-0.7432918777703601,0.07901883194432421,0.6642839819224657,-0.8488586113317269,-0.1361491415998574,0.510786128638586,1
173,34.63336670003337,-0.7355799937017196,0.08704637096111861,0.6718221506978449,-0.8424040504124718,-0.13253920286982582,0.5222918490186239,1
174,34.83336670003337,-0.7418832688777833,0.08975260834773963,0.6644950599169207,-0.8408384129045348,-0.1310253308728937,0.5251886575829983,1
175,35.03336670003337,-0.7487097936021251,-0.045857275308370825,0.6613098783970763,-0.8489018130515412,-0.12746625941476797,0.5129503528691775,1
176,35.23336670003337,-0.7489081765273833,-0.05349262758364857,0.6605112277051972,-0.8530916867328002,-0.12749262973650288,0.5059448620059872,1
177,35.43336670003337,-0.7513083523782038,-0.05121499174896372,0.6579610811187104,-0.8577493058999716,-0.12400517457576002,0.4988876074894549,1
178,35.63336670003337,-0.7513686576526974,-0.05298599607994168,0.6577519475581965,-0.8577853233345343,-0.12479173226231209,0.4986294843176039,1
179,35.83336670003337,-0.8289869640180846,-0.14460998056481955,0.5402486159252253,-0.8602179416062606,-0.1267156139682536,0.49393141843310295,1
180,36.03336670003337,-0.8456327032582008,-0.1640370436289795,0.5079342275311758,-0.8645639956781954,-0.13533092307351915,0.4839572694329762,1
181,36.23336670003337,-0.8520809951437589,-0.1705307969764215,0.494850709807926,-0.8684044857523414,-0.14708636366910105,0.47353906992751166,1
182,36.43336670003337,-0.8571753891547231,-0.17805232319810566,0.4832677543879856,-0.8737012689146957,-0.1644131458388266,0.4578366632023171,1
183,36.63336670003337,-0.8765602387561081,-0.1594266842590208,0.4541203366708094,-0.8891965026368849,-0.16574495700702585,0.42644834262202447,1
184,36.83336670003337,-0.9539431108623245,0.053800272919499924,0.29512382464331527,-0.9057656262628881,-0.1327115305421081,0.4024627683920203,1
185,37.03336670003337,-0.9632654474826727,0.09843301609203137,0.24986119952692162,-0.9331919793880058,-0.0797100831604182,0.3504269285435343,0
186,37.23336670003337,-0.9612664195451487,0.27083815548283396,0.051123029932766184,-0.967417688218203,0.052912993223880544,0.2475948942741703,0
187,37.43336670003337,-0.9258646146755312,0.3714021528637957,0.06953528701219255,-0.9552268491114999,0.22691888468355342,0.18986702323070295,0
188,37.63336670003337,-0.8675609278674725,0.4965748110104237,0.027413381909071576,-0.9184102207860221,0.3633949871597638,0.15641850805747015,0
189,37.83336670003337,-0.6628558351799996,0.7486270957942941,0.01340198531660797,-0.8786916593134558,0.46194274664092294,0.12045690797461935,0
190,38.03336670003337,-0.9066523482789621,0.42186970641686633,0.0027331608058873526,-0.8613749962144553,0.4917514184955616,0.12733286419518847,0
191,38.23336670003337,-0.9084095333045334,0.41788076889116677,-0.012953099720419968,-0.8621658892989676,0.49338461330751293,0.11507216292707928,0
192,38.433366700033375,-0.5307504341116427,0.8450923035597441,0.06421039755669239,-0.8139376028542219,0.5708871204383357,0.10767299743922899,0
193,38.63336670003337,-0.4156940617634334,0.9079935972654731,0.05240299933710806,-0.7079924203499561,0.698424841090931,0.10463973468104318,0
194,38.83336670003337,-0.25233821097101833,0.9641138101482636,0.08252265364943258,-0.5572465982098406,0.8225985867777909,0.11317152386860349,0
195,39.03336670003337,-0.16376756506064843,0.983544620825134,0.07628999593688318,-0.4335126652362421,0.8957128595434403,0.09881924067854073,0
196,39.23336670003337,-0.02332692791985186,0.9995131262440473,-0.020721122065983383,-0.30602985665809274,0.9486458457959597,0.08010484434724113,0
197,39.433366700033375,-0.0722606228183243,0.9973212866625752,-0.011342555250624454,-0.3604074933906443,0.9309386692883381,0.058818642720914895,0
198,39.63336670003337,-0.5418339248150837,0.8269425825634483,0.15027296184868683,-0.5036414601282401,0.8582562193150389,0.09869924846193168,0
199,39.83336670003337,-0.6639786809046978,0.7123544394806495,0.22733997417143223,-0.6560139514868195,0.7307971401953607,0.18862988982908105,0
200,40.03336670003337,-0.7510077450817121,0.4874973922294879,0.44534667327457517,-0.7344991241363692,0.5902091396516777,0.3349092535516651,0
201,40.23336670003337,-0.7401501427425051,0.2855969534309463,0.608779226312143,-0.7671931975066308,0.473908033936471,0.4322334705573142,0
202,40.433366700033375,-0.7532032102341173,0.2890338398432449,0.5908843909924255,-0.7882228617224589,0.424932482697689,0.4451259433086727,0
203,40.63336670003337,-0.7895077966793567,0.1026633539894348,0.6050931124464629,-0.8132164312030463,0.36999191884388677,0.449204870868071,0
204,40.83336670003337,-0.79068188375649,0.0880096380062267,0.6058683539493557,-0.8576810271534894,0.24522095195889432,0.4519401955804659,0
205,41.03336670003337,-0.7660009762763277,-0.002751860815652117,0.6428335177989434,-0.8762657284443982,0.12784011209887022,0.4645592307686465,0
206,41.23336670003337,-0.7579077777103199,-0.02407861023431922,0.6519171887712335,-0.8770860445970452,0.05029069937653081,0.4776933283282588,0
207,41.433366700033375,-0.7450759482213081,-0.20234553406573105,0.6355455264776653,-0.8743607399247616,-0.02104594735839668,0.4848199300544596,0
208,41.63336670003337,-0.7384696289673007,-0.25664207891462976,0.623536246278654,-0.8799213816799849,-0.10944414979058528,0.46234223270106184,1
209,41.83336670003337,-0.9038965486919959,-0.16729276892840578,0.39368027474965755,-0.8915813888563917,-0.1705870410516633,0.41950290639058246,1
210,42.03336670003337,-0.9207534919294953,-0.14760813022109767,0.3611438037572744,-0.9082999945701606,-0.18754626033081456,0.37392181014186954,1
211,42.23336670003337,-0.9208640539922408,-0.1386028694563785,0.3644154753072837,-0.9134105652026886,-0.19597954609601587,0.356753636124574,1
212,42.433366700033375,-0.9184882349996278,-0.10969661392589472,0.37992896054454955,-0.9165672021723146,-0.18519004446696238,0.35441389833405185,1
213,42.63336670003337,-0.9250243801952744,-0.07105901971244287,0.3732030436127967,-0.9281650593766652,-0.15545011561580127,0.33814920391351777,1
214,42.83336670003337,-0.978594094900457,-0.006682647969402375,0.2056913698774757,-0.9402269422005693,-0.11210328901270149,0.3215682660846712,1
215,43.03336670003337,-0.9975392762942694,0.045209833746820915,0.053586035334689794,-0.9573083861759596,-0.04634771741020287,0.28532883283685884,0
216,43.23336670003337,-0.9851228645746672,0.12950988098116842,-0.11296075610780038,-0.9652628819781193,0.07142238121391857,0.25132929024892664,0
217,43.433366700033375,-0.9012105012328409,0.368462901982291,-0.2281550401162337,-0.8990149511395256,0.3918439105262417,0.1955261297399898,0
218,43.63336670003337,-0.9263412288232005,0.1876631105989017,-0.3266106010261571,-0.6984125221055418,0.7116780402138657,0.07572526687656725,0
219,43.83336670003337,-0.5603647887338329,0.6338560658808499,-0.533120803658363,-0.5787662689418924,0.814465728835573,0.04092899323731139,0
220,44.03336670003337,-0.7647181466895793,0.36062898847641955,-0.5339970868779431,-0.6781660774990017,0.7344941325876114,-0.024680772354016372,0
221,44.23336670003337,-0.7238716658928044,0.3375848319723097,-0.6017028274321168,-0.8173954037023956,0.5756999664753414,-0.020839928178593085,0
222,44.433366700033375,-0.8143805349805013,0.02060323642315563,-0.5799653876687508,-0.952587022652585,0.3041523686804079,0.008324716210210201,0
223,44.63336670003337,-0.7992598991320305,-0.3381027733534184,-0.4968602703881482,-0.9967059321808951,0.075666201022666,0.029187510654566602,0
224,44.83336670003337,-0.7442279443197944,-0.5807640425467926,-0.32990588624369915,-0.996056522411225,0.00431632631574007,0.08861587605611512,0
225,45.03336670003337,-0.9857301983837552,0.09697969976711908,0.13758965741436643,-0.9940388275202652,0.06046540221822306,0.09072345075406467,0
226,45.23336670003337,-0.9782312789469013,0.18050152392402652,0.10238537371623899,-0.9818748245165534,0.1592029724204318,0.10284086032840543,0
227,45.433366700033375,-0.9328198406976773,0.3541688036866112,0.0664199013545989,-0.9345816734732195,0.3442793478273216,0.08960371793396996,0
228,45.63336670003337,-0.7108608344787979,0.6093835815510373,-0.35118161190491937,-0.8065225656633972,0.5900317677628107,0.03720032400965862,0
229,45.83336670003337,-0.7903392637457178,0.37318843788163203,-0.48589529531921216,-0.6506349134031767,0.7593709598923629,0.005473091721511312,0
230,46.03336670003337,-0.7230723708819277,0.43277303897764924,-0.5383993343246612,-0.6565226263167275,0.754283907572334,0.0058161767165084656,0
231,46.23336670003337,-0.8671285421770363,0.14433389533023008,-0.47671355969883,-0.7867147719409979,0.6172799881199935,-0.006729329565767368,0
232,46.433366700033375,-0.8823449235025873,0.1034298532540479,-0.4590966144778891,-0.8007170642533319,0.5982862112921233,0.030096385019504394,0
233,46.63336670003337,-0.6646006506319867,0.7196919162713433,0.2008719015522627,-0.8777580099219746,0.46793347889976405,0.10285492376439223,0
234,46.83336670003337,-0.9384776611062028,0.3413904950565289,0.05207887757709319,-0.9474510715449692,0.3087199444217176,0.08383592872117317,0
235,47.03336670003337,-0.9233673016204273,0.3794209206149845,0.05858832049042364,-0.9476458678320184,0.3068653479590916,0.08832308533360081,0
236,47.23336670003337,-0.8776510294766297,0.4744458615184235,0.06804259656019371,-0.912914383240218,0.39773867121890755,0.09160392071385652,0
237,47.433366700033375,-0.7945008906817577,0.5997571649998857,0.09518233941858048,-0.8395828980577664,0.5308966620005487,0.11510556704867769,0
238,47.63336670003337,-0.3838808187031166,0.9191718922572506,-0.08808262891200641,-0.6423841885466001,0.7545615124943673,0.13408757648469552,0
239,47.83336670003337,-0.3757156199402301,0.8843591725560235,-0.2770318155897522,-0.3199641022257539,0.9347590994281337,0.15442926964527093,0
240,48.03336670003337,-0.1739873723762128,0.8956980715025807,-0.4092106535272251,0.055046626175792535,0.9930118727897491,0.10439008307908376,0
241,48.23336670003337,-0.08530030402787103,0.9146377947502786,-0.3951728261749541,0.2798467660818859,0.9523461091088383,0.12133703465458133,0
242,48.433366700033375,0.11770365839711211,0.9242413127397464,-0.36321322198544254,0.5430730437638172,0.8189935022729131,0.18526012083514137,0
243,48.63336670003337,0.5065919701201889,0.7606059649022446,-0.4060087954279699,0.6843246487340222,0.7062889515403112,0.18126139155138649,0
244,48.83336670003337,0.7456110877087214,0.6553803826659625,-0.1205846586528884,0.6262841736098331,0.7703659135525506,0.11960139264320054,0
245,49.03336670003337,0.7100310807476609,0.6928983400715863,-0.1254900581653765,0.5703675481632287,0.8136110076561814,0.11277405828895276,0
246,49.23336670003337,0.7015787918853511,0.7064422623754749,-0.09341589108129136,0.5350347619304316,0.8340491933109755,0.13453529894922395,0
247,49.433366700033375,0.6576222343575098,0.7494976975142543,-0.07606706448567707,0.4774247062134603,0.8674520955424233,0.13997325400250393,0
248,49.63336670003337,0.6386328039449503,0.7587435132696069,-0.1282825896086625,0.4675722906493997,0.8734027792197379,0.1361753952375806,0
249,49.83336670003337,0.5090130455400419,0.8171740095111923,-0.27042994961626027,0.5861309957494703,0.789470869161138,0.18217080602470923,0
250,50.03336670003337,0.40278272289945816,0.8575705845198428,-0.31990431491305926,0.7732765769906601,0.6007511562691438,0.2028333890632773,0
251,50.23336670003337,0.7574111830631352,0.5639460991646683,-0.32907916525944947,0.9020350797519414,0.3655611331809735,0.2295599547054129,0
252,50.433366700033375,0.8217911119011516,0.47753185993392594,-0.31084190700147607,0.886585975486155,0.3580646672767713,0.2928395501281169,0
253,50.63336670003337,0.5397160120444657,0.8225559318955868,-0.1791880722765923,0.7724932669414081,0.5048316616311496,0.38522609717531275,0
254,50.83336670003337,0.4399991959997202,0.8570067837718794,-0.2682164798974499,0.6017576749115929,0.7314983966885616,0.3206209542856752,0
255,51.03336670003337,0.1833898373087609,0.9166037223432411,-0.35525453376189453,0.3466750773945709,0.9063016873280206,0.24173051578121235,0
256,51.23336670003337,-0.004818065135906435,0.918654053446065,-0.3950335635556309,0.20438379024151665,0.9605442195269301,0.18863209859382984,0
257,51.433366700033375,0.17809981552918752,0.9839810577156705,-0.00785708376053851,0.09024299512581208,0.9849585335651856,0.14735294020766002,0
258,51.584918251584924,-0.06436353251170535,0.9979226450891002,0.002780305916407131,-0.18155358206329403,0.9701615686944766,0.16070104999115448,1
