,timeStamp,x_gaze,y_gaze,z_gaze,x_head,y_head,z_head,fixations_head
0,0.033366700033366704,-0.9993582966764378,0.02064816579648204,0.029268551607649688,-0.9993122095150885,-0.015993631450123176,0.03345611554125412,0
1,0.2333667000333667,-0.9999651397087765,-0.0028548637594484226,0.007846599271187724,-0.9990951975369419,-0.03764833974252438,0.019783548045055287,0
2,0.43336670003336675,-0.9717744108417634,-0.16241535580881739,-0.17110156817118674,-0.9900973488323762,-0.12181539979984653,-0.06977283286999136,0
3,0.6333667000333668,-0.7740492589922221,-0.6329169140843001,-0.016245753894438202,-0.8742613304508748,-0.48015718077499875,-0.07152767176744959,0
4,0.8333667000333668,-0.47888006833770397,-0.8778627499316649,0.005556296544545246,-0.6329489037974609,-0.7736051192964278,-0.030179539094432002,0
5,1.0333667000333666,-0.4040469111030247,-0.9142132295903774,-0.030988134342627073,-0.4479268819811011,-0.8938582034961078,-0.019468447328941863,0
6,1.2333667000333668,-0.6755085516278583,-0.7343128971495252,-0.06687873920390798,-0.4627587748463437,-0.8863071196105775,-0.017720215300972408,0
7,1.4333667000333667,-0.7356008413905205,-0.6691277790957496,-0.10563814362221602,-0.6634578115741762,-0.7475115997643242,-0.03240587105735313,0
8,1.6333667000333667,-0.975824577892759,-0.1422888682666263,-0.1658923480689256,-0.8640502332394289,-0.4942354549783638,-0.09564784096475211,0
9,1.8333667000333667,-0.9655856849245539,0.1127282671548814,-0.23438562851215558,-0.9568927060587753,-0.2510061588668765,-0.1461241160876972,0
10,2.033366700033367,-0.9566390363235355,0.18628154762955176,-0.2239217255978445,-0.981770923149523,-0.03804486786327648,-0.18622148771664315,0
11,2.233366700033367,-0.8774947078890935,0.45960659266682324,-0.13698473492994673,-0.9706560584388089,0.15520654069977038,-0.18367837635401302,0
12,2.433366700033367,-0.8672142377311076,0.4769170420664236,-0.1431418906647088,-0.9312511619445842,0.32645970530007784,-0.16184972719238142,0
13,2.633366700033367,-0.8115799298414591,0.5656332669901304,-0.1462772188435516,-0.8598848565367782,0.4862148725232513,-0.15554141325037274,0
14,2.833366700033367,-0.1668506712707581,0.9367748769380064,-0.30759337352140786,-0.5745573792471566,0.7909791368064194,-0.21032313969131242,0
15,3.033366700033367,0.35725264877142493,0.8248283345718281,-0.4382108664025405,0.008645162926241845,0.9599989294940138,-0.27987017799030717,0
16,3.233366700033367,0.8230847712105497,0.43355475277036326,-0.3668265744892355,0.632490521521884,0.7160937664019861,-0.29523796826491167,0
17,3.433366700033367,0.9417090445922034,-0.16424992116385098,-0.2936086489375074,0.9016990997344703,0.3347287819743279,-0.2736701957759167,0
18,3.633366700033367,0.9674275358460878,-0.0838665822911917,-0.2388521703095073,0.9738329365159709,0.10059562003469408,-0.20378894225771135,0
19,3.833366700033367,0.9662857199067157,0.015296762046945394,-0.2570173468372111,0.9666997843478536,0.1760464767631693,-0.18573950834727693,0
20,4.033366700033366,0.583498754797641,0.6150773859645515,-0.5302914410252318,0.7950874677399217,0.5430607482402624,-0.27003877937001064,0
21,4.233366700033367,0.06190416481202729,0.44065537472161037,-0.8955393431379117,0.24637420860345918,0.7891557604255791,-0.5626125977279085,0
22,4.433366700033367,-0.05913560357743165,0.4452684614256024,-0.8934422072239534,-0.15940161746588866,0.712151359411311,-0.6836896705654406,0
23,4.633366700033367,-0.42934462087036873,0.30777633205531235,-0.8490800468485042,-0.6017711216371593,0.5058507751415212,-0.6180505727303209,0
24,4.833366700033367,-0.9472394698411102,-0.025526870410141195,-0.31950863159263215,-0.9107582702025516,0.23086845841080447,-0.34237279122131575,0
25,5.033366700033366,-0.92692477146357,0.006672412756488144,-0.37518788220732235,-0.9629312281691301,0.06523905233591673,-0.2617390224383872,0
26,5.233366700033367,-0.9952505428477703,-0.06614260635897184,-0.07142487371540106,-0.9922759211923878,0.0025126588106724993,-0.12402492800844121,0
27,5.433366700033367,-0.9927919539432937,-0.0974862939413514,-0.069717707069563,-0.9957862186706956,-0.06834437609246544,-0.06114616064847998,0
28,5.633366700033367,-0.9974298689543535,0.06285965820700379,-0.034384878766692356,-0.9945580315264031,-0.10365456636897892,-0.010490605186799526,0
29,5.833366700033367,-0.9849356507719099,-0.15117435085628986,-0.08395284081967587,-0.993711026138603,-0.11178966853587509,0.006439451778224743,0
30,6.033366700033366,-0.9848683402917184,-0.14880000526346182,-0.0888420549325015,-0.9931984727290685,-0.11642150568357083,0.0016813039631152977,0
31,6.233366700033367,-0.726496827013339,-0.6871663268009907,-0.002190810440308795,-0.9685350333270041,-0.2485041592932382,-0.013622482601211712,0
32,6.433366700033367,-0.6525805883406197,-0.7414870619013616,-0.15599843830595642,-0.889001192882877,-0.4570336690625349,-0.028233037315521826,0
33,6.633366700033367,-0.5922718988929254,-0.7979153733804936,-0.11200470840476245,-0.797684939921249,-0.6016232207722712,-0.04181192234797199,0
34,6.833366700033367,-0.6116257830667634,-0.7877777410208866,-0.0729392366288394,-0.6729026760295831,-0.7393405034076813,-0.024033489407545697,0
35,7.033366700033366,-0.6254502071526868,-0.7747918158378556,-0.09224792942575795,-0.540996302964075,-0.8408149538323019,-0.018793977524379644,0
36,7.233366700033367,-0.46856101362465497,-0.8831981106691245,0.020289746709244747,-0.44317423608633155,-0.8962896526604835,0.01616957028020397,0
37,7.433366700033367,-0.40671251788400137,-0.913416545284356,0.015973183691688483,-0.3405582786031066,-0.9401940814636235,0.007426173689228361,0
38,7.633366700033367,-0.6343933576454855,-0.7726084655363467,-0.024924420893154508,-0.36880123698064654,-0.9295067175541206,-0.0017057617973221782,0
39,7.833366700033367,-0.7358199602105816,-0.673374638657324,-0.07166297627657174,-0.5033247806095065,-0.8636783289682204,-0.02690556252998061,0
40,8.033366700033367,-0.7327263694245756,-0.672344457102697,-0.10519029685840918,-0.6216901895249615,-0.7819053094881636,-0.04610200909545104,0
41,8.233366700033368,-0.717039166092945,-0.6892432134571569,-0.10391644235628025,-0.6890228700306541,-0.7214553436600305,-0.06891786182919322,0
42,8.433366700033368,-0.6548112497111784,-0.7539457029673624,-0.05280250210676442,-0.7093798042476708,-0.7018569071978847,-0.06463106949568569,0
43,8.633366700033367,-0.6824208536462705,-0.7289115080783741,-0.05467898956277206,-0.7357277041892574,-0.6749581308641663,-0.05600238270605923,0
44,8.833366700033368,-0.7460905320235538,-0.6624522755903091,-0.06712600531859314,-0.7934942579486725,-0.6035021029608443,-0.07843516000062825,0
45,9.033366700033367,-0.687018615805128,-0.7248777294991161,-0.05057369685332653,-0.8245230120236553,-0.5601117630303138,-0.08022852085457527,0
46,9.233366700033368,-0.6866072072633769,-0.7235372882692482,-0.07116414418771039,-0.8328260478012276,-0.5465452216789565,-0.08768748350641697,0
47,9.433366700033368,-0.7010718227285836,-0.7092090599166241,-0.07430214470794018,-0.8449931482911865,-0.5263855436877144,-0.09436545309348378,0
48,9.633366700033369,-0.9550424726379171,-0.270657746032183,-0.12098867703397663,-0.8978522320865794,-0.42706645162475143,-0.10712429805506991,0
49,9.833366700033368,-0.9749720210192807,-0.17797327273961247,-0.13324816103770665,-0.9457562607392199,-0.30367081295927295,-0.11545186282266252,0
50,10.033366700033367,-0.9681368314681634,-0.2151867878867172,-0.12808482296424545,-0.9721832732382536,-0.20002828664533057,-0.1218538787954187,1
51,10.233366700033368,-0.960657403433989,0.23923581050129344,-0.14108004891286346,-0.9858992368250488,-0.10740631387831522,-0.12832216709072325,1
52,10.433366700033368,-0.9561795660509564,0.26016889209813504,-0.13428620573623032,-0.9898428761965455,-0.07069679759391877,-0.1233411660919223,1
53,10.633366700033369,-0.9799697493642766,-0.14381142945557357,-0.13775907624857836,-0.9862384549544667,-0.10044097831916156,-0.13132143710497335,1
54,10.833366700033368,-0.9815988000243983,-0.14425900941323952,-0.12511248536326058,-0.9872517862759249,-0.1085610133861748,-0.11639766693350152,1
55,11.033366700033367,-0.9811750123619214,-0.14581781818364226,-0.12662053157662104,-0.986946162432415,-0.11357250480042577,-0.11418650801774699,1
56,11.233366700033368,-0.9812383419865203,0.16636930213550777,-0.09742982871015064,-0.989692678306693,-0.07926748153902531,-0.11926889316407985,1
57,11.433366700033368,-0.9571112706926242,-0.2681829504721401,-0.10961715463013937,-0.985251019641521,-0.11775002555029546,-0.12415860734660615,1
58,11.633366700033369,-0.9174348235161564,-0.10280427938601748,-0.38437562974231415,-0.9718795865143588,-0.18430624875186732,-0.1465649207269377,1
59,11.833366700033368,-0.9132140654034275,-0.10408691722143161,-0.3939619073117135,-0.964650625832842,-0.20448637126059,-0.1662362597298873,1
60,12.033366700033367,-0.9032046117181172,-0.08274325454748434,-0.4211590948774771,-0.959159853546329,-0.1934337672083517,-0.20638738587561498,1
61,12.233366700033368,-0.9341184881010252,-0.1956352229357909,-0.29857915154062364,-0.9488242315566436,-0.22835115225441624,-0.21814749339615488,0
62,12.433366700033368,-0.9526815628798809,-0.26387860257854207,-0.15088380579088936,-0.9393643848060824,-0.28795334919554605,-0.18621874568624466,0
63,12.633366700033369,-0.950305755923037,-0.28751158034717456,-0.11939874968279844,-0.9310911869579211,-0.3317429260675914,-0.15170969834984993,0
64,12.833366700033368,-0.9412791203613382,-0.31991451578765134,-0.10792738373618789,-0.9120829419493977,-0.3872058374890997,-0.13481968112740939,0
65,13.033366700033367,-0.8590895532387142,-0.4510299151074287,-0.24194452916793208,-0.8724153128826768,-0.4712244207765307,-0.12976543111184938,0
66,13.233366700033368,-0.665868573759415,-0.6641150190927577,-0.33995629703688235,-0.8623840703435071,-0.48297990230533505,-0.15173703960106277,0
67,13.433366700033368,-0.6577777770039701,-0.7382468576839579,-0.14939870548126344,-0.8318956280150365,-0.5349015751338628,-0.14774968361651794,0
68,13.633366700033369,-0.6295435781524884,-0.7748407835212724,-0.05741640357164773,-0.7895255613149477,-0.6024922601295964,-0.11684376112676226,0
69,13.833366700033368,-0.6056405704610608,-0.793481580687919,-0.05988723169927272,-0.7515090875144076,-0.6497652147771215,-0.11418956628739699,0
70,14.033366700033367,-0.6619280245023017,-0.743069921687857,-0.09848036282062893,-0.714531125194211,-0.6911492867564817,-0.10843401009231954,0
71,14.233366700033368,-0.6711593190768376,-0.7343271739558399,-0.10153211317778041,-0.7013388976749854,-0.7040448540097908,-0.11155534120053757,0
72,14.433366700033368,-0.6459033726516678,-0.7558829378719465,-0.10700381970413893,-0.6657324811179779,-0.7371883330369696,-0.1155578868735291,0
73,14.633366700033369,-0.6171563121686436,-0.7796408217626997,-0.10619922500462242,-0.6316140211082047,-0.7665706236713669,-0.11590171380793332,0
74,14.833366700033368,-0.40762402466961883,-0.9109789746253389,0.06292823136484887,-0.5594891993092618,-0.8194961624279378,-0.12408817680248303,0
75,15.033366700033367,-0.4214394505871118,-0.9068332290730168,-0.006502625457368402,-0.38049853836160574,-0.9170374927674876,-0.11942821761795748,0
76,15.233366700033368,-0.38213020208312276,-0.9231884414730719,0.041226328801293066,-0.1683603057661906,-0.9811608915080436,-0.09475290189464257,0
77,15.433366700033368,-0.2728729790187168,-0.959972859104749,0.06318581410177945,0.012511605364430245,-0.9965766094373619,-0.0817222200722469,0
78,15.633366700033369,0.6473081483528882,-0.7619172522856574,0.021777551410323934,0.30922072254303107,-0.9480833238972142,-0.0743004421115775,0
79,15.833366700033368,0.7152441000701433,-0.6988321522223567,0.007713646032851183,0.5627000131956825,-0.8242185928551141,-0.06350123102361169,0
80,16.033366700033366,0.895249892295437,-0.4455394418420857,0.004715517792472302,0.7371673821201923,-0.6710038945490837,-0.07961170917663347,0
81,16.233366700033365,0.9785613921102356,-0.18628946929164444,-0.08782844358358498,0.872576323480418,-0.4786277953934361,-0.09760119455322312,0
82,16.433366700033368,0.98644984934585,-0.14410755691345314,-0.07842006609271472,0.9571780825092293,-0.26463931880835617,-0.11737184204315917,0
83,16.633366700033367,0.9231941937912542,-0.047457103464847605,-0.38139258498408596,0.9776583943102697,-0.11534882082741028,-0.17572340074216417,0
84,16.833366700033366,0.9218946175849221,-0.04627716481286973,-0.384667048348092,0.9798331331963706,-0.07009812688373097,-0.18711836814694613,0
85,17.033366700033366,0.9680433776509427,0.22685062037266795,-0.10691498970065025,0.987302504608084,-0.03701463014891385,-0.15447874141623416,0
86,17.233366700033365,0.9910220785676631,-0.09740004786001642,-0.09158859354906278,0.988675499394332,-0.050204719591477626,-0.14142221546882133,0
87,17.433366700033368,0.9843221608507582,-0.16342915710695943,-0.0663384825376843,0.9627333978062161,-0.23970360938168248,-0.12524609533990289,0
88,17.633366700033367,0.9418445743850586,-0.02644870360637758,0.3350063637887647,0.9592138794285535,-0.28001840661367555,-0.03870950101929607,0
89,17.833366700033366,0.9882165210411327,-0.05379617405072116,0.1432971709381078,0.9843947362931619,-0.17222574347901368,0.036128886523357155,0
90,18.033366700033366,0.9879454228172218,-0.00938834544329412,0.1545176381658054,0.9931493415418713,-0.08465598304987056,0.08054656993818832,0
91,18.233366700033365,0.987079423672435,-0.07792731851352241,0.14000551557630098,0.9949106876432999,-0.04548605560877448,0.0899096344019465,0
92,18.433366700033368,0.9761411237602657,0.05179019016850849,0.2108702983029036,0.9960676153911652,-0.0028072887166352453,0.0885518192869005,0
93,18.633366700033367,0.8491119678870189,0.5272255075515546,0.032282041107096225,0.9693113025996665,0.23802447702578444,0.061481273483393696,0
94,18.833366700033366,0.8686980942917797,0.494960651999187,0.01943126208896115,0.9398003718311038,0.341693264296532,0.004579764240611863,0
95,19.033366700033366,0.9530034033938318,0.30203699436540127,-0.02362556146397884,0.9871709401072958,0.14005221371866344,-0.07667406628176031,0
96,19.23336670003337,0.6388432399885287,-0.2959106070782886,-0.7101522564489376,0.9135845054516839,-0.18789934550618628,-0.3606344234220428,0
97,19.433366700033368,0.664643679647764,-0.2668825762977334,-0.6978699517624792,0.8609093847749019,-0.2912276281494157,-0.4171588424197257,0
98,19.633366700033367,0.4426342969258623,-0.1403774073321827,-0.885646127240244,0.7811577606118253,-0.3776817757033329,-0.4971408546252219,0
99,19.833366700033366,0.28086623322650023,-0.07555404073604148,-0.9567683867904573,0.6668877214125581,-0.3135116547815521,-0.675996456607059,0
100,20.033366700033366,0.15672585949135315,-0.030380877327450314,-0.9871747602423345,0.6010679280262853,-0.2132956736580724,-0.7702092582518972,1
101,20.23336670003337,0.15500641983840827,-0.11822865998522276,-0.9808134347402556,0.5882070518524518,-0.16668743520694865,-0.7913455396318202,1
102,20.433366700033368,0.1651540805451238,-0.1113196910830601,-0.9799653341095625,0.5874811337056607,-0.13324860459211652,-0.7981921616466588,1
103,20.633366700033367,0.18669618162154036,-0.10600057178140104,-0.9766823508950866,0.6016238844383921,-0.12668230074419204,-0.7886699540057417,1
104,20.833366700033366,0.2006676331777836,-0.13569646604362764,-0.9702159399319811,0.613636622310008,-0.1807020346000792,-0.7686331182374045,1
105,21.033366700033366,0.20583213346384588,-0.15880641346072907,-0.96561568746446,0.6185096201523502,-0.2294950209372867,-0.751517055790479,1
106,21.23336670003337,0.21173837698037343,-0.16846376830959572,-0.9626976776125766,0.6248499815741962,-0.24919151181936394,-0.7399095153894878,1
107,21.433366700033368,0.21653005779528212,-0.16394267860567546,-0.962412350400164,0.6336157906458284,-0.24629640958267884,-0.7333956016168515,1
108,21.633366700033367,0.59952540065237,-0.19858668977904917,-0.7753274280039467,0.6666946214008922,-0.250093359569129,-0.7021193582963996,1
109,21.833366700033366,0.6024775934503129,-0.20575181063045478,-0.7711594788450761,0.6887248751582719,-0.2617108543256309,-0.6761401297559342,0
110,22.033366700033366,0.4725551317341808,-0.06013024401493042,-0.8792474061527823,0.6889932175177796,-0.2470562091016399,-0.6813600925786779,0
111,22.23336670003337,0.4605653218532008,-0.05830165956463749,-0.8857090384535244,0.677839642195155,-0.2390609574878125,-0.6952577062311174,0
112,22.433366700033368,0.5564748239663724,-0.0796238533360104,-0.8270403933735766,0.6840295240091083,-0.22947133592465324,-0.6924207653391311,0
113,22.633366700033367,0.6674810720631579,-0.12509115356289455,-0.7340444276320893,0.72948154993699,-0.245274202712108,-0.6385117334751702,0
114,22.833366700033366,0.8395164167013281,-0.18720440384826054,-0.5100653852877883,0.8137737851322515,-0.2611036151866846,-0.5192274345293899,0
115,23.033366700033366,0.9260581935038683,-0.16026149967469172,-0.3416613439743668,0.875794684683054,-0.2794713164760243,-0.3935472697759043,0
116,23.23336670003337,0.8939177022333368,-0.390419864562986,-0.22018962507005438,0.9099624593009236,-0.3150017821839901,-0.2697076192544906,0
117,23.433366700033368,0.8526524455535734,-0.521734899985473,-0.02786577163221989,0.921530673022798,-0.3585124243556577,-0.14916454089621392,0
118,23.633366700033367,0.8482278912201527,-0.5294641734975112,0.013309152445232666,0.9235445605270709,-0.3729758727128356,-0.08918768465970149,0
119,23.833366700033366,0.8572910717993714,-0.5123567239425915,0.050424256503197054,0.9353221856681868,-0.3490709670014519,-0.057635657310014264,1
120,24.033366700033366,0.8621290544058695,-0.5026824054862271,0.06359160922497019,0.9427870528007967,-0.3307109926075678,-0.042223363671132684,1
121,24.23336670003337,0.9831074260259235,-0.17743386731538577,-0.044911152536864514,0.9557708649686625,-0.29246494241693244,-0.031085545420906403,1
122,24.433366700033368,0.9899894828273974,-0.07465651294343346,0.11977991887737004,0.9741336414934754,-0.22596091096868054,-0.0023054771448362183,1
123,24.633366700033367,0.981817456944625,-0.12711082977328558,0.14098694334276674,0.9618436854798449,-0.27099973181330406,0.03762804884214253,1
124,24.833366700033366,0.9985771754122913,0.027282308540158465,-0.04581812290273144,0.9369057475329646,-0.34815591955577246,0.03154482394896955,1
125,25.033366700033366,0.9711843269726896,-0.23667729685914612,-0.02801535639700663,0.9294968757370303,-0.3686309577157586,0.012115073613559615,1
126,25.23336670003337,0.968947620491698,0.17221955792633395,-0.17742866907896934,0.9417226130162963,-0.33638889369530034,-0.001016037504857984,1
127,25.433366700033368,0.8859509589755826,0.43770351420432413,-0.15331840053767426,0.9937133431571017,-0.11193859638992108,0.0018820918658134225,0
128,25.633366700033367,0.9056301639288853,0.4032695485578567,-0.13117803698822036,0.9991778784484178,-0.039075672358189394,0.010800881865568929,0
129,25.833366700033366,0.9218605064184859,0.366567163905718,-0.12570489669050794,0.9977998972607208,-0.06585797242276771,0.007621843271629467,0
130,26.033366700033366,0.9882941898776912,0.09754978030854144,-0.11729720634249353,0.9847092419790678,-0.17369464440190344,-0.013337138640127418,0
131,26.23336670003337,0.9822676558167085,-0.04702344619207193,-0.18149117842079857,0.8794800269046077,-0.4712215735817996,-0.06682148507002404,0
132,26.433366700033368,0.7917537387296814,-0.5637756050001695,-0.23512355138153254,0.4766791338069355,-0.8712973657306051,-0.11669577483344422,0
133,26.633366700033367,-0.343762944250262,-0.9243872786969816,-0.16533359351196736,-0.010607781820026141,-0.9932489298413357,-0.11551639854973199,0
134,26.833366700033366,-0.7117819928313219,-0.6936959782158406,-0.11023740058727881,-0.45297937846868536,-0.8862809966986473,-0.09651775781158649,0
135,27.033366700033366,-0.8014242551642705,-0.5845802622889885,-0.1264321168711968,-0.6925771766937014,-0.7130972823488405,-0.10876175904093999,0
136,27.23336670003337,-0.7101190233942454,-0.7003105342646377,-0.07277450248253958,-0.7983685766402866,-0.5930434280963109,-0.10443710176531379,1
137,27.433366700033368,-0.9717301491333978,-0.21255340700240774,-0.10276948203067676,-0.876623266927766,-0.4694529661949528,-0.10557253625660191,1
138,27.633366700033367,-0.6819420545314072,-0.7309033088823002,-0.02711802585713178,-0.8803427286082629,-0.4688744906625353,-0.07178713110653169,1
139,27.833366700033366,-0.6957227868362383,-0.7178574568863055,-0.025504420588280608,-0.8795567896994597,-0.4704978067340452,-0.07079313209650843,1
140,28.033366700033366,-0.7143811259182591,-0.6992116134443153,-0.027617504528074655,-0.8842564063984932,-0.46254421162333204,-0.06436971366235175,1
141,28.23336670003337,-0.6968797299031377,-0.7168481761685114,-0.022075651157066462,-0.8720725884568308,-0.48686287971101144,-0.049537226625080255,1
142,28.433366700033368,-0.6621962813505962,-0.7492093911598671,-0.013467485411303095,-0.8459637977592234,-0.5316321076954102,-0.04138302729535124,1
143,28.633366700033367,-0.6616353376165481,-0.749313046735207,-0.027724321622681413,-0.8444380894974546,-0.5334144186493511,-0.04892209094942548,1
144,28.833366700033366,-0.8949797196590636,-0.4461061492678275,0.0007778074407333946,-0.8918007140255619,-0.44786418609511963,-0.06410270881057874,0
145,29.033366700033366,-0.9932755621136162,0.08326311423747808,0.08044197607814615,-0.9700817638807722,-0.23507758034909085,-0.060662200777641825,0
146,29.23336670003337,-0.9964432952437332,0.07677023335297882,-0.03474320990840598,-0.9947843172254232,-0.08350550352578669,-0.0585746795403425,0
147,29.433366700033368,-0.986967912285473,-0.14337133619893805,-0.07306846156438712,-0.9966888721021787,-0.03784549211668355,-0.07196534550832734,0
148,29.633366700033367,-0.9509274296665495,-0.2722559379441232,-0.1470160799434377,-0.9941405357040386,-0.04901225259150943,-0.09634518340837554,0
149,29.833366700033366,-0.971497672398748,-0.2148233176688914,-0.1002158406118784,-0.9904616656079581,-0.033213275565517286,-0.13372571662667757,0
150,30.033366700033366,-0.8748591697269208,0.3569180644777312,-0.32746133877786754,-0.9793521418384608,0.026988494602144277,-0.20035219847940178,0
151,30.23336670003337,-0.6876370466895744,0.2844878935304629,-0.6679984509373063,-0.9367114537787361,0.09160247969415533,-0.33790625633984483,0
152,30.433366700033368,-0.5658557535692748,0.2446071756999269,-0.7873846555201934,-0.8710216517328873,0.08607864851018233,-0.4836442375167658,1
153,30.633366700033367,-0.5516562211749695,0.21669271223054332,-0.8054313639939311,-0.8471386085420738,0.06396594898283664,-0.5275078532952135,1
154,30.833366700033366,-0.680905467728974,0.07956214713501157,-0.7280368182723002,-0.8338061512472125,0.04376009844419537,-0.5503202303445378,1
155,31.033366700033366,-0.680746865375344,0.06558766881532894,-0.729576564166513,-0.8324380544110409,0.012694243556267434,-0.5539726904359954,1
156,31.23336670003337,-0.677777695908135,0.07214971953825744,-0.7317183972676994,-0.8295740202140582,0.008734546338359083,-0.5583284451701782,1
157,31.433366700033368,-0.7182880867455291,0.08056329858587437,-0.6910656838249246,-0.8486852619304235,0.008060157794637418,-0.528836799058475,1
158,31.633366700033367,-0.9281428979742227,-0.05216060876987979,-0.36855126079389233,-0.8897401932139303,-0.041246392619275055,-0.45459996004788106,1
159,31.833366700033366,-0.9613818554778291,-0.06432419700309708,-0.2675954514522124,-0.926822264522212,-0.10264590545973512,-0.36119843310605604,0
160,32.03336670003337,-0.9895333747287274,-0.02852437946596794,-0.14145691949868489,-0.9385912586034857,-0.17546747142679225,-0.2970818334133087,1
161,32.23336670003337,-0.9772510147384115,-0.16183629336164224,-0.13707468162906664,-0.9449508698419298,-0.20389372285930576,-0.25592030666508925,1
162,32.43336670003337,-0.978909730283082,-0.17797958676748094,-0.10029459931212997,-0.9478595489725775,-0.2346288475683282,-0.21566543373999614,1
163,32.63336670003337,-0.9780079265810276,-0.18653667449070888,-0.09329825622500511,-0.9515885741256661,-0.23559519393114897,-0.19741856597095028,1
164,32.83336670003337,-0.9734285274965213,-0.20404295507098485,-0.1039392819960504,-0.9520126770771098,-0.2362558339594473,-0.19456372633304822,1
165,33.03336670003337,-0.9947967682467245,-0.06969084384249716,-0.07431403750566395,-0.9515708557154248,-0.24827938037267266,-0.18130156048632487,1
166,33.23336670003337,-0.9623051659886248,-0.24167258537476516,-0.12475227047986945,-0.9522136684875943,-0.24635693908228964,-0.18054746775129096,1
167,33.43336670003337,-0.9522762149777577,-0.2717875572135656,-0.1389299612449314,-0.9483780017531874,-0.26002087908234905,-0.18157177157221907,1
168,33.533533533533536,-0.9494441659795426,-0.28116658124253824,-0.13964644384943672,-0.9446079131113531,-0.2735717401157376,-0.18131297112303346,1
