,timeStamp,x_gaze,y_gaze,z_gaze,x_head,y_head,z_head,fixations_head
0,0.033366700033366704,-0.985042829034822,0.17222427967206344,0.005424247276220588,-0.9829926846100953,0.17437159989071668,0.05761880903480952,0
1,0.2333667000333667,-0.9974665910686894,0.07059748239874652,-0.008740433671563394,-0.9938339209384454,0.09130524473793628,0.0629085834800104,0
2,0.43336670003336675,-0.9938714641074408,0.06719705828883951,-0.08777282147828262,-0.9960262300085986,0.0871188876950388,-0.018494554377923172,0
3,0.6333667000333668,-0.6689347256818499,0.17727780092449266,-0.7218718127731015,-0.9334178201396182,0.07894388996267178,-0.34999862183066544,0
4,0.8333667000333668,-0.5476967140573737,0.13678460372814313,-0.8254200637213095,-0.7994980166949812,0.0577602776202763,-0.5978851659223704,0
5,1.0333667000333666,-0.4837559349456009,0.14452280954998314,-0.8631879012849331,-0.7073967624390105,0.06131986539398034,-0.7041517553758357,0
6,1.2333667000333668,-0.7636601996913925,0.1105238835719125,-0.6360877066627564,-0.7517965424371683,0.06885405755680066,-0.6557904219622942,0
7,1.4333667000333667,-0.917800844429756,0.15665261870462308,-0.36483087453916374,-0.8620286556756004,0.12874651654193503,-0.4902355875213823,0
8,1.6333667000333667,-0.9899293675344261,-0.0019289476170844947,-0.14154902491356855,-0.9374326142558431,0.1290702283913871,-0.3233588871091232,0
9,1.8333667000333667,-0.9660016748905562,-0.25848593171479456,-0.0050781112802603485,-0.9794855461047455,0.0683819934761269,-0.18955729461067908,0
10,2.033366700033367,-0.9430119709484197,-0.3325093878329796,0.01288136836341701,-0.9909711967506974,-0.057633933846763324,-0.12105542895648184,0
11,2.233366700033367,-0.9618100568677863,-0.26128590564332105,-0.08155421521991114,-0.9894199768467624,-0.12378825101307148,-0.07566094321165519,0
12,2.433366700033367,-0.984745243896223,0.16904876959773743,-0.041222786432496016,-0.9939463224949738,-0.10477048379225609,-0.033073459520504105,0
13,2.633366700033367,-0.8959806738218455,0.441400733479923,-0.048826474592559906,-0.996720835558921,0.08058404359264482,-0.007334022156037749,0
14,2.833366700033367,-0.8682359637915559,0.4925159097126329,-0.059953230595902546,-0.9413508732537297,0.33721759078135966,0.011951146056189155,0
15,3.033366700033367,-0.5301860536157343,0.8449400259856864,-0.07056274540209811,-0.5818673596972941,0.8129800541177146,0.022221775933930342,0
16,3.233366700033367,0.6038589028863474,0.7959473234674899,-0.04268821464802974,0.13940803526511503,0.98997997490232,-0.022473295172773102,0
17,3.433366700033367,0.7691189305427459,0.6082089891988557,-0.19631071325449725,0.5079193826082604,0.857471094586786,-0.08222665455302837,0
18,3.633366700033367,0.8101793085377483,0.5168722313095648,-0.27650060491501255,0.6719861041731492,0.7273066570958088,-0.13949803705541222,0
19,3.833366700033367,0.8768365315865565,0.46640742241985456,-0.11671252369358248,0.6848092637614864,0.7119280375761351,-0.15554658973903765,0
20,4.033366700033366,0.9838156299961661,0.15851952465261274,-0.08353661759466188,0.7687128222312672,0.620307219688026,-0.15588312974838317,0
21,4.233366700033367,0.9899263451788309,0.13399136223504537,-0.04573998215214515,0.8526612055104243,0.49245681069979813,-0.17451406308058098,0
22,4.433366700033367,0.9881048579421399,0.11098491532367741,-0.10644781952553091,0.9138863844998582,0.3664813823967483,-0.17465128852186182,0
23,4.633366700033367,0.9702849814125247,-0.03913596368767067,-0.23877904261373992,0.9063353108586019,0.38530827451034666,-0.17347575589891828,0
24,4.833366700033367,0.9623037877067868,0.09050215151853158,-0.2564776417851827,0.8306069077859537,0.5275690596755541,-0.17822191787574218,0
25,5.033366700033366,0.7601669699658984,0.6281258116550535,-0.1661449442671831,0.45992742182952806,0.8710426047583159,-0.17248636857761301,0
26,5.233366700033367,0.3637081661897806,0.907106166868635,-0.2118366632001146,-0.12803871517544774,0.9731693430316003,-0.19117404949329275,0
27,5.433366700033367,-0.9321516939784755,0.22446123179702687,-0.2840957142112847,-0.7187712994160808,0.6409455349269704,-0.2693633983912788,0
28,5.633366700033367,-0.9342762813841996,0.2038712854817971,-0.29251380992854215,-0.9536915290801804,0.1562696973646184,-0.25700632102397364,0
29,5.833366700033367,-0.8659346644075087,-0.4041660157311588,-0.29463025762038797,-0.9284058960019073,-0.2885090652281661,-0.23414741414345253,0
30,6.033366700033366,-0.6572571855244085,-0.7353967986204872,-0.16493799033355502,-0.8010046603697836,-0.5563724199644828,-0.2210005981185409,0
31,6.233366700033367,-0.5909565807254684,-0.8013974206029671,-0.09237149965315834,-0.6310927714369173,-0.7494852591698239,-0.19998439970960985,0
32,6.433366700033367,-0.5682739235150776,-0.8224058673216708,-0.02670837411132994,-0.5440721090438053,-0.8306251679297216,-0.1185216037790073,0
33,6.633366700033367,-0.39303801626922824,-0.9121720937072778,0.11603098391736205,-0.45740507846961365,-0.8875859682614892,-0.05451369676990809,0
34,6.833366700033367,-0.2805188081785724,-0.9559269834194781,0.0866764133349455,-0.1622930708582549,-0.986727966620722,-0.00537392221128436,0
35,7.033366700033366,0.7209395364412265,-0.691362044216134,-0.047588954739493476,0.33736446801879544,-0.941193520414466,-0.018438352643867856,0
36,7.233366700033367,0.6066051322588213,-0.7909259725903223,-0.08041342797885866,0.5951230052319031,-0.8024765170408066,-0.04312827659209633,0
37,7.433366700033367,0.8660015136870192,-0.4772898816539631,-0.14911655562860068,0.7560639826200469,-0.6494258698368144,-0.08132216039561835,0
38,7.633366700033367,0.9373286256481952,-0.2718531949143964,-0.21796992442835025,0.8982274604552236,-0.420152169954826,-0.12907200845423758,0
39,7.833366700033367,0.9750479226305026,-0.07317619464617882,-0.20958719691585617,0.963036389568622,-0.22845754784139324,-0.14271671661347438,1
40,8.033366700033367,0.9827347000674505,-0.03446582816848404,-0.18178178118832097,0.9716287322581107,-0.18272080812231606,-0.15016894795404487,1
41,8.233366700033368,0.9855698385558064,0.09928891068489472,-0.13709050129053033,0.9793565984993161,-0.16275314930536472,-0.11988354919268704,1
42,8.433366700033368,0.9612133752219733,0.1805804473644462,-0.2084695405186059,0.9742303649272245,-0.19545211890456435,-0.11257737458958154,1
43,8.633366700033367,0.9557751234537545,0.2196747655438027,-0.19554260602292334,0.9839894366374181,-0.14715275219905968,-0.10055275285251607,1
44,8.833366700033368,0.9420984166944741,-0.0011407406850126613,-0.33533456721974686,0.991166550458204,-0.08514380140055372,-0.10168285172952106,1
45,9.033366700033367,0.9380501402255912,0.026753771994686995,-0.345465150350661,0.9935862241076793,-0.023621468964624217,-0.11058228369588825,0
46,9.233366700033368,0.9384720950543457,0.06841616077172635,-0.33851049577459874,0.9930934730762956,0.048378319363831454,-0.10688728618873523,0
47,9.433366700033368,0.9571767967756537,0.2611738689880759,-0.12490312194696457,0.9888494855421649,0.1193543530432,-0.08905747218866697,0
48,9.633366700033369,0.9559105181645571,0.27029040305416435,-0.11479625115475471,0.9855739015699249,0.15171872498333344,-0.07500342014646941,0
49,9.833366700033368,0.9938956156845736,-0.0018633729566660104,-0.11030880728303966,0.9899377815783382,0.1347833051515054,-0.043088853038745954,0
50,10.033366700033367,0.9560356038593867,-0.08384318578369877,0.28100933143021745,0.9942821640558367,0.07605740231967506,0.07495498510990041,0
51,10.233366700033368,0.8768034344672042,-0.1336384899061441,0.4619052839296395,0.9597353295075197,-0.004940380458735048,0.28086240392052375,1
52,10.433366700033368,0.8953018107282371,-0.10110885183011184,0.43383368678369927,0.9333853532562074,-0.05825783309497244,0.35411552805527025,1
53,10.633366700033369,0.8706865724605249,-0.2805926443127139,0.4039463584370354,0.9364923856083005,-0.05662141951561632,0.3460867326981944,1
54,10.833366700033368,0.8333046504561299,-0.31611051982187843,0.453516812021483,0.9222138260258779,-0.09282309901021196,0.375373855478579,1
55,11.033366700033367,0.8763019740300301,0.07144596003925906,0.47643501666559074,0.914445681006991,-0.09334283292979582,0.3937971711786424,1
56,11.233366700033368,0.8721674225934455,0.08987276889506272,0.4808813495841165,0.9137739044126753,-0.07469412010473041,0.3992969321647682,1
57,11.433366700033368,0.8757410953394881,0.09578904773312302,0.4731828317553118,0.9116841304020579,-0.07378535755697703,0.40421252749417974,1
58,11.633366700033369,0.8808823042737676,0.11131467760312479,0.4600602227615972,0.907588339252391,-0.06880015010040487,0.4141858831481931,1
59,11.833366700033368,0.8507200456223367,0.153366809031444,0.5027464826966392,0.899965038130816,-0.041921157747917104,0.43394187015690705,1
60,12.033366700033367,0.8424456464112784,0.1547417309391345,0.5160817082097022,0.8955458354285029,-0.04281589540724807,0.44290456731347977,0
61,12.233366700033368,0.9945964717743161,0.049500231039878544,-0.09125560509404655,0.9330609170512947,-0.036323074076127886,0.357879811334835,0
62,12.433366700033368,0.9783439399713512,0.06078087537076032,-0.1978606082839563,0.9811471664660065,0.02862664831022016,0.19113019840477924,0
63,12.633366700033369,0.9548341265900803,-0.23287290025207527,-0.18455894187805147,0.9959051815856507,0.05674159137566156,0.0703794082030355,0
64,12.833366700033368,0.926901661909429,-0.3155906439411403,-0.20311537264903246,0.9989958612916946,-0.033626377528595854,0.02960634824441397,0
65,13.033366700033367,0.8935315193528496,-0.39483499552260926,-0.21379137081194285,0.9892475320366325,-0.14548103743161717,0.014986263952435278,0
66,13.233366700033368,0.8953036038514897,-0.38262987735390097,-0.22809172252993717,0.9716741775428829,-0.23611678553371762,-0.009907385406185219,1
67,13.433366700033368,0.8259374246496606,-0.49447835736870777,-0.27077393644335607,0.9417744199615139,-0.3318985627453522,-0.053891427460435445,1
68,13.633366700033369,0.8128914874078281,-0.5093725469714889,-0.2823951807160792,0.9263552480212376,-0.37075479883056284,-0.06638398607812424,1
69,13.833366700033368,0.7202755975051067,-0.6936246658313663,0.009374784743509957,0.9377243009806474,-0.3456924105971625,-0.03420369286903354,1
70,14.033366700033367,0.7396527737309877,-0.6728943262631102,-0.011269427446467913,0.9372602024349551,-0.34777552158532365,-0.024402858800624063,1
71,14.233366700033368,0.9256523711853548,-0.2806919012611178,-0.2537316383215724,0.9501279740140155,-0.31059371039982814,-0.028078106347999315,1
72,14.433366700033368,0.936255960867484,-0.23773766150017026,-0.2586611297519111,0.9674784276235312,-0.24981812878360138,-0.03970383626502588,1
73,14.633366700033369,0.9368649937491605,-0.23453401830394488,-0.25937960163742696,0.9733103425702079,-0.22432259297724852,-0.04843915075461971,1
74,14.833366700033368,0.892296043683889,-0.38178244912216347,-0.24093553488093492,0.9810259704572576,-0.18576605986162215,-0.05548888439934934,0
75,15.033366700033367,0.9492264452980222,0.23386869592220505,-0.21041527657118506,0.9926096107214817,-0.11337477492802107,-0.043270326014132506,1
76,15.233366700033368,0.938971466934135,0.26931003982808766,-0.2140202951389252,0.9988752878778235,-0.02551712639001091,-0.03996292691722667,1
77,15.433366700033368,0.942117401016235,0.26030858164147763,-0.21131551061438156,0.9991297357276878,-0.004736445224987659,-0.04144076822830204,1
78,15.633366700033369,0.9452738773836136,0.253836404225588,-0.20499847956990658,0.9990606256937857,0.0065965922069610924,-0.04282932592974428,1
79,15.833366700033368,0.953667436051271,0.22219309529835,-0.20285129976693084,0.9988387126569259,-0.019749004560962406,-0.04394545387984816,1
80,16.033366700033366,0.8889263367497932,-0.38953306431765317,-0.24098539299279634,0.9950101509710692,-0.08979485083836565,-0.04349349638102116,1
81,16.233366700033365,0.8817058679359097,-0.4044083732045835,-0.24299923894820463,0.9921490833973448,-0.11940557245369161,-0.03718205993237913,1
82,16.433366700033368,0.9323518762348482,-0.07260046445037148,-0.35418801707983916,0.9926934584631579,-0.11201167576388947,-0.04486738255146922,1
83,16.633366700033367,0.9291923605964411,-0.06626936407141917,-0.3636068321618603,0.9925761467986132,-0.10715787218195803,-0.05753071558613876,1
84,16.833366700033366,0.9275652676500947,-0.06825906410020033,-0.3673736169315558,0.9920780915499924,-0.10758103256428744,-0.06486433302614569,1
85,17.033366700033366,0.9287737905834893,-0.06175897234362154,-0.3654655596088867,0.9932411474488544,-0.09684424980954136,-0.06397823296489638,1
86,17.233366700033365,0.9259229190370526,-0.0718173874929574,-0.37082207439092757,0.9928754652229236,-0.10383507254202265,-0.058451589102062954,1
87,17.433366700033368,0.9191098703903855,-0.08256195912170709,-0.3852539020658383,0.9913887691517187,-0.11281616704423435,-0.06648925366769923,1
88,17.633366700033367,0.9101588791157968,-0.07843749056100352,-0.4067657493461922,0.9896613112054159,-0.11492093536233712,-0.08581181572850369,1
89,17.833366700033366,0.8958285057987914,-0.07420037040003423,-0.438161606294758,0.9876375435724536,-0.10941340528490905,-0.11225323723675061,1
90,18.033366700033366,0.8864704755611597,-0.050338279202154605,-0.46003929571867824,0.9880045614000347,-0.08018575558491757,-0.1319743583200956,1
91,18.233366700033365,0.8697012569365761,-0.041838080104692345,-0.49180209305786127,0.9837894592564148,-0.07516687964273745,-0.16281351313925166,1
92,18.433366700033368,0.8286297991634735,-0.16735690584682214,-0.5341950224437507,0.9845551121486821,-0.08785204937349433,-0.15143727600156331,1
93,18.633366700033367,0.8126442309615671,-0.18224984956464085,-0.5535289931146774,0.9775901331664842,-0.12428586755790702,-0.16991337399073153,0
94,18.833366700033366,0.8087708616679686,-0.17157842015732835,-0.5625393666697178,0.9758762047872754,-0.13385545349210298,-0.1724771013798848,0
95,19.033366700033366,0.8049268372896645,-0.24768240662378388,-0.5392088760952556,0.9665294819134121,-0.21776247061838505,-0.1356475837690015,0
96,19.23336670003337,0.8113910162606316,-0.5719258627473635,-0.12060442053351086,0.9442908206741505,-0.32473206219190476,-0.05351573390258658,1
97,19.433366700033368,0.8225234040680941,-0.5543913140060903,-0.12690752820394754,0.9365422671700376,-0.3499431232124359,-0.020697640453248414,1
98,19.633366700033367,0.8394267846842092,-0.5304846961995969,-0.11810444637164078,0.9364698975589099,-0.3507478739212811,-0.0002447564225522979,1
99,19.833366700033366,0.857402645497509,-0.5039680096313882,-0.10429261125338743,0.9387616994968221,-0.34442284553102626,0.009968702731508865,1
100,20.033366700033366,0.865337927978635,-0.49104291855299426,-0.10033505140577939,0.941793764345938,-0.3360144853853335,0.010898213171787989,1
101,20.23336670003337,0.8726767583693213,-0.4790337841438801,-0.09466736000759697,0.9459554957483947,-0.32380106935472297,0.01791835785296608,1
102,20.433366700033368,0.8798220963607256,-0.47082178037592376,-0.06511474394531183,0.9487645230658188,-0.3121268350490412,0.0492211195926884,1
103,20.633366700033367,0.8900747104603228,-0.4555880248620899,-0.014372244126536293,0.9508044786535105,-0.29337831888567667,0.0994987707473858,1
104,20.833366700033366,0.905076018158743,-0.4243685303601904,0.02736332936334735,0.9561288115521624,-0.2571050475785277,0.14040901049965554,0
105,21.033366700033366,0.9185738317912192,-0.38838252425535713,0.07335618856943456,0.9576654863431875,-0.21862944625346473,0.18729116769877344,1
106,21.23336670003337,0.9214593229755087,-0.3678946222059992,0.12476483099584898,0.9512449891677198,-0.1974572018697162,0.2369464581146696,1
107,21.433366700033368,0.7746924248852867,-0.0020911188695686704,0.6323347800392038,0.9424073984980685,-0.19615992824768902,0.27090510848997346,1
108,21.633366700033367,0.7607111056717877,0.0038174373024382206,0.6490793794907125,0.9362612252655523,-0.19153108879397968,0.2945008660252791,1
109,21.833366700033366,0.7574422737731026,0.011125540249325078,0.6528073408407667,0.9378322145364718,-0.17768642619886935,0.29815813140394304,1
110,22.033366700033366,0.7569513682196024,-0.026754521915105602,0.6529232892978827,0.9292564524944511,-0.22281910633326532,0.29467624836466444,1
111,22.23336670003337,0.8893997115896217,-0.45204841490791176,-0.06797340364835885,0.9268738248013957,-0.24084038422550882,0.28792502882545895,1
112,22.433366700033368,0.9785355130756584,-0.19249114168368395,-0.07358946951208369,0.9387584011661211,-0.2250879309360037,0.2608986155328863,1
113,22.633366700033367,0.979953686342558,-0.1565942784339497,-0.12316251290624973,0.959335994455239,-0.18418512989874752,0.2138931688174243,1
114,22.833366700033366,0.9502561143398225,0.28841751740562144,-0.11759529247959041,0.9865743397938149,-0.043352539178402774,0.15745357857852385,0
115,23.033366700033366,0.8881665033896333,0.4418438835776516,-0.12623091856455415,0.9885243061161717,0.09102344135511943,0.12055882108503246,1
116,23.23336670003337,0.8887304245157871,0.43095115495296943,-0.15633084975362677,0.9884115282705633,0.11172365891719462,0.10276417089630067,1
117,23.433366700033368,0.893764596834741,0.4144276621106278,-0.17156502651284306,0.9904250750877406,0.10760613069192,0.08648173954631755,1
118,23.633366700033367,0.8802725111557538,0.4369803016189549,-0.1848472940038638,0.9907107899433781,0.12087748347043065,0.06229578380295156,1
119,23.833366700033366,0.8697130911345843,0.4543761261995131,-0.1927212366322151,0.9902470047031852,0.13259733027768772,0.04276467794336955,1
120,24.033366700033366,0.8622961938320726,0.46195625489976166,-0.2074649191109367,0.9889553442158686,0.1459710355294837,0.025686259621113885,1
121,24.23336670003337,0.8645747732736865,0.45605018715208,-0.21101821773796345,0.9900719382903859,0.14003484108007938,0.012157314407201593,1
122,24.433366700033368,0.8693054540880111,0.4474087837100507,-0.21007952720798342,0.9912800800700531,0.13144744241238385,0.009239736985030209,1
123,24.633366700033367,0.9679057187959578,0.15111329348998206,-0.20080660360827596,0.9922252437089405,0.12388711874868935,0.011876344340009976,1
124,24.833366700033366,0.9657552678270321,0.1571738300741449,-0.20642952745225546,0.992892787263891,0.11837488839493797,0.012300357589435696,1
125,25.033366700033366,0.9654981447665394,0.15996067666623284,-0.20548945075806566,0.9931034388794036,0.11635486584774626,0.014391138921422698,1
126,25.23336670003337,0.9655687579745752,0.15894300694461502,-0.20594682363862923,0.9938304984051016,0.11003123236022386,0.013930841509317227,1
127,25.433366700033368,0.9655324252905502,0.1560664606997428,-0.20830361388416704,0.9944925218618846,0.10411954797619738,0.01198931566110718,1
128,25.633366700033367,0.9652568286781276,0.1552169577362174,-0.21020692358092677,0.9950035068279958,0.0993404506547654,0.009974781386021894,1
129,25.833366700033366,0.9647811154876172,0.1532807722280385,-0.21378120605807482,0.9953620646617489,0.09602409192417642,0.005808098005169968,1
130,26.033366700033366,0.9634054493150975,0.15487904276054734,-0.2187748210913484,0.9953287255127437,0.09654310617461138,-0.000396004210715297,1
131,26.23336670003337,0.9624694613495615,0.15487200462886516,-0.22286138775418668,0.9953538212218744,0.09614375381014634,-0.005210487722533726,1
132,26.433366700033368,0.9632356657304764,0.14957176128114222,-0.22317110138192903,0.9960373999740397,0.0886627065062133,-0.00695861537580885,1
133,26.633366700033367,0.9651804871254986,0.14314801318354936,-0.21894125603409625,0.9967916461038858,0.0799798027387919,-0.0031057062594031003,1
134,26.833366700033366,0.9670895318568129,0.14095557435322698,-0.21182389721587708,0.9972485657719979,0.07404182911014763,0.00362016680792748,1
135,27.033366700033366,0.9673153522428468,0.14459845873710966,-0.20830817325815615,0.9970275876025066,0.07663602051945437,0.007931577300157125,1
136,27.23336670003337,0.9678302733403625,0.14189840848798468,-0.207772480551435,0.9973894558632794,0.07166532109778162,0.008851840752260792,1
137,27.433366700033368,0.9691651258613521,0.13258444565456312,-0.20770248815221679,0.9981049113279614,0.06079107873116837,0.009541002552324707,1
138,27.633366700033367,0.9699844908486401,0.12245707931069524,-0.21008177274527745,0.998840748942752,0.04750223857978815,0.007790736896550843,1
139,27.833366700033366,0.9704898010423063,0.11204009896882362,-0.21353351562675377,0.9994708104825359,0.03223092509635777,0.004389357676915942,1
140,28.033366700033366,0.9704071126856935,0.10368564436273431,-0.2180810005527782,0.9997210066585134,0.023592764211410284,0.0011359236565292917,1
141,28.23336670003337,0.9689588459227922,0.10230409465624371,-0.22506138523642225,0.9997523829831069,0.02198022482208313,-0.0034702213718992496,1
142,28.433366700033368,0.9709063870582237,0.07890815413848551,-0.22608469824383118,0.9999875197753997,-0.004234135542497545,-0.002651865315748301,1
143,28.633366700033367,0.9639402465010357,0.14536233376138258,-0.22291028037972382,0.9993895897893077,-0.03492200410248612,-0.0009494473265447254,1
144,28.833366700033366,0.9672329566742089,0.14833486347114194,-0.20605139116799323,0.99940800161855,-0.03420448542842474,0.0037012805072003177,1
145,29.033366700033366,0.9628465812605715,0.1680743109199671,-0.2113704969091198,0.9998566853361983,-0.01691420312938134,-0.0007200840288449496,1
146,29.23336670003337,0.9583912767165393,0.18468590624254216,-0.21766321864066213,0.9999834271938104,0.0024848763212325076,-0.005193334900591418,1
147,29.433366700033368,0.9534351901192042,0.20002204533200588,-0.22572664801382694,0.999619517874039,0.0240855233752225,-0.013442732200550757,1
148,29.633366700033367,0.9493499254286965,0.2151309576647353,-0.22902705111576294,0.9986469188148364,0.04958419714328904,-0.01567606249314598,1
149,29.833366700033366,0.9470056069831536,0.22672373324476652,-0.2275450046167241,0.9971912946406472,0.07386731542021227,-0.012375039616954416,1
150,30.033366700033366,0.9478002575769484,0.2312720507421795,-0.21951744869731174,0.9958374943816766,0.09114139292432336,-0.0009650282060506928,1
151,30.23336670003337,0.9522171787564593,0.22041811548492474,-0.21141972199197467,0.9957309834190669,0.09171042758448715,0.010440600153646293,1
152,30.433366700033368,0.9517675816324309,0.2129107752181152,-0.2209241325649493,0.9953610986659857,0.09611284301281556,0.004313313162311468,1
153,30.633366700033367,0.9522355193576227,0.20438452642981575,-0.22687988238223922,0.9955406710793642,0.09433247073073135,-0.00039647532781782554,1
154,30.833366700033366,0.9531756627895714,0.18812429951809098,-0.23678134174062176,0.9964533860648268,0.08353596443388732,-0.010118895495139939,1
155,31.033366700033366,0.9537774847930568,0.17936595165721286,-0.24111483755242602,0.9967629881589273,0.07907907203745726,-0.014492956985409181,1
156,31.23336670003337,0.9543496978972441,0.1734434747408337,-0.24317486546365055,0.9970617834111449,0.07466310793024306,-0.017123678786531676,1
157,31.433366700033368,0.9553873217283629,0.16152580003238245,-0.24727410176685408,0.9976773166072319,0.064549643057975,-0.021755815509459122,1
158,31.633366700033367,0.9561536339301183,0.15273864682571578,-0.2498822404415302,0.9980809028011053,0.056772178173535255,-0.024727135886783495,1
159,31.833366700033366,0.9570911072975826,0.1471170615260223,-0.2496661421575545,0.9982968412498364,0.05276112284357885,-0.02489338600680623,1
160,32.03336670003337,0.9559503728846164,0.1587790277933983,-0.2468766998214817,0.9974975926767684,0.0669067530548975,-0.02284817278696878,1
161,32.23336670003337,0.9558742118090858,0.16218079118947368,-0.24495281620654144,0.9971977681909017,0.07189645755978824,-0.02067632717477147,1
162,32.43336670003337,0.958320601263193,0.1502922079167275,-0.2429688816166954,0.998012742055323,0.06009244675155075,-0.018959550063954035,1
163,32.63336670003337,0.9599992237102271,0.14170490337813646,-0.24149784850874922,0.9984865230306594,0.05210939599158377,-0.017586192752754675,1
164,32.83336670003337,0.9584685428942874,0.14784040960528017,-0.2438878134918686,0.9980431997302603,0.05899855415529114,-0.020710916922461457,1
165,33.03336670003337,0.9560873936208655,0.1603770164140038,-0.24530819057953018,0.9970617545558603,0.0735271909467937,-0.021485106317241685,1
166,33.23336670003337,0.9561380623541944,0.16075458303955786,-0.24486316535841907,0.9969216737000225,0.0756832397376301,-0.020474953723079007,1
167,33.43336670003337,0.9584001969261855,0.15190181559281335,-0.24165036923509137,0.9975565857434044,0.06765747032696834,-0.017416226598133824,1
168,33.533533533533536,0.9591284493106834,0.15116918652570277,-0.2392080574897945,0.9976281695943595,0.06717500629392141,-0.01501844736382265,1
