,timeStamp,x_gaze,y_gaze,z_gaze,x_head,y_head,z_head,fixations_head
0,0.03333333333333333,-0.9986148395751014,0.0025819551324598984,0.052552218679027964,-0.9926914881527824,-0.04150883705765418,0.11331648509874975,1
1,0.23333333333333334,-0.9977085202412619,0.008495039242840632,0.06712334129238584,-0.9922702653757192,-0.04371359091759031,0.11614147588303708,1
2,0.43333333333333335,-0.9224649160034499,0.38444093537467877,0.03554779811732927,-0.9923876626259294,-0.038616948598965674,0.11694211537658306,1
3,0.6333333333333334,-0.9341636677668289,0.3559259804962969,0.025591761021380617,-0.9924173550775203,-0.018328965518764073,0.12153946833827767,1
4,0.8333333333333334,-0.8655831593357495,0.49571130963896887,0.07096542658478962,-0.9915230780805313,0.011418708072047845,0.12942796737828396,1
5,1.0333333333333334,-0.8365271789738937,0.5420554847339423,0.07998831357035942,-0.9861569425347196,0.07138500828297512,0.14966183642804076,1
6,1.2333333333333336,-0.860930107174774,0.49254957447903625,-0.12725669821487892,-0.9626803828739761,-0.05692883365744702,0.2645856918429593,1
7,1.4333333333333336,-0.8110559598969201,-0.5665027218273011,0.14581802384460207,-0.9285313681394631,-0.2690611926674309,0.2558037782782662,0
8,1.6333333333333335,-0.8440222925943625,-0.5340504249704815,0.04915804301032288,-0.88686653214681,-0.4388885135697968,0.14437668376294563,0
9,1.8333333333333335,-0.3790249813158378,-0.7503623640302325,-0.5415684501385672,-0.85599476429252,-0.5044830253731735,0.11300371947030448,0
10,2.033333333333333,-0.9920799448980067,-0.06926267431766595,0.10478580475204043,-0.9503961354376282,-0.2860916203112615,0.12206051995997211,0
11,2.2333333333333334,-0.9254457551075735,0.3729819995980201,0.06659265972489674,-0.9750575826891412,0.1966273477677186,0.10295822721007312,0
12,2.4333333333333336,-0.669709005839692,0.7356411571719796,-0.10159692599622465,-0.8458213579755994,0.5328845360229182,0.024905855936954994,0
13,2.6333333333333333,-0.38767530352893054,0.9144076117249565,-0.11647565691256243,-0.7058071388939472,0.708320772461871,-0.010861214727603085,0
14,2.8333333333333335,-0.4834014259817613,0.8654596673604873,-0.1315394447725639,-0.6262569712400679,0.7787750878194236,-0.03621558456060298,0
15,3.033333333333333,-0.5595329563799738,0.8203551114773783,-0.11806930929595891,-0.6942563602010287,0.7195757806724873,-0.014791963696565609,0
16,3.2333333333333334,-0.7995312037244928,-0.03491359904108345,0.5996089516283611,-0.945536494341893,0.3203017679891361,0.058030296317332294,0
17,3.4333333333333336,-0.8150363442221771,-0.5660727096976884,0.12360196168534607,-0.978377348892066,-0.19853306612413646,0.05798607445139249,0
18,3.6333333333333333,-0.8668476101958534,-0.4925379637802392,0.0773406421808996,-0.9265778425050193,-0.3725594521298416,0.051506857868212866,1
19,3.8333333333333335,-0.885005588614701,-0.4616105586411757,0.060669599238238656,-0.9165457139851135,-0.39691604800630076,0.04900617318847067,1
20,4.033333333333333,-0.8392456768771651,-0.5272159666221533,0.13307899301413997,-0.9097301963373349,-0.40999603618040686,0.06553029977337954,1
21,4.233333333333333,-0.8492697164813735,-0.514126971097131,0.12006001107003877,-0.9106478814929199,-0.4081448493170015,0.06432898187021993,1
22,4.433333333333334,-0.8481050364566476,-0.5180233416401887,0.11121899411881694,-0.906338995649996,-0.41895818931373485,0.05498782202554753,1
23,4.633333333333334,-0.6403855914136569,-0.754576877890686,0.1432481401712637,-0.8900942440450539,-0.45242585858350687,0.05516411154764353,1
24,4.833333333333334,-0.6326094821513248,-0.7617069338490136,0.14002781873101872,-0.8704818599026064,-0.4895235435429576,0.051264333582378085,1
25,5.033333333333333,-0.8470257216339372,-0.5271022146521418,0.06863440973240358,-0.8781982519209385,-0.4753729281032874,0.05280539318587096,1
26,5.233333333333333,-0.8418411564440376,-0.5348943833576157,0.0720518283559952,-0.8755308041693288,-0.4792002538952259,0.06174890782321419,1
27,5.433333333333334,-0.7941360692835481,-0.6025875926406968,0.07896896009424048,-0.8694513006533018,-0.48925611725878354,0.06843162658552879,1
28,5.633333333333334,-0.7896179495447836,-0.6088946949755687,0.07583366130750208,-0.8600281894652991,-0.5061221578031577,0.0647446886293809,1
29,5.833333333333334,-0.7879724635963815,-0.6107844095764182,0.07772902696056073,-0.8528819239522559,-0.5187684856367781,0.058920981879312447,1
30,6.033333333333333,-0.803847164048958,-0.588139077688477,0.08900652867175325,-0.8624081134946247,-0.5016673954866234,0.06769098968334412,1
31,6.233333333333333,-0.8155831419281998,-0.5719269370708391,0.08788468157360683,-0.8717011771031697,-0.48528285042067526,0.06810002147233907,1
32,6.433333333333334,-0.9393939577317786,-0.341862941351352,0.025859650183782425,-0.8948927099181083,-0.44189910959343376,0.06238761636699315,1
33,6.633333333333334,-0.9399513437316022,-0.34017896529760294,0.0277442423974424,-0.9093553856161039,-0.4119042025237626,0.05837559930527887,1
34,6.833333333333334,-0.9374172931223227,-0.34540597454165617,0.04408549995345807,-0.9141211982523152,-0.40101200701454953,0.059764580948203666,1
35,7.033333333333333,-0.9340771572446518,-0.35303078253209724,0.053564268860176664,-0.9140334996175761,-0.40108174213484116,0.06063165594743008,1
36,7.233333333333333,-0.7942487703335708,-0.5970321014302863,0.11278989620239545,-0.9124401181373786,-0.40484622586955693,0.059603390949028064,1
37,7.433333333333334,-0.8067457978231605,-0.5810058911807603,0.10767252252976584,-0.9130137684788541,-0.40353630112624655,0.059701861289149116,1
38,7.633333333333334,-0.8211251006536502,-0.5605519051275979,0.10740172593749815,-0.9160964598157413,-0.39682744987912405,0.05740427976638296,1
39,7.833333333333334,-0.8350287660789918,-0.5395869027703738,0.10757757284523388,-0.9228300084908645,-0.38090774772046576,0.05739392960299302,1
40,8.033333333333333,-0.9609700497445002,-0.27079671923965043,0.056618904467458785,-0.9293164872203082,-0.36480660094760914,0.05733245577819763,1
41,8.233333333333334,-0.9611934240569844,-0.2679323781147629,0.06572246425217226,-0.9331753564306694,-0.3530297243959697,0.06748161114999326,0
42,8.433333333333334,-0.9410779349474001,-0.2634458072439611,-0.212058074594473,-0.9236119597382315,-0.3639644142601592,0.12029485849678902,0
43,8.633333333333333,-0.9306076984350395,-0.23230799110660155,-0.282846794009503,-0.8521067358940075,-0.49785939367568155,0.16140054142704408,0
44,8.833333333333334,-0.24213481577916024,-0.8731473390899185,0.4230655448364799,-0.7049998817406471,-0.6863164479173738,0.17873136284310037,0
45,9.033333333333333,-0.2857095055962573,-0.913232826163478,0.2904752719757898,-0.5762424493834448,-0.7987666275079351,0.17296391042112705,0
46,9.233333333333334,-0.44627871653682255,-0.8584149519090568,0.2529013196984516,-0.557447843243114,-0.8138737369407276,0.1638946075431893,0
47,9.433333333333334,-0.4721697748194472,-0.84427413969904,0.25348940960599986,-0.5983681791718745,-0.7869569285698057,0.1505135034822906,0
48,9.633333333333335,-0.39903153752348286,-0.8610896656894675,0.31511651766362037,-0.6778441702201635,-0.7233475089984132,0.13151297321682331,0
49,9.833333333333334,-0.9270850536293467,-0.37050316381707105,-0.05692722493335138,-0.7947220718686657,-0.5986783388713667,0.1000053751105238,0
50,10.033333333333333,-0.8791671016388892,-0.4745732622952106,-0.04295842304317252,-0.8022413281888302,-0.5857013315617934,0.11559758454467917,0
51,10.233333333333334,-0.4076725534536199,-0.9119974015503155,0.04542938174879909,-0.7288919151252067,-0.6708835407470484,0.13649853779367987,0
52,10.433333333333334,-0.86068458030408,-0.5050373784022345,-0.06449263247370363,-0.7434995312111278,-0.6603123374003301,0.105811455739659,0
53,10.633333333333335,-0.8633711422602491,-0.4975216976791875,-0.08403827134497839,-0.801030625737397,-0.595626219400783,0.059827613967839005,0
54,10.833333333333334,-0.9647988031090896,-0.26296328585151446,-0.0036850798421601758,-0.8625172052374989,-0.5041011180811986,0.04411500219403435,0
55,11.033333333333333,-0.9494592194784127,-0.31388361101808215,0.0020662240180477987,-0.9201113886013004,-0.38943549848803455,0.0416536322973511,1
56,11.233333333333334,-0.9616941874529605,-0.2736311588328199,0.01644015617317607,-0.9445718330985384,-0.324713309255876,0.04842849273893214,1
57,11.433333333333334,-0.9614282070038314,-0.27317482685181826,0.032114120755166356,-0.9529906135011167,-0.29711089121295375,0.059447530658641494,1
58,11.633333333333335,-0.9587141441248532,-0.27965414118926013,0.051582469605940116,-0.9522326466595143,-0.2987011940545099,0.06348687507057281,1
59,11.833333333333334,-0.8099876964496688,-0.5789733830695021,0.0933260590468421,-0.9458449088705057,-0.317333999632567,0.06838523993482049,1
60,12.033333333333333,-0.7484050058861578,-0.6498029948835947,0.13283830398213853,-0.9401793441897597,-0.3334345446688271,0.06988708879618281,1
61,12.233333333333334,-0.7446782821164161,-0.6548501374568173,0.12894011639877972,-0.9371617280391001,-0.3414534061303024,0.07167612531926346,1
62,12.433333333333334,-0.9451021931547257,-0.3240592157992708,0.042041279115762484,-0.9368447593764113,-0.34313466258441744,0.06767939244727507,1
63,12.633333333333335,-0.8849819537190748,-0.45939714885277355,0.07590257714671107,-0.9388081729168369,-0.33780651244023974,0.06727536412025381,1
64,12.833333333333334,-0.8929436547495183,-0.44501678101834746,0.06790945482509186,-0.9395432521127459,-0.3355314874632571,0.0683893144438471,1
65,13.033333333333333,-0.8924080367822996,-0.4422103887102735,0.08976562818290006,-0.9414661713271992,-0.32771834810856415,0.07900716777292473,1
66,13.233333333333334,-0.8907990698715299,-0.4437544541235278,0.0977701465762784,-0.9428500993193263,-0.32277466345179534,0.08276597638593297,1
67,13.433333333333334,-0.8943173131115533,-0.4368207037988658,0.09687216422479386,-0.9481907721485702,-0.3078902467515882,0.0783444673703552,1
68,13.633333333333335,-0.8989398167257584,-0.4262960954435005,0.10089026174356837,-0.9536633859014508,-0.29076090945618277,0.07735786917434088,1
69,13.833333333333334,-0.9672864675347175,-0.2449043848864786,0.06617198793737224,-0.9574814050534216,-0.27763331996715174,0.07841618851323356,1
70,14.033333333333333,-0.9676859070769708,-0.24372552495970498,0.0646672539059492,-0.9581004797076125,-0.27507201496790384,0.07986774922044795,1
71,14.233333333333334,-0.9967792868246245,-0.03146422644717911,0.07376351273816831,-0.9621743874202761,-0.2615473403478157,0.07624589791851379,1
72,14.433333333333334,-0.8523168154030556,-0.5158208736716418,0.08651515743393216,-0.9655683876441538,-0.24915330523592183,0.07483528093275843,1
73,14.633333333333335,-0.87341722073441,-0.4801873345859879,0.08100914903752303,-0.9647190046666853,-0.2527275993803468,0.07379703616248535,1
74,14.833333333333334,-0.8725731337898159,-0.48122440961205526,0.08389990334767446,-0.9647070380247917,-0.25264738469653153,0.07422688051801837,1
75,15.033333333333333,-0.9889738464463594,-0.1328541398119807,0.06542559575511221,-0.9661722397110037,-0.24565028989453452,0.07853112941091724,1
76,15.233333333333334,-0.988399664160234,-0.1347817369185073,0.06999990915113727,-0.9677221597115825,-0.23884951586864184,0.08040354701420753,1
77,15.433333333333334,-0.9900597073239403,-0.12461734914153927,0.06520960225740605,-0.9690905141664059,-0.23296589896114575,0.08118168065466654,1
78,15.633333333333335,-0.9913531766375161,-0.11418884824865175,0.06465126531130007,-0.9685106623835897,-0.23501428147360862,0.08219114522102794,1
79,15.833333333333334,-0.9916814987463858,-0.1130322981793636,0.06157519478177868,-0.9673134949166144,-0.24061555909712623,0.08005470175188105,1
80,16.033333333333335,-0.8331042305005515,-0.5401623274275719,0.11900420643873318,-0.9659061621969108,-0.24787123310567435,0.07473377836499241,1
81,16.233333333333334,-0.8422490005224877,-0.5256277702478238,0.1197166164873175,-0.9658346728123618,-0.24762586808768594,0.07645138486161067,1
82,16.433333333333337,-0.8494711534746132,-0.5142263067383094,0.11819502896817821,-0.9671028965919144,-0.2426600022927088,0.07634206370561081,1
83,16.633333333333336,-0.8501284388216105,-0.5126977590731618,0.1200943185504204,-0.9670723136390204,-0.242536718509441,0.07711731561422908,1
84,16.833333333333336,-0.8504204570833405,-0.5121869729839831,0.12020628469288627,-0.9666592174913146,-0.24456849358601085,0.0758696855413884,1
85,17.033333333333335,-0.8502444615916966,-0.5148119633247406,0.10978614644103274,-0.9657634625461665,-0.24772078556472343,0.07704120202875575,1
86,17.233333333333334,-0.8538335760643775,-0.5123859896821468,0.09180861594950829,-0.96570738329076,-0.24793210983086414,0.07706438069905829,1
87,17.433333333333337,-0.850258033442002,-0.5159926923299826,0.10398470093910787,-0.9658893330437787,-0.2462155328485332,0.08022286267864967,1
88,17.633333333333336,-0.9916693805260229,-0.10957844441196699,0.06770822880113919,-0.9662761113066615,-0.24326843873476894,0.0844449136042223,1
89,17.833333333333336,-0.9872378588977446,-0.13769594495218002,0.08000772901865891,-0.9672966231882779,-0.23668087586767153,0.09121077659502029,1
90,18.033333333333335,-0.986053493395705,-0.15095544437041225,0.07007825609315295,-0.968573813644306,-0.23165366793600875,0.09056128120957084,1
91,18.233333333333334,-0.9869460416973698,-0.1453071864343798,0.06945021489108828,-0.9719137688644751,-0.21278760206032202,0.10052393894525702,1
92,18.433333333333337,-0.9870243182267654,-0.14373315442411708,0.07158055286376021,-0.9731737304007158,-0.205870253851761,0.10271479463527482,1
93,18.633333333333336,-0.827887254862517,-0.5483163659520153,0.11811797520014405,-0.9741720582510707,-0.20261282479604215,0.09968372059188682,1
94,18.833333333333336,-0.8319529729154727,-0.5434020697191292,0.11210906066002851,-0.9729421668212408,-0.2068778686363133,0.10288385436833834,1
95,19.033333333333335,-0.8321832768706118,-0.5425892423482575,0.11431494996208874,-0.9732997060460924,-0.20733232383607478,0.09849360234717354,1
96,19.233333333333338,-0.9917834217843364,-0.10825086790036575,0.0681717967532803,-0.9758477542941743,-0.19679307231220036,0.09483484132396963,1
97,19.433333333333337,-0.9895597046429583,-0.12349787183755258,0.07429580471693557,-0.9777269220561303,-0.1886374731253208,0.09201070383134737,1
98,19.633333333333336,-0.990424683570387,-0.12540361767195837,0.05773109083747049,-0.977441529560368,-0.19394131390983982,0.08363505873503996,1
99,19.833333333333336,-0.9990418224480858,-0.036098096554580246,0.024745998156146573,-0.9779227465620592,-0.19095402384066681,0.08487439269636403,1
100,20.033333333333335,-0.9990234775724617,-0.043287230064087065,0.008849122691227241,-0.9794118128017983,-0.18958112229391297,0.06936496964661172,1
101,20.233333333333338,-0.9991639937610799,-0.04045762477080432,0.005873173700320782,-0.9816398274640894,-0.18234154127495103,0.05598938704565809,1
102,20.433333333333337,-0.8332808760356328,-0.5394993157996525,0.1207620382611822,-0.9837459054889076,-0.17128481025141107,0.05390275698837494,1
103,20.633333333333336,-0.835210931656474,-0.5375357240312528,0.11609498280167753,-0.9822184158454522,-0.1812483727572121,0.048949064821641554,1
104,20.833333333333336,-0.9887578959204435,-0.12663200710277966,0.07951199929632796,-0.9788881173609809,-0.1957758382289814,0.05873563530953319,1
105,21.033333333333335,-0.9840567028029387,-0.1539983074522824,0.08897711486916915,-0.9729191608563337,-0.22071747639847453,0.06864475253722364,1
106,21.233333333333338,-0.9833848382990582,-0.15204909777633416,0.09917324068990313,-0.9696315214293117,-0.2320425464710777,0.07727204719622754,1
107,21.433333333333337,-0.7896092388965725,-0.5840913352086338,0.18802808828302975,-0.967172130467248,-0.24086498903060788,0.08100695715017356,1
108,21.633333333333336,-0.7999903882990604,-0.5668764966163062,0.19663777921127382,-0.9684155492313926,-0.2317637752506067,0.0919612771140475,1
109,21.833333333333336,-0.8101942775623754,-0.5574996767544306,0.18105066424591196,-0.9681059974203934,-0.2331243283448118,0.09178139949056058,1
110,22.033333333333335,-0.8690828184285129,-0.47146582346597726,0.14971650548920898,-0.9687771073864707,-0.2292171679271709,0.09450082608818684,1
111,22.233333333333338,-0.8747410939985353,-0.4656378351181115,0.13419919886781762,-0.9677764497376168,-0.2364515812495911,0.08659903612524915,1
112,22.433333333333337,-0.8780656522965846,-0.458058128300389,0.13850437305340962,-0.9687388341575833,-0.23317368531825058,0.08470598367359784,1
113,22.633333333333336,-0.8826638767387722,-0.45001358458498075,0.13561804595797072,-0.9697659511456735,-0.23062121059019483,0.07979885478151015,1
114,22.833333333333336,-0.8863561560057298,-0.4422170605050228,0.13717447324135565,-0.9708872296624378,-0.22603678548348213,0.07928025533946642,1
115,23.033333333333335,-0.8902556888633323,-0.4343166590505746,0.13716358160102393,-0.9719086048391472,-0.221584546998836,0.07933443370279615,1
116,23.233333333333338,-0.8949437125301634,-0.4264091768459568,0.13134293016482523,-0.9728390294255204,-0.21676225472995872,0.08123021451895904,1
117,23.433333333333337,-0.8976640196053607,-0.42228738229189605,0.12598680352721348,-0.9733916456392395,-0.2139175755915998,0.08214605926485749,1
118,23.633333333333336,-0.9012511851972702,-0.41504656309445714,0.12442930379936508,-0.9754130256079733,-0.20505603251670876,0.08075551376101775,1
119,23.833333333333336,-0.9008084986121065,-0.4156538626489032,0.12560221054284604,-0.9762348824012516,-0.20212886456376272,0.07816250055607646,1
120,24.033333333333335,-0.9005566214535682,-0.4149948944130216,0.12952609454183447,-0.9766265157920208,-0.19992706716591432,0.07892918640385241,1
121,24.233333333333338,-0.9980849552257948,-0.03055569842526059,0.053784490754006514,-0.9765080131568288,-0.2007205698587943,0.07837954501056993,1
122,24.433333333333337,-0.997957077361969,-0.03015764127550701,0.05632218404727195,-0.9777841493746602,-0.19387967386957367,0.07967954123801403,1
123,24.633333333333336,-0.9976123774990506,-0.02925509884898558,0.06255943935193144,-0.978671605249029,-0.18784725900647065,0.08315826094288482,1
124,24.833333333333336,-0.9241663063221519,-0.3807187634310802,-0.031142598324158135,-0.9791591331694676,-0.18557468231448984,0.08251926571833489,1
125,25.033333333333335,-0.9327266558177224,-0.3593410316769763,-0.029916692337468156,-0.9787904445468415,-0.18451177932283486,0.08902060971998654,1
126,25.233333333333338,-0.9989270944168878,0.009736956001832001,0.045275288266923626,-0.9785012840078398,-0.18524938960392126,0.09065263838622688,1
127,25.433333333333337,-0.9988070289116453,0.00961026010843096,0.047876527624089824,-0.9785938133264307,-0.1833568665405605,0.09345805482494648,1
128,25.633333333333336,-0.998978620800838,0.004014642292406388,0.04500664206669692,-0.9782082188392595,-0.18836889143256647,0.08732606332470008,1
129,25.833333333333336,-0.9988696264585818,0.008039208238194609,0.04684912453180136,-0.9788535737264645,-0.186779211431332,0.0834218639207919,1
130,26.033333333333335,-0.998696045871388,0.016922763683698102,0.04816459311735449,-0.9799505047733754,-0.18312036166830403,0.07851077210724829,1
131,26.233333333333338,-0.9983169170133326,0.024876673678271625,0.052387825987529,-0.9803560755211279,-0.1799017014925213,0.08085383719347088,1
132,26.433333333333337,-0.997816281305058,0.03405075878378859,0.05659694858200548,-0.9806832135902825,-0.17649135296268062,0.0843281501732296,1
133,26.633333333333336,-0.997627122295164,0.0389966112786205,0.05673966134772396,-0.9806487847230896,-0.1773338641476301,0.08294975375248227,1
134,26.833333333333336,-0.9975959226825704,0.04048516777013431,0.05624345506576399,-0.9803293742241868,-0.17978092442432056,0.08144407434768582,1
135,27.033333333333335,-0.8764647079275799,-0.4812863517915213,-0.013155353915044857,-0.9806146648683952,-0.17829056141862112,0.08128563682519938,1
136,27.233333333333338,-0.8876866694891359,-0.4602263948936475,-0.014284335983245204,-0.9809086910729804,-0.17580729643187468,0.08312601457309993,1
137,27.433333333333337,-0.895721450489861,-0.44452892702971114,-0.008781581073684647,-0.9806040097091631,-0.17629963609068985,0.08564002835474896,1
138,27.633333333333336,-0.8994505396066379,-0.436990375757649,-0.005304554318417565,-0.9802130523602203,-0.17781101116502224,0.08698055122343558,1
139,27.833333333333336,-0.9007522114885611,-0.43428937786227984,-0.006179787574084512,-0.9795710388267034,-0.18170831386783867,0.08615491026796016,1
140,28.033333333333335,-0.8990393158422421,-0.43786774750806706,0.0003798185426867202,-0.9789204349125448,-0.1856428612727246,0.08515579938624342,1
141,28.233333333333338,-0.8978489404154176,-0.43967189336674245,0.02357766693751215,-0.9793192589948247,-0.18317307344466183,0.08591515655962072,1
142,28.433333333333337,-0.8577637073385005,-0.45727164982462004,0.23482772544906463,-0.9798150058573248,-0.181731280629843,0.08328442794093112,1
143,28.633333333333336,-0.8675988225422716,-0.4446568699068107,0.2226040232519209,-0.9801205444520678,-0.18165354399017025,0.07978538900571897,1
144,28.833333333333336,-0.8744410740859552,-0.43630468965700164,0.2121108807551104,-0.9790414524995701,-0.18683355032170537,0.0810620673417535,1
145,29.033333333333335,-0.885566364990851,-0.42146952848856795,0.19528351121514503,-0.9795304195340508,-0.18526381401541106,0.0787240523849573,1
146,29.233333333333338,-0.8930039089604996,-0.41216085758146065,0.18074137893405184,-0.9806920823720504,-0.18016272937068942,0.07605544371361826,1
147,29.433333333333337,-0.8954975231434207,-0.4100558889042883,0.17302703262471103,-0.9809942795518208,-0.18017491810589414,0.07202237410789998,1
148,29.633333333333336,-0.8944202440636109,-0.41194163082957436,0.17411639727108313,-0.9806551417138897,-0.18218668073824865,0.07157867274328746,1
149,29.833333333333336,-0.8930428846099132,-0.41382921263873884,0.17669122506340446,-0.9801357145680877,-0.184365554241582,0.07309803990052303,1
150,30.033333333333335,-0.8951616018336556,-0.4108876695658391,0.17279186786813122,-0.9802620947715027,-0.18428283124293474,0.0715965338775117,1
151,30.233333333333338,-0.8980715868372279,-0.40607446378766626,0.16902944943181653,-0.980413297629376,-0.1834165953716471,0.0717503893631669,1
152,30.433333333333337,-0.900679153921025,-0.402966304342921,0.16246605570492356,-0.9802956545463474,-0.18532497404788797,0.06837458352120404,1
153,30.633333333333336,-0.9014349090028806,-0.40110264724457106,0.1628857612081729,-0.9799399686695894,-0.18674913630449197,0.06958748374075996,1
154,30.833333333333336,-0.9024909388397001,-0.3992907988147273,0.1614836316600966,-0.9797836390231246,-0.18785837172705386,0.06879864006405802,1
155,31.033333333333335,-0.9042934937447663,-0.3945812163575756,0.16296914084777214,-0.9799099162992537,-0.18617304791525616,0.07152728268523519,1
156,31.233333333333338,-0.9053486878424427,-0.3922400505977408,0.16276208443322732,-0.9795715773877153,-0.18714650601870117,0.0735915080640154,1
157,31.433333333333337,-0.9047207324584905,-0.39390719766420657,0.1622267422101067,-0.9789101082719978,-0.1902709202646097,0.07437726013079836,1
158,31.633333333333336,-0.9053657088915699,-0.39371374313365787,0.15906734935539033,-0.9787387078607722,-0.1914089517561373,0.07370993774684075,1
159,31.833333333333336,-0.9059422112834838,-0.39280078337635166,0.15803877496904312,-0.9787183705800702,-0.1909497877517302,0.07515670061053618,1
160,32.03333333333333,-0.9041455448836553,-0.39579002540443986,0.16084492362953517,-0.978292148742655,-0.19211309388211378,0.07769833246293877,1
161,32.233333333333334,-0.9008908690502024,-0.4017309085296216,0.1643408628246062,-0.976899779692302,-0.19723711058764282,0.08224562386029988,1
162,32.43333333333333,-0.9850002390097046,-0.165799797725752,0.04780121572643129,-0.976508930207893,-0.19831299719476908,0.08427493321186362,1
163,32.63333333333333,-0.9855039185138872,-0.16326355973099677,0.0461198076506927,-0.9774851066459631,-0.19289179173758714,0.08553141508003588,1
164,32.833333333333336,-0.9970420226927874,-0.013143265125248252,0.07572621452656042,-0.9781092075697981,-0.19084433604629994,0.08295069298220957,1
165,33.03333333333333,-0.9968004603596068,-0.01906150779879274,0.07762410158779638,-0.9785980004376897,-0.1886607670572085,0.08217705587778966,1
166,33.233333333333334,-0.9970076222138627,-0.020441041469243998,0.07455176101952671,-0.9787040312089073,-0.18915959672484728,0.07973121259787609,1
167,33.43333333333333,-0.9974240089618873,-0.019808203179032313,0.06894186995734393,-0.9787974344162524,-0.1900664921389804,0.07635647285034296,1
168,33.63333333333333,-0.9976997000374966,-0.016223654655980333,0.06581870231699316,-0.9792075590023015,-0.18823210668252108,0.07563881547601255,1
169,33.833333333333336,-0.9664682821637034,-0.2532929333509834,0.04221077452493131,-0.9793376190776175,-0.18802549734031543,0.07445965490996206,1
170,34.03333333333333,-0.88822989998713,-0.4375855642803367,0.13988037282732957,-0.9795321759889143,-0.18640228010283222,0.07596648060091121,1
171,34.233333333333334,-0.9001916044866591,-0.41967573057332047,0.11630716392159324,-0.979264739542539,-0.18896416678778855,0.07302816962570206,1
172,34.43333333333333,-0.9035009466985203,-0.4106454357306317,0.12270438227087514,-0.979161753551023,-0.1895320809729626,0.07293730640038802,1
173,34.63333333333333,-0.9125361096752184,-0.38609609541966716,0.13493573892970326,-0.9788633392570529,-0.18951707005928956,0.07687550464663025,1
174,34.833333333333336,-0.9194652498791919,-0.36795652511313803,0.13853393046925466,-0.9787553112517035,-0.18919374983537693,0.07901750261689115,1
175,35.03333333333333,-0.924484957482883,-0.35661753745539454,0.13472748556668981,-0.979212465294292,-0.18711679873662135,0.07829592226185236,1
176,35.233333333333334,-0.9284910668684225,-0.3476783456305371,0.13047646042543992,-0.9794086338812814,-0.18637048074210866,0.07761940341665782,1
177,35.43333333333333,-0.9317034743419654,-0.34043848639760815,0.12661071391638334,-0.9794858407204493,-0.1861594312448909,0.07715020406151463,1
178,35.63333333333333,-0.9339575509358492,-0.3353130264979582,0.12364654184687049,-0.9794399370424157,-0.18601935835008687,0.07806540876323462,1
179,35.833333333333336,-0.9366421907560212,-0.32910845784502113,0.11995428075159763,-0.9799645254401217,-0.18350725900481615,0.07742489761992814,1
180,36.03333333333333,-0.9382557085319336,-0.3238550443472337,0.1216311459211438,-0.9800122634478357,-0.18182137070453278,0.08072764487444832,1
181,36.233333333333334,-0.9389115462618675,-0.32083131380085556,0.1245486908039038,-0.9794746032125117,-0.1821348071171582,0.08635052807069747,1
182,36.43333333333333,-0.9409475306973587,-0.3141308204417885,0.1262520182932225,-0.9799401690747783,-0.17750967516694688,0.0905956966738497,1
183,36.63333333333333,-0.9429604287183059,-0.30818220246925954,0.1258942411414656,-0.9804728188150948,-0.1734531514021031,0.09266636840548613,1
184,36.833333333333336,-0.9955199180910779,0.08511863127356127,0.04116930038329012,-0.9809226628264738,-0.17203178887472198,0.0905306200684795,1
185,37.03333333333333,-0.9955953365765768,0.0794150937351952,0.049831402488825026,-0.9811992281468214,-0.16776422472687194,0.095410898674491,1
186,37.233333333333334,-0.995405362661675,0.08371606255723371,0.04647348549757201,-0.9824435464885624,-0.16136284592851852,0.0936307103296008,1
187,37.43333333333333,-0.9948995651358001,0.08706454977940375,0.05093740731825388,-0.9830853033154445,-0.1560201245121223,0.09592188046740165,1
188,37.63333333333333,-0.9930276562183085,0.08917148519042015,0.0771007147470627,-0.9810768913411522,-0.15126118986449583,0.12086432772806924,1
189,37.833333333333336,-0.9887767281961417,-0.13643137034888994,0.06088565481669139,-0.9794248131763138,-0.1478887344515516,0.13731699660588836,1
190,38.03333333333333,-0.9289257475980193,-0.34576693800657415,0.1324468951354437,-0.9794409525167517,-0.1398566018427203,0.14538071211163262,1
191,38.233333333333334,-0.9287662311765268,-0.3494744735116666,0.12353493509891862,-0.979347295189531,-0.1455045135342914,0.1403827337890916,1
