,timeStamp,x_gaze,y_gaze,z_gaze,x_head,y_head,z_head,fixations_head
0,0.03333333333333333,-0.993730322252899,-0.07890880613284929,0.07920509421645719,-0.9967998034552431,0.015741049293023314,0.07837328115336094,0
1,0.23333333333333334,-0.9932282189649226,-0.08079342031115039,0.0834872941602092,-0.996214485424381,-0.006307681888495054,0.08670012791126436,0
2,0.43333333333333335,-0.9845549792409922,-0.14709585767382077,0.0949436754448268,-0.9898910543474071,-0.09708192375711046,0.10339632780035152,0
3,0.6333333333333334,-0.610120944188913,-0.7605354374164368,0.22212222287699726,-0.9054803406551654,-0.4031037836905433,0.13271281875302657,0
4,0.8333333333333334,-0.6710677919432033,-0.7113786845388301,0.20882620956258768,-0.8361392730169059,-0.5322565169759352,0.13256740268786446,0
5,1.0333333333333334,-0.3744538915980829,-0.8456499483448354,0.38034254025999775,-0.7436364403091028,-0.6539231985181074,0.13924544906119696,0
6,1.2333333333333336,-0.47655954943274226,-0.8351612741600708,0.2745844897072462,-0.6906201704809298,-0.7096250173119439,0.13955685196333034,0
7,1.4333333333333336,-0.4942189116429291,-0.836479624872719,0.23674776566479797,-0.6767540628392407,-0.7312184642019879,0.08557742716784135,0
8,1.6333333333333335,-0.8026728928342857,-0.5852629207714222,0.11481960058780713,-0.6749215950279688,-0.7376417049562262,0.0191195103016336,0
9,1.8333333333333335,-0.8387942696017201,-0.5269742884426144,0.1368293557820007,-0.7139589935052045,-0.6996742822227002,0.026803999499786544,0
10,2.033333333333333,-0.9995309942712634,-0.017771178892433313,0.024939460536920824,-0.9016532073564432,-0.429948072892701,0.04654189811010934,0
11,2.2333333333333334,-0.9919046176911719,0.10638890324858834,0.06932986851633904,-0.9971222993070128,-0.004103039885448656,0.07569864786371713,0
12,2.4333333333333336,-0.7035306488465064,0.7090485734061471,0.0479035143212023,-0.8878721962314271,0.4519536792114074,0.08614426856416176,0
13,2.6333333333333333,-0.6793500166462012,0.7185069374741389,0.14910176284786233,-0.6685419467686924,0.7400876689872983,0.07295140590608659,0
14,2.8333333333333335,-0.20258139833677713,0.9783121505430142,0.043198531778506584,-0.5256522348536204,0.8490575560738137,0.05282986340468011,0
15,3.033333333333333,-0.15698501315579377,0.9863465285150332,0.04976174565686106,-0.42148160240904126,0.9050583374906107,0.05676851741448523,0
16,3.2333333333333334,0.15019137347388523,0.9873280153728821,0.051243940069763676,-0.3024867775264298,0.9505037046856,0.07102433949447294,0
17,3.4333333333333336,0.2946867994588462,0.9537115971695976,0.05994897537837323,-0.09825120931133763,0.991068556292011,0.09016549560740332,0
18,3.6333333333333333,0.40230544234013593,0.9117065137702196,0.08331604774867887,0.1339826933073326,0.9882070554343324,0.07413132592851339,0
19,3.8333333333333335,0.4688113095529576,0.8693289679248738,0.15647076903343476,0.34404714595469144,0.9373950752895892,0.054055843192543696,0
20,4.033333333333333,0.8375077857934465,0.53601901321315,0.10613353008997412,0.6356318728161152,0.771256106905873,0.03370667323653535,0
21,4.233333333333333,0.9340528988724331,0.3116653639077159,0.17438429702319966,0.8360938909932789,0.5459434038919008,0.0537848044585447,0
22,4.433333333333334,0.8891473889058679,0.334217316368631,0.3125951155108283,0.922361918576286,0.38171809046205035,0.05949613915439142,0
23,4.633333333333334,0.8706622622583425,0.3880924772476236,0.3022109431886748,0.9181023363452118,0.38919749642673584,0.07492268530041195,0
24,4.833333333333334,0.3655679599103126,0.7477612220635398,0.5542681855068484,0.7804556230252481,0.6164838532414326,0.104099371664136,0
25,5.033333333333333,0.31715042640309116,0.9142898912768355,0.25197143040696046,0.4948624563106155,0.8625883992653409,0.10513040847956862,0
26,5.233333333333333,-0.234299653508926,0.9562373589025708,0.17525349013538394,0.1624215287747356,0.9845720024846326,0.06509392378616102,0
27,5.433333333333334,-0.07725058081687913,0.9921852989049492,0.09798306180331302,-0.08804822029015441,0.9948034170002492,0.05112408853334017,0
28,5.633333333333334,-0.42347476139298956,0.9046568504629623,0.047593165198211204,-0.3442400314324118,0.9388451402669289,0.008282714324598197,0
29,5.833333333333334,-0.7908497661773559,0.6118215873573561,-0.01519844007608863,-0.6507096326568473,0.7563501145872181,-0.06716753778048547,0
30,6.033333333333333,-0.6007136959302125,0.7994622973205878,-0.0017580343433589306,-0.6275999630101359,0.7767016579144889,-0.053411806022268214,0
31,6.233333333333333,0.14667884537565917,0.9874733179259276,0.058152925151046815,-0.09437333092176847,0.9953682917817728,0.018320429202562577,0
32,6.433333333333334,0.6582951544294724,0.7323097848933591,0.17426952861622078,0.5258633932677669,0.8485621213762011,0.05839535757602228,0
33,6.633333333333334,0.9347778186818846,0.28050319566778026,0.217964187242999,0.8779164521587746,0.47421591552937614,0.06619643863219335,0
34,6.833333333333334,0.9238359074915227,0.3744265528508758,0.07957369257188807,0.962134596468025,0.26463637456536215,0.0653039626378999,0
35,7.033333333333333,0.8983005990779473,0.4274014058855472,0.10190226662473761,0.9635201893705305,0.2663112073649865,0.026592959729596594,0
36,7.233333333333333,0.8270205744848439,0.5457985355229509,0.13468826229394054,0.9472577781939766,0.31995095789870653,0.018278024803330854,0
37,7.433333333333334,0.8289037553793736,0.5466354705149998,0.11877805644485212,0.8553375068092278,0.517549871043664,0.0232353271563177,0
38,7.633333333333334,0.7207514855730124,0.687535043102586,0.08839038720483944,0.6016610737495693,0.7979812762808368,0.035069003973906825,0
39,7.833333333333334,-0.048958860529316084,0.9982570630399065,0.032952481949182474,0.31419086090803794,0.9492477352468813,0.014589038711741376,0
40,8.033333333333333,-0.043862868400358135,0.9990279322143738,0.004386277597906213,0.2116492455327686,0.9773374247150852,0.004019342818765594,0
41,8.233333333333334,0.13023481336784232,0.9823404119039257,-0.13433617728470976,0.21315506362145964,0.9761753300102296,-0.04057886065367898,0
42,8.433333333333334,0.21587674178399208,0.9665300837355115,-0.13862477985898852,0.3106631253581373,0.9486878528744398,-0.05898966308769452,0
43,8.633333333333333,0.7527102879773764,0.6449803064092599,0.13201373685049833,0.6086321331083279,0.7926934985977243,-0.034697893724353404,0
44,8.833333333333334,0.9632262096001419,0.1460817008093334,0.22551143170135807,0.9541871467767493,0.2989231726131756,0.013108234088536539,0
45,9.033333333333333,0.7607729358832505,-0.6481742043162498,0.033086868793774274,0.912877085083832,-0.40721568106641587,0.028823889787148737,0
46,9.233333333333334,0.6094398019438427,-0.7786684460858927,-0.1491930925908815,0.5922101807364926,-0.8027326982306324,-0.07005224495631544,0
47,9.433333333333334,-0.06562662887754073,-0.9567929305251658,-0.2832674243170834,0.3298941559801914,-0.9349620901133805,-0.13044437857161997,0
48,9.633333333333335,-0.07015489950509213,-0.9594766768132775,-0.27291536550143186,0.008676677049188675,-0.9796395670893826,-0.200576753060547,0
49,9.833333333333334,-0.32416074226318015,-0.8361677312047741,-0.44242890781146377,-0.2658351326781834,-0.9035102128875955,-0.33615618013325993,0
50,10.033333333333333,-0.6708932622181124,-0.5264476533631753,-0.5222596087950373,-0.4638521237915295,-0.7500868229477103,-0.4713925808647158,0
51,10.233333333333334,-0.704530244962557,-0.4543971427788728,-0.545124179033912,-0.6595984026306447,-0.5311338052206783,-0.5318146558707316,0
52,10.433333333333334,-0.47656650046626997,-0.20143587005561767,-0.8557499406300121,-0.8863484369889093,-0.31260343700161414,-0.34156337541091164,0
53,10.633333333333335,-0.6753083225037805,-0.2022554314582082,-0.7092611719266637,-0.9686956213234246,-0.21760619666290074,-0.11948362399396542,0
54,10.833333333333334,-0.7392755426935536,-0.1312736171943017,-0.6604838449227018,-0.992909199476214,-0.10356070306807275,-0.058365249725763596,1
55,11.033333333333333,-0.9206043242425523,-0.2884190223573261,0.2632530070642264,-0.9991099215670662,-0.03492767815104457,-0.023652101919872118,1
56,11.233333333333334,-0.9856776831784173,0.03491882763693277,0.16498539438535087,-0.9983563951927081,-0.056952720547040515,-0.006394982416857685,1
57,11.433333333333334,-0.988999819990855,0.012399581781194087,0.14739608688736597,-0.997490959068482,-0.07078614015309995,-0.00105306166285301,1
58,11.633333333333335,-0.9939693770979467,0.029149517572013853,0.10571273819573007,-0.9980806194440632,-0.052718246133716895,-0.03249405506765948,1
59,11.833333333333334,-0.9976698853995516,0.045682564026548245,-0.05067448185039396,-0.9982714286417057,-0.027379913286022763,-0.052004760417657434,1
60,12.033333333333333,-0.9936086976626837,0.09739736170907634,-0.057057075469892506,-0.99804830910543,0.03786379406468656,-0.04965788749855506,1
61,12.233333333333334,-0.9973999218850381,0.020764441589394302,-0.06900893992230822,-0.9983799234820664,-0.01786303593787887,-0.05402259096920074,1
62,12.433333333333334,-0.9957494395184042,0.01146675451896687,-0.09138690956360383,-0.9974975382391201,-0.01961404225026739,-0.06792606681900416,1
63,12.633333333333335,-0.8502100045705953,0.07069033374518116,-0.5216759768698032,-0.9973067089364691,-0.038497090770933266,-0.062428377461563433,1
64,12.833333333333334,-0.8569249042527805,0.02702965679120693,-0.5147320721745561,-0.9936868549453253,-0.09825985062455936,-0.05414273787044636,1
65,13.033333333333333,-0.9467093190977895,-0.3121182676373648,0.07952139423105188,-0.9887957611933899,-0.1327638057771409,-0.06824012398548607,1
66,13.233333333333334,-0.9021512367633462,-0.06761793649883349,-0.426087972923438,-0.991609993731605,-0.05388982261687325,-0.11749683974443167,1
67,13.433333333333334,-0.6788847210004714,0.21428222960511942,-0.7022810417970651,-0.8694927455306249,0.07599650245949344,-0.4880644394785796,0
68,13.633333333333335,-0.36305841178372306,0.2201112465299443,-0.9053947364459964,-0.6264528870889399,0.14285257345690175,-0.7662570864368387,0
69,13.833333333333334,-0.24274637037378388,0.195646709237227,-0.9501560739346974,-0.4662420492850063,0.1510317780747501,-0.8716695207990796,0
70,14.033333333333333,-0.218689307421011,0.2007866364602524,-0.9549134586121915,-0.3723340814041183,0.1561993650435346,-0.9148601478832424,0
71,14.233333333333334,-0.06417754838001467,0.06659458849430964,-0.9957140167072092,-0.3736356976841455,0.16375585739633988,-0.9130062346909092,0
72,14.433333333333334,-0.5874097620442925,0.38002085234857336,-0.7145165661027966,-0.49491566892117866,0.20806668742731077,-0.8436626898466759,0
73,14.633333333333335,-0.7705161332548105,0.5339419761609008,-0.34815349271183194,-0.7474556470361136,0.2756762506294862,-0.6044110030043246,0
74,14.833333333333334,-0.7364281947289293,0.433701344445123,-0.5192077212780869,-0.9618046691815607,0.24907181156439767,-0.11355620205245617,0
75,15.033333333333333,-0.9886781247514559,0.06493510596280497,0.13527378774745713,-0.9758416871141136,0.15496796137637475,0.15400627466805086,0
76,15.233333333333334,-0.9953403471033829,0.04620261632317573,0.08463398651257607,-0.9797930468049525,0.08391100600091554,0.18156136291783698,0
77,15.433333333333334,-0.9004051497477805,-0.3698883004522865,0.22902666110345257,-0.9887623215795099,0.03005700257692675,0.14644332699303386,0
78,15.633333333333335,-0.8949788673551725,-0.38411476310999015,0.226867088288735,-0.9869100751733195,-0.05420659118503063,0.15188860718793987,0
79,15.833333333333334,-0.8578643836129592,-0.4430025642027715,0.26041779401209736,-0.9675174929709119,-0.1667310276934255,0.19002806424203747,0
80,16.033333333333335,-0.9174431491266353,-0.3350096328444567,0.21463134445375084,-0.9611976369530099,-0.22138005821694964,0.1645903172723407,0
81,16.233333333333334,-0.9077421971671655,-0.3429589616087962,0.24162626954522715,-0.9571400557936087,-0.22905702846407164,0.17724500361538412,0
82,16.433333333333337,-0.9345831871229043,-0.31375100918955834,0.16767400090571077,-0.9743846534805444,-0.2046403957579331,0.09325693264115137,1
83,16.633333333333336,-0.9543156629343226,-0.054345304871083716,-0.29381661511339624,-0.9880381309572168,-0.14975446591452227,0.03680015914674944,1
84,16.833333333333336,-0.9513623930153503,-0.009137021437502564,-0.3079384873564151,-0.9946723987140669,-0.1000267933299759,0.02492909650442051,1
85,17.033333333333335,-0.947502359162308,0.02103717630216958,-0.3190559772126077,-0.9972382786208982,-0.07314776705543682,0.012853786525043065,1
86,17.233333333333334,-0.8956517004556589,-0.11533181932765492,0.4295423179635043,-0.997429537119789,-0.07030247455115621,0.013852095617189418,1
87,17.433333333333337,-0.8837712789198228,-0.1211738072836376,0.4519571163117235,-0.9971918222571415,-0.07192871149426343,0.020850181923827565,1
88,17.633333333333336,-0.8884191710114213,-0.12275583241723717,0.4423147998732692,-0.9969835389815318,-0.0763638485068373,0.013870315104044656,1
89,17.833333333333336,-0.8929672112693593,-0.12692148056878924,0.43185703348220456,-0.996942343504506,-0.07778670298550192,0.007429169966352178,1
90,18.033333333333335,-0.9859928586330436,-0.025193206812518618,0.16487384587963214,-0.9971121905575718,-0.075935742340995,-0.00102101743501886,1
91,18.233333333333334,-0.9875631837072064,-0.029972106465623986,0.15433933724135246,-0.9973027675378685,-0.0731506073540517,-0.006014857025883162,1
92,18.433333333333337,-0.9880031897003568,-0.03321868987705676,0.15081848621695212,-0.9975382997804187,-0.06930806287586867,-0.01066456241887426,1
93,18.633333333333336,-0.9396514390451369,0.34051520259003915,-0.03323507041467347,-0.9977976321979312,-0.0646003654845813,-0.015055828089500643,1
94,18.833333333333336,-0.9440081296185658,0.32796690815078633,-0.03586583851063719,-0.9980625352973681,-0.05828745868254724,-0.021765748232502064,1
95,19.033333333333335,-0.9822169196640922,-0.18405871691467404,0.03704472234079209,-0.9976418226678774,-0.06242018590941998,-0.028539692621841098,1
96,19.233333333333338,-0.9824213010732689,-0.18390661595094865,0.03204284330355504,-0.9972228220949083,-0.06670902337988148,-0.033114185672752025,1
97,19.433333333333337,-0.9823621814639353,-0.18422586277617567,0.03202149143609413,-0.9975005578194105,-0.06315761535261037,-0.03168205758685506,1
98,19.633333333333336,-0.9796036486848093,-0.20007547176004867,0.018614432126790613,-0.9974384199698154,-0.062441434307528555,-0.03489506626640496,1
99,19.833333333333336,-0.9751739666744625,-0.221368811506985,0.005619965514076139,-0.9969640749588415,-0.06726369210867526,-0.03922026217876666,1
100,20.033333333333335,-0.9722953485594057,-0.2337266364864543,-0.003689792199102815,-0.99675638402568,-0.0684010796835804,-0.04240286785314892,1
101,20.233333333333338,-0.9992696232412804,-0.02108539891772033,0.03186888795847879,-0.9950495007707167,-0.0717779538937295,-0.06873438986982261,1
102,20.433333333333337,-0.9985560996277799,-0.030303224652126388,0.04435572648304051,-0.993750580485506,-0.08029603344339788,-0.07753922103024292,1
103,20.633333333333336,-0.9506107426087268,0.3019144824983787,-0.07201986736048037,-0.9939264137107595,-0.07663098424286385,-0.078980860859059,1
104,20.833333333333336,-0.9519989052702006,0.2976249104224004,-0.07153668331980464,-0.9943125652867808,-0.07052103097298107,-0.07980793634300756,1
105,21.033333333333335,-0.9991254507893352,-0.014959598309948313,0.03904540950499379,-0.9947536116195184,-0.054863718342713946,-0.08634364238052611,1
106,21.233333333333338,-0.9991186947791311,-0.02676550200849721,0.03233329004415291,-0.994074923206014,-0.048317995299136246,-0.09736744005688183,1
107,21.433333333333337,-0.9203157700163933,0.1199012253211373,-0.37234739105521264,-0.9940924297032,-0.04928869397325738,-0.09669987514572695,1
108,21.633333333333336,-0.9810230547897201,-0.19365719456177127,-0.009521395145159171,-0.993650939282841,-0.07343137305767902,-0.08523874889504185,1
109,21.833333333333336,-0.9441686008775994,-0.3030873873986681,0.1291653541654514,-0.9787387181058813,-0.19476890192664875,-0.06430860380029672,1
110,22.033333333333335,-0.8405640232719116,-0.5049388294027367,0.1961858846663841,-0.9343471735695287,-0.35612162225138033,-0.013143416895087974,0
111,22.233333333333338,-0.8044281550538672,-0.44628276224989466,0.39208039924897464,-0.8746714188307787,-0.48250776608936996,0.046218662291313314,0
112,22.433333333333337,-0.7941718175650244,-0.46616763696603924,0.38984465935929447,-0.8278093591904149,-0.5498682787242467,0.11124990287451372,0
113,22.633333333333336,-0.7465400746897881,-0.493891032238593,0.44581337480661437,-0.7604825584724846,-0.6271910582593508,0.16821906758349392,0
114,22.833333333333336,-0.248626737312906,-0.7930429184675224,0.556118400128654,-0.5203468789203877,-0.826052140005197,0.21651094104143173,0
115,23.033333333333335,0.06435868212706636,-0.9492887207901789,0.30774808629041617,-0.17762495044736287,-0.9725194259308437,0.15051691986522334,0
116,23.233333333333338,0.38009321979471317,-0.9219092803814315,0.07491610649706276,0.2013755455734268,-0.9772408540891535,0.06669484795774606,0
117,23.433333333333337,0.8275494713356398,-0.5603706004648967,-0.03386240727878739,0.4822100683895918,-0.8737020859618626,0.06417254030810532,0
118,23.633333333333336,0.8837881769241204,-0.4233630502629517,0.19920388048727736,0.6664236199779907,-0.740501995525059,0.08681217287245016,0
119,23.833333333333336,0.8803485595514016,-0.4553416453545923,0.13285480684395656,0.8113715294980367,-0.577230963877864,0.09209047432090185,0
120,24.033333333333335,0.9980225852623494,0.06132226339042761,-0.013802149069310456,0.9265340525593165,-0.3705718149926795,0.06489360046292142,0
121,24.233333333333338,0.8970397287340274,0.3924927525423146,0.20314813381997956,0.9915201848951173,-0.10327016539379953,0.078885967605717,0
122,24.433333333333337,0.7461099728145242,0.6238142360947202,0.23275675567482546,0.9826510648045357,0.17155478080909373,0.0704687307964046,0
123,24.633333333333336,0.5070389255551725,0.7208280551095603,0.47256580805092574,0.9187627315422681,0.3917615693796594,0.04896851933821278,0
124,24.833333333333336,0.4169492273465071,0.8709887601117581,0.259869046971996,0.784631207389241,0.6182176969852329,0.04648384154925831,0
125,25.033333333333335,0.21142156286837416,0.9398468197402192,0.26830743220881914,0.6372882775289497,0.7689463676485586,0.05084422291934581,0
126,25.233333333333338,0.3254360240139912,0.9377704790683314,0.12115247773742478,0.5249824232235412,0.8508899672123481,0.01948637995391169,0
127,25.433333333333337,0.27511187597497283,0.9549898750999303,0.11094049825988155,0.405090132226705,0.9141624803285657,0.014454906851150907,0
128,25.633333333333336,-0.010680014593671183,0.9954388865074707,0.09480169047567646,0.18778847382252972,0.9820379629694095,0.018355609123585085,0
129,25.833333333333336,-0.3614742808911082,0.9318197888958677,0.03237630732985381,-0.10424362229590933,0.9944182300304297,-0.01629880344611902,0
130,26.033333333333335,-0.7816676275482308,0.4996879576816596,0.3732394204676833,-0.4556875063085288,0.8888145722806982,-0.048554636192588964,0
131,26.233333333333338,-0.8702031415524398,0.28345235121440504,0.40299039321464014,-0.7056475287218522,0.7027079005585176,-0.09090198953479184,0
132,26.433333333333337,-0.9189227436562638,0.09152689446479903,0.3836714985255931,-0.8561985659701388,0.5037112886235061,-0.11488669785455957,0
133,26.633333333333336,-0.9806433260382073,0.12358797984352658,0.15187059733509634,-0.925428213912001,0.3663565404944203,-0.09677554511654247,0
134,26.833333333333336,-0.9658554671737923,-0.017501471015887105,0.25848968072783035,-0.97016166761457,0.22618662214461477,-0.08732668924289998,0
135,27.033333333333335,-0.8657284970512462,-0.2170560397438348,0.450999828164173,-0.9953994397208639,0.06748609522973008,-0.0680116339609229,0
136,27.233333333333338,-0.8541542298926996,-0.3554797081875395,0.3795454236627167,-0.9927781245061384,-0.10235036455110498,-0.06257793843144545,0
137,27.433333333333337,-0.861826367562426,-0.3794019271830764,0.3366147498609087,-0.9697437374440236,-0.22820057746390668,-0.08672704384006501,0
138,27.633333333333336,-0.8890869633957008,-0.4392497327877994,-0.12877905018153699,-0.9249681857023073,-0.3616168064901652,-0.11690654687585514,0
139,27.833333333333336,-0.909029848315029,-0.4056561348492934,-0.09543497855339872,-0.8970057323639256,-0.4322225942355123,-0.09254374716090306,0
140,28.033333333333335,-0.9092912371782196,-0.20562508298137547,0.3618117898021083,-0.8995179822975525,-0.43379322230159223,-0.05187330535585755,0
141,28.233333333333338,-0.9274460773479971,-0.18441991682038217,0.32531994696264255,-0.9184434077729664,-0.39524925379083387,-0.015483348997218233,0
142,28.433333333333337,-0.9348588308875363,-0.20002804098561044,0.29330487403220573,-0.9494931466131318,-0.3136347665980421,0.00979784239949573,0
143,28.633333333333336,-0.9349413167099895,-0.1720275063773847,0.31030834883736236,-0.969216895554853,-0.24536074374563488,0.020413593500472615,1
144,28.833333333333336,-0.9578665620799506,0.011501214711593268,0.2869832247872586,-0.9803146870486278,-0.19591445926363366,0.024507937656786525,1
145,29.033333333333335,-0.9564033700317097,0.01592059990126645,0.29161469148651,-0.9836291768243027,-0.17684415915071522,0.034637925374094526,1
146,29.233333333333338,-0.8751694495273762,-0.17246313673554511,0.4520341813196058,-0.9892646445364991,-0.1334532655022809,0.05954568831453803,1
147,29.433333333333337,-0.8714146034626982,-0.1781020085517365,0.45707358644072393,-0.9883050816904774,-0.13211953654448633,0.07614127374853305,1
148,29.633333333333336,-0.875800634445122,-0.1841880106008583,0.446147986049943,-0.9880401806963757,-0.13271417937205812,0.0785082665906871,1
149,29.833333333333336,-0.9730706470397364,0.06949192320467935,0.21978259366697742,-0.9900603305999156,-0.1256665673258148,0.06315422099062437,1
150,30.033333333333335,-0.9758677040865426,0.08369836544085908,0.20168492195349877,-0.9936385256048419,-0.10060774129470851,0.050602004163994685,1
151,30.233333333333338,-0.9695845121836649,0.2115908154708362,-0.1230252028730342,-0.9961596415043333,-0.06746218186920079,0.05581059626455248,1
152,30.433333333333337,-0.9619678462844745,0.2383368156542389,-0.13346694354261238,-0.9981975460801435,-0.04169760319669568,0.04316212329381609,1
153,30.633333333333336,-0.9608837162787494,0.2441449915075254,-0.13075055224407525,-0.9982934428895633,-0.03599757213533182,0.04598235187617014,1
154,30.833333333333336,-0.9617395123540827,0.24095907854091694,-0.13036806681716034,-0.9980713168803806,-0.04083612271040387,0.04675529384619088,1
155,31.033333333333335,-0.8746447185047064,0.39003035458787644,-0.2878766035854223,-0.9969415744948273,-0.05219703537029079,0.058163274859033574,1
156,31.233333333333338,-0.8788712804511504,0.38266637560625627,-0.28487140498570096,-0.9963005396759674,-0.05909979039121766,0.06238949765057115,1
157,31.433333333333337,-0.8797558294685034,0.38069778037601826,-0.2847786518209516,-0.9961814924687029,-0.06039429813692748,0.0630473061706503,1
158,31.633333333333336,-0.8794667989603953,0.38207142497101654,-0.2838301882234741,-0.9962094018116988,-0.05807057885155845,0.06476600662247417,1
159,31.833333333333336,-0.8773688883858319,0.38655224563442714,-0.28425551021500206,-0.9964731842057855,-0.05202434767460602,0.06583813794310216,1
160,32.03333333333333,-0.8755180509755949,0.3915784425027106,-0.2830803168414352,-0.9966407553354988,-0.045685015180003986,0.06797120119792838,1
161,32.233333333333334,-0.8752099415211521,0.39333413576442444,-0.28159512763006983,-0.9965628573859681,-0.04289706080886181,0.07086828241657861,1
162,32.43333333333333,-0.9471189186549599,-0.14681953070845205,0.2853239901031978,-0.996551204802987,-0.04303958718939555,0.07094568443732756,1
163,32.63333333333333,-0.9494287260892746,-0.14763089495966075,0.27711047062481553,-0.9964113009794673,-0.04544111466377876,0.07141165436060808,1
164,32.833333333333336,-0.9494508134530145,-0.14779746571840746,0.2769459549454108,-0.996338666313502,-0.042699885799872016,0.07406741362644206,1
165,33.03333333333333,-0.942754373846434,-0.16238312058792187,0.2912832174045505,-0.9955900781240338,-0.05198200556807058,0.07809140438039024,1
166,33.233333333333334,-0.9428388801201242,-0.16664085511795146,0.28859257013892087,-0.9957089717412222,-0.05561236197716301,0.07396559192867276,1
167,33.43333333333333,-0.9422102411370719,-0.1745642549962789,0.2859496150968122,-0.9952350830647538,-0.06412928285707875,0.07344769919697679,1
168,33.63333333333333,-0.9449691048248224,-0.16913302035945027,0.2800489463480691,-0.9957073500068054,-0.05956938753036153,0.0708403925150237,1
169,33.833333333333336,-0.9496023423624289,-0.15616733255150012,0.2717851276717286,-0.9970183155265873,-0.044809054092385475,0.06282218697142432,1
170,34.03333333333333,-0.9542541447297851,-0.13874800281688202,0.26485471296609625,-0.9981270734274592,-0.02143523605958986,0.05729638685122221,1
171,34.233333333333334,-0.9156459679305722,-0.20435099346421978,0.3461692257880129,-0.9982905619442135,-0.017781124201944738,0.0556757178240377,1
172,34.43333333333333,-0.9168186618739784,-0.2017010026675602,0.344616086047225,-0.9981084691505786,-0.029006655358790056,0.0542042226656328,1
173,34.63333333333333,-0.9131442263420827,-0.1988442233390446,0.35584912075599096,-0.9977536897547794,-0.03507986742414553,0.05706993501159974,1
174,34.833333333333336,-0.9016106655268528,-0.19554782626408693,0.38582282909596727,-0.9970000153989279,-0.03848713417805845,0.06715437288291558,1
175,35.03333333333333,-0.8923108559246575,-0.1901187599988641,0.4094339916219697,-0.995740697965785,-0.036382890047786984,0.08471568760496583,1
176,35.233333333333334,-0.8585081462851434,-0.18481277778233146,0.47833879199833423,-0.9883153986381384,-0.03571860494800069,0.14817845347858696,1
177,35.43333333333333,-0.8273155901539574,-0.18795681357657523,0.5293591885651462,-0.9784256484572355,-0.04195929048166574,0.20229352036907536,1
178,35.63333333333333,-0.8249487356035896,-0.19057884415860837,0.5321083421496112,-0.9770736697476696,-0.04432053512361571,0.2082372062148804,1
179,35.833333333333336,-0.597427261252105,0.024065883899326193,0.8015619132325045,-0.9759452224789498,-0.05078475443184915,0.21201846956765397,1
180,36.03333333333333,-0.5858291925891296,0.029072178655270894,0.8099129370115068,-0.9726306597287797,-0.046009581628955715,0.2277558301205198,0
181,36.233333333333334,-0.7416078531415459,-0.01628579752305736,0.6706359406994417,-0.9532415670999005,-0.05362559786937841,0.2974135336632784,0
182,36.43333333333333,-0.6427360025333353,-0.01197128879490814,0.765994203171315,-0.9101870100206698,-0.04274622520902014,0.41198588206395237,0
183,36.63333333333333,-0.5704678383444126,-0.01795637726303862,0.8211236288953333,-0.8722886606668733,-0.03818134692920137,0.4874983868882691,0
184,36.833333333333336,-0.4743278140566544,-0.032370459855306476,0.8797529642695114,-0.8132401046720258,-0.04139647554444994,0.5804540153754908,0
185,37.03333333333333,-0.36313546573814814,-0.12671320922401363,0.9230798427716259,-0.7468543152790773,-0.05039905579181575,0.6630750839266352,0
186,37.233333333333334,-0.3675888197850214,-0.13610761152229842,0.9199745527212971,-0.7189023720026952,-0.06442501568674686,0.6921190626493835,0
187,37.43333333333333,-0.344152102150918,-0.13689795476651512,0.9288801217411478,-0.6832680926667248,-0.07434733067027492,0.7263726233592376,0
188,37.63333333333333,-0.35817638704126964,-0.1562823050038832,0.9204811333801124,-0.6989439171888768,-0.10442100330860184,0.7075123000292601,0
189,37.833333333333336,-0.8638495414654503,-0.30479898007411127,0.40107549346190824,-0.8375646138134591,-0.1751808079902923,0.5174912580898149,0
190,38.03333333333333,-0.8768163050202571,-0.3132390309944393,0.3647937454401991,-0.9055620864012885,-0.19884161292388144,0.3747256605069566,1
191,38.233333333333334,-0.8307588585544207,-0.28628399235506014,0.4773690340340522,-0.9348735118607094,-0.19889011532700993,0.29403101681018795,1
192,38.43333333333334,-0.858091994787093,-0.1390970176653803,0.4942976311483844,-0.9490008779709818,-0.19135110836801789,0.25056353872149295,1
193,38.63333333333333,-0.8424290364349263,-0.09738368143187928,0.5299337101582577,-0.9593760141938741,-0.1552634200272572,0.23556513704475748,1
194,38.833333333333336,-0.9184906292187625,0.15127548702741994,0.365363779077701,-0.9599124601379054,-0.12961397929525706,0.24853226197667613,1
195,39.03333333333333,-0.9138237726672838,0.1556293349005934,0.3751074814323644,-0.9583087617717282,-0.11044242428768605,0.2635275849488932,1
196,39.233333333333334,-0.895638410795503,0.18844173956452012,0.4028914840221912,-0.9555374112214697,-0.062251987838871294,0.2882237772396319,1
197,39.43333333333334,-0.9108421326591482,0.13282982977797567,0.3907977043101571,-0.9472488176713943,0.002399746642781282,0.32049012252516657,0
198,39.63333333333333,-0.9158608715618934,0.15744872416835162,0.36933556990851524,-0.9573471027029424,0.045240183653514975,0.2853766821751181,0
199,39.833333333333336,-0.9677150588262564,0.12427878582010385,-0.2192768759262492,-0.9793960007572073,0.034751744574415135,0.19893664808129974,1
200,40.03333333333333,-0.8734378726060771,0.17719638599012563,0.4535501333804335,-0.9854541020438816,0.046098026549583185,0.1635701217005143,1
201,40.233333333333334,-0.8628287414310823,0.17588075084518798,0.47391193743414783,-0.9864445117161129,0.07110240639356118,0.1478907472095689,1
202,40.4,-0.8707040734022632,0.18832968466952701,0.4543196522636711,-0.9934357011741353,0.08876013476038713,0.07216055785519068,1
