,timeStamp,x_gaze,y_gaze,z_gaze,x_head,y_head,z_head,fixations_head
0,0.03333333333333333,-0.9980266061258307,-0.014000448252791613,0.06121177103855982,-0.9914819829495796,-0.10905519830741613,0.07120703061145028,0
1,0.23333333333333334,-0.999020576710036,0.0036814955862334987,0.04409460171263008,-0.9937237759236776,-0.09676633075201178,0.05611893082357282,0
2,0.43333333333333335,-0.9988417424152749,0.023848586630579545,0.04179017258329248,-0.9957284099530683,-0.07655342278435613,0.051618863531989224,0
3,0.6333333333333334,-0.7643215507420148,-0.612225073262479,0.20246734734290928,-0.9765696277893238,-0.2098698837937388,0.04760665873409569,0
4,0.8333333333333334,-0.7765817302147375,-0.6176138998224566,0.124394079613063,-0.946965553771043,-0.3204661988735944,0.0236147274092194,0
5,1.0333333333333334,-0.8166738758642013,-0.5714136638026066,0.0808096856857222,-0.968853008575843,-0.24612514478846054,-0.027317775831806643,0
6,1.2333333333333336,-0.9426280791523431,0.06923200501622001,-0.3265872530810076,-0.9897896010224412,-0.09468468271832653,-0.106542745254506,0
7,1.4333333333333336,-0.9454588523789712,-0.01422617843749527,-0.32543075193549764,-0.9774068122206698,-0.06219181107342616,-0.20201015335877406,0
8,1.6333333333333335,-0.791962545361753,-0.09141720553091472,-0.6036871882664497,-0.9624582537563205,-0.10281892209614114,-0.25120186909201486,0
9,1.8333333333333335,-0.7595494993726587,-0.10013285847244192,-0.642695860152282,-0.9365364448559421,-0.13221079627991086,-0.3246841431354869,1
10,2.033333333333333,-0.7540849366764326,-0.09018691147337346,-0.6505553237631637,-0.9240281600829393,-0.12358176787737375,-0.3618003676366861,1
11,2.2333333333333334,-0.7487170237814093,0.04704766272156867,-0.6612180697261277,-0.9111889600997358,-0.10196461046100683,-0.39917151352006197,1
12,2.4333333333333336,-0.7355199023238385,0.06603579828543261,-0.6742772031073991,-0.903972748385917,-0.07829767507268662,-0.4203602553213415,1
13,2.6333333333333333,-0.6058258419178824,-0.03916294175806694,-0.7946328166249761,-0.8962768176665605,-0.06724163119009635,-0.43836791528167085,1
14,2.8333333333333335,-0.5797623351886051,-0.03782927467507787,-0.8139069852717895,-0.8872562927285177,-0.06502282190880361,-0.45667089204881767,1
15,3.033333333333333,-0.5787401886520688,-0.031455736407257136,-0.8149051053257952,-0.8851589949194358,-0.06069647879970407,-0.46131279103720035,1
16,3.2333333333333334,-0.5869318534293728,-0.03373214040558602,-0.80893333602567,-0.8882032235966797,-0.06644735816162602,-0.4546204814851694,1
17,3.4333333333333336,-0.5908460619981484,-0.03594720113236613,-0.8059830827951848,-0.8902283787015197,-0.0692768619631963,-0.4502156707079356,1
18,3.6333333333333333,-0.5964529055579143,-0.03624055192863207,-0.801829504226073,-0.8934459427544232,-0.06661490018813059,-0.44420355969823727,1
19,3.8333333333333335,-0.6037724446545845,-0.040627787465297056,-0.7961207307698385,-0.8975486138364489,-0.07185305761741738,-0.4350214062678959,1
20,4.033333333333333,-0.8428727621132465,0.06718285974944181,-0.5339025849754557,-0.8991716952568739,-0.07487557624691926,-0.431142564044159,1
21,4.233333333333333,-0.8448699979472265,0.0753958609035031,-0.5296320899712117,-0.9021086554236097,-0.06182343112802081,-0.42705718255681635,1
22,4.433333333333334,-0.8823216348618215,-0.11527092984726652,-0.45631255230040424,-0.9057903773564032,-0.04959920360575336,-0.4208131548445463,1
23,4.633333333333334,-0.8883257244710414,-0.1072292859464816,-0.44651907851558514,-0.9089641454483677,-0.04218225235340644,-0.4147346620138143,1
24,4.833333333333334,-0.9489332438535092,-0.2197536495691623,-0.22634935875917764,-0.9698391276552967,-0.16918365019370535,-0.17546782889164494,0
25,5.033333333333333,-0.8928080985521709,-0.40853058502594997,0.1897273313416187,-0.9543740320282875,-0.2946602710352695,-0.048430689273345866,0
26,5.233333333333333,-0.8809173402865067,-0.3718491917989683,0.2927675155152993,-0.926448828640907,-0.3760102200070641,0.017575049363535565,0
27,5.433333333333334,-0.8315524368258098,-0.5537072648779867,0.04391821524603272,-0.9123348984154613,-0.4083297291313923,0.03019710980762505,0
28,5.633333333333334,-0.8366954491670557,-0.5442973641937244,0.060672107882475866,-0.9067967381324498,-0.4194512568117557,0.042193825038600904,0
29,5.833333333333334,-0.957690363995731,-0.11640514241473345,-0.2632090604996912,-0.9724008771865721,-0.2173092357185782,0.08493073718149965,0
30,6.033333333333333,-0.9381228607123556,-0.2869049693923175,0.19393565104657803,-0.9818130159788169,-0.1452902044468376,0.12220457498136378,0
31,6.233333333333333,-0.91687600929262,-0.3541728980787578,0.18411936848179042,-0.9664353755060118,-0.2241420653426745,0.12555078460318025,0
32,6.433333333333334,-0.9018490054067427,-0.37679724563307265,0.2114053148106698,-0.9433082442950693,-0.285407855022155,0.16944589855351017,0
33,6.633333333333334,-0.9399258367480606,-0.28993164949819694,0.18021947739551614,-0.928642614355572,-0.2988115212916069,0.2198512441316719,0
34,6.833333333333334,-0.8010206770766652,-0.5875064577966105,0.11490011724502383,-0.8937559911335979,-0.37362966736648306,0.24819568887555554,0
35,7.033333333333333,-0.7964616282578416,-0.5905131585540392,0.13016560331900423,-0.8677839550810516,-0.4159815194815351,0.2718646404991288,0
36,7.233333333333333,-0.7913579506839149,-0.6074043915072043,0.06937217790380856,-0.856726788128111,-0.4707386151068858,0.2107708868675709,0
37,7.433333333333334,-0.8683416425734838,-0.4930700713920714,0.05352285932386444,-0.8818363560080184,-0.4358764817984374,0.17993424865076676,0
38,7.633333333333334,-0.9185634515426103,-0.3862084343103576,0.08416787247916584,-0.9231850637048675,-0.3214243994571769,0.21075031099818783,1
39,7.833333333333334,-0.9742629640920033,-0.13380750874919442,0.1814034933538999,-0.9397340939953187,-0.21841666100599255,0.26304751429692524,1
40,8.033333333333333,-0.976841246532964,-0.1190798237310071,0.17776719228282037,-0.9435650562250649,-0.16686396761893316,0.28607936133432926,1
41,8.233333333333334,-0.9706013139170702,-0.1613906593677199,0.17856691880443526,-0.93225388315776,-0.201793495045826,0.30030331782127856,1
42,8.433333333333334,-0.9633958764142714,-0.20004002754716763,0.17847233031175072,-0.922606929844456,-0.24855948389783633,0.29498243332006796,1
43,8.633333333333333,-0.9677752971715317,-0.151822929861487,0.20089990580591985,-0.925408821150373,-0.20521235409998778,0.31860069595312945,1
44,8.833333333333334,-0.9831643400210458,-0.08504856920904885,0.1617239048083964,-0.9370365076515238,-0.06477434832115464,0.34317177495797213,0
45,9.033333333333333,-0.9776571911921391,-0.1492463493381036,0.148026834457629,-0.929146913991869,-0.10162927811530983,0.3554680042551618,0
46,9.233333333333334,-0.9715956460726867,-0.20760183860323742,0.11359303297805788,-0.9252571668908117,-0.17466886604649376,0.336734260732734,1
47,9.433333333333334,-0.8469910872429564,-0.50335880499752,0.17098541330319228,-0.903786824711776,-0.27893712228005135,0.32459737720987414,1
48,9.633333333333335,-0.878973935348183,-0.450534896452521,0.15627900709002643,-0.8952438981066904,-0.3328820898219573,0.2961889214310763,1
49,9.833333333333334,-0.9830695625307588,-0.10457040899488543,0.1504634998537014,-0.9313757438174929,-0.2411556286291927,0.27273281175698455,1
50,10.033333333333333,-0.9815899843184546,-0.12076485311318721,0.14797619044375715,-0.9358765010607584,-0.22863271439667104,0.26807136488234423,1
51,10.233333333333334,-0.885655798861722,-0.4270745657843566,0.18226662119737821,-0.9377021283188421,-0.22289647723470066,0.2665180650212561,1
52,10.433333333333334,-0.8817245280818536,-0.43981148142369714,0.17066844285551347,-0.9297608898222149,-0.2675833129522235,0.25287122886266816,1
53,10.633333333333335,-0.8744979606596954,-0.46097130763073935,0.15086010189324484,-0.9229358495873586,-0.3120905764061612,0.22536390497355846,0
54,10.833333333333334,-0.8703996560607496,-0.46586991501433433,0.15927856420079264,-0.9177062076728235,-0.32965351924172676,0.22168417546209604,0
55,11.033333333333333,-0.8698184368983466,-0.46690540699888045,0.15942154103798958,-0.914147578977681,-0.3394496212706081,0.22160360662337047,0
56,11.233333333333334,-0.8715248870805075,-0.46951497770245737,0.1414215574527796,-0.9140808195920505,-0.3505194918142271,0.20394200428607515,0
57,11.433333333333334,-0.6745747722618695,-0.7320969222627549,0.09477854736832067,-0.7198377022993256,-0.6770662784557719,0.15301940049052126,0
58,11.633333333333335,0.1906219620298546,-0.9793230958693749,-0.0677461547891227,-0.14054669329736214,-0.9883070973315286,-0.05912451578918599,0
59,11.833333333333334,0.7117842921803934,-0.6999590916381484,-0.05848411270041124,0.4718836444226209,-0.8812998723907198,-0.02522619770252105,0
60,12.033333333333333,0.9906083397551125,-0.1028126169194369,-0.09013702352417179,0.8944629669433258,-0.4298705355903818,-0.12307446281898406,0
61,12.233333333333334,0.9945454971857821,0.0588257428716378,-0.08613237488358072,0.9827740480985931,0.15416515244992843,-0.10192289317908296,0
62,12.433333333333334,0.7811660365632316,0.6242846567678917,0.006949147018727495,0.9357198325380393,0.33790764599526135,-0.101226566537274,0
63,12.633333333333335,0.8274173131093132,0.5352980465841786,0.16981340138554277,0.9248091515362409,0.3776464734527255,-0.04594751705520475,0
64,12.833333333333334,0.9232241836913576,-0.37436368691632743,0.08665412030503976,0.8469336428925247,-0.507687753018118,-0.15797642220348032,0
65,13.033333333333333,-0.824258461176317,-0.5393358193395492,0.17237999639339663,-0.6598507012914413,-0.7468185030676865,-0.08282013934384047,0
66,13.233333333333334,-0.9589770974180201,-0.28340644942170695,0.006611433573077818,-0.9614478989296407,-0.2474625956021574,-0.11991747754861522,0
67,13.433333333333334,-0.9600983183765172,-0.26661320607814476,0.08443113996220016,-0.9942502095590874,-0.05055596831590536,-0.09439605319796185,0
68,13.633333333333335,-0.9339811408484058,0.2507780459677632,-0.25453801327130104,-0.9725086821643676,0.04480171524363274,-0.22851623449145494,0
69,13.833333333333334,-0.7657407547256487,0.2507765244493627,-0.5922433885973671,-0.8648813656622301,0.17775143278612346,-0.46945143675647255,0
70,14.033333333333333,-0.5266292457957089,0.3106362591625521,-0.7913069897114132,-0.7872276487668313,0.27480997191295903,-0.5520435746879455,0
71,14.233333333333334,-0.5979043946181163,0.388346325504254,-0.7012114277189784,-0.809478051645507,0.3874854337655043,-0.4411352655634698,0
72,14.433333333333334,-0.9831762530274977,-0.1758738932786262,0.04932371788327529,-0.9534039044685783,0.17918715246975406,-0.24271991952423533,0
73,14.633333333333335,-0.9915182167034579,-0.12956860099627818,-0.010178584433136283,-0.9834365118240105,-0.02158587435483762,-0.17996298852753165,0
74,14.833333333333334,-0.9403327540935555,-0.33055324166975064,0.08067754334663634,-0.9725068611832812,-0.18123933975144782,-0.14622826907921022,1
75,15.033333333333333,-0.9294275123959709,-0.34729142205854446,0.12471233846733673,-0.9793914157372814,-0.17951350565729565,-0.09256001332515092,1
76,15.233333333333334,-0.9152688130318503,-0.3868747023308719,0.11229855113788152,-0.9740488134696416,-0.21009468483839702,-0.08419698558166061,1
77,15.433333333333334,-0.9130215018709663,-0.3958484323537377,0.09846702861553991,-0.9745994737718792,-0.20321349159431118,-0.0941283302604775,1
78,15.633333333333335,-0.9923952350270875,-0.08228121699038486,0.09155052608321332,-0.9820178697827951,-0.17034255708473378,-0.08138990522844756,1
79,15.833333333333334,-0.9936231701105367,-0.05931312526597635,0.09589029664502315,-0.990097614612326,-0.11738763953764501,-0.0769860742132097,1
80,16.033333333333335,-0.9905393897841218,-0.007669671199558583,0.13701420886094276,-0.9984766892531283,-0.04955764281271352,-0.0242557427624814,1
81,16.233333333333334,-0.9801422046331296,-0.14046388941312019,0.13996840524864,-0.9999967347522942,0.0014985359243546376,0.002069993921143009,1
82,16.433333333333337,-0.9763744108831078,-0.14981147041560802,0.15572261590590294,-0.9993136843159779,-0.012156497841816693,0.03499114029362428,1
83,16.633333333333336,-0.9743334030623052,-0.14120994783445967,0.17531163769019054,-0.9976984266230493,-0.011710514349551927,0.06678857213296974,1
84,16.833333333333336,-0.9686063306193917,-0.15229129466442112,0.19649208089251904,-0.9941419088612559,-0.03172237102801355,0.10332258331100613,1
85,17.033333333333335,-0.9610503225706788,-0.1656519902315832,0.22122770084035606,-0.9878763679456268,-0.05478015192796176,0.1452563823358759,1
86,17.233333333333334,-0.9724669708081619,-0.14990682498215754,0.17842627191915078,-0.9926375348786103,-0.05359224489450714,0.10862134061630596,1
87,17.433333333333337,-0.9939519520530502,-0.055663329163564805,0.094663143811938,-0.9915935548776815,-0.07064127907782011,0.10840678768090235,1
88,17.633333333333336,-0.9944720409759168,-0.043968355888675086,0.09535273146397694,-0.9919764147000714,-0.054221675254204973,0.11420509012920389,1
89,17.833333333333336,-0.9616031776471208,-0.24877788068963536,0.11588310842626526,-0.9923108786193624,-0.0661781550472635,0.10459240875039531,1
90,18.033333333333335,-0.9486656472408682,-0.2898705061733714,0.12652501490163134,-0.9883532710164233,-0.11137549243370441,0.10369817431510897,1
91,18.233333333333334,-0.9869101546090211,-0.11905134437460455,0.10878935670458692,-0.9830933076091093,-0.1539475301541684,0.09913478952221223,1
92,18.433333333333337,-0.9885616448326482,-0.11218342986957226,0.10080055767934952,-0.9848219201803161,-0.14871633111635132,0.08949434837824966,1
93,18.633333333333336,-0.9892809280876661,-0.14601612703015848,-0.001592472643025537,-0.9823773633695481,-0.15758385002592099,0.10050893567292131,1
94,18.833333333333336,-0.9910259339692099,-0.13085409825475156,0.027291082250276617,-0.9825958759021589,-0.1556019502794184,0.10145628481918163,1
95,19.033333333333335,-0.9894443373412495,-0.143512324147564,0.020102639655042463,-0.9822067627402963,-0.16561518137025708,0.08855217065055081,1
96,19.233333333333338,-0.9908573062640307,-0.1315926559781466,0.029751832142003175,-0.9849829518467191,-0.14659421419919194,0.09120702239765065,1
97,19.433333333333337,-0.9941584247906864,-0.10462246696976829,0.026517274046581857,-0.9880839119687812,-0.1269198982641801,0.08707193768993854,1
98,19.633333333333336,-0.9947091971705824,-0.10074771895559394,0.020087563055291354,-0.9890626929666954,-0.12449753805225036,0.07909078581223548,1
99,19.833333333333336,-0.9673856051704617,-0.21875346847541988,0.12771848315319753,-0.9902332176160145,-0.12761215034673,0.05615437484042622,1
100,20.033333333333335,-0.9651562338405769,-0.2329106609037729,0.11927308294850907,-0.9856914670014848,-0.15259662435106458,0.07160029411337032,1
101,20.233333333333338,-0.9173069650969723,-0.3845838873176322,0.1031657181443576,-0.9798495728613194,-0.1832614316881189,0.07943590006483997,1
102,20.433333333333337,-0.9046719535288692,-0.41263184746513026,0.10631846008936073,-0.9693636384872214,-0.23427535657084883,0.07381865402740116,1
103,20.633333333333336,-0.9463134941878891,-0.32313418925076787,0.00866408997858705,-0.9622915408580273,-0.2636613420823871,0.06691552199899577,1
104,20.833333333333336,-0.9436495134816582,-0.33038074738264545,0.019343150330669093,-0.9609648117979067,-0.26831769497138364,0.06747032719245792,1
105,21.033333333333335,-0.998598952913051,-0.04283572713312449,0.031068178606652626,-0.9651771105349125,-0.2530413882011705,0.0663566210464465,1
106,21.233333333333338,-0.9983160025161146,-0.05030552030543987,0.02888795158961951,-0.9677084416081689,-0.24370081063637564,0.06442272064623326,1
107,21.433333333333337,-0.9224293167767713,-0.3826403275757573,0.052062801148770564,-0.9669707496815693,-0.24642261192971923,0.06514188813658386,1
108,21.633333333333336,-0.9216213275366227,-0.3846855540754964,0.05129476693837003,-0.9673990298326935,-0.24292362324387085,0.07160468105391968,1
109,21.833333333333336,-0.9560289217018152,-0.12854405323650706,0.26360031723652,-0.966325340144727,-0.241057798917217,0.09003596267805687,1
110,22.033333333333335,-0.7416521021071781,0.04139752933442076,0.6695060895951653,-0.9528211650316296,-0.20081119900575278,0.2276108297547381,0
111,22.233333333333338,-0.7228090841639415,0.13829792065350907,0.6770677314663578,-0.8976329268069678,0.0018521766637873936,0.44073994390520455,0
112,22.433333333333337,-0.6148946627982406,0.022808175539861572,0.7882793545379588,-0.8157383666775833,0.07443571164973399,0.5736115776040323,0
113,22.633333333333336,-0.5747591499921582,-0.027006869867723247,0.817876854104724,-0.7609541388717583,0.025454640635950192,0.6483061466653202,0
114,22.833333333333336,-0.6563454931032722,0.46433626769986447,0.5946447882404944,-0.7624428735382646,0.1439096737768867,0.6308493246284285,0
115,23.033333333333335,-0.6704195465489831,0.5160346191384411,0.5331471686651821,-0.7572309074087599,0.32331443755168304,0.5675113455566726,0
116,23.233333333333338,-0.9065702418660224,0.42201310806278086,-0.005944172454875648,-0.8074461259116845,0.3554039653315693,0.47087023178027404,0
117,23.433333333333337,-0.9901794162574858,0.11497728664282375,0.0795295365020987,-0.8664331359719559,0.3029114990610129,0.39691087743524023,0
118,23.633333333333336,-0.9922457015745771,0.0953820836734079,0.07969144132775097,-0.943315372243126,0.1434616475584526,0.2992906015390845,0
119,23.833333333333336,-0.9885280340525782,0.06217108744865841,0.13764839911018412,-0.963571420377032,-0.07474377059263101,0.25679463894362226,0
120,24.033333333333335,-0.927159884685798,-0.3148652433014726,0.20306261790423888,-0.9530118946902255,-0.15282724947944687,0.26155718379638054,0
121,24.233333333333338,-0.8467728504518898,-0.43286330630495806,0.30920074028424005,-0.9451112917085109,-0.21757129858909102,0.24377730886062127,0
122,24.433333333333337,-0.854153794493371,-0.4043111029133381,0.32703796020275083,-0.9278586446067127,-0.32035570757615056,0.19092028769090544,0
123,24.633333333333336,-0.8297688557000253,-0.411171115784445,0.3773883406450784,-0.9151695636132853,-0.34279101193689143,0.21203535547438995,0
124,24.833333333333336,-0.8905201220052246,-0.2643506027226023,0.37026027486620455,-0.9571304600724818,-0.2026221457076503,0.20699166280376516,0
125,25.033333333333335,-0.918748791806846,-0.22866216561232533,0.32189170783190785,-0.9686760135322403,-0.18238137311452776,0.16853431563971416,0
126,25.233333333333338,-0.8992584199802867,0.4017733778070807,0.1729521522850972,-0.9784009884715822,-0.10330233669577149,0.17905343613297234,1
127,25.433333333333337,-0.8766435843593356,0.45443604948927935,0.1580629713949277,-0.984087887837173,0.0007166337667333222,0.17768093721110334,1
128,25.633333333333336,-0.9050539240142675,0.3836533305161251,0.1835415936790947,-0.9890341438834456,0.05518969010791201,0.1369874459157952,1
129,25.833333333333336,-0.9663718973711923,-0.0711816168306114,0.24710024968943703,-0.9917944245070152,0.03836544291045224,0.12195045021271571,1
130,26.033333333333335,-0.9667119857047491,-0.09518583519882748,0.23750282834585829,-0.9939419883736756,0.007770338708671291,0.10963095176152104,1
131,26.233333333333338,-0.9655735097508318,-0.13006209936242508,0.22528126326194847,-0.9950094044211194,-0.03755066396124328,0.09244583684298148,1
132,26.433333333333337,-0.9985146753606411,-0.05148612967340009,-0.01782193986880798,-0.995612808365078,-0.03343696473427062,0.08739053271814835,1
133,26.633333333333336,-0.9975746369218152,-0.06413779264464216,-0.027040475679652422,-0.9960314609324046,-0.042794560071127474,0.07803816028827536,1
134,26.833333333333336,-0.957077450620234,-0.10550286325241418,0.2699479567616989,-0.9911612434061909,-0.1075232030814611,0.07770553628022023,1
135,27.033333333333335,-0.9582572709444847,-0.11285923988292336,0.26268954043714343,-0.9854889527461577,-0.1449066744129463,0.08839445528913122,0
136,27.233333333333338,-0.9053666108170647,-0.29844016010759244,0.3020674938694605,-0.9778805553876726,-0.1382735753918415,0.15693959902795027,0
137,27.433333333333337,-0.9264631724907151,-0.2319753875185695,0.29640075844040875,-0.9822672279788143,-0.06341701114540867,0.17643518791952947,0
138,27.633333333333336,-0.8261535308911108,0.4999663257540197,0.2598153507939364,-0.9823817983482499,0.10309418521459582,0.15587684641728347,0
139,27.833333333333336,-0.39885970312664,0.8984969272336317,0.18334178185413777,-0.8610749839666194,0.48863910219020884,0.1406474308248575,0
140,28.033333333333335,-0.27359138738682237,0.9585129196453899,0.08000459749679291,-0.5935269331880445,0.7994854968500587,0.09245928783421345,0
141,28.233333333333338,-0.06655102802607837,0.9977697466775896,0.005147162675830417,-0.3508266677272473,0.9350039118099234,0.0518491476452355,0
142,28.433333333333337,0.13275868635018134,0.9837752780065412,0.12067035088093185,-0.37974061241419543,0.9237309893787865,0.05018093805998896,0
143,28.633333333333336,0.2184293084298624,0.9671921157523142,0.12972296807201972,-0.18062471213738024,0.9817107776474634,0.06015531910065562,0
144,28.833333333333336,0.39172342178863545,0.9087843922152417,0.14374870186605737,0.15060776233967604,0.986691660759131,0.06129329907439848,0
145,29.033333333333335,0.2971121492847563,0.9476067985408015,0.11732743117722029,0.09186031768287134,0.9946489143829363,0.04727810436183682,0
146,29.233333333333338,-0.2865368292261716,0.9493158808030066,0.1292130177351492,-0.5511386974898967,0.8323439908811417,0.05873343999114864,0
147,29.433333333333337,-0.8928033903721806,-0.3136953422564066,0.32326048070646607,-0.9869378759611362,-0.04281078351954176,0.15530893666419812,0
148,29.633333333333336,-0.9451683935119829,-0.14464587731228146,0.2928041633627126,-0.9445940488242404,-0.2648980224892315,0.1938327129437218,0
149,29.833333333333336,-0.9185302877467159,-0.3171427177430802,0.23605636418971754,-0.9172954110491512,-0.34715395400706145,0.19507245086231942,0
150,30.033333333333335,-0.751449517175098,-0.5421581338159912,0.37601619788843377,-0.7892089548799484,-0.5654090616155186,0.23971194918142588,0
151,30.233333333333338,-0.2849991947667746,-0.9476882038113666,0.14374466021065246,-0.4447787002714423,-0.8688382738255725,0.21746715090019061,0
152,30.433333333333337,-0.26690223870892144,-0.9622412529076846,-0.05343188350428545,-0.3823331857307799,-0.9093449078727451,0.16405235022657128,0
153,30.633333333333336,-0.4447740614001314,-0.8952306222690579,-0.027169233654770645,-0.5407128569161979,-0.8335677558326481,0.11311234592937335,0
154,30.833333333333336,-0.8640481759137577,-0.39094800968186655,0.31714413667273655,-0.6628484813619833,-0.7431017403285924,0.0918242575615493,0
155,31.033333333333335,-0.894572066293164,-0.28536018276524283,0.3439627658630601,-0.7671915325339034,-0.6280720935174227,0.13016373439987983,0
156,31.233333333333338,-0.9258758402080989,-0.22070923908216425,0.30666163813349645,-0.8811321744758186,-0.4418969304507616,0.16832466831011647,0
157,31.433333333333337,-0.9417902202942309,-0.16113879675759518,0.295068583786309,-0.9244947884666563,-0.343589310003992,0.16509322260157458,1
158,31.633333333333336,-0.9178481409318693,-0.2514705127136169,0.30711133392218226,-0.9429971701006475,-0.27460799166525524,0.1880074150020302,1
159,31.833333333333336,-0.9176466324011423,-0.2712534997205637,0.2904241672660686,-0.9435281162604524,-0.2845537963640065,0.16965798183650013,1
160,32.03333333333333,-0.9254673408278102,-0.270524738750114,0.26519156620315987,-0.9471856181030229,-0.29393299986243665,0.12822946794970178,1
161,32.233333333333334,-0.9316913530048205,-0.2847095106377047,0.22559192647008872,-0.9464421160711253,-0.31366476931077747,0.07656195804723988,1
162,32.43333333333333,-0.9304274290695602,-0.28105379593695606,0.2351883564814307,-0.9447267382610015,-0.31836878951969927,0.07831158199456321,1
163,32.63333333333333,-0.9285592414962791,-0.2652776103752785,0.2596257392198175,-0.945855705586524,-0.3087344881215189,0.10019980066728251,1
164,32.833333333333336,-0.9450859367162339,-0.22005490630128796,0.24163693929929342,-0.9174395020837822,-0.3829271958982765,0.1080348215055918,1
165,33.03333333333333,-0.9490663141498656,-0.20623560796302828,0.238201606531334,-0.9161403669946481,-0.38810640927732565,0.1003007629122189,1
166,33.233333333333334,-0.9577934886678372,-0.22078551653382503,0.1840798434223205,-0.9108204412446397,-0.4105176817435539,0.043374609932747166,1
167,33.43333333333333,-0.9564408801843935,-0.171794132315908,0.23602461484753468,-0.9046278970411811,-0.42616123682017815,0.0059133853879748,1
168,33.63333333333333,-0.9626861054953861,-0.1554794662747233,0.22149852788010407,-0.9192574100691937,-0.3928369685598558,0.025395475297413123,1
169,33.833333333333336,-0.9637801255368228,-0.1821688431532675,0.19478804430566812,-0.917444515929056,-0.39739769806685493,0.019251747008137324,1
170,34.03333333333333,-0.9414557344573266,-0.3000927626714756,-0.15364059961357038,-0.904600504360796,-0.42551232914085085,-0.0252425287822394,1
171,34.233333333333334,-0.934420592015917,-0.29995623804083954,-0.19205315013560856,-0.8980815742378557,-0.43754022636808326,-0.044811118310320995,1
172,34.43333333333333,-0.9808652572338754,-0.1343607804901525,0.1408919011781753,-0.891898358256357,-0.4491599099389127,-0.05265637514378602,1
173,34.63333333333333,-0.9751164217369678,-0.12061840997641787,0.18600850312190859,-0.8983236407489242,-0.4378257896297795,-0.03637601416672149,1
174,34.833333333333336,-0.9701732576419899,-0.14724690757132006,0.1925673865612045,-0.8900245837252045,-0.4547602403347513,-0.03239389102061404,1
175,35.03333333333333,-0.964284193193346,-0.12976012246324367,0.23090756890102532,-0.9020725004700918,-0.4315777880340851,0.0024117983420079607,1
176,35.233333333333334,-0.9643462855427779,-0.08037538118447936,0.25214289531790723,-0.9295438243773425,-0.3678209876865015,0.02561248873636716,1
177,35.43333333333333,-0.9683592938213335,-0.013889160126422223,0.24917337197387446,-0.9569306476364348,-0.2888995255084153,0.028649603402597777,0
178,35.63333333333333,-0.9586257026953168,0.2553228471231583,0.1258848913445725,-0.9859041152125347,-0.16069285140874265,0.04659273669915711,0
179,35.833333333333336,-0.9603675970754937,0.2576378106721862,0.10638062323320369,-0.9983536247520137,-0.007433453741558173,0.05687515898868245,0
180,36.03333333333333,-0.9565466153441192,0.27067742832860703,-0.10840803691203547,-0.9995382683325905,0.0007988523154395001,-0.03037452836941105,1
181,36.233333333333334,-0.9759716154029823,0.17461801139740374,-0.13033785337847806,-0.9888926573665247,-0.09984161377396925,-0.11010433399999958,1
182,36.43333333333333,-0.977289641724735,0.18192990195433487,-0.10865756739604121,-0.9875100470416895,-0.10999882177301679,-0.11280144591390852,1
183,36.63333333333333,-0.9985307390800552,-0.05301318698662402,-0.011223418274323533,-0.9857629948771287,-0.12067847628823157,-0.11708126789381995,1
184,36.833333333333336,-0.9986368539476188,-0.05093000329126967,-0.011426666283458826,-0.9864547295240567,-0.12423222589522648,-0.10711405439407952,1
185,37.03333333333333,-0.9909916438980537,0.12067462714885968,0.05807922250441189,-0.9830536788133863,-0.15144266183497493,-0.10329852248606865,1
186,37.233333333333334,-0.9954641426872484,0.0704644120086014,0.06392110186959758,-0.9709550416040887,-0.20963297283607998,-0.11532703015126086,1
187,37.43333333333333,-0.98171331189676,-0.13669337337833096,0.1324911126043818,-0.9658604849047585,-0.23002204340280558,-0.11917794782736826,1
188,37.63333333333333,-0.9806095093899472,-0.1317631310790714,0.14506366665104808,-0.9728249636439559,-0.20731298512961857,-0.10311603322365809,1
189,37.833333333333336,-0.9655616608857915,0.009749076755362324,0.2599916047296332,-0.973450845033039,-0.20658203195263034,-0.09857644941254969,1
190,38.03333333333333,-0.95884363257204,0.02184232133011168,0.28309327310087634,-0.9789240574596403,-0.19172939282524235,-0.07033867821916245,1
191,38.233333333333334,-0.9528946008763026,0.031169166302923566,0.30169581152673036,-0.9835704334547487,-0.17411969020080736,-0.047660632790730656,1
192,38.43333333333334,-0.9704864689616708,0.23938753379930777,0.029148279945711033,-0.986978039013976,-0.13752188926037473,-0.08343908243973144,1
193,38.63333333333333,-0.9391971503636928,0.34189490468163347,0.031883959940007464,-0.9980127281560541,0.011029354220735796,-0.062039888652253114,0
194,38.833333333333336,-0.87520439020035,0.36499730657549617,0.3174810885181464,-0.9781071406082256,0.19795487728530523,0.06418946993207554,0
195,39.03333333333333,-0.8861016083684448,0.23102410976843088,0.40181065236322394,-0.9595274283434138,0.19792654599821136,0.20033021900325798,0
196,39.233333333333334,-0.8609216590367383,-0.011365122194912602,0.5086105887601289,-0.9477018292272981,0.11273430733335461,0.29858368815007635,1
197,39.43333333333334,-0.86013453902894,-0.026625634632108923,0.5093718193519452,-0.9450981424129906,0.07518393155047129,0.3180202472235515,1
198,39.63333333333333,-0.8624802677396886,-0.043212970422863504,0.5042424287452495,-0.9471242197195373,0.05268390517896251,0.31651243033370996,1
199,39.833333333333336,-0.8605197847591272,-0.04758341911007756,0.5071898246849007,-0.9470490339917405,0.04104950919516306,0.31845418039358164,1
200,40.03333333333333,-0.8605193405481526,-0.048392598261564286,0.5071140118120063,-0.9482520802860702,0.03657071234651761,0.31540541408100287,1
201,40.233333333333334,-0.9796580640408237,-0.19897368536375212,-0.026068181611927022,-0.9449461351337796,0.011211282381528515,0.3270338038232355,1
202,40.4,-0.9739641782409589,-0.22667379472483065,-0.0035735540375287024,-0.9379965969731233,-0.01158034622911564,0.34645097726526103,1
