,timeStamp,x_gaze,y_gaze,z_gaze,x_head,y_head,z_head,fixations_head
0,0.033366700033366704,-0.994829427416754,0.040119328260625316,0.0932997848098776,-0.9969056426690736,-0.07204218217811692,0.03144938157701499,0
1,0.2333667000333667,-0.9935105023420164,0.08244783541706038,0.07835327798602686,-0.9992400956366877,-0.013771067567892979,0.036463529313875635,0
2,0.43336670003336675,-0.9970039565879898,0.07511191484553931,0.018474598673050607,-0.9999660945014188,-0.002260497384436982,-0.007918333104566353,0
3,0.6333667000333668,-0.9965306747992965,0.0831864861153507,-0.0025734630052299716,-0.9997089594005365,0.01731371426075045,-0.016799755736130895,0
4,0.8333667000333668,-0.9667879382673101,0.25271551213171434,0.0381569436518319,-0.9959026161149904,0.086190428909368,0.0273713203871774,0
5,1.0333667000333666,-0.7836416972815279,0.6151778850026665,-0.0863820588164715,-0.953789556994321,0.29406641904161357,-0.06172861703148123,0
6,1.2333667000333668,-0.7516773250532263,0.6569392761922465,-0.058412211025040316,-0.8659189267308478,0.4860199796388435,-0.11819048913154925,0
7,1.4333667000333667,-0.45675785227914534,0.8691360723652516,0.18967011386838722,-0.7794322568919507,0.6227226683596735,-0.0685699294685975,0
8,1.6333667000333667,-0.2446280696581941,0.9596300532579268,0.1388065863692873,-0.6247313763973801,0.7784344451057876,-0.061241505676135205,0
9,1.8333667000333667,-0.06583889574466462,0.9949380920997255,0.0759172753467978,-0.3921440976692826,0.9183568887725887,-0.05332571150088454,0
10,2.033366700033367,0.22925209378246703,0.9733538227506808,0.005080672493997691,-0.2094090536098539,0.9756562815292756,-0.06513577034696379,1
11,2.233366700033367,0.2864958531657887,0.9580616690812194,0.0061615222238437135,-0.10550330244744399,0.9928167681098032,-0.056426218486516314,1
12,2.433366700033367,0.272342137978342,0.9620036764796033,0.019459864365212375,-0.0827290210651439,0.9962892101681843,-0.023742762603766905,1
13,2.633366700033367,0.2513438779154808,0.9658359520660477,0.06314403163465811,-0.11086557578151823,0.99382652021122,-0.004203787755115162,1
14,2.833366700033367,0.0934299644681284,0.9763653042899356,0.1948887742234163,-0.1356135670786044,0.9907596290124684,0.002077966143410909,1
15,3.033366700033367,-0.11417803388578623,0.9330658281155817,0.3411034109781965,-0.19319934475455752,0.9800665415626323,0.04629889087085023,1
16,3.233366700033367,-0.2432475515822815,0.8041245847298073,0.5424152292131376,-0.3568111529792035,0.8948013259661551,0.26835869309351923,0
17,3.433366700033367,-0.32630873672096933,0.6678132113575764,0.6689903759216913,-0.46955675002972236,0.7845678363994524,0.40493180733181156,0
18,3.633366700033367,-0.6484110315869829,0.33707387724185156,0.6826011539672711,-0.5630464418048731,0.6674305880155443,0.4873552241969879,0
19,3.833366700033367,-0.7029185473067981,0.2206740378578029,0.6761719343980744,-0.703023902914067,0.49923103985118444,0.5064837221279451,0
20,4.033366700033366,-0.7023731566242786,0.2051904897546753,0.6815928489706177,-0.7718965795885734,0.38959443519120684,0.5023861527625,0
21,4.233366700033367,-0.7810243035990588,-0.015404934927714678,0.624310599916002,-0.8345785905437251,0.27187684757815483,0.4791258247652848,0
22,4.433366700033367,-0.9683507336327952,0.08515560098664522,0.2346175191528346,-0.9376528458548075,0.15292913882481632,0.31212148141177515,0
23,4.633366700033367,-0.9759602157590875,0.011819563444791277,-0.21762802019834218,-0.9978337178491099,0.057366617779173755,-0.032201594494699885,0
24,4.833366700033367,-0.9925390690582154,0.02386060417363535,-0.11956951100309801,-0.9837780756819694,-0.06594149844937806,-0.16683050257591361,0
25,5.033366700033366,-0.828655866983014,-0.5592322542106791,-0.024263964331332273,-0.8951964895266148,-0.3968081365816103,-0.20289541118974536,0
26,5.233366700033367,-0.19109396874870493,-0.9701056958105229,-0.1495928944296834,-0.5315208942507397,-0.807257903268387,-0.256554509969367,0
27,5.433366700033367,0.289231986232245,-0.935832832887261,-0.201399520928811,0.029717473141501305,-0.9585080316158372,-0.2835123015285536,0
28,5.633366700033367,0.1331655397177945,-0.9755045952634605,-0.1750934711847969,0.28577972497549503,-0.9233282486074278,-0.25650515417135444,0
29,5.833366700033367,-0.07688412652291238,-0.9865235878204345,0.14443005837673403,0.1992320343731147,-0.9631838729390246,-0.18050879033922781,0
30,6.033366700033366,-0.13587786311006006,-0.9817489795659101,0.1330644484373565,0.09496937273687878,-0.9847644551286813,-0.14567012788171674,0
31,6.233366700033367,-0.21126692441516465,-0.9674521644980968,0.13929320175839538,-0.04482548213723675,-0.9921962783432445,-0.11634956550404213,0
32,6.433366700033367,-0.056081310142259866,-0.9875907020188182,-0.14669523488752217,-0.10694628425020025,-0.9835966926863967,-0.14525852271539122,0
33,6.633366700033367,0.030318693557986887,-0.9551208684255009,-0.2946606582478465,-0.06502419591742142,-0.9651445628227044,-0.25351099936504495,0
34,6.833366700033367,0.004004609642895118,-0.8916958469745733,-0.4526173655416974,-0.060962063381636955,-0.951953032909095,-0.3001150612072461,0
35,7.033366700033366,0.04126387515882651,-0.8176788971246749,-0.57419379464067,-0.012013328208139884,-0.9129906149366157,-0.40780365003641605,0
36,7.233366700033367,0.20313245379837114,-0.7590835859402872,-0.6184895437837956,0.06273975461129178,-0.8793453835902504,-0.472033282248011,1
37,7.433366700033367,0.22512055358342556,-0.7377991612339722,-0.6363749948236022,0.11110860821820212,-0.8536069839636756,-0.5089302448354306,1
38,7.633366700033367,0.24720330496042867,-0.7157832199591412,-0.6531040560596494,0.15140675243867097,-0.8334990444395272,-0.5313711868688124,1
39,7.833366700033367,0.16808812410049317,-0.7297124660686201,-0.6627715288094612,0.18386581859333334,-0.8145354536821845,-0.5502048304474989,1
40,8.033366700033367,0.1249243234741077,-0.7051947088479784,-0.6979214397175029,0.17371449913631787,-0.8050673613193458,-0.5671770592399912,1
41,8.233366700033368,-0.10487216025625928,-0.8401647442973416,-0.532094946830891,0.1366421343599366,-0.8143675376882974,-0.5640340775849106,1
42,8.433366700033368,-0.15969074196610467,-0.8358921601258209,-0.5251506103685915,0.032272012923354076,-0.8305032556120647,-0.5560781056646957,1
43,8.633366700033367,-0.14630923211792118,-0.8388803519749802,-0.5242836671758881,-0.11798555676889472,-0.8309656855830726,-0.5436684998943638,1
44,8.833366700033368,-0.08152874856732556,-0.8471180467850744,-0.5251133953424596,-0.1882854606240811,-0.8336077777653182,-0.5192751276219045,1
45,9.033366700033367,-0.0873615789849374,-0.8283367528992469,-0.5533770670289752,-0.2017240809756965,-0.8240297650515302,-0.5294169825984344,1
46,9.233366700033368,-0.05394552546971676,-0.8499573466369071,-0.5240824259405623,-0.17834414751792366,-0.8430172480975773,-0.5074596382532245,1
47,9.433366700033368,-0.027675090394650714,-0.8648530289186424,-0.5012617357647581,-0.15736338071425676,-0.8559083055624739,-0.492603023619786,1
48,9.633366700033369,-0.01932627011337107,-0.8720032711508419,-0.4891183807481956,-0.14858392046651642,-0.864513592089672,-0.4801448403044773,1
49,9.833366700033368,0.004116952219558989,-0.8771282860503802,-0.48023850378196914,-0.12238445077031629,-0.8742277902617794,-0.4698380752383259,1
50,10.033366700033367,0.011040280955105397,-0.8734269957891009,-0.48682994487116166,-0.10731257053662585,-0.8748716282381678,-0.4723173152751429,1
51,10.233366700033368,0.047211443117434915,-0.8092675256611084,-0.5855400511913053,-0.07069427811068735,-0.8762880337799345,-0.4765727655841293,1
52,10.433366700033368,0.06095489460018899,-0.8019236539955495,-0.5943088035581388,-0.04669592656540089,-0.8793046656477429,-0.4739649727694125,1
53,10.633366700033369,0.05094631003283967,-0.8020346027166633,-0.5951008061993885,-0.04483351895161736,-0.8819414997639569,-0.4692218521898972,1
54,10.833366700033368,-0.030043320704993715,-0.8037167131660219,-0.5942531816142206,-0.03797551547586031,-0.8864136078683984,-0.4613336926890039,1
55,11.033366700033367,-0.019470457727284896,-0.8092967712540952,-0.5870771987682598,-0.03079913426237124,-0.8918882914838113,-0.45120581649927394,1
56,11.233366700033368,-0.024077883957540125,-0.8363212867070491,-0.5477106543648692,-0.032425303725941934,-0.8993821685387011,-0.4359590744472511,1
57,11.433366700033368,0.10627714986588765,-0.9330426947972258,-0.3437099025368843,-0.02588396075721061,-0.9087931010647612,-0.41644341756427633,1
58,11.633366700033369,0.11519262250198525,-0.9376061020960005,-0.3280631906103751,-0.02295004583010979,-0.91279704361303,-0.4077681357925216,1
59,11.833366700033368,0.20086067390066298,-0.9710972025476555,-0.1289387951095006,-0.017298183473005435,-0.9195888786324375,-0.39250104094648053,1
60,12.033366700033367,0.2108697199563767,-0.9698641479857094,-0.1220552975395708,-0.0010728617520116002,-0.924671011095808,-0.38076550553683003,1
61,12.233366700033368,0.10372992380770102,-0.9462506863340225,-0.3063490517681424,0.0040588328055236045,-0.9233433557369248,-0.3839538687039522,1
62,12.433366700033368,0.032353387778724096,-0.8967399823736714,-0.4413736085355666,0.0024179365129123886,-0.9219103674118324,-0.3873956995651859,1
63,12.633366700033369,0.05921712493135989,-0.8853473319850674,-0.46114361522391983,0.0030009129758614694,-0.9205535928850743,-0.3906047582245922,1
64,12.833366700033368,0.0839811568479008,-0.876087150691397,-0.4747825498982858,0.008809519243057062,-0.9194174690785484,-0.3931843205468692,1
65,13.033366700033367,0.1338073842696869,-0.9194545361214767,-0.36972819735657847,0.02232501837881845,-0.9214120191830633,-0.3879452080634276,1
66,13.233366700033368,0.21777590112717182,-0.9754105050952511,-0.03388219942795419,0.09998834255554279,-0.9452965236799291,-0.310510569339655,0
67,13.433366700033368,0.4446553892463218,-0.8489236562691853,0.2856750087787882,0.2108567974943103,-0.974097640876879,-0.08168963819569,0
68,13.633366700033369,0.6489972712962226,-0.7389358086272494,0.1810425711771975,0.34272115060677755,-0.9376619303845659,0.05772622657212471,0
69,13.833366700033368,0.721813864367566,-0.6624780379486574,0.2002688054652004,0.4393198059870605,-0.8841294644155316,0.15910122004496607,0
70,14.033366700033367,0.6536523585356994,-0.6483484127577409,0.39036256205639897,0.4645932581652794,-0.8502577297658253,0.24741644537264376,0
71,14.233366700033368,0.6036140032748564,-0.598822876195536,0.5263661254254571,0.4638709869189852,-0.8218928438644364,0.3306294915751408,1
72,14.433366700033368,0.5698297000084415,-0.5985647292364146,0.5630402986487092,0.43995849053342884,-0.8141192865653469,0.3790070102912046,1
73,14.633366700033369,0.5528809953934755,-0.6051587978228347,0.572804883315725,0.4254195492813039,-0.812830633225146,0.3979001995225696,1
74,14.833366700033368,0.5433591169074499,-0.6016038625813082,0.5855199933399428,0.42203359899609516,-0.804738401082114,0.41747304959985887,1
75,15.033366700033367,0.5249059876133092,-0.5989598182098874,0.6047485761353021,0.4114071687839166,-0.7982688559969598,0.43989882361573446,1
76,15.233366700033368,0.5054932712882209,-0.5838085141655905,0.6353299705429447,0.404075589666631,-0.7892395604213385,0.46241089314753014,1
77,15.433366700033368,0.4837093139901365,-0.5709702241357998,0.6633387541139939,0.3950356888916855,-0.7820402283611139,0.4820372244202391,1
78,15.633366700033369,0.5049140232844463,-0.4579887771439656,0.7316475306463408,0.3955149189031535,-0.7697864203658279,0.5009958242794014,0
79,15.833366700033368,0.5194907814255105,-0.3748977677782735,0.7678417751912042,0.40156088310416743,-0.7573853010498218,0.5148945162985059,0
80,16.033366700033366,0.5664632941493544,-0.2754383415090364,0.7766936696074032,0.4086245506271879,-0.7463869389608971,0.5252927888076429,0
81,16.233366700033365,0.6273265844712897,-0.21283694842139478,0.7491073286267158,0.4281748783107024,-0.7269587716327651,0.5368400301112024,0
82,16.433366700033368,0.6657161369961576,-0.11211284095586734,0.7377348682526247,0.47055054935108953,-0.6795063285720042,0.562897264104191,0
83,16.633366700033367,0.6684706854778759,-0.0818321381907378,0.7392228647815696,0.5399990720527255,-0.6159626986231777,0.5735773322639661,0
84,16.833366700033366,0.673792073374244,-0.03851092790940486,0.7379167637949382,0.5939753739355809,-0.5541259325585529,0.5832132594722115,0
85,17.033366700033366,0.6724965929634735,-0.030656029114033763,0.7394650365848816,0.6176933838789336,-0.526827415188175,0.5838730667862141,0
86,17.233366700033365,0.5657262634197296,-0.22677505562833145,0.7927968649168072,0.6446881609047128,-0.48000657560391546,0.594954504618884,0
87,17.433366700033368,0.5760109850581973,-0.21717939142138462,0.7880637391950746,0.6786628150835704,-0.43868620810967646,0.589042608167862,0
88,17.633366700033367,0.5947770649372814,-0.21539351276102445,0.7744971773254304,0.7279015840294797,-0.41320941893084207,0.5471903325847512,0
89,17.833366700033366,0.6018087294868248,-0.2234441419665495,0.7667457000429063,0.787066310757555,-0.37078263976028303,0.49299782608332904,1
90,18.033366700033366,0.5656253409969674,-0.23038573991631967,0.7918272440787032,0.8116012563960433,-0.3441323948741148,0.4720977604422314,1
91,18.233366700033365,0.6396457683791985,-0.18515594464354854,0.7460365722655561,0.8324894322397433,-0.33536072784879845,0.44101533695085293,1
92,18.433366700033368,0.6627678630947536,-0.09679584636186832,0.742542472708399,0.8475890847968929,-0.3134416656888532,0.428190454755081,1
93,18.633366700033367,0.6665640568409221,-0.07780740710796208,0.7413759947064023,0.8566135317768506,-0.2845788329399823,0.4303813948340571,1
94,18.833366700033366,0.565465535371766,-0.1978793282537956,0.8006825212008496,0.8540719819352461,-0.267456169674473,0.44612581967003456,1
95,19.033366700033366,0.5735987980954517,-0.19283463607869822,0.7961150808468896,0.8525562308870287,-0.25790409517493756,0.4545694125958107,1
96,19.23336670003337,0.5751541424277022,-0.185058007049978,0.7968382812559556,0.8399794861152309,-0.28262743129737644,0.4632021135355924,1
97,19.433366700033368,0.698915375047625,-0.11183884244517713,0.7064059539971056,0.8702807154355908,-0.2519524182271505,0.4232392411986479,1
98,19.633366700033367,0.7169232396008021,-0.3102440724360967,0.6243153722587306,0.8970775867847488,-0.22401026556777814,0.3808821395244272,1
99,19.833366700033366,0.6991597069533376,-0.3558664987517183,0.6201086511564858,0.8885918517239736,-0.27677545994035446,0.3657866397567915,1
100,20.033366700033366,0.7769473989706628,-0.3203730752650072,0.5419537174685343,0.8843529862424305,-0.30152504716152173,0.35637401933690094,1
101,20.23336670003337,0.7742030812315059,-0.3197673218969148,0.5462219776414322,0.8819075505266143,-0.309627069739618,0.35548579438369265,1
102,20.433366700033368,0.546577426687433,-0.2678548915876842,0.7934146921303473,0.8673967195869182,-0.32506761340553103,0.3767678032484804,1
103,20.633366700033367,0.5220742002635052,-0.25550051761060943,0.8137309229222719,0.8481959919672142,-0.33366205109681796,0.4113796237888041,1
104,20.833366700033366,0.497416055219071,-0.2394980933294746,0.8337972962907979,0.8392577341256433,-0.31631873588252946,0.44225435333071567,1
105,21.033366700033366,0.7345904879598971,0.07267188081294035,0.6746077473153939,0.8475612080841987,-0.2847069981150829,0.4478637334894975,1
106,21.23336670003337,0.737988556818854,-0.002333867479998713,0.6748091901174815,0.860755286719116,-0.2559912732418651,0.4399645490367394,1
107,21.433366700033368,0.7207467853894622,-0.1974326346682931,0.6644880932858714,0.8609221352356216,-0.269359620731476,0.43157672757081544,1
108,21.633366700033367,0.7111149790274636,-0.21168122551515303,0.6704524929979551,0.8586386703895907,-0.2835322015604989,0.4270235642091106,1
109,21.833366700033366,0.6161535621766698,-0.3120764023789577,0.7231618815280628,0.8461688498186888,-0.31055785525641827,0.4330728531495029,1
110,22.033366700033366,0.5968695795738825,-0.3259938369943678,0.7331266761078787,0.8286232071875126,-0.34655672677682936,0.4396385056339028,1
111,22.23336670003337,0.5872150296908849,-0.32076014562538574,0.7431631300619768,0.8201568746832034,-0.35607711344513227,0.44783009076039454,1
112,22.433366700033368,0.7374008608063374,-0.4532055430674948,0.5008439938892847,0.8156666704760743,-0.3645932320364176,0.4491766443479833,1
113,22.633366700033367,0.7363968961345566,-0.4204978892482777,0.5300010721697969,0.8135726923153735,-0.37501892009029475,0.44436503450769366,1
114,22.833366700033366,0.7015539177344421,-0.3202880093770895,0.6365828238027768,0.8115178173394394,-0.37596359206015445,0.4473144415127444,1
115,23.033366700033366,0.7013390413788096,-0.3153919848106912,0.6392585118361939,0.8128758693459249,-0.37212512596845715,0.4480577101870554,1
116,23.23336670003337,0.6460015654471253,-0.20075592883371735,0.7364638718076909,0.8109582373628057,-0.368871847746348,0.45418090800209404,1
117,23.433366700033368,0.6453296693403666,-0.18513955708837937,0.7411295178780644,0.8107332139737644,-0.3589159945826853,0.46248347493990744,1
118,23.633366700033367,0.6410529990167922,-0.15990560109396834,0.7506538824187569,0.8105115916963658,-0.3489690783630056,0.47041634970768015,1
119,23.833366700033366,0.6121574929071899,-0.1601303965755003,0.7743522841511846,0.8041601739726377,-0.34102961109924523,0.48685235847204716,1
120,24.033366700033366,0.5467062431081574,-0.20682237976140738,0.8113795578990101,0.7869035608857503,-0.34808219144864994,0.5095307388780699,1
121,24.23336670003337,0.5298111103391494,-0.21873462377928488,0.8194237925038133,0.7775411020652139,-0.35218925114815813,0.5209535161364327,1
122,24.433366700033368,0.5412552635355288,-0.2119499918862066,0.8137075276993093,0.7764698775897977,-0.3510138801721327,0.52333907280289,1
123,24.633366700033367,0.5503940521376824,-0.20486594536580682,0.8093802146092014,0.7721147825217075,-0.3529871161853752,0.528430561586467,1
124,24.833366700033366,0.49354911605423124,-0.2594572569253717,0.8301151738589343,0.7716223052326316,-0.3501925798112707,0.5310029897398001,1
125,25.033366700033366,0.5050019012064286,-0.250648796311528,0.825922672340138,0.7758004819006302,-0.3453351639598037,0.5280882850581008,1
126,25.23336670003337,0.5135381746862999,-0.242064388227817,0.8232152665565409,0.7772545558556576,-0.3450964907225171,0.5261024306089339,1
127,25.433366700033368,0.5172262973067941,-0.23457389739560972,0.8230747499680318,0.7785404552156922,-0.3431029691138462,0.5255046262192239,1
128,25.633366700033367,0.523352493744866,-0.22796433044226838,0.8210568989644011,0.7800151701409519,-0.33814731591784325,0.5265289423075813,1
129,25.833366700033366,0.6680740509856256,-0.22905399175643473,0.707962803585117,0.7837773717742171,-0.3325551319785062,0.5244998719632435,1
130,26.033366700033366,0.6493130504860872,-0.21575403285164396,0.729275503343355,0.7867066544112437,-0.32643972769880963,0.5239558608174886,1
131,26.23336670003337,0.6249049512200742,-0.20136151755116724,0.7542859810377811,0.7888008079623601,-0.3238504755194786,0.5224118632494246,1
132,26.433366700033368,0.5826916552793044,-0.19960683175010163,0.7877991797320881,0.7866859449472885,-0.32953405999805135,0.5220464800413778,1
133,26.633366700033367,0.554271988314982,-0.19847509681778397,0.8083255525544938,0.7845881262338925,-0.3303912338929876,0.5246552246375314,1
134,26.833366700033366,0.5321494079556117,-0.20337676519340536,0.8218606323410063,0.7827448389526719,-0.3336890467911665,0.5253209848697832,1
135,27.033366700033366,0.5170684342304376,-0.2023747752340965,0.8316758290773111,0.7831531646916304,-0.3314297928133278,0.5261420084627328,1
136,27.23336670003337,0.5053975849502025,-0.2006058194032631,0.8392440564865791,0.7835206976601842,-0.3292128092777584,0.5269859984340618,1
137,27.433366700033368,0.49821587116350996,-0.19938519023596996,0.8438166220425806,0.7840993561710813,-0.32840706308603446,0.5266279527021906,1
138,27.633366700033367,0.4957929256331666,-0.2043496214225676,0.8440560450091915,0.7838616406236188,-0.3331008956320257,0.5240274054741707,1
139,27.833366700033366,0.4994278289833321,-0.20384108462321848,0.842033642948205,0.7869987167559072,-0.32849915017592685,0.5222272763445521,1
140,28.033366700033366,0.5066637591885083,-0.19522887755379362,0.8397484864493985,0.7933335988282727,-0.31639527009559487,0.5201113669506918,1
141,28.23336670003337,0.5130874498351421,-0.1939835380862044,0.8361289707773728,0.7964495342385814,-0.31204032470008186,0.517975844197598,1
142,28.433366700033368,0.5197480995137181,-0.19251256230740715,0.8323465782987969,0.7984890837161789,-0.3104530032042167,0.5157849513000354,1
143,28.633366700033367,0.5214896448857494,-0.20089663037713032,0.8292702178301412,0.7961729093160749,-0.3195384831547439,0.5138130557453194,1
144,28.833366700033366,0.5267905355299706,-0.21580566397920853,0.8221433251389567,0.7948647739689826,-0.3278069266627584,0.5106198291636893,1
145,29.033366700033366,0.5315310300309045,-0.2290921482151243,0.8154701415382819,0.79410339080797,-0.33439150744327467,0.5075254914357495,1
146,29.23336670003337,0.5212538309309128,-0.22891852641002286,0.8221257519419468,0.7892715004412234,-0.3325414577143145,0.5162041044901706,1
147,29.433366700033368,0.5079262628086827,-0.20812664656338775,0.8358793038109534,0.7850360372365628,-0.32870690952285164,0.5250430343046657,1
148,29.633366700033367,0.5157164829150029,-0.10805211603291268,0.8499183781226228,0.7842083498813325,-0.3279230506974436,0.5267672510679452,1
149,29.833366700033366,0.3549625511132898,-0.2400543099125584,0.9035350107215275,0.7797281010079298,-0.3324353198961702,0.5305759574124129,1
150,30.033366700033366,0.35310304942767434,-0.23790456379999256,0.9048312853830888,0.7758418596674301,-0.3322450213483476,0.5363605639651557,1
151,30.23336670003337,0.3549446963361137,-0.23738597512055182,0.9042467369910324,0.7737420901010021,-0.3306586945098333,0.5403591451536519,1
152,30.433366700033368,0.35538987862583554,-0.2421659222465212,0.902803245603828,0.7707826996592484,-0.33492396761131626,0.541959376545415,1
153,30.633366700033367,0.5488466965481471,-0.22745973544560427,0.8043813600769237,0.7730513988375818,-0.33867798142279615,0.5363662551416132,1
154,30.833366700033366,0.5510876000461021,-0.22149884782084903,0.8045127205268192,0.7766107538953525,-0.3347247571163972,0.5336994228097509,1
155,31.033366700033366,0.5583610503920357,-0.20895893611880684,0.8028506090308456,0.7772452351749658,-0.3375185389619953,0.53100949168049,1
156,31.23336670003337,0.5658174742761568,-0.18452702050351863,0.8036170509066151,0.7848578118033671,-0.3254595058186868,0.5273275313536046,1
157,31.433366700033368,0.5592550951753905,-0.18274753245732706,0.8086019279603058,0.7871442347360665,-0.3239122395904883,0.5248664732722464,1
158,31.633366700033367,0.44167668997217097,-0.3334218729184467,0.8329174966314384,0.7877450323136841,-0.32646082478285665,0.522380219712816,1
159,31.833366700033366,0.4273261402052537,-0.34838700575048476,0.834277450325425,0.7811780327333078,-0.34167240809733285,0.5225139679663016,1
160,32.03336670003337,0.5734068535483607,-0.16079932511448433,0.8033356442648958,0.7710210254146997,-0.36131464246104456,0.5243837407011326,1
161,32.23336670003337,0.5716671628556168,-0.1527473484131715,0.806141986541673,0.7641528211918618,-0.36441480398544296,0.5322333290022052,1
162,32.43336670003337,0.563754219310713,-0.1568726091865169,0.8109082344484999,0.7567795136702333,-0.3667374731600347,0.541099245489437,1
163,32.63336670003337,0.3484974063752862,-0.3184592231747632,0.8815516325914355,0.7559400953126869,-0.36744328978715585,0.54179331953157,1
164,32.83336670003337,0.3517582731257582,-0.30997082520343544,0.8832803659146319,0.7401568130242314,-0.3651365628930403,0.5646620073747391,1
165,33.03336670003337,0.5355504331579315,-0.20702811317416844,0.8187338358098412,0.7449345269774721,-0.39996289440856475,0.5339496545678938,1
166,33.23336670003337,0.6399248865483541,-0.14798377375615593,0.754053673342265,0.746676444811127,-0.3736207193736525,0.550347022176854,1
167,33.43336670003337,0.7097198410953232,-0.1619424545895941,0.685618252788771,0.7894222932439793,-0.36394370072739596,0.4943252225309413,1
168,33.63336670003337,0.7687276046330531,-0.17870830044356098,0.614101956704017,0.825729514145624,-0.35213517355395313,0.44064905425401707,1
169,33.83336670003337,0.6368711137446637,-0.2031500175351542,0.7437239103680197,0.8238266514216765,-0.34927004075971885,0.4464527825370244,1
170,34.03336670003337,0.5866035897157278,-0.16842763852542905,0.7921668757991396,0.8043706954999644,-0.32259945309697946,0.49891620246533724,1
171,34.23336670003337,0.5582423970487265,-0.14250202805765189,0.8173485169355532,0.7930148451963229,-0.29916566769811714,0.5306857437024216,1
172,34.43336670003337,0.543137322689799,-0.13535863232152417,0.8286615046913932,0.7854417024295707,-0.2936839236017627,0.5448220673783433,1
173,34.63336670003337,0.5441989805611587,-0.14372287962981123,0.8265538115737597,0.7833332499984126,-0.2993482568827751,0.5447748530798466,1
174,34.83336670003337,0.5476570788529764,-0.14727212028212633,0.8236398767482254,0.782868856874463,-0.3018116734531442,0.5440827755989749,1
175,35.03336670003337,0.5873758336622921,-0.28685683301068277,0.7567712913322023,0.7855737066274482,-0.30907082426596155,0.5360496031555019,1
176,35.23336670003337,0.588381915108297,-0.28601209737820893,0.75630932965739,0.7859050202285037,-0.3106751765077802,0.5346346732877458,1
177,35.43336670003337,0.5860576856000532,-0.29059838994879694,0.7563656291161547,0.7839307829995497,-0.31563380233112115,0.534628684501413,1
178,35.63336670003337,0.5937960333569177,-0.311661911215014,0.7418039659285971,0.7814678638344466,-0.31832326424205337,0.5366360752281855,1
179,35.83336670003337,0.596149457460076,-0.32270169601014387,0.7351662667466686,0.7772830429994274,-0.316803652612396,0.5435683183896898,1
180,36.03336670003337,0.6021028797512681,-0.3318604232628534,0.7261823336236087,0.7774073880304426,-0.3161643807911711,0.543762666385456,1
181,36.23336670003337,0.5437083317907601,-0.24388783984046306,0.8030566427838459,0.7744834954569063,-0.3154975689990059,0.5483033824631851,1
182,36.43336670003337,0.522368635543143,-0.1732448579876709,0.8349354632434937,0.768427545778247,-0.3095570700302806,0.56008350027785,1
183,36.63336670003337,0.5131442144657845,-0.13584517147286218,0.8474839848326348,0.7631515620967888,-0.30884208222675263,0.5676409618016259,1
184,36.83336670003337,0.4882180493916186,-0.10653746599857482,0.8661944958188351,0.7571365777662349,-0.3039270133539498,0.5782495768802449,1
185,37.03336670003337,0.482819880037117,-0.09618827441109758,0.8704210356527233,0.7565562165937395,-0.3035381129709724,0.5792126596573905,1
186,37.23336670003337,0.6345231549989601,-0.03544636147338582,0.7720906172389769,0.7695743614592563,-0.30600408528653994,0.5604612403837811,1
187,37.43336670003337,0.6745888598685366,-0.4309472001879676,0.5993449597614214,0.7911748074764584,-0.319153621868503,0.5217119796044614,1
188,37.63336670003337,0.6990763629345064,-0.49352152907792435,0.5174251048440246,0.8242830285303375,-0.3519900224762279,0.44346421834691435,1
189,37.83336670003337,0.841517323342093,-0.5291431701378562,0.10888571996189081,0.8790859523267563,-0.39530222435034895,0.2663532238314874,0
190,38.03336670003337,0.806844492828886,-0.5559863445146069,-0.19970265172246096,0.9090590664204243,-0.4055965585677195,-0.09540988123276035,0
191,38.23336670003337,0.7684652692851954,-0.4022130638251497,-0.497680400649672,0.8565663664225014,-0.3619508071959514,-0.36781200780283485,0
192,38.433366700033375,0.7225268511940235,-0.2692618469076828,-0.6367519195915418,0.8204247377609937,-0.31255568878121814,-0.4787611002162804,0
193,38.63336670003337,0.819304412681588,0.0970610966527214,-0.5650835538900855,0.8264727329724201,-0.2393159447495384,-0.5095789440721967,0
194,38.83336670003337,0.8276735863620206,0.11071949080162258,-0.5501796332065199,0.8645954108776296,-0.09001935452542892,-0.4943392471776526,0
195,39.03336670003337,0.8044573577483408,0.39554980518885974,-0.44315765950687686,0.8838273299793193,0.052220717567659156,-0.4648895002453226,0
196,39.23336670003337,0.809163938924332,0.43211690040517864,-0.39815663290805653,0.8864039271709083,0.1310301570321573,-0.44398105347426664,0
197,39.433366700033375,0.8551183235379832,0.40101611928636255,-0.3285707303185952,0.881947751745185,0.21280921962274998,-0.4205715150068649,0
198,39.63336670003337,0.8244296524183559,0.5306946549536271,-0.1966695996258689,0.8759004690799373,0.29508485265435686,-0.3817372106561037,1
199,39.83336670003337,0.8105300118261117,0.5562677287174109,-0.18332297705616873,0.8687941073679185,0.365280436678993,-0.3343157214107438,1
200,40.03336670003337,0.8080315508597204,0.5612282328291238,-0.1791867279982917,0.8619879872449632,0.4037436510638226,-0.3065416351346609,1
201,40.23336670003337,0.8419762286181998,0.4900734076702004,-0.2256193376827236,0.8604976064000365,0.4167348211560979,-0.2930460001702863,1
202,40.433366700033375,0.8496821462570211,0.4693069570431936,-0.24039806655403878,0.8619385841872496,0.41807241110413157,-0.28684026245082356,1
203,40.63336670003337,0.8646280854964589,0.41927223742889946,-0.27681955258271207,0.8701660867925813,0.3926366456794135,-0.29773720940739834,1
204,40.83336670003337,0.86642407724407,0.389839785035247,-0.3119843912368606,0.8740420707244614,0.37944219112453137,-0.30343711407524043,1
205,41.03336670003337,0.862791842482949,0.38330486175134976,-0.32964772030556594,0.8738027593677862,0.38240536210756226,-0.300391206183914,1
206,41.23336670003337,0.7134987515611366,0.6975058294322892,-0.06637129973620776,0.87813279988032,0.40709546869995145,-0.25130870485981377,1
207,41.433366700033375,0.5392666860205881,0.8326352108671639,-0.12613503467540724,0.8584146291377268,0.4848491603608063,-0.16746825424467782,0
208,41.63336670003337,0.43773562295577145,0.8870705301661865,-0.14660627171510546,0.7938910672853434,0.5931949981246367,-0.13362884226262833,0
209,41.83336670003337,0.43433971698858775,0.8979129619664492,-0.07142354638990996,0.7384752475250105,0.6730148626357242,-0.041295320125796904,0
210,42.03336670003337,0.40658896737913147,0.9113016884109931,-0.06492029193437476,0.6971839937474488,0.7168802190834357,0.004150945584199008,0
211,42.23336670003337,0.7229135890921745,0.673489448708692,0.15429810492657736,0.7921909193453884,0.6091536790089866,0.03695054338605602,0
212,42.433366700033375,0.927605224502347,0.2942931552997884,0.23008712745315646,0.8873720824033218,0.4541097823948109,0.07971883657285839,0
213,42.63336670003337,0.9385021593415991,0.24007898940277275,0.24814466699588647,0.9270831868715539,0.3615794059845847,0.09887920806680724,0
214,42.83336670003337,0.9377302453700544,-0.10969799882481625,0.32958813081184857,0.9657716674882023,0.2361940129804491,0.10722627713974321,0
215,43.03336670003337,0.7834743091897696,-0.4381926945327411,0.4406304225740083,0.9752947908359996,-0.10850352752119581,0.1924241551459209,0
216,43.23336670003337,0.718550565911299,-0.5301607617900763,0.4501273718479225,0.9098430393340341,-0.3394764393511863,0.23862395290676083,1
217,43.433366700033375,0.7699488129194159,-0.4660201748158166,0.43589450805053537,0.8847383949134148,-0.39517418472015986,0.24713424751901777,1
218,43.63336670003337,0.9492979346846079,-0.16275161566431973,0.26897089582739575,0.8895339236115462,-0.4012264514765189,0.21851025920951406,1
219,43.83336670003337,0.9679103838898464,-0.096400549140748,0.23206986638418314,0.9171995100656342,-0.34949265689184106,0.19131111184153043,1
220,44.03336670003337,0.9692570415377902,-0.09298379768558665,0.22780430372882898,0.9250448868594443,-0.3341795257698637,0.180599008445304,1
221,44.23336670003337,0.9621440871285337,0.08416985480403315,0.2592184236235316,0.9490075201270594,-0.2526979832949298,0.18848993602037323,1
222,44.433366700033375,0.9271747480907264,0.32984111163116825,0.177628341153131,0.9817997656098797,-0.06660876852156929,0.1778552563306068,0
223,44.63336670003337,0.9418866285862698,0.2186343087857445,0.2550463054274071,0.9825149836936632,0.0180187405767562,0.18530955670301724,0
224,44.83336670003337,0.9284585549067638,0.27015085760337715,0.25491807695140833,0.9819354557417181,-0.02795023674080884,0.1871404419772404,0
225,45.03336670003337,0.923428086839205,0.27976180143533436,0.26270497310508334,0.980391493032707,-0.018426710620850138,0.19619627092479375,0
226,45.23336670003337,0.8642781476472237,-0.31748922776563965,0.39015878018091765,0.9560162547748878,-0.19518973133958514,0.21893809487107949,0
227,45.433366700033375,0.38442614279454645,-0.9142854808289272,0.12766597150973547,0.7245711932127223,-0.6758927029065903,0.13477996929779826,0
228,45.57891224557891,0.1538538616445615,-0.987769055382108,0.02532355596266454,0.5169447103818554,-0.8556161738963166,0.026251273783345856,1
