,timeStamp,x_gaze,y_gaze,z_gaze,x_head,y_head,z_head,fixations_head
0,0.04,-0.9979461080416782,-0.06140253314721008,0.0182563514310219,-0.9758212190473151,0.10672206362554416,0.1907441993679426,0
1,0.24000000000000002,-0.992453927301326,0.03822670920513148,0.11650717097037991,-0.974630494509514,-0.041633346159678244,0.21991376414333214,0
2,0.44,-0.9876443126102359,0.049707423306669614,0.1486199308197459,-0.9693443031584207,-0.047812539268137604,0.24100950815901218,0
3,0.6400000000000001,-0.9815979743582166,0.03897540131784241,0.18693938811272318,-0.9618129668975927,-0.02993462066538873,0.27206568176319146,0
4,0.8400000000000001,-0.9839454989887986,-0.05136967638831973,0.17091638706526502,-0.9427244136731654,-0.2078691976125305,0.2608851788594165,0
5,1.04,-0.9851600890697905,0.020990797739087623,0.17034959734111338,-0.9531159979110546,-0.17170387875791027,0.24917398047449446,0
6,1.2400000000000002,-0.9806777853058268,0.1150088220324181,0.15825312718039633,-0.9663835825797924,-0.09761257966145268,0.23785406368629186,0
7,1.4400000000000002,-0.9903486512074576,0.05493035359337222,0.12724859647821873,-0.9656287929244673,-0.15652129893406275,0.2075141374827987,0
8,1.6400000000000001,-0.5497904813337786,-0.8003317716773031,0.2391641316724589,-0.8230111242806946,-0.5249596856295494,0.21695625774324184,0
9,1.84,-0.3945589209107898,-0.9162303942783953,0.06960691438477587,-0.3698129300417026,-0.9055428694666647,0.20791947559584292,0
10,2.04,0.11925363678834427,-0.9924626505200725,-0.02822157747940638,0.006109199861906278,-0.9896152724257434,0.14361159514039568,0
11,2.24,0.361467158328237,-0.9261586089070033,-0.10757195079366097,0.2311108571331822,-0.9706976121696581,0.06583249534454713,0
12,2.4400000000000004,0.6572137763615404,-0.7524469570162197,-0.04351584812036478,0.44470084409935234,-0.8943963264820047,0.04792045943872781,0
13,2.64,0.7795051292952507,-0.6249518130080556,-0.04250864406611088,0.6574887920006429,-0.7518250458334936,0.04967483116227514,0
14,2.8400000000000003,0.9427073956977171,-0.3259876747087913,-0.07095633893306101,0.8455345174187929,-0.5337718455730185,0.012609390427101191,0
15,3.04,0.9842752322112912,-0.14095817775517772,-0.10645684280190022,0.9739172326648308,-0.22616957048237818,0.01823593447824689,0
16,3.24,0.9790573926117124,0.18684743080544006,-0.08083724125526225,0.9959578654239003,0.08933241821357411,0.009362123497551769,0
17,3.4400000000000004,0.8734018337712627,0.4833919123260496,-0.05917343882825101,0.9470843380874734,0.32095413521325583,-0.004438427528292308,0
18,3.64,0.6765557427945612,0.7344958921090634,-0.05280256969704467,0.8073983305394798,0.5899930323316201,0.0040196569754930135,0
19,3.8400000000000003,0.3161376378496054,0.9486233335016141,-0.013067711014455327,0.5810936419595443,0.8137804918260364,0.00956506129450299,0
20,4.04,0.2479407218079377,0.9620233571489749,-0.11417731284793231,0.35100789868877513,0.9361807539959509,0.01894863862296211,0
21,4.24,-0.031123307822677304,0.9976271676625608,-0.06141151399983808,0.15076559405652062,0.9880961057926794,0.03059119752685305,0
22,4.44,0.1472838761524501,0.9465193358892738,-0.28706899277567066,0.15169575786055206,0.9871075569434398,0.05105945624726498,0
23,4.640000000000001,0.446623850715865,0.890168095140328,-0.09015485769481742,0.2935421397816812,0.9535489767451135,0.06765619794770465,0
24,4.840000000000001,0.6430636609097091,0.7650986097330525,-0.03306426170282403,0.46117502333923066,0.8836153586725201,0.08087951388388719,0
25,5.04,0.8233406568672419,0.5672282737873171,0.01903281812237227,0.6532533353011816,0.7481099424714389,0.1165829914407015,0
26,5.24,0.9787677179621103,0.18514121750333093,0.08795728427269284,0.8439227274299597,0.521118008450668,0.12739878883092903,0
27,5.44,0.9943689268327573,0.08777112265522452,-0.05938575062514569,0.9554411097083366,0.2855190539102291,0.07490764803082502,0
28,5.640000000000001,0.9947024469470349,-0.03247320853100008,-0.09753221398739724,0.9848085517599774,0.16796613708806132,0.044039677248256595,0
29,5.840000000000001,0.9827454080811121,-0.08270779271318365,-0.1654414818599068,0.9957822983701918,0.09154475768364735,-0.006096851090578526,0
30,6.04,0.9556248247211029,-0.2478168939694533,-0.15927329167219034,0.9991752969249253,0.0005461863628121253,-0.04060083367918431,0
31,6.24,0.9286450786704255,-0.3215126259436355,-0.18506201452493576,0.9914812292361758,-0.11860439110052065,-0.05383280119032305,0
32,6.44,0.7989058684706616,-0.5949502414766141,-0.08822484621724574,0.9652838748060549,-0.25639249838269135,-0.04989917647106335,0
33,6.640000000000001,0.6541901343271903,-0.7560141688059546,-0.021859659503621932,0.9254802721804904,-0.3787667701029685,0.004690380633835359,0
34,6.840000000000001,0.6750599715115118,-0.7374179317092275,-0.022557235126721132,0.9361449919782262,-0.350295264994625,0.030426654703274957,0
35,7.04,0.657424915161532,-0.7533505099558144,-0.015984056874486532,0.9279777855874021,-0.3701121444978676,0.043292377521820184,0
36,7.24,0.6433544307497561,-0.7655422109716272,0.006340319812927852,0.9198287606256198,-0.3880013662056462,0.05805162313397157,0
37,7.44,0.5988082231230087,-0.8007006478944166,0.01752667628864304,0.892599571123556,-0.4439188467594357,0.07875317848707196,0
38,7.640000000000001,0.4638089874934644,-0.8855114019087831,0.027400368790016012,0.8056908023030485,-0.58380870281211,0.1001485377083047,0
39,7.840000000000001,0.357146555733889,-0.9340424611902822,0.003319400701993435,0.7342840051476947,-0.673200868435108,0.08733607801176155,0
40,8.04,0.26169598661835947,-0.9649940393375728,-0.01736993468030988,0.6591566431358105,-0.7470956464475776,0.08579402583517066,0
41,8.24,0.12403450030956287,-0.9912695549197015,-0.04472261421534278,0.5494435040345085,-0.8337087703906615,0.055149995901838555,1
42,8.44,0.015271525899142602,-0.9988695427022538,-0.04501574345162178,0.4628586518752778,-0.8858287046699277,0.03270128998982742,1
43,8.639999999999999,-0.025643168620328005,-0.9976377965931272,-0.06372797432776116,0.42852130922471304,-0.903333085173067,0.01894267066827065,1
44,8.84,-0.01898258945045289,-0.9978227375459757,-0.06316205929203356,0.4327547980911495,-0.9009646495847278,0.03140039693629891,1
45,9.04,-0.03266960897589011,-0.9970210349765274,-0.06986953888281013,0.42003500664287485,-0.9068890268910932,0.033509492670678674,1
46,9.24,0.0027791229583159494,-0.997991906499314,-0.06328057393424363,0.4517062712628632,-0.8911473255878612,0.042636704837540756,1
47,9.44,0.03705718923717266,-0.9975842373063626,-0.05875758847777575,0.48098682781503,-0.8751774935793105,0.05211550825493693,1
48,9.64,-0.008909368865514966,-0.9988957348163514,-0.04612953622267961,0.4254518621356077,-0.90269981881075,0.06421643188766607,1
49,9.84,-0.5071082565395997,-0.8591541157700174,-0.06852314575971503,-0.09703684793626233,-0.9952506357052557,0.007747404138126197,0
50,10.04,-0.8367315520641062,-0.5290508146357644,-0.14137024196635745,-0.52290095186772,-0.8487879928012306,-0.07831690629928272,0
51,10.24,-0.9279447993197141,-0.33915695706025095,-0.15456716304935814,-0.6837786858420978,-0.725547828557779,-0.07763412434713035,0
52,10.44,-0.9628207114875935,-0.22716018624862483,-0.1462002986112358,-0.7665434371479805,-0.6385721570700937,-0.06809375287210963,0
53,10.64,-0.9829250449343724,-0.0705333665776181,-0.16995117016363673,-0.8546231959230438,-0.5120341653020657,-0.08625663194038871,0
54,10.84,-0.9878173382848698,-0.052300000980580866,-0.14656608093698406,-0.8651154688208508,-0.498926640907342,-0.051453207866910274,0
55,11.04,-0.9949446924684857,0.07520795192681216,-0.06654940191891037,-0.9282859564957384,-0.371585916463569,0.014459932874051968,0
56,11.24,-0.9484765754544403,0.31657480912313596,0.013136820120097776,-0.9889826666447147,-0.13689167180792677,0.05633786706949274,0
57,11.44,-0.9581838315525,-0.22790756308727492,-0.1730372435026354,-0.9928126655926381,-0.05222856362703748,0.10768095551348428,1
58,11.64,-0.9671983296560969,-0.17805321247948375,-0.18117517665561117,-0.9947367127978357,-0.029048788030992097,0.0982600637394806,1
59,11.84,-0.9818366435246739,-0.08899745464865227,-0.16755971621563476,-0.9887841420088103,-0.01137101038169397,0.14891816757803736,1
60,12.04,-0.9709206573659495,0.06286149596791038,-0.23100110264834092,-0.9869846451160931,0.034125050000557454,0.15715212778552917,1
61,12.24,-0.9683574804167825,0.04820728445674136,-0.24486700032092545,-0.9894094071991296,0.05617663959411297,0.1338402409956753,1
62,12.44,-0.9748369188877,-0.09066689294807359,-0.20364797101046359,-0.9885436597171234,0.05680983026518202,0.13983588959318455,1
63,12.64,-0.8985550418468955,0.31553548424046113,-0.30501835183585563,-0.8702305438787893,0.49147581580613525,0.03391641163390917,0
64,12.84,-0.5399806191773515,0.7768268300563786,-0.32397686185498215,-0.41422970360666383,0.9100433167098374,0.015326916248696617,0
65,13.04,-0.19636604999992807,0.9115694849780197,-0.36122215943146985,-0.027152994857759793,0.9991142777529134,-0.032146148455593646,0
66,13.24,0.06971652790014127,0.8987399362628116,-0.4329042997059125,0.24050552832504035,0.9648264673612345,-0.10614602547591825,0
67,13.44,-0.1333870535948003,0.9235200593217594,-0.3596089458893255,-0.028063106132018123,0.9994871693394068,-0.015422723498884069,0
68,13.64,-0.6527319846849723,0.6932527461409672,-0.3055185528527278,-0.6068360081758738,0.7937621828097982,0.04112974984357922,0
69,13.84,-0.9578737244735911,-0.00015407355298904408,-0.28718966594296375,-0.9455382260046251,0.31970509845566486,0.06120549963426589,0
70,14.04,-0.81641981262583,-0.502898067924349,-0.28381723490648353,-0.9283481961225342,-0.36840881125110647,0.04944263897268529,0
71,14.24,-0.1312356462288496,-0.8945409581329231,-0.4272864137572461,-0.31671314079680635,-0.9485199114622743,0.0016625300664049416,0
72,14.44,0.370280207112045,-0.8425239472456535,-0.3912108977759496,0.11474058326561493,-0.9933922221961659,0.002547828885543631,0
73,14.64,0.5967311218080288,-0.6825965152806911,-0.4218696073342909,0.45235519158943693,-0.8915689024907326,-0.02190143268269206,0
74,14.84,0.7617587612137445,-0.5411901738719841,-0.3561415244232459,0.6336325642712697,-0.7736017957391543,-0.007073551029826845,0
75,15.04,0.813843490391739,-0.48807395211447496,-0.3153451924706458,0.7489912684285889,-0.6623983592909112,0.015507850477817123,0
76,15.24,0.8293613905543107,-0.4706682441593962,-0.30104997558168195,0.7666451877564544,-0.641277370648017,0.03191378988207017,0
77,15.44,0.8264600635955216,-0.4875363717448799,-0.28155292487829847,0.7540491106893421,-0.6553211366919502,0.04431869214431845,0
78,15.64,0.6112705454021723,-0.7410638096121581,-0.2777998387451768,0.6389541605086841,-0.7668256249059879,0.06095934510953887,0
79,15.84,0.3524986053210951,-0.9159437705882351,-0.19181173678190208,0.3602738873960279,-0.9196226057027038,0.15651514029359354,0
80,16.04,-0.21841761740833382,-0.9758394928670812,0.005570329127123134,-0.22160848686013118,-0.9091901282299738,0.3525095591338305,0
81,16.24,-0.7556113928336493,-0.6468892428482093,0.10288697928923375,-0.6895999288003588,-0.5814247230351587,0.43173745452766676,0
82,16.44,-0.9560598623521518,-0.27807507564007605,0.09286437372292516,-0.8653406699710737,-0.2783101106152364,0.4168081179911791,0
83,16.64,-0.9871091833999991,-0.16000629423387447,-0.0036668587278798847,-0.9275844515932851,-0.1783805667372399,0.3282795433359896,0
84,16.84,-0.998071188699824,-0.055432286824115024,0.027949308842429278,-0.9283895362442894,-0.07436076717264883,0.3640924955249816,1
85,17.04,-0.9973268032637452,0.024198648790077375,0.06894688454494478,-0.9170019936074139,0.020547908379522067,0.39835301829063025,1
86,17.24,-0.9965963519878246,0.04210118044477976,0.0708745498025641,-0.9157099532165518,0.02293969887585792,0.40118456076427644,1
87,17.44,-0.9977277128595136,-0.006573045240981262,0.0670537550655016,-0.9166787689466823,-0.023544340226731998,0.39893069398791947,1
88,17.64,-0.9946772355176599,-0.05794740330975777,0.08520149994338319,-0.9059530727535068,-0.0803167630078335,0.4156900859395408,1
89,17.84,-0.9903117066606858,-0.12304514628284426,0.06436315426572486,-0.9103112284847121,-0.12750185130740932,0.39379784815033986,1
90,18.04,-0.9721302764724088,-0.22781348782768765,0.055351064393219324,-0.8933243553836012,-0.2258962458430037,0.38851316862174823,0
91,18.24,-0.9285024478176659,-0.3678104457471892,0.05097725371042527,-0.8508092323856651,-0.3580811769697644,0.3845796676727249,0
92,18.44,-0.7931410083860355,-0.5907965753573919,0.14794170258030828,-0.8071288343651567,-0.4238844514405374,0.41093188798546476,0
93,18.64,-0.7736624134871147,-0.6086909904200672,0.1759026666617955,-0.8027817741538561,-0.37470600107821267,0.46382845518829696,0
94,18.84,-0.660874484978389,-0.7330891412360805,0.1607022902957367,-0.7221588406970221,-0.5408489911191442,0.43124120583327524,0
95,19.04,-0.7944230714140785,-0.5673781774890984,0.2167348317972248,-0.6969636624461577,-0.5881144941284007,0.4103206002941277,0
96,19.240000000000002,-0.8267306779844599,-0.533000301056758,0.18007516528594691,-0.7992313877732108,-0.4258702596804873,0.4241034198374049,0
97,19.44,-0.9786166285072497,-0.047006395975642844,0.20024957714433456,-0.9147729538975723,0.011052767030987523,0.4038171357910272,0
98,19.64,-0.982000048804686,0.09528837053705433,0.16308289483568664,-0.9213003727102882,0.1446085363777525,0.3609625942539865,0
99,19.84,-0.9741496978864186,0.1261113367733373,0.18742544343029133,-0.9067259517129709,0.2574103940920757,0.3340478072126348,0
100,20.04,-0.748449372493179,0.6157869048183572,0.246231648389873,-0.8729532922544123,0.3395040504859318,0.35027067996883315,0
101,20.240000000000002,-0.6825368771860908,0.7027490178262318,0.20071678859857778,-0.8241686178731729,0.47250329841520117,0.3122286378597895,0
102,20.44,-0.9304975121656198,0.3147166117493898,-0.18742420906215917,-0.8763987157582274,0.47349568426973254,0.08790408406477958,0
103,20.64,-0.8085402021650976,0.28658059846332373,-0.5139399790512765,-0.9068143855044827,0.38820231137079897,-0.1642760959132438,0
104,20.84,-0.8238985178289289,0.2500405139437698,-0.5085970641932861,-0.9214815644983209,0.35014284066620754,-0.16814195615587982,0
105,21.04,-0.9364745497168304,0.2924382489133568,-0.1936370013844196,-0.9659823914360057,0.22859694456740912,-0.12091921423008316,0
106,21.240000000000002,-0.9851051495862146,0.11903204817984697,-0.1240935766461436,-0.9888593254476743,0.07458174553476905,-0.12882079687751244,0
107,21.44,-0.9821153150682135,0.13346784874258386,-0.13280000474582354,-0.9871166162466891,0.04752844369003498,-0.15278034222402534,0
108,21.64,-0.9897395516297429,0.10194220342633846,-0.10011696709518558,-0.990178974092524,-0.004339508674382557,-0.13973821213090531,0
109,21.84,-0.9941633365848416,0.07511245248684391,-0.07744275093194224,-0.9912898449010201,-0.04631545919133057,-0.12328552889941165,0
110,22.04,-0.9973502082224639,0.04144312570082224,-0.05979155032907028,-0.9894916926188237,-0.09901850162731043,-0.10536378207817693,0
111,22.240000000000002,-0.9394536463970073,-0.32969848175159056,-0.09341176265365492,-0.9496246225906381,-0.29457737194688055,-0.1069450705103225,0
112,22.44,-0.23056923944471197,-0.9216017572238062,-0.3122307270335188,-0.7606508495827858,-0.6336697896777332,-0.14097121223414272,0
113,22.64,-0.3851980938334042,-0.8882516491522325,-0.25026273451205444,-0.5488770481566095,-0.8046310230923958,-0.22650144079932696,0
114,22.84,-0.2253580269021488,-0.9056866580811934,-0.3590897340282652,-0.3121181427731402,-0.9031241997947691,-0.29487106452974343,0
115,23.04,-0.001087348039147784,-0.9461822805313591,-0.32363236810108836,-0.03418262266680755,-0.9546733341179875,-0.29568627535221254,0
116,23.240000000000002,0.18461136421108426,-0.9307045534728077,-0.31576522663064777,0.14906855005411696,-0.9391270412579449,-0.30954639032439374,0
117,23.44,0.18112411320343386,-0.8502522979288503,-0.49423181350756856,0.2287334964802047,-0.9096770784486201,-0.34665343000340204,0
118,23.64,0.18267597778546335,-0.8419458641600981,-0.5076973990122768,0.24747836672256424,-0.8995832717354528,-0.35986719108314186,0
119,23.84,0.11565401219101457,-0.8567247809702193,-0.5026398304309463,0.1813861207274297,-0.9175254756277224,-0.35390122461157997,0
120,24.04,0.10230820177063427,-0.858899850767739,-0.501820763023627,0.16635561170758262,-0.9238839203937866,-0.34462198434110874,0
121,24.240000000000002,-0.13266604378756042,-0.9305506553680813,-0.34128462992023484,-0.0939919434859825,-0.9777455795216584,-0.18756091353366822,0
122,24.44,-0.9404918373424749,-0.3341475461812255,0.06181036541908975,-0.6531541952118102,-0.7562072778361577,0.03924474773572796,0
123,24.64,-0.981528648620323,-0.17919395875341615,-0.06701520039395324,-0.9499412087052393,-0.3060310783154095,0.06290213914277476,0
124,24.84,-0.9799665452941504,0.17927018715448723,-0.08676272299693798,-0.9992308096689777,-0.017676033079149035,0.035004954833056344,0
125,25.04,-0.9517174040251487,0.2754343736562762,-0.1355355624336536,-0.9939721561120148,0.10690820920572319,-0.024289661966733503,0
126,25.240000000000002,-0.8904872330298437,0.39314130301159217,-0.2290685567187273,-0.9693030540202114,0.2235380591682383,-0.10238322895078376,0
127,25.44,-0.8052534203413142,0.5086344222153315,-0.30472603033920564,-0.9185437512404019,0.35830831643244426,-0.16701056084139781,0
128,25.64,-0.6707384423476576,0.6874708147600012,-0.27837711976787666,-0.8713536342412347,0.45439999178565016,-0.1851040020091251,0
129,25.84,-0.8455375758055979,0.46991877477076066,-0.2534611469609101,-0.888783192903661,0.43547548679745807,-0.14291793592999608,0
130,26.04,-0.9672686086270363,0.21953655533471625,-0.12726012587014066,-0.9533811152325337,0.2945604041132155,-0.06556384252489739,0
131,26.240000000000002,-0.9906576320234265,0.06043988297003801,-0.12224760390414616,-0.9952017950821286,0.08437341752918956,-0.0495430467346786,0
132,26.44,-0.9929898700695058,-0.0022273764878330752,-0.11817849522365607,-0.9981290782040183,-0.053815771549674714,-0.029020785242825035,0
133,26.64,-0.9732576385353572,-0.20572317831515397,-0.10221322290433645,-0.9854442723578076,-0.16415844071934207,-0.04417683123296398,0
134,26.84,-0.9086625060293837,-0.4062064803045016,-0.09658543107026481,-0.9559090945157269,-0.28909712719398833,-0.05158152838280525,1
135,27.04,-0.896591160081205,-0.4275287336808112,-0.11551395388229639,-0.933996853326757,-0.3526034483363341,-0.057625395417671935,1
136,27.240000000000002,-0.9541345660862992,-0.23290889946747417,-0.18809751287074483,-0.9428412276988114,-0.32721697430874236,-0.06308304903561437,1
137,27.44,-0.9663065104116665,-0.17633962563637698,-0.18749950497654752,-0.9564000230815694,-0.28301406066676343,-0.07212515036021216,1
