,timeStamp,x_gaze,y_gaze,z_gaze,x_head,y_head,z_head,fixations_head
0,0.04,-0.9999546663967509,-0.0051482541306741335,0.008010033131583008,-0.9988207820547759,0.01118829389648089,0.04724264403239832,0
1,0.24000000000000002,-0.9987408146715459,0.00020959414173176298,0.05016713246252858,-0.996425027358012,-0.002472990698745107,0.08444553967847573,0
2,0.44,-0.9280999427778139,0.0023459868411294495,0.3723237738334207,-0.9616088665976783,0.0018150089525856821,0.27441773525636165,0
3,0.6400000000000001,-0.9246701717855039,-0.01946769661912579,0.3802710641088966,-0.9263650388849317,-0.013769461562385127,0.3763751010096191,0
4,0.8400000000000001,-0.9593223071450446,-0.07310875431668243,0.2726826379808066,-0.8924197938662135,-0.04776481777609865,0.44867074085413805,0
5,1.04,-0.9478597610294887,-0.08099201532993879,0.3082242152620652,-0.8598413573073733,-0.0667094367254844,0.5061844439683847,0
6,1.2400000000000002,-0.5356682818762211,-0.2774697593224385,0.797539982980995,-0.7358439434872478,-0.17371942029697135,0.6544885437078483,0
7,1.4400000000000002,-0.5296400187263317,-0.30477373502105143,0.791577173120151,-0.5536296583054712,-0.34624282686327196,0.7573705211389586,0
8,1.6400000000000001,-0.4334286754260487,-0.19668001637784957,0.8794637880413438,-0.42079000049497295,-0.3378340684146595,0.8419049338861481,0
9,1.84,-0.345788028113649,-0.0956897450574133,0.9334206513165014,-0.3258771438932714,-0.23080165107100095,0.9168067871426695,0
10,2.04,-0.17528598326912764,-0.096343489663915,0.9797922004531135,-0.25669805568085613,-0.1703802731120307,0.951355175916933,0
11,2.24,-0.12654820467994765,-0.10852704133583765,0.9860057977472403,-0.21857895875612118,-0.1777850619199228,0.9594872122895746,0
12,2.4400000000000004,0.025972556589729467,-0.5250284471412077,0.8506882836836802,-0.17849002939367337,-0.3767550370747188,0.9089537674963857,0
13,2.64,0.014518442584385505,-0.8934565172843547,0.4489149881069196,-0.0063588122772314515,-0.7493610634625741,0.6621310762021841,0
14,2.8400000000000003,0.16554342364716473,-0.9666236849140266,0.19553523122548497,0.24428045616336896,-0.8986199089644203,0.3644301276642668,0
15,3.04,0.5205867698538298,-0.8493490916637652,0.08715236969292903,0.5070422416882522,-0.8281615732233412,0.2388651790864311,0
16,3.24,0.7558027981799501,-0.652352250374386,0.05655680060639961,0.6962178411050253,-0.6932129528145253,0.18637735854235263,0
17,3.4400000000000004,0.7609226342515915,-0.6442083209438685,0.07741048966581379,0.7051886369237261,-0.6810165368205724,0.1972953697646536,0
18,3.64,0.40589631979081653,-0.9074774009560215,0.10831871645461788,0.2865958422931098,-0.9314339987164966,0.22426218855460467,0
19,3.8400000000000003,-0.7615112089801511,-0.6270632707966876,0.16398881978765745,-0.4549129096099081,-0.8483518205181801,0.2708383896232902,0
20,4.04,-0.9808501322810457,0.1564678916463371,0.1159776568482302,-0.9311086988371398,-0.28303020585688216,0.2300662807158401,0
21,4.24,-0.988248796369378,0.12561266839764326,0.08709634901934547,-0.961991144411765,0.201320689734397,0.18450750108927713,0
22,4.44,-0.9730626782486329,0.040762790035924125,0.22690839373651345,-0.9597356129615879,0.16047703243168218,0.23055297715528605,0
23,4.640000000000001,-0.9544053730383752,0.01057862224104434,0.29832612468062736,-0.9376164090529158,0.14312419251183436,0.31684528557728414,0
24,4.840000000000001,-0.9263844786733917,0.24639469207039752,0.2847831690823082,-0.857093676900962,0.4040756844956687,0.3195516706508442,0
25,5.04,-0.4695615744449158,0.8797772543099601,0.07418834547042952,-0.5251363714557971,0.8165424679869938,0.2397711186693423,0
26,5.24,0.19129817138145427,0.9808679945406681,-0.036096910004598075,-0.051863537908121204,0.9923990370481743,0.11159894579031471,0
27,5.44,0.5790904662695074,0.8152133899426856,0.009020018509954583,0.3510634884106815,0.9327758320284024,0.08175374174094763,0
28,5.640000000000001,0.8577424573817025,0.5139791940194054,0.010161934853207327,0.6824454061403143,0.7293314589227448,0.04841374457323168,0
29,5.840000000000001,0.9230119181661316,0.3818403770650308,-0.047401744336186775,0.9110801615103727,0.4117275680344339,0.02033098676119039,0
30,6.04,0.9971442904026816,0.06842958766645822,-0.031947701781675476,0.9828661785239817,0.18417846453649783,0.007236595514670497,0
31,6.24,0.9433794669950754,0.22161934135021327,0.24681987114408982,0.9704852801385547,0.1983509692608254,0.13716856063866192,0
32,6.44,0.7888450978702429,0.49271089380813593,0.3673681895440524,0.7844658962796972,0.537119403822581,0.3100258112018525,0
33,6.640000000000001,0.39317451191920627,0.8090283461232027,0.43690609785885254,0.3622722128793965,0.8441432838428429,0.39519736856219967,0
34,6.840000000000001,-0.2871278807996492,0.8749188928400402,0.38996732045013793,-0.503371827540028,0.8040526268406429,0.31641140388689265,0
35,7.04,-0.9448435504917876,-0.23707291964466926,0.22598029972815156,-0.9612923552483235,-0.13627793032930288,0.239468856944474,0
36,7.24,-0.9641910238800644,0.01539698902920143,0.26476140617157135,-0.8935964755500463,-0.34965692313176744,0.28147002503030505,0
37,7.44,-0.9705024176982493,0.0809603172609435,0.22709135666260066,-0.9247252778852981,-0.17977277249995108,0.33550694584112506,0
38,7.640000000000001,-0.9683384836412705,0.07164947212869195,0.23913789796476162,-0.9317216093583496,-0.043328705738318526,0.3605793475973489,1
39,7.840000000000001,-0.9737589576329833,-0.06498823047381988,0.21810553025865256,-0.9251228061181244,-0.06540231274440468,0.3739924211635995,1
40,8.04,-0.9720185611484419,-0.01192585437045228,0.23460113124289894,-0.9137769069789249,-0.025023383672033356,0.40544493404361553,1
41,8.24,-0.965687744880282,0.024058135714538454,0.2585892215348055,-0.8934198140325752,0.021284326803900636,0.44871818920844275,1
42,8.44,-0.9602976063960252,-0.00430811055870334,0.2789443445088624,-0.8736065471737758,-0.0004308890329258094,0.4866327311944344,1
43,8.639999999999999,-0.9606624386894596,-0.03695261616772113,0.27524931071590586,-0.8655663424376383,-0.033671035670611464,0.4996610533111393,1
44,8.84,-0.6689228881734871,-0.04151375713898986,0.7421716631924488,-0.754874718421455,-0.04469482396319568,0.6543443529205613,0
45,9.04,-0.610496668474541,-0.038046054516398156,0.7911044908968863,-0.7098772078113987,-0.02801399961724233,0.7037681192376772,0
46,9.24,-0.6611444749208433,0.22084919794956545,0.7170171650990484,-0.7135673578098906,-0.018770364482715827,0.7003351335506437,0
47,9.44,-0.6438782306517257,0.266018463030382,0.717394592549844,-0.7009170024508042,0.02364077639619459,0.7128509447049675,0
48,9.64,-0.380711359743768,0.38076398914181464,0.8426610499690036,-0.5843826222887656,0.2771111919239048,0.7626967536822346,1
49,9.84,-0.34987067277877526,0.34078664912731643,0.8726138734319451,-0.5646169423311598,0.294025642169355,0.7712046616686848,1
50,10.04,-0.25450655715702547,0.3005945176719267,0.9191677476443891,-0.5254181112585645,0.2862221438828862,0.8012569455003602,1
51,10.24,-0.10598828059728843,0.24887318512570047,0.9627193890752483,-0.4924676908398582,0.294578117695368,0.8189623349421579,1
52,10.44,-0.11931165878178702,0.23484112370829172,0.9646835619487696,-0.5010836107930753,0.2669408456534766,0.8231997326994103,1
53,10.64,-0.23832635830416352,0.2340478481584953,0.9425614843127493,-0.5210561963296589,0.2664694875026456,0.8108603162669544,1
54,10.84,-0.9091051881682001,-0.02034524187448478,0.41606949897670975,-0.7007608589997004,0.1875655555354488,0.6882974508674868,0
55,11.04,-0.9333544123842593,0.015245377632569114,0.3586322898787482,-0.7837867507871275,0.04886276800420223,0.6191048046926504,0
56,11.24,-0.9835774687059425,-0.013573376441993194,0.1799753497176062,-0.8540267064169053,0.015061262732318264,0.5200110990080897,1
57,11.44,-0.9835630566610395,-0.004593559717497228,0.18050654498027108,-0.8701640305738223,0.023303261290563818,0.49221084700435414,1
58,11.64,-0.9840101115494688,-0.0535797378845414,0.16986262701555563,-0.889539873571235,-0.020713197140018014,0.45638774829207474,1
59,11.84,-0.9680704526319251,-0.021109240629431057,0.24978790743562573,-0.9021102874524131,-0.00724515455624099,0.43144470909721583,1
60,12.04,-0.9687378718063296,0.038271524188290704,0.24511676026834325,-0.9003065617391239,0.029889022580447427,0.43422890417228405,1
61,12.24,-0.9679110637712149,0.08032650966858541,0.23810885005336938,-0.902652855018018,0.07215037390513936,0.4242783836977436,1
62,12.44,-0.9760065058559465,0.08522582255332536,0.20036930827094165,-0.9184377085253805,0.08803784452478047,0.3856442836216807,1
63,12.64,-0.9782110991054265,0.07373845706850024,0.19407649403292235,-0.9241994369156158,0.08440123631077598,0.37246722287212264,1
64,12.84,-0.9745052423109188,0.04924503307036336,0.2188937171926969,-0.9189360146705638,0.06375634070202749,0.3892193853878155,1
65,13.04,-0.9681658822161281,0.018902188478382678,0.2495947350874907,-0.9080455835371969,0.03370196561404921,0.41751334796906947,1
66,13.24,-0.9714180187345849,0.004585057934413736,0.237331013821438,-0.913245117927816,0.023835116694706063,0.40671272637226297,1
67,13.44,-0.9796949406986509,0.015781257804314188,0.19987189665278365,-0.9278530655848747,0.03249791300159431,0.3715273534146459,1
68,13.64,-0.9814760641664368,0.03779337175232341,0.1878201174527133,-0.9300857288191903,0.04641157228951367,0.36439882409866725,1
69,13.84,-0.9877321823043945,0.1539695329941739,0.02604839629908691,-0.9251358145539016,0.05402324450552685,0.37577282190545036,1
70,14.04,-0.9886452924212772,0.15024303901243774,0.002741350315968908,-0.9333578717046344,0.05694579852896406,0.35440126884210543,1
71,14.24,-0.9858182831289274,0.16561903268163147,-0.02706748348729663,-0.945970639025658,0.0692259266880023,0.31677645300049645,1
72,14.44,-0.9931116589635325,0.06789957110778753,0.09549283257961964,-0.9498426417256527,0.07279691890005797,0.3041374106523101,1
73,14.64,-0.9896596185297515,0.016527685686021965,0.14248043745514913,-0.9499866168534322,0.03245560873562675,0.3105995190932693,1
74,14.84,-0.9706493868726117,-0.09716498208659526,0.21999712275376415,-0.9442132011729152,-0.010438952011116647,0.32916934701108735,1
75,15.04,-0.9704591427266163,-0.10212102233500628,0.2185871658985822,-0.9412315512245097,-0.03738564032428361,0.3356865813181198,1
76,15.24,-0.979189541169712,0.09302127338191493,0.18037429185517456,-0.9393096564158601,-0.03849750778816153,0.3409036685898516,1
77,15.44,-0.9677163361131276,-0.024032014221229133,0.2508935134917905,-0.9392263220649029,-0.0018418083985612993,0.3432936406085297,1
78,15.64,-0.9571169958030904,-0.001861857319139275,0.28969568486981456,-0.9283033640064684,0.07317232869067451,0.3645527049526008,1
79,15.84,-0.8510266416594781,0.2809647993541732,0.4436354772892487,-0.9064552539630047,0.12139153399012323,0.4044786373078182,1
80,16.04,-0.957784727073393,0.1275102819119241,0.2576616863091761,-0.9034282777670801,0.14686784720022514,0.40279918370023965,1
81,16.24,-0.9620819422765936,0.10825403281590423,0.2503585443406929,-0.9054800033637233,0.13635915271813884,0.401885736221657,1
82,16.44,-0.9638106321133408,0.10538399597954096,0.2448740060044488,-0.9073851964205074,0.13180695418532634,0.39909777266392327,1
83,16.64,-0.9654162252301515,0.0925091889411204,0.24374897338003593,-0.9093805645597521,0.12064348510128474,0.3980855916804867,1
84,16.84,-0.971413474375115,0.08195706881701913,0.22279789198596614,-0.9121007650459947,0.11319251538755346,0.3940300101042433,1
85,17.04,-0.9754465366125411,0.0791958323967276,0.20550443873938037,-0.9153210356475069,0.11334747817777056,0.38644501664779635,1
86,17.24,-0.9480168423521438,-0.0966654935071546,0.30318286393147076,-0.9172646746875911,0.10303082905669216,0.3847208921207148,1
87,17.44,-0.9473706162638125,-0.10004231340972937,0.3041059864053214,-0.9169900083098959,0.09842137683858308,0.3865780092568838,1
88,17.64,-0.9464136970828111,-0.07812274797607395,0.3133655217516949,-0.9133832238994443,0.09039791034685897,0.3969374057757462,1
89,17.84,-0.9427870493302156,-0.058922036916976145,0.3281474869335133,-0.9042297979094338,0.07979123160183298,0.4195257226108158,1
90,18.04,-0.9387570329377767,-0.049761651900548494,0.34096775670140855,-0.8932405880628784,0.07339448810134526,0.4435476309861488,1
91,18.24,-0.9542511633358395,0.11680980000588036,0.27524568642357167,-0.8838797346395023,0.06851575306395973,0.46266857065904277,1
92,18.44,-0.9508528895284482,0.1179131200867927,0.2863132525518133,-0.8753516465179818,0.06231375317733206,0.4794543681136015,1
93,18.64,-0.9468786139476028,0.11330073555989743,0.30097148331736184,-0.8633572651430186,0.05317696972229653,0.5017832625904549,1
94,18.84,-0.9511946128614857,0.11454287457639553,0.28654622375293154,-0.8627639451787348,0.05231445817170845,0.5028932017494632,1
95,19.04,-0.9560650524442453,0.10110136744387306,0.275169273349626,-0.8650753040527792,0.05427858900711426,0.49869685490625293,1
96,19.240000000000002,-0.9596849772430665,0.08545409994251894,0.2677729285364547,-0.8688139520090489,0.05134017299987514,0.49246979951136227,1
97,19.44,-0.9644554056545928,0.07454959526903054,0.25351159411131297,-0.8771687919270705,0.04867708148910222,0.4777085431588039,1
98,19.64,-0.9437994364548337,0.18126391940396516,0.2763802005749538,-0.8838918753992823,0.050007839520936535,0.46501007364312896,1
99,19.84,-0.9450358694951011,0.18266837811620507,0.2711816162722576,-0.8924221299962877,0.057631083063186254,0.44750575432931944,1
100,20.04,-0.9438413979858477,0.18713085389616887,0.27229663782024777,-0.8951173937239998,0.06282775744043909,0.4413813819677489,1
101,20.240000000000002,-0.9483869636178943,0.19970490755768627,0.24633334556451417,-0.8930076908847321,0.07175438051436966,0.4442843378937842,1
102,20.44,-0.9507983577890315,0.2050028460256201,0.232284988639122,-0.8912269657199746,0.07706281099194613,0.44696288295068437,1
103,20.64,-0.9516161922112396,0.20853796497359733,0.22569567981255695,-0.8908017708086442,0.0822509373017063,0.4468858785385532,1
104,20.84,-0.9696127845309508,0.12175038826865597,0.2121977639622247,-0.8903774014878737,0.0878306548903699,0.44666974263009007,1
105,21.04,-0.9716119601114611,0.11739606698563163,0.20539805847346704,-0.8922346674986872,0.09118549478124928,0.44226971822068695,1
106,21.240000000000002,-0.96775177555759,0.11561086575875829,0.22380935776602953,-0.8927737275821541,0.09260850003096142,0.44088404037919193,1
107,21.44,-0.965015879860061,0.10860073963227204,0.2386424751992744,-0.8927636774348525,0.09030500651189248,0.441381945770198,1
108,21.64,-0.963242925967341,0.10130108257321462,0.24879942974888627,-0.8907290648285269,0.08881030244654517,0.4457740046806806,1
109,21.84,-0.958388294110125,0.10563029760341296,0.2652058029925048,-0.8875193068905697,0.09050356260312621,0.4517948484131102,1
110,22.04,-0.9509669401893631,0.10947279052509845,0.2892707845627147,-0.8790104054538735,0.09383496519085772,0.46747802773119457,1
111,22.240000000000002,-0.9466991519779757,0.10709482985149595,0.3037950181672852,-0.8732279232985678,0.09062258295944926,0.4788115928310721,1
112,22.44,-0.9495228707683172,-0.003590372852228439,0.31367726584927375,-0.8692647497796944,0.09098976222783772,0.4859008725657601,1
113,22.64,-0.9483564936852926,-0.0027255166949122903,0.3171947862807393,-0.8655692891909331,0.08287842765424798,0.4938835610131834,1
114,22.84,-0.9544081473473655,-0.0043710421362739135,0.29847274962316556,-0.8663951932950392,0.07252226277173661,0.49406466220295403,1
115,23.04,-0.9601636816409697,-0.002566395959382063,0.27942640904080335,-0.8709766472272997,0.06980460360923596,0.4863404129821516,1
116,23.240000000000002,-0.9651846982218872,-0.0028430150289714662,0.26155384834459894,-0.8763614559702382,0.06452056952829191,0.4773129943731566,1
117,23.44,-0.9703379803483088,-0.00030301163290326306,0.2417521707813928,-0.8834747045031003,0.061586621097289664,0.46441310770151484,1
118,23.64,-0.9724186960008452,-0.002632756682161442,0.2332272459646779,-0.8900246520832278,0.05923301521454457,0.4520481927767468,1
119,23.84,-0.9734027042911647,-0.0014703042427127258,0.2290960791547556,-0.8971840490521801,0.06426228664620436,0.43695668050887687,1
120,24.04,-0.9737070222771746,-0.00427710848418204,0.22776378358099975,-0.9019390948236437,0.05746836769707445,0.4280224946693113,1
121,24.240000000000002,-0.971808204659892,-0.000862785237636717,0.235771221647917,-0.9016968258739135,0.054786641439522596,0.42888373497800847,1
122,24.44,-0.9709740894719996,0.00289423289851054,0.23916718209225632,-0.9032635175742394,0.05066999056204017,0.4260839939212162,1
123,24.64,-0.9758237912511178,0.004996425125877284,0.21850163423703858,-0.9094936964122731,0.049474718766622,0.4127632110415173,1
124,24.84,-0.984847113144897,0.0060092189520645056,0.17332066529340684,-0.9256270408885853,0.047366891918193404,0.3754609949460155,1
125,25.04,-0.9930153762745618,0.05896940816331915,-0.10219134690940478,-0.9542519918086535,0.038463710110880935,0.29651927278631296,0
126,25.240000000000002,-0.9638757716227833,0.06413336350184902,-0.25851578010737436,-0.9909536337499883,0.02824225098908131,0.1311993560074276,0
127,25.44,-0.9266716675632801,0.08900340126485726,-0.3651821670054235,-0.9985786218563362,0.050463429126851395,0.0171516265193596,0
128,25.64,-0.9107930650733324,0.12416521306268709,-0.39374991108496993,-0.9960272993538059,0.08663606880622778,-0.020586658878192454,0
129,25.84,-0.9037064800257629,0.14069987909048956,-0.4043737652016597,-0.9937770489648385,0.10350793946849007,-0.04114952512149438,0
130,26.04,-0.9624746107417155,0.22238242437392633,-0.1555271069851106,-0.991351310155074,0.12855862354419734,-0.026367786525223664,0
131,26.240000000000002,-0.9599204306541067,0.2461005440687035,-0.1341166992656875,-0.9857630635189069,0.16799763632371414,0.0069265280960090535,0
132,26.44,-0.8920244132289689,0.45172824493144287,-0.015298331107410593,-0.9046770525346207,0.4053820850072407,0.131243269436773,0
133,26.64,-0.7788055097253485,0.6233553923582991,0.06992876975374025,-0.8628231722329573,0.4839949952011007,0.14589385894595774,0
134,26.84,-0.9532049120264102,0.2931366059904574,0.07396841161684353,-0.8806033111338596,0.4406571467868034,0.17423859333051475,0
135,27.04,-0.9796423616070791,0.19759610019181614,0.035448900319914114,-0.909084188254188,0.37338156992364624,0.18480298132762155,0
136,27.240000000000002,-0.988765227258007,0.1371876677931875,0.05935376290420065,-0.9553216670078816,0.23734200996523594,0.17615130669666984,0
137,27.44,-0.9421171852971256,-0.32004512729337276,0.09993160492852299,-0.9862376474452723,-0.049053919989001236,0.1578892513609716,1
