,timeStamp,x_gaze,y_gaze,z_gaze,x_head,y_head,z_head,fixations_head
0,0.033366700033366704,-0.9931622295557161,0.08943834228981089,-0.07503045190034321,-0.9906854815811499,0.019593427963616367,0.13475301171016463,0
1,0.2333667000333667,-0.9961829746750033,0.0725828808818738,-0.04848923973985941,-0.990265420611957,0.011054556926724548,0.13875227389624264,0
2,0.43336670003336675,-0.9504710600798895,0.3051800814320918,0.05890570301518737,-0.9883113420876198,0.02065419835190292,0.15104335533683086,0
3,0.6333667000333668,-0.8833111546513935,0.46462967867604565,0.06229498986127692,-0.9665176668394863,0.20408368265515514,0.15554243845673035,0
4,0.8333667000333668,-0.605546826910037,0.7956283507802265,0.016987285066272697,-0.839221106267227,0.5226966518681616,0.14998714918760703,0
5,1.0333667000333666,-0.5649946982438978,0.8248507580313171,-0.020055371635765318,-0.7352465537883314,0.666617664112482,0.1226107460037671,0
6,1.2333667000333668,-0.7188927756762878,0.6950754563865098,0.007955313289100756,-0.7195512524095335,0.6820896085045468,0.1303831320608081,0
7,1.4333667000333667,-0.7681188347699502,0.6400937071691866,0.016537887230892938,-0.7522020360329639,0.6452216901186993,0.13372010913932522,0
8,1.6333667000333667,-0.7903509662886975,0.6122870844228266,0.021210288435493704,-0.772679848661775,0.6203146196208377,0.13481700247621714,0
9,1.8333667000333667,-0.49181498277133534,0.8702372964753932,-0.02837376508026669,-0.738530034946221,0.6617837707728261,0.12890162227075833,0
10,2.033366700033367,-0.3583636010558388,0.9334906900258633,-0.013063731217746326,-0.6251794965670325,0.7662752527021315,0.14823236545530946,0
11,2.233366700033367,-0.3567291956062968,0.9341784648231963,0.007407891917455279,-0.5096544560938157,0.8442647776629842,0.16573871177666602,0
12,2.433366700033367,-0.44522394580255564,0.8952902474359735,0.015199043721118848,-0.5624418066713508,0.8069330746331694,0.18032810976474803,0
13,2.633366700033367,-0.8965682837607951,0.4425951516518286,0.016578428409159258,-0.7584479139450512,0.6312717879446006,0.16202682363617293,0
14,2.833366700033367,-0.8521066782834636,0.5225150709883616,0.0298698747026105,-0.8242902942241974,0.5354683514884074,0.18389985155533364,0
15,3.033366700033367,-0.8068792490017055,0.5896480611733342,0.03551114592591351,-0.8541735705596598,0.4864667136414718,0.18367810940944498,0
16,3.233366700033367,-0.7929499805889264,0.609030367340087,0.017673141815205642,-0.853341506931965,0.49382765457543704,0.1671601630879989,0
17,3.433366700033367,-0.9588669913735933,0.26876170541630207,0.09133038134089935,-0.881932275809109,0.4391367527208209,0.17133118016280105,0
18,3.633366700033367,-0.9619054076904716,0.26262021617832887,0.07595135752753578,-0.9458340234284888,0.26911320770433245,0.18159317598456778,0
19,3.833366700033367,-0.8446947589845848,-0.5344221704314533,0.029727224816807892,-0.9761966153154732,-0.10084485202133117,0.19201688484977117,0
20,4.033366700033366,-0.8757612742287713,-0.482622920701448,-0.010830834446276706,-0.9555757725286624,-0.22587211320299228,0.18935873740988304,0
21,4.233366700033367,-0.8976258023831902,-0.44022542864835584,-0.02166773793697847,-0.9603213309145378,-0.21450336806378398,0.17824490590146982,0
22,4.433366700033367,-0.9654952948580389,-0.25559412828415723,-0.04990468107954189,-0.9856671358163485,-0.0172726449396992,0.1678152350306246,0
23,4.633366700033367,-0.8472302899958521,0.5296173857789617,0.041306904921610675,-0.9506793678321581,0.24873123842883552,0.18531462599564505,0
24,4.833366700033367,-0.7996404198527617,0.5997464060105143,0.029655478670400012,-0.9198296753381472,0.3452134085213988,0.18638956769185475,1
25,5.033366700033366,-0.7579537876802032,0.652134981287387,0.015034025493289355,-0.8860756191682899,0.4275351995266039,0.1791190952446973,1
26,5.233366700033367,-0.808229720582187,0.5887699496482198,0.01070818186588867,-0.8702253521989661,0.45690007721423753,0.1842556805957667,1
27,5.433366700033367,-0.8206708829024729,0.5709582259229664,0.022494581724817633,-0.8740814688264616,0.44779228124959203,0.1883179723432197,1
28,5.633366700033367,-0.8306330488919978,0.555874301286926,0.03244224494630515,-0.8774317913334035,0.4363156685056828,0.19935417972516575,1
29,5.833366700033367,-0.8271086937072195,0.560323007707999,0.04392420547942763,-0.8696804498860913,0.44422317864179256,0.21522472591063543,1
30,6.033366700033366,-0.8258209823378484,0.5618800903275412,0.04806734051375563,-0.8652233957191403,0.4485694253126718,0.2239954155220583,1
31,6.233366700033367,-0.8201699272860357,0.5702716811699203,0.04595106126360506,-0.8580173828820408,0.4605055340783044,0.22746609363927064,1
32,6.433366700033367,-0.817814432728498,0.5732073822398439,0.051116049991276995,-0.851514612367994,0.4683234364962521,0.23578809077671012,1
33,6.633366700033367,-0.8129509748836792,0.579825513568827,0.05397301409335876,-0.84660871310719,0.4750616677288283,0.23993769763355755,1
34,6.833366700033367,-0.8106945683763828,0.582610802310825,0.05778381984403218,-0.8439903242239913,0.4785101999237329,0.24229800078669922,1
35,7.033366700033366,-0.8046108439513013,0.5906389510387952,0.06121290151403265,-0.8375886614706931,0.48680220752645204,0.24792911269777437,1
36,7.233366700033367,-0.9458332605905195,0.31804475815717265,0.0651688189969108,-0.8454034486898665,0.48024632427047165,0.2337872472312837,1
37,7.433366700033367,-0.8946650351030374,0.44285274732583074,-0.05878706617993953,-0.8649314525599663,0.4519965263158419,0.21815756363444977,1
38,7.633366700033367,-0.8230245016011006,0.5510216857901044,-0.13786142155545664,-0.865118907792387,0.4714194034224109,0.17126885723027915,1
39,7.833366700033367,-0.7889586257039717,0.5891069871073898,-0.17463460329658,-0.8404288312355264,0.5269278536820696,0.1265954842879276,1
40,8.033366700033367,-0.8040956776066597,0.5931223857818815,-0.04044720928192704,-0.8279513913217473,0.5520550543769696,0.09864943256412761,1
41,8.233366700033368,-0.6399732674323171,0.7663301499012078,-0.056323337298106506,-0.8123969837388829,0.5750480042734263,0.09659675767392402,1
42,8.433366700033368,-0.6212692746917512,0.7819458043904473,-0.05084532741719414,-0.7914802212718866,0.6033554438116351,0.09757698375267856,1
43,8.633366700033367,-0.6429535162149335,0.7648949279357897,-0.039325884668450405,-0.7958107784071569,0.5954171343622153,0.11028889825763542,1
44,8.833366700033368,-0.6590802347008582,0.7517488299413041,-0.022066737605318996,-0.803243760364794,0.5840019304579545,0.11722289305595683,1
45,9.033366700033367,-0.6673075528638863,0.7447250744335521,-0.009230027126298059,-0.8115644966347612,0.57113885065105,0.12314008721356566,1
46,9.233366700033368,-0.7486023023340758,0.6626177270116126,0.023072511568646474,-0.8148336691425423,0.5654345080428504,0.12778853135568013,1
47,9.433366700033368,-0.8327610214925572,0.5521678342304372,0.040246290809731036,-0.8249890074547043,0.5506114770234143,0.12735830930487407,1
48,9.633366700033369,-0.8436049754333872,0.5353084490224385,0.042136798991208264,-0.836019810460006,0.5339363432283274,0.12642332814151855,1
49,9.833366700033368,-0.8472457027256463,0.5292198352165094,0.04583759621028012,-0.8416447309088622,0.5240864070387626,0.1302596825212998,1
50,10.033366700033367,-0.8534146608421007,0.5185456832488166,0.05285632453908056,-0.8475914193706978,0.5124170949117073,0.1379039761987027,1
51,10.233366700033368,-0.8548161704009826,0.5162918198911056,0.052269221675173345,-0.849649743072708,0.5086550186933054,0.13915957047431032,1
52,10.433366700033368,-0.8502586346516376,0.523947573752237,0.05039041733779849,-0.84608274647437,0.5142639648345184,0.1402731641871247,1
53,10.633366700033369,-0.8455018799848819,0.5314970941726869,0.051355718552275234,-0.843801481924609,0.5170220780982573,0.14383055955113822,1
54,10.833366700033368,-0.8508754952247102,0.5235623883611069,0.04351226401508449,-0.8513504945552592,0.5054745876863987,0.14034876780286012,1
55,11.033366700033367,-0.8512745404300354,0.5236774802176372,0.03306892088560881,-0.8539222876392254,0.5024026133270368,0.1356773407579768,1
56,11.233366700033368,-0.8436078319918103,0.5363365836864121,0.02586300063151428,-0.8474367457979948,0.5139734942128307,0.13297446791756148,1
57,11.433366700033368,-0.8334281854944802,0.5523680666245763,0.0169404426390248,-0.8380479102163371,0.5306070335796541,0.12701132271506382,1
58,11.633366700033369,-0.8323172686977064,0.5540700567725261,0.015947928256673488,-0.8368995857189779,0.5319976717104606,0.1287538765166004,1
59,11.833366700033368,-0.8488568577676475,0.5283932731733533,0.01557510468619853,-0.8523422710326319,0.5068872782004569,0.12875535021686654,1
60,12.033366700033367,-0.8550269745465778,0.5183270543193357,0.01630759204685175,-0.8592909489074243,0.4952207397122125,0.12796673038203166,1
61,12.233366700033368,-0.8597961923329115,0.5102689135147723,0.019394420596672696,-0.8658821291034706,0.4832111534876699,0.12944156845602578,1
62,12.433366700033368,-0.8182168809964795,0.5728164691967554,0.04901457201033049,-0.8695772653094427,0.4755367281265716,0.13304209807285117,1
63,12.633366700033369,-0.8103856450651443,0.5838928199988056,0.04841777593191131,-0.8636513112403318,0.48531124507978307,0.13630630209922906,1
64,12.833366700033368,-0.808207187426033,0.5867899782913207,0.04978617850139461,-0.8580327032206801,0.49307761177657516,0.14371620983216046,1
65,13.033366700033367,-0.8180407500467036,0.5727153893672348,0.05297559858051025,-0.8602214802096984,0.48845473808982365,0.14639321645294037,1
66,13.233366700033368,-0.8337677463732834,0.5497087715789898,0.05149380114862844,-0.8685893113950967,0.4727373548326801,0.14856648840163317,1
67,13.433366700033368,-0.8366791957745864,0.5454545848534242,0.04946937659168439,-0.8669431204529646,0.47541444571048663,0.14963532573916818,1
68,13.633366700033369,-0.8345605387530833,0.5485930193651625,0.05054113433608207,-0.862824033458368,0.4813763421853173,0.15430976790507153,1
69,13.833366700033368,-0.8342324557536066,0.5490769429881406,0.05070227259309987,-0.8619628645782015,0.4813832218673855,0.15902897155146353,1
70,14.033366700033367,-0.8279967048077547,0.5586646616557494,0.048117072277593896,-0.8581177466881952,0.4876438565292039,0.16074016924247644,1
71,14.233366700033368,-0.8175060433141641,0.5742172158642789,0.04425447039448659,-0.8506411739137494,0.500644051703572,0.16051519160649527,1
72,14.433366700033368,-0.7978083153987112,0.6018000026286386,0.03658754865854211,-0.8360899008598989,0.5261138931925932,0.15542795459574707,1
73,14.633366700033369,-0.787602291896264,0.6152689157534662,0.03356770929489661,-0.8305393209597022,0.5349955998076299,0.15486815207224244,1
74,14.833366700033368,-0.7356179602033399,0.6771109093399963,0.019673156306011123,-0.809361184545992,0.5682214922408985,0.148522081542899,1
75,15.033366700033367,-0.36545555490667475,0.9305733556960065,0.02180520709665927,-0.652102233465318,0.744427927744523,0.14349124538988256,0
76,15.233366700033368,-0.41141934317645523,0.9114461525209443,0.00018739002560178174,-0.5556044511554018,0.8183670067948676,0.146898386805008,0
77,15.433366700033368,-0.41598998344545207,0.9088583431985131,-0.030476969526293148,-0.5136521819439783,0.8486781086247472,0.12612257500270177,1
78,15.633366700033369,-0.3839175560985362,0.8763661674153201,-0.29084300013772185,-0.47814083734899415,0.8762330090133368,0.05997544142927873,1
79,15.833366700033368,-0.3689434615076371,0.8704098449418955,-0.3259868464202015,-0.46515208251151535,0.8852215256498961,0.004048538164716422,1
80,16.033366700033366,-0.3412771471978679,0.8821157298924559,-0.32465635351365624,-0.4413387521637599,0.8971919396879577,-0.01633184611411867,1
81,16.233366700033365,-0.35579884398179973,0.8810299053974232,-0.3117587022307844,-0.45602423900679145,0.889852403390682,-0.014303622551795264,1
82,16.433366700033368,-0.4027442210787899,0.8322533024815331,-0.38098757577671843,-0.4908724189107251,0.8711370988706518,0.012822765846634892,1
83,16.633366700033367,-0.43920288623807713,0.7695523759587459,-0.46356225620340563,-0.5022265416289571,0.8645619170936465,0.017354895412429953,1
84,16.833366700033366,-0.4623132395344779,0.7731361588560011,-0.4341969005192516,-0.5372058357453812,0.8425334747649371,-0.03933489470721782,1
85,17.033366700033366,-0.6114022598933859,0.6117955561043636,-0.5018899023971427,-0.5918914681598794,0.8006233671636047,-0.09309518715354921,1
86,17.233366700033365,-0.6243063195288032,0.6002054788754447,-0.4999950024993229,-0.629719285775102,0.7694699741138877,-0.10662823294075845,1
87,17.433366700033368,-0.6194254390734302,0.6106771305204636,-0.4933412284494184,-0.639769021864492,0.7611617454200802,-0.10643493773948708,1
88,17.633366700033367,-0.5456183657246283,0.8123381567339611,-0.20593037196600236,-0.6403342854518117,0.7643346148683594,-0.07592495893284436,1
89,17.833366700033366,-0.42173655546968125,0.8984939607134893,-0.12184777528521128,-0.6217656444939691,0.7801263905434119,-0.06935631265218323,1
90,18.033366700033366,-0.43119413154472747,0.8930728168815047,-0.1284233805376682,-0.6214362460886046,0.7805746819026788,-0.06723212044726463,1
91,18.233366700033365,-0.43395566050849976,0.891252926516224,-0.13172207745438183,-0.6204466544117515,0.7812449543126483,-0.06857310252783426,1
92,18.433366700033368,-0.44859205992979667,0.8837754633634878,-0.13306424810817544,-0.6237762365521623,0.778568403511413,-0.06880732349474476,1
93,18.633366700033367,-0.45848824955292217,0.8781646319618976,-0.13643827979391315,-0.6261614522622263,0.7765847864645017,-0.06955505109439607,1
94,18.833366700033366,-0.46733301867766525,0.8714721005241501,-0.14878248439129882,-0.6316233511204772,0.7720438703340254,-0.07071212483723663,1
95,19.033366700033366,-0.46354092455682294,0.859311027300082,-0.21613507263163909,-0.6325556833374638,0.7710610218892268,-0.07306304127680217,1
96,19.23336670003337,-0.450953841325393,0.8446252699881622,-0.2885286576603729,-0.6325507263800333,0.7708682603151461,-0.07511127608284096,1
97,19.433366700033368,-0.4478172201381893,0.8414806219706661,-0.30227487523041846,-0.6377153462259406,0.7667585077828625,-0.07348828430795684,1
98,19.633366700033367,-0.4493161914099367,0.8414438838049657,-0.30014521576077924,-0.6405835457839892,0.7647807959123554,-0.06901489023737098,1
99,19.833366700033366,-0.5356214285603069,0.7516932139586576,-0.3847947470477211,-0.6509727421454667,0.7560775258345037,-0.06768503462056635,1
100,20.033366700033366,-0.5440254896269185,0.747138581672576,-0.3818641203523619,-0.6627734166961138,0.7458896082244254,-0.0661822518789805,1
101,20.23336670003337,-0.7036945131574595,0.7043131024760533,-0.09357930237313698,-0.670382815719003,0.740563451538244,-0.0463967093059869,1
102,20.433366700033368,-0.7320834457408112,0.6799893819286973,-0.04084444804975687,-0.7019824668010407,0.711859627289307,-0.021828589955714277,1
103,20.633366700033367,-0.7510075127267118,0.6599774435217842,-0.02043256886659253,-0.7308941339698329,0.6824803074757522,0.0037940527527816096,1
104,20.833366700033366,-0.759209432556231,0.65082260165089,0.005565851059162158,-0.7372037431345732,0.675113077900061,0.027440356351191676,1
105,21.033366700033366,-0.7632539926177304,0.6458557432394884,0.017711625494617172,-0.7387099918381268,0.6727569933287889,0.04129861844811222,1
106,21.23336670003337,-0.7680492940113939,0.6401082700600658,0.01901800644940775,-0.7401813016520912,0.6708952792912155,0.04506844693771963,1
107,21.433366700033368,-0.767512173941777,0.6408313814848847,0.01613082004555667,-0.7377736378281173,0.6735372267308077,0.04514048663493433,1
108,21.633366700033367,-0.8721757354718717,0.48870652325948355,-0.02180414129764408,-0.7451324153539318,0.6654902031591332,0.04359441578954132,1
109,21.833366700033366,-0.8635736102690444,0.433185942850729,-0.25805146495110964,-0.7534058031537125,0.6566279319935966,0.03492069157565491,1
110,22.033366700033366,-0.8616731164187269,0.42929818621662397,-0.2705965774956446,-0.7574110635380481,0.6522899279207786,0.029091764526559396,1
111,22.23336670003337,-0.8584340859293258,0.4334973341067282,-0.2741732690052817,-0.7548406502585433,0.655524551471121,0.022431119808104565,1
112,22.433366700033368,-0.8444486836931362,0.45622222390231193,-0.2806558444546604,-0.7341590479564459,0.6788528017635,0.013014063221428859,1
113,22.633366700033367,-0.7632548457317234,0.6028558740697104,-0.23239370810477777,-0.7172642900879976,0.6967642115488064,0.007181341750087459,1
114,22.833366700033366,-0.7757822747039599,0.5880043672817339,-0.22893825873531365,-0.7364129733982371,0.6764730882222516,0.008949498411506518,1
115,23.033366700033366,-0.8745139864697415,0.4846241709157688,0.0190971315386481,-0.7447657800278835,0.6666904625435299,0.029116319357924796,1
116,23.23336670003337,-0.8744428596641131,0.4845657363713552,0.02336091430862512,-0.7473640851516424,0.6630975419452907,0.041815954988044635,1
117,23.433366700033368,-0.8760830035203754,0.48138828433578634,0.02727435878194352,-0.7488358948475821,0.6610108755021786,0.04805647777006511,1
118,23.633366700033367,-0.8735543811143841,0.4858116924518183,0.029828555328168155,-0.7479866620705073,0.6617559903660111,0.05094077521319006,1
119,23.833366700033366,-0.6919666300919859,0.7146955943734201,-0.10194307343986155,-0.7101121700689615,0.7036782311668535,0.02403441078617696,1
120,24.033366700033366,-0.04243327558543891,0.9485452400237243,-0.3137855075548027,-0.40733998786514125,0.9006533798011231,-0.1513196079126583,0
121,24.23336670003337,0.13036641450292885,0.8768489474912691,-0.4627531969128945,-0.05453668748835566,0.9501139315083885,-0.30709813882775494,0
122,24.433366700033368,0.40690175526917194,0.7239863914650199,-0.5570230394986605,0.17037268194502453,0.8927384160765599,-0.4171226075244242,0
123,24.633366700033367,0.4224499044535429,0.6634053871881801,-0.6175996846476633,0.21402841397779931,0.85925419702573,-0.4646224950471255,0
124,24.833366700033366,0.3993704349416286,0.6842530774274264,-0.6101647168803118,0.1751474333589536,0.8720157397583135,-0.4570688418625059,0
125,25.033366700033366,0.5791892734581573,0.5788125247549317,-0.5740347086177229,0.39395055436386134,0.8167260609945841,-0.42161772022612803,0
126,25.23336670003337,0.798511364008043,0.3385289663360875,-0.4977727799924733,0.6667843054697629,0.6419647199678997,-0.3785234316336868,0
127,25.433366700033368,0.8010787261584645,0.3473393138521433,-0.48747130741106603,0.7172005134279865,0.6054286822511844,-0.34507902608855767,0
128,25.633366700033367,0.7396937024529953,0.5087772892552964,-0.4404530582132589,0.607614356153893,0.7432218846089798,-0.28004646834760544,0
129,25.833366700033366,0.8709178486268407,0.4734118381272232,-0.13184586631441705,0.6232729534711663,0.7748158089128425,-0.10578888282833367,0
130,26.033366700033366,0.9709649514802032,0.20467593812107832,-0.12383385381753763,0.7966170466944944,0.6039285747448652,-0.025914426915862217,0
131,26.23336670003337,0.9721381109919175,0.17497305201637692,-0.15598693607203395,0.8834182011557027,0.467106366043874,-0.03720113799481676,0
132,26.433366700033368,0.9662807009046704,0.16854177298573397,-0.19466709485170966,0.8920806258949084,0.4491853065803601,-0.04924141808738598,0
133,26.633366700033367,0.9240242660185656,0.3505411122290058,-0.1526436518368938,0.8032595788895895,0.5952021149696473,-0.022549750725408296,0
134,26.833366700033366,0.6403575667273491,0.7580449574362654,-0.1237337029288266,0.3856518290860216,0.9225285940504089,0.01461710922110398,0
135,27.033366700033366,-0.7634676902088197,0.6432769520296356,-0.05754866631531728,-0.5014255781252099,0.8621088548858293,0.07308017466620367,0
136,27.23336670003337,-0.7858280202334642,0.6112135064801844,-0.09429937492980464,-0.7204603230481958,0.6910503901732754,0.05819176191397957,1
137,27.433366700033368,-0.7992261087434593,0.5916164292188937,-0.105960501042011,-0.7958025961500071,0.6041991115249892,0.040517423330249776,1
138,27.633366700033367,-0.704119477758435,0.6289248198097832,-0.329650317864886,-0.8006748520939784,0.5990980079062399,-0.0011653956670616527,1
139,27.833366700033366,-0.7030930502308813,0.6298647677564708,-0.330046265023743,-0.7891300423055874,0.6142147411255143,-0.0037454125139990907,1
140,28.033366700033366,-0.6985400483586865,0.6432682533548416,-0.3134449793262848,-0.7795433889821144,0.6263228352885926,0.005640096660380142,1
141,28.23336670003337,-0.7138041829201354,0.6449192895449117,-0.2730617117404131,-0.7944379816152841,0.6066483225397648,0.029087903443242327,1
142,28.433366700033368,-0.7187259337394241,0.654363250013364,-0.2350356764458127,-0.805017981309546,0.5910438592307101,0.0511195288903596,1
143,28.633366700033367,-0.715026125090841,0.6977805363789179,0.042894795585557956,-0.8012298756574194,0.5892802867888298,0.10382403361491502,1
144,28.833366700033366,-0.7829306144673603,0.6195014068320258,0.05690043816089906,-0.805152663309275,0.57852690636875,0.13052129088154574,1
145,29.033366700033366,-0.8057252320297326,0.5879862011771103,0.07126764831215486,-0.8156542979293229,0.558165001234665,0.1521837628202506,0
146,29.23336670003337,-0.8189643788526167,0.5671992163991402,0.08707694922738893,-0.8256065283946645,0.5375054363638413,0.17164430124949273,0
147,29.433366700033368,-0.7500857646332366,0.6605416079396119,0.03249815187245621,-0.8491916944065958,0.49977315117205146,0.17058799347671894,0
148,29.633366700033367,-0.7916831545841527,0.6102490276584526,0.028877447768080714,-0.8664882980583131,0.4683942561161532,0.1726408125716618,0
149,29.833366700033366,-0.8740888669723024,0.4812235058484845,-0.06627661770164944,-0.8859183637323862,0.4330446314076468,0.16619566784590742,0
150,30.033366700033366,-0.9000843066738305,0.4324445601839861,-0.053291117897534906,-0.9039029862632599,0.38914807277913044,0.1775476524109784,0
151,30.23336670003337,-0.9318469723617997,0.35839255964711675,-0.056709728351803164,-0.9280010661861781,0.3282360083564684,0.17628143400689975,0
152,30.433366700033368,-0.9417456332784923,0.33434779031552553,-0.03642413090270576,-0.9391384880453848,0.29479796342325587,0.17638894816095893,0
153,30.633366700033367,-0.99827574000256,0.054747915081637684,-0.021171034848467215,-0.9856903921386571,0.04960208250016608,0.16110271337624205,0
154,30.833366700033366,-0.7811886171014378,-0.624023165456332,-0.018423720715504598,-0.9286938481482193,-0.3304465291987033,0.1683235804995336,0
155,31.033366700033366,-0.6741072925609797,-0.7385610440804697,-0.010341290193798858,-0.7323102419405441,-0.6483557145300188,0.20822242190804136,0
156,31.23336670003337,-0.6750463560514349,-0.7369936407680638,-0.0339527708606147,-0.6341860832277114,-0.7568597195430191,0.15802334249583863,0
157,31.433366700033368,-0.8851588215301947,-0.4652658880227213,-0.004638330486928679,-0.7155775118877625,-0.6830834140988525,0.14610227193159964,0
158,31.633366700033367,-0.8956684572841226,-0.44452601562641914,-0.013214993665540376,-0.8173181529077391,-0.56084613654302,0.13207061767194833,0
159,31.833366700033366,-0.9098848815257159,-0.4148108383419618,-0.006439779885460331,-0.8541801950236783,-0.5016820816401514,0.13671606851615928,0
160,32.03336670003337,-0.905854352958061,-0.4235202677928627,-0.007646829120276011,-0.8603335338358801,-0.4913331929839873,0.13571257874503262,0
161,32.23336670003337,-0.8884910570601474,-0.4588557320602147,-0.005921037039791753,-0.845145166107339,-0.5167084386309375,0.13690156190846445,0
162,32.43336670003337,-0.8026284284047284,-0.5951704584126677,-0.03949343425698771,-0.741245924989445,-0.6644053630727165,0.09549865028760338,0
163,32.63336670003337,-0.017559421401465936,-0.9994643289101639,-0.027617421244599233,-0.49224149180718735,-0.8670771730272734,0.07665174334916719,0
164,32.83336670003337,-0.05074954537972748,-0.9980711943391812,-0.035754365804914916,-0.36959462305037344,-0.9251829653453013,0.08623395646221547,0
165,33.03336670003337,-0.11467528771800051,-0.9926093865105611,-0.039701186354084955,-0.3970824185435882,-0.9130191433274506,0.09338948977900711,0
166,33.23336670003337,-0.953277743726355,-0.2958870012189496,-0.060929679349619556,-0.6844450918272149,-0.7228372330655899,0.09508549188870677,0
167,33.43336670003337,-0.9330813333687206,-0.35898658850991944,-0.02208743056266629,-0.8708293089758129,-0.48062506962245033,0.10322721094325375,0
168,33.63336670003337,-0.9313494449977692,-0.36345603049821956,-0.022089028879172707,-0.9130474579005105,-0.3951689785223841,0.10092481377239053,0
169,33.83336670003337,-0.9969224260959124,0.0752337961368763,-0.022035250528982003,-0.9680526350355361,-0.2289356922998732,0.1022865807031075,0
170,34.03336670003337,-0.9826676155202713,0.18287673506671762,-0.030339037213505296,-0.9928400335323653,0.05312936456124105,0.10698569267323117,0
171,34.23336670003337,-0.5626024999225535,0.8266267128886922,-0.012911414319479597,-0.8294064709183983,0.542975507181248,0.13138685094009472,0
172,34.43336670003337,-0.3565035571585677,0.9332009008241468,-0.04518066438520857,-0.6286813159788569,0.7710855302345505,0.10093021352397313,0
173,34.63336670003337,-0.27076449522138324,0.957898420388819,-0.09548405282619433,-0.49294402313422586,0.8683197166510244,0.05501872164389665,0
174,34.83336670003337,-0.21828436397355827,0.968615161206812,-0.11889745970776855,-0.42001809874578655,0.9066254872881052,0.04018734285294818,0
175,35.03336670003337,-0.21628636408092633,0.9679915731038717,-0.1273284065420786,-0.45806660810367467,0.888737080895594,0.017927174388994268,0
176,35.23336670003337,-0.9953321154611806,-0.09591589272619765,0.010682764347668633,-0.9412343573733761,0.33660572541287326,0.027829303246779163,0
177,35.43336670003337,-0.9881850354357653,-0.1476996912435752,-0.04092843690355361,-0.9847220990389685,-0.16245671496990433,0.06269133453257952,0
178,35.63336670003337,-0.8834483832954433,-0.4680807335071422,-0.020478793228200298,-0.8950451443003338,-0.43934175379434126,0.0766355859722319,0
179,35.83336670003337,-0.8306615491536848,-0.5567696683173547,-0.002987841927428461,-0.8157293542280375,-0.5725043375368273,0.08260995189580725,0
180,36.03336670003337,-0.6803267903747805,-0.7324614090729773,-0.025607469948790415,-0.6215716523075525,-0.7748687869301701,0.11500888700020376,1
181,36.23336670003337,-0.7262064747073339,-0.6856431755633856,-0.05017561057428994,-0.6281615000946343,-0.774036205590291,0.07925327901256651,1
182,36.43336670003337,-0.7455042709036802,-0.6631440720766584,-0.06680809632043089,-0.6667711476483495,-0.741398152529267,0.0757958843862454,1
183,36.63336670003337,-0.6938764512605875,-0.7154230584352926,-0.08188600518468175,-0.6953203718477108,-0.7160446400487647,0.06172239424225401,1
184,36.83336670003337,-0.6762050886070943,-0.7345468600698176,-0.05645873274741307,-0.6896407435393479,-0.721708746912362,0.0594317211654151,1
185,37.03336670003337,-0.5670313046485547,-0.8171861059939101,-0.10335554034045843,-0.681175527536375,-0.7303882188549903,0.05032842579870713,1
186,37.23336670003337,-0.6788148066123907,-0.7305106542164537,-0.07459653075064245,-0.6785606626042523,-0.7336345379438194,0.03654848700065309,1
187,37.43336670003337,-0.7092865738180548,-0.7017623118786314,-0.06664993494523244,-0.7017777866368902,-0.7116002604959357,0.033660175952364084,1
188,37.63336670003337,-0.8781070986640058,-0.47706718010862487,-0.036535310852481497,-0.7361168990227352,-0.6760332716972444,0.0333305645237517,1
189,37.83336670003337,-0.8910066933648495,-0.4528460392115169,-0.03221082348340034,-0.760572252006343,-0.6481671996637896,0.03753839045566153,1
190,38.03336670003337,-0.922441782008715,-0.3859871751810743,-0.01072657449150305,-0.7799332662479054,-0.6241236722854586,0.04662340498920642,1
191,38.23336670003337,-0.9240587881439365,-0.38209789140241374,-0.010796177091381219,-0.7917201354007595,-0.6090975764516217,0.046683718379799385,1
192,38.433366700033375,-0.9188873853634855,-0.39433046214160783,-0.012225368994173771,-0.794013445045036,-0.606490541881721,0.04137477124686259,1
193,38.63336670003337,-0.48007218437565646,-0.8751230510629361,-0.060748195751671105,-0.7598492452161366,-0.6490130053979638,0.03756651925278965,1
194,38.83336670003337,-0.4323288389277368,-0.8985719036931529,-0.07523502458734212,-0.6768507221848411,-0.7352942754659412,0.03486299391727473,1
195,39.03336670003337,-0.4261562878090809,-0.897815027792383,-0.11099096463652652,-0.54379308504483,-0.8389074298062718,0.02287804347539214,1
196,39.23336670003337,-0.3301571502910573,-0.8975548064950336,-0.2922184550115741,-0.507854013917394,-0.8614337733761076,-0.004019282895291468,1
197,39.433366700033375,-0.2540545160835843,-0.8160159490510839,-0.5192054253874813,-0.47528554691646513,-0.878765170146998,-0.04330617310308819,1
198,39.63336670003337,-0.158530765077029,-0.8613542378054554,-0.48263534219809817,-0.45715190207248396,-0.8871960565098971,-0.06241230443428376,1
199,39.83336670003337,-0.14783018150439103,-0.8659492362514718,-0.4777846352404729,-0.45492768290861596,-0.8879498699954067,-0.06771876917471675,1
200,40.03336670003337,0.06173644455602162,-0.9209868282279996,-0.38467112400609205,-0.4471904003103278,-0.8911169225058373,-0.07701542893482136,1
201,40.23336670003337,0.06086197436203189,-0.9218342644046448,-0.3827759253744976,-0.4477060783970548,-0.8908514568077391,-0.07709052645986401,1
