,timeStamp,x_gaze,y_gaze,z_gaze,x_head,y_head,z_head,fixations_head
0,0.033366700033366704,-0.9987589889529325,-0.0033152995537855754,0.04969397120964913,-0.9796713071906662,0.1871527991034294,0.07223544597414036,0
1,0.2333667000333667,-0.9995141448649447,-0.01573241501651431,0.02690660388540969,-0.9845844593161985,0.16758687764218508,0.050080743955862254,0
2,0.43336670003336675,-0.957591846806718,0.28091725483376756,0.06405740289739494,-0.983040211883191,0.18256099674096435,0.017419078322246317,0
3,0.6333667000333668,-0.6284427416119085,0.7765064219659742,0.04579844059472479,-0.9085793990880189,0.416849154739822,-0.026837618105014692,0
4,0.8333667000333668,-0.5029931769499477,0.8637439639940148,0.030728303007239752,-0.7646900078165809,0.6429551905714412,-0.043102376532148365,1
5,1.0333667000333666,-0.6171192498371797,0.7862544420828078,0.031109223478731414,-0.7016317874724415,0.7100625451786284,-0.05936342933722082,1
6,1.2333667000333668,-0.6031069348717031,0.7957256420408484,0.05552231720973659,-0.6919161807078127,0.7203811366802397,-0.04798975713628347,1
7,1.4333667000333667,-0.5931567027693703,0.8038059187990381,0.045400119640846545,-0.6691916282175909,0.7413538085278734,-0.050765099278017665,1
8,1.6333667000333667,-0.74909881767463,0.6597359747402353,0.05999504139529475,-0.65269665637728,0.7564226386329237,-0.042566025390260706,1
9,1.8333667000333667,-0.7673106279788983,0.6391065849062056,0.05269889296897788,-0.6544227973222929,0.7546009574304998,-0.04804370291555863,1
10,2.033366700033367,-0.7809617262763706,0.6227804359135366,0.047363601370426,-0.6601930468117811,0.7493329234462954,-0.05143258481552239,1
11,2.233366700033367,-0.7888059463961256,0.6129368957698252,0.04575522630436134,-0.6623062302266451,0.7473778201650404,-0.05269583786526957,1
12,2.433366700033367,-0.6044977432941472,0.7944657044701369,0.05836713778362406,-0.6606804988280626,0.7487505751772512,-0.05360834487314425,1
13,2.633366700033367,-0.45788149112134274,0.8886710197061111,0.024664931035717968,-0.6434519489354105,0.7635513113522662,-0.054396547164839805,1
14,2.833366700033367,-0.7535445451016793,0.6541648919362826,0.0651069328527701,-0.6432049174317205,0.7639930101023338,-0.05101092732375533,1
15,3.033366700033367,-0.8091903274169204,0.5816722674825755,0.08287573382225032,-0.6529309310768389,0.7558636203755492,-0.04849109852230902,1
16,3.233366700033367,-0.8167951270651499,0.5715936888046523,0.0782711653248855,-0.666207536404043,0.7441281021782371,-0.04940532346894585,1
17,3.433366700033367,-0.826551440551246,0.5572513039666491,0.07926979468958578,-0.6835909817488921,0.728389917542703,-0.046384239712648025,1
18,3.633366700033367,-0.826067345079048,0.5578924269544384,0.07980464485817429,-0.6913233795344236,0.7213334597937794,-0.041833296440034355,1
19,3.833366700033367,-0.8197731634882459,0.5668924561198004,0.08127055813105921,-0.6934781816785924,0.7195764102759823,-0.03602500950845913,1
20,4.033366700033366,-0.6377699602810858,0.7680547082315384,0.0578052153912536,-0.6890013171661559,0.7243878210865784,-0.02322648498463654,1
21,4.233366700033367,-0.4865301496486824,0.8719066669886795,0.05538210490332494,-0.6880001295006087,0.725627530024438,-0.010977680892571364,1
22,4.433366700033367,-0.4922039556241159,0.8686968296764525,0.05568737898351924,-0.6909591127831365,0.7228738703893719,-0.005373264392404065,1
23,4.633366700033367,-0.7006406221613214,0.7105259786791026,0.06523459357963476,-0.6910796459398687,0.7227778592146843,0.0010436458517857636,1
24,4.833366700033367,-0.8244418461984142,0.561014308029824,0.07455594156583778,-0.6982747617752484,0.71582773081738,0.0017369112127120694,1
25,5.033366700033366,-0.8311632201275816,0.5518687299233513,0.06788671769894872,-0.7062769374849583,0.7079310385272032,0.0025558299365174633,1
26,5.233366700033367,-0.830324194232645,0.5530883788611588,0.06822739655478763,-0.7070316639976907,0.7071629429070533,0.005176705872681043,1
27,5.433366700033367,-0.8330312003882723,0.5484860389207792,0.07226399026256403,-0.7124949113844506,0.7015836750630761,0.011460721454256062,1
28,5.633366700033367,-0.8342346541145191,0.5464293480926715,0.07394260894401043,-0.7156120906324049,0.69832235004438,0.01565985853106754,1
29,5.833366700033367,-0.8375968442455749,0.5414784972068692,0.07233646087862643,-0.7198252127572689,0.6939507877772538,0.016851327018421233,1
30,6.033366700033366,-0.8371378124631622,0.5424546310306394,0.07030829408970408,-0.719644658793605,0.6941371218723333,0.01688849041891509,1
31,6.233366700033367,-0.8355285342610193,0.5451195526193101,0.0688239913675173,-0.7179047041280813,0.695936609987658,0.016884035941055347,1
32,6.433366700033367,-0.8328556978227765,0.5491772990536882,0.06896144436010629,-0.7143060733589907,0.6996399012011716,0.016457284395520765,1
33,6.633366700033367,-0.9201705451315734,0.38827165492435156,0.05031192557007317,-0.7141663901132418,0.6997409880274582,0.018136066469265015,1
34,6.833366700033367,-0.9205596550539341,0.3883911208200001,0.04150010548379238,-0.7141142622162044,0.6997399495818624,0.02012022511253723,1
35,7.033366700033366,-0.8205539612493514,0.5705571889781286,0.033995452392552875,-0.7149294785073013,0.6989159484006294,0.01980751959552077,1
36,7.233366700033367,-0.8260142189365995,0.5624416711254043,0.03687650601971565,-0.7187629424817582,0.6949323518616289,0.02118628922275992,1
37,7.433366700033367,-0.8318229834981768,0.5540157820093924,0.033719985301203764,-0.7218210523542449,0.6918641339139688,0.017273927801298456,1
38,7.633366700033367,-0.650115407495829,0.7569378082678438,-0.06629563598914388,-0.7199493816161837,0.6938996267060645,0.013273882915668495,1
39,7.833366700033367,-0.656279642815652,0.7514649620924017,-0.06780443328592556,-0.712336781589326,0.7017770822992296,0.009232353683743862,1
40,8.033366700033367,-0.6616453145965567,0.7468920513699177,-0.06616450160667427,-0.7112360647021924,0.7029436522744551,0.003671783488877969,1
41,8.233366700033368,-0.6633223423757866,0.7462731659842152,-0.0554962326378627,-0.7115573595692468,0.7026270014143928,0.001192026115604736,1
42,8.433366700033368,-0.662666239697041,0.7475750137857811,-0.044777824075915684,-0.7109344112949292,0.7032424418064391,-0.00472555593020126,1
43,8.633366700033367,-0.6611264111792228,0.7496014030023687,-0.031774282968494286,-0.7100168673437167,0.7041543071343881,-0.006539100206090549,1
44,8.833366700033368,-0.654898740145314,0.7554549636952038,-0.01988562255396515,-0.7107053256505957,0.7034814722087743,-0.003429045181431406,1
45,9.033366700033367,-0.6521940665170741,0.757951759262057,-0.012330053993192118,-0.7089237392034967,0.7052816636060109,-0.002215169264553794,1
46,9.233366700033368,-0.6514158064998266,0.75869318042223,-0.006488838338448651,-0.7092402193971985,0.7049660697045188,-0.0010731983868506772,1
47,9.433366700033368,-0.8405703728184478,0.5383998562022356,0.059724728390069225,-0.7147036282131847,0.6994244492977933,0.0020404762651585902,1
48,9.633366700033369,-0.8504929750486798,0.5226951230016185,0.058749534322992895,-0.7233815317043338,0.6904290551867454,0.005184529200437922,1
49,9.833366700033368,-0.854129743803677,0.5167326574566525,0.05873449980761623,-0.7262165118508166,0.687427591232428,0.007272188639919984,1
50,10.033366700033367,-0.8592936016203426,0.5083045756463488,0.05692947032359695,-0.7299895619737127,0.6834446324913858,0.004321310928637592,1
51,10.233366700033368,-0.8655441724277193,0.49755682459600975,0.057188214470726674,-0.7375490549062815,0.6752816785604583,0.004005771763460967,1
52,10.433366700033368,-0.8828599593243975,0.4664559988880359,0.05456274666004147,-0.7662484956482024,0.6425407992014389,0.0021364171977509444,1
53,10.633366700033369,-0.8444141534669531,0.5332939719563736,0.050618938152471274,-0.79161869867814,0.6109571434138648,-0.008438294537335344,1
54,10.833366700033368,-0.8466185242318407,0.5311386633139378,0.03359754099014083,-0.8044095668171114,0.5937973924888041,-0.018163300542700003,1
55,11.033366700033367,-0.8443293757365257,0.5353950562254401,0.021448520641914725,-0.807404441465032,0.589253782363006,-0.02963187259406578,1
56,11.233366700033368,-0.8634750438088107,0.5033348921271162,0.03263181096349138,-0.8337151424729634,0.5517560636959981,-0.022006984936252475,1
57,11.433366700033368,-0.8863265546180257,0.462442922000092,0.023911973380653304,-0.8637771060292683,0.5029898121212262,-0.029838900816817435,1
58,11.633366700033369,-0.9001913748211261,0.4350510441341131,0.01964885990252897,-0.8875564153275295,0.4594106593219423,-0.03443044746042075,0
59,11.833366700033368,-0.9985956737517256,0.05151821396619709,-0.012351274997774284,-0.948261305367783,0.3070412044055662,-0.08078487197098014,0
60,12.033366700033367,-0.8804270134428752,-0.46798680112173113,-0.07639782703656461,-0.9920325963160281,-0.09645331990045156,-0.0810437223149458,0
61,12.233366700033368,-0.8652000431452631,-0.5014257269249095,-0.0010609991804425133,-0.9476255018474415,-0.2826779565483846,-0.14865759694685693,0
62,12.433366700033368,-0.8849269363119805,-0.465053956793187,0.02508255689703186,-0.9146685695325539,-0.36717560043475794,-0.1690073559187502,0
63,12.633366700033369,-0.9981677983646124,-0.023140209900720524,0.05590685998778194,-0.9385927795831112,-0.2627830018722443,-0.2235815020109252,0
64,12.833366700033368,-0.9932459103150388,0.0747442670322925,0.08874602068969192,-0.9699916945744872,-0.030717671152335202,-0.24118983630222063,0
65,13.033366700033367,-0.8894284570422808,0.44015377993847316,0.12321391889418193,-0.9674268724272812,0.12285182274864888,-0.2213428927092619,0
66,13.233366700033368,-0.8274273920696573,0.545524103366842,0.1332942740653512,-0.9473943804745586,0.2587403474852735,-0.18840732583534847,0
67,13.433366700033368,-0.8243051390661922,0.5493954837894163,0.13669542823686204,-0.943001057481039,0.29382562465329554,-0.15625462516912125,0
68,13.633366700033369,-0.8195197631512766,0.5599877956666928,0.12165946945813262,-0.9377885525932447,0.31342792760988136,-0.1493839510096133,0
69,13.833366700033368,-0.8123330843721052,0.571023288061337,0.11852157831434003,-0.9332129222353054,0.3326933312626597,-0.13575267624027318,0
70,14.033366700033367,-0.7220090514089709,0.684205285314948,0.10279132857692219,-0.8758048775704736,0.4635309264123876,-0.13455443761928323,0
71,14.233366700033368,-0.7520852444857367,0.6557740415591857,0.06578899181444735,-0.8510647177792678,0.508185596922039,-0.13204637530915586,0
72,14.433366700033368,-0.7315945650611919,0.6786497740994952,0.06483730783761524,-0.8259171732822517,0.5479658589131928,-0.13264328231381411,0
73,14.633366700033369,-0.6122701553797993,0.7872551315737959,0.07317523243503675,-0.7975686114899506,0.5880576631773144,-0.1344339791288969,0
74,14.833366700033368,-0.4605382885806609,0.8834660214653445,0.08597833254600508,-0.7417591454584647,0.6573455635631874,-0.1330044367399989,0
75,15.033366700033367,-0.39314447898728044,0.9176107100758686,0.05854915367347548,-0.6704320175681711,0.72697941353213,-0.14839758124697439,0
76,15.233366700033368,-0.42026515215572147,0.9065715927951383,0.03879625008186506,-0.5745905777170404,0.8014079609018439,-0.1661052323135743,0
77,15.433366700033368,-0.4397479473985007,0.896542102539318,0.053235337259987824,-0.48288244891109733,0.8615682216089475,-0.15660376766609826,0
78,15.633366700033369,-0.4259734121374424,0.9026359498501487,0.0616035241695202,-0.44015347816011685,0.8869534569650752,-0.1399231247551825,1
79,15.833366700033368,-0.4046421278233413,0.9104308002217704,0.08590987369415684,-0.39773859981662846,0.9115687365459793,-0.10414626622147972,1
80,16.033366700033366,-0.3802310187684736,0.9223065885832469,0.06910086122634317,-0.35151465580014835,0.9299603945421364,-0.10775486690046807,1
81,16.233366700033365,-0.4160921819803691,0.9076800143374261,0.05462863413289216,-0.3107947056557316,0.9452829806892099,-0.09923072788048033,1
82,16.433366700033368,-0.43317131765801614,0.8993326991315912,0.05969343206002624,-0.30067513724816114,0.951757445095123,-0.061255428712918114,1
83,16.633366700033367,-0.3738054707046525,0.9263237091368085,0.046838616144145494,-0.30368154232179756,0.9511219214250226,-0.05607683512670225,1
84,16.833366700033366,-0.3932927486798017,0.8918693488342059,-0.22336042273853138,-0.3314257557119404,0.9392499603194869,-0.0892551426563842,1
85,17.033366700033366,-0.4118535419759663,0.882624770937505,-0.22660576711409483,-0.36714387228687184,0.9243548180849405,-0.10379569993674086,1
86,17.233366700033365,-0.38150945036064177,0.9240712350113338,-0.023300040990297043,-0.3951624486807995,0.9132543498076946,-0.09906125231350398,1
87,17.433366700033368,-0.3865184850251526,0.9214134721571843,0.040008424876553456,-0.41101899058830477,0.9067938594388325,-0.09374585782741478,1
88,17.633366700033367,-0.39231259836545224,0.9194626148561111,0.02606386475007495,-0.4215929530643375,0.901483922353181,-0.09790873130224667,1
89,17.833366700033366,-0.4071425793720338,0.9131517562347525,-0.019717762238007877,-0.435023005025001,0.8944106461627614,-0.10384883788338506,1
90,18.033366700033366,-0.41164383623952827,0.9104197302292908,-0.041052002329119604,-0.440099693816062,0.8916445473619047,-0.10621798653143569,1
91,18.233366700033365,-0.5084558464342055,0.8581803957247225,-0.07070403539144397,-0.4459087575172976,0.8883905084779872,-0.10921393874228555,1
92,18.433366700033368,-0.5133528766601028,0.8552621577344973,-0.07067860759897211,-0.4508089535660606,0.8861617656440015,-0.10718494528327895,1
93,18.633366700033367,-0.6475016415042621,0.7604861104552797,-0.049015304282302524,-0.4608704031172423,0.8811132998427247,-0.10600860517342715,1
94,18.833366700033366,-0.6563632465594077,0.7532088839032333,-0.04317019545056656,-0.47206493283120354,0.8756471382846371,-0.10196464291604793,1
95,19.033366700033366,-0.6569851668127884,0.7523187195521557,-0.04885729013543192,-0.4787686521461938,0.8714641992570308,-0.10644588829738352,1
96,19.23336670003337,-0.6235491059832384,0.7098597738428137,-0.3275448273249538,-0.49488600145179895,0.8616875821638216,-0.1121711028372178,1
97,19.433366700033368,-0.6204277775587612,0.7077076467513395,-0.3379633997390514,-0.4997858002793577,0.8588879504670134,-0.11191801634096085,1
98,19.633366700033367,-0.5850945744161697,0.8076928606597369,-0.07277761900510582,-0.505506150168816,0.8569359798011997,-0.10061937519017106,1
99,19.833366700033366,-0.6517230995660088,0.7576252796351163,-0.03550967684852196,-0.5075731744237437,0.8560772269052492,-0.09747437704146879,1
100,20.033366700033366,-0.7723614353677913,0.6348927443121656,0.019209798967518933,-0.52906086322247,0.8439886185429365,-0.08819192013036407,1
101,20.23336670003337,-0.7838393537367667,0.6201654869395882,0.03147437596698749,-0.5476841087336025,0.8330437152885578,-0.07797618520366364,1
102,20.433366700033368,-0.7874518441214414,0.6153053148409064,0.03631752632372572,-0.5599757285632203,0.8256017848476874,-0.06934606172237605,1
103,20.633366700033367,-0.7909159071667314,0.6106451205005713,0.0395545774780718,-0.5694209453852064,0.8197196595858877,-0.06180183367032394,1
104,20.833366700033366,-0.838545878723741,0.5416688636076521,-0.05861443059029041,-0.5702409205119343,0.8190919902946019,-0.06255880440777234,1
105,21.033366700033366,-0.8393344123438788,0.5420090101153979,-0.0417609531629943,-0.5702094345689579,0.8194392169930619,-0.05814267264537401,1
106,21.23336670003337,-0.7795708532865011,0.6242533265971696,0.05076483958927118,-0.5717390891796663,0.8189879269294672,-0.04871539230858349,1
107,21.433366700033368,-0.7800078899463132,0.6237437020234091,0.05031387291426379,-0.5781762361439651,0.8148494580685807,-0.04162451974183547,1
108,21.633366700033367,-0.5627127256605415,0.8260493627542532,0.03157275206529769,-0.5750041171260445,0.8174519513218521,-0.03380196101108189,1
109,21.833366700033366,-0.4757023882047199,0.8793439967614013,0.021479599996520205,-0.5543438794855234,0.8316860913710139,-0.03164030178340419,1
110,22.033366700033366,-0.7864307851089405,0.6063531777048172,-0.11773888108949424,-0.5640355077384404,0.8245667512353354,-0.044199759812065975,1
111,22.23336670003337,-0.807988826896158,0.5666019910235034,-0.16160519601538847,-0.5980191476298954,0.7995847765693959,-0.05511156091495675,1
112,22.433366700033368,-0.8065656015972288,0.5701959782171298,-0.15597588513969488,-0.6007435395486451,0.7972758043018026,-0.05880894120352326,1
113,22.633366700033367,-0.8162119432634731,0.5596177479672868,-0.14361768635543254,-0.6084082163897271,0.7913735351978589,-0.05972746451938573,1
114,22.833366700033366,-0.824381220785722,0.5531155894571786,-0.12024453216375704,-0.6120466866842392,0.7884915478347135,-0.06066244564854516,1
115,23.033366700033366,-0.7910386685018488,0.6095318266056065,0.05223769988863816,-0.6125296383932435,0.7883649759448581,-0.057342015950836316,1
116,23.23336670003337,-0.7918693107922011,0.6078547993805554,0.0587838200146013,-0.6175024192769989,0.7847896585339751,-0.05287678172109445,1
117,23.433366700033368,-0.7958000650738593,0.5979330320452704,0.09580368269326159,-0.6176888322324945,0.7853658748855183,-0.04075474328911435,1
118,23.633366700033367,-0.6281935201247395,0.7766605344249514,0.04659737696520619,-0.6028070794219157,0.797260731993217,-0.03160617377127491,1
119,23.833366700033366,-0.6311672141473265,0.7748447808616635,0.035263484753264705,-0.5823197092075625,0.8122514215661145,-0.03393205611580638,1
120,24.033366700033366,-0.6480178443218324,0.761295492590232,0.022406391996067747,-0.5781106009290303,0.8146776158466731,-0.04570027715294751,1
121,24.23336670003337,-0.7630370885861947,0.6451921177837138,0.03874961408414791,-0.5684128160722776,0.8208167998590691,-0.05627300946191217,1
122,24.433366700033368,-0.6399878251844358,0.735772411470134,-0.2214826000730529,-0.5607812278335783,0.8244769122115788,-0.07590939164244025,1
123,24.633366700033367,-0.6399486858262784,0.7344456085522592,-0.2259542599455052,-0.5520238827962349,0.8298074595771688,-0.08178760818519155,1
124,24.833366700033366,-0.44448502816744057,0.8950694238002482,0.03582996389729652,-0.5418671477898538,0.8368596921778724,-0.07775506256216433,1
125,25.033366700033366,-0.43678013497864904,0.8988209906533274,0.036659793357355815,-0.526023033541076,0.8473098675887161,-0.07325132402241297,1
126,25.23336670003337,-0.5835702915994548,0.8105348084305254,0.04978994963864215,-0.5274964965860857,0.8468204029739961,-0.06813700313607218,1
127,25.433366700033368,-0.589037398722016,0.8062856385466406,0.05420712112109592,-0.5339508755108457,0.8433184057430199,-0.06091411229142478,1
128,25.633366700033367,-0.6211194972744484,0.7827649460759264,0.0385954569902801,-0.539332824064217,0.840214848199884,-0.05620599390957021,1
129,25.833366700033366,-0.6416043119325809,0.7664163472438195,0.030820278826784408,-0.5468891455206435,0.8355702974037444,-0.05229283515280609,1
130,26.033366700033366,-0.658326910844491,0.7135436823944559,-0.23971043317492433,-0.5501155333423091,0.8335328297014283,-0.050950189258106564,1
131,26.23336670003337,-0.6658847997701616,0.6656347390865602,-0.3369389077506763,-0.5607983951142239,0.8261242085529996,-0.05499047262927578,1
132,26.433366700033368,-0.6677571764306616,0.6644812821724053,-0.3355070475681054,-0.5645612708630693,0.8238942663420004,-0.04968711432809557,1
133,26.633366700033367,-0.6742171066125868,0.6601256873585564,-0.33115762114187486,-0.5722034927546211,0.8191183369688841,-0.04035235954367606,1
134,26.833366700033366,-0.6782104553800797,0.6561199682823732,-0.3309639941659557,-0.580301607204476,0.8136102739023711,-0.03589382783169094,1
135,27.033366700033366,-0.6798042683590727,0.6562286363571678,-0.3274601251230416,-0.5850587927911678,0.8104806223072377,-0.02876403730726754,1
136,27.23336670003337,-0.6829399700829129,0.6523750895742817,-0.3286331385695887,-0.5926226988769308,0.8050335575846956,-0.02681991682223212,1
137,27.433366700033368,-0.6813600070540412,0.6515173904886502,-0.33357702360650776,-0.5951722730733192,0.8030667350676521,-0.029219589191495872,1
138,27.633366700033367,-0.6865318704244002,0.6932257163651963,-0.21934469918722746,-0.5953687802608834,0.8030000183217768,-0.026962679130497456,1
139,27.833366700033366,-0.6961796451697214,0.6885151463269402,-0.2031767578483158,-0.6005164277659446,0.7991994913451415,-0.02569422146897207,1
140,28.033366700033366,-0.6947272985465589,0.6906346563386029,-0.20094216112667815,-0.6028302015619992,0.7974906628877781,-0.024584358676437053,1
141,28.23336670003337,-0.6984752038408624,0.7152350951454813,-0.023898708996516256,-0.6051685171523481,0.795896787600201,-0.017870907512174884,1
142,28.433366700033368,-0.6995937921943929,0.714531331216562,-0.003674592896649391,-0.6070947972623504,0.7945662677213912,-0.010017651235912257,1
143,28.633366700033367,-0.7011544842391891,0.7129528134831632,0.008981925056423786,-0.6084551193236426,0.7935766921707359,-0.004289686725741511,1
144,28.833366700033366,-0.7009394473873579,0.712465471845609,0.0328152788212846,-0.6086027543125705,0.7934750699528412,2.8398713837809516e-05,1
145,29.033366700033366,-0.7084152113076534,0.7013938607364097,0.07870540330375564,-0.6163316425756346,0.7874007623915352,0.011633819031150454,1
146,29.23336670003337,-0.7114855757860495,0.6928061040345922,0.11750735151812135,-0.6216770489801275,0.7828729085691983,0.025053059688654983,1
147,29.433366700033368,-0.7160680474384338,0.6840734749007811,0.13888856099362418,-0.6281519982363526,0.777395775570164,0.03287666706557675,1
148,29.633366700033367,-0.7198562136430038,0.6667582101953144,0.1929780319536377,-0.6336485194779905,0.7689018527437373,0.0853199543518343,0
149,29.833366700033366,-0.6971009174081085,0.6377780942575363,0.3275506272837813,-0.6141705386279334,0.7601813559124977,0.2119406888837314,0
150,30.033366700033366,-0.521073752924352,0.85135852105099,0.060587231717604086,-0.4802262993967906,0.864450142386406,0.14868978679044076,0
151,30.23336670003337,0.40220973042268504,0.9059577002171701,0.13216647899723855,0.1214473992725123,0.9895425822366551,0.07782035177481336,0
152,30.433366700033368,0.9643896177221716,0.2644754150666966,0.0023281011538602687,0.6810799789654902,0.7260738284332625,-0.0945878317577495,0
153,30.633366700033367,0.9968735848785292,-0.07888487308070004,0.0044980629688978835,0.9311758769302259,0.3117865314175229,-0.1889461432521316,0
154,30.833366700033366,0.9190417303016394,-0.3940725589842436,-0.008313616528231703,0.9705962618244944,-0.14109439923529923,-0.19502632395845404,0
155,31.033366700033366,0.8295890555636672,-0.5582585218423926,0.011376364943564815,0.9162170235178322,-0.36186883425550065,-0.17203869509703051,0
156,31.23336670003337,0.655133670603461,-0.7450987863296435,0.1250106885499321,0.8466982186360549,-0.5051330076829585,-0.1671609138157002,0
157,31.433366700033368,0.8987469236794057,-0.42359523893822015,0.11323003455654808,0.8851659889979344,-0.4475439124685478,-0.1272227115481096,0
158,31.633366700033367,0.929805365410033,0.34277305210456666,0.13404707085809658,0.9883396660628089,-0.1461786550638578,-0.04262047970844022,0
159,31.833366700033366,0.8819058251790979,0.4638851441806671,0.0839802865180675,0.9522800698053827,0.3034348102809951,-0.033014914223609186,0
160,32.03336670003337,0.3064587174278022,0.9323083450167149,0.19205260822155154,0.4711296684363769,0.8820638668518098,0.00041269051643110926,0
161,32.23336670003337,-0.5933666588813918,0.7923701282190714,0.14165305515246182,-0.32006583734243194,0.9461548523093721,0.0484649896081528,0
162,32.43336670003337,-0.9462871385863466,0.32327248920667345,0.005962303932675736,-0.7935882561249404,0.6084200718047729,0.006534214998825584,0
163,32.63336670003337,-0.9952518760833935,0.018726336283780988,0.09551454068293744,-0.9613903491185019,0.2751424782854697,-0.005021281184644785,0
164,32.83336670003337,-0.9315765183789039,-0.35904626766415754,0.05701726125900859,-0.9988800927324925,-0.04631979468582926,0.00964556701236052,0
165,33.03336670003337,-0.8080055861621321,-0.5881387516286801,0.03492537134300847,-0.9010054255021227,-0.43361024577545887,-0.013091141061243929,0
166,33.23336670003337,-0.3937408271172072,-0.9173141204876277,0.05918585485627555,-0.6643802493247204,-0.7469053202565202,0.02704305603528597,0
167,33.43336670003337,-0.1230719682106633,-0.9803651281602742,0.15406980926853456,-0.4138678058000814,-0.9093323018057525,0.0427575047784349,0
168,33.63336670003337,-0.10331877845434784,-0.9813883109048565,0.1618709771330689,-0.2501159366340029,-0.9662806387044904,0.06118615453300961,1
169,33.83336670003337,-0.05332098250241979,-0.8947490630472958,0.44337454482746635,-0.2168261497882148,-0.9713636485644881,0.0971549433405465,1
170,34.03336670003337,-0.03232327885098668,-0.8968994766943619,0.44105162322533337,-0.1772796586679593,-0.9760540388932009,0.12605727183642437,1
171,34.23336670003337,-0.1556021653193182,-0.9624720509474649,0.2223409932804113,-0.21107480124197692,-0.9710750138923133,0.11162771015614344,1
172,34.43336670003337,-0.1455771739057461,-0.9760744361355945,0.16151155240476597,-0.23398994630938108,-0.9674193151498377,0.09668802253201907,1
173,34.63336670003337,-0.15087595237276702,-0.9777221425413518,0.14593100760276742,-0.2635384655514565,-0.9601643799918127,0.0929076991950709,1
174,34.83336670003337,-0.1697913484507096,-0.97761504648694,0.12425666530865888,-0.2921151566165151,-0.9522374120126977,0.08895305749814549,1
175,35.03336670003337,-0.19440303112648893,-0.9753257672461262,0.10462843415911886,-0.3236653360799177,-0.9427012982052414,0.08096303219634808,1
176,35.23336670003337,-0.18097966957597406,-0.9794086022408072,0.08947149857289818,-0.3203169103385866,-0.9442792000038359,0.0757223176564094,1
177,35.43336670003337,-0.1774752530052658,-0.9813830438871961,0.07341563689990821,-0.32235996757211405,-0.9439378239055757,0.07117187581701133,1
178,35.63336670003337,-0.16627258316760285,-0.9844508520297929,0.05665640320905868,-0.3165686754396648,-0.9466356075176562,0.060541723712282114,1
179,35.83336670003337,-0.15090189760149791,-0.9872360213458502,0.050927943778272436,-0.30841252416411485,-0.9494853856913082,0.05795875513972864,1
180,36.03336670003337,-0.1493558313044801,-0.9878309522330078,0.04339176725805307,-0.31145469590789226,-0.9488918546238689,0.050992358500044924,1
181,36.23336670003337,-0.31377540405297427,-0.9485807776606077,0.04170736223006533,-0.39501265638747923,-0.9178072273395009,0.039936133226502336,0
182,36.43336670003337,-0.8948758903644514,-0.44491921681671454,-0.03527082862127993,-0.7282632132456776,-0.6852527874516882,0.007830039768261849,0
183,36.63336670003337,-0.9296302779690259,-0.36835732189825776,0.010021461329329491,-0.8691202372812676,-0.49439113780378224,-0.014401944633810847,1
184,36.83336670003337,-0.6379559717261102,-0.7700331089053483,-0.00782236080467921,-0.865581324041804,-0.4990620535530516,-0.04130421495984217,1
185,37.03336670003337,-0.6341232436573483,-0.7730993641764505,-0.014320787808328723,-0.8532763039393985,-0.5199389379232541,-0.03978756045246077,1
186,37.23336670003337,-0.6300662800707881,-0.7763114063820301,-0.018896640942605396,-0.849275087980486,-0.5267107658987297,-0.036160669547328106,1
187,37.43336670003337,-0.8321197529361313,-0.5537731400835415,0.030199769792607405,-0.8508895395508874,-0.5247199457693762,-0.025611911187212604,1
188,37.63336670003337,-0.9207452112770474,-0.38639066557660307,0.05413418019749826,-0.8925031785597899,-0.45103811691978773,0.0016411417135049691,1
189,37.83336670003337,-0.9179407822523229,-0.3914634827150873,0.0643510837404336,-0.9035813776374637,-0.4274957627580499,0.028072527686270936,1
190,38.03336670003337,-0.9200304792248307,-0.3882443965810113,0.05301137444713846,-0.9111760249921333,-0.41090006751476954,0.030321378528911515,1
191,38.23336670003337,-0.9206877203154914,-0.3882276958960663,0.04016687440534348,-0.9145970896024103,-0.4036105877730906,0.024711477662437593,1
192,38.433366700033375,-0.9187288996421211,-0.3937293588919798,0.030239062632429523,-0.9147331716239518,-0.40364491654136225,0.018275833253312935,1
193,38.63336670003337,-0.9145274271762796,-0.403670594382082,0.026260924841897848,-0.9112449322883032,-0.4115772251764021,0.01539029223177557,1
194,38.83336670003337,-0.9115659662365088,-0.41075458918153773,0.01811509496543005,-0.9083744529237526,-0.41806365403330065,0.008867606881103733,1
195,39.03336670003337,-0.8881951941210875,-0.4554497046915562,-0.06062065354793334,-0.9065709476543953,-0.422012456264643,0.005882484721181721,1
196,39.23336670003337,-0.8862140750355179,-0.4591177636675119,-0.06193135146179583,-0.9055688861437697,-0.4241860937397499,0.003339210407344966,1
197,39.433366700033375,-0.8943692783821909,-0.4446409517818153,-0.04896956079729893,-0.9052678388832498,-0.42484129023504486,-0.0001341457168706963,1
198,39.63336670003337,-0.5409095185175544,-0.8394213297833589,0.05280836942989861,-0.8186380880666579,-0.5732720862713259,0.03450791023357974,0
199,39.83336670003337,-0.18441222205883007,-0.9780656060488012,-0.09684938110135773,-0.6034605847467885,-0.7965838926784514,0.035908558621998814,0
200,40.03336670003337,-0.06158293086400185,-0.9931396128135613,-0.09940448725650894,-0.4649571398067788,-0.8848974071461749,0.02777475416050644,1
201,40.23336670003337,-0.04842152902934033,-0.9966225684439011,-0.06632353726048276,-0.3864787545770732,-0.9218207854426184,0.029675103816313306,1
