,timeStamp,x_gaze,y_gaze,z_gaze,x_head,y_head,z_head,fixations_head
0,0.033366700033366704,-0.9990744573153044,0.039410919818025615,-0.017233924080932213,-0.9979047763433423,0.0031105673082349335,0.06462493111922941,0
1,0.2333667000333667,-0.9978259444619071,0.059836595295666394,-0.02762184682684926,-0.9978732415334906,0.027339608618679453,0.05917380866584238,0
2,0.43336670003336675,-0.9903615507429986,0.1202898969793854,-0.06866104787004174,-0.9949037641197513,0.09265792767480582,0.039761898588481746,0
3,0.6333667000333668,-0.8119804535183692,0.5510235763011564,0.1925117177326816,-0.9599288749388517,0.2721254794214411,0.06696475571732785,0
4,0.8333667000333668,-0.8333800133659139,0.518546615700266,0.19127770562203622,-0.9059055475215075,0.41177370480140724,0.09888152003221505,0
5,1.0333667000333666,-0.8016375206329587,0.5650172915900455,0.19527607564085342,-0.8500840095885464,0.5145866773982458,0.11206126934000735,0
6,1.2333667000333668,-0.8590292664923768,0.48051208225403486,0.17656969761955366,-0.7589061295371572,0.6436277693884802,0.09901909423409767,0
7,1.4333667000333667,-0.5668669728903974,0.8228231221128784,0.040298198005526524,-0.7216555025848588,0.6860764888267189,0.09226259842534436,0
8,1.6333667000333667,-0.5636582812562774,0.8258394180272296,0.016691243322959043,-0.6270820313225287,0.7745417836718579,0.0827837625312368,0
9,1.8333667000333667,-0.6279416075110644,0.7768192409886093,0.04734136020755209,-0.5936071690223709,0.8019122026539898,0.06758215829546214,0
10,2.033366700033367,-0.6416980847828655,0.7653546062790376,0.04955698370020132,-0.6141867733274179,0.7865312246811093,0.06436800502803881,0
11,2.233366700033367,-0.6239701453825321,0.7798219632988371,0.05038812586363101,-0.6022881632544135,0.7961775850420894,0.05788109777960162,0
12,2.433366700033367,-0.7257318317903683,0.674251695686256,0.13674048116927745,-0.8017218966358709,0.5900621466168844,0.09522953105238166,0
13,2.633366700033367,-0.8661564389233647,0.4729426450800977,0.16154961397736703,-0.857699635688904,0.5041696842130021,0.10081797686763733,0
14,2.833366700033367,-0.8573744445963678,0.49039194684722265,0.1562843569281989,-0.8577517212014515,0.5033318537839498,0.10449416128358724,0
15,3.033366700033367,-0.6011593338415081,0.7982417355279552,0.03765085651817263,-0.819107036341898,0.5637555999894092,0.10603436469265069,0
16,3.233366700033367,-0.5579379881419311,0.828071944727081,0.05479101882648916,-0.7833771721838042,0.6121730054104206,0.10753798188584296,1
17,3.433366700033367,-0.5267408985272637,0.8479379326199645,0.0595423231228987,-0.7422117141095754,0.6609539949478481,0.11073205498412017,1
18,3.633366700033367,-0.6068694479469252,0.792153267484083,0.06482803377309301,-0.6972176427784832,0.7080967424000914,0.11174328615533909,1
19,3.833366700033367,-0.6127124264286792,0.7882641881435879,0.05677193135882263,-0.702475343566842,0.7045888236604242,0.10041404908411455,1
20,4.033366700033366,-0.6203240525267415,0.7821927036048737,0.05807447187963745,-0.7099835616362324,0.6974870387810975,0.0971348183645056,1
21,4.233366700033367,-0.8189912307468585,0.5552605680622779,0.14470337077933743,-0.7322336906542118,0.6740542458907776,0.0973894032609667,1
22,4.433366700033367,-0.9438407248133449,0.3303293741216366,-0.006869554296143914,-0.911120158957118,0.4080907844195092,0.05763651285275656,0
23,4.633366700033367,-0.9888094081959083,0.02460770528784964,-0.14714080026873635,-0.9701409808854369,0.2420404843869123,0.0155846438647544,0
24,4.833366700033367,-0.9855695010722124,-0.05371818732603001,-0.16052138457749315,-0.9917668388991725,0.1262136873718544,-0.021648149573182146,0
25,5.033366700033366,-0.9885144230443503,0.08495020043073014,-0.12499079518138369,-0.9980134460908467,0.024564947846024962,-0.05801486670841511,0
26,5.233366700033367,-0.9891270880362146,0.07482192139676978,-0.12660680784023404,-0.9968378000155852,0.05779834804947458,-0.05453211368395631,0
27,5.433366700033367,-0.9894160201106721,0.07852339332550284,-0.12202465262809353,-0.9967499964687884,0.06323779431644476,-0.04990416725546791,0
28,5.633366700033367,-0.9600589288500494,0.2715176734303005,-0.06756482924045971,-0.9945775543218596,0.09717838056046833,-0.03703850416517018,0
29,5.833366700033367,-0.8486521991185322,0.5116471370586512,0.1341888671647742,-0.9681132368628202,0.24975094323919564,0.01952503424133655,0
30,6.033366700033366,-0.7893907839676696,0.5776161593424439,0.20789844312402322,-0.9163912194406526,0.3925379152276384,0.07836528594226697,0
31,6.233366700033367,-0.7949413362880606,0.5739925976227713,0.19647078595764778,-0.8935856441069403,0.43726232691072836,0.1015202152805028,0
32,6.433366700033367,-0.853595242088594,0.49602673442338713,0.1591623115595685,-0.8717819223257537,0.47635891484620557,0.11436111293861767,0
33,6.633366700033367,-0.8151862250983914,0.5561689136953333,0.16170206507273763,-0.8160091162212268,0.568135351358192,0.10654268994612276,0
34,6.833366700033367,-0.15344495600898683,0.9881291137669013,-0.0074498323228406205,-0.5387928410602815,0.8375083444418289,0.09100575483175423,0
35,7.033366700033366,0.0615048348043577,0.9977828668720394,-0.02542647974657348,-0.2992373901689295,0.9503981905192987,0.08485436808161795,0
36,7.233366700033367,0.07705414427037299,0.996556903826213,-0.030610395081938194,-0.09166947322112973,0.993267060115662,0.07083258408776705,0
37,7.433366700033367,0.31370289898169884,0.9479070634704356,-0.05534157743807016,0.07141741610225866,0.9961716733346514,0.05041378703209752,0
38,7.633366700033367,0.33348979844117843,0.9426185554302239,-0.015962872369984022,0.3574836044031787,0.9333997902475314,0.031149705436429753,0
39,7.833366700033367,0.33870000398956573,0.9408163082865438,-0.012123586909317682,0.3685402555689093,0.9286169910714556,0.0429949289870293,0
40,8.033366700033367,0.5335946288885116,0.8455005884726192,-0.020137698820521025,0.37750914816080994,0.9247009245207235,0.049143089498110186,0
41,8.233366700033368,0.6607647586364412,0.6799122774654431,-0.31797677383085726,0.45392166467899264,0.8904513010716052,-0.032428425107270155,0
42,8.433366700033368,0.7132823052017334,0.5637900645040055,-0.4163761715716582,0.7683431874217487,0.5747944500592295,-0.2815316794318105,0
43,8.633366700033367,0.7430946028016938,0.4374798462190902,-0.5063810772917117,0.7537682780316911,0.5738533852216766,-0.3201963074471059,0
44,8.833366700033368,0.7287387079964692,0.46422654747417097,-0.5034218986971551,0.7288334341868841,0.6060053758897707,-0.3186837140552532,0
45,9.033366700033367,0.6781195144038269,0.5389292314064401,-0.4997091231110173,0.670388407256274,0.6734075047514293,-0.31161148239570713,0
46,9.233366700033368,0.261773457643197,0.9372786654059483,-0.2301811465962626,0.5211489068108428,0.8178080082016432,-0.2441185749817591,0
47,9.433366700033368,-0.09209498461325977,0.9828867995899584,-0.15953699571225585,0.1932493090067493,0.9729735996877406,-0.1264004702487089,0
48,9.633366700033369,-0.5049580991585071,0.8630869923329659,-0.009907661674796727,-0.3898679800816345,0.9183867516377784,0.06759239989285801,0
49,9.833366700033368,-0.8775548773874139,0.4690307727369605,0.09953678415204639,-0.7969435598515657,0.5576126378413708,0.2322694739536432,0
50,10.033366700033367,-0.8929256855872995,0.40854739519053695,0.18913684437855555,-0.9193782549215685,0.27385781883218185,0.28239249182981435,0
51,10.233366700033368,-0.9015150679315744,-0.09611821127096608,0.4219382321553698,-0.9306178698403046,0.059720519014089486,0.36108702544204224,0
52,10.433366700033368,-0.7557157532940437,-0.3223475496013575,0.5700752209044144,-0.837183505149379,-0.17655243797870893,0.5176417828475347,0
53,10.633366700033369,-0.6242862000303271,-0.46708442171315395,0.6261779966148465,-0.6786679536590023,-0.39418913250580206,0.6196972942418139,0
54,10.833366700033368,-0.5297478892097849,-0.5931852398824639,0.6062165001576263,-0.6738202630572533,-0.48143411397058344,0.5605242608476583,0
55,11.033366700033367,-0.777274889181878,-0.5721263793781617,-0.2617539926475534,-0.8441613077961029,-0.5120747208899303,0.15865423614096527,0
56,11.233366700033368,-0.8229471606209617,-0.36860428637901693,-0.43230643169968336,-0.8653740433616558,-0.4641344103822232,-0.18896299684077011,0
57,11.433366700033368,-0.8696047494466321,-0.04340719638862035,-0.4918367564970517,-0.9037811389435155,-0.33261906728850027,-0.2693403218348306,0
58,11.633366700033369,-0.8676074977901346,0.1374799331566888,-0.4778666108419528,-0.9611556449587192,-0.10926701810224065,-0.2534571855738822,0
59,11.833366700033368,-0.9504938275421052,0.16652854304674491,-0.26235420361619416,-0.9777192242745079,0.04513039425263012,-0.2050082095884383,0
60,12.033366700033367,-0.9815793485518278,0.11691245251636101,-0.15110744833786155,-0.9826528588523168,0.0721873665420337,-0.17082840250114992,0
61,12.233366700033368,-0.9855011179944118,0.11046038923763536,-0.12878683489097476,-0.9826189963738854,0.09697610658593876,-0.15828942705250726,0
62,12.433366700033368,-0.829532094881703,0.537614960268913,0.15115111000660397,-0.9516936618513498,0.28792657012785816,-0.10666519679059548,0
63,12.633366700033369,-0.8067849517386988,0.5320828145770221,0.25687724710409826,-0.8947833296177437,0.4464855735948302,-0.0036640974168238405,1
64,12.833366700033368,-0.8253449193365042,0.5097036185658701,0.2429155930488564,-0.8916588322782756,0.4510668951055264,0.038512114457692675,1
65,13.033366700033367,-0.8422069401146595,0.48775114485764437,0.2297526729175528,-0.8944308112197816,0.44404329673673654,0.05309495798937866,1
66,13.233366700033368,-0.8446366342515406,0.4886151511032154,0.2187331483625921,-0.8905470568098293,0.450779191864227,0.0610250750887308,1
67,13.433366700033368,-0.8498323166548771,0.4810126705615032,0.2154340834879558,-0.8919597992338935,0.44622694975052984,0.07272706419876,1
68,13.633366700033369,-0.747261201641045,0.6625618826956656,0.05111211324878823,-0.9035330159788675,0.41841066460241605,0.0925235363737027,1
69,13.833366700033368,-0.8795218724858018,0.4464944596993113,0.16457209142770532,-0.9157222901571301,0.39242321709440714,0.08635222055429001,1
70,14.033366700033367,-0.9884037182561856,0.044675674812856093,-0.14512812896665783,-0.95440336670772,0.2966276603609525,0.03355956980887666,1
71,14.233366700033368,-0.9907119372908788,0.02844207092893038,-0.13296956761089157,-0.9831189139124467,0.182772183149437,0.008457551324130914,1
72,14.433366700033368,-0.992561320350431,0.06092890914655445,-0.10540253020881561,-0.9863500822086252,0.16449284581146364,-0.00745781495375271,1
73,14.633366700033369,-0.9917249870085172,0.07724547881780594,-0.10254114367006466,-0.9847617657742332,0.17350937051073403,-0.0117797713977422,1
74,14.833366700033368,-0.9922050110375799,0.08116948209089392,-0.0945554400815336,-0.9842505903812879,0.17650285200917232,-0.009875148946470319,1
75,15.033366700033367,-0.9802850836393902,0.19451094243342873,0.03473684020997537,-0.985934222164705,0.1671207536533055,-0.002088842461626419,1
76,15.233366700033368,-0.9438395453488204,0.32593262421035046,0.05417413692055043,-0.9879441853810496,0.1544491223730445,0.010571431784321857,1
77,15.433366700033368,-0.9021208061747196,0.4290149011161907,0.04608975685485638,-0.9540336194252425,0.29761959804295124,0.03524809026208703,1
78,15.633366700033369,-0.9116838459317764,0.40992107957005813,-0.028236033559316507,-0.9000296944136628,0.42823516142795826,0.08100120795654484,1
79,15.833366700033368,-0.8825376821086718,0.45839436602684713,0.1048896794403443,-0.9581562140454157,0.2736671388618208,0.08392238434017608,1
80,16.033366700033366,-0.8804523197694991,0.45777514985649714,0.12347317435933122,-0.9454502833697006,0.3076583450996423,0.10709857313103072,1
81,16.233366700033365,-0.8860828022290819,0.4471736012860077,0.12203703498020742,-0.9489787636112136,0.299678414987624,0.09814353674816441,1
82,16.433366700033368,-0.887603038143646,0.4438527878097112,0.12310787721229247,-0.9496360821385291,0.29755470135656314,0.09824719436803965,1
83,16.633366700033367,-0.8894922431048125,0.43955048380545775,0.12489564300950319,-0.9508650287845352,0.29330783810462485,0.09912723712974436,1
84,16.833366700033366,-0.8915810203663666,0.4347686355282191,0.12672615232618406,-0.9519278480014636,0.2896083800713707,0.09980159513624516,1
85,17.033366700033366,-0.8927150865067637,0.4322134326322755,0.1274806768708383,-0.9529760390651861,0.2866008918779384,0.09847130415709605,1
86,17.233366700033365,-0.8650943974038966,0.4824784236636157,0.13720879811244482,-0.9481514125364907,0.30344790500477975,0.09448951186913704,1
87,17.433366700033368,-0.8014766395556876,0.5715119576018179,0.17609451599825737,-0.8851177793515133,0.45823129043531846,0.08118251746422489,0
88,17.633366700033367,-0.30446765461801756,0.9486119559309879,-0.08622531157490397,-0.5859469044757664,0.8092890015346004,-0.04144317954014777,0
89,17.833366700033366,-0.9180956779491055,0.3788273077048053,0.11657700059746615,-0.7754570844895142,0.6303226727962888,0.03687327316587407,0
90,18.033366700033366,-0.9305120123743348,0.35024082181605376,0.10713898245121267,-0.8880870119833382,0.4579036215267311,0.04032037374839301,0
91,18.233366700033365,-0.9529840534635344,0.27568272113410985,-0.12577929524490256,-0.9865550382908197,0.1634013472822119,0.0030259096743700856,0
92,18.433366700033368,-0.9806807007825713,-0.1482985915662097,-0.127565241551465,-0.9995606590622916,-0.027337783852689933,-0.011451394193759476,0
93,18.633366700033367,-0.9631781132515863,-0.25836633653521673,-0.07439595619713094,-0.994780158557789,-0.09941843734773098,-0.022987180233246963,0
94,18.833366700033366,-0.9901879812134715,-0.02161691930936512,-0.13805966340666762,-0.9959097868641044,-0.08436455248641721,-0.03234685011034727,0
95,19.033366700033366,-0.9704648257618184,0.1930287271933109,-0.14469945555258334,-0.9939633077755118,0.09250347429033053,-0.058991948943745376,0
96,19.23336670003337,-0.9434447724026779,0.2963610806481832,-0.1486003745052499,-0.9704825064690172,0.23491930048247303,-0.05455847228836028,0
97,19.433366700033368,-0.7884116382660554,0.611135093224387,-0.07014974323726877,-0.9319754609613208,0.3615875614775981,-0.026003375754279173,0
98,19.633366700033367,-0.7628229110903954,0.6427669850396716,-0.07036909306354078,-0.8646780038556141,0.5022931077447109,-0.005795132477452459,0
99,19.833366700033366,-0.16540311911980932,0.984587408295585,0.05682819380572832,-0.5248204584095527,0.8487068920809026,0.06526942445864262,0
100,20.033366700033366,-0.19788045228112244,0.9728525983882237,0.12000478496418321,-0.42086842913904,0.9016181270511907,0.09977233247118025,1
101,20.23336670003337,-0.11926314790567072,0.9825874390168321,0.14247184366735,-0.3610355213698384,0.9241578154978253,0.1248426384032996,1
102,20.433366700033368,-0.1065342081681589,0.9861180964914741,0.12736389701173384,-0.33564439055127787,0.9341548290292714,0.12123365247633983,1
103,20.633366700033367,-0.13001520115894105,0.9867862064064409,0.09669038376997603,-0.29433844477656645,0.9494828362148173,0.10884495238631421,1
104,20.833366700033366,-0.30348789836108137,0.9513293557617849,0.05354953234381367,-0.30278326142006173,0.9477488262928755,0.100471184248558,1
105,21.033366700033366,-0.337535656937106,0.93994171974723,0.05078625576527614,-0.3278389758424095,0.9394795918847273,0.09949724795543916,1
106,21.23336670003337,-0.374724074138384,0.9258358632118374,0.0490899445092636,-0.3624590638981719,0.9268484222756161,0.09785412164677942,1
107,21.433366700033368,-0.3926804380028228,0.9183925113213428,0.04855171221273327,-0.3859720767338681,0.9177635347558525,0.09346470057828407,1
108,21.633366700033367,-0.42158974033767255,0.9057081057047461,0.04421445581181022,-0.42380374090541517,0.9017343173959439,0.08523854776476861,1
109,21.833366700033366,-0.4907675182537875,0.8702193888296381,0.043190951969017045,-0.49753870593621435,0.8635246858833499,0.08234289869429574,0
110,22.033366700033366,-0.7101184418506511,0.7010361012164323,0.06542311009778994,-0.5380543440941759,0.8390586548894977,0.0804866228413961,0
111,22.23336670003337,-0.7382100255084882,0.6707755713055379,0.0714569183388618,-0.6272856094907718,0.7723258108284397,0.10012794841593485,1
112,22.433366700033368,-0.6542611365798199,0.7508040836520398,0.09075016877507032,-0.6682025685018489,0.7340799513412332,0.12096260780251458,1
113,22.633366700033367,-0.6521514388996573,0.7524363783503631,0.09240128395263697,-0.6804945926863939,0.720976635089657,0.1308426573384003,1
114,22.833366700033366,-0.6624255573485057,0.7424649103851241,0.09969071079258655,-0.6949333935745188,0.7054072370346992,0.1395285219375424,1
115,23.033366700033366,-0.6721531445811292,0.7317668371910293,0.11281598387257732,-0.6990734497402995,0.7005888866175672,0.14307873292755546,1
116,23.23336670003337,-0.6781346145176294,0.7247651446764367,0.12185618431237014,-0.700442117083961,0.6982825408061251,0.14758839324378162,1
117,23.433366700033368,-0.6803219569567478,0.7232176277228106,0.11882044366829819,-0.7013132623004283,0.6976822078250658,0.1462848078437141,1
118,23.633366700033367,-0.675664524897539,0.728747257530451,0.11137721686606297,-0.6964626281936322,0.7036057253999215,0.14099216543506493,1
119,23.833366700033366,-0.4903254205228337,0.8707751891903431,0.03649043545408592,-0.6801972332480465,0.7210071263877219,0.13221364369770167,1
120,24.033366700033366,-0.3744859544825722,0.9268389466492933,0.02701549313459165,-0.6272528986569106,0.7696853196153673,0.11890462520479794,1
121,24.23336670003337,-0.08243610263582585,0.9957578877172306,0.04087197121665441,-0.47461942419988484,0.8752024112561968,0.09357959982554397,0
122,24.433366700033368,-0.22314031254043026,0.9711420076126639,-0.08421164984373454,-0.3974109835917705,0.915236681987128,0.0663801631951446,0
123,24.633366700033367,-0.24088905796294424,0.9641877968145459,-0.1109700600506166,-0.40524642074675993,0.9133620188089395,0.0393085368488673,0
124,24.833366700033366,-0.4876175271431188,0.7748532604430839,-0.40228295017754906,-0.49256497187500453,0.870215690767081,0.01021763302082379,1
125,25.033366700033366,-0.5427378569134458,0.7328560092668088,-0.41031413374940806,-0.5683120893704452,0.8225948467040765,0.01894959765525576,1
126,25.23336670003337,-0.5533850482142968,0.7285911585629246,-0.4036333882086516,-0.5828486541508022,0.8121505633858771,0.026436882316205414,1
127,25.433366700033368,-0.5666173115989716,0.719706817879086,-0.4012068275773913,-0.607915621346624,0.7934245196195641,0.030267622787597783,1
128,25.633366700033367,-0.6058676986002802,0.7726346098877854,0.18963146204243048,-0.6279992929522304,0.7769815671994125,0.04377821700165092,1
129,25.833366700033366,-0.42201823726456084,0.8893605939579816,0.1758929826082295,-0.5857637267522106,0.8093869489150768,0.04211440783513761,1
130,26.033366700033366,-0.32485527784322515,0.9321457819606275,0.15991650831109136,-0.5126934902434822,0.857990805738266,0.03157787723324603,1
131,26.23336670003337,-0.20080038665652766,0.9684537529638061,0.14756874021590125,-0.4331041048948387,0.9008449611038675,0.029986503247497583,0
132,26.433366700033368,-0.041089067155333,0.989464826950964,0.1388201886873931,-0.27976496456386885,0.9595602941380555,0.031234700515068256,0
133,26.633366700033367,0.23325944294018464,0.9619818711571211,0.14205953626659312,-0.09442823720234816,0.9946869313327165,0.04100264204610597,1
134,26.833366700033366,0.12111210431939357,0.9368498486479084,-0.3280917848342435,0.017114111725938186,0.9985382122826045,0.051269345532128634,1
135,27.033366700033366,-0.054290645005576676,0.9949551049134531,0.08436151416100834,0.010860300963359437,0.9981837365926194,0.05925607027961045,1
136,27.23336670003337,-0.05452286064473583,0.9967234905320504,0.059745636566369754,0.007019558987618357,0.9991476530481178,0.040677920301533416,1
137,27.433366700033368,-0.04099360037831329,0.9979527406955134,-0.04909024410549184,-0.0077649345074699005,0.9992568547040482,0.037755054218842864,1
138,27.633366700033367,0.39093005482938215,0.9204201377696954,0.0006798669808254427,0.04394071666670768,0.998276151562405,0.038909364432879005,1
139,27.833366700033366,0.021857592116459823,0.9960311837996915,0.08627935190679085,0.043895467819613954,0.9975858058550611,0.05381215347303696,1
140,28.033366700033366,-0.03868452135330186,0.995907469081728,0.08168121470015742,-0.025669564791307165,0.9986266106629089,0.045672375888888325,1
141,28.23336670003337,-0.2376344470607386,0.9595478437663427,0.15098942046878397,-0.17260120155820785,0.9843143598089638,0.03652487227264233,1
142,28.433366700033368,-0.28297518526693577,0.9571887253745793,0.060949065119422725,-0.2704777840397062,0.9623800525184937,0.025814779787397206,1
143,28.633366700033367,-0.20109054490144207,0.9768121206718156,0.07348927581539909,-0.321278642602678,0.9465704675110552,0.028006853505579597,1
144,28.833366700033366,-0.179146483832606,0.9805301089743979,0.08041916889069019,-0.3157549652324303,0.948095200343908,0.03760708730959577,1
145,29.033366700033366,-0.33742976231907623,0.9305230713588124,-0.14236561793584154,-0.30056771817909583,0.9533888183724093,0.02662344438784719,1
146,29.22922922922923,-0.1325667245551752,0.9909343672086732,-0.021797784875044177,-0.2891683561449561,0.9568345376612245,0.02914325553288821,1
