,timeStamp,x_gaze,y_gaze,z_gaze,x_head,y_head,z_head,fixations_head
0,0.033366700033366704,-0.9987459679133959,0.027313172464128257,0.04195810037023603,-0.9944348849658552,-0.08174953200853972,-0.06645504931404025,0
1,0.2333667000333667,-0.980228697993591,-0.16561385277268786,-0.1082762734839729,-0.9923963031314511,-0.09578310678599711,-0.07729924957883713,0
2,0.43336670003336675,-0.992485284832603,0.10568818293755566,-0.06166820394745622,-0.9969294680225332,-0.07010881074604605,-0.03487678947500537,0
3,0.6333667000333668,-0.980454283152232,0.19587344596511655,-0.018520038180135548,-0.9989190227045299,0.0427917099553525,0.018156421401923417,0
4,0.8333667000333668,-0.9890274469418788,0.13446885868186623,0.06117871558332771,-0.9637887741619702,0.1792181284988963,0.19746407576245417,0
5,1.0333667000333666,-0.8129907980300279,0.5478633839560929,0.19720972298210043,-0.8815728229953099,0.2998794867452855,0.3645567873260138,1
6,1.2333667000333668,-0.7940512615437362,0.562617485734426,0.23009597733701107,-0.8289892566005449,0.3513389611724819,0.435129574728169,1
7,1.4333667000333667,-0.8037375672444924,0.5513734914073646,0.22359158296581358,-0.8201207004608425,0.358035030357665,0.44633278359583134,1
8,1.6333667000333667,-0.8254283444273753,0.5307030056196909,0.1924119747887556,-0.8297604026020288,0.3518737095426223,0.43322346059099043,1
9,1.8333667000333667,-0.7801362229179547,0.33186443931614024,0.5303333551726604,-0.8182897397381184,0.34006255373247746,0.46342136483795,1
10,2.033366700033367,-0.9548239958017172,0.05501519086009801,0.29203504210260467,-0.8418615820878887,0.27369960899015705,0.4651425594837697,1
11,2.233366700033367,-0.8901871142643508,-0.45548566084195363,-0.009985708040843831,-0.926194949777934,0.04593262707744785,0.37423670153475674,0
12,2.433366700033367,-0.8071641919267096,-0.5882849832198442,0.0490585954683771,-0.8844809413575825,-0.3336609080955765,0.32613473103004603,0
13,2.633366700033367,-0.6066192336394227,-0.7919313358742253,-0.06969838333264702,-0.7215073956103658,-0.6307594531389011,0.2856039046572395,0
14,2.833366700033367,-0.41029454372294577,-0.9118012231582506,-0.01664081843835214,-0.5126118300758049,-0.8316480219468861,0.2135197397388964,0
15,3.033366700033367,0.009012084178580904,-0.9821964158884061,-0.18764056852058295,-0.4282885564852851,-0.8765080255056079,0.21977851034168855,0
16,3.233366700033367,0.38241550696743404,-0.912956654569414,-0.14236757674507441,-0.010102707583372672,-0.9868247322261157,0.16147719085474552,0
17,3.433366700033367,0.4681024178945645,-0.8791879736042291,-0.08893049775500043,0.19905299989832975,-0.9690510213317811,0.14600692205271526,0
18,3.633366700033367,0.6247769147957631,-0.7604347214891314,-0.1771802502877662,0.38878544562924033,-0.9158171101237687,0.10062255249903984,0
19,3.833366700033367,0.41880695121686434,-0.8982364273155495,-0.13331188340066535,0.4526213400317259,-0.8890610512801053,0.06858840750884408,0
20,4.033366700033366,0.4445628003264763,-0.8775125464757583,-0.17982115377094002,0.4913959284281031,-0.8702288213310337,0.03509757896326157,0
21,4.233366700033367,0.6829867388663327,-0.6464528794124027,-0.3400408640621678,0.5735470020529951,-0.8190023959605367,0.016700654086651893,0
22,4.433366700033367,0.8281411893875463,-0.3344939400307381,-0.44977324789552925,0.7224660309859735,-0.6912518305206656,-0.014619879384029208,0
23,4.633366700033367,0.8456055190448875,0.06531931003021513,-0.5297968420989346,0.8648752340638406,-0.5014057443045254,-0.024147651675511347,0
24,4.833366700033367,0.8477241506625818,0.13050075213450898,-0.514133560542134,0.9694487470513198,-0.2264725350203834,-0.09423013170991101,0
25,5.033366700033366,0.846381423094218,0.3409883525433164,-0.40910320222506397,0.9866702932761978,-0.09015863268142846,-0.13547381045529475,0
26,5.233366700033367,0.8512118790491735,0.3416197048037786,-0.39841475155339684,0.9861820640594804,-0.06591215528670108,-0.1519885663885445,0
27,5.433366700033367,0.8751316603508129,-0.215278993540822,0.4333584336224232,0.9320698430935451,-0.33328666424586934,-0.1420063626441977,0
28,5.633366700033367,-0.21850833583322543,-0.973372868585865,0.069277455729256,0.35930539512237586,-0.9298119215008017,-0.07968327096035191,0
29,5.833366700033367,-0.9861737492496742,-0.10917481150601376,0.12466834731986776,-0.7600174378292651,-0.6490637005689067,0.03301222196756577,0
30,6.033366700033366,-0.5615518892010263,0.6859186667474926,0.4627905123726074,-0.8676027569611808,0.48871956534933164,0.09175316102521423,0
31,6.233366700033367,0.01235021390408797,0.9994611085690471,0.030413231897561968,-0.3708570046733979,0.9236820112813868,0.09631523306231303,0
32,6.433366700033367,-0.006183501412711845,0.9978518541396899,-0.06521841381283727,-0.10538902762945979,0.9897989065772982,0.09587114995504198,0
33,6.633366700033367,0.33484842586269925,0.9399036692020504,-0.0667654425417482,0.03913473754441371,0.9929631939479652,0.11177015604348814,0
34,6.833366700033367,0.2123921983105984,0.8856410096395059,0.41295224438366795,0.04618024433109119,0.955936458801494,0.2899187330401063,0
35,7.033366700033366,-0.11218711149185229,0.8487341606819547,0.5167827169194156,0.04422584271736246,0.9103030064178537,0.4115732150450953,0
36,7.233366700033367,0.17980577018499022,0.9743386768501541,0.13540320454876076,0.09009640042711853,0.9115210984662363,0.401262913413366,0
37,7.433366700033367,0.26032227737564545,0.9649654566550583,0.03277162437921728,0.18424119638439457,0.9276584281162888,0.3248153664771162,0
38,7.633366700033367,0.462146314513017,0.8818374628579785,-0.093720185030969,0.22211850828644697,0.9343715754892595,0.2785913264879633,0
39,7.833366700033367,0.46407544712188575,0.878932444182385,-0.11005334134955207,0.18863712811093258,0.9491254636302657,0.25214457794426665,0
40,8.033366700033367,-0.16588550846165684,0.9817787446705921,-0.0926957096928107,0.06118559759663894,0.9740318223769268,0.21798699879539932,0
41,8.233366700033368,-0.12672315331438122,0.9538348278764363,-0.27228728127474033,-0.0064592983568562135,0.9830793224657133,0.1830664447819179,0
42,8.433366700033368,-0.13128113347285597,0.9191344899312249,-0.37142570375910894,-0.04420878986281901,0.9907840986972934,0.12803301397474381,0
43,8.633366700033367,-0.23027409889968598,0.872018821520376,-0.43192246328496553,-0.17920330131767276,0.981071495411759,0.07338186211443963,0
44,8.833366700033368,-0.5911102262106045,0.7051974922395331,-0.39151653529362235,-0.501213130419518,0.864485675428891,-0.038077747744857414,0
45,9.033366700033367,-0.8973163156423092,0.31868770534669216,-0.30538758347871925,-0.7593831835113057,0.6368813442344617,-0.13311398862005389,0
46,9.233366700033368,-0.9805369402563808,0.05078030312792146,-0.18965407880373011,-0.8869471864884603,0.4437218221820568,-0.1282015323607334,0
47,9.433366700033368,-0.9941280892966378,-0.018988508316627833,-0.10653064640433473,-0.9440080444730072,0.3224861567577378,-0.06965264294965866,0
48,9.633366700033369,-0.8513923435551471,0.5197950437531702,0.07031493316013462,-0.9344646399972071,0.3556275740139912,0.017460389337397863,0
49,9.833366700033368,-0.8099701382992816,0.5484696841489861,0.20767614362982104,-0.9015352154781023,0.417586864033613,0.11338194847251833,0
50,10.033366700033367,-0.7913659507665569,0.5517330091158829,0.2633070804579263,-0.8748377018881591,0.444691892317045,0.19211485174897416,0
51,10.233366700033368,-0.7695320926380809,0.5619189858264217,0.30342612242168904,-0.839826259595831,0.4720214092331266,0.26811871049751335,0
52,10.433366700033368,-0.8355625484283774,0.5113426803236009,0.20090766770671362,-0.7746602113948797,0.4372300415486429,0.45687136882169893,0
53,10.633366700033369,-0.8154113573858949,0.5458177174489194,0.19284018659227745,-0.7250726543597608,0.46857664127587745,0.504683640660472,0
54,10.833366700033368,-0.8143317458288447,0.5393438012156219,0.21441098811774983,-0.6984203918888815,0.4551175139253774,0.5523377632501377,0
55,11.033366700033367,-0.822718077684863,0.501682286365861,0.2673010441379648,-0.6760007140519466,0.4023735699991007,0.6173479932480846,1
56,11.233366700033368,-0.7868013881960462,0.5048502187540382,0.35506313826807523,-0.6666763343656332,0.38278424341120826,0.6395458452628019,1
57,11.433366700033368,-0.6345210190104366,0.39299060710658706,0.6655384730877346,-0.6530702871393139,0.3345625156401719,0.6793873145594448,1
58,11.633366700033369,-0.6145924987381894,0.38669309089332804,0.6875641889671924,-0.6156925817700035,0.3209409243538639,0.7196662892120731,1
59,11.833366700033368,-0.6486008225039128,0.4034935410305091,0.6453758094272739,-0.6376206375376191,0.3375801365307102,0.6924446360583836,1
60,12.033366700033367,-0.48630369754305486,0.3310422341105817,0.8086530485882238,-0.6112732614031364,0.3031886424173229,0.7310414810410648,1
61,12.233366700033368,-0.4937599050178981,0.3692586087271717,0.7873050463940835,-0.5996979906467634,0.3429436144968634,0.7230159038984283,1
62,12.433366700033368,-0.7521542226204061,-0.09734839756934761,0.6517570980702649,-0.6229713559464669,0.3226717287224038,0.7125936044854152,1
63,12.633366700033369,-0.7925527597837642,0.1283985413111647,0.5961324832185412,-0.6440729843729466,0.2760261964547207,0.7134280129569249,1
64,12.833366700033368,-0.8402694533416635,0.25026080620791946,0.48095402551290145,-0.6601163244539341,0.24702372467770678,0.7093840410072539,0
65,13.033366700033367,-0.904500263378822,0.18444029140115364,0.38452705035601814,-0.7065650187859904,0.2127124869063665,0.6749216785243022,0
66,13.233366700033368,-0.9518133445722039,0.11931524763607834,0.28251589119165627,-0.790724956864012,0.18087943594219416,0.5848390139565249,0
67,13.433366700033368,-0.982653213213248,0.18119600317142875,0.03950532870865584,-0.8691745814044002,0.1352499267587758,0.4756500860424937,0
68,13.633366700033369,-0.9876697991798584,0.10842014848717219,-0.11293112586899,-0.9262308462526985,0.11274101230882719,0.35970249317121983,0
69,13.833366700033368,-0.981587786041751,0.07040093140745285,-0.17756443098384553,-0.9511575928992926,0.08235771157160783,0.29751712692668975,0
70,14.033366700033367,-0.977060876112256,0.04865725953304228,-0.20732707364327746,-0.9666460312396719,0.05269767052941254,0.25063600262006525,0
71,14.233366700033368,-0.8789686629667783,-0.04701867881665428,-0.4745559328095375,-0.9852787425513055,0.004272622408371568,0.17090214795102265,0
72,14.433366700033368,-0.8139054012691984,-0.03673289220721671,-0.5798350562141948,-0.9987719003024181,0.0068499370283867005,0.049069028205210564,0
73,14.633366700033369,-0.7486083389804559,-0.04664713616880244,-0.6613694878781242,-0.9954226032364258,0.028686596418811165,-0.09116424821124458,1
74,14.833366700033368,-0.7047603186458768,-0.07719991225769983,-0.7052326331144682,-0.982229032495934,0.023223966809101586,-0.18624385919474398,1
75,15.033366700033367,-0.7872217732743645,0.04747638131007824,-0.6148397131777236,-0.9733759247357376,0.034594921503199844,-0.226588835892316,1
76,15.233366700033368,-0.8937663012191427,0.0757539810474457,-0.44208950808689895,-0.9707937409873423,0.036687181641350826,-0.23709399647189672,1
77,15.433366700033368,-0.8980155777949773,0.06919698033645351,-0.4344879744594429,-0.9707861458529206,0.030600888558341487,-0.23798706821899435,1
78,15.633366700033369,-0.9119435957462583,0.06948794924427658,-0.40438880188156806,-0.9767458248100278,0.010627967874458168,-0.21413696555017794,1
79,15.833366700033368,-0.9944488957880164,0.05503610388516588,-0.08967954580134478,-0.9891155346106651,-0.014783673213118938,-0.14639638724431078,1
80,16.033366700033366,-0.9969761097625671,0.0762748557845387,-0.014858766360153961,-0.998503471779835,0.008565104715627199,-0.05401347817745761,1
81,16.233366700033365,-0.9951577389269611,0.09800701176959907,-0.007463263212011381,-0.9991862048791753,0.03613727518470966,-0.01791717950390391,1
82,16.433366700033368,-0.9927269138664984,0.12019671888215872,-0.006784044152390762,-0.9978255705009681,0.06590669746296067,-0.000661879100260242,1
83,16.633366700033367,-0.9442956357592112,0.12234433997869672,-0.3055120533813424,-0.9956147518021159,0.09352813375346859,-0.0019375733804741517,1
84,16.833366700033366,-0.9408511845494062,0.12634468401681426,-0.31438204362315425,-0.9935160448333207,0.1136897867638084,-0.0007078448664794241,1
85,17.033366700033366,-0.942631050731278,0.11438831943328313,-0.3136271904259522,-0.9934267546175883,0.11446948924788797,0.00013871299031960964,1
86,17.233366700033365,-0.9440317404781322,0.10304738535389796,-0.31334535155568183,-0.9941551197522362,0.10795940471312118,0.0006039904020698363,1
87,17.433366700033368,-0.9455100687458953,0.08709110820898021,-0.31372894155793873,-0.9957574462021356,0.09201638041826413,0.00030670461752844633,1
88,17.633366700033367,-0.9470492154479003,0.08420862862698787,-0.3098494640696976,-0.9959183890352639,0.09017201974102965,0.003945787276136532,1
89,17.833366700033366,-0.946815497704516,0.08820980994064961,-0.3094502265902946,-0.9953382190956878,0.09636196566589218,0.004025068996995284,1
90,18.033366700033366,-0.9467124278809274,0.0844225107178031,-0.31081894823176776,-0.9958245760196928,0.0912413437267779,0.002903616732925252,1
91,18.233366700033365,-0.9373632359724355,0.14000967750397447,-0.318978767400774,-0.9948191203913815,0.10116362007058262,0.01004189613235399,1
92,18.433366700033368,-0.9266309925670996,0.19108117905465208,-0.32379466738227114,-0.9952457994541616,0.09671682636183306,0.011474064987689917,1
93,18.633366700033367,-0.9324816320605502,0.17849143841397866,-0.3140363231898525,-0.9964316792308217,0.08153664107993656,0.021810199142759307,1
94,18.833366700033366,-0.9310378047295078,0.1745381151574587,-0.3204762901085517,-0.9965447276541015,0.08127656738825748,0.017109219105350598,1
95,19.033366700033366,-0.8989148869060354,0.43400289214107185,-0.059945939911685335,-0.9974626760811952,0.06516766502010471,0.02865981962204777,1
96,19.23336670003337,-0.895358809001176,0.44082070262496453,-0.06332228108042304,-0.9969323933270285,0.07368247203212838,0.02639500805981712,1
97,19.433366700033368,-0.6745597483516766,0.6746344257730561,0.2997291068040957,-0.996838029621665,0.07398331947334694,0.028989845458396633,1
98,19.633366700033367,-0.9879808459129559,0.15294854198077854,-0.022373904779326288,-0.9965754165955727,0.07688976708403254,0.030420433184361162,1
99,19.833366700033366,-0.9972621722262638,0.03939072057983173,-0.0625821937834989,-0.996593236973329,0.07420289549758251,0.035997921034377156,1
100,20.033366700033366,-0.9986338656485445,0.04109294195783828,-0.03227650075665994,-0.9954051128532719,0.08024430694825624,0.05224473665317043,1
101,20.23336670003337,-0.8752671071289043,0.4035735005935341,0.26652564754049535,-0.9938631698680752,0.08234936849201549,0.07385513583189734,1
102,20.433366700033368,-0.8481487561746586,0.39078669681967904,0.3576722591817042,-0.9918141514444261,0.09392798359041869,0.08649984331321844,1
103,20.633366700033367,-0.9736278987077724,0.14356841394288652,0.17730432982815764,-0.9909608509933985,0.10394570468228576,0.08480496610778354,1
104,20.833366700033366,-0.9994101798934815,0.03363349492157538,0.006933999180790973,-0.9922419984564136,0.08808220364708065,0.08773449663556955,1
105,21.033366700033366,-0.9711029637618335,-0.2328220917081063,-0.05246815592000057,-0.9924716801169224,0.027670652843395125,0.11930758206045983,1
106,21.23336670003337,-0.9762463563680039,-0.20974491217798322,-0.054315039295271046,-0.9884275055645462,-0.025217988981527547,0.14958315170893002,1
107,21.433366700033368,-0.9858285713702468,0.13781457575600786,0.09565129679878828,-0.9756894648230651,-0.009578802487166239,0.21894820112572974,1
108,21.633366700033367,-0.883106827241614,0.4543647767353176,0.11694007585731571,-0.9714704820988044,0.09358957294319475,0.21791304285661206,1
109,21.833366700033366,-0.702936483830525,0.5738685024955349,0.4201847707182055,-0.970187172934075,0.13475799856254575,0.20143766107062577,1
110,22.033366700033366,-0.5211959800560857,0.1660258230139485,0.8371321141050064,-0.9719951457480733,0.12341208483766174,0.19998723448811412,1
111,22.23336670003337,-0.5310186888340436,0.15399626619438467,0.8332492436883228,-0.9744237005141805,0.113249312269137,0.19409545369950842,1
112,22.433366700033368,-0.7367637951763955,0.20962161321648048,0.6428358183780637,-0.9741760473562575,0.0975912392945581,0.2036098690395223,1
113,22.633366700033367,-0.7638785749524581,0.2350695068223423,0.6010256647522655,-0.9709060490675352,0.10950686944878085,0.21295466519331435,1
114,22.833366700033366,-0.7567165899494983,0.2644777634595408,0.597855764487257,-0.9669165186520441,0.13903635140077383,0.21387224912777203,1
115,23.033366700033366,-0.31103378996641934,0.18718037335735407,0.9317840357770284,-0.9644183509355155,0.16904931024802594,0.20327216996796935,1
116,23.23336670003337,-0.8862967412477657,0.29784218817149005,0.3546380089595726,-0.962392854713396,0.17568615656631592,0.20720609930105002,1
117,23.433366700033368,-0.9955847724391154,0.09072920784515422,0.024065987017905823,-0.9611052265022207,0.17482312774635594,0.2138074311035433,1
118,23.633366700033367,-0.9961814367225852,0.08427096547965732,0.02282431831299481,-0.9619793294679939,0.16101962239912201,0.22060927196913763,1
119,23.833366700033366,-0.995690056065138,0.08580939907573507,0.03518606660688057,-0.9604639892518549,0.15207239832003233,0.23320143871684557,1
120,24.033366700033366,-0.8094033578040863,0.44342929140863246,0.385015152813897,-0.9594860274819279,0.14488802557155714,0.24164855288812465,1
121,24.23336670003337,-0.9005495817735913,0.3994035275877228,0.17171858640779947,-0.9508864165059003,0.1573535023159252,0.2665612466460193,1
122,24.433366700033368,-0.9448041707338752,0.17197829313120208,0.2788701232752498,-0.9472747138206188,0.17292936660463784,0.26975183173017325,1
123,24.633366700033367,-0.6453386402292265,0.2608220728476223,0.7179901710626427,-0.9392580795300584,0.20099175009215617,0.27820240191702,1
124,24.833366700033366,-0.6369226504575846,0.27740333196583356,0.71928918297743,-0.9337974366145234,0.21218319542252392,0.28809831473375996,1
125,25.033366700033366,-0.5927743309165028,0.27477846957619373,0.7570438463285053,-0.9205382450337263,0.23492693539219686,0.3121196476632933,1
126,25.23336670003337,-0.9683047630965367,0.24727628415327613,0.035218248961416974,-0.9136511397778115,0.2547344875410892,0.31678373638791024,1
127,25.433366700033368,-0.994941634786889,0.03593730820236657,-0.0938064669772885,-0.9112518970938265,0.24937847752295172,0.3277657013649179,1
128,25.633366700033367,-0.7337056922559444,0.24572342573437558,0.6334792460661901,-0.9138425712390912,0.23437594489860256,0.33160167587636447,1
129,25.833366700033366,-0.7219916663492514,0.38119530739638474,0.5774237363853406,-0.9237028229710718,0.200951720537723,0.3261771004350279,1
130,26.033366700033366,-0.8625293635153957,0.4788042882224736,0.16367513755453966,-0.9274868574794846,0.18759578202320695,0.32338205233118805,1
131,26.23336670003337,-0.8666994883910881,0.4750440377023091,0.15220104817679034,-0.9286772352946908,0.18592996809587106,0.32091843139539045,1
132,26.433366700033368,-0.8717745806747267,0.46810174186788556,0.14453317871567153,-0.9316250319177498,0.18215634060251995,0.31447395358368047,1
133,26.633366700033367,-0.8656353924757444,0.48140146631171116,0.13757905191670336,-0.9298697168118584,0.1995825701400987,0.30904547796806037,1
134,26.833366700033366,-0.8463937001852962,0.5116056386276737,0.1479100226861366,-0.9159568103871998,0.23643657571943832,0.32422348336814555,1
135,27.033366700033366,-0.5966179594776746,0.6402515498182957,0.483864612659333,-0.8901758637776322,0.321220722873457,0.3231163548079862,0
136,27.23336670003337,-0.5297318657342298,0.7510843816042704,0.3940258901847219,-0.8156491563665643,0.47365247134466193,0.33221949086049496,0
137,27.433366700033368,-0.5347482456404864,0.8034637094069337,0.26170667062662434,-0.7268547167377359,0.6040141206065553,0.32687790207353484,0
138,27.633366700033367,-0.26042068509794764,0.9396511975296997,0.2218934288213982,-0.6460458801599017,0.702457230672071,0.29862779476288337,0
139,27.833366700033366,0.05213344820865157,0.5529306018856761,0.8315947649403642,-0.563890155421177,0.8003272659788424,0.20372569781427222,0
140,28.033366700033366,-0.23198668404577544,0.9715083174271281,0.04851564279030009,-0.49692632217501426,0.8504966531620198,0.17239394795008528,0
141,28.23336670003337,-0.21815539806595674,0.975774222650335,0.016519343383400373,-0.4477875933290507,0.8801677325854208,0.1574516871170844,0
142,28.433366700033368,-0.41044651404843785,0.8902072767112059,0.19764782719752935,-0.38010838327368845,0.9082793122336026,0.17477502090835714,0
143,28.633366700033367,-0.33951491112611804,0.9184680231423452,0.20284505315145543,-0.31047042289258825,0.9302989668069747,0.19532523868351823,1
144,28.833366700033366,-0.27116421912528926,0.947762884652777,-0.16797464314836189,-0.23643470632900754,0.9475666832852369,0.2149790928693577,1
145,29.033366700033366,-0.22782272790395863,0.9574057550964328,-0.17740074621778892,-0.1776121856592462,0.9591310249111231,0.2202761642990095,1
146,29.23336670003337,-0.19864565486538038,0.9764325177408574,0.08437678650763415,-0.1689115702299917,0.9597925259309023,0.22420345360769267,1
147,29.433366700033368,-0.2329051339663098,0.9666316263346624,0.10667004050688861,-0.2289370690020026,0.9490004405665451,0.2167625019261316,1
148,29.633366700033367,-0.25754108138194154,0.9597663302398808,0.1118980908616973,-0.2926058121685799,0.9339028860207979,0.2054440025096641,1
149,29.833366700033366,-0.1440199868707684,0.9670078619136645,0.21012862341648486,-0.3110939706020175,0.9291478951431303,0.19976168402915023,1
150,30.033366700033366,-0.2668605507671193,0.962310740904022,0.05237828161578311,-0.31151564360410583,0.9276041856032637,0.20617584398087543,1
151,30.23336670003337,-0.35978749519229186,0.9329320682342039,-0.013809937129020386,-0.39759964440462997,0.8946221936430393,0.20387656415250044,0
152,30.433366700033368,-0.4981565943292762,0.8106438468309656,-0.3077280635908122,-0.5264691519808267,0.8270979341162572,0.19682286298397467,1
153,30.633366700033367,-0.49859551885509884,0.8069253825322577,-0.3166606000164601,-0.5594411637520509,0.8097595796613526,0.17696046859799236,1
154,30.833366700033366,-0.5581279043089503,0.8105657207727208,-0.17741604983737855,-0.5379250759024048,0.8276149078430449,0.16028155549326548,1
155,31.033366700033366,-0.5521571461689985,0.8165139936794817,-0.16860422313836163,-0.5329761162269333,0.8295028668829068,0.16691750466830377,1
156,31.23336670003337,-0.3399461789010697,0.9160900522943476,0.21263962833371655,-0.5325679149491421,0.8248952374297759,0.18952378012375415,1
157,31.433366700033368,-0.35354715381030466,0.9129793284137979,0.20364959101781557,-0.5283374472155826,0.8238000679852495,0.20545800022685742,1
158,31.633366700033367,-0.3782111521834052,0.9022408725326766,0.20716595351450903,-0.5405518925761844,0.8141559962528073,0.21202279405267785,1
159,31.833366700033366,-0.4346007560075136,0.8723003492099187,-0.22408543827288668,-0.5367690215352375,0.8167896109851505,0.2115035434852822,1
160,32.03336670003337,-0.4433890744129706,0.8672477879112886,-0.22646722291357288,-0.5310564326332632,0.8185373357145099,0.21903354857241444,1
161,32.23336670003337,-0.5634489981403101,0.8223881855845128,0.07875848338873676,-0.5302253437130505,0.8183426767146432,0.22175740878692293,1
162,32.43336670003337,-0.60746436934603,0.7883045860593284,0.09779018137247178,-0.5621234185746066,0.7977474442155814,0.21821154308951202,1
163,32.63336670003337,-0.6400639405485394,0.7573308767084446,0.12949168001649575,-0.6026617045221129,0.7675502881398704,0.21832412848538563,1
164,32.83336670003337,-0.65114409085963,0.6821449062669671,0.33270061585848654,-0.6664791691848359,0.7141961838869032,0.21384416747733836,0
165,33.03336670003337,-0.673711449564681,0.6271679842481053,0.3908621269189751,-0.7193308795045986,0.6604118692632429,0.21545126763927466,0
166,33.23336670003337,-0.18876483965658458,0.3647589624405555,0.9117668203157613,-0.7520666678287831,0.6255635303813128,0.20752348444881968,0
167,33.43336670003337,-0.6795894444728648,0.6750358306216531,-0.28720169626587927,-0.7539958012552659,0.6394877353613213,0.15015248253651547,0
168,33.63336670003337,-0.6805273631538902,0.6977192572743294,-0.22376404096139174,-0.745692984484617,0.6545329476843597,0.12461377646973151,0
169,33.83336670003337,-0.731907393979611,0.6501031750327548,-0.20415050440864888,-0.7936952964474935,0.5863614792556393,0.16195058518654504,0
170,34.03336670003337,-0.7949274433618908,0.5434358835679617,-0.2697550745414015,-0.8524907640042211,0.5111535121109849,0.10946042364299893,0
171,34.23336670003337,-0.8599961659658026,0.465816820634597,-0.20837774386434618,-0.9042075867975828,0.4051093715708506,0.13525914772451614,0
172,34.43336670003337,-0.6639415520944401,0.7439997724926951,0.0751395630360197,-0.8883926236592843,0.43720155235658265,0.14004766633103022,0
173,34.63336670003337,-0.6249246044738591,0.7641710698529166,0.1597241832755446,-0.8616313581257403,0.48602855562704306,0.1461767622075513,0
174,34.83336670003337,-0.6086642503320634,0.781019136797707,0.1397745982769128,-0.8508837397132029,0.5126055800884373,0.11503208575815564,0
175,35.03336670003337,-0.6186403320357912,0.7484462638606114,0.23898186059142312,-0.8005457451806524,0.5825954194039373,0.1403890564207357,0
176,35.23336670003337,-0.5568275227020532,0.7909513954488798,0.25365133549611885,-0.7150616535952953,0.6810274563227504,0.15776068994564715,0
177,35.43336670003337,-0.29628240585437293,0.4375314737389061,0.8489893671118657,-0.6417260594267327,0.7523205005175856,0.14900177567266315,0
178,35.63336670003337,-0.2989701142285219,0.483437484432283,0.8227424077097103,-0.6036061015454295,0.7908215034913536,0.10129671165839492,0
179,35.83336670003337,-0.35842214528205874,0.9163166957157637,0.17859809328195997,-0.6175593406803809,0.7836109679594973,0.06763365753818926,0
180,36.03336670003337,-0.33116436454027914,0.9163411228039091,0.22505357210474106,-0.6242669189581862,0.7790494978047285,0.058074898748545246,0
181,36.23336670003337,-0.4407507257982342,0.8349061684457963,-0.3296520705220727,-0.6712955773087226,0.7402080302358918,-0.03813554588635091,0
182,36.43336670003337,-0.4197468336748921,0.789449159350226,-0.4478645112320513,-0.6416839352351149,0.7542128670733109,-0.13930067624470993,0
183,36.63336670003337,-0.4240243334358642,0.7339416334642737,-0.5305968745875391,-0.62856416216557,0.743524497512271,-0.22820695791368906,0
184,36.83336670003337,-0.27900985974365095,0.7038425444752319,-0.6532680695950629,-0.5743264313973961,0.7749578962167976,-0.26379804640968685,0
185,37.03336670003337,0.019318080202358145,0.9690908992691845,-0.24594641841453788,-0.4676711323628302,0.8637098536725952,-0.18785366811252996,0
186,37.23336670003337,-0.06125213548349001,0.9947496974515972,0.08198301847741502,-0.42659737857076835,0.894845867512413,-0.13139843984045455,0
187,37.43336670003337,0.008514803806739468,0.9847670933258874,0.17367000322052153,-0.32915187408658464,0.9440786664884288,-0.019352396924394312,0
188,37.63336670003337,0.06343298670687075,0.9760127473906096,0.2082675517897124,-0.25092585446634,0.9666598907850078,0.05103793792713571,0
189,37.83336670003337,-0.031371390747307604,0.985734730234747,0.16535681858215043,-0.3340570680255734,0.9414166206553549,0.04626685267023438,0
190,38.03336670003337,-0.4951187796756763,0.8655904790297557,-0.07490338193638096,-0.46703833252403804,0.8841312876155898,-0.013677068851375132,0
191,38.23336670003337,-0.8523154374211739,0.47086344017365134,-0.22769720209389432,-0.6802829306234697,0.7287082138642633,-0.07873673443253085,0
192,38.433366700033375,-0.9580653860681813,-0.00937605518305091,-0.28639623881474335,-0.8566389275207238,0.5139455914410832,-0.045051935523563895,0
193,38.63336670003337,-0.9749483095318978,-0.08070663769977898,-0.20727332769097773,-0.9218188606288484,0.38553249428320224,-0.04018313129541712,1
194,38.83336670003337,-0.9777862075338369,-0.09051598543874406,-0.18905287286008027,-0.9426070754331338,0.3286094695016109,-0.05922599004883481,1
195,39.03336670003337,-0.9364900527145723,0.018452344364743814,-0.3502083553459317,-0.958749192263263,0.26914459570516197,-0.09143944956770866,1
