,timeStamp,x_gaze,y_gaze,z_gaze,x_head,y_head,z_head,fixations_head
0,0.041701417848206836,-0.9996303881019881,0.023255320593087013,-0.014081095382857444,-0.9968781221110355,0.008296916351773279,-0.07851860184330325,0
1,0.24170141784820684,-0.9991913102085795,0.03888017715852064,-0.010249752571881725,-0.9973172087809017,0.0235080805164309,-0.0693235545821509,0
2,0.4417014178482069,-0.9481491106744806,-0.29706495038830877,0.11298530514179118,-0.9963720054347842,-0.05579005187509939,-0.06426738595617573,0
3,0.6417014178482069,-0.8961748523908568,-0.4295216924370911,0.11127331067332948,-0.9743134876561871,-0.21800086052884696,-0.05646992633180413,0
4,0.8417014178482068,-0.7201333262750432,-0.6737229091991609,0.16584762285984536,-0.8595984963274416,-0.510950853422605,-0.004432888258589198,0
5,1.041701417848207,-0.562607767708494,-0.8200119276902116,0.10513295468048331,-0.659327063312119,-0.7503613950791068,0.04738776592279458,0
6,1.241701417848207,-0.39153782793530956,-0.9059877638399293,0.16088598779267507,-0.5146864461595076,-0.852952690251052,0.0870032777152066,0
7,1.441701417848207,-0.3030979840419773,-0.9498673107716153,0.07670530618665979,-0.4231364630366435,-0.901415891497215,0.0916783737046022,0
8,1.641701417848207,-0.21604016419240818,-0.976383891639659,-0.0010693934319451987,-0.31955145088608367,-0.9438085474806768,0.08433442914381875,0
9,1.841701417848207,0.3016480800443802,-0.9475727930804324,-0.10542408462627115,-0.046124855872595516,-0.9987923733061124,0.01692018605914846,0
10,2.041701417848207,0.5308016209156667,-0.8413121572416226,-0.10219341128834067,0.31872848357163885,-0.947831072407522,0.005330285070293356,0
11,2.241701417848207,0.702851936319974,-0.6651207634299136,-0.25221721920930074,0.4715944230342658,-0.8818134694304495,0.0019249140271595086,0
12,2.4417014178482073,0.7056930298092433,-0.6401606295956611,-0.3036308877475042,0.5829323096617914,-0.8123221096144051,-0.01796420284822714,0
13,2.641701417848207,0.9180262435842141,-0.32639390672550217,-0.2251551326155406,0.709543306854872,-0.7040407968681406,-0.029577897875389794,0
14,2.841701417848207,0.9394071200710087,-0.24066881811056928,-0.24411633036148112,0.8644975800568969,-0.5023731135333458,-0.016284620799432468,1
15,3.041701417848207,0.9418999584335299,-0.22108270566090232,-0.2528772539406605,0.9004006514471643,-0.43398718543425496,-0.030557973630065773,1
16,3.241701417848207,0.9541152184108599,-0.2624278384773126,-0.1442074186334493,0.9093690106371852,-0.41517574994290085,-0.02602112895508254,1
17,3.4417014178482073,0.9605631477545473,-0.2666372218753242,-0.07888619072109529,0.9053511825400264,-0.4239356655736972,-0.024855336005817175,1
18,3.641701417848207,0.862840263251841,-0.46191690958672826,-0.20527895349825773,0.8906240587026973,-0.45379830812248423,-0.029255454279594875,1
19,3.841701417848207,0.7606900843477157,-0.5475664449557053,-0.3485994606043391,0.8699953425277237,-0.4829428684384678,-0.09936946112611042,1
20,4.0417014178482065,0.8278473695417724,-0.07116916743872542,-0.5564204187023037,0.8583692842362954,-0.4168969508525331,-0.29899682983190795,0
21,4.241701417848207,0.8294742612061585,-0.004212484939674156,-0.5585290547206393,0.8632616570192201,-0.35168459530529067,-0.3620735518446282,0
22,4.441701417848207,0.8488854910072311,0.019531229898901294,-0.5282158216260174,0.8819934627336643,-0.2777089468429712,-0.3807430531716212,0
23,4.641701417848207,0.8601377959781833,-0.02169985794181191,-0.5095999294496604,0.889955843069376,-0.26546220553553124,-0.37082127072066395,0
24,4.841701417848207,0.6581499972901499,-0.7138227358159323,-0.23936516642827083,0.8296922231520686,-0.46106739175693173,-0.31468662999790536,0
25,5.0417014178482065,0.6849236161844177,-0.6724499334132548,-0.2805186750385251,0.6913125084025351,-0.6716705199981761,-0.2663563933746935,0
26,5.241701417848207,0.5972335999241694,-0.7637574233048349,-0.24492167210840377,0.529618558186984,-0.8250642755083963,-0.19690892337257204,0
27,5.441701417848207,0.34219163047730083,-0.9366805444985058,-0.07439385451278473,0.31175611591027974,-0.9428584991118235,-0.11758390555316692,0
28,5.641701417848207,-0.02310937517059458,-0.9992019819021536,0.032578461320835736,-0.05069547250170964,-0.9983541052084139,0.026815101740171477,0
29,5.841701417848207,-0.6037911810203871,-0.7755237877085174,0.1843883521815864,-0.4679741185646234,-0.8625433087680469,0.19240391070124832,0
30,6.0417014178482065,-0.7917628459988901,-0.5414677926122122,0.28270872865795355,-0.7212041380116564,-0.6303654049998605,0.28723517802355936,0
31,6.241701417848207,-0.8800221793795326,-0.4282868648851907,0.20525916585359272,-0.8508740484826004,-0.4358032235714809,0.2934091067835756,0
32,6.441701417848207,-0.998453031661729,0.047432838490432595,-0.029011539053330038,-0.9434250568505371,-0.21389279276626483,0.2533752855138176,0
33,6.641701417848207,-0.9991427811670719,0.025402159566643004,-0.03268689540289579,-0.9674812463562529,-0.03131118950153646,0.250997305485439,0
34,6.841701417848207,-0.9761810672002129,0.21552794516601867,-0.02486420906377628,-0.9507951946433182,0.17330885393527032,0.25681226409736974,0
35,7.0417014178482065,-0.8415787268012278,0.5369481580309761,-0.058582609900604356,-0.8354573650844909,0.5020219019707073,0.2235732566023794,1
36,7.241701417848207,-0.8568690784812656,0.5145703772448533,-0.03150728812125899,-0.8079613014243548,0.562924262058274,0.1741114889569633,1
37,7.441701417848207,-0.8646062169781765,0.5014356031573896,-0.03191277877075598,-0.806436207114092,0.572203777843762,0.14914248380915546,1
38,7.641701417848207,-0.8085548504926652,0.588420350309582,-0.0007382996224647679,-0.824484281536436,0.5464803338277654,0.1469180528010129,1
39,7.841701417848207,-0.8122480369869896,0.583309609566454,0.001739482168096075,-0.8345723708777077,0.5308240402129158,0.14735941130310837,1
40,8.041701417848207,-0.8212968760132587,0.5704988494905634,-0.0015824603646054814,-0.8437090545267842,0.5171121399656028,0.14404883203176147,1
41,8.241701417848208,-0.9777404689141989,0.20667745755835587,0.03616633772801055,-0.8577511290867064,0.4942505031717049,0.14134864932144595,1
42,8.441701417848208,-0.9088885419913514,0.41677381556737364,0.014872958490105686,-0.86466093943552,0.48370144446293784,0.13562585461095328,1
43,8.641701417848207,-0.8487413033587954,0.528796478327522,0.003533338537982835,-0.8686944946061849,0.47724663265089284,0.13268581937904528,1
44,8.841701417848208,-0.8495101636833067,0.5275509401501047,0.0047420824014881005,-0.8721636347205017,0.4717658724469837,0.12948959751833153,1
45,9.041701417848207,-0.8420257951903855,0.539424200922112,0.0037538904539361146,-0.8766247757067982,0.46516355458234543,0.12309293280007182,1
46,9.241701417848208,-0.951867208875189,0.2956719180976602,0.08078943938788136,-0.8790448171543195,0.4618650483143953,0.11815619568888784,1
47,9.441701417848208,-0.887959536919103,0.45905142807014226,0.02827803354505632,-0.8773503106765136,0.46576904045528467,0.11539338503219689,1
48,9.641701417848209,-0.8848354597313194,0.4652173827459084,0.025278370064376658,-0.8770161020215061,0.4669222546021818,0.11325354277998777,1
49,9.841701417848208,-0.866951467269176,0.49630431434531014,0.0455761007772145,-0.8733982861367267,0.47450773006134,0.10962594531160684,1
50,10.041701417848207,-0.8577835979314868,0.5111371018802564,0.054278561156001354,-0.8708254069235326,0.48042875270860924,0.10416968958057814,1
51,10.241701417848208,-0.9485096650523271,0.30039515426520824,0.10045977601161547,-0.870510762976522,0.48006712029274046,0.10838160155611871,1
52,10.441701417848208,-0.8977255290921303,0.43782682806343237,0.04895449973361331,-0.881715678813605,0.4600227448051277,0.10467347322134683,1
53,10.641701417848209,-0.8988698081989834,0.4364815920472114,0.03894724267846216,-0.8943068153447841,0.4368581756161167,0.09680007451045111,1
54,10.841701417848208,-0.993667202319048,0.10187662144810491,0.04739878730258709,-0.908209275319256,0.4081840286363498,0.09242137734459177,1
55,11.041701417848207,-0.998016213804622,0.04248384398569294,0.04646245778353463,-0.9374323457463823,0.33612180639897976,0.09078947302150288,1
56,11.241701417848208,-0.9470110527237563,0.316059414657178,0.05724082830990919,-0.9514705371487387,0.2936022204171936,0.09220386707716835,1
57,11.441701417848208,-0.9422690599925775,0.3312633062872358,0.0489248453074064,-0.9519756466666862,0.29546008258178375,0.08028516521942504,1
58,11.641701417848209,-0.9814707513935859,0.13674984543680996,0.13421864226670732,-0.9577933583901337,0.2781895775305196,0.07240470687144886,1
59,11.841701417848208,-0.9841877543874691,0.12302193094921506,0.1274365278061099,-0.9651364699222191,0.2553264201327427,0.05761955925096472,1
60,12.041701417848207,-0.9859418983949753,0.11517053178982778,0.12105503540357333,-0.970544555312976,0.23601659776481346,0.048367672384148255,1
61,12.241701417848208,-0.9868343074541238,0.11570276172819198,0.1130084977336186,-0.97347434760654,0.22553674998806472,0.03848206019488502,1
62,12.441701417848208,-0.9872960105901158,0.11695307294788938,0.10755726940048184,-0.9752715275813668,0.21891127655009593,0.03038586000617426,1
63,12.641701417848209,-0.9957551960444753,0.04145059901530099,0.08217930026291156,-0.9775949084169918,0.20939744660640755,0.02146868398133717,1
64,12.841701417848208,-0.9965870281521335,0.03713509582914213,0.07372435131392677,-0.9802333813832291,0.19743473594694416,0.012729613645413508,1
65,13.041701417848207,-0.996559529863523,0.03765149043201811,0.07383406196628599,-0.9811062882890109,0.19320873756463489,0.010041653670613241,1
66,13.241701417848208,-0.9963151181842372,0.04153225781339399,0.07504170066337412,-0.9809884704838233,0.19383541058236603,0.009458032679936295,1
67,13.441701417848208,-0.9958635656142463,0.04818235399473605,0.07703388504811277,-0.9799248016886893,0.19901301520839484,0.011882878988099916,1
68,13.641701417848209,-0.9928003881142269,0.0800261292824849,0.08912467667432822,-0.9718082897586588,0.23423704942759185,0.026863593054663917,1
69,13.841701417848208,-0.9863506803736706,0.13550197519101945,0.09354971964538261,-0.9554790087315609,0.2929401568324457,0.03529771080871678,1
70,14.041701417848207,-0.9864584471259134,0.13568674789588023,0.09213489316959103,-0.9527030403429827,0.30190068050499097,0.03482665691479052,1
71,14.241701417848208,-0.9886242273816984,0.12417614733606917,0.0848670811723323,-0.9531784608734652,0.3010536462539497,0.02859237318051568,1
72,14.441701417848208,-0.9903599499130178,0.11314752450090147,0.0799049892535063,-0.954322515972816,0.29765288695887265,0.02590934951640324,1
73,14.641701417848209,-0.9916942760158287,0.10410879115344523,0.0755236553803483,-0.9554754819832383,0.29419894418639125,0.0226624042967915,1
74,14.841701417848208,-0.991710180713344,0.10203419691560182,0.07810211347521134,-0.9546143999928838,0.29666185247353866,0.026515893596010892,1
75,15.041701417848207,-0.9907271966074125,0.11453064229123294,0.07309140769457967,-0.9495170715431035,0.31304821801294996,0.020448570784423935,1
76,15.241701417848208,-0.9899013403139005,0.12314083032273417,0.07022586668864339,-0.9459384560553679,0.3236967761842152,0.020514249767747118,1
77,15.441701417848208,-0.9890853508991144,0.12779929423598962,0.07333150093622101,-0.9433885809999365,0.3305109335892399,0.027937573568501847,1
78,15.641701417848209,-0.9892538616011664,0.12362583810515637,0.07806054995949019,-0.9434015514817045,0.3295819151078847,0.03700370110856985,1
79,15.841701417848208,-0.9843799799853193,0.152526440154094,0.08793031364678408,-0.9321491732807288,0.3587755576918458,0.04876492545835791,1
80,16.041701417848206,-0.7484869432858804,0.629726231206608,0.20787537001983006,-0.9252977259473388,0.37563807510088093,0.052155104171966275,1
81,16.241701417848205,-0.7509113185467041,0.6275011977370331,0.20585052469459428,-0.9220656902547066,0.3831004817150365,0.05503529562761233,1
82,16.441701417848208,-0.7550364220831037,0.6223610050064088,0.2063656482444652,-0.921090853941445,0.3851096597523756,0.05729038968997808,1
83,16.641701417848207,-0.7612565844468668,0.6149002052120187,0.20587896994717075,-0.9232109266193795,0.3799115932388486,0.057868525929960106,1
84,16.841701417848206,-0.8735944293751006,0.48225579309831407,0.06528493691433329,-0.9226585429882552,0.3812480648582656,0.057888911655150345,1
85,17.041701417848206,-0.8738677203114186,0.4816831249674813,0.06585267283327434,-0.9226035520571746,0.38099250019382896,0.06039371264908041,1
86,17.241701417848205,-0.8754872641559308,0.4788639755168821,0.06489486307043309,-0.9245656834474824,0.3762936639279658,0.05984459440047374,1
87,17.441701417848208,-0.8765542451562391,0.4772722355357368,0.06216002320862113,-0.9261967135909898,0.37266690664216895,0.057262766498023976,1
88,17.641701417848207,-0.8785675922771825,0.4733707443778222,0.06355410425346893,-0.9286067733398733,0.36626372552693964,0.0595007888219651,1
89,17.841701417848206,-0.8779694771124662,0.47475670069928855,0.061446500307087704,-0.9290428946586222,0.36531530948565866,0.058515165040578535,1
90,18.041701417848206,-0.8766717324651446,0.47781220959333415,0.056055025288531686,-0.9288046713930567,0.3665589359075082,0.054373053112657624,1
91,18.241701417848205,-0.8743647880205728,0.4818540062236773,0.057471159340415155,-0.9276897292269394,0.3690708119208705,0.0563782056730936,1
92,18.441701417848208,-0.8762600788677156,0.4781267809353355,0.05969133551159986,-0.929619691038267,0.36368398997982365,0.05950786054188868,1
93,18.641701417848207,-0.8767831660720136,0.4774287339567184,0.05755939267592189,-0.9308357334580436,0.36087013767842596,0.05759844658999169,1
94,18.841701417848206,-0.8763306533649081,0.4787375109778957,0.05343202743414157,-0.9308627638910202,0.3613260440596761,0.05420336415164767,1
95,19.041701417848206,-0.8731264438402113,0.48510810840498997,0.048169868451959016,-0.928930825867239,0.3669088001019745,0.049653329811190756,1
96,19.24170141784821,-0.8689773875757612,0.4928757575170139,0.04417903953273446,-0.9258559006238342,0.3750649402018241,0.046012410406662284,1
97,19.441701417848208,-0.8687671466065703,0.4932706543691204,0.043905654707995435,-0.9258141604031062,0.3753099520847847,0.044839494457549714,1
98,19.641701417848207,-0.873153635820988,0.48544979941393995,0.044059283942835877,-0.9293182433903956,0.36655219720994825,0.044800549353202074,1
99,19.841701417848206,-0.8783153687951687,0.47585532996542973,0.04608489862958373,-0.9334798761101911,0.35557404341136345,0.046716384164408875,1
100,20.041701417848206,-0.8794172606244146,0.47347401360672126,0.04947363090569352,-0.9342464166260257,0.3529776777001671,0.050895894400508686,1
101,20.24170141784821,-0.8765756064450514,0.4782671008671895,0.05362635931688583,-0.9326268885061704,0.35656762605756187,0.055377024865680614,1
102,20.441701417848208,-0.8755457945012308,0.4800232128245311,0.05474739154355479,-0.9320521174465055,0.35778270994822103,0.05718726104293356,1
103,20.641701417848207,-0.8766604485664895,0.47806594255683893,0.05403158785786887,-0.933245792468869,0.3547099824997136,0.056860523689162036,1
104,20.841701417848206,-0.8784723974498327,0.4745127107400352,0.055892166400016256,-0.9347669496454352,0.3499559224253884,0.061168637470227244,1
105,21.041701417848206,-0.881367391072975,0.47056614757131815,0.041940704728295725,-0.9377463419923413,0.3442143444861306,0.04634957529435369,1
106,21.24170141784821,-0.8754313802877391,0.48212574840377087,0.03427332977123494,-0.9333487545550124,0.3566794246964138,0.04049555986577513,1
107,21.441701417848208,-0.8728135707011392,0.4873930841077229,0.025386066333515672,-0.9322331045941915,0.3604355421750638,0.03205711521087133,1
108,21.641701417848207,-0.8707391779028686,0.49103639986414493,0.0263920077579569,-0.930872566396024,0.36380185611410015,0.03353318683357939,1
109,21.841701417848206,-0.8730078780000341,0.4870203840416556,0.025853248882806715,-0.9328313846155054,0.35880478374763053,0.032935315941027374,1
110,22.041701417848206,-0.8745238868772646,0.4843298176807907,0.025151520557884152,-0.9340725501733305,0.35566242598482395,0.0318231009689602,1
111,22.24170141784821,-0.8724229856590175,0.4881731654106142,0.023771719895430556,-0.9328789031384858,0.35894836136232816,0.029883539857841947,1
112,22.441701417848208,-0.8707811847294183,0.49115928549983773,0.022420628637930685,-0.931873917558043,0.36164762858077987,0.02867044675138592,1
113,22.641701417848207,-0.8713304536336685,0.49018770970680814,0.022343899009343374,-0.9324502633067254,0.36021591483773874,0.027946397922266213,1
114,22.841701417848206,-0.8709423836933252,0.49088457150816894,0.022174348735198853,-0.9320757976597351,0.36118204227092077,0.02796854944354283,1
115,23.041701417848206,-0.8712234135666012,0.49032437451101396,0.023489815106600958,-0.9318762574267206,0.36166501606668505,0.02837352635561267,1
116,23.24170141784821,-0.8708427461379256,0.49093360744748865,0.024841589674405803,-0.9308292233168652,0.3642984868716565,0.029044267633096695,1
117,23.441701417848208,-0.8692571476304142,0.49372741309247686,0.025005056577571565,-0.9289435340406134,0.36909574566657666,0.028848589133080974,1
118,23.641701417848207,-0.8685691554223058,0.49492788318440567,0.02517960872583125,-0.927842240242293,0.37188737468405103,0.028435150303237972,1
119,23.841701417848206,-0.870690215197484,0.4912403163046298,0.02411432761422882,-0.9287138000425623,0.36988056343601416,0.026058518813633108,1
120,24.041701417848206,-0.8721036203414132,0.48883269462905565,0.02186028474418156,-0.9293040859477745,0.3685810029451052,0.023280036699969423,1
121,24.24170141784821,-0.8730739913524045,0.4870001214962753,0.023930885620782334,-0.9295281865613394,0.3678790297362961,0.025345016635804025,1
122,24.441701417848208,-0.877148567846609,0.47958366272702413,0.02469616103720008,-0.9323367167610158,0.36075155771811335,0.024628442566358124,1
123,24.641701417848207,-0.8780567412956913,0.4778391383686811,0.026193833401544367,-0.9324635335547714,0.36035832093718567,0.025566367005937,1
124,24.841701417848206,-0.8766768808670434,0.4803630190825206,0.026249122864540696,-0.9312074891344766,0.3636251867334886,0.025086565187351646,1
125,25.041701417848206,-0.8741815171957457,0.48502130068875066,0.023685710281450712,-0.9288801348002778,0.36972253662859733,0.02206674154317656,1
126,25.24170141784821,-0.8705025536613752,0.49166672199126704,0.02211647701120392,-0.9259444679748352,0.3771299978810397,0.01999517254355391,1
127,25.441701417848208,-0.8709401851703389,0.4910065994184541,0.019383322289582044,-0.9257385482853809,0.37780544075669953,0.01646782174762836,1
128,25.641701417848207,-0.8677764148497603,0.49685429266264963,0.009995283547489275,-0.9224081734814481,0.3861633349972831,0.00640626243571276,1
129,25.841701417848206,-0.861346035725891,0.5077205027701933,0.017403959494166836,-0.9174297959550801,0.39770480777999795,0.012387710139287314,1
130,26.041701417848206,-0.8653104902565576,0.5008148281917933,0.020549046575951076,-0.9208775702154337,0.3894759823804933,0.01711606914185693,1
131,26.24170141784821,-0.990640041024316,0.08626335399473252,0.1057872529037469,-0.9298488188479159,0.36758334874935705,0.01623748161953229,1
132,26.441701417848208,-0.990323376030382,0.08279151995149654,0.11137852177106647,-0.9347262841255408,0.35500738011385935,0.01601667348585373,1
133,26.641701417848207,-0.9893134540102009,0.09039032413728801,0.11440489070298587,-0.9335716410973022,0.3579544869606443,0.01767982476247793,1
134,26.841701417848206,-0.9885683399320576,0.10381069758591259,0.10934338732041417,-0.93062365353368,0.3656015347257031,0.01658714230467246,1
135,27.041701417848206,-0.9884674640187041,0.11350901222467057,0.10023859895375527,-0.9286844523847155,0.3705317740714566,0.015855355636504496,1
136,27.24170141784821,-0.9888540407137023,0.11829074564485276,0.09041562729400868,-0.9285945837221455,0.3709174414255114,0.011504378655443456,1
137,27.441701417848208,-0.9920271452572391,0.09657651314031877,0.0809636966944485,-0.9377398156662518,0.34731690629695466,0.0038735919424400162,1
138,27.641701417848207,-0.9930991803747689,0.08376803208134494,0.08207883247330994,-0.9424905270607785,0.3342303792421798,0.001288406894074595,1
139,27.841701417848206,-0.9939302850164966,0.07690065397891234,0.07866942191627813,-0.9463048653147529,0.32324959273016096,-0.004099107392196258,1
140,28.041701417848206,-0.9962155698810984,0.048337097486265794,0.07223616360993772,-0.9570630976377091,0.2895908343430484,-0.012937380129291583,1
141,28.24170141784821,-0.9906920119640816,0.1189804351487618,0.06612861318953803,-0.9641926858919878,0.26426730367025913,-0.022254363240620127,1
142,28.441701417848208,-0.9891538058452507,0.1274973904534095,0.07293259771479094,-0.9615191226331281,0.2741335866550739,-0.01821410108802007,1
143,28.641701417848207,-0.9910659413300102,0.11322708132758089,0.07048352991797606,-0.9648507838915382,0.2621060726460254,-0.019062305893067264,1
144,28.841701417848206,-0.9907666808616304,0.11562493145695747,0.07079731153089182,-0.9647392823202703,0.2626238995585497,-0.017515836515302453,1
145,29.041701417848206,-0.9917589465095691,0.10713214796108095,0.07026304072181125,-0.9673485032190459,0.25298821522772275,-0.015291706110276112,1
146,29.24170141784821,-0.9912990732969678,0.10794094313101438,0.07533193264851437,-0.967830260348786,0.25150422994221916,-0.00708586440547577,1
147,29.441701417848208,-0.9911166803655169,0.10472972286530494,0.08197201382053886,-0.9688692155431629,0.24757127176626872,-0.0009531887584109702,1
148,29.641701417848207,-0.9918228543382018,0.0982699045613569,0.08142758420783561,-0.9707645166912686,0.24002864520119155,-0.0015819658808252399,1
149,29.841701417848206,-0.9918818583245623,0.10000931017445877,0.07853990708577162,-0.9706148735230389,0.2405954021635717,-0.004540897885293723,1
150,30.041701417848206,-0.9916598975011623,0.10580890002560543,0.07358752858572809,-0.9693594720204449,0.24543810772375765,-0.010116782157659151,1
151,30.24170141784821,-0.9911421548756303,0.10982751671164255,0.0746668962890929,-0.9686269349437662,0.2483506974452856,-0.009153795927655037,1
152,30.441701417848208,-0.9919551605031147,0.10121979629750076,0.0760231043087044,-0.9708902694942534,0.23937266914415245,-0.008532869867756723,1
153,30.641701417848207,-0.9929391354797676,0.09047421604685196,0.07672215757784491,-0.9737450998632786,0.22750934230777095,-0.007744653313042278,1
154,30.841701417848206,-0.9930936871945728,0.08744335909396012,0.07822139991494059,-0.9747716425337892,0.22311950350539259,-0.006158901483702814,1
155,31.041701417848206,-0.9925330252729473,0.09267738770132505,0.0793038180126875,-0.9740314224589998,0.22636737929806156,-0.004538463641472324,1
156,31.24170141784821,-0.9922052917001576,0.09609217686826306,0.07934073775132061,-0.9735454968272248,0.22846454929503232,-0.003621508366677855,1
157,31.441701417848208,-0.9918448442848806,0.09952421016318717,0.07961618212960944,-0.9729901564731804,0.23083048696571662,-0.0027279467491584837,1
158,31.641701417848207,-0.9918441625094763,0.09932727106757124,0.079870210455119,-0.9733153826168571,0.22946400137247133,-0.001854194039384735,1
159,31.841701417848206,-0.9922738351562042,0.0986198098587929,0.0752779460918882,-0.973648175616469,0.2279755486721601,-0.006031527696140814,1
160,32.04170141784821,-0.9920828415759355,0.10326522225705345,0.07146977908752143,-0.9726903827423821,0.23188444523713359,-0.010150043228730976,1
161,32.24170141784821,-0.9924099855069034,0.10307773688721138,0.06706266341563745,-0.9730225877166615,0.23026065539007062,-0.014390078961117976,1
162,32.44170141784821,-0.9923787300298734,0.10396674290670947,0.06614659895766416,-0.9727369925945935,0.23138375344028939,-0.015630159369279643,1
163,32.64170141784821,-0.9917754839562098,0.11064772944406075,0.0643309365103596,-0.9711873907908103,0.23770094725732074,-0.017126343506722635,1
164,32.84170141784821,-0.9895460669091413,0.12816135514244262,0.06613054145175315,-0.9663602388841881,0.2567617905952493,-0.014875200637856597,1
165,33.04170141784821,-0.7775392345134448,0.5624558270164065,0.2812048745088475,-0.9578541501312989,0.28712458832822213,-0.00865435460310533,1
166,33.24170141784821,-0.7833404637021715,0.5627566384870932,0.26397477865427627,-0.9598155366300174,0.28050098281828845,-0.008563543752798889,1
167,33.44170141784821,-0.7806149957404505,0.5651869987566535,0.2668405607503912,-0.9593744909757194,0.28208278034066814,-0.005467275405304942,1
168,33.64170141784821,-0.7774689370007468,0.5667059457718904,0.2727387450028255,-0.9582039259218542,0.2860843556677096,0.0009888327145494195,1
169,33.84170141784821,-0.7764493415285492,0.5691154191440699,0.2706179220457357,-0.9573409422089414,0.2889393999166966,0.00351333833775074,1
170,34.04170141784821,-0.7764794390362946,0.5711698828901955,0.2661665749734217,-0.9568663949739605,0.29051722149000425,0.0025389342772713062,1
171,34.24170141784821,-0.8039387709586062,0.5464815950071846,0.23460673235857796,-0.9579834512522803,0.286822924051607,0.0005633518048744421,1
172,34.44170141784821,-0.9456583422088051,0.32307136206612336,0.036812970861302405,-0.9585603365069285,0.28488915690083216,0.0004995558601578875,1
173,34.64170141784821,-0.9452345451610462,0.3247660712014253,0.032536957918354266,-0.9589649202402377,0.28352191135693194,0.0012678837277673922,1
174,34.84170141784821,-0.9449572363287548,0.32580209317854514,0.03014660163933253,-0.9590719696289834,0.2831573280526383,0.001698423408079237,1
175,35.04170141784821,-0.9443467744237778,0.327814199529823,0.02733167067759076,-0.9585681177097417,0.2848608839499982,0.001200210660065975,1
176,35.24170141784821,-0.9448102227088422,0.326639454577194,0.02530434307350202,-0.9589992466544853,0.2834064211141185,-0.001115969272305716,1
177,35.44170141784821,-0.9446304054846633,0.32736709819280707,0.02245395409949314,-0.9587461085430746,0.28423972519655855,-0.0036983744667344618,1
178,35.64170141784821,-0.9450157140151971,0.32626828406496805,0.022233017735984368,-0.9589678189556368,0.28349760767482257,-0.0031350678017755132,1
179,35.84170141784821,-0.9435683484504794,0.3303981004749174,0.022712705805367724,-0.9577788706729999,0.2874983023663284,-0.0020883076479091354,1
180,36.04170141784821,-0.9421777264427115,0.3340675306934739,0.026457829306433957,-0.9563324868184335,0.2922791438003648,0.001037668056974193,1
181,36.24170141784821,-0.9448812821540419,0.32642358107930936,0.025436358825378903,-0.9585587043160667,0.2848923149458443,-0.0012566879889272479,1
182,36.44170141784821,-0.9475556532252059,0.31869457482060537,0.0239176090123394,-0.9608964042154728,0.2768886032386522,-0.0032866034629604837,1
183,36.64170141784821,-0.9486948847407086,0.3153978347338873,0.022410299239169623,-0.9620056493195625,0.27298628899593863,-0.00485970137699192,1
184,36.84170141784821,-0.9478688482569032,0.3177787048517239,0.02369264119706865,-0.9615072792685373,0.27474758233538094,-0.004185440774651164,1
185,37.04170141784821,-0.9473526391997832,0.31923583289637036,0.02472771716447949,-0.9612999723186132,0.2754860070551108,-0.003134188422106523,1
186,37.24170141784821,-0.9475417455963155,0.31860206743620023,0.02563909081200907,-0.9616888546417132,0.2741325064413668,-0.0024322356144553794,1
187,37.44170141784821,-0.9476241301216416,0.31841129337865137,0.02495508485532766,-0.9617131866239916,0.2740434681886195,-0.0028149985223514637,1
188,37.64170141784821,-0.9470007719679336,0.32030764470210354,0.024342363022704084,-0.961300126748418,0.2754849803437992,-0.003176777998533584,1
189,37.84170141784821,-0.9460912494515895,0.3231318900632951,0.022296397360399667,-0.9605533913080121,0.27805667728101685,-0.004654746622278006,1
190,38.04170141784821,-0.9464632075761624,0.32217940805623096,0.02019469557034026,-0.9608096763046576,0.2771299700251888,-0.006614048168664321,1
191,38.24170141784821,-0.9467012417815073,0.321583551553585,0.018460178209735365,-0.9610795393302811,0.27615056235119184,-0.008184497163255323,1
192,38.441701417848215,-0.9471387318851078,0.32039789383846706,0.01653518028158471,-0.9613646879803325,0.27509902656276314,-0.009922816570845783,1
193,38.64170141784821,-0.9464961082016067,0.3223823300799333,0.014654364928088972,-0.9608803640188239,0.2767116969170426,-0.011813671416756275,1
194,38.84170141784821,-0.946778863152592,0.32166014296988216,0.012022342204431356,-0.9611324157436658,0.27572031466112146,-0.014240347254105695,1
195,39.04170141784821,-0.9471881229947998,0.3205049913037954,0.010545625014287699,-0.9614942742376393,0.2743653778633638,-0.015887102886571882,1
196,39.24170141784821,-0.9471702522270004,0.32055303577194527,0.010689459931652904,-0.9614606511064646,0.27447887552288613,-0.015961305260698968,1
197,39.441701417848215,-0.9472739755769971,0.3202463106929673,0.010691851200536173,-0.9617113216078428,0.2735916346315845,-0.01609196541489293,1
198,39.64170141784821,-0.9475998523734518,0.3192658677430869,0.011127689610446679,-0.9620940887416667,0.27226902056991525,-0.01563792973003303,1
199,39.84170141784821,-0.9485156125586338,0.3165597735396437,0.010394349861799193,-0.9629002765589478,0.2693542034006673,-0.016473327323106336,1
200,40.04170141784821,-0.9487284487429075,0.3159330742037584,0.010031110110016356,-0.9631325294585504,0.26847683690682006,-0.017202288896638458,1
201,40.24170141784821,-0.9483614606785024,0.31708047190247873,0.008397275620064367,-0.9629492903245352,0.2690064668503495,-0.019083633201412632,1
202,40.366972477064216,-0.9474856369065041,0.3196863891681116,0.00846052223748562,-0.9622121914815132,0.27162972441690486,-0.019104747513127865,1
