,timeStamp,x_gaze,y_gaze,z_gaze,x_head,y_head,z_head,fixations_head
0,0.033366700033366704,-0.9329721385622588,-0.02367891803677646,-0.35916889830158366,-0.9990863146942653,0.0343800581661889,0.025387937906043007,1
1,0.2333667000333667,-0.9389025347594387,-0.03593824692101629,-0.34230172747233556,-0.9991819819911618,0.02193389488966858,0.033974565768861126,1
2,0.43336670003336675,-0.9827487108000257,0.18285554919087899,0.027727595477972634,-0.9984870248267267,0.04278182962489822,0.034545279078597724,1
3,0.6333667000333668,-0.9742705040831646,0.22136066457850345,0.04238444350112084,-0.9950921802971129,0.09108379581249376,0.038669042552494676,1
4,0.8333667000333668,-0.9681265930533812,0.24242398614591515,0.06294053355333241,-0.9912515727315023,0.12066912435402889,0.05347225434704807,1
5,1.0333667000333666,-0.9697567845907307,0.022343120222701587,0.24304848018237274,-0.9875387549167668,0.11114193667981948,0.1114211714554353,1
6,1.2333667000333668,-0.9519581373646446,-0.059017583021286485,0.3004873201976445,-0.9817479192161277,0.05584710126564191,0.18180243231329257,1
7,1.4333667000333667,-0.9614555927018134,0.25989782994234517,0.08975667804495008,-0.9796330441874145,0.027477212439352916,0.19890726867729644,0
8,1.6333667000333667,-0.9642607963622675,0.23672878256323432,0.11899831975677197,-0.97060853717494,-0.017482603204537088,0.24002796951254687,0
9,1.8333667000333667,-0.7815192061176939,-0.4463505413423196,0.43588866091306805,-0.9448471061176458,-0.11556759288874306,0.3064442486570962,0
10,2.033366700033367,-0.787047246422689,-0.4416403660091086,0.4307092046959336,-0.9300539319952636,-0.16384268496424328,0.32886966744267776,0
11,2.233366700033367,-0.8100450238570929,-0.39955818304017815,0.42916234421252947,-0.9297179765807034,-0.13307610502934286,0.34338787732373754,0
12,2.433366700033367,-0.8140569826429871,-0.09065737265158995,0.5736658171741686,-0.9237455544768514,-0.02505605453784973,0.3821862696582002,0
13,2.633366700033367,-0.8248146941163369,0.1689117220928462,0.5395827559414802,-0.9234822865481443,0.12502971583467673,0.36269551498483066,0
14,2.833366700033367,-0.821350279384264,0.5684467979643429,0.04745478310431181,-0.9140194084428558,0.3048622333314982,0.2676332185620895,0
15,3.033366700033367,-0.8452242080451562,0.5328149588149667,0.041282657344756446,-0.870453212372521,0.45508705445173475,0.1876352257461342,0
16,3.233366700033367,-0.8337584959043053,0.55051886897285,0.042139594353115456,-0.8292334053757693,0.5347845652075699,0.16241129340244678,0
17,3.433366700033367,-0.8590846654859936,0.5060621832467562,0.07664596671935715,-0.7714358045437021,0.6171500097852921,0.15496020421393736,0
18,3.633366700033367,-0.7206435807022882,0.6907769188423991,0.059161456939349405,-0.7149474863239986,0.6893642570828562,0.1167347971069367,0
19,3.833366700033367,-0.707464528734148,0.7045717942254242,0.05543038304880043,-0.6718315772967738,0.7347961767037299,0.0933643960431924,0
20,4.033366700033366,-0.5603786850161371,0.8265783410890062,0.05238296881746972,-0.49991305631800315,0.8621571372390668,0.08229220394745922,0
21,4.233366700033367,-0.17183384759297082,0.9828391046582781,0.06708519341785062,-0.2944773725373291,0.9539283975781867,0.05747772922989049,0
22,4.433366700033367,-0.12365756577295245,0.9909440935095347,0.052331730008423,-0.16337766510392193,0.9858073261179762,0.03862194087972328,0
23,4.633366700033367,-0.0933920262371114,0.9941839881265729,0.05362953652670686,0.010961878765597177,0.9995113015486397,0.029274481899305323,0
24,4.833366700033367,0.6956965668278375,0.7172874277638874,0.03879475319971256,0.2558903724526516,0.9665653620927999,0.01647780593581495,0
25,5.033366700033366,0.5814807863510663,0.8120813023981769,0.049031147241588885,0.40872363617814944,0.9125354180373512,0.014969971833937157,0
26,5.233366700033367,0.7275232311644297,0.6842071312065491,0.05070058897263117,0.5811082909596512,0.8138112869066607,0.004933911356981624,0
27,5.433366700033367,0.8314995358945655,0.549266995216482,0.08315220846724122,0.7050190365998725,0.7091751584351781,-0.004330437648529603,0
28,5.633366700033367,0.7912688511325858,0.6059902587743479,0.08166646495298245,0.7554431728294697,0.6550192630215479,0.015980541168958556,0
29,5.833366700033367,0.9070639939940022,0.4184835020368323,-0.045896288767581665,0.7884722360124342,0.6139048874204317,0.03784603333058053,0
30,6.033366700033366,0.9405828349819444,0.3377728177079709,-0.0348346688651766,0.8480877627859238,0.5270268924701755,0.05467907484583695,0
31,6.233366700033367,0.9662202430745772,0.23611479629937082,0.10328719592191207,0.9092471984120118,0.40838450409937355,0.08057064596623746,0
32,6.433366700033367,0.9652032766235418,0.2305743771485171,0.1233616285469364,0.9505383459141021,0.2890595931885171,0.11367235606149727,0
33,6.633366700033367,0.985877785222599,-0.12861699354134512,0.10725046189629714,0.9859930491677846,0.11946399575001654,0.11638754534852502,0
34,6.833366700033367,0.9853224619926138,-0.12488458439959294,0.11637648590739985,0.9922813370584428,-0.029712678094191796,0.12039478761964895,0
35,7.033366700033366,0.7191852006056121,-0.6861352757355824,0.10950356442199496,0.9651076042516176,-0.2393268724981564,0.10625422493225777,0
36,7.233366700033367,0.7810711222497216,-0.614075686572171,0.11330910443771554,0.8940387885691373,-0.44245433291825464,0.07020546855973646,0
37,7.433366700033367,0.6074611452642973,-0.7917914116453809,0.06369707559066844,0.8073033564612287,-0.5880664215021527,0.049388000041375696,0
38,7.633366700033367,0.5795124732513331,-0.8130265420739485,0.05615278469854443,0.7173430535665725,-0.6944372061253798,0.0563552149189601,0
39,7.833366700033367,0.48932335205334054,-0.869552660576339,0.06663953496156012,0.6284646863401215,-0.7755348342440226,0.05981520623979531,0
40,8.033366700033367,0.4930740121154177,-0.8650934074778821,0.09214887364863518,0.5265466419954752,-0.8464690436709833,0.07898602351061597,0
41,8.233366700033368,0.3807788599987693,-0.899473631739921,0.21437034678946362,0.4585721456247869,-0.8793479420915069,0.12829179239729852,0
42,8.433366700033368,0.4193684398391856,-0.7966941470939343,0.43521092317762033,0.4479433953782752,-0.8696855629047792,0.20734930964915232,0
43,8.633366700033367,0.41101056977878675,-0.7059708726754894,0.5767802341134145,0.4859738452764405,-0.80573289710969,0.33856154569362445,0
44,8.833366700033368,0.5476578788255992,-0.5362410914460497,0.6422743491725281,0.5815653466557409,-0.6903840783243413,0.4302924261074533,0
45,9.033366700033367,0.6875541995295746,-0.26434114751293664,0.6763083471618472,0.6832911701674673,-0.5129857402780746,0.5195756028168849,0
46,9.233366700033368,0.7321851509628529,-0.1160497866736318,0.6711462968105457,0.7345042672876795,-0.3979762776205518,0.5496529484933914,0
47,9.433366700033368,0.5126324740060756,-0.6931001520667037,0.5067742355324737,0.7255563067764509,-0.434272119497477,0.5338312204471425,0
48,9.633366700033369,0.480936050761414,-0.7203969716056121,0.4997286447458035,0.7034607565644285,-0.49156816426148964,0.513326118426085,0
49,9.833366700033368,0.552611670990453,-0.7924418150013068,0.25817883515612583,0.6828184698353464,-0.5750461131526129,0.45064498776729855,0
50,10.033366700033367,0.5032824103742299,-0.8328275106689865,0.2304455529638289,0.5638542148392605,-0.7397835027233366,0.3671359332813828,0
51,10.233366700033368,0.25541879660120365,-0.8782653399391505,0.40424155031906517,0.377215730365459,-0.8581830823183514,0.34818111664394824,0
52,10.433366700033368,0.5817273581204734,-0.7355420202414238,0.3472336637962102,0.3421102875919959,-0.8819008009484886,0.32436326612324046,0
53,10.633366700033369,0.8091609839539163,-0.5217534196659052,0.2702440954279363,0.5115054381436916,-0.7934041551004537,0.32995762367123044,0
54,10.833366700033368,0.9486698569786033,-0.2545320175453694,0.1877204157902923,0.741843538694196,-0.5868807514068088,0.32440583799594697,0
55,11.033366700033367,0.9774640873907139,-0.0067833657129144674,0.21099275772178572,0.8935910089330044,-0.30961561606406685,0.32501273674021436,0
56,11.233366700033368,0.878558381709877,0.34289401747638004,0.3325039288583373,0.9423679136477066,0.018825215146673385,0.33404838961137095,0
57,11.433366700033368,0.5737970667729622,0.691553659711105,0.4387601416524996,0.8689104883788547,0.3525318121184106,0.3474419154761414,0
58,11.633366700033369,0.5965713756241889,0.7048338288437045,0.3838122815952958,0.7078669654160197,0.608968544374439,0.35788499722004685,0
59,11.833366700033368,0.348255304764436,0.8730349021916587,0.3413624206889667,0.5643625438875421,0.7509750697184752,0.34282847565235025,0
60,12.033366700033367,0.22045011286332084,0.9273321267970132,0.3024183763409185,0.45698353816581316,0.8318399318372245,0.3149736078570654,0
61,12.233366700033368,0.06333466027663032,0.9816121967547772,0.18007280746938137,0.34231984227949375,0.8971609663454926,0.2791403339679968,0
62,12.433366700033368,0.06093967055173838,0.981033045155463,0.18401228455199653,0.21396057300457716,0.9424826227629656,0.25680221764890326,0
63,12.633366700033369,0.05855697413615896,0.9853990760071556,0.15987414357631882,0.09618328094100653,0.9699346960428029,0.2235519221115735,0
64,12.833366700033368,0.21657830454454108,0.9745883961531345,0.05719524529428393,0.03466956253928144,0.9799983217712539,0.19596252386326574,0
65,13.033366700033367,0.20760805862137355,0.9769241195591115,0.0501812576478475,0.015506817348720892,0.9833038182140149,0.18130951354369979,0
66,13.233366700033368,0.06533918083124834,0.9940488746643001,0.08716436328534788,-0.004257700552498633,0.983193648750705,0.18251608433856076,0
67,13.433366700033368,0.012004651739067729,0.9925306299330222,0.1214036118959476,-0.0686917262824564,0.9722513455682843,0.22362640224489777,0
68,13.633366700033369,-0.3189198354729806,0.839147126320921,0.44059305365521545,-0.15261933961321106,0.9472197914894978,0.281925528795496,0
69,13.833366700033368,-0.3327780745391818,0.8267363127173408,0.4536141778433854,-0.20369781682769694,0.9273627168073469,0.3138560034399958,0
70,14.033366700033367,-0.37392864700166584,0.7870759444761265,0.49060047347971136,-0.2548423843478472,0.9026132106083222,0.34690741008984005,0
71,14.233366700033368,-0.4241063926357236,0.7634723602705344,0.48707671144128106,-0.3135175333952939,0.8836382941214502,0.3476925673865698,0
72,14.433366700033368,-0.7529158259144629,0.6482863212623513,0.11332521675103786,-0.4138577873121524,0.8511236332558989,0.3229710401790963,0
73,14.633366700033369,-0.7628863017135207,0.6354273365119233,0.11931718514627344,-0.5284964153869955,0.7942654326264129,0.2997231413452655,0
74,14.833366700033368,-0.8716523195555914,0.4822157338120639,0.08769389874700494,-0.6488484619717481,0.7142687871940873,0.26232760631924534,0
75,15.033366700033367,-0.9477003489021062,0.30886751735956625,0.08040463550669545,-0.7884745549010195,0.5683765568114855,0.23506587574711896,0
76,15.233366700033368,-0.9938673561133666,0.09856410308333546,0.05012779703521862,-0.8884040073112395,0.4063932450873583,0.21350140547710136,0
77,15.433366700033368,-0.999133234565768,0.008251972312991995,0.0408005458185561,-0.9385624634350791,0.2908792252329818,0.18571423897627234,0
78,15.633366700033369,-0.9691656986689162,-0.21218281340418366,0.12528488424178386,-0.968855909679176,0.1878221455648976,0.16137245091754346,0
79,15.833366700033368,-0.9495023969162792,-0.27890799929899196,0.14372030537566308,-0.980960466104299,0.10097905965813607,0.1658909082831095,0
80,16.033366700033366,-0.941229687407758,-0.3160595472529105,0.11913453795008129,-0.9884116007775301,0.042437085553943404,0.14574498693981786,0
81,16.233366700033365,-0.9344099843998661,-0.33208818364327264,0.1288232096260393,-0.992753749110948,-0.021258749579141742,0.11827112577670162,1
82,16.433366700033368,-0.946453103848843,-0.321961970080935,0.023812014540866178,-0.9917204972155383,-0.09399639035321875,0.08749362264263164,1
83,16.633366700033367,-0.9643172475498063,-0.260415205930371,-0.047709187775605774,-0.984674594023819,-0.15558322647617026,0.07880230658611503,1
84,16.833366700033366,-0.9877086090191534,-0.10263665480074974,-0.11788732230719833,-0.9831645556585303,-0.16861986064579906,0.07039033380057184,1
85,17.033366700033366,-0.9445930776602556,-0.2980864195061207,0.13743509065135925,-0.9904508132833059,-0.1225761664929774,0.06310522858150519,1
86,17.233366700033365,-0.9519231667916681,-0.2482608619957943,0.17946818360485994,-0.9932467721376121,-0.07630820470284319,0.08739512305182356,1
87,17.433366700033368,-0.9545431245738718,-0.23881985852361462,0.1783605856222464,-0.9926878788489693,-0.050618247603991216,0.10958361280700415,1
88,17.633366700033367,-0.9570007009719574,-0.21958599733692954,0.18955645099212123,-0.9926391021613401,-0.013166389988505452,0.1203921053682472,1
89,17.833366700033366,-0.9665288517560647,-0.17357974484964372,0.18892339955928172,-0.9907720790023777,0.03270537518849155,0.13153344024652444,0
90,18.033366700033366,-0.9645771904878789,-0.22294022130099006,0.14102659790541577,-0.9813917513836514,0.0846105203777006,0.17236963235310435,0
91,18.233366700033365,-0.9620628837323807,-0.21549316899097093,0.1673251381674756,-0.9755133280380192,0.09362189700306421,0.1990193136902444,0
92,18.433366700033368,-0.9529671538019573,-0.22851047355919535,0.1990893448890452,-0.9676701393229787,0.08118767206756573,0.23879502374818526,0
93,18.633366700033367,-0.9321824073871461,-0.2791125743938816,0.23050407843056583,-0.9449018972683834,0.016097605831202597,0.3269575991242795,1
94,18.833366700033366,-0.9656186644080709,-0.25281160741945125,0.06055481897229042,-0.9360754655894861,-0.042817813202798864,0.34918384497848276,1
95,19.033366700033366,-0.8782917246445521,-0.2762878827495265,0.39021616095016126,-0.9312657805510103,-0.05725306968997314,0.3598140241649743,1
96,19.23336670003337,-0.7243630633211782,-0.21818278040380268,0.6539835065437237,-0.910923741518376,-0.09629381807086909,0.40118005650767036,1
97,19.433366700033368,-0.7827711528240167,-0.02230209206893483,0.6219099122830486,-0.902518997697512,-0.09880208888333691,0.41916298265396507,1
98,19.633366700033367,-0.7835194376071444,-0.01061295463112691,0.6212766341057596,-0.9000708470697378,-0.0741993894061417,0.42937969312360397,1
99,19.833366700033366,-0.7171230569858772,-0.14940089668509413,0.6807451014946198,-0.8829561416828715,-0.06406429266554622,0.4650636711997185,1
100,20.033366700033366,-0.6528457038861749,-0.2467640820901335,0.7161703531336515,-0.845728297452565,-0.13360908395374818,0.5166161627098264,0
101,20.23336670003337,-0.5408394317780729,-0.465561846917186,0.7005318520445949,-0.8077902448263804,-0.2520876911655257,0.532847742161089,0
102,20.433366700033368,-0.5474734970292834,-0.5028805156822649,0.6688676677771673,-0.8112417040217008,-0.3280012678651669,0.48404758643630347,0
103,20.633366700033367,-0.7676979146047058,-0.6397823210800797,0.03631106642570165,-0.8355350619208463,-0.38838615477975086,0.38863524682705625,0
104,20.833366700033366,-0.7901221204471631,-0.6078213641321152,-0.07912157787009569,-0.8570795412454211,-0.448760376465008,0.25303909676870723,0
105,21.033366700033366,-0.7299818582168605,-0.6249607177708397,-0.27667776910625896,-0.8644931139277287,-0.48501316690058177,0.13196167589345076,0
106,21.23336670003337,-0.7342350000234728,-0.45405593748736767,-0.5047099864011003,-0.8596480721363342,-0.5108862092452203,0.0006879500951204479,0
107,21.433366700033368,-0.6921679545987376,-0.3940964767118124,-0.6046416208548134,-0.8560058743225644,-0.4903915262263252,-0.16361569035602186,0
108,21.633366700033367,-0.624433725808744,-0.3658441161941822,-0.6901018799559295,-0.8422790115776289,-0.44081465757588617,-0.31023943063715587,0
109,21.833366700033366,-0.7136919337882819,-0.190276802894418,-0.674120584113719,-0.8326601917214679,-0.3645792938147853,-0.41684402795755776,0
110,22.033366700033366,-0.7465855569412242,-0.08735145218078738,-0.6595299310635341,-0.8433529063619016,-0.2622325602784623,-0.46903087282260725,0
111,22.23336670003337,-0.7723337073842312,0.022397432615552326,-0.634822021869406,-0.8460623747580696,-0.16565660381753994,-0.5066915705144253,0
112,22.433366700033368,-0.5855416249495551,-0.04395208607839807,-0.8094499487805232,-0.8123471941355918,-0.09390988475124458,-0.5755631761379799,0
113,22.633366700033367,-0.4162871064024404,0.07999335047171802,-0.9057075184204848,-0.743734011940933,0.01003388609746853,-0.6684003595241607,0
114,22.833366700033366,-0.36995472280446884,0.13464577308526257,-0.9192410015142607,-0.6693465279052222,0.17079948827031102,-0.7230510081507554,0
115,23.033366700033366,-0.3940448649270265,0.22337634656457578,-0.8915333152609075,-0.6029893051555915,0.2942514225362692,-0.7414984815920792,0
116,23.23336670003337,-0.3771466671549115,0.43816621175932635,-0.8159477693617551,-0.5517419257603224,0.399977067005898,-0.7318464273518388,0
117,23.433366700033368,-0.08420219554480839,0.3811156233587436,-0.9206850014512622,-0.4500001617399494,0.4730364140532918,-0.7574538965597989,0
118,23.633366700033367,-0.031097994122493908,0.4080296045915621,-0.9124389056470639,-0.33074337059127445,0.5604477382553278,-0.7592806829456487,0
119,23.833366700033366,0.005739246768022649,0.4663554206846037,-0.8845788165249168,-0.24844965931718366,0.629997228041699,-0.7357827528863065,0
120,24.033366700033366,-0.03637007122700936,0.5230228858226852,-0.8515422942077823,-0.222226551359626,0.6870803576272422,-0.6917629232863157,0
121,24.23336670003337,-0.2280127419915763,0.5828259870080763,-0.7799513179407704,-0.2968991706950248,0.7157297369119067,-0.6321248501210974,0
122,24.433366700033368,-0.43188076607830145,0.514472966732545,-0.7408080523273441,-0.3827232749900323,0.7113236942240343,-0.5895265022171414,0
123,24.633366700033367,-0.46603103399281304,0.4916777966503837,-0.7355732591908256,-0.47272630759521594,0.679576918854527,-0.5609857836590704,0
124,24.833366700033366,-0.5456895705104848,0.43917827427595785,-0.7136843392145258,-0.5951336149862039,0.6190075380878205,-0.5124896565823629,0
125,25.033366700033366,-0.58213393810914,0.39117281891067496,-0.7128140738278256,-0.7605693991422608,0.4934355104705818,-0.42196633289282315,0
126,25.23336670003337,-0.9880914943636272,-0.046967354043358674,-0.1465239448705236,-0.9356403426022919,0.25122345100638943,-0.24791919441524865,0
127,25.433366700033368,-0.996636951943621,-0.05389532418051355,0.06172584589947916,-0.9964780368105871,0.06733030165459451,-0.0499815229181727,0
128,25.633366700033367,-0.9709221537286575,-0.1988388419247913,0.1333164893811463,-0.9951064195131698,-0.07215878478639547,0.06750054534468543,0
129,25.833366700033366,-0.8726069234751075,-0.4622363023713562,0.157780727192406,-0.9664917552061475,-0.2109167957085568,0.14631401985652479,0
130,26.033366700033366,-0.6751804832078272,-0.7025677501696194,0.224788503969497,-0.9034054792634977,-0.3775039072542352,0.20334537133772176,0
131,26.23336670003337,-0.5882171107199725,-0.7877136746036612,0.18305135208089932,-0.8356713601737737,-0.5011656888218746,0.2246916334290421,0
132,26.433366700033368,-0.5894314510846459,-0.779591375479585,0.2116786520887212,-0.7737006965766609,-0.5848895971728021,0.24349823661749054,1
133,26.633366700033367,-0.5408460628791668,-0.8092570682320966,0.22932189992343935,-0.7267966658922909,-0.6410654684432285,0.24657994974756972,1
134,26.833366700033366,-0.5619181752420185,-0.8043293835307259,0.19313779309540335,-0.7179892319443808,-0.6570950341527148,0.22960308992642273,1
135,27.033366700033366,-0.5848782592759021,-0.801277193470427,0.12598524139972428,-0.7237500195088775,-0.6625358538348428,0.1929563464730694,1
136,27.23336670003337,-0.5918367548728107,-0.8044041159118269,0.05160691703379233,-0.7260381737510071,-0.6735602091346347,0.13851070329331727,1
137,27.433366700033368,-0.5984887258752285,-0.8008149047574564,0.022510737850013517,-0.7291555240500204,-0.6745166749441468,0.11558320366572528,1
138,27.633366700033367,-0.597109929287776,-0.8014431414548311,0.033891346402278005,-0.7259130829102431,-0.6773563538579871,0.1193254622784246,1
139,27.833366700033366,-0.5979435485116403,-0.7995127361120468,0.05694644491042606,-0.7265648355769535,-0.6748196088186099,0.12931370869684738,1
140,28.033366700033366,-0.5861123694102354,-0.8061035924932552,0.08166571247340129,-0.7156661422443625,-0.6841732493209292,0.140459737144542,1
141,28.23336670003337,-0.5454938188914605,-0.8314602691063674,0.10540547636995999,-0.679355572915503,-0.7181293330629211,0.15088494472031586,1
142,28.433366700033368,-0.5299877726347262,-0.8376825645200295,0.1319124025890978,-0.6630294702264261,-0.729313062904302,0.16880277808262162,1
143,28.633366700033367,-0.5562579631518381,-0.8196059436580876,0.13719757851545442,-0.6822175382537914,-0.7119526823756372,0.16644100623665964,1
144,28.833366700033366,-0.5730432479673514,-0.8083428669552165,0.13491940335492672,-0.6923185219709898,-0.7026921329176061,0.16406959033169335,1
145,29.033366700033366,-0.5847986675367811,-0.8026609536475998,0.11724296113938347,-0.699364038829297,-0.697085020535559,0.15799498516507718,1
146,29.23336670003337,-0.6031847342495245,-0.7914263623972005,0.09905800962600485,-0.7136901949400838,-0.6837382295980664,0.15214578217120261,1
147,29.433366700033368,-0.6844588347028615,-0.7250953634483811,-0.0758473302289608,-0.7253363172302048,-0.6694215602099527,0.1605054567078542,1
148,29.633366700033367,-0.6842053470094646,-0.7276290744082912,-0.04918305805246405,-0.7267137187294577,-0.6640996650847066,0.17566674655376163,1
149,29.833366700033366,-0.7394386999895993,-0.6731916216902819,-0.006591619201677502,-0.7673781507988073,-0.6013829185293752,0.22241708337646654,1
150,30.033366700033366,-0.7536414927642688,-0.6541239681050647,0.06439203937233949,-0.7639536121027883,-0.5761541281348951,0.2905534360289371,1
151,30.23336670003337,-0.7574793298624072,-0.6444732488242124,0.10430386560987566,-0.7618275632485704,-0.5598947353678645,0.32578620164472133,1
152,30.433366700033368,-0.7607979348384007,-0.6395350886288352,0.11036925639929232,-0.7660026469422762,-0.5518843442768033,0.3296416469737855,1
153,30.633366700033367,-0.6196857898036314,-0.7835736357074347,0.04474236627272273,-0.7716246840970142,-0.5410219125192542,0.3345005785737776,1
154,30.833366700033366,-0.5917780224587552,-0.8056263899247512,0.027656680777305907,-0.7495927166952931,-0.5747467812435406,0.328293917896083,1
155,31.033366700033366,-0.5962226006636759,-0.8017145222994626,0.042100299191187324,-0.7329398850679265,-0.5815593965481977,0.352969960709281,1
156,31.23336670003337,-0.6163778815136525,-0.7858196467689276,0.05065362704387375,-0.7478929787239805,-0.5595138871207576,0.35721184540044565,1
157,31.433366700033368,-0.6032855210331418,-0.7779214921351179,0.1757405251671979,-0.7646089866605401,-0.5408628624331654,0.3504860361819635,1
158,31.633366700033367,-0.6108592192039877,-0.769809735738687,0.18505130390091093,-0.7794761383844845,-0.5196182549090801,0.3498768624165568,1
159,31.833366700033366,-0.6319673417951259,-0.7517299207917827,0.18846592554300895,-0.797187180627055,-0.49277790569346214,0.3488015692399508,1
160,32.03336670003337,-0.6646665517772609,-0.7239448222307862,0.18472214083255312,-0.8158170208180036,-0.4585724522212748,0.35235478513481816,1
161,32.23336670003337,-0.7038934335668638,-0.6847160616815596,0.18893900882757317,-0.8438088093450504,-0.40087271795563884,0.35677409837395374,0
162,32.43336670003337,-0.9855654674154397,-0.121506682749974,-0.11788483992983755,-0.8936147601597209,-0.2571198425103488,0.36788863398063554,0
163,32.63336670003337,-0.8854002697732446,-0.18088112616988508,0.4281919902111429,-0.9121070774768963,-0.13875515299808938,0.38575599377460373,0
164,32.83336670003337,-0.8788748576091562,-0.07186212939033622,0.47160875630332855,-0.90625842953288,-0.02642485791449632,0.42189736404106254,0
165,33.03336670003337,-0.7879958244571303,0.1845887158434439,0.5873581417001009,-0.8782209983794962,0.09827222473448383,0.4680496211418785,0
166,33.23336670003337,-0.770680754245068,0.27220578442566973,0.5761555223734814,-0.8441894366962124,0.22182323907015755,0.4879945138820266,0
167,33.43336670003337,-0.8184674181740452,0.3972949131327466,0.4150516080999519,-0.8164905805190625,0.3193443016722416,0.48100140219453874,0
168,33.63336670003337,-0.8644548554215652,0.4027678365065012,0.3008253194363031,-0.8074555357145121,0.3834607867104591,0.4483005497424534,0
169,33.83336670003337,-0.9111325716902339,0.38014825656561413,0.15913748720922097,-0.8140247781099221,0.41366498045684436,0.40773146134034216,0
170,34.03336670003337,-0.8911540715200978,0.45354082072301527,0.012047603539544115,-0.8247053368707746,0.43862920467856414,0.35702314790488393,0
171,34.23336670003337,-0.8836694305794023,0.4675670424077115,-0.022569854088596967,-0.8293617758730866,0.4707477656033079,0.3009245518400478,0
172,34.43336670003337,-0.895994045627171,0.42160245127098744,0.1394490705704043,-0.8227547161860888,0.4849929748604242,0.29640595697385197,0
173,34.63336670003337,-0.5015127768851518,0.7425345250527601,0.44399033066680205,-0.7605929888837439,0.5705903461858517,0.30971755213484836,0
174,34.83336670003337,-0.4042416217391244,0.8317654217260567,0.3804668112655789,-0.6167406561559312,0.7133739711805633,0.33275898227760015,0
175,35.03336670003337,-0.28552756535046553,0.8648182630720967,0.4129931976219432,-0.4920453586879825,0.7891254773920064,0.3676579197085962,0
176,35.23336670003337,-0.20287777130599327,0.8571355603971298,0.473454581784369,-0.40711994767969656,0.8006291853887973,0.4395978340539815,0
177,35.43336670003337,-0.23397894197007008,0.7444524967858017,0.6253353778125404,-0.34216713428939177,0.8032920997808853,0.4874868763790486,0
178,35.63336670003337,-0.25384598236972694,0.6549375067148674,0.7117717889414146,-0.3116359674430622,0.7947943707637373,0.5207541953725404,0
179,35.83336670003337,-0.30789771618945616,0.6650617871752682,0.6803615330135557,-0.3610772498300341,0.7777934839183547,0.5144516653965922,0
180,36.03336670003337,-0.556115904776705,0.7903968100493503,0.2569201882262234,-0.4429585564043485,0.749351692805924,0.4921989006459399,0
181,36.23336670003337,-0.5928131418910394,0.7782422086284129,0.20715125756423594,-0.5280642788230396,0.726219847683368,0.44017365920946383,0
182,36.43336670003337,-0.6453070424131997,0.7468645856577123,0.16053694809065897,-0.5847295586434785,0.7145074936420427,0.38414890964047993,0
183,36.63336670003337,-0.6656506662324273,0.7366876937454223,0.1191655672934802,-0.6017258353484667,0.7254978964642821,0.3340341618758358,0
184,36.83336670003337,-0.5644338805560625,0.8254456234574632,-0.007342832923676535,-0.5804367615815029,0.7617209478904918,0.28787907765169185,0
185,37.03336670003337,-0.537656397011964,0.8429990768962436,-0.016677982617654994,-0.5321667385011097,0.8066798731111473,0.2570333533813759,0
186,37.23336670003337,-0.5804123121806899,0.8140579708290339,0.020764585206104486,-0.4815327742437574,0.8545065155479081,0.1947942561147101,0
187,37.43336670003337,-0.5931609629017284,0.804996241353001,0.01187954111215901,-0.4529897119596024,0.8808907055425004,0.13722931810510589,0
188,37.63336670003337,-0.354954157029661,0.9335862497924287,-0.04923678102670921,-0.42875150327465494,0.8928896349628967,0.13755089318339142,0
189,37.83336670003337,-0.28330046147139437,0.9586714590117337,-0.02626560881473996,-0.35385913221411036,0.9138606243686674,0.19910417820122756,0
190,38.03336670003337,-0.23523669332653685,0.9115136667386945,0.33735223944918025,-0.26070156514751547,0.931472430676107,0.25375934430081787,0
191,38.23336670003337,-0.21071388631386695,0.9059917505889149,0.3671220586934822,-0.19937715863052807,0.9286827932063993,0.31272514804341833,0
192,38.433366700033375,-0.23213896350950075,0.9202034056220155,0.3151780352473488,-0.10363550160981705,0.9370818037747335,0.33337272809930524,0
193,38.63336670003337,0.3741154347336407,0.8191593404924449,0.4347592625557756,0.022347465244256626,0.9433100628381869,0.33115965355908483,0
194,38.83336670003337,0.23014170503445736,0.8945625257203311,0.3831353327229097,0.12399976594399204,0.9343340285937579,0.33413168221166095,0
195,39.03336670003337,0.22728537485891182,0.9066283332297825,0.3554805532799662,0.16043073974239386,0.938186045302428,0.30670657336532403,0
196,39.23336670003337,0.42584995108710555,0.8977773186822844,0.11246201678236907,0.2501650574187919,0.9394828760030942,0.2340712920108056,0
197,39.433366700033375,0.48358568347281666,0.8698656292066016,-0.09735848121829012,0.34229000865959164,0.9295257156242821,0.13718416076567674,1
198,39.63336670003337,0.5087886301566615,0.8544752753112342,-0.10491012203356932,0.4131347724322276,0.9043837420534284,0.10681622965078635,1
199,39.83336670003337,0.7104816558451794,0.7004489747227388,0.06772776769801597,0.4428366174446303,0.8923420160921447,0.08730095398564898,1
200,40.03336670003337,0.7015122759854018,0.7091745051913843,0.07037078817475784,0.4419986631227271,0.8924874629094393,0.09001838893911837,1
201,40.23336670003337,0.5001215106286542,0.8570316907934159,0.12399659504313838,0.4243464187888682,0.8986982620033095,0.11077703161437981,1
202,40.433366700033375,0.21762493112877712,0.9584661005046236,0.18434240839984714,0.3277451270095412,0.934559007768367,0.13850123725261565,1
203,40.63336670003337,-0.03631561980829878,0.9811671818912802,0.18971593748934923,0.20880655280794636,0.9657242806703761,0.1541960999122461,1
