,timeStamp,x_gaze,y_gaze,z_gaze,x_head,y_head,z_head,fixations_head
0,0.033366700033366704,-0.9222392964084765,0.07226638554172987,0.37980554192998917,-0.986054017991859,-0.01105953853023467,0.16605770144624138,1
1,0.2333667000333667,-0.9952324700194495,-0.07209781710126975,-0.06568283937390074,-0.9859047906015334,-0.025895637298829828,0.16529113659792688,1
2,0.43336670003336675,-0.9678939709192808,-0.21691779487217458,-0.12699579255195897,-0.9879731929476352,-0.060985507800552584,0.14209059734959043,1
3,0.6333667000333668,-0.9555828341128024,-0.27813768555338375,-0.09747243212289095,-0.9840078341619913,-0.11528563954760683,0.1357858741619551,1
4,0.8333667000333668,-0.93977183289039,-0.33517953860588934,0.06695953259827798,-0.9760285351127007,-0.17338103077510955,0.13155727578935614,1
5,1.0333667000333666,-0.9982875648845183,-0.04881285536466128,-0.03223729126474232,-0.9785797360146229,-0.16736505581949893,0.11987759737368481,1
6,1.2333667000333668,-0.9237058266079544,0.37641614767094606,-0.07126310169421682,-0.9948019916632813,-0.04982347027083364,0.08880663935168404,1
7,1.4333667000333667,-0.8717472234832185,0.4843635121352813,-0.07381576024993022,-0.9789627309613181,0.19225927951663854,0.06832525761752607,0
8,1.6333667000333667,-0.7466556071593218,0.6636934189797199,-0.044904898402676176,-0.8922478756090032,0.4453363902625571,0.07462726029499328,0
9,1.8333667000333667,-0.3923511088315355,0.9123524616667239,0.11693413996491406,-0.742842341635619,0.6586622533383178,0.11978852825124843,0
10,2.033366700033367,-0.001332924098337851,0.970338673141978,0.24174590527744957,-0.5260554392803654,0.8370993913209531,0.15010091223450917,0
11,2.233366700033367,0.02450549695304266,0.9323761412741558,0.36065802611587683,-0.32220364207677865,0.926972078445665,0.192113452976575,0
12,2.433366700033367,0.12840493651838913,0.9808907723057505,0.14616930280718002,-0.20861371151990232,0.9548160407410019,0.21167580804042901,0
13,2.633366700033367,0.06470603852848372,0.9898738755913888,0.12634412926461663,-0.18564525818769523,0.9595753670834636,0.21154421050707217,0
14,2.833366700033367,-0.6175248418936937,0.7845680210862754,0.05582194848744276,-0.28828760869151054,0.9348158013121529,0.20738773418900122,0
15,3.033366700033367,-0.8565672610825927,0.5145333460735654,-0.03934416119078505,-0.5305891387275785,0.8290699876229339,0.17640329216665765,0
16,3.233366700033367,-0.8963711718935262,0.4340725336426476,-0.08999865407482079,-0.7688123317779519,0.627000880206069,0.1256880850636338,0
17,3.433366700033367,-0.9163578055485043,0.3985238374745701,-0.038303043937420914,-0.8762905271949043,0.46078481238311947,0.1406849978694611,0
18,3.633366700033367,-0.9946244504901008,-0.08159667080964036,0.06375096705186808,-0.9616717899784285,0.2459398082502507,0.1212475941102154,0
19,3.833366700033367,-0.8431250166722146,-0.5374521627320651,-0.016893165366615906,-0.9889405534631871,-0.11450166518751868,0.09426531910098711,0
20,4.033366700033366,-0.8339024359690864,-0.5518175516952073,0.010203770182206742,-0.9427537823165263,-0.32008596528324507,0.09359637149258003,1
21,4.233366700033367,-0.8483790220009289,-0.5274188511090597,-0.04563321732627809,-0.9063715531431855,-0.4096161864757542,0.10346587567826267,1
22,4.433366700033367,-0.8235705166154709,-0.5630022897085335,-0.06899294126702642,-0.8940411037755923,-0.4372093829813409,0.09766504079145202,1
23,4.633366700033367,-0.7317842149404359,-0.678387690401549,-0.06543702526599446,-0.8857622825528289,-0.45619430137689215,0.08550987193331563,1
24,4.833366700033367,-0.9386139347262908,-0.3442704747119891,-0.02194816118066037,-0.9057057642695492,-0.4161606165113342,0.08066851823244581,1
25,5.033366700033366,-0.9480458818008486,-0.3178253947082227,-0.014000874223210301,-0.9204724812326897,-0.3800301272872166,0.09114556296056325,1
26,5.233366700033367,-0.9996921104306943,0.024768540952765972,0.001484493750723331,-0.9577925716388692,-0.2733044663240393,0.08909578217140193,0
27,5.433366700033367,-0.9324200711861429,0.3607706634808331,0.020912656952858245,-0.9949852068808285,-0.020063721415100457,0.09798920946355502,0
28,5.633366700033367,-0.9170208057675576,0.39735308121832114,-0.034400154588693214,-0.9855650221522323,0.13053322273042084,0.10780846383137357,0
29,5.833366700033367,-0.7077371214311977,0.7015455199172235,0.08331896802262355,-0.9514577474659286,0.2782590474412231,0.13152968221722638,0
30,6.033366700033366,-0.637264127082497,0.7671994085243651,0.07279766406724494,-0.897238707068276,0.41893178448714946,0.139495026738809,0
31,6.233366700033367,-0.5349679119856707,0.8410730862389626,0.08003372258091056,-0.8276256466023638,0.5424818144026345,0.14404606946544818,0
32,6.433366700033367,-0.3268190193858109,0.9328718194456875,0.15145790521392274,-0.7649135670354048,0.6272638026863276,0.14644916116066176,0
33,6.633366700033367,-0.14912425028310655,0.9654654088665907,0.21363169769387885,-0.6661411352372241,0.7293473771980877,0.15591148552666945,0
34,6.833366700033367,-0.24600738090851532,0.9663740282262376,0.07484387822880421,-0.5385977520977324,0.826803058071223,0.16220100061141365,0
35,7.033366700033366,-0.157882251727542,0.9870282784198244,0.029126829368109182,-0.4895555453286186,0.857954547832348,0.15572206616851214,0
36,7.233366700033367,-0.27512246023633824,0.961400249941186,0.004146237635461613,-0.5962700695230903,0.7954858651668251,0.10800112272896802,0
37,7.433366700033367,-0.9986515653609458,0.036023544363722786,0.03738121525054259,-0.8737455684696279,0.4814157902580372,0.06933627095479214,0
38,7.633366700033367,-0.9924747089140775,-0.10525181778854016,-0.06257800746368612,-0.9973965152515817,0.043649002715107174,0.057401706646908836,0
39,7.833366700033367,-0.6534376601845706,-0.7534904604295404,-0.07260406527318496,-0.869374500440414,-0.49350027981015776,0.02540574366707017,0
40,8.033366700033367,-0.1899247907465515,-0.980245090492853,-0.05520993048842691,-0.5676620294095464,-0.8217803886464614,0.0493640881887471,0
41,8.233366700033368,-0.1126783358692045,-0.9926762260601335,-0.04356033563641811,-0.30526470705139247,-0.949443273078394,0.07328662794135198,0
42,8.433366700033368,0.3877831993123095,-0.9211082752204516,0.034405459617838995,-0.025089814834491908,-0.9958390869664301,0.0876071575925042,0
43,8.633366700033367,0.5530121650505997,-0.8320415016936415,0.043410652672337555,0.15979083882445044,-0.9811017399397881,0.10911582705959474,0
44,8.833366700033368,0.716002012995204,-0.6946971998795894,0.06882527054994791,0.35312136929740245,-0.9258526010327577,0.13454463834134983,0
45,9.033366700033367,0.8098365947840024,-0.5751124211549735,0.11580325030807924,0.5193257207003447,-0.8436333499149703,0.13632155636697077,0
46,9.233366700033368,0.9328838050970829,-0.35693709485184116,0.04820494275814104,0.6730483991691472,-0.7256178657835772,0.14312429993378034,0
47,9.433366700033368,0.9544353721952429,-0.2714866276654755,0.12388757525012703,0.8053188179072773,-0.5716207045782896,0.15719851024053924,0
48,9.633366700033369,0.919283231124383,-0.39275082378606724,0.02579014131173882,0.9071419375196385,-0.3884031124713908,0.16197693482608194,0
49,9.833366700033368,0.9530966103049017,0.2948774038619226,0.06822146375561884,0.9762239210564803,-0.1522338711018864,0.15431041587153294,0
50,10.033366700033367,0.9292596549621989,0.33954007796394825,0.1455645187391877,0.9808410866341528,0.10687041013246915,0.16287872239323462,1
51,10.233366700033368,0.9588159391326644,0.2659070823226905,0.09982694243429943,0.9586936065498483,0.21725182543121577,0.18359796596708072,1
52,10.433366700033368,0.9715882346762017,0.2120892177668605,0.10504506626121451,0.9538823110293191,0.20945219372296384,0.2150309634680639,1
53,10.633366700033369,0.9793563020898898,0.1667480069678464,0.11426432395576509,0.9565668246890514,0.17318763379316396,0.23449083863859357,1
54,10.833366700033368,0.9815194157504363,0.1625936205429975,0.10091060927197655,0.9595843580276032,0.1679077484500637,0.22584252885402867,1
55,11.033366700033367,0.9758452161693799,0.19296377715479307,0.10242604544495411,0.9516795918017887,0.206044452733812,0.227709547550393,1
56,11.233366700033368,0.9747542398706933,0.19286163589594243,0.11251027176950563,0.9481038286496543,0.2163935243456682,0.23296560415891404,1
57,11.433366700033368,0.965592950005265,0.10892678448945534,0.2361465869347209,0.9519636702928836,0.203379736277714,0.22891451092953874,1
58,11.633366700033369,0.9466161371740828,0.06422316623430717,0.3159007340296298,0.9565479686695149,0.18427070168478046,0.2259652454135888,1
59,11.833366700033368,0.9814884195347438,0.09016481519526227,0.16896978552390918,0.9573783671904952,0.18215169641682266,0.2241593663627183,1
60,12.033366700033367,0.9870273345224557,0.09785685836532752,0.12728344816339865,0.9554174626303634,0.19351778315085116,0.2229985195137824,1
61,12.233366700033368,0.9895825985703585,0.07657912729258738,0.12190946587465055,0.9552460332550815,0.1967066551083125,0.2209332654593493,1
62,12.433366700033368,0.9916781131691778,0.036337241442173596,0.1235075898299079,0.9594510145555102,0.1768219638375148,0.21951706943435484,1
63,12.633366700033369,0.9922631287763799,-0.0024929841290751704,0.1241276290800805,0.9642908054104201,0.15068162141200017,0.21780333231972038,1
64,12.833366700033368,0.9917880856550436,-0.029259221306960008,0.12450016514533135,0.9670922594814247,0.1308462756932288,0.21820131481804708,1
65,13.033366700033367,0.9907860189804343,-0.04877234769977942,0.1263500007627827,0.9691591654220649,0.11307093973790433,0.21896455116112729,1
66,13.233366700033368,0.9653434308819782,-0.04864175107657614,0.2564099071900619,0.9710109983796386,0.09711659260121575,0.2184170516862349,1
67,13.433366700033368,0.983835815990867,-0.05931310567141674,0.16896461957817158,0.9717961763510825,0.0853182612807213,0.2198476425196562,1
68,13.633366700033369,0.9864945127382229,-0.08295462430837146,0.14123422617493825,0.9734751552603416,0.06485008573958119,0.2194096362296396,1
69,13.833366700033368,0.9870001122698123,-0.10735612798898352,0.11960535173055999,0.9763343926503859,0.04666852863280682,0.2111710258611518,1
70,14.033366700033367,0.9870664749711414,-0.11115016546761695,0.11552235586485768,0.9762062577065382,0.046444875483714905,0.21181174650122359,1
71,14.233366700033368,0.9879325493617499,-0.10038736326631588,0.1179476799603541,0.9745986156115791,0.06225538384294056,0.21513206555639672,1
72,14.433366700033368,0.9879463631224041,-0.10044919170761245,0.11777921496810244,0.9746501799103907,0.06575060408993719,0.2138548219293909,1
73,14.633366700033369,0.9877934592743665,-0.10353333349377981,0.11638269059635314,0.9758358962530401,0.0658029009714213,0.20836094117605442,1
74,14.833366700033368,0.9868083705423365,-0.10216439724873741,0.12558533259254898,0.9751409054568501,0.06951606616623943,0.2103989806286272,1
75,15.033366700033367,0.9862548142130038,-0.10042218267012182,0.13121290587988121,0.974778946639961,0.07534699575419354,0.21006864453864915,1
76,15.233366700033368,0.8211332741325277,0.5549183929968773,0.1334380876142876,0.9523194264237251,0.23538475715942178,0.1941178151355198,0
77,15.433366700033368,0.85735288113273,0.5146186416326474,-0.010662593379477173,0.900138460016223,0.38988894866052604,0.19426106277896282,1
78,15.633366700033369,0.8522914917713059,0.5228284179995436,-0.01580058183538548,0.8786199978491853,0.44223110569173507,0.18016256142207454,1
79,15.833366700033368,0.8566938790142875,0.5158020206174402,-0.004886019486179786,0.8724199697210693,0.45701168286943944,0.17327353563868794,1
80,16.033366700033366,0.8792272925365192,0.4764000233150215,-0.0015446178650861213,0.8905227259288959,0.4228541066319227,0.16782037751324186,1
81,16.233366700033365,0.8884494929909156,0.4589454278862397,-0.0051568039037559665,0.9014694083456251,0.40265100924619524,0.15882402390699368,1
82,16.433366700033368,0.9560764040332954,0.011030510523200802,0.2929099477456519,0.9104069242570192,0.38287346387139615,0.15673909189475618,1
83,16.633366700033367,0.9162428512460464,-0.24501716505849175,0.3169631309272655,0.9442969863153942,0.27964277845190133,0.17350250169771442,0
84,16.833366700033366,0.9724755876065362,-0.1760480110857812,0.1526379025735842,0.9792083914140032,0.1044561856381636,0.1738960363732481,0
85,17.033366700033366,0.8767906785525922,-0.431436417545686,0.2123693095026434,0.9846466903332851,-0.07164815910804748,0.15917737437254073,0
86,17.233366700033365,0.618212385192543,-0.7514653766060303,0.23046308718947595,0.9555581836721355,-0.25153245885449,0.15375298292984027,0
87,17.433366700033368,0.6058392803491629,-0.7270448202745945,0.3230550970003278,0.8858661622358431,-0.437852717561477,0.15338233382488467,0
88,17.633366700033367,0.10086709575666752,-0.9779615468184873,0.18280328754704323,0.7492777427987003,-0.6390846875571722,0.1736479953136129,0
89,17.833366700033366,0.14455106213990954,-0.9822222361817714,0.11976839810360934,0.5665167695232243,-0.8086789860374658,0.15842047655018,0
90,18.033366700033366,-0.06624350707783438,-0.9962091011997348,0.05638461187989131,0.36703243460307894,-0.9178622732378464,0.15104979085053363,0
91,18.233366700033365,-0.3554634339060327,-0.9304157188146267,0.08928794620996382,0.11403781749266628,-0.9827373972320065,0.14567973182008184,0
92,18.433366700033368,-0.6001463468943691,-0.7995933021891254,0.021792507970250088,-0.18997865071874676,-0.9722042218429566,0.136846860767121,0
93,18.633366700033367,-0.6174056781423639,-0.7866192058789208,-0.006360309739617458,-0.44232504076031154,-0.8898246816309581,0.1120740571084721,0
94,18.833366700033366,-0.9484124694873649,-0.2646820788074865,0.1745198695823078,-0.6263731543852261,-0.7738631144847696,0.09376860618263842,0
95,19.033366700033366,-0.9841534042804303,-0.07409580952588814,0.1610958964528389,-0.7979197214584809,-0.5962998887267016,0.0880372694496136,0
96,19.23336670003337,-0.9969961603238089,-0.047327032580289585,0.061309120746642874,-0.8982886953074067,-0.4335333911041581,0.0715976164452892,0
97,19.433366700033368,-0.9951097017454414,-0.09720089295351254,0.01756894706972928,-0.9448719782486732,-0.31906454918158256,0.07358504043617003,0
98,19.633366700033367,-0.9918839100986244,0.1236689617744631,0.029534670830916303,-0.9796164246114801,-0.18162400710330406,0.0858159698142436,0
99,19.833366700033366,-0.9727222703394283,0.23179865058343638,0.008987233912972513,-0.9941117909890742,-0.06867829274802796,0.08381550645144376,0
100,20.033366700033366,-0.9550282899068303,0.29651293758825886,-0.0010214305737110232,-0.9959443666409368,0.003648922448968508,0.08989718527932562,0
101,20.23336670003337,-0.9543451312667127,0.2987061381492901,0.00011601490604785532,-0.9951125923535695,0.019284406766204087,0.09684544488531203,0
102,20.433366700033368,-0.9388798369071013,0.34285671980159377,0.030885620216961993,-0.9911400486187409,0.07195010176830549,0.11164491425752512,0
103,20.633366700033367,-0.8612227224091633,0.5043553776767805,0.0626184909963603,-0.9828723586823248,0.13957495488841606,0.1203360233103133,0
104,20.833366700033366,-0.8088715566191098,0.5857478397765318,0.051247176407142346,-0.9642102619229322,0.23369701263448625,0.12523688389698803,0
105,21.033366700033366,-0.631577013449562,0.7691573820138169,0.09750588585200107,-0.9306265789049959,0.34045964092352654,0.13424382122766973,0
106,21.23336670003337,-0.6729655561796886,0.7384762810691641,0.042073061381600045,-0.8871426291665732,0.4415262400346545,0.13428527423467085,0
107,21.433366700033368,-0.23256298926465901,0.9558222002863711,0.17977312775831344,-0.8165704357478303,0.5595909836643784,0.1416709372600184,0
108,21.633366700033367,-0.42837603964915877,0.9008906159728984,0.06992901190832114,-0.7049630306505339,0.696375714081185,0.1344915991946495,1
109,21.833366700033366,-0.10629472443729099,0.9629970843885033,0.24766519136940218,-0.6390168206522437,0.7558504207423535,0.14264516951900447,1
110,22.033366700033366,-0.2040638437013913,0.92946487589064,0.30733205524222695,-0.6148183097719736,0.7754588099688162,0.14374310422027503,1
111,22.23336670003337,-0.15706828294387482,0.9443789429375884,0.28892553820862965,-0.6079887967942423,0.7813469964718835,0.1408775854316643,1
112,22.433366700033368,-0.4184732634737149,0.9082140593203389,0.005229742874272925,-0.6181638827258248,0.7729532825550937,0.142886798132783,1
113,22.633366700033367,-0.44067651797413376,0.8971390831643322,0.03075177987132677,-0.6307610460721653,0.763038634398016,0.14111181798119854,1
114,22.833366700033366,-0.44023234878970724,0.8971812136034518,0.03551547600884368,-0.6381893324007581,0.7570580474745329,0.1399195796303099,1
115,23.033366700033366,-0.44841022006182774,0.8927802538632039,0.043263065726513915,-0.6396908540297767,0.7555627779049172,0.14114000111683286,1
116,23.23336670003337,-0.46912741179850825,0.8817822422470526,0.048780618661447665,-0.6557907827510145,0.741495308257542,0.14185611404118162,1
117,23.433366700033368,-0.6847705949789487,0.7284942386509587,0.019631008749859718,-0.6943350751190721,0.7063839973740188,0.13755163289941386,1
118,23.633366700033367,-0.7774144915665218,0.6289170470181926,0.009489798326781939,-0.7453983439111207,0.6543815367612721,0.1271460311630484,0
119,23.833366700033366,-0.9266664737934183,0.3757162007770169,0.011250903117377089,-0.8467878137896899,0.5164043681165883,0.1275810605355852,0
120,24.033366700033366,-0.9927189021946007,0.1200799272341053,-0.009486427198840141,-0.9188080196714825,0.37221596551910524,0.13132820717594923,0
121,24.23336670003337,-0.9964526421498919,0.07186588387641392,-0.04378843097396193,-0.9555185631123352,0.2628885939786291,0.13369316625646152,0
122,24.433366700033368,-0.9852358850750597,0.04181951496662914,0.1660162008007647,-0.9748272115664984,0.1779432547980644,0.1343432382420384,0
123,24.633366700033367,-0.9914495142505125,-0.12818400126065715,0.02442790439703143,-0.9877865348876302,0.08880961356278093,0.12802583346152394,0
124,24.833366700033366,-0.963370644934164,-0.26031718271451376,0.06443574212121209,-0.9918428004958879,-0.0199114482864416,0.12590231662527435,0
125,25.033366700033366,-0.8758720351044639,-0.4825417222460414,-0.0012901216179702728,-0.9807101978286398,-0.15198634270202263,0.12291321941505594,0
126,25.23336670003337,-0.7945008778321512,-0.607146206293324,-0.011909630874447484,-0.9505852324773514,-0.28603377252693074,0.12071618271794454,0
127,25.433366700033368,-0.6883722437221884,-0.7251408185490057,-0.017732663278773205,-0.9053466515242468,-0.40888533099663243,0.11471803114423096,0
128,25.633366700033367,-0.5738928615088896,-0.8186895441524386,-0.019859854093408666,-0.8345805172021435,-0.5384790194873497,0.11625706807994504,0
129,25.833366700033366,-0.3935920416787564,-0.9192470709122467,0.008374207210434775,-0.7124598350147193,-0.6903993460606946,0.1254979141251532,0
130,26.033366700033366,-0.16003564933648856,-0.9870982506894199,-0.00506304526303004,-0.5387267723254926,-0.8319301951003308,0.13291205836974557,0
131,26.23336670003337,0.08770842230136555,-0.9958492431919186,0.024321132611136602,-0.36726755147316076,-0.9231387031727235,0.11370787281227117,0
132,26.433366700033368,0.2270997891679849,-0.973746312331023,0.015614255716827716,-0.14596317893480082,-0.9844329996002744,0.09791026347249766,0
133,26.633366700033367,0.2741964793309405,-0.9461573313397728,0.1720540469576837,-0.0052216052514929,-0.9928037701557968,0.11963865931643193,1
134,26.833366700033366,0.29202604868570525,-0.956130817116711,0.02312244469654736,0.05621265022672728,-0.9919754586086107,0.11324675479996944,1
135,27.033366700033366,-0.10257500752880971,-0.9946005948153637,-0.015748797522020002,0.0173822261588526,-0.994579445519721,0.10251626584814273,1
136,27.23336670003337,-0.10616411591782998,-0.9942576459850755,-0.013450423472957652,-0.014795299355273073,-0.9953539646275104,0.09513981404903331,1
137,27.433366700033368,-0.0920549360653195,-0.9954182202456426,0.025854507324778363,-0.007641911384264621,-0.9950337479357072,0.09924435328730091,1
138,27.633366700033367,-0.1133918086891405,-0.9932329577593793,0.02511153804052555,-0.011025428148376593,-0.9937365928056417,0.11120262610738817,1
139,27.833366700033366,-0.15758012334832788,-0.9868142762437648,-0.03696064024094853,-0.030547420125185965,-0.9921786506401409,0.12103049342047865,1
140,28.033366700033366,0.29003514613012876,-0.9568970746964401,-0.015086498820803816,0.019402622830122507,-0.9952257480360237,0.09565170502112977,1
141,28.23336670003337,0.6305385301815707,-0.774645890680202,0.04842422956270497,0.18938591459677756,-0.9788918768933279,0.07683533500024492,0
142,28.433366700033368,0.7856336332330193,-0.6184351561653291,-0.017825598218585304,0.3907970149970302,-0.9177670333570707,0.07057878967772381,0
143,28.633366700033367,0.6285916341588337,-0.7211231930635629,0.2912969239304438,0.5357024784329775,-0.8421801499934123,0.06128172286937742,0
144,28.833366700033366,0.7113154635121859,-0.6479320315127853,0.2724231890059272,0.6039593077951002,-0.793804167807572,0.07147095703145019,0
145,29.033366700033366,0.6956611714572041,-0.6601864234438629,0.28321267773034337,0.6061736880074723,-0.7911894421353729,0.08107235423334683,0
146,29.23336670003337,0.6650151463143773,-0.6887999374428481,0.2886338534392594,0.5807544665406323,-0.8102217250603654,0.07915178983012165,0
147,29.433366700033368,0.3862722679815081,-0.9164280859664321,-0.1046580060975942,0.5500528498533723,-0.8329937044784749,0.059693807613613994,0
148,29.633366700033367,0.7987741350865947,-0.5394462266435636,0.2663787710698508,0.6789845750902955,-0.7318664990135599,0.05789105639981164,0
149,29.833366700033366,0.9310941181009489,-0.20529519209582084,0.3015255003149092,0.9146794009959858,-0.3970592148362733,0.07553524546347289,0
150,30.033366700033366,0.9221476071679973,0.3622477593489014,0.1357215953378015,0.9956510297463113,0.022236515399459273,0.09046858210450676,0
151,30.23336670003337,0.8762163474752365,0.4604011848968193,0.14239263099880115,0.9843740962589027,0.14698114581389585,0.09697515862169372,0
152,30.433366700033368,0.9216591406232337,0.3713853375755064,0.11232702052297765,0.9976809348880983,0.005078100018372241,0.06787462752025886,0
153,30.633366700033367,0.7078936884357869,-0.7054520714636778,-0.03498429276666339,0.9200190941135505,-0.39174596499732184,-0.009998268590061608,0
154,30.833366700033366,0.4250648657303611,-0.8849035661311958,-0.19043512955839398,0.7102743992589011,-0.7035092551194966,-0.024186891462498705,0
155,31.033366700033366,-0.010859303828229805,-0.9980458224180389,0.06153545217406558,0.453641827442427,-0.8896462806589976,-0.05233151731325561,0
156,31.23336670003337,0.05220087723724065,-0.9813217331252128,0.1851559464661933,0.316346143826857,-0.9486150428665217,-0.007390381128511004,1
157,31.433366700033368,0.13223439379703178,-0.9393812358111545,0.3163494253243398,0.26716410465840856,-0.9614592664989738,0.06495706309036577,1
158,31.633366700033367,0.1379345300085721,-0.9345369302975437,0.32804693466234175,0.2779271847574103,-0.9562988007345602,0.0908244663428444,1
159,31.833366700033366,0.4925334212206269,-0.8286525720849888,0.2659807206502702,0.31979134809855453,-0.9421107828503886,0.10080062756916291,1
160,32.03336670003337,0.6789486569481047,-0.7277735948127364,0.09682105102565164,0.3604487205698596,-0.926077035853213,0.11161560600954672,1
161,32.23336670003337,0.6681455891901924,-0.7372649562691596,0.1001092198707248,0.3506100914631129,-0.9289269444280072,0.11902644949705235,1
162,32.43336670003337,0.5626577862530171,-0.8234338309904697,0.07330035163089607,0.33778219031946444,-0.9337115237593474,0.11868438103635638,1
163,32.63336670003337,0.02234510000437695,-0.9622313737552138,0.27131435617554167,0.3116594260255241,-0.9431161900444631,0.11575946719580596,1
164,32.83336670003337,-0.010442752694183433,-0.9760455097007226,0.21731569641704346,0.2513762784004263,-0.959246653906595,0.12905744312728568,1
165,33.03336670003337,-0.40607838399022383,-0.8922693200489087,0.1973722537626472,0.1618859833440604,-0.9789856715106722,0.1240160609498817,0
166,33.23336670003337,-0.30971343077493124,-0.9508298306746726,-0.00047317734015714526,0.005990952045692888,-0.9918325254110287,0.1274062401547417,0
167,33.43336670003337,-0.5186744515608059,-0.8548915204938117,-0.011717571671469872,-0.17991927063621616,-0.9762701098640346,0.12052273080128156,0
168,33.63336670003337,-0.6176948517509876,-0.7864175315342273,0.0007322676682759269,-0.33270114808100704,-0.9356147442353506,0.11804658586761058,0
169,33.83336670003337,-0.7749059120813862,-0.5790352258786283,0.25345420614580727,-0.45462550412344027,-0.8830955611850052,0.11600810668159624,1
170,34.03336670003337,-0.7183581467296745,-0.693956145480499,0.0488512146927387,-0.537910724272084,-0.834166921645737,0.12172756279970989,1
171,34.23336670003337,-0.66679762720765,-0.7426337415058909,0.06225793384950682,-0.5802777822124873,-0.8046854696537794,0.12553481747560552,1
