,timeStamp,x_gaze,y_gaze,z_gaze,x_head,y_head,z_head,fixations_head
0,0.033366700033366704,-0.9958797160810899,0.08729345385851793,-0.024565097429045623,-0.9896096428403122,-0.049187978099506105,0.13510476530438323,0
1,0.2333667000333667,-0.9977494816442272,0.06401204312205436,-0.01996071677110582,-0.9883361945514535,-0.06806165069455765,0.13623207494670184,0
2,0.43336670003336675,-0.9465661239620491,-0.3170188497944167,-0.05925893892475601,-0.9845732976915388,-0.10154481823324198,0.14249235545385058,0
3,0.6333667000333668,-0.9264832279127315,-0.37386028844337965,-0.04309655579555085,-0.973108599440097,-0.17156403792208674,0.1537056751964675,0
4,0.8333667000333668,-0.9409773418718306,-0.33745903307781905,-0.026135092844824605,-0.9571365389394421,-0.25107391499118087,0.14440060608608035,1
5,1.0333667000333666,-0.9427303510777295,-0.33002754574314447,-0.04838702519908863,-0.9526225619950572,-0.2788764601235096,0.12140088289198626,1
6,1.2333667000333668,-0.947024188673142,-0.31861961428544555,-0.04033270956148808,-0.9519163509358146,-0.28044664849957357,0.12330830534234159,1
7,1.4333667000333667,-0.938077277885443,-0.3444202367012303,-0.03722527724149426,-0.9394857562417536,-0.31676934670151985,0.13047488190894418,1
8,1.6333667000333667,-0.9263749509029968,-0.3739173808661278,-0.04489145381568048,-0.9259645958042437,-0.35786645113567317,0.1205038193114333,1
9,1.8333667000333667,-0.9228247765584728,-0.3813666128568437,-0.05435014597867778,-0.918129364360138,-0.38121534038159105,0.10822815972470831,1
10,2.033366700033367,-0.9282997338019802,-0.36723482550573733,-0.05829397189198699,-0.922611659331559,-0.3724651068655428,0.1002869394941696,1
11,2.233366700033367,-0.9321282015727202,-0.35827434671747416,-0.05269258313058559,-0.926258542699129,-0.3637394455111126,0.09868499306457146,1
12,2.433366700033367,-0.9313783113950144,-0.3618964350392269,-0.039565279840670896,-0.9243075655651545,-0.3658928560683048,0.10852622778479254,1
13,2.633366700033367,-0.9179676001281432,-0.3948328659433059,-0.03798016700822868,-0.9112353508316896,-0.3973794840901685,0.10834980857795501,1
14,2.833366700033367,-0.9131696546038235,-0.405502368016782,-0.04109758440001536,-0.9050771896347831,-0.4114982465414291,0.10725891056752497,1
15,3.033366700033367,-0.9162468876324938,-0.39883535647558715,-0.037709406369759856,-0.905265825803403,-0.41080822545648893,0.10830690896601887,1
16,3.233366700033367,-0.925777400524204,-0.3762184201384848,-0.037361812417897995,-0.9139018883782634,-0.3912402939990249,0.10823294678701623,1
17,3.433366700033367,-0.9350316354378234,-0.3525228445114196,-0.037993220816972643,-0.9226814623105236,-0.3701826769436686,0.10781328674766227,1
18,3.633366700033367,-0.9381555805193739,-0.34281016911966833,-0.048428242674093534,-0.9269884699255794,-0.3622590035158248,0.09726659753869825,1
19,3.833366700033367,-0.9355326878713608,-0.35015281847155444,-0.04660036094939217,-0.9241755219358699,-0.3689818606937928,0.09875217027240006,1
20,4.033366700033366,-0.8890424918336203,-0.44453068463129247,-0.1095258788392135,-0.9212965571043323,-0.3752606740634975,0.10194155369187603,1
21,4.233366700033367,-0.875166058424466,-0.46382215786009195,-0.1376712608346138,-0.9197200727792896,-0.38115197924805955,0.09401146973718305,1
22,4.433366700033367,-0.9791176074954328,-0.19852317256736635,-0.04378653498745559,-0.9184652852997377,-0.38743406503167765,0.07947556198166596,1
23,4.633366700033367,-0.9951836084589871,-0.09402884163999073,-0.02771574271764864,-0.9345639974395124,-0.3475875375673189,0.07598051340815695,1
24,4.833366700033367,-0.9990785633429116,-0.030525945444655925,-0.030169370616133236,-0.9604093318768003,-0.26858156536382044,0.0740125529263661,1
25,5.033366700033366,-0.9879125540892085,0.15493453246531494,-0.004906742574397711,-0.9787113451668626,-0.18771433487276362,0.082990549612266,0
26,5.233366700033367,-0.9791666573385162,0.18753195341429219,-0.0778744091800192,-0.99180526840198,-0.03239316935302668,0.12358394778183211,1
27,5.433366700033367,-0.9683321409963578,0.24610053236839396,-0.042040369663019536,-0.9911319663126632,0.03411807918794468,0.1284265627731253,1
28,5.633366700033367,-0.9596922673926033,0.28031680256324826,-0.02032835722731721,-0.9897280407072886,0.049520177558583074,0.13411248059848327,1
29,5.833366700033367,-0.9625022779218072,0.270467497466961,-0.020897315839398835,-0.9901974170824905,0.03803143829245674,0.1343974884608022,1
30,6.033366700033366,-0.965259469640547,0.2612623434513956,-0.004017980031700395,-0.9898387285714053,0.02843870431259273,0.13932168358574037,1
31,6.233366700033367,-0.9617451782225906,0.2737999789575715,-0.00893217154061768,-0.9892961386905712,0.01924288241115045,0.14464736931046035,1
32,6.433366700033367,-0.9845739709981495,-0.17410652440197594,0.017349749093271635,-0.9890570155555684,-0.0018934515095640875,0.1475216418756698,1
33,6.633366700033367,-0.973966598690593,-0.22659730010944384,-0.006536682506283525,-0.9889534999944113,-0.034849855400852996,0.14407103257540635,1
34,6.833366700033367,-0.9721014218187842,-0.23416166168440755,-0.013679981545862054,-0.9889820352719061,-0.053592410858111464,0.13799415715113994,1
35,7.033366700033366,-0.968882749344296,0.2401305816207104,-0.06002934110531034,-0.9915881240469262,-0.02512844657168892,0.1269706793791071,1
36,7.233366700033367,-0.949002186402491,0.31526893973595765,0.0005880825259507667,-0.9917369458570761,0.001985452101412704,0.12827271027787718,1
37,7.433366700033367,-0.9526836768198143,0.30393081360227425,-0.004457854207960474,-0.9915624465195483,0.0020674021974118185,0.12961342716062393,1
38,7.633366700033367,-0.988307066809696,0.09266575236772606,-0.12108757174928453,-0.9914571770327587,0.000948054143818523,0.13042916584711234,1
39,7.833366700033367,-0.9852781239652466,0.06712227926550311,-0.15723109762934362,-0.9918619549152919,-0.009943687961567067,0.12692905680472905,1
40,8.033366700033367,-0.9898489359126228,0.03273518279782099,-0.13830217597652442,-0.9918030987391984,-0.012467222187172078,0.12716596125638124,1
41,8.233366700033368,-0.9613181728112794,0.25329573255220034,-0.10820648083006537,-0.9918768890627211,-0.010896692387399633,0.12673396955147065,1
42,8.433366700033368,-0.9640498739374422,0.25540101027679973,-0.07333597010193448,-0.9921817296847376,-0.008325774894529526,0.12452347871870606,1
43,8.633366700033367,-0.9646068444880004,0.2573229689763034,-0.05760664201394931,-0.9926032326723375,-0.006653814442500955,0.12122107589767879,1
44,8.833366700033368,-0.9644491272546045,0.2598393659922851,-0.04818075153584921,-0.992932897222027,-0.005474880368827329,0.11855077941210977,1
45,9.033366700033367,-0.9694575869491516,0.2391263573395575,0.05450295709631453,-0.9931015659519358,-0.002896328616930192,0.11722154658745794,1
46,9.233366700033368,-0.983820762661638,0.1568114317171007,-0.08664226358253913,-0.9929426173517302,-0.004910393952945004,0.11849407866185664,1
47,9.433366700033368,-0.9871404354614681,0.15260608946525614,-0.04759350937959178,-0.9926687199486478,-0.006063941641750836,0.1207147093244173,1
48,9.633366700033369,-0.9877460101078217,0.1505598848660856,-0.041104021520898704,-0.9925246903799573,-0.007330275043000182,0.12182366787272511,1
49,9.833366700033368,-0.9992922415759915,-0.03751119035707787,-0.0028154083229837146,-0.9924527369610189,-0.016100987633679294,0.1215661264325013,1
50,10.033366700033367,-0.9724122610606887,-0.2311198958532488,-0.031590952496285414,-0.9872219776120923,-0.11464695168588677,0.1106744929457738,1
51,10.233366700033368,-0.8382446598046811,-0.5440512662184781,-0.036798234128899286,-0.9547663269790105,-0.287733887482988,0.07503646354231035,0
52,10.433366700033368,-0.8339064292304579,-0.5509089266870789,-0.03315752983257855,-0.9275794194948341,-0.3666499554215316,0.07186258219000774,0
53,10.633366700033369,-0.8337159523000209,-0.5511932499125725,-0.03322216325415737,-0.916172600522051,-0.3933942399224671,0.07660768922560574,0
54,10.833366700033368,-0.562829801483554,-0.8197993633918597,-0.10560122321396113,-0.8627205113397655,-0.4986673378224182,0.08392976529668111,0
55,11.033366700033367,-0.5906867019838664,-0.7924108645299419,-0.152230883444632,-0.8332910593993891,-0.5472133434354952,0.07863566042954821,0
56,11.233366700033368,-0.5448872467606911,-0.8144560077445032,-0.1993973414226969,-0.7661896643806225,-0.6406275769500918,0.05049461206270953,0
57,11.433366700033368,-0.4559703953745912,-0.8839867056907899,-0.10324002471853733,-0.6026073137716199,-0.7976005981397112,0.026414224125030212,0
58,11.633366700033369,0.029627222854160973,-0.9987820687428007,-0.039453856893859204,-0.32550234495184893,-0.9430732935771894,0.06827141694969749,0
59,11.833366700033368,0.26745553402657646,-0.9602305130263515,-0.08015546875733917,-0.10073060046298526,-0.9931803868140234,0.05870319734319252,0
60,12.033366700033367,0.4823233764788102,-0.8693247938702523,-0.10788217306173996,0.13668907339200503,-0.988756938704253,0.06062848653421041,0
61,12.233366700033368,0.7524613136829824,-0.6580115316192428,0.028684415046828074,0.3735883016953273,-0.9254794327724184,0.06260671171403286,0
62,12.433366700033368,0.7912416635167883,-0.6079434543107355,-0.06588919695910915,0.5845371156673891,-0.8091869630464169,0.059437523863012105,0
63,12.633366700033369,0.8070949267539633,-0.5895270864801488,-0.032489898649294184,0.6623640906480526,-0.7467389603431752,0.06045441692360036,0
64,12.833366700033368,0.6807740181726813,-0.732478219072885,-0.004732310729080265,0.6837483575506551,-0.728000041261649,0.05004121770919851,0
65,13.033366700033367,0.9822221924517156,-0.06514891435361234,0.1760544904678399,0.797640655510684,-0.6016757706831962,0.04190049700503129,0
66,13.233366700033368,0.982937403551267,0.08319941036414835,0.16404852579329074,0.9379407868339551,-0.34641450246180766,-0.0162503193026898,0
67,13.433366700033368,0.9901835333242447,0.07021808368706818,0.12085524836278647,0.9993082301538194,-0.03645514992430339,0.007354127469509204,0
68,13.633366700033369,0.9927505369030898,-0.08141162648180833,0.08842238716645148,0.9966157218276938,0.06273603031469997,0.0531158498587584,0
69,13.833366700033368,0.9303864019597688,0.3656361604307126,-0.02629336862863877,0.9939529464508262,0.08166709918941367,0.07340316853997299,0
70,14.033366700033367,0.9761238870524643,-0.18760878407598003,0.10947648726151568,0.9935003584508211,-0.020053016704701845,0.1120487138664752,0
71,14.233366700033368,0.9122503592361504,-0.3787579567393924,0.15601824342081144,0.9532332055481143,-0.2681490297443309,0.13943655793098197,0
72,14.433366700033368,0.3991840478455267,-0.9168361513338598,0.007972926249273688,0.7455351848729602,-0.6469728994485379,0.16001048558014372,0
73,14.633366700033369,0.1085733644333855,-0.9940742245651182,-0.00531606911868532,0.2755720725881018,-0.9411542844763208,0.19567484667519947,0
74,14.833366700033368,-0.6280067194988755,-0.7773095965400046,-0.03738116358644078,-0.37052448801638826,-0.9164565076646196,0.15105983364005954,0
75,15.033366700033367,-0.823424248648936,-0.5616045227612373,-0.08107321845750583,-0.8129698589909594,-0.5696319941508087,0.12082797528715233,0
76,15.233366700033368,-0.9962013169655382,0.067812477567037,-0.05462969853795336,-0.9772994924874698,-0.18943362871733183,0.0948715041238336,0
77,15.433366700033368,-0.6816281099465787,0.7297938700281587,-0.05276387969035497,-0.9276948644665836,0.36857750269621264,0.059437891521748686,0
78,15.633366700033369,-0.3910660911058923,0.9203576079453043,-0.0030308223893029938,-0.5867068677830977,0.8067604083063714,0.07009061909759325,0
79,15.833366700033368,-0.11837328135642589,0.9915294577500846,0.053451853800741654,-0.3367794220994121,0.9401015744170765,0.052807675852288814,0
80,16.033366700033366,-0.06608465000453595,0.9969739199848501,0.04093680378119306,-0.22449028665025955,0.9728097805658258,0.05696702585842271,0
81,16.233366700033365,0.28225889646690483,0.9585713584589494,0.03835187228089025,-0.06575935503655028,0.9944058825975974,0.08265983232786306,0
82,16.433366700033368,0.24940507801129913,0.9680936745057409,0.024325797913943997,0.007412679405431832,0.9965886645180371,0.08219541312134146,0
83,16.633366700033367,-0.4593411240728362,0.8882520043056383,0.0037561393105106657,-0.0731753809393863,0.9950467408518234,0.06728556416156313,0
84,16.833366700033366,-0.6245196729279434,0.7808430966990139,0.016100821825892474,-0.35643623149706094,0.9333433901813277,0.04270045527860172,0
85,17.033366700033366,-0.7932591329486941,0.6075588646215843,0.04015188679523766,-0.6985714698702892,0.7122970466723263,0.06805011965563032,0
86,17.233366700033365,-0.9964181550418016,0.06469893726365844,-0.05445096711763358,-0.9585617789366389,0.26862581008560976,0.09486564245118474,0
87,17.433366700033368,-0.9624386499249754,-0.26736773511049894,-0.04718410063223473,-0.9887894268597157,-0.11077109959491706,0.10012608463815958,1
88,17.633366700033367,-0.9799231071992052,-0.1818872107916426,-0.08165627059504807,-0.9595236196161233,-0.25958407357251573,0.10922697535990071,1
89,17.833366700033366,-0.9931996250034113,-0.11639427584742325,0.002622487948028843,-0.9577082994751466,-0.24226749806762546,0.15524584534368793,1
90,18.033366700033366,-0.9975597695204675,-0.06981621199003986,0.00045030837625242067,-0.9676356554535719,-0.19274851712645183,0.16287801398743187,1
91,18.233366700033365,-0.9584413144536285,-0.28279928041907676,0.037614009927862915,-0.9753959745951089,-0.1493347963246766,0.16217833193841164,1
92,18.433366700033368,-0.9458084760816323,-0.3192962395490644,0.05912899442715939,-0.9616943999699048,-0.18774387752405136,0.19974012495930615,1
93,18.633366700033367,-0.4052614017773987,-0.433351637385605,0.8049655611295635,-0.7703462349057072,-0.3246540220766082,0.5487863375814688,0
94,18.833366700033366,-0.3134654644572529,-0.29826018022578243,0.9015432698901825,-0.5123195496903437,-0.3311245788793274,0.7923920697906258,0
95,19.033366700033366,-0.27346753976368626,-0.2395044885870094,0.931586337728432,-0.4086096558476999,-0.2786390599705016,0.869136596517935,0
96,19.23336670003337,-0.3055612765141561,0.12573987863733638,0.9438335601234508,-0.3970921881325824,-0.1395164871118694,0.9071124207880971,0
97,19.433366700033368,-0.2752812443456548,0.2569054351407981,0.926401551114108,-0.4254079072821268,0.0761919472908802,0.9017887222569735,0
98,19.633366700033367,-0.49070368909240836,0.48043750887631603,0.7269041818395466,-0.48380840047948576,0.30610388900126273,0.8198962378031651,0
99,19.833366700033366,-0.5667180911878283,0.5679362944545646,0.5968910876882337,-0.5150379061413946,0.5018183851519009,0.6949203289306097,0
100,20.033366700033366,-0.6883715181638221,0.719361674470305,0.09307757132689916,-0.5715955503477633,0.6534990006211896,0.4962031670694418,0
101,20.23336670003337,-0.6612913542611062,0.7340041364158114,-0.15469865062110577,-0.6041269150926768,0.724542021528269,0.3317672821426718,0
102,20.433366700033368,-0.6736834028135912,0.7276114782821705,-0.129353041887447,-0.6293878381496009,0.7410863964461841,0.23379884985127944,0
103,20.633366700033367,-0.8266385584814582,0.5593725196179827,-0.06140910297281781,-0.6699997730337129,0.710997596668034,0.21350110460382396,0
104,20.833366700033366,-0.8408219578790994,0.5367258298337683,-0.0703122943560447,-0.7066250644884515,0.6767836700028762,0.20650637339832933,0
105,21.033366700033366,-0.6583368384689187,0.7184660412460706,-0.22449756054565154,-0.7016905924675851,0.6877553213133412,0.18607237959372896,0
106,21.23336670003337,-0.6214215264979913,0.7384578320115144,-0.2617543060691851,-0.68204478640002,0.7175561962632192,0.14116661981081702,0
107,21.433366700033368,-0.7042794895582558,0.6025596451027453,-0.3753828374888981,-0.7357516499523282,0.6772351048996677,0.004703433210199277,0
108,21.633366700033367,-0.8808318639248903,0.062264075743117736,-0.46931696364659486,-0.8629822066465417,0.464411777178285,-0.1989558047144462,0
109,21.833366700033366,-0.8598922685759863,0.013776155985176952,-0.510289627534713,-0.925624301994273,0.18053306630139593,-0.3326070707748568,0
110,22.033366700033366,-0.680787550424302,-0.12938328152421297,-0.7209634371098892,-0.8850903841085025,-0.0634435221055872,-0.4610747569120452,0
111,22.23336670003337,-0.4740683308496642,-0.14395139797704617,-0.868641014865098,-0.7755129329832341,-0.1633210645948499,-0.6098408978047857,0
112,22.433366700033368,-0.2680490412676468,-0.12080788144962964,-0.9558007989404214,-0.6032576869026436,-0.19268044855301183,-0.7739214481704729,0
113,22.633366700033367,-0.16312896186354833,-0.13908664585469072,-0.9767516812098215,-0.45990025555086733,-0.23222969246761235,-0.8570654145866846,1
114,22.833366700033366,-0.12222118302148106,-0.054234107786024124,-0.9910200018029324,-0.40691210970580016,-0.24093832305633126,-0.8811193219181939,1
115,23.033366700033366,0.007214027346153778,-0.02212356052073117,-0.9997292162777552,-0.3793476044993792,-0.21919518099494256,-0.8989153839985036,1
116,23.23336670003337,0.006931327915598839,-0.022234417836136375,-0.9997287568919956,-0.3753191985446159,-0.22018447190082524,-0.90036342525537,1
117,23.433366700033368,-0.05095624509783235,-0.029405026287448646,-0.9982679026767135,-0.38215798561410563,-0.22137212784609014,-0.8971898656606994,1
118,23.633366700033367,-0.16751580548776007,-0.04115031117832644,-0.9850102064454531,-0.39675573263515856,-0.22480669981201815,-0.8899701322745435,1
119,23.833366700033366,-0.3932662386402325,-0.6770727291200649,-0.6220242640184317,-0.5028462710098359,-0.4155076637018447,-0.757957128824934,0
120,24.033366700033366,-0.05251685104740389,-0.9324651715009907,-0.3574222772767426,-0.4800346101562932,-0.7074837935881676,-0.5186843499298883,0
121,24.23336670003337,0.1304644594383652,-0.9016884552153215,-0.4122341016399088,-0.30181237517907533,-0.8892972188388117,-0.34359823450407845,0
122,24.433366700033368,0.16231444150824842,-0.89116919083389,-0.4236407621869447,-0.14483380793859357,-0.9461905216870244,-0.2893901600739798,0
123,24.633366700033367,0.18002754161164525,-0.898003145222425,-0.4014728327445084,-0.1025652994370771,-0.959431494403704,-0.26262438366925916,0
124,24.833366700033366,0.30703634293197324,-0.9503177734994994,0.051232933645402316,-0.04896800956265529,-0.9898419770780855,-0.1334728229027106,0
125,25.033366700033366,0.2748031017578229,-0.9605401498683069,0.04296365621371331,-0.03202540088331446,-0.9989752213876255,-0.03198250696565255,0
126,25.23336670003337,0.06510061993821731,-0.9978635895406232,-0.005492354027466494,-0.09786070212580988,-0.9951635720108118,-0.008529239246585087,0
127,25.433366700033368,-0.509520814776299,-0.8481433240423295,-0.14505668268688887,-0.28344216232168884,-0.9589248952775041,-0.011116916633369903,0
128,25.633366700033367,-0.5299380944632237,-0.8428434850069737,-0.09370419317184497,-0.44367282249221407,-0.8959465362839383,0.02083820296009244,0
129,25.833366700033366,-0.515495073045177,-0.8560967220363477,-0.03692197428047585,-0.5272659844883134,-0.848500249801583,0.0451431909397323,0
130,26.033366700033366,-0.5711391419072817,-0.8203032335196829,-0.030044727633429073,-0.6171374707615485,-0.7828197193000174,0.07959038419985758,0
131,26.23336670003337,-0.8521421329920725,-0.5227227509036927,-0.02479336337403583,-0.6975744493046641,-0.7028927503763405,0.13903837292516885,0
132,26.433366700033368,-0.9608266077514409,-0.26121687680453576,0.09261734777752456,-0.8504214175291094,-0.4714361266453545,0.23351957327257516,0
133,26.633366700033367,-0.9991386771338806,-0.03912156526741832,0.013834991369212193,-0.949575130663521,-0.25595146756688303,0.1810964314273376,1
134,26.833366700033366,-0.9865950634110043,-0.13937878897414632,-0.0848748139151836,-0.9676762482668382,-0.18184010969842052,0.1747479700742839,1
135,27.033366700033366,-0.9848053157306556,-0.06101913155131672,-0.16258891626850475,-0.9614450682810365,-0.19165935584275398,0.19720565913790197,1
136,27.23336670003337,-0.9835445390042574,-0.08490557796720416,-0.1594715730936344,-0.9641124115419519,-0.17621358877474025,0.1985850675199145,1
137,27.433366700033368,-0.9796916240807729,-0.19694967827449325,-0.03761842545284761,-0.9596881975429783,-0.17056781213645394,0.22339468426910522,1
138,27.633366700033367,-0.9904535994446211,0.13543699334227768,-0.02566102456251847,-0.9692973016553772,-0.1397203969693039,0.20233870532931897,1
139,27.833366700033366,-0.9709193535607026,0.23805507914201765,-0.02540449125559041,-0.9808421462651534,-0.0306881561338997,0.1923718305341745,1
140,28.033366700033366,-0.9824860935753804,0.0183467989510045,-0.18543050153424195,-0.9831818685919312,-0.027673706005516947,0.18052030153974033,1
141,28.23336670003337,-0.9803126545193263,0.0018664325503157417,-0.19744268996042338,-0.9794734489208119,-0.06938674876311485,0.18925443708207831,1
142,28.433366700033368,-0.9673951406645243,0.2213756075304036,-0.12304260322835557,-0.9822906452405306,-0.0458702787501626,0.18166178959903628,1
143,28.633366700033367,-0.9595186487546221,0.25081588549725514,-0.12812241909335176,-0.9852480319279646,-0.004472099810589264,0.17107400710031018,1
144,28.833366700033366,-0.9480399765256036,0.2907972459157407,-0.12906263857969583,-0.9844193069636001,0.058181860726116336,0.16593221254401538,1
145,29.033366700033366,-0.9733718267647654,0.22604393466849898,-0.03809759126516146,-0.9760991530556624,0.11905823950044163,0.18181193308216714,1
146,29.23336670003337,-0.9788237737705007,0.2021848454659498,-0.03202043356336155,-0.9762061730691101,0.11296678771906564,0.18509460428169888,1
147,29.433366700033368,-0.9796986935906244,0.1975186273537131,-0.03430541684820504,-0.9772653445540278,0.11060804104556846,0.18088202671840986,1
148,29.633366700033367,-0.9786480975241323,0.2027888309862107,-0.03353492566925957,-0.9770481280890344,0.11600346526504451,0.17866211530208526,1
149,29.833366700033366,-0.9761748044107582,0.21306705783832577,-0.041050945150354796,-0.9764938328521765,0.12253680651535642,0.17732604278752734,1
150,30.033366700033366,-0.975513093078729,0.21653628673324898,-0.03855180618009115,-0.9768202533009362,0.12251039389327124,0.17553744936397686,1
151,30.23336670003337,-0.9752356159052442,0.21809446232595636,-0.03674641441924853,-0.977177170225703,0.12145568040895506,0.1742793610445171,1
152,30.433366700033368,-0.9743515787735813,0.2219967866230989,-0.03682971178882418,-0.9774397573523456,0.12309063960431342,0.17163978323450674,1
153,30.633366700033367,-0.9839223672368477,0.17858163171475405,-0.002318634325155498,-0.9772748465098495,0.11921796222872233,0.17527393377562175,1
154,30.833366700033366,-0.982129105960728,0.18702239322826,-0.021096057829735778,-0.9771597520691204,0.11833630373838902,0.17650874809411413,1
155,31.033366700033366,-0.9538029202549385,0.2655641667057321,-0.14048367405161813,-0.9767455887500414,0.12058351136281142,0.17727851433478875,1
156,31.23336670003337,-0.9539012530687616,0.26444836513298375,-0.14191357078285,-0.976391349359014,0.11869854972231042,0.18047323123029646,1
157,31.433366700033368,-0.9681399582729195,0.24986059913591843,-0.016574142353365417,-0.9764863057136077,0.11521194464993749,0.18221059948249443,1
158,31.633366700033367,-0.9676569177602284,0.25173492734898634,-0.016419983659408433,-0.9764595540829277,0.11467994994260758,0.18268893869452282,1
159,31.833366700033366,-0.9909618159041351,0.13377926321557898,-0.009888789282627094,-0.9783341499681911,0.114832377139012,0.17226670069000863,1
160,32.03336670003337,-0.992062468979841,0.12504759431469767,-0.013234681625526497,-0.9796749558195896,0.10728022660655426,0.1694931677653462,1
161,32.23336670003337,-0.9987399603440354,0.04909617241685447,-0.01039506931237908,-0.9845203398160187,0.012521849837763862,0.17482249216045345,1
162,32.43336670003337,-0.9593167311094101,-0.282020455896681,0.01326166917790743,-0.9830320657203384,-0.041432312667047916,0.17869337210054587,1
163,32.63336670003337,-0.9486801354091537,-0.31535445504282283,-0.02361288556518111,-0.9816482488371535,-0.08563023573559353,0.1703941850029423,1
164,32.83336670003337,-0.940960201710437,-0.33794215511001613,-0.019723047346996325,-0.9795579785529671,-0.12217518710834185,0.1598104824730429,1
165,33.03336670003337,-0.9331832721788438,-0.3587385752920002,-0.021808602042585085,-0.9748532760804101,-0.15928032393703326,0.15585528069913598,1
166,33.23336670003337,-0.9878813723897542,-0.14348185355638643,-0.05918911880877957,-0.9707180968452227,-0.18532590939714488,0.1528420222429357,1
167,33.43336670003337,-0.9868470405011397,-0.1406258158755652,-0.07973266936127348,-0.9684466443708879,-0.19617847131718508,0.15370460109710338,1
168,33.63336670003337,-0.9872867664714315,-0.14629943666036097,-0.06213948489685428,-0.9681965655408333,-0.19391781611186576,0.15808634055268367,1
169,33.83336670003337,-0.9870808074584404,-0.14946056686639278,-0.05773230031074487,-0.9683530700790461,-0.19142422145651414,0.16015336121434817,1
170,34.03336670003337,-0.995751176175685,0.0910714365920697,0.013623090023805375,-0.9703608776202175,-0.18227500566972363,0.15866817416301102,1
171,34.23336670003337,-0.9916604317873692,0.12718949507628005,0.020794719751169168,-0.9744669127799302,-0.1566713132706211,0.16083636247817415,1
