,timeStamp,x_gaze,y_gaze,z_gaze,x_head,y_head,z_head,fixations_head
0,0.033366700033366704,-0.999887882643914,0.00748445921952859,-0.012969387497558325,-0.9862433245031268,-0.07810414495236846,0.14568406712567913,1
1,0.2333667000333667,-0.9998989422882931,-0.005980908207535948,-0.012897051902118678,-0.9857327503630817,-0.09170719623500388,0.14114083399338717,1
2,0.43336670003336675,-0.974841813170447,-0.19402596553031373,-0.10971492147645814,-0.9879086457575578,-0.09690100878550392,0.12102356024270769,1
3,0.6333667000333668,-0.9512689588547116,-0.3078135653426125,-0.018389587013917786,-0.9846063092477462,-0.13359726828677146,0.11270397373582124,1
4,0.8333667000333668,-0.9409188649717425,-0.33747915094677033,-0.02791974599696492,-0.9763843891058372,-0.1881595948359646,0.10615786160989962,1
5,1.0333667000333666,-0.9315741996861693,-0.3622953427340539,-0.030192633410953396,-0.967134202743216,-0.23272547867387136,0.10242209459028513,1
6,1.2333667000333668,-0.923275423108211,-0.3824757273083508,-0.0357044969758953,-0.960979790520951,-0.26079049815621125,0.09222883649783756,0
7,1.4333667000333667,-0.9963123913819051,0.047244447765722425,-0.07162109280220345,-0.9810786883256026,-0.17564860825768822,0.08143815893334085,0
8,1.6333667000333667,-0.9278543155867184,0.36570196232825686,-0.07313305542888997,-0.997139020693215,0.006051370652945414,0.07534689326174707,0
9,1.8333667000333667,-0.888826483321446,0.45620431240253806,-0.04318689490758777,-0.9538473139446547,0.2921458694670199,0.06947008445313926,0
10,2.033366700033367,-0.6730918951028901,0.7390658327354173,0.02699991907218125,-0.7611103127347596,0.6447241662590074,0.07100592433328602,0
11,2.233366700033367,-0.28674121210019915,0.9556678593155951,0.0669209978590922,-0.4505734049825734,0.8886834978049282,0.08500145558523328,0
12,2.433366700033367,0.09630506954461826,0.9923288235080664,0.07751670539376176,-0.07211098443141722,0.9915564189454836,0.10777696401523297,0
13,2.633366700033367,0.3621851578796663,0.9311427183183132,0.04236920502515823,0.189139158663924,0.9762944867122938,0.10523998230274327,0
14,2.833366700033367,0.23869722925067927,0.9698930237456346,0.04828203845737026,0.23647821824795445,0.963898427793268,0.12238412148616071,0
15,3.033366700033367,-0.204712888006566,0.9756718586034282,0.07846692177818432,-0.13263984558848874,0.9820594940825473,0.13403664217143396,0
16,3.233366700033367,-0.6650148592714629,0.7439343053735304,0.06570377642540276,-0.6326832429395454,0.755746323301426,0.16899529259679644,0
17,3.433366700033367,-0.9964335748073911,0.0034817891028915567,-0.08430900391539853,-0.9784166208875408,0.1923644367771924,0.07547741009335332,0
18,3.633366700033367,-0.8654998651347061,-0.49063983010619333,-0.10090857528065439,-0.9508966889178926,-0.30950744421968407,0.0007930810725595041,0
19,3.833366700033367,-0.885773410249228,-0.45653517457886245,-0.0835529776112178,-0.8420319814116743,-0.5393117429396173,-0.011179723044953974,0
20,4.033366700033366,-0.7736449899718051,-0.630411462476309,-0.06367744867696216,-0.7452241891332989,-0.6665354304398727,0.019272464786607706,0
21,4.233366700033367,-0.27037932671915094,-0.9621298728390416,-0.03465728601071708,-0.49940432534309703,-0.86442417620611,0.05801864716618858,0
22,4.433366700033367,-0.1961714662738845,-0.9803293243829012,-0.021706486931755916,-0.18295916721468408,-0.9818190524299193,0.05056966895012015,0
23,4.633366700033367,-0.021500645037813848,-0.9994589121271723,0.02489187081212061,-0.051395532868406646,-0.9949087996033754,0.08668898241958847,0
24,4.833366700033367,0.2879918464101723,-0.9571479070960365,-0.03047261627982129,0.10729769646931242,-0.9898119798038751,0.09359192790573774,0
25,5.033366700033366,0.6598297094285044,-0.7510068417786148,-0.024768491217797194,0.3532670883228282,-0.9282538627037855,0.11639214184562688,0
26,5.233366700033367,0.8648024019609035,-0.5017858424506411,0.018104526471360637,0.7947783277813959,-0.5934188486583724,0.1272064453790777,0
27,5.433366700033367,0.9839873667921608,0.17823178646463236,0.0015140300708406833,0.9884232588745252,-0.10356534971405623,0.11087686708447658,0
28,5.633366700033367,0.9671543794357739,0.25207123241659807,0.03274904771410657,0.9790843644359921,0.1280027525348479,0.1581426655285413,0
29,5.833366700033367,0.8747170219332567,0.4841012365947037,-0.022718368508615694,0.9433474089325747,0.3078116598295847,0.12388562520790684,0
30,6.033366700033366,0.848274186240316,0.5255349719014775,0.06514520908587909,0.9245699808390261,0.35109974065065647,0.1479841972859422,0
31,6.233366700033367,0.8663721000833793,0.481980318863592,0.13074538777817388,0.9316300854219196,0.28162834235781875,0.22967555533302716,0
32,6.433366700033367,0.8335852525494599,0.23973370000594846,0.4976578943546576,0.9151710328078457,0.15954341957380502,0.37014575234644803,0
33,6.633366700033367,0.7696030725775189,0.16475131068350427,0.6169020313690902,0.8202506376171276,0.03457119155007484,0.5709586011292797,0
34,6.833366700033367,0.6630600029701038,-0.16714589917087472,0.7296668286633604,0.7501489572217457,-0.12066885546740459,0.6501658013917023,0
35,7.033366700033366,0.4828838220516875,-0.5702755717191562,0.6645366706970683,0.6585216155607801,-0.3266229488081662,0.6779872647410703,0
36,7.233366700033367,0.373590359536509,-0.8178497185898869,0.4376666323399866,0.522032716567399,-0.6726783059028655,0.5243908271517654,0
37,7.433366700033367,0.1114914783325699,-0.9867944350632991,-0.11750060930617695,0.24053016149478101,-0.938712785031488,0.24690797603504477,0
38,7.633366700033367,0.1464538901359722,-0.9795711197132022,-0.13781030254616009,0.12598469736384293,-0.9863499778180748,0.10602630470041051,0
39,7.833366700033367,0.17782860714615167,-0.9770597146065362,-0.11718063224549351,0.11130609965065458,-0.9904831248430997,0.08095759125373846,0
40,8.033366700033367,-0.23297343043578106,-0.9685377390499788,-0.08751016367793975,0.03543914187711156,-0.9973718276334662,0.0631941822171445,0
41,8.233366700033368,-0.30428782219853184,-0.9505064070174019,-0.06282110696687948,-0.07047863639822172,-0.9939577009386891,0.08414778996576924,0
42,8.433366700033368,-0.5035783615034265,-0.8630919651472699,-0.038484977897205196,-0.21755503886772165,-0.9687791171684949,0.11889839023929634,0
43,8.633366700033367,-0.5278354743234126,-0.8474108491834798,-0.05731112223566896,-0.39779557917713965,-0.9091494162455348,0.12331267626455829,0
44,8.833366700033368,-0.4661033752280675,-0.8781173676665196,-0.1079700523452018,-0.508046222920383,-0.8503270332598573,0.1372332754248112,0
45,9.033366700033367,-0.6353166633522405,-0.7496129433128103,-0.18561565797335508,-0.5618039652572909,-0.8178551318471019,0.12445596784624016,0
46,9.233366700033368,-0.5788006290962111,-0.7858227394873898,-0.2178817428385515,-0.6056190382912318,-0.7883678912884355,0.10817415793353337,0
47,9.433366700033368,-0.7695866596133649,-0.6276554875381768,-0.11740937913283042,-0.6768304107269,-0.7286676326416103,0.1046139391081684,0
48,9.633366700033369,-0.8774693137082694,-0.4736739781244088,-0.07536952930817485,-0.8029681158382128,-0.5849309344467242,0.11444652408226584,0
49,9.833366700033368,-0.9411120706103705,-0.3293891712511129,-0.0762288948756719,-0.9221654835119727,-0.3785683305071119,0.07935263169037181,0
50,10.033366700033367,-0.9962023668859226,0.06476658616408464,-0.05819049344640316,-0.9759713314917063,-0.2088581021124223,0.06211483951764656,0
51,10.233366700033368,-0.9900782143633529,-0.14004269736196312,0.011540032870850696,-0.9838754602241704,-0.15105016658622775,0.095775393201747,0
52,10.433366700033368,-0.9847901175834503,-0.17314512111898003,0.014463448505382951,-0.9788719142785925,-0.16026212811911608,0.12698750224843458,0
53,10.633366700033369,-0.987438762238249,-0.15774323072027915,-0.009042344348912096,-0.9835077308956399,-0.1361100438259622,0.11910751125854582,0
54,10.833366700033368,-0.9976123508518384,0.042778882807945624,-0.05421775183067457,-0.9905616258169763,-0.0766380781036354,0.11364097167575575,0
55,11.033366700033367,-0.959242550821055,0.28253995106756763,-0.004990465414374811,-0.9953935687654015,0.040174295271060846,0.08704980907475843,0
56,11.233366700033368,-0.9572226876607486,0.28883651423912393,0.01726830245638704,-0.9744752492548806,0.20187172195234696,0.09821301576488094,0
57,11.433366700033368,-0.8075898489746657,0.5894915162070965,-0.01727391539100599,-0.9287097864613353,0.34638130112613713,0.13235606053787471,0
58,11.633366700033369,-0.7718293905396014,0.6355765136131283,-0.01794121630905557,-0.879993104558645,0.45505335512205203,0.1361564538367591,1
59,11.833366700033368,-0.7342581094717346,0.6775867828128025,-0.04172745418055473,-0.8369592742511881,0.532017619881014,0.12828259968158376,1
60,12.033366700033367,-0.7338355763497725,0.6769562954341369,-0.056705563708397494,-0.8274939421754982,0.5498060023856705,0.11387333051922936,1
61,12.233366700033368,-0.8243126396600249,0.5659804111913598,0.013222943862150836,-0.8467976166093157,0.5185738409472506,0.11838483006702183,1
62,12.433366700033368,-0.8315732360030619,0.5551239014372461,0.017983526252851947,-0.8603536638520214,0.49285115114233385,0.12995890086515616,1
63,12.633366700033369,-0.9358879153168691,0.3236426845834933,-0.13917335477538234,-0.8772293719997011,0.46300157584910684,0.12687856265836897,1
64,12.833366700033368,-0.9489575261776573,0.2771800839011367,-0.150501875733627,-0.9100423475473354,0.3984440717589729,0.11430331294702423,1
65,13.033366700033367,-0.9837230333353603,-0.010511632682241465,-0.17938366498606173,-0.9654205105750555,0.24093056468573365,0.0995776117468845,0
66,13.233366700033368,-0.9882501499353165,0.024088154642624298,-0.1509350918730892,-0.9872958556024036,0.10434293275983376,0.11983090541840476,0
67,13.433366700033368,-0.9957424560083779,0.058067569819220476,-0.07158993391317775,-0.9852313532607673,0.10421467379711598,0.1358619973256625,0
68,13.633366700033369,-0.9977186896569763,0.0542919624506216,-0.0401223020579175,-0.9849692483868955,0.08847406872031417,0.14835066193390323,0
69,13.833366700033368,-0.9843519496668149,-0.17473984304932377,-0.022742612827862465,-0.9871524193878776,0.05947289373035201,0.14830062645855047,0
70,14.033366700033367,-0.9832116046124295,-0.1814468028043328,-0.01928725764688067,-0.9879786116504921,0.04137983802695972,0.14894956168458048,0
71,14.233366700033368,-0.8317645155691608,-0.55510126526324,-0.0055114374848634715,-0.9787948853553701,-0.12220477119699459,0.16439758604936372,0
72,14.433366700033368,-0.828803239671154,-0.5594629211705008,-0.009296759971612036,-0.928760013210385,-0.32288688525623543,0.18206838602835976,1
73,14.633366700033369,-0.8596361032790175,-0.5097222858638166,-0.03477011983057076,-0.9297399069824911,-0.3226998959939512,0.1773371999600809,1
74,14.833366700033368,-0.8630263289025135,-0.5043937120557515,-0.02779458327931025,-0.9232873380130537,-0.33360836444534536,0.19038369320104812,1
75,15.033366700033367,-0.8730982953230874,-0.48678293706372855,-0.027234883651845964,-0.9273356574654044,-0.31912551306718234,0.19546735098940202,1
76,15.233366700033368,-0.8767495251848327,-0.4798533258318743,-0.03241999038031417,-0.9304004253469136,-0.3109753950922097,0.1940344097358161,1
77,15.433366700033368,-0.8800032977583632,-0.4733501888546209,-0.03916369039941053,-0.9325190343615797,-0.30724609776810186,0.1897579667882772,1
78,15.633366700033369,-0.8944782459732512,-0.44450045987953446,-0.04824944193976289,-0.9438626444665731,-0.27669895141419815,0.18044666432730366,1
79,15.833366700033368,-0.9812769255982966,0.19206428814943452,-0.014384175541415252,-0.9791754436512852,-0.10252578396225315,0.17522532400664595,0
80,16.033366700033366,-0.9597300281964888,0.2798848322331554,-0.02414029129454022,-0.9705950550375471,0.1457555357177706,0.19157390987367515,0
81,16.233366700033365,-0.7800049864563686,0.6254604474480661,-0.019785089872559065,-0.8897192102910194,0.4150976710485791,0.1899832896050883,0
82,16.433366700033368,-0.6392814948805089,0.7687074334249072,0.020200299518422154,-0.7805148030555769,0.5960636942008202,0.18842694782537184,0
83,16.633366700033367,-0.5470680593695411,0.8367177651662079,0.024898190153322352,-0.6698259418929366,0.713238720838239,0.20645516381111173,0
84,16.833366700033366,-0.46080339244283675,0.8874887454153814,-0.004894923309438342,-0.5717965585651907,0.7972070634644105,0.19367393623163567,0
85,17.033366700033366,-0.45123510489585306,0.8924022493308152,0.0022595351137222734,-0.500883373271823,0.8437442692783917,0.1929027071860635,0
86,17.233366700033365,-0.41604254644626976,0.909320158557865,0.006741571538058041,-0.44759484743542227,0.8730154232498025,0.19365671513590604,0
87,17.433366700033368,-0.33764186200851215,0.941088884988176,-0.018699828104471995,-0.34008904428863596,0.9269716583008459,0.15831293902212254,0
88,17.633366700033367,0.12748526351839984,0.9905848383485313,-0.04989173899212391,-0.013182893222054515,0.9919525350119517,0.12592211723783325,0
89,17.833366700033366,0.5650042659700856,0.8249900517105448,0.012711963429679052,0.44113596776677605,0.8882602417623944,0.1280343736919201,0
90,18.033366700033366,0.7766072060188707,0.6221516937681474,0.09903795989916488,0.6658907807406657,0.73000477926264,0.15389116406828318,0
91,18.233366700033365,0.9205077156929004,0.39042856919745,0.015201240221474054,0.7508381113192089,0.6373489547308641,0.17328716194247804,0
92,18.433366700033368,0.9948664277113974,0.10064951910554812,0.010510248169516626,0.906251578445201,0.3702110566780454,0.20408784892518053,0
93,18.633366700033367,0.9934738624044398,0.1109032496140365,-0.026648713744775746,0.9635528469994358,0.21058938013837566,0.16497885928874942,0
94,18.833366700033366,0.9926824216163975,-0.11462920888655469,0.03797043960566786,0.9748851243253439,0.12038421199373697,0.18736764894667998,0
95,19.033366700033366,0.9841282173329533,-0.1332052644042363,0.11725190567347374,0.9769809994180588,0.05181902740598532,0.20693698358386498,0
96,19.23336670003337,0.9881316625981897,-0.06907377183164728,0.1372028841383692,0.9655406405788552,0.10979178703077068,0.2359598162636258,0
97,19.433366700033368,0.9592182378678663,0.14153020011470982,0.24468259970246387,0.881265885715544,0.31509777754976376,0.3522553466694262,0
98,19.633366700033367,0.5816590050571353,0.5542351170767793,0.5953958656514439,0.655488758341012,0.564600016067756,0.5015588794397406,0
99,19.833366700033366,0.39145636009938956,0.7671374578340128,0.5081948828212515,0.44931142879548414,0.702467920605602,0.5519583865417776,0
100,20.033366700033366,0.022586824099865566,0.8819820569007936,0.47074142231391464,0.21909346085170678,0.8108401093880605,0.5427120529521894,0
101,20.23336670003337,-0.4124724715141402,0.8910316389220877,0.18954967339152798,-0.14631116456117077,0.8720752370638339,0.4669880341345077,0
102,20.433366700033368,-0.562194354544684,0.8266708310220345,0.023512653092008423,-0.5274285663219762,0.7918426814826444,0.3079030289067005,0
103,20.633366700033367,-0.7438819572958549,0.6682722391163002,-0.00720055804606028,-0.7838325348886539,0.5799091618055268,0.22206287691561324,0
104,20.833366700033366,-0.962166790294861,0.2580067891858694,-0.08756462977529043,-0.9559168618144762,0.2532340034364768,0.1486455273538302,0
105,21.033366700033366,-0.9754352452500896,-0.2151782396412576,-0.0471636248478346,-0.9871901583458327,-0.13303209575102426,0.08807980906666593,0
106,21.23336670003337,-0.9420896089199788,-0.3343820591691871,-0.025608734267345255,-0.9504346458774792,-0.293001387639365,0.10403927507031903,0
107,21.433366700033368,-0.8732304954715213,-0.4858081624042493,-0.038195956853685126,-0.8983352917120149,-0.424184045091884,0.11428735518059599,0
108,21.633366700033367,-0.618621299928593,-0.7854438805487268,-0.01963664388879563,-0.8007756879885238,-0.5898343683194067,0.10418116660775566,0
109,21.833366700033366,-0.5981567272633008,-0.8003432997217721,-0.040732446773094295,-0.661818102693973,-0.7447821834899004,0.08541837098988705,0
110,22.033366700033366,-0.37487670298085307,-0.9262398629089624,-0.03933413175083819,-0.5312389459012931,-0.8436323988722891,0.07790736762765278,0
111,22.23336670003337,-0.09944422679003206,-0.9950218750383962,-0.006504917617233307,-0.3793326316793051,-0.9212326830903673,0.08623861170830557,0
112,22.433366700033368,0.028155799263977155,-0.9996016956593523,0.0019237990422223137,-0.13003251405257815,-0.9882324775726097,0.08054883959355036,0
113,22.633366700033367,0.21821624313322419,-0.9758861774588855,-0.005276350775497691,0.13028393716854308,-0.9865891063030188,0.09832614626880241,0
114,22.833366700033366,0.3669138448087172,-0.9295498151388285,0.03621286598785684,0.2748142391816088,-0.954211230208591,0.11814424271559254,0
115,23.033366700033366,0.6700034265706842,-0.742031295291354,0.022021925251385934,0.4105922775057616,-0.9012086699389678,0.13869720573778094,0
116,23.23336670003337,0.7315382339163996,-0.6808636451855424,0.035728265884748166,0.5402786112973879,-0.8302627188712788,0.13697751577188644,0
117,23.433366700033368,0.7374345969400679,-0.6738287022139151,0.04631517363187556,0.6556943715448795,-0.7423379449199863,0.13783782737817982,0
118,23.633366700033367,0.912655055571316,-0.4080019279980031,0.024396235160992957,0.7600134773654236,-0.6330273295073037,0.14715948599994752,0
119,23.833366700033366,0.9978550445434805,-0.029630292884287923,0.058372560529071985,0.8988008899636285,-0.39495851010210614,0.19017028027142968,0
120,24.033366700033366,0.9946145097258925,-0.0393063636387934,0.09590092189451328,0.9402673971456577,-0.26959574622903426,0.2078830331704357,0
121,24.23336670003337,0.9860654750273111,-0.1466412983455473,0.0785570402872686,0.910062511875554,-0.36983892629544246,0.18709728238376747,0
122,24.433366700033368,0.8047172809206731,-0.5817761392179562,0.11818046210896144,0.6217829739907996,-0.7487601104036791,0.22966112061780772,0
123,24.633366700033367,0.1618428644811042,-0.9867030990024953,-0.014962674741609698,0.21504400605881502,-0.950469748422777,0.224417763983423,0
124,24.833366700033366,-0.14398447680581483,-0.9894500569545784,-0.016032942073671858,-0.10647448675870497,-0.9781962336398656,0.17831240047246252,0
125,25.033366700033366,-0.6167232295119895,-0.7802885774154196,-0.10393360445651274,-0.42028537924843623,-0.889331883185455,0.180136063962247,0
126,25.23336670003337,-0.6236367911448372,-0.778779933086918,-0.06766807631155586,-0.6088914612797452,-0.772654750017959,0.1795990691938635,0
127,25.433366700033368,-0.8903576364321666,-0.45374728715855034,-0.037103620351418606,-0.7345563595006389,-0.6619381491195369,0.1492140792866764,0
128,25.633366700033367,-0.8837723441843699,-0.4675290426791663,-0.019053553641420112,-0.8325222403783021,-0.5249692753493433,0.17695756331583518,1
129,25.833366700033366,-0.9016690891970163,-0.431406338027957,-0.02968880421861812,-0.890294940042217,-0.41937160531911544,0.17748908807950237,1
130,26.033366700033366,-0.9639843963738728,-0.2644038194577085,-0.02871765665711193,-0.8949784435278222,-0.40368249849579524,0.18987897732163375,1
131,26.23336670003337,-0.9684017023282224,-0.24724251992185728,-0.03269983593981923,-0.9056772777347668,-0.37717764025541295,0.19361223175796682,1
132,26.433366700033368,-0.8761845678465113,-0.48035226077227416,-0.039526050126308145,-0.90432793880418,-0.38268985131059885,0.18904882121308086,1
133,26.633366700033367,-0.9584986334348703,-0.28450156499625745,-0.018418176298605083,-0.9022104632161072,-0.3876669091570388,0.18902552104942277,1
134,26.833366700033366,-0.9667259069797365,-0.25457708948637714,-0.02513018668556157,-0.9156474405211698,-0.3586665960874292,0.18151594287579226,0
135,27.033366700033366,-0.9770579594778569,-0.21048530845779295,-0.032460418117980235,-0.9385596648435064,-0.30109010536370057,0.16867277190145732,0
136,27.23336670003337,-0.9812599847899905,0.19254169951563407,-0.007519055630816371,-0.9737846755765789,-0.1614805274931784,0.1602106265287721,0
137,27.433366700033368,-0.9797272001181133,0.19999684739333248,-0.011656516694578414,-0.9868400478761202,0.0015919580029865408,0.16169163731490221,0
138,27.633366700033367,-0.9681197446204615,0.24801580008974067,-0.03510445814791367,-0.9733749092265185,0.16421728825878898,0.15991863032554104,0
139,27.833366700033366,-0.7743985441184826,0.631865481690884,-0.032448542566993116,-0.9235420707087999,0.35097737254613104,0.15454749299654308,0
140,28.033366700033366,-0.7697085452619918,0.6355274090548291,-0.060445576270926206,-0.8495031855677029,0.5088584324291289,0.13931056476841572,0
141,28.23336670003337,-0.7553413230597663,0.6511131650134305,-0.07423699902686827,-0.7673426115004391,0.6261362930231595,0.13834254275132488,0
142,28.433366700033368,-0.7289063583625096,0.6801965258027223,-0.07764152899454779,-0.7023482680622528,0.6986319363301178,0.136456322277806,0
143,28.633366700033367,-0.7015657325272673,0.7095945951068645,-0.06542960750764319,-0.656773912693529,0.7416194894190877,0.13655973242140107,0
144,28.833366700033366,-0.7005303270456061,0.7115073359695001,-0.054905115890607106,-0.6496576348436421,0.7472487185107404,0.13987247825580754,0
145,29.033366700033366,-0.47438393298578596,0.879814181537199,-0.02978069997441706,-0.6334667286545368,0.7609158423814703,0.1404527838834714,1
146,29.23336670003337,-0.43219359659957834,0.9014782999339047,-0.023357435788168686,-0.5808861855026591,0.8009951826725027,0.14483769132244034,1
147,29.433366700033368,-0.5003284503154213,0.865570522590113,0.021426904303884907,-0.5274646772189301,0.8287649349000438,0.18689488213018624,1
148,29.633366700033367,-0.6597546549144331,0.7463386702879932,0.08776323006525832,-0.5016077742523009,0.8373817268102121,0.21721299319792206,1
149,29.833366700033366,-0.6792185699718267,0.7273384836658364,0.0981879034510298,-0.519798243751835,0.822212566189587,0.23189713623165267,1
150,30.033366700033366,-0.6734183089716944,0.6739772106285842,0.30374742911672037,-0.5696459138049328,0.7685718887091698,0.29120574302606594,1
151,30.23336670003337,-0.41367161679252873,0.5054087329490922,0.7572567636667558,-0.5994392553630563,0.611933274207303,0.5159556638391659,0
152,30.433366700033368,-0.6422227042941231,0.2598004666019184,0.7211474992278409,-0.5924912180714099,0.5034251029271718,0.6289016793196084,0
153,30.633366700033367,-0.6553986642071655,0.20134137468192095,0.7279520875694069,-0.6156547682202417,0.4050516774070339,0.6759455192524236,0
154,30.833366700033366,-0.6743349321558996,0.07868816859632975,0.7342210643922263,-0.6685712002524747,0.2735259347713402,0.6915172544488175,0
155,31.033366700033366,-0.6993081063595075,0.1328512383108655,0.7023665146197887,-0.7251352874996815,0.18790223109056192,0.6624738231612954,0
156,31.23336670003337,-0.9607998722378571,0.20095498752258226,-0.19099921072485132,-0.9220318893735885,0.18043624818558304,0.3424908105612202,0
157,31.433366700033368,-0.9657103242408125,0.1654748755222308,-0.2000540807521985,-0.9814742965653924,0.11839711511512994,0.15063309169595868,0
158,31.633366700033367,-0.9808875233264558,0.11385946539011238,-0.15778367698709958,-0.9900691566409188,0.02484925676689658,0.13836755221681324,0
159,31.833366700033366,-0.9791035142066481,0.20311147142151684,-0.010101417978602464,-0.9895271156861969,-0.049557175494622255,0.13557349917572795,0
160,32.03336670003337,-0.9556662937946195,-0.29397441679426406,-0.016762373797534032,-0.9834377541820339,-0.11587187942290451,0.13936962082319598,0
161,32.23336670003337,-0.9417929480746314,-0.3355963957831071,-0.020027533404869083,-0.9679024922104957,-0.20546419336896304,0.1447384911347108,0
162,32.43336670003337,-0.7515898614609218,-0.6588730572929856,-0.03160655822051427,-0.9213822915527325,-0.362122613980389,0.14114490871811833,0
163,32.63336670003337,-0.6204351644344983,-0.7842297171691099,0.006630040874313016,-0.8111975579436547,-0.5683463003743154,0.13762632319828727,0
164,32.83336670003337,-0.5444425749140314,-0.8387939300004845,-0.002650587731419468,-0.6178181014624298,-0.7729285180630262,0.14450709141856408,0
165,33.03336670003337,-0.1630896297122989,-0.9861148931414243,-0.03129201503551214,-0.23625011458612538,-0.963482377047092,0.1260459935012927,0
166,33.23336670003337,0.09195041325725578,-0.9955299598346276,0.021568972471692573,0.06454764719439832,-0.989378421156296,0.1302456947155749,0
167,33.43336670003337,0.3194346351363082,-0.9458258658198153,0.05809428045453558,0.18222845120257136,-0.9708435385793458,0.15574214320808075,0
168,33.63336670003337,0.35767049672634516,-0.9290749850963862,0.09429468616883784,0.2633712310778181,-0.9410370644308859,0.212331905298887,0
169,33.83336670003337,0.27794005042297615,-0.8981454384110586,0.3407111677539801,0.3079310962657559,-0.89171384037925,0.33169996507183863,0
170,34.03336670003337,0.19296934965128199,-0.919540347556108,0.34235709326893327,0.22000799921177627,-0.9096892923405184,0.35222417816475676,0
171,34.23336670003337,-0.11111654932805076,-0.9929445753091554,-0.04140269109065711,0.01479404862222472,-0.9570522180887634,0.2895378869452864,1
