,timeStamp,x_gaze,y_gaze,z_gaze,x_head,y_head,z_head,fixations_head
0,0.03333333333333333,-0.9956525970985024,0.02230966184707589,0.0904333173077092,-0.9933352510744007,-0.06397615534675391,0.09587559918981042,1
1,0.23333333333333334,-0.9968450752492105,0.008006001859489324,0.07896708102508238,-0.9903013595298942,-0.08247099233463928,0.11181123707652402,1
2,0.43333333333333335,-0.9961141689146076,0.04101810329412363,0.07793636949276944,-0.9926860803771023,-0.042424623221579444,0.11302432114395787,1
3,0.6333333333333334,-0.9900094073902282,0.032096748567024866,0.13729957032079326,-0.988235842163785,-0.04178780128847923,0.14711797961605316,1
4,0.8333333333333334,-0.9895627605639928,0.021612103834093146,0.1424726635984399,-0.9894600540140259,-0.03572947095577334,0.14032892223551677,1
5,1.0333333333333334,-0.9989021592611941,0.009955148970116604,0.0457752250929106,-0.9914915512127896,0.04383033830237693,0.12257000170496506,1
6,1.2333333333333336,-0.9986915979640414,0.029008529403294597,0.04211409951415765,-0.9896297709809347,0.08171385535082884,0.11813450906457014,1
7,1.4333333333333336,-0.997678082293395,0.04777621863578298,0.04853737780555826,-0.9868682262974304,0.10613284475083468,0.12176585395610179,0
8,1.6333333333333335,-0.995014660117596,0.08782560012073926,-0.04724923400963146,-0.9861433524936813,0.13079447686089238,0.10204946425733392,0
9,1.8333333333333335,-0.9969009762651071,0.06763131482366931,-0.040180203793641386,-0.9893478718212092,0.11293759248446386,0.09184709427443954,0
10,2.033333333333333,-0.9966512433024909,0.06740237004454011,-0.04629492127629335,-0.9905664095878195,0.11134756541638174,0.07987432548785849,1
11,2.2333333333333334,-0.9866236110274809,0.05317616218056537,-0.15409784534132978,-0.9945205716614658,0.10044770000569632,-0.028967086593535432,1
12,2.4333333333333336,-0.9742329147745197,0.04880906072331445,-0.22019968973922666,-0.9908940081982847,0.09966380889053575,-0.09053281015283134,1
13,2.6333333333333333,-0.976477734353553,0.06809324796003638,-0.20458383096912985,-0.9906150253761568,0.11625939362974282,-0.0718722818048852,1
14,2.8333333333333335,-0.9982759009139334,0.05766553323251347,0.0109504306529264,-0.994495851312684,0.09525470057539373,-0.043641078586033964,1
15,3.033333333333333,-0.9990114572678752,0.03541633218870159,0.026866180633215244,-0.9975138387809181,0.0673775966082591,-0.020649477374774888,1
16,3.2333333333333334,-0.9995170180884967,0.030991164860210786,-0.0022974446864832496,-0.9977885783335875,0.060539550871324635,-0.027439309891771454,1
17,3.4333333333333336,-0.9988297807577152,0.03637007690862719,-0.031879249946557664,-0.9972068183521372,0.06522216287380393,-0.03639547914330382,1
18,3.6333333333333333,-0.9922833107662845,0.0485515129792234,-0.11409023517431291,-0.9963025397481753,0.07634757861284436,-0.03939919455130482,1
19,3.8333333333333335,-0.9866412635707547,0.06145932046758711,-0.15087003992565107,-0.9951164673830977,0.09019614593023294,-0.04009827430596199,1
20,4.033333333333333,-0.9806725260189991,0.07006825525427032,-0.18267960016689924,-0.9939305538257381,0.10018055376270274,-0.0454522916854603,1
21,4.233333333333333,-0.9754526139587398,0.07794346000257932,-0.20595391466026655,-0.992669945796737,0.1099169211372202,-0.050245886992050404,1
22,4.433333333333334,-0.9706409172615242,0.08188820376137244,-0.22616483330182685,-0.9916328096237876,0.11615524582134108,-0.056323438689561536,1
23,4.633333333333334,-0.9672877394591467,0.0867718797038781,-0.2383800956134339,-0.9904814185007657,0.1240490274333386,-0.059652312591836405,1
24,4.833333333333334,-0.964565935300212,0.08722788960377183,-0.24900572630704665,-0.9900162115036875,0.1256388450798181,-0.06389664754035158,1
25,5.033333333333333,-0.961394288601667,0.08438751918627296,-0.2619155750421907,-0.9895953833761928,0.12457595947222401,-0.07198477284885178,1
26,5.233333333333333,-0.9591377065658987,0.07998495364463737,-0.2713987233462484,-0.9894818840492919,0.12258789364665332,-0.07679719701617295,1
27,5.433333333333334,-0.9567808131483498,0.074941595743591,-0.2809879584939313,-0.9891961179324334,0.12094294819921855,-0.08284831650845022,1
28,5.633333333333334,-0.9557198973443406,0.07019354312736421,-0.2857837369819176,-0.9892552118243418,0.11864187478595903,-0.08542968702769173,1
29,5.833333333333334,-0.9996615727041276,-0.005728388421196466,-0.025375689641989514,-0.9908528713197566,0.10836413141941925,-0.08042264867006556,1
30,6.033333333333333,-0.8602635612384045,-0.11602606240236979,0.49647211205547026,-0.9997787841905137,0.021020099181412878,0.0007335618188232629,1
31,6.233333333333333,-0.872172929025982,-0.044265579872740324,0.4871908664094287,-0.9858409392272588,-0.07553779678789119,0.14970532321847402,1
32,6.433333333333334,-0.8883433517676409,-0.01430303579227521,0.4589569833190891,-0.9786174509472997,-0.06285783962898604,0.19584886187717881,1
33,6.633333333333334,-0.901046464328169,-0.008919893087782986,0.43363083911203537,-0.975510227075836,-0.0604404600228204,0.2114869917103204,1
34,6.833333333333334,-0.9042634051299462,-0.012680011264925803,0.4267867283048013,-0.9723779706647181,-0.0604960128276667,0.22543583255090477,1
35,7.033333333333333,-0.9122356887246185,-0.007360294589894261,0.4095996512213741,-0.9754346607748615,-0.04385559989581439,0.21587938511309782,1
36,7.233333333333333,-0.9211787812371778,-0.008279866821619818,0.38905153489454897,-0.9759953254897411,-0.03291564563395321,0.21528976960058788,1
37,7.433333333333334,-0.9281641521650167,-0.016377470609085246,0.37181055000126667,-0.9757128403205038,-0.03048504978181462,0.2169219098512081,1
38,7.633333333333334,-0.9332385090684437,-0.025928373302316052,0.3583205333909911,-0.9752399783679254,-0.03283864098952656,0.2186975268513327,1
39,7.833333333333334,-0.9393935477678429,-0.028514905546149636,0.34165283925915213,-0.9765548214341153,-0.03224837411116082,0.21283966524351103,1
40,8.033333333333333,-0.9420970256191099,-0.03363334093081952,0.3336495057653429,-0.9765607131325799,-0.0342432090406709,0.21250076752940072,1
41,8.233333333333334,-0.94158170864167,-0.04058018426974867,0.3343308759239362,-0.9758375012111182,-0.035454894823429346,0.21560176637286738,1
42,8.433333333333334,-0.9438661864142196,-0.03801062945149832,0.3281338357935354,-0.9766625790994097,-0.030597033585408842,0.21258887111667601,1
43,8.633333333333333,-0.9464532343369649,-0.03310532129732015,0.32113908655736567,-0.9770465235279497,-0.02624485704638851,0.21140316539863493,1
44,8.833333333333334,-0.9499774795037056,-0.028266230491348555,0.3110366676930503,-0.9780037482553241,-0.020711059188919675,0.2075565475377978,1
45,9.033333333333333,-0.9528542983319399,-0.03199315804523018,0.3017368455933742,-0.9784995645201582,-0.02281909768670335,0.20498266027795015,1
46,9.233333333333334,-0.9995160056445549,-0.028081514058803884,-0.01338592650956744,-0.9798081884792783,-0.01902356069095562,0.19903270567319684,1
47,9.433333333333334,-0.9738372971249418,0.02034919538397177,-0.22633344643603379,-0.9920110898326631,-0.003145800347523784,0.12611146493949799,1
48,9.633333333333335,-0.9690347923135874,0.018025017800861947,-0.24626544625473,-0.9979488032467128,0.03133293276130171,-0.055825025060718146,1
49,9.833333333333334,-0.975557014076922,0.0024383621444649373,-0.21973294399195767,-0.9967611256850779,0.021039986335466828,-0.07761815057072892,1
50,10.033333333333333,-0.9769725317992496,-0.00570886947168248,-0.2132887266573627,-0.9956246803956985,0.010569392642987688,-0.09284279038310947,1
51,10.233333333333334,-0.9779797084291725,-0.01603267711922172,-0.20808326017530046,-0.994846398841811,-0.0032541803123041562,-0.10134127008270244,1
52,10.433333333333334,-0.9790562105713149,-0.016532743271898326,-0.20291772949065565,-0.99448186409154,-0.006164237842836044,-0.10472738020609705,1
53,10.633333333333335,-0.9788470268064874,-0.013645889023633872,-0.2041379137369018,-0.9938523665587842,-0.0043506117571260675,-0.11062796058340162,1
54,10.833333333333334,-0.9782400251628435,-0.010518848115981697,-0.20720957266427686,-0.9929529835964674,-0.0027638432033039234,-0.11847672150098007,1
55,11.033333333333333,-0.9788305858796486,-0.010534424643151652,-0.20440085627008064,-0.9928013323023716,-0.004153878302857965,-0.11970070957885444,1
56,11.233333333333334,-0.9785566768663589,-0.0016115109709076852,-0.2059714378079136,-0.9926397084151737,-0.0035681683025699787,-0.12105237483173838,1
57,11.433333333333334,-0.9785855930580368,0.007363128906000078,-0.20570858366136371,-0.9926439805531496,-0.0037802434119460606,-0.12101089881223512,1
58,11.633333333333335,-0.9789094573028931,0.013343473715071299,-0.20385834815422912,-0.9928349047993164,-0.005871429989801276,-0.11934981408451348,1
59,11.833333333333334,-0.9786501150421408,0.020603557118876088,-0.20449803363860042,-0.9927385811079711,-0.0037662570788257123,-0.12023279455850958,1
60,12.033333333333333,-0.9790953964014818,0.022968407256722393,-0.20210061111613387,-0.9931395406059511,-0.004338131046371443,-0.11685475387858803,1
61,12.233333333333334,-0.9790027721937968,0.02500106078866875,-0.20230798055514793,-0.9930918457203229,-0.002524620464507272,-0.11731245566994374,1
62,12.433333333333334,-0.9790496466814076,0.019760847333240402,-0.20266054930766295,-0.9928312723049936,-0.004692989827481921,-0.11943215890088646,1
63,12.633333333333335,-0.9795314792861435,0.017571973301623328,-0.20052258436841192,-0.9928889659987686,-0.003624587716686095,-0.11898892201285013,1
64,12.833333333333334,-0.9798686695598321,0.013143488048623453,-0.1992100377414769,-0.9929686585385706,-0.005303829512837474,-0.11825866798087367,1
65,13.033333333333333,-0.9796432428777279,0.009593310562807291,-0.20051704435397688,-0.9927084399226749,-0.00550890269011636,-0.12041430686359401,1
66,13.233333333333334,-0.9800044817749831,0.005046772396531431,-0.19891140185852765,-0.9928167909701929,-0.007402833347782027,-0.11941531570980847,1
67,13.433333333333334,-0.9830954499526166,-0.019841888676317275,-0.18201548213330518,-0.9942476212476563,-0.03405343870327593,-0.10154817061798403,1
68,13.633333333333335,-0.924077261507646,-0.12682201456451786,0.36055151003196023,-0.9969789420399146,-0.06871342126123679,-0.03621401479467186,1
69,13.833333333333334,-0.9359839479947941,-0.1268387173322019,0.3283991304519553,-0.9963914375459404,-0.07502328157012529,0.039693959333688335,0
70,14.033333333333333,-0.9314903230163029,-0.12185887029137135,0.3427480034344395,-0.9908340410616032,-0.07608946184660999,0.11161674099088785,1
71,14.233333333333334,-0.9247526341270912,-0.0999293161199187,0.36721478381842426,-0.9837420339699283,-0.06829423420820886,0.16609487702702594,1
72,14.433333333333334,-0.915636780934559,-0.0711401019225952,0.3956619406744108,-0.9793455889170347,-0.05811009078278705,0.193663199441615,1
73,14.633333333333335,-0.9125320279742012,-0.051915237776664666,0.4056970618674535,-0.9774482406444369,-0.054451385503186976,0.20403427035152386,1
74,14.833333333333334,-0.9079362879677298,-0.031143498423449992,0.41794949395510544,-0.9758499308659415,-0.04821763241607727,0.2130539188870413,1
75,15.033333333333333,-0.9020617653550856,-0.008602313033492669,0.43152122971522555,-0.9742087667186106,-0.03975371321498406,0.2221191597639089,1
76,15.233333333333334,-0.9052252140085686,0.011595574823434198,0.42477388640034774,-0.9749339703093803,-0.03000207260685537,0.22046230783533388,1
77,15.433333333333334,-0.9110429512210193,0.019904672059260848,0.411830723794023,-0.9753690278854987,-0.027718354539944083,0.21883087593686462,1
78,15.633333333333335,-0.9144896304119559,0.01923956261811354,0.4041516486410366,-0.9751467979568739,-0.028433174815894073,0.21972773380787636,1
79,15.833333333333334,-0.9262145362462771,0.006632103936957111,0.37693852024363794,-0.9781661120918487,-0.03934329678086123,0.20406656304630158,1
80,16.033333333333335,-0.9344919502508556,-0.015374373618279471,0.35565211028784616,-0.979229575051785,-0.055032031146513644,0.19514331884999234,1
81,16.233333333333334,-0.9395959188350915,-0.042241921708519314,0.3396691469044714,-0.978563622970293,-0.07772426847593197,0.19071490211605344,1
82,16.433333333333337,-0.9414294934635608,-0.07060414973552141,0.32973559540496583,-0.9767273468177881,-0.09984226624259339,0.1898294283029575,1
83,16.633333333333336,-0.8981525005661377,-0.2236283634025574,0.37856629645108114,-0.9689603177518349,-0.14567853433800138,0.19973399123683191,1
84,16.833333333333336,-0.8562685902767145,-0.27070869148518145,0.43991011088620047,-0.9395178486909963,-0.2505996868868059,0.23346521994352246,0
85,17.033333333333335,-0.8361298218665211,-0.3053372531357791,0.45569296991829633,-0.9215513843049505,-0.2979342208075737,0.2489543053602679,0
86,17.233333333333334,-0.8382946241200864,-0.2967468287063559,0.45738762863033766,-0.9238392029636389,-0.29441284070704093,0.244626667177393,0
87,17.433333333333337,-0.8812854215030866,-0.09783347071448749,0.4623468588128231,-0.9350697311052671,-0.237218345108933,0.2633857526794165,0
88,17.633333333333336,-0.8509027243774959,0.1180303084804283,0.5118919807214901,-0.937319058256202,-0.11470426588812523,0.3290530571454596,0
89,17.833333333333336,-0.7734393086595267,0.23628387930792072,0.5881849744761194,-0.9060357708158797,0.05275252834955505,0.4199004081384116,0
90,18.033333333333335,-0.7284584791536486,0.2950150364732969,0.6183157546139454,-0.8680237256864148,0.153008328195264,0.4723592522099743,1
91,18.233333333333334,-0.7276595000950862,0.2948830672587784,0.6193186809433606,-0.8456270317646802,0.17902880421154016,0.5028554567780316,1
92,18.433333333333337,-0.8367633949336942,0.15615340515938775,0.5248267666155823,-0.8181869731422682,0.1574168162295392,0.5529828414593431,1
93,18.633333333333336,-0.8383277035481647,0.15211593817086969,0.5235144724055454,-0.8160490932561297,0.1361798346102467,0.5617107173994229,1
94,18.833333333333336,-0.7167368735241622,0.2984503345823826,0.6302504676067074,-0.8135298424880706,0.19218593455603736,0.5488476673359903,1
95,19.033333333333335,-0.6961050825519806,0.2666150472940964,0.6665989278431724,-0.8038881056107601,0.18297220583463153,0.5659373512585582,1
96,19.233333333333338,-0.7031140692065537,0.24651517851716254,0.6669789145426215,-0.8056645355750196,0.16519495667744044,0.5688719384932137,1
97,19.433333333333337,-0.7270228616485541,0.32889988613356913,0.6027127205739665,-0.8035763233770347,0.18985533423860815,0.5641099578707985,1
98,19.633333333333336,-0.2614835770172744,0.8294182810370713,0.4936513486578972,-0.558497375323006,0.644517939446708,0.5221851276019679,0
99,19.833333333333336,-0.008247571554169053,0.9191278986274025,0.3938729281484507,-0.1664486441449804,0.9072762002092161,0.3861926273198703,0
100,20.033333333333335,0.40235322162820597,0.8977120696641674,0.17951302188053353,0.253112230010649,0.9482962840772573,0.1914898342583802,0
101,20.233333333333338,0.5011578761251785,0.8578858683782481,0.11345756931381633,0.5386588909138205,0.8405549553604525,0.05756705879650876,0
102,20.433333333333337,0.6135466128820626,0.7609601138221714,0.21095084496796002,0.5979228591671351,0.7964585298459641,0.09023339027767951,0
103,20.633333333333336,0.5480721131560853,0.8055737877615592,0.22509516043690944,0.5222188322591024,0.8460823759782294,0.10692101894844477,0
104,20.833333333333336,0.47666857654514905,0.844413554302014,0.2444438942691379,0.414425409805488,0.9000527114653358,0.1347467858297571,0
105,21.033333333333335,0.4672474444558239,0.8495089869747876,0.2449781759638437,0.3710354268460381,0.9170641162693932,0.14603464888927942,0
106,21.233333333333338,0.46217521671956946,0.8535965909618252,0.24034751704265522,0.33986017114274225,0.928036372013272,0.15245837560222883,0
107,21.433333333333337,-0.007540421074967496,0.991139853340273,0.1326081942062198,0.13372546409153713,0.9806582639631211,0.1429225999425581,0
108,21.633333333333336,-0.5352266550704258,0.7960265438083837,0.2826201855045096,-0.3122781791706839,0.9312373105467661,0.18782814022256653,0
109,21.833333333333336,-0.7931403469666473,0.3751774531048321,0.4797606368757214,-0.754028311675537,0.5491608506541206,0.3603660157403613,0
110,22.033333333333335,-0.8423870372752235,0.1828066137249366,0.5069179631943352,-0.8597670570653044,0.30882933891219116,0.40672478042568894,0
111,22.233333333333338,-0.8437672481033288,0.22404089012907263,0.48771150343036646,-0.8976829601000925,0.1515482145852605,0.4137613343486265,1
112,22.433333333333337,-0.8172889283316702,0.36102380299895465,0.4491109231522231,-0.8907647519450178,0.24014057325144234,0.3858376106223962,1
113,22.633333333333336,-0.8933463872576287,0.07385923249039504,0.4432573137012776,-0.9070347719662272,0.17901317574625772,0.38110655380538133,1
114,22.833333333333336,-0.8843683610003125,0.0334775696029313,0.46558764416069076,-0.9098340107973089,0.1164764376340204,0.3982904872986181,1
115,23.033333333333335,-0.861969649032604,0.03839007066051026,0.5055042300725989,-0.8923747600923095,0.09402952208068271,0.4413906846858816,1
116,23.233333333333338,-0.8145354333885171,0.20259194522571272,0.5435885682059942,-0.8754586528275816,0.1326747579077364,0.4647252476500925,1
117,23.433333333333337,-0.827707115419148,0.14168520176328697,0.5429790370592685,-0.8631993957009825,0.18365084159104478,0.47027563369194425,1
118,23.633333333333336,-0.8191241009335696,0.05353437343766576,0.5711127543054946,-0.8601872990790709,0.08541416626608911,0.5027745326725712,0
119,23.833333333333336,-0.788723701900258,-0.051568936696948196,0.6125810695970771,-0.848915761761636,-0.0545146171278469,0.5257092218632519,1
120,24.033333333333335,-0.7861256034167725,-0.06307429214964788,0.614839954233975,-0.8430903390850243,-0.0926335674439778,0.529733614493267,1
121,24.233333333333338,-0.7800379915229811,-0.07614615770439621,0.6210817131808432,-0.8346749807073472,-0.11487396301962455,0.5386294173189539,1
122,24.433333333333337,-0.7758865938396269,-0.10155414078444178,0.6226449630322853,-0.8295941576324334,-0.13543202563274706,0.5416933634955706,1
123,24.633333333333336,-0.7777708176895661,-0.12852059142272385,0.6152682445331116,-0.8288399218062709,-0.15578248979933015,0.5373604003758525,1
124,24.833333333333336,-0.7856603135936044,-0.13856274585019895,0.6029413214455054,-0.8317744632534321,-0.17035363015327387,0.5283283855454548,1
125,25.033333333333335,-0.7852415460319835,-0.15193231938259452,0.6002601808485432,-0.8290724336462009,-0.18348713228697794,0.5281774058524914,1
126,25.233333333333338,-0.7855738571385439,-0.15414687163114596,0.5992599243623772,-0.8300971019216312,-0.19001643356602513,0.5242447485251119,1
127,25.433333333333337,-0.7868421642348145,-0.1506018973554662,0.5984968480244542,-0.8329510693122661,-0.18581738858244864,0.5212143649516501,1
128,25.633333333333336,-0.8151846866835428,-0.2934833889022817,0.4993409927445238,-0.8383599118989792,-0.18155931197943997,0.5139930683912854,1
129,25.833333333333336,-0.8087900904857823,-0.28222765802623334,0.5159516824054631,-0.8420517597084357,-0.1868286898135386,0.5060077811995418,1
130,26.033333333333335,-0.8081853934767383,-0.28170395917562113,0.5171839606519418,-0.8394842797490718,-0.20087693038310286,0.5048906841030488,1
131,26.233333333333338,-0.7721211004440643,-0.18435013755361346,0.6081480354593044,-0.8302124934873911,-0.21062538403383443,0.5161241742624042,1
132,26.433333333333337,-0.7475192974587939,-0.1916835365715553,0.6359813847386828,-0.8186831166639001,-0.21507532827213902,0.5324477041532949,1
133,26.633333333333336,-0.7301037738817538,-0.22201168716842548,0.6462656498099293,-0.808470278562818,-0.22602449441534705,0.5434047631414788,1
134,26.833333333333336,-0.7177540536690503,-0.25424989522457314,0.6482176403183887,-0.7998150290723659,-0.24864526468113496,0.5463254081786963,1
135,27.033333333333335,-0.7137387763109941,-0.28276452634159055,0.6407973016741723,-0.7924701728683066,-0.26068636611448703,0.5513924588132306,1
136,27.233333333333338,-0.7220450460325392,-0.2985213213242123,0.6241281697013165,-0.7945818399901904,-0.26013671731426685,0.5486060406728682,1
137,27.433333333333337,-0.7327436771035162,-0.31029803914408255,0.6056416684543392,-0.7980168848398314,-0.25560170044345476,0.5457442828293723,1
138,27.633333333333336,-0.7382703595948921,-0.31765736869421446,0.5950215729348785,-0.7999118482026145,-0.25189348714247783,0.5446932221354327,1
139,27.833333333333336,-0.7467859186819026,-0.3092370556622664,0.5887981275987206,-0.8028292428210686,-0.24365347501536988,0.5441490521762251,1
140,28.033333333333335,-0.7573131785507885,-0.2977320768533084,0.581233481490801,-0.8073059457590184,-0.23500122789194575,0.5413238705538629,1
141,28.233333333333338,-0.7685953087950906,-0.28574971566029644,0.5723708162530996,-0.8124637879924478,-0.220028942227101,0.5398980068340556,1
142,28.433333333333337,-0.7807476717545234,-0.2794290297973958,0.55888504216554,-0.8184944724349096,-0.20881991856751905,0.5352205528592433,1
143,28.633333333333336,-0.8344886038031626,-0.14388893812218212,0.531906705737688,-0.8245451737003218,-0.19959759961265666,0.5294204895509542,1
144,28.833333333333336,-0.8426313558901649,-0.14539928672436375,0.5184895808892875,-0.8355592286806695,-0.1956908374297092,0.5133671897507908,1
145,29.033333333333335,-0.8619891054531862,-0.14077891591179365,0.486986733817992,-0.8495456728511092,-0.18351910405528116,0.4945633308148754,1
146,29.233333333333338,-0.9008235506241188,-0.14199767564519009,0.4103091404688902,-0.8698270632161147,-0.17763862385392662,0.4602666611999103,1
147,29.433333333333337,-0.9315021292204599,-0.12175862049504661,0.3427515449897978,-0.8957733118713801,-0.15851791776132695,0.4152857371588778,0
148,29.633333333333336,-0.9510097441769236,-0.0797542169836086,0.2986967213644537,-0.9176958941243216,-0.12428057665650971,0.3773441190389577,0
149,29.833333333333336,-0.9960636426041456,-0.08148964332865719,-0.03488062373767764,-0.9469416298837368,-0.09750519747311466,0.3062585281406242,1
150,30.033333333333335,-0.9946562289962748,-0.06496935653008865,-0.08023695427280712,-0.967775763275705,-0.07635282960002547,0.239958991138478,1
151,30.233333333333338,-0.9962612125702694,-0.04389129012733489,-0.07441203517559812,-0.9735055862337564,-0.04702758920456026,0.22377506435096317,1
152,30.433333333333337,-0.9965922967450108,-0.052210142925398585,-0.0638583983843418,-0.9748752967660513,-0.05302889548298154,0.21634715620769787,1
153,30.633333333333336,-0.9964522854069668,-0.06446170940180977,-0.05410666251239088,-0.9749638955078419,-0.06265638342458585,0.2133531815378559,1
154,30.833333333333336,-0.9691997002941496,0.021698651670890773,0.24531838387164553,-0.97309561778954,-0.0702471646792473,0.21943166246765797,1
155,31.033333333333335,-0.9642531499814663,0.010589008034639691,0.264771100499398,-0.9721942670822024,-0.07882295112250247,0.2205113362819223,1
156,31.233333333333338,-0.7412915887786389,-0.05748944840592831,0.6687164897981982,-0.9712805536530287,-0.08784556730572374,0.22112720863838023,1
157,31.433333333333337,-0.916645281720477,-0.04455906940499862,0.39721016708204737,-0.9718492959093525,-0.08587997294634701,0.21939365598674504,1
158,31.633333333333336,-0.8269892822743188,-0.48184258828410564,0.28968335664839495,-0.9110395915158424,-0.3250772796424906,0.25363679731238764,0
159,31.833333333333336,-0.42226108685627833,-0.8958728858022846,0.13822932760901957,-0.7453305772347653,-0.6194685598187121,0.24645696183111265,0
160,32.03333333333333,-0.3230130507753028,-0.9302298773847102,0.17416929766654804,-0.5371767404025787,-0.821638051568126,0.19066216663458468,0
161,32.233333333333334,-0.20161144942756598,-0.9745840381756826,0.09766665752904732,-0.43304074104687335,-0.8917943029363399,0.1310673027259734,0
162,32.43333333333333,-0.10733863615608435,-0.9921808679697126,0.06368314080680886,-0.3587047397341854,-0.9266258468313231,0.11267408609065266,0
163,32.63333333333333,-0.6576651045288675,-0.7460908606556506,0.10404344251871296,-0.782275068830244,-0.5988433434829262,0.17155863910869507,0
164,32.833333333333336,-0.9427902833407206,0.20258573817290076,0.26477443291840913,-0.9778416580781668,-0.019773959105004422,0.20840989004424712,0
165,33.03333333333333,-0.9358485571848392,0.23963709212231804,0.25838254990268655,-0.9669167365814844,0.17530618268534778,0.18530992102665214,0
166,33.233333333333334,-0.9756903698627891,0.09661523629828281,0.1967073925200602,-0.8979400648595105,0.39345146874996034,0.19722976869275463,0
167,33.43333333333333,-0.9986860048083944,-0.04715972546746136,-0.020055525265659267,-0.9409659321517274,0.28272618643346065,0.1861424670370056,1
168,33.63333333333333,-0.9956071399211642,-0.07402378227929955,-0.057331514850618034,-0.962936768336582,0.21354572206310082,0.1647756194770604,1
