,timeStamp,x_gaze,y_gaze,z_gaze,x_head,y_head,z_head,fixations_head
0,0.03333333333333333,-0.9940810446525471,-0.10566528384104246,0.02525320679225895,-0.9997134553357345,-0.011127304679794671,0.021194110296259436,0
1,0.23333333333333334,-0.9978207457639068,-0.062036125000810016,0.022478401145210165,-0.9996545021279273,-0.0037384772469899363,0.026017305072582028,0
2,0.43333333333333335,-0.9980969726363056,-0.057659601927014095,0.0218587172510224,-0.9995836114807877,-0.009507184051212352,0.02724366183980936,0
3,0.6333333333333334,-0.999213271549243,-0.036297915149590854,0.015978088610722755,-0.999660987578339,0.0052422167463337015,0.025503511081509157,0
4,0.8333333333333334,-0.999161208040496,-0.019116699987732653,0.036213700841475384,-0.9985144127505785,0.02287658025947496,0.0494533073211403,0
5,1.0333333333333334,-0.8827401421830284,0.4694489290628066,0.01968614691784772,-0.985853119928343,0.16321512824283224,0.038137223813856085,0
6,1.2333333333333336,-0.8031660964812576,0.5827143508902493,-0.12396857153978681,-0.9502873763740659,0.3097489808576848,-0.031772175904714185,0
7,1.4333333333333336,-0.7656464848610736,0.617996192506003,-0.17851096960121327,-0.9066145801668176,0.40924040315083404,-0.10282166823140025,0
8,1.6333333333333335,-0.7833928090606551,0.5958687144572798,-0.17673760732533658,-0.844440665738333,0.5140579237459667,-0.15054704607326855,0
9,1.8333333333333335,-0.6740705880143484,0.7036747554801467,-0.22465680687205258,-0.7909240228644432,0.5894342175393616,-0.16433652439335045,0
10,2.033333333333333,-0.6523581898872175,0.7293463042987959,-0.20611346509328643,-0.7372041275246676,0.656585381804917,-0.15945441593347318,0
11,2.2333333333333334,-0.7055363882641861,0.680623664125361,-0.19740778269281944,-0.7111662286401151,0.6812391770278053,-0.17365419351191633,0
12,2.4333333333333336,-0.6826060178546178,0.6236733060059486,-0.38089451527197365,-0.7233052125311015,0.6468427174511341,-0.24171071222800727,0
13,2.6333333333333333,-0.675293576493052,0.5388399984692042,-0.5036169592030538,-0.7489657125714269,0.5573630808353852,-0.35832493286689204,0
14,2.8333333333333335,-0.6098824491764843,0.41153905761724907,-0.6772584456778666,-0.7664203425445636,0.43351587059392066,-0.47398718176451693,0
15,3.033333333333333,-0.6539715776288463,0.01800495125087859,-0.75630483099349,-0.784476163151,0.27405021016541875,-0.5563215183292621,0
16,3.2333333333333334,-0.6133664298611018,-0.12766407694920612,-0.7794122825412451,-0.7889585478021701,0.016221658853567637,-0.6142322587050683,0
17,3.4333333333333336,-0.5948441066977435,-0.4525528487894282,-0.6643466021434419,-0.738314310264033,-0.265331171594788,-0.6200736638815441,0
18,3.6333333333333333,-0.4815789455687784,-0.6824065298276772,-0.5499118540579129,-0.567933779939954,-0.5613850669327657,-0.6019119771428462,0
19,3.8333333333333335,-0.45248144082807507,-0.8798700139410839,-0.14522156958753174,-0.40821574798901333,-0.7154485808000939,-0.5670037313147964,0
20,4.033333333333333,-0.5205394875444396,-0.8394433550425792,-0.15612013189153723,-0.4109209710845448,-0.751643220099496,-0.5159228868749622,0
21,4.233333333333333,-0.5768562246886636,-0.8090355752868976,-0.11268688458796398,-0.5014598148073672,-0.749883674790524,-0.43152349694543973,0
22,4.433333333333334,-0.660486897176686,-0.7502684353779195,-0.029228984475735128,-0.6147419386923249,-0.7135994794636217,-0.33595852678872445,0
23,4.633333333333334,-0.5769056561820844,-0.8157844891668316,-0.040933251763455844,-0.6825454175351692,-0.6837060301845513,-0.25822048193554104,0
24,4.833333333333334,-0.599836754738443,-0.7987319380998488,-0.047150384135367054,-0.7038994491070463,-0.6943460180259241,-0.14969693650285565,0
25,5.033333333333333,-0.6764129970518235,-0.7004419551072066,0.22769832003105414,-0.7392797837784358,-0.6731455526999497,-0.018451725577531938,0
26,5.233333333333333,-0.7089286700679899,-0.638297507638008,0.2999940541056418,-0.8026472346393364,-0.5688773343430477,0.17926515332482842,0
27,5.433333333333334,-0.7601975854310492,-0.22729785172772374,0.608633976791277,-0.8736425838601707,-0.3830759303602412,0.30000244539796794,0
28,5.633333333333334,-0.7883772191515189,0.11892893541542322,0.6035870017187849,-0.9031958141955393,-0.18444323790630557,0.3875796862714752,0
29,5.833333333333334,-0.8078905085255343,0.18238937157576765,0.5603990037201625,-0.8900974638928704,0.05532756631556411,0.45239956363493256,0
30,6.033333333333333,-0.6942187789215081,0.6080643917487717,0.38512073753555065,-0.8246107144174096,0.3118218096256151,0.4720003482094225,0
31,6.233333333333333,-0.6270447721536526,0.7143538487864107,0.3106661108631193,-0.6956631693189114,0.5670256583815659,0.4410608320743515,0
32,6.433333333333334,-0.4692220930962157,0.8288944567885193,0.30457282685044634,-0.5175687704656607,0.752374661945679,0.4074983876051408,0
33,6.633333333333334,-0.4204451644898613,0.8564312824278217,0.29958525019788596,-0.41541860735055536,0.8301760774468531,0.37179975941611637,1
34,6.833333333333334,-0.470046472827899,0.8042810137881947,0.363577177834205,-0.3599224524879705,0.8666647109936434,0.3454679535258652,1
35,7.033333333333333,-0.4386704584060932,0.8357487966364576,0.3302910502004272,-0.3434976807156203,0.8781402155030068,0.33298514270057605,1
36,7.233333333333333,-0.432190129148818,0.8436267230281799,0.31859950480040405,-0.3474735768677583,0.8792834178253668,0.32576492216945024,1
37,7.433333333333334,-0.4344332741058863,0.8472508485971586,0.30566931462126634,-0.36130989643791434,0.876780549466227,0.3173500067964783,1
38,7.633333333333334,-0.44010214255107394,0.8458446869468558,0.3014247330358443,-0.37223739643248976,0.8723500242734888,0.3169302065868844,1
39,7.833333333333334,-0.32798207495703857,0.8110857874928217,0.4843217978101182,-0.4006461243095408,0.8581358172837594,0.3210694662693393,1
40,8.033333333333333,-0.36123963801415326,0.8124476292573813,0.45764044144007215,-0.43051708917137277,0.8472944494103122,0.311042042061655,1
41,8.233333333333334,-0.4225632816382954,0.8786854444741682,0.22215346650527118,-0.4426415285088867,0.8450529423737545,0.29992332657660475,1
42,8.433333333333334,-0.4429562394156529,0.8690454743096507,0.22034004072037505,-0.4703723658905026,0.8347147430395305,0.2863584033322964,1
43,8.633333333333333,-0.45275088462858126,0.8613077887109122,0.23057651566010806,-0.49045984710455204,0.8243708103103033,0.28259848811788335,1
44,8.833333333333334,-0.4641059709905845,0.8558494817688012,0.22831406493460138,-0.513932022976421,0.8132272810644476,0.27301147428613637,1
45,9.033333333333333,-0.5752099579500799,0.7815470492466842,0.24149060869704325,-0.5314644965270781,0.8056477393648253,0.2616815029526654,1
46,9.233333333333334,-0.5148426790353395,0.8513113984090687,0.10102434747381735,-0.5458232549076798,0.8006772244365331,0.24696752148935644,1
47,9.433333333333334,-0.48617124749870316,0.8737335410037284,-0.015073733135526545,-0.5450504273366955,0.8145196766584516,0.1986900299368269,1
48,9.633333333333335,-0.48753465917572786,0.8723419883650958,-0.03646109484969379,-0.5484126525116373,0.8214623858137012,0.15634292839272412,1
49,9.833333333333334,-0.49548817435209647,0.8673759156253433,-0.04637337674058121,-0.5583309630992331,0.8210296477103868,0.11906659155800488,1
50,10.033333333333333,-0.8308273196448346,0.540436867211858,-0.13286819593120283,-0.6231180158453109,0.7812681674965901,0.03666045260936087,0
51,10.233333333333334,-0.8478955093613002,0.5082053897915254,-0.15099830128774727,-0.7508758787878876,0.6513511464633764,-0.10921125699928082,0
52,10.433333333333334,-0.8184531432469465,0.32268765708258446,-0.4754020701214351,-0.8197108498050477,0.5161257875951187,-0.24837128274260156,0
53,10.633333333333335,-0.8191172515366312,0.3224155979204847,-0.4744418936525858,-0.8563857861272544,0.39370694731469463,-0.33406320503064846,0
54,10.833333333333334,-0.8735205104817256,0.10130263958637026,-0.4761299118734084,-0.8838189066899446,0.2799135512389729,-0.3748500286917133,0
55,11.033333333333333,-0.840337291675645,-0.15233769496902183,-0.520217707225319,-0.8996013459175877,0.15199765299921,-0.40940704916500537,0
56,11.233333333333334,-0.8603296688108382,-0.17928390225467591,-0.47716888347436254,-0.9089779821093713,-0.013019175187559896,-0.416640767469785,0
57,11.433333333333334,-0.8775927448811252,-0.3252058088559866,-0.3522387769941521,-0.8965610271964051,-0.195615481872938,-0.397382571037213,0
58,11.633333333333335,-0.8316136390235466,-0.4821197520904621,-0.27564342915122475,-0.8365446862871591,-0.4310886372403952,-0.3381650110329837,0
59,11.833333333333334,-0.3427234984252731,-0.9268293066595626,-0.15338852611618822,-0.6849829269455238,-0.6809894051320499,-0.2589436616158824,0
60,12.033333333333333,-0.2836974006478593,-0.9418936136443103,-0.1798671883410389,-0.473465837502223,-0.8608275412325973,-0.1865637825885814,0
61,12.233333333333334,0.04453578199163599,-0.9890950801175306,-0.1403833558855519,-0.2580256985374815,-0.9548411297033378,-0.14731312202617436,0
62,12.433333333333334,0.1956758677285435,-0.9717507931765478,-0.13195207747296733,-0.128096835937954,-0.9830485576966831,-0.13117444047205287,0
63,12.633333333333335,0.16170841625958943,-0.9782589035219147,-0.1298456999323318,-0.061672535825576025,-0.9908266364085045,-0.12024589351928866,0
64,12.833333333333334,0.11111212565280387,-0.9855542417099346,-0.12781600909303897,-0.09767109768935722,-0.9896568566869338,-0.10506979912750526,0
65,13.033333333333333,-0.05738426148974424,-0.9107270168886006,0.4090028694795036,-0.2769401103087056,-0.9606848886019663,-0.019715986255567728,0
66,13.233333333333334,-0.3513415365839063,-0.8898449338157889,0.291092972146759,-0.49176636347543634,-0.8702290358668189,0.029449429340009128,0
67,13.433333333333334,-0.5401005471799145,-0.5899210674278933,0.6002370641177467,-0.6560623083228372,-0.7454558063865595,0.11780444950287182,0
68,13.633333333333335,-0.5368218937218562,-0.5396057129489338,0.6485737652524598,-0.723616814386523,-0.6547606745273614,0.21832811323687765,0
69,13.833333333333334,-0.6906751432391995,-0.47015289475677374,0.5494762070038497,-0.7729662333051522,-0.5689784365103455,0.2806897592650791,0
70,14.033333333333333,-0.7421338327344784,-0.4015023725639213,0.536687263810476,-0.8218006856347464,-0.46647477530084464,0.3271771952601337,0
71,14.233333333333334,-0.8448587890594998,-0.3875938467005706,0.36876094770022766,-0.8494556648143319,-0.3428447381788827,0.4011016816443121,0
72,14.433333333333334,-0.8725859721536073,-0.3327964201854826,0.35754756874082033,-0.8707979607446772,-0.24954545680945492,0.42360119989050166,0
73,14.633333333333335,-0.8639084979013217,-0.25645567608043784,0.4334657927218799,-0.8509785239901615,-0.1702786774806994,0.4968306791080343,0
74,14.833333333333334,-0.8468484497302864,-0.16224267557103528,0.506482988275976,-0.8248737644751157,-0.07186948775580856,0.5607299255527289,1
75,15.033333333333333,-0.7190020281834673,0.1946025156962278,0.6672075721638359,-0.8202025397329619,0.0013306308772923856,0.5720716941407498,1
76,15.233333333333334,-0.7415841568145637,0.18723846783073284,0.6442008184766862,-0.824237480085184,0.021861887460396856,0.5658220871435606,1
77,15.433333333333334,-0.8270152344883028,-0.003502320376891504,0.5621686007562459,-0.8240359693309918,0.030108535172630933,0.5657368622942044,1
78,15.633333333333335,-0.832497628571074,-0.006870205759328497,0.5539860094771011,-0.8254462556128357,0.035229459234086616,0.563380301658501,1
79,15.833333333333334,-0.7187461460455862,-0.015422300204207805,0.6951015251033683,-0.8225239916094099,0.03182948314310145,0.5678390328515348,1
80,16.033333333333335,-0.8956249960228961,-0.004842405795270877,0.44478356265165786,-0.8217654239911124,0.028459628405545896,0.5691147841022279,1
81,16.233333333333334,-0.9215129910327419,0.01925583252844715,0.3878698496551729,-0.8224607986409515,0.03800631880923792,0.5675506624341646,1
82,16.433333333333337,-0.8004379387916912,0.07983117423356578,0.5940758282941658,-0.8222361022560291,0.043784570559375,0.5674598695306518,1
83,16.633333333333336,-0.778877463081927,0.06182392721180991,0.6241215422713517,-0.8261444600998089,0.03823636470785288,0.5621595071332721,1
84,16.833333333333336,-0.7832838812789026,0.06203353514343426,0.6185613969900374,-0.8285842618688607,0.03099675750094125,0.5590056547188619,1
85,17.033333333333335,-0.6683921438895524,0.07883519157972464,0.7396194660467749,-0.8299414257342982,0.04236164618074373,0.5562398051047571,1
86,17.233333333333334,-0.681717611984272,0.19628554828562844,0.7047929348714217,-0.8280177422459103,0.19749245361912066,0.5247698060001977,0
87,17.433333333333337,-0.24156060771923432,0.6738203598611981,0.698294060861783,-0.7310617756578142,0.49206787389645745,0.4726710141854103,0
88,17.633333333333336,-0.20826551907113,0.7780350501045956,0.592694638388751,-0.5371060033391905,0.7255232620710842,0.4302710045665806,0
89,17.833333333333336,-0.05931531238299059,0.8037635629158927,0.5919846523734026,-0.31993296940449806,0.8566075560014929,0.40480413793484127,0
90,18.033333333333335,-0.019059447922521178,0.8033365245295971,0.5952202666253874,-0.18462421243364957,0.9000541610055076,0.3947358704753424,0
91,18.233333333333334,0.023011036882775504,0.5515918301993673,0.833796704862098,-0.11430227649270336,0.8868381756525433,0.4477198228734734,0
92,18.433333333333337,0.012842968433440516,0.538010738781963,0.8428401409028311,-0.11108355587676155,0.8519786751649725,0.5116568974204424,0
93,18.633333333333336,-0.00999015783245269,0.5283110228663614,0.848992143582249,-0.14125552137468184,0.8226295514041276,0.5507517579071457,1
94,18.833333333333336,-0.025857430261655184,0.5114351987359864,0.8589327277465599,-0.16680151553401718,0.7991657066237344,0.5775044829022045,1
95,19.033333333333335,-0.03736152936827411,0.48319171351249046,0.874717030882632,-0.19030690308797446,0.7703146625862035,0.6086038146789488,1
96,19.233333333333338,-0.04748483553278586,0.46864251833212883,0.8821107529135698,-0.2064805546535941,0.7469217196290914,0.6320393384088251,1
97,19.433333333333337,-0.05385289839135203,0.47421193887073065,0.8787621420881271,-0.2162032760291277,0.7368712751402755,0.6405285843016044,1
98,19.633333333333336,-0.08703112310476466,0.6237459408899302,0.7767667505979252,-0.2440293487574811,0.7231455113066257,0.646150328036811,1
99,19.833333333333336,-0.08650028433852178,0.6334971160175047,0.7688947293400177,-0.2543677404043806,0.7220642128278386,0.643366400424271,1
100,20.033333333333335,-0.08769272204441012,0.6495941698563991,0.7552068597338202,-0.25876779948846834,0.7357978761162499,0.625812041631281,1
101,20.233333333333338,-0.07261981071112342,0.6479633185449217,0.7582017547543223,-0.2466874414993938,0.7410382839800801,0.6245058589655839,1
102,20.433333333333337,-0.11372684102506933,0.5334575469640038,0.8381463185014933,-0.27083706286706505,0.7476312946573201,0.6063783741415594,1
103,20.633333333333336,-0.10189007638433001,0.5175105260976686,0.8495888815847992,-0.2657075005967548,0.7511802111091128,0.6042580695073048,1
104,20.833333333333336,-0.10011346196579268,0.6796315247916668,0.726689951246457,-0.2676847140773535,0.7503753012753318,0.6043854739198161,1
105,21.033333333333335,-0.11113548016476621,0.7043826979187955,0.7010662735584892,-0.2702367016489017,0.7505210578299282,0.6030673816712093,1
106,21.233333333333338,-0.11403649424644507,0.7045834242505372,0.7003983696806897,-0.2716247215017111,0.7488063743309062,0.6045734235231653,1
107,21.433333333333337,-0.12114900374214199,0.7017491671092203,0.7020477372328766,-0.281206591636765,0.7452393940915163,0.6045999489862232,1
108,21.633333333333336,0.025234431804254442,0.5348091795386557,0.8445959773363277,-0.28425549719650506,0.7422113900633606,0.6068946076328094,1
109,21.833333333333336,0.018806515932827006,0.5434979500771228,0.8391997933867918,-0.28282026161258184,0.7422048269998845,0.6075727893836773,1
110,22.033333333333335,0.010049757730160064,0.5479645455354063,0.8364411869376955,-0.28624899203286325,0.7410968569328198,0.6073194902227868,1
111,22.233333333333338,0.026513330057245182,0.42801281790441803,0.9033836787538256,-0.2910694281373627,0.7388509390221133,0.6077646566804703,1
112,22.433333333333337,0.023015001853881778,0.42286920633332115,0.9058984181599462,-0.29712757679534807,0.7365596888165387,0.607614209773116,1
113,22.633333333333336,0.013632906745918716,0.428548598301771,0.9034158747483048,-0.3001416332520629,0.7340288528614624,0.6091934365664732,1
114,22.833333333333336,0.007548891463694751,0.4309979397444907,0.9023213342117509,-0.29917297468217885,0.7311064786644275,0.6131711409343381,1
115,23.033333333333335,-0.012672364741840907,0.2728926840761443,0.9619610148803163,-0.30083082297827973,0.7247109754865183,0.6199151699673033,1
116,23.233333333333338,-0.02182286715766732,0.26942373060981284,0.9627744366430333,-0.3047696398215024,0.7090650707984253,0.6358790702772785,1
117,23.433333333333337,-0.02803242256357847,0.28951237356080484,0.9567636954025829,-0.3068892277709849,0.6966123579977851,0.6484984383658101,1
118,23.633333333333336,-0.0342796160437784,0.3149138276022128,0.9485010221970325,-0.3022817899215452,0.6942838843796038,0.6531428690360145,1
119,23.833333333333336,-0.037329862800974514,0.3336411259603546,0.9419607637323157,-0.3004235808693248,0.6938754730565861,0.6544329606217514,1
120,24.033333333333335,-0.05637335672439085,0.45584303871611365,0.888273138570386,-0.299986233639264,0.6961101869703678,0.6522567494652766,1
121,24.233333333333338,-0.05782432946527763,0.4768639338665505,0.8770730502638929,-0.28704047669144117,0.7057005935649834,0.647761095607617,1
122,24.433333333333337,-0.058061397633043604,0.4805141361095022,0.8750628772287375,-0.2761350493680202,0.709257783601114,0.6486160890016193,1
123,24.633333333333336,-0.08820349823251619,0.48895984220414046,0.8678354772716131,-0.2988439673858126,0.7108521061105602,0.6366958193637592,1
124,24.833333333333336,-0.08720623144287959,0.49274199013814257,0.8657946663916531,-0.3010695647382321,0.7115676264054829,0.634845359312013,1
125,25.033333333333335,-0.09769115644088908,0.5011526089944569,0.8598270177490883,-0.30743281662383887,0.7100460507947846,0.63349796291185,1
126,25.233333333333338,-0.1110275319197748,0.5122042024773594,0.8516570566374327,-0.3086714111381143,0.7100234682896758,0.6329207173287226,1
127,25.433333333333337,-0.12863437560592192,0.5229001702449791,0.8426319536845532,-0.3154062728326071,0.7110175176156496,0.6284687523668321,1
128,25.633333333333336,-0.377033236049127,0.5984345994758644,0.7069101562889626,-0.3091285555294661,0.7091730733706016,0.6336506041679132,1
129,25.833333333333336,-0.39879846095734345,0.5969991587355562,0.6960975448937403,-0.3277654625863666,0.7042955946427877,0.6297122492871704,1
130,26.033333333333335,-0.4026355510700019,0.5968010677061425,0.6940555443185832,-0.3359679825652646,0.6998196365454791,0.6303792437861356,1
131,26.233333333333338,-0.4084749514916497,0.5943734107160836,0.6927253876087005,-0.34638620147780885,0.6984717108253464,0.6262219004494244,1
132,26.433333333333337,-0.40341711196364227,0.601173105563416,0.6898155774713649,-0.3434267182572573,0.7040530206592547,0.6215846147449519,1
133,26.633333333333336,-0.402994040909065,0.6069810910202355,0.6849596762844278,-0.34319544042579225,0.7104688453643342,0.6143703357402736,1
134,26.833333333333336,-0.3990404396767738,0.609909965363063,0.6846725944956424,-0.3395636449948342,0.715680477896238,0.6103261296684214,1
135,27.033333333333335,-0.4038384272939429,0.6087184090768141,0.6829175814779902,-0.34464991229523206,0.7179977095711719,0.60472781233001,1
136,27.233333333333338,-0.1817163856462063,0.5748683059248579,0.7978130019188476,-0.34505936872765425,0.7202538172294436,0.6018043459627789,1
137,27.433333333333337,-0.18015362035283794,0.5606376976891418,0.8082264812560794,-0.34779896703842134,0.7214566191610724,0.598778945184016,1
138,27.633333333333336,-0.19096037571330546,0.562311227133454,0.8045745576061315,-0.35459216776585123,0.7233455542825761,0.592482576671034,1
139,27.833333333333336,-0.19912554904440202,0.5697769065749506,0.7973100353386036,-0.3573786436676708,0.728233121764327,0.5847709170398605,1
140,28.033333333333335,-0.20656120706546155,0.5751661990985152,0.7915278334652719,-0.3575366249279663,0.733005204285802,0.5786803369089438,1
141,28.233333333333338,-0.21662269252695393,0.5778374816596678,0.7868789321563935,-0.3610694018968518,0.7362496789601468,0.5723332047373542,1
142,28.433333333333337,-0.22966730918075745,0.580359975157548,0.7813035430156458,-0.3690260892384531,0.7391247470215496,0.5634841202746564,1
143,28.633333333333336,-0.3429135112441187,0.3915244699245183,0.8538846018383016,-0.3802647871054109,0.7376594377346779,0.5579043337424757,1
144,28.833333333333336,-0.3494811963102871,0.38489167809636854,0.8542372560112865,-0.38599085615882156,0.7393149419577156,0.5517467494782725,1
145,29.033333333333335,-0.3543577891994776,0.3926005315885289,0.8487021738101437,-0.38728672983105406,0.743010757162235,0.5458424714493831,1
146,29.233333333333338,-0.2590437584536311,0.9246524582779571,0.2791310849883043,-0.3880583980248715,0.7452564652410971,0.5422208781840813,1
147,29.433333333333337,-0.267446441951207,0.9255186804931068,0.2681185796358363,-0.3872596565017302,0.7498987080948909,0.5363598475312782,1
148,29.633333333333336,-0.27658331906388245,0.9233605268137871,0.2662836929625481,-0.3838791454680831,0.7515621656959109,0.5364616601111084,1
149,29.833333333333336,-0.35744314611820127,0.8085465378937653,0.46742581588218685,-0.3835245351591702,0.7536947504169478,0.5337163611178487,1
150,30.033333333333335,-0.37707813428507847,0.7924208672899442,0.47945933062934276,-0.39181146701709935,0.748192137940026,0.5354365499652052,1
151,30.233333333333338,-0.3827437033813573,0.788420469584209,0.4815604018838541,-0.3914346648263321,0.7467178295492352,0.5377651775687755,1
152,30.433333333333337,-0.49233328164235934,0.45544506594478945,0.7417396657141989,-0.40008051717961496,0.7399744308497128,0.5407156567567982,1
153,30.633333333333336,-0.4970523192398333,0.43974651699815526,0.7480387641869201,-0.41449270795126425,0.7293821696459489,0.5442402462679478,1
154,30.833333333333336,-0.49290283958437153,0.43274802533143114,0.7548350397943978,-0.4175245412697311,0.7209660467909701,0.5530652916357178,1
155,31.033333333333335,-0.5045154035570166,0.43036371164400816,0.7484993542239657,-0.43480865266646246,0.7120685374508221,0.5512711071142972,1
156,31.233333333333338,-0.5228524310072976,0.4315526790801862,0.7351106179130273,-0.4543553818800672,0.7068393211563481,0.5421617480271471,1
157,31.433333333333337,-0.531936122831898,0.43425748656231605,0.7269555671367733,-0.4627548070598837,0.7049651931850596,0.5374775017993978,1
158,31.633333333333336,-0.5357728975501002,0.4351302319682194,0.7236083771475105,-0.46594295606135916,0.7034151028809669,0.5367535325787446,1
159,31.833333333333336,-0.5357156411784093,0.43375917161511446,0.724473417619015,-0.46633282680197863,0.700582375855965,0.5401092753201773,1
160,32.03333333333333,-0.5433925927889981,0.43531545371551383,0.7177917148160088,-0.4738717576344379,0.6997060366584192,0.5346559824599508,1
161,32.233333333333334,-0.555926925369992,0.44102467408673907,0.7045867515752431,-0.4845408180845265,0.7021762170526257,0.5216979545825746,1
162,32.43333333333333,-0.5608318080928127,0.4536654711599941,0.6925715293805599,-0.48470377451946933,0.712096227469914,0.5079185109736567,1
163,32.63333333333333,-0.6928333914763168,0.5752574174302062,0.43481121805555345,-0.47804477339752144,0.7258339559356496,0.4946092023386931,1
164,32.833333333333336,-0.7161708840777643,0.5630107258410179,0.4124538609193078,-0.4770093092641565,0.7311657497415465,0.48770766374972463,1
165,33.03333333333333,-0.7195185183113827,0.5543844645723922,0.4182714038130919,-0.47927351505738547,0.7296951322811032,0.4876903850700786,1
166,33.233333333333334,-0.5425266479594402,0.6832739000114898,0.4886733201403393,-0.4794460708352364,0.7280691491880945,0.48994569001183974,1
167,33.43333333333333,-0.26059883626871727,0.8151415450025564,0.517332106239537,-0.4710076527735455,0.7320796221343171,0.4921495889304704,1
168,33.63333333333333,-0.26549417513440343,0.816339065750336,0.5129360317813243,-0.4650214346721371,0.7392750688369844,0.4870599941398794,1
169,33.833333333333336,-0.6798961713850585,0.6745245828831081,0.28767652532368393,-0.4722187768421169,0.7413180297233795,0.47692452820627934,1
170,34.03333333333333,-0.6894614476510756,0.668658153682722,0.2784585888718404,-0.4733303467441315,0.7440634270481365,0.4715167010620755,1
171,34.233333333333334,-0.6948906094981382,0.6633423126386953,0.2776761010502227,-0.4747076730472396,0.7443218609185052,0.4697207601425431,1
172,34.43333333333333,-0.6979587378228537,0.6618429331140588,0.2735279367518213,-0.47581807104335594,0.7446689135103423,0.468044199322998,1
173,34.63333333333333,-0.698743266714449,0.6623976181012649,0.2701615123495411,-0.47423019064321936,0.7463402212553144,0.4669925057418637,1
174,34.833333333333336,-0.3771472958178382,0.8662342514305033,0.3277165526883378,-0.4705475871776532,0.7487397097236952,0.46687665960526037,1
175,35.03333333333333,-0.3766863129360344,0.8680947847206731,0.3232937772172927,-0.46788700654089266,0.7547084860600889,0.4598878669622538,1
176,35.233333333333334,-0.38249005440010475,0.8657534337940025,0.32275741689215864,-0.46982913704866164,0.7562009947815644,0.4554345589340829,1
177,35.43333333333333,-0.3946302122502014,0.860026653333536,0.32345193017708135,-0.47732650841006596,0.7531499863231953,0.4526858761552275,1
178,35.63333333333333,-0.40235001758038313,0.8557029056147571,0.3254028283151944,-0.48198171395435474,0.7508470377898359,0.45157762705414417,1
179,35.833333333333336,-0.41065594732087407,0.852435393852476,0.3235978866395299,-0.4863951781289946,0.7495350615535938,0.44901773037900605,1
180,36.03333333333333,-0.413845220084597,0.8504323297690323,0.32480299613265257,-0.4840193696046356,0.7499765030598424,0.45084420225357447,1
181,36.233333333333334,-0.41929328574364766,0.8488165994333965,0.3220303107731022,-0.48435536985545324,0.7508905680453054,0.44895793846727516,1
182,36.43333333333333,-0.6635617524570621,0.5263110106613774,0.5316789639742318,-0.48692557662985914,0.7512276212807686,0.44560132837382477,1
183,36.63333333333333,-0.6700728667106753,0.5180295674876717,0.5316462362386042,-0.49130931473873274,0.750688374252406,0.44168101839816154,1
184,36.833333333333336,-0.6756586460327462,0.5133646651530201,0.5290955628367373,-0.5000541848156498,0.7481163245725153,0.4361969476698196,1
185,37.03333333333333,-0.6799845206633541,0.5114814398590927,0.5253644338341702,-0.5099724172532469,0.7451278685893563,0.42978202974573343,1
186,37.233333333333334,-0.6812025132286834,0.5154185116647612,0.5199104671039119,-0.5152719591820593,0.7458770865283958,0.4220926200167372,1
187,37.43333333333333,-0.6983144534210242,0.6389213286992542,0.32270181263277137,-0.5194638730957132,0.7477861324565673,0.4134890381304562,0
188,37.63333333333333,-0.6942796967661446,0.6449851460475613,0.3193272052868599,-0.521846065754275,0.7499626411641975,0.4064882784470008,0
189,37.833333333333336,-0.6996655878233071,0.6433735956626391,0.3107064235254774,-0.5341127051791302,0.7491907465639472,0.39171015231825035,0
190,38.03333333333333,-0.768554716494278,0.6321990276119527,0.0982244228331303,-0.5798053403633049,0.7428849955920995,0.33458578961204916,0
191,38.233333333333334,-0.8136847146764826,0.5751232214394129,-0.0845604237394963,-0.6639868387778942,0.7096672933207218,0.2355712434075502,0
192,38.43333333333334,-0.8078105004734741,0.5810384010659122,-0.09917949289829853,-0.7516004107537066,0.6475270036088566,0.12572033308974082,0
193,38.63333333333333,-0.8250162958621026,0.5587222639714406,-0.08472038305274349,-0.8430683591776512,0.5372399186107816,0.02467816047812339,0
194,38.833333333333336,-0.9532387348521798,0.30217427888077514,-0.005159414724490885,-0.9043960508625014,0.42564172261452266,-0.029948408205677582,0
195,39.03333333333333,-0.958144337121727,0.28628555858674104,9.047786829981627e-05,-0.9263790470056689,0.37319170888053843,-0.05049564032362225,1
196,39.233333333333334,-0.9552451549517987,0.2958143356572609,0.0007568095980050594,-0.9300779213056314,0.36254301570010955,-0.059309544483715664,1
197,39.43333333333334,-0.9627106182692612,0.26901642913842555,-0.028608151377325405,-0.9404375770362643,0.3306193022883033,-0.07917095839104452,1
198,39.63333333333333,-0.9666136263971808,0.25134007199077146,-0.04986246559252018,-0.9470232397360789,0.30722897395244125,-0.0935806655453552,1
199,39.833333333333336,-0.9341078932533399,0.3569852417710241,0.0019952241704882094,-0.9578279267154899,0.2707234775073518,-0.09630400578497789,1
200,40.03333333333333,-0.9357858983666049,0.3524857114332568,0.00765347330283904,-0.9635979017548123,0.24981982810477601,-0.09523201782711083,1
201,40.233333333333334,-0.9390631202800477,0.3436627980384995,0.007505822689779551,-0.9673718922668382,0.23434731952771296,-0.09629618830593832,1
202,40.43333333333334,-0.9442986444440191,0.32908752454066137,-0.0012129686261128291,-0.9710768721659422,0.21415349909739265,-0.10558402894734224,1
203,40.63333333333333,-0.9470432514859035,0.321103412089029,0.0012955924478853082,-0.9737569845573983,0.20252521925195552,-0.10383097125920607,0
204,40.833333333333336,-0.8121986026906414,0.27645496973288036,0.5137178987512133,-0.9773814809246546,0.19860274097632416,0.0726800661957614,0
205,41.03333333333333,-0.8148078778622201,0.29096381607822774,0.5014261460144066,-0.9646607266433223,0.20982237717682886,0.15938711525039284,0
206,41.233333333333334,-0.8035077878475603,0.30734152724890657,0.5098199883259094,-0.945257934125171,0.22545819758538044,0.23591532191650028,0
207,41.43333333333334,-0.7560653616380221,0.44069909573173155,0.48388994198309343,-0.917450625826393,0.2543480483303749,0.30592714734277776,0
208,41.63333333333333,-0.73822899437446,0.4622311726070714,0.4912843320676588,-0.8794936179419786,0.2922862190885835,0.3755792088630968,0
209,41.833333333333336,-0.566436490250392,0.501488616472739,0.6539563212180732,-0.8280770113897644,0.32034866612141166,0.46007085902285544,0
210,42.03333333333333,-0.5226098403097281,0.4985863888440694,0.691585546169721,-0.779614032547921,0.3409739925556841,0.525298673760943,0
211,42.233333333333334,-0.5208082570699202,0.4877614974121909,0.7006050820612207,-0.7469229701616318,0.3374673245669335,0.5729065207296581,0
212,42.43333333333334,-0.45053924954594327,0.19230356147918243,0.8717991310278995,-0.7028089948720564,0.30015835067745195,0.6449530845305899,1
213,42.63333333333333,-0.45158082346146333,0.19499081506805607,0.8706625878725707,-0.6628126453365208,0.2733211561445154,0.697119030572132,1
214,42.833333333333336,-0.4640633338296316,0.2108004215382351,0.8603536508170524,-0.6455647022141899,0.2761746184054825,0.71202092343111,1
215,43.03333333333333,-0.46984716982769537,0.2081599676899206,0.857853754935092,-0.63616634315876,0.26870028332454454,0.7232513681793626,1
216,43.233333333333334,-0.4796504848489523,0.20612397451489778,0.8529058092863168,-0.6342230851169068,0.2643739348731143,0.7265449062958866,1
217,43.43333333333334,-0.4870037300594297,0.20615556989703462,0.8487209481971274,-0.6325016929765339,0.26349266283929773,0.7283633880225413,1
218,43.63333333333333,-0.4963504580056598,0.2022812810939578,0.8442265727614592,-0.6338788712911343,0.26156323198079795,0.7278614237658407,1
219,43.833333333333336,-0.5034690359042575,0.19673558164778393,0.8413168492306247,-0.6341893335638988,0.2579559219689419,0.7288776519519112,1
220,44.03333333333333,-0.5134096974607228,0.18902724549295505,0.837065817612113,-0.6387316024622729,0.25250278070316956,0.7268179178811871,1
221,44.233333333333334,-0.520285331912403,0.1891952982339012,0.8327714647626836,-0.6407787459329017,0.2553505140780823,0.7240156861012867,1
222,44.43333333333334,-0.5241709626339095,0.19137156315988524,0.8298323485772188,-0.6428524726560313,0.26074369926677954,0.7202453899142305,1
223,44.63333333333333,-0.40232059564051414,0.09339489129793405,0.9107225332684531,-0.6461316712665347,0.26392980196877347,0.7161388992500259,1
