,timeStamp,x_gaze,y_gaze,z_gaze,x_head,y_head,z_head,fixations_head
0,0.033366700033366704,-0.9985638375486707,0.05299229360373724,0.00787903285230383,-0.9977602528668418,-0.06576268085481311,-0.012237140429198287,1
1,0.2333667000333667,-0.9996844413535472,0.02415436295439802,0.006898149455725667,-0.9973345668772038,-0.07234588122892079,-0.00947814227955324,1
2,0.43336670003336675,-0.9998699843692744,-0.01190006929913235,0.01088130084424471,-0.9949261382405983,-0.10046352318572219,-0.005390728592885542,1
3,0.6333667000333668,-0.9999330143624907,0.009306627923741984,0.0068813853715650915,-0.9969882770226982,-0.07599522747174782,-0.01546288720869141,1
4,0.8333667000333668,-0.9993808093796924,0.03280288498549015,0.012726687715977087,-0.9988852919814828,-0.04512264289589136,-0.013860756153907956,1
5,1.0333667000333666,-0.998589706831443,0.04933520375148844,0.01961211567098475,-0.9997026359265785,-0.022279006266579224,-0.009913909482362012,1
6,1.2333667000333668,-0.9997983745689278,0.013096138132285103,0.015221740220833054,-0.9985160958756687,-0.05170058634147611,-0.017107181216083747,1
7,1.4333667000333667,-0.9997860575339101,-0.019856145146519708,0.005794191981770435,-0.996244185154187,-0.08064571626519541,-0.03152446660204893,1
8,1.6333667000333667,-0.9992939601761885,-0.03486161719473726,0.01400888296610361,-0.9950240617977016,-0.09627587037046824,-0.02565293799962449,1
9,1.8333667000333667,-0.9993893013896786,-0.03277520756841176,0.012116519165899174,-0.9947842846256529,-0.09777889336838251,-0.029043330963971156,1
10,2.033366700033367,-0.9994851161817642,-0.030756673266821515,0.009139451880921075,-0.9944463197684276,-0.0998218149958735,-0.03334849846634831,1
11,2.233366700033367,-0.9996755874365189,-0.024615570566468063,0.006541679382095665,-0.9944724932692791,-0.09819216318492853,-0.03718547054762596,1
12,2.433366700033367,-0.9996640156759656,-0.02496657356436913,0.0069660582152241725,-0.9940617300134222,-0.10193823085274685,-0.03807721120742192,1
13,2.633366700033367,-0.9996435922971433,-0.024655147624921128,0.010237776851264837,-0.9937578943260625,-0.10567241280327636,-0.035757357801785974,1
14,2.833366700033367,-0.9993785545955801,-0.03379917279531357,0.010006024825166444,-0.9923179069750192,-0.11794633867889194,-0.037334068743723775,1
15,3.033366700033367,-0.9992006973891238,-0.03853427119565593,0.010633733140737628,-0.9912714681499231,-0.12620008248834866,-0.03813680127947861,1
16,3.233366700033367,-0.9993001394391455,-0.03695579829573413,0.005787943436947508,-0.9907178035295752,-0.12880713321165987,-0.04343910914519236,1
17,3.433366700033367,-0.99932652200761,-0.03538727699892565,0.009707885391537432,-0.9905304966351945,-0.13134348165440124,-0.03997780712513821,1
18,3.633366700033367,-0.9988398797330749,-0.04676197239858598,0.011498373459352701,-0.9883095768592817,-0.1472126913399473,-0.03965606885052275,1
19,3.833366700033367,-0.9983298261816581,-0.057095419672051465,0.00881312705983937,-0.9859222649286324,-0.16134552669263982,-0.04387377957585509,1
20,4.033366700033366,-0.9983141995759671,-0.05771003707756338,0.0061895513167537,-0.9849517292960398,-0.1659732429887777,-0.048197236108812255,1
21,4.233366700033367,-0.9989787649695793,-0.04486506977792697,0.005343468319022515,-0.9862020913434697,-0.1577464330155239,-0.05021451882320386,1
22,4.433366700033367,-0.999639930878444,-0.026804019356881887,0.0012462502380146683,-0.9880136789680487,-0.1439656523489355,-0.05570333128069567,1
23,4.633366700033367,-0.9997017943445711,-0.02426228342947696,0.002768390693601924,-0.9878696414660798,-0.14514643021326626,-0.05519135136979619,1
24,4.833366700033367,-0.9996716537857337,-0.025086876223082602,0.005218549478936513,-0.9873711235607061,-0.1489214055925892,-0.05404330962104861,1
25,5.033366700033366,-0.9996521610378062,-0.025594504812876815,0.00636225241781834,-0.9869105136465206,-0.15187161680873715,-0.054246198593645836,1
26,5.233366700033367,-0.999787951747082,-0.018172279457407396,0.009686062187324629,-0.9877074933733369,-0.14765192190556536,-0.05131098802160353,1
27,5.433366700033367,-0.9998255786767968,-0.012317983486097805,0.014038500861712435,-0.988306839513823,-0.14492750062381737,-0.04738787327082976,1
28,5.633366700033367,-0.9997569290137094,-0.014636633826041998,0.016487930110210887,-0.987871221427049,-0.1482913210237842,-0.04604491269675391,1
29,5.833366700033367,-0.9998080255903932,-0.014727186235677788,0.012923697250392512,-0.9876980724292481,-0.148290040152041,-0.04962440640707335,1
30,6.033366700033366,-0.9998887417698845,-0.013495736120433347,0.006353675188821713,-0.9876078548830752,-0.1467756339503343,-0.0555665209611713,1
31,6.233366700033367,-0.9999002724453298,-0.012767762083080154,0.006035678515720276,-0.9876325258642044,-0.1464447091006031,-0.05599947349334573,1
32,6.433366700033367,-0.9998715898006115,-0.014355334084698275,0.007122379722721364,-0.9874572610366826,-0.14803182216983032,-0.054906623015920836,1
33,6.633366700033367,-0.9998979280285125,-0.014255726673816272,0.0009527755713717609,-0.9871120114488581,-0.1478912364953356,-0.061139668148187463,1
34,6.833366700033367,-0.9999383766697018,-0.009472025373055517,-0.005789956691926729,-0.9874193803540817,-0.1433241712050896,-0.06679183520113563,1
35,7.033366700033366,-0.9998762688910952,-0.012397496288461759,-0.009682406426086127,-0.9866161938587501,-0.14695679808302073,-0.07065539974311767,1
36,7.233366700033367,-0.999796508686646,-0.017825368318084674,-0.009444440815537254,-0.9858005711745037,-0.1521555005136605,-0.07103476286621853,1
37,7.433366700033367,-0.999785624041349,-0.019042436000522786,-0.008129673512317453,-0.9856668199306264,-0.15330360649401673,-0.0704196302445111,1
38,7.633366700033367,-0.999869620793985,-0.014514023779321464,-0.007077042251268547,-0.9863593356484436,-0.14923869853158506,-0.06944833935926732,1
39,7.833366700033367,-0.9999682804450781,-0.007947129043084467,0.0005303241333331014,-0.9877551383451598,-0.14285415269912669,-0.0627094708106269,1
40,8.033366700033367,-0.9798297025344552,-0.17761263930941718,-0.09158331938068169,-0.9884242990133986,-0.14163822315400082,-0.05436928233524035,1
41,8.233366700033368,-0.9758199378671522,-0.19528711057466538,-0.0981753192220218,-0.9880703646595871,-0.14743833264852466,-0.044484745107662135,1
42,8.433366700033368,-0.9741088088291576,-0.20290938625383562,-0.09969859342804925,-0.9872232740003283,-0.15387707305116033,-0.04137697018005059,1
43,8.633366700033367,-0.9739916051965744,-0.20209301718257003,-0.10246348331306024,-0.9871943473091616,-0.1535345003543514,-0.043295240405599844,1
44,8.833366700033368,-0.9742644870350177,-0.20122399816663591,-0.10157564601924991,-0.9872627342996164,-0.15355220621213003,-0.04164148689267131,1
45,9.033366700033367,-0.9740902925905459,-0.2019562941198201,-0.10179271656780542,-0.9870782014009314,-0.15506251540444205,-0.04040099795239633,1
46,9.233366700033368,-0.9747391850202083,-0.19808486646950618,-0.10317900397802804,-0.9875168351664393,-0.1521076243179754,-0.0409117451009088,1
47,9.433366700033368,-0.9751797716425902,-0.19593006770523463,-0.10313011950021223,-0.9878657031375231,-0.15013897108020982,-0.03974470942884307,1
48,9.633366700033369,-0.9751392957027591,-0.19555636466911264,-0.10421642007729907,-0.9878315595090895,-0.1503593820310074,-0.03976010906793475,1
49,9.833366700033368,-0.9748858341352242,-0.19663350989909545,-0.10456038058093844,-0.9876395296925142,-0.1518069042976197,-0.03902336731142935,1
50,10.033366700033367,-0.9748685223783784,-0.19625513103029654,-0.10542906439914299,-0.9876513925227213,-0.15180369141425276,-0.038734559774646,1
51,10.233366700033368,-0.9821456378750175,-0.15714037896556252,-0.10342556406244297,-0.9936800374883679,-0.10636161712581832,-0.035877423256098065,1
52,10.433366700033368,-0.8391240666096438,0.5377984584400677,-0.08150839794758061,-0.9957074347925708,0.08658640834622915,-0.03270318315544423,0
53,10.633366700033369,-0.7715988257533613,0.6305023422172215,-0.08427365279036995,-0.9490795371542954,0.3142264161436784,-0.022578564004129373,0
54,10.833366700033368,-0.7926639254456727,0.6038711782477906,-0.08380633256909856,-0.884662159412985,0.4657047297342381,-0.022180360815697412,0
55,11.033366700033367,-0.7796353276292852,0.6220323319113911,-0.07241915471237108,-0.8525443724490395,0.5225524668764006,-0.01034467819036493,1
56,11.233366700033368,-0.7814808213059716,0.620004464588119,-0.06987266863190614,-0.839544167261885,0.5432532729065751,-0.006439929568141368,1
57,11.433366700033368,-0.7733749382356099,0.6301634454056481,-0.06917540736092112,-0.8205152804883086,0.571616400091633,-0.003060331922324778,1
58,11.633366700033369,-0.7936026325622795,0.6029011761370477,-0.081884268347373,-0.7940563816146262,0.607781337684829,-0.008735466737805262,1
59,11.833366700033368,-0.8075451992863284,0.5842200009367685,-0.08097988401477603,-0.7788252958338825,0.627109245608174,-0.012851172787432344,1
60,12.033366700033367,-0.8023817563938774,0.5917835380856773,-0.07730304688092263,-0.7654524757911876,0.6433874129131131,-0.011625154197395158,1
61,12.233366700033368,-0.813581735543394,0.5758909458306476,-0.08021457536184576,-0.7732670976008689,0.633851978563809,-0.017019548721194114,1
62,12.433366700033368,-0.8283475617334679,0.554200207063084,-0.08186847660396182,-0.7906820426480788,0.6119242542073061,-0.019251351814710046,1
63,12.633366700033369,-0.8363024835924404,0.5418440297663143,-0.08368514410406418,-0.8032640954781548,0.5952257711352305,-0.02175027108180903,1
64,12.833366700033368,-0.8400133438734813,0.5364131788581566,-0.08147689035413656,-0.8121268903381486,0.5831290174043294,-0.02025988772797836,1
65,13.033366700033367,-0.8442391843230095,0.529792279548082,-0.08111929600820607,-0.8211420454195262,0.57035556794427,-0.020500423390898498,1
66,13.233366700033368,-0.8548698227916022,0.5131282914812636,-0.07679155267198368,-0.837368978416158,0.546382156594816,-0.016725218715404975,1
67,13.433366700033368,-0.8600710562808318,0.5047484184527505,-0.07420789861882278,-0.8477330240159153,0.5302408820178591,-0.013904209066124806,1
68,13.633366700033369,-0.8657302322337037,0.4949375336145259,-0.07448491670229283,-0.8590437912088059,0.5117209003538511,-0.013619285100388139,1
69,13.833366700033368,-0.8779880677065797,0.4723579908801549,-0.07755566656621674,-0.8782631688632939,0.4779698223265524,-0.01409450826845582,0
70,14.033366700033367,-0.8235502585750242,0.5608442670388069,-0.08496281381118813,-0.9000390536216831,0.43563432267313773,-0.012346613499313826,0
71,14.233366700033368,-0.8323907948315286,0.5481597052971927,-0.08152608274798243,-0.9165243023270756,0.3998989887470213,-0.00800012768506431,0
72,14.433366700033368,-0.8516483138169446,0.5177237125260082,-0.08159232231676188,-0.9399618861597901,0.3411743892574759,-0.0084669168956705,0
73,14.633366700033369,-0.8290802957168703,0.5561119938843977,-0.058011322273732326,-0.9705312872311196,0.24033316488545706,-0.017578121675718976,0
74,14.833366700033368,-0.9999461425866873,-0.010358026831817892,0.0006505429703043532,-0.9967693885428257,0.07775613876259453,-0.0201188704626664,0
75,15.033366700033367,-0.8477607663350932,-0.5257218830747764,-0.0701297705631987,-0.9781493916108726,-0.20669589131642663,-0.022373560382464068,0
76,15.233366700033368,-0.4721676964447234,-0.8789938329245589,-0.0665395229519736,-0.8243240990380392,-0.5649190753791292,-0.03682686543700053,0
77,15.433366700033368,-0.29777296375718654,-0.9543035750178115,-0.025218024575404015,-0.5694428728635039,-0.8206091586037859,-0.04832621814859795,0
78,15.633366700033369,-0.2954956254084997,-0.94743088324001,0.12270719965631317,-0.42155642435653906,-0.9067164329622811,-0.01246961426376303,0
79,15.833366700033368,0.14576045922944625,-0.9888808707356024,-0.02947052796300173,-0.2976363201275932,-0.9546274825048954,0.009949401352371651,0
80,16.033366700033366,0.24018381228722602,-0.970406028147276,-0.02497752691126135,-0.10090324271887885,-0.9948950125424951,-0.0015651283920719808,0
81,16.233366700033365,0.577068220564334,-0.8153552346319464,-0.04677723990357892,0.12527597344115748,-0.9906436029767692,-0.05414039489674754,0
82,16.433366700033368,0.6385123652292739,-0.7694077355531858,0.01771146296152415,0.25078659639723916,-0.9665914894892916,-0.05298089763642348,0
83,16.633366700033367,0.7119687996127351,-0.7018398715015729,0.022830312057815556,0.35592296876201945,-0.9340043687314639,-0.030897888247742172,0
84,16.833366700033366,0.15939239334976862,-0.9851732153999578,-0.06346495569005911,0.32006187161840133,-0.9472156681268339,-0.01851692175177609,0
85,17.033366700033366,-0.06810902724680135,-0.989257929174531,-0.12934415322237558,0.2021333041472939,-0.9790359460218612,-0.025114612311904358,0
86,17.233366700033365,-0.09049717333669416,-0.9884645399027165,-0.12144181723351934,0.08603291951675313,-0.9951004069133382,-0.04871875327153695,0
87,17.433366700033368,-0.050057430920995405,-0.9921131380012587,-0.11491638270884223,0.011088640571760566,-0.9967926132190432,-0.07925609302900063,0
88,17.633366700033367,-0.2593992752572254,-0.9639351899900407,0.0595060122583467,-0.05163937217606207,-0.9958377391611496,-0.0751037449377378,0
89,17.833366700033366,-0.4025805340701626,-0.8669357762408616,0.2938558719192756,-0.14614550635636503,-0.9892627731161558,0.0008103692830289491,0
90,18.033366700033366,-0.4958389925991359,-0.7792322954661576,0.38332847940221837,-0.29268270318950745,-0.9468844101024338,0.13321692519589445,0
91,18.233366700033365,-0.6870857089099831,-0.6123563384833799,0.3910664180556729,-0.4420376388834358,-0.8705487363711721,0.21621198720911036,0
92,18.433366700033368,-0.8612804231221236,-0.5054694393846172,0.05192955415538048,-0.5482319568449852,-0.8107789899962529,0.2051320327851653,0
93,18.633366700033367,-0.8791152307384527,-0.4747792142075945,0.04172659631573517,-0.6155415102623546,-0.7668559073880813,0.18177091749766358,0
94,18.833366700033366,-0.9417664269673583,-0.33623498179956696,0.004694044245660206,-0.6635110239387005,-0.7296288296073364,0.16551402393043835,0
95,19.033366700033366,-0.9552975588127779,-0.29472187715543197,0.02335785204863379,-0.7603353720548014,-0.632039306029192,0.1497211996893693,0
96,19.23336670003337,-0.9938579032199923,-0.0544522961262031,-0.09634010407792157,-0.8725788923653083,-0.472142249224004,0.12525084070069403,0
97,19.433366700033368,-0.9957667715299129,0.04248625793243602,-0.08150738987228637,-0.9594946632366018,-0.2650927089802796,0.09537214932031784,0
98,19.633366700033367,-0.9797314687600092,0.19976914037039614,-0.014783087533678156,-0.9926699063585058,-0.08597339839639406,0.0849413431632104,0
99,19.833366700033366,-0.9817849660958231,0.1899032683011753,0.0059185333280736665,-0.9956493343958108,0.046989773666643184,0.08046343323483522,0
100,20.033366700033366,-0.9771172385983871,0.2114552245899835,0.02299108582608603,-0.9896814502219851,0.11610365638824406,0.08396766079741129,0
101,20.23336670003337,-0.8999720829498044,0.4348572094418853,0.030813265120840004,-0.9799219594217056,0.18339380772966804,0.07822828599387328,0
102,20.433366700033368,-0.873588852241541,0.48513211098595305,0.03859212522808616,-0.9574140811716989,0.2753537850069129,0.08682494029090182,0
103,20.633366700033367,-0.8538091438549746,0.5202409985368861,0.018953873244781386,-0.9131326904904348,0.39756613737596336,0.09016571393637904,0
104,20.833366700033366,-0.5132578841183684,0.8581894058004282,0.008791368621766913,-0.8151239883366364,0.5709763560353861,0.09776954784966385,0
105,21.033366700033366,-0.49245554541128267,0.8703186460038594,-0.005743710619892368,-0.6846917745058047,0.7224256189010739,0.0964282068665216,0
106,21.23336670003337,-0.5454668716965978,0.838085984928461,-0.008818942568071272,-0.5802298748678665,0.8091045910235588,0.09318290130393952,0
107,21.433366700033368,-0.16498209496633492,0.9841188785467436,0.06550527634030134,-0.472920204536815,0.8772668326761565,0.0821546372836119,0
108,21.633366700033367,0.03232171272694395,0.9976936759562492,0.05968781989069347,-0.3120584334762877,0.9465259748456626,0.08190307099732894,0
109,21.833366700033366,0.038300857310250236,0.9992364360236488,0.00771940749388583,-0.13764012147250942,0.9891630617475399,0.05110415086140758,0
110,22.033366700033366,0.1079916677622525,0.9940709192449307,-0.012680978095800868,-0.008969638106944955,0.9990507833622465,0.04262719619576564,1
111,22.23336670003337,-0.010142390465829154,0.9997163674074265,-0.021548008106042304,0.044990385120581566,0.9985517655083722,0.02949977706381622,1
112,22.433366700033368,-0.03766278576538079,0.9989707526892421,-0.025277457148226032,0.019504741137671144,0.9996547111026096,0.017607488279439146,1
113,22.633366700033367,-0.06636967113199976,0.9973619204300688,-0.02939840862828082,-0.025720055458699098,0.99963815802032,0.007876025453433503,1
114,22.833366700033366,-0.08235889330104884,0.9962309696849392,-0.027218885628039206,-0.06460320836000771,0.9978728228493056,0.008732404500055687,1
115,23.033366700033366,-0.07797239214448037,0.9967222502671126,-0.021565293546129807,-0.07920131977758565,0.9967832704002372,0.012258172608367432,1
116,23.23336670003337,-0.04635093950417568,0.9987498488639406,-0.018717099169915513,-0.0617602797873808,0.9979866959170264,0.014429920762135891,1
117,23.433366700033368,-0.03356993620710225,0.9993175616310048,-0.015410074591449089,-0.0587494065863019,0.9980950002226607,0.018838199390716365,1
118,23.633366700033367,-0.02863710019273502,0.999564315964935,-0.007148058624766897,-0.060366546537259036,0.9977357241927913,0.029653072836575263,1
119,23.833366700033366,-0.03334171441000622,0.9994229922121228,-0.006481721836760113,-0.06665482522613353,0.997313580621372,0.03037690211742715,1
120,24.033366700033366,-0.03286134239671623,0.9994354527566961,-0.006993421830836744,-0.06655471204622876,0.9973071851456631,0.03080338879535839,1
121,24.23336670003337,-0.02908319665572684,0.9995545041507852,-0.006705289267642348,-0.06421860671465474,0.9974366130772899,0.031562215456670505,1
122,24.433366700033368,-0.03135514806044276,0.9994755459946534,-0.008092443932295797,-0.06798566230190534,0.9971935788654974,0.031351491045765255,1
123,24.633366700033367,-0.03041378154072888,0.9995094465527863,-0.007474499591005527,-0.06889989012986225,0.9970999509783327,0.03231861536482487,1
124,24.833366700033366,-0.027489673387608604,0.9995777871510587,-0.009410913411354681,-0.06721168563170449,0.9972495867051561,0.031238616021529168,1
125,25.033366700033366,-0.021641416285220816,0.9997043273430455,-0.011086342623186076,-0.06301609566979682,0.9975670619327852,0.029814906227023045,1
126,25.23336670003337,-0.018619024253902217,0.9997202262147886,-0.014587708280774353,-0.06134113006970021,0.997756037763797,0.026835701363307426,1
127,25.433366700033368,-0.02221771526279892,0.9996604542492199,-0.013614306399699686,-0.06662324747462184,0.9973690892053312,0.028569963137253653,1
128,25.633366700033367,-0.02194739992032585,0.9996758623457817,-0.012902785743991155,-0.06787762093028005,0.9972702636152319,0.02906286093369292,1
129,25.833366700033366,-0.021255464005683677,0.9996876599378318,-0.013144878011045311,-0.068467367638125,0.9972257398791319,0.02920690485525274,1
130,26.033366700033366,-0.019858409027788293,0.9997387818507877,-0.011314223543327636,-0.06866056167018836,0.9971390713492126,0.031613282967200736,1
131,26.23336670003337,-0.016996627496569272,0.9997830303207871,-0.012041882590651842,-0.06656691917265922,0.9973131748071463,0.030582292719013734,1
132,26.433366700033368,-0.003477751229825854,0.9991771721256962,0.040408958775013853,-0.06296443336180724,0.9975558489603897,0.03029535172832321,1
133,26.633366700033367,-0.040295295935524056,0.9864147574157881,0.15925518979870237,-0.06384119985126041,0.9975175817413442,0.02971490061319701,1
134,26.833366700033366,-0.04214850638117312,0.9888737354341057,0.1426612728754181,-0.06289984062451509,0.9975359564230826,0.03107451837915546,1
135,27.033366700033366,-0.046338116896841586,0.9891646259525556,0.13930585661269143,-0.06624423085356862,0.9972436025802295,0.03342003877053848,1
136,27.23336670003337,-0.045871256919314374,0.98969563225142,0.13564064026354597,-0.06590907087743725,0.997269313036144,0.03331533659578811,1
137,27.433366700033368,-0.03748438832668893,0.9899416327774293,0.13642024895788651,-0.058043101917053475,0.9976444621233337,0.03655852177661197,1
138,27.633366700033367,-0.033169657989473245,0.9905305400733244,0.13322545916944586,-0.05377632391527454,0.9979193155327811,0.03556890035895643,1
139,27.833366700033366,-0.03370363450494279,0.9907296554620312,0.13160096811666094,-0.05349024636060673,0.9978898237371002,0.03680615744981434,1
140,28.033366700033366,-0.033651923620922786,0.9909606786842755,0.12986331790852992,-0.053258829039460664,0.9978784034803245,0.03744581414396585,1
141,28.23336670003337,-0.03640438785657274,0.9910388845140345,0.12851711919416278,-0.05629360305726144,0.9976562299070049,0.0388982927976698,1
142,28.433366700033368,-0.039781071442547,0.9911550393794992,0.12660629631857365,-0.05978852287127284,0.9973920096673878,0.04042909329333119,1
143,28.633366700033367,-0.03933406495884767,0.9919200471379128,0.12061281615041596,-0.05966482097450715,0.9974942944897204,0.03801633331260393,1
144,28.833366700033366,-0.03682512800694243,0.992386448687598,0.1175289173288408,-0.05729161970228813,0.997625642584321,0.03821972749915079,1
145,29.033366700033366,-0.038039108566835955,0.992721655388122,0.11426609795957775,-0.05905597718615685,0.9975501142845467,0.037498813974263356,1
