,timeStamp,x_gaze,y_gaze,z_gaze,x_head,y_head,z_head,fixations_head
0,0.041701417848206836,-0.9970844112359585,-0.05763567854770897,-0.050008053637261574,-0.9783214293539602,0.07128065517275846,-0.19443829114906108,1
1,0.24170141784820684,-0.8917530620934635,-0.15542534812335876,-0.4249934557233372,-0.9786383803132839,0.026697536790350876,-0.20384838019253523,1
2,0.4417014178482069,-0.8138682395905427,-0.09773876441937518,-0.5727701306070047,-0.9703695241486695,-0.00273857118119622,-0.2416101960418284,1
3,0.6417014178482069,-0.9506877695516168,-0.006662859208618729,-0.3100780081401105,-0.9615660040529888,-0.01618749623784449,-0.2740963057305174,1
4,0.8417014178482068,-0.9960368494686251,-0.05902886824033663,-0.06652959653327846,-0.95954606904394,-0.023646314215351634,-0.28055693398373044,1
5,1.041701417848207,-0.9493235199394271,-0.3078336603518185,0.06342942569673278,-0.9623870457341835,-0.07747602214884916,-0.2604009220318194,1
6,1.241701417848207,-0.822418888048305,-0.5574187361216612,0.11362889246102828,-0.9355153606315605,-0.2593413858543495,-0.23990217924301405,0
7,1.441701417848207,-0.6486265595797278,-0.7585512065018454,0.06231896438774283,-0.8932015889436843,-0.3866157925367072,-0.229606512254535,0
8,1.641701417848207,-0.660794714542082,-0.747713949613983,0.0653773262370551,-0.8842432241169671,-0.40193277976031716,-0.23783179172973398,0
9,1.841701417848207,-0.6908660600098488,-0.7217666144465246,0.041917077627979527,-0.8864122345256789,-0.3775105770123435,-0.26787891803387787,0
10,2.041701417848207,-0.7583768911953692,-0.6491038798342285,-0.05940239123973589,-0.877382094057153,-0.279924564056913,-0.3896702445214836,0
11,2.241701417848207,-0.8072708348038375,-0.5218192390972146,-0.27571449179018387,-0.782054409370405,-0.1333066827958768,-0.6087858647392088,0
12,2.4417014178482073,-0.03390913816025012,0.029019484124434333,-0.9990035234624456,-0.6383481594374377,-0.0023020160397211396,-0.7697443264259819,0
13,2.641701417848207,0.033568918632642726,0.006846085142291742,-0.9994129571003469,-0.49406313291126147,0.0865971374632018,-0.8651026277159771,0
14,2.841701417848207,0.06976934828513671,-0.009469896375634832,-0.9975181998853466,-0.43151775462266595,0.1608896942489439,-0.8876412190349738,0
15,3.041701417848207,0.14887092679067532,-0.006940955464081235,-0.9888322761185192,-0.3822253431125207,0.20798588776395652,-0.9003586272000479,0
16,3.241701417848207,-0.04972927675632069,0.19132800018970492,-0.980265573901635,-0.3707451427042653,0.2687583618343542,-0.8889977402138369,0
17,3.4417014178482073,-0.3167726570550378,0.40851730256190205,-0.8560190986478277,-0.4433708485092834,0.3489772497543061,-0.8256132083767067,0
18,3.641701417848207,-0.7030352494045775,0.4912487383663029,-0.5142140752139712,-0.6151079252634195,0.4036868506387596,-0.6772585672396413,0
19,3.841701417848207,-0.8517782311883153,0.4469207021259408,-0.27337836579539593,-0.7478358245218906,0.398186023479254,-0.5312150885163592,0
20,4.0417014178482065,-0.633435110110057,0.7549556221896099,-0.16971143097670058,-0.5594069748927354,0.7060438261186138,-0.43424181286599584,0
21,4.241701417848207,0.46666274199118607,0.5037213405821691,-0.7269736558358703,0.09533283248956459,0.8582435649391531,-0.504311049145317,0
22,4.441701417848207,0.5299085579785882,0.17903531679934237,-0.8289410567221367,0.5192968559790679,0.6285553037239758,-0.5790069131976887,0
23,4.641701417848207,0.5235379510484228,0.09492136719626504,-0.8466982625833188,0.6819859040759939,0.33338101603539466,-0.6509626139716915,0
24,4.841701417848207,0.6990449774552445,-0.12520388679432976,-0.7040313247478334,0.7334030784347514,0.1009527803214997,-0.672256246298827,0
25,5.0417014178482065,0.7118715742540589,-0.05953216999825963,-0.6997819535429208,0.7460811384431525,0.12834475375067636,-0.653368624165599,0
26,5.241701417848207,0.7674796525764545,0.5059367302024574,-0.393704213735605,0.7500102613745102,0.2855671119733029,-0.596603748221687,0
27,5.441701417848207,0.6154205686504433,0.7194841814927585,-0.3218695951214731,0.6642142305518124,0.5211144370619938,-0.5359656699995116,0
28,5.641701417848207,0.3071944276245379,0.9271630017243181,-0.214476926194835,0.40076758572504234,0.7968331167027856,-0.4521529899910492,0
29,5.841701417848207,-0.13389916892028997,0.975089418945393,-0.1768378851467972,0.032936186930198896,0.9050972657021262,-0.42392705411312687,0
30,6.0417014178482065,-0.17467119867448855,0.9837879080540021,0.04063649001018598,-0.24366346722837412,0.90107423587814,-0.3587385345552847,0
31,6.241701417848207,-0.17276234633578474,0.9786312963604916,0.11150765656374659,-0.33490855693212973,0.9095635204818556,-0.2460293899157004,0
32,6.441701417848207,-0.306823191612968,0.9452390107304345,0.11127776813803117,-0.43339806414631404,0.8848811011041355,-0.1707382643198657,0
33,6.641701417848207,-0.42954452171344637,0.8948793364730391,0.12117127142825507,-0.575257449921097,0.8032531212023513,-0.15447747275560114,0
34,6.841701417848207,-0.6908437192410667,0.7123503319794402,0.12366066518481793,-0.8031551974383426,0.5749283675857656,-0.15620211577614249,0
35,7.0417014178482065,-0.9734265555170337,-0.226751641527892,-0.03200678176027792,-0.9609835248516484,0.23441247229249473,-0.14683820278599774,0
36,7.241701417848207,-0.9579295515731825,-0.2869946265885058,0.002249118077294064,-0.9881246866986149,-0.04469137253271595,-0.14701117222138807,0
37,7.441701417848207,-0.9096347492143141,-0.4112693268298653,0.05849926350580477,-0.9288318067981436,-0.35092079613859317,-0.1188531426490374,0
38,7.641701417848207,-0.8375236768414186,-0.5414851911649081,0.07312919033555804,-0.8245895878963279,-0.5532846037735409,-0.11801762054930741,0
39,7.841701417848207,-0.4167218285198468,-0.9006090483839623,0.1234757450028542,-0.6922003901863942,-0.7175177180230197,-0.07763339583479727,0
40,8.041701417848207,-0.42378452974242803,-0.898555817926428,0.1140355840146285,-0.4179214058452946,-0.9075655231943608,-0.04082302836927833,0
41,8.241701417848208,0.2907453262073753,-0.9559854529369943,-0.039483782258253365,-0.0060125886808019,-0.9993499422659261,-0.03554633132189342,0
42,8.441701417848208,0.5393531865129912,-0.8419187204222512,-0.01646233278858369,0.46892987619799964,-0.8811307148195864,-0.06093795705841609,0
43,8.641701417848207,0.8384232130677479,-0.5435401913673437,0.040131984220885306,0.7560346862004748,-0.6465782338855016,-0.10172581150944582,0
44,8.841701417848208,0.7930577096569147,-0.6046736367727797,0.07368352696301533,0.819490337947739,-0.5659699898139454,-0.0900752831819237,0
45,9.041701417848207,0.6435539870767191,-0.7596456888134018,0.09368400709230143,0.7587031001317359,-0.6460717399040359,-0.08343208464293256,0
46,9.241701417848208,0.6489192274616856,-0.7571849311903247,0.07466469184850759,0.6744969491761428,-0.7227036183832414,-0.1508421211991064,0
47,9.441701417848208,0.5718681049995138,-0.8139465238980297,-0.10226400499970369,0.5826676921359715,-0.7678362127186815,-0.2663191900310084,0
48,9.641701417848209,0.34232692773275175,-0.24541658404205363,-0.9069636017096746,0.4670935689152191,-0.6352462410570424,-0.6150494379323844,0
49,9.841701417848208,0.19518735531893433,-0.13649735915958866,-0.971221070233785,0.4027570913732541,-0.5032459588440409,-0.7645457672734172,0
50,10.041701417848207,0.1884763221694568,-0.1438920291852125,-0.9714791608256127,0.3939400120630852,-0.48357877559665746,-0.7816411162983775,0
51,10.241701417848208,0.30967829870650565,-0.48016156986554,-0.8206973974215496,0.42797366617182087,-0.5243946027903711,-0.7361038253044064,0
52,10.441701417848208,0.46117466428660403,-0.7121969444083518,-0.5292385486673712,0.49053421336244274,-0.7642038686906764,-0.4187703817118558,0
53,10.641701417848209,0.6422509509872119,-0.755086375208233,0.13175083275225977,0.5695098927802249,-0.8148438366214342,-0.10811107226144084,0
54,10.841701417848208,0.6343577117121361,-0.756005645723693,0.16138697972650862,0.5795308679890622,-0.8149080712272816,0.008295088696099634,1
55,11.041701417848207,0.6220336107033118,-0.7673012507676107,0.1559582563568248,0.5509535495106478,-0.8329425672564725,0.05154479540957695,1
56,11.241701417848208,0.6195781963264952,-0.7741419124654448,0.12971953592713303,0.5231491863982357,-0.8502990432081612,0.057501877275007024,1
57,11.441701417848208,0.6498468231132505,-0.7526207145670253,0.10611864348094657,0.5524805532295405,-0.8318006001361101,0.05360037235307513,1
58,11.641701417848209,0.6548877768999084,-0.7510319825974147,0.08410089644523865,0.5794995292667293,-0.8138522273988641,0.042718234251273114,1
59,11.841701417848208,0.5013154850224435,-0.8643195677871331,0.04042856931645658,0.5589597230385244,-0.8290066289776156,0.01766457279037114,1
60,12.041701417848207,0.29149195448540327,-0.9563235089560956,0.02185833223693429,0.534211171832583,-0.8452105816532858,-0.01541092309281989,1
61,12.241701417848208,0.28857430438064124,-0.9573447049591558,-0.014696487263841812,0.5144822285365884,-0.856057134406927,-0.04974152340877826,1
62,12.441701417848208,0.6592611209456,-0.7519081697945712,-0.002979698932714751,0.5030656268568674,-0.8614519740058123,-0.06946561420297181,1
63,12.641701417848209,0.6599857231722477,-0.7511353158340399,-0.014648635284639807,0.4998488708964799,-0.8613748166471752,-0.09046840061347179,1
64,12.841701417848208,0.7938632434184026,-0.6080735932630833,0.005258890124011563,0.5989308267494645,-0.7894868531343916,-0.13413565334078292,0
65,13.041701417848207,0.8923149367386318,0.05194424970489875,-0.4484148175470193,0.8587394455339061,-0.4514115154596057,-0.24247517067646676,0
66,13.241701417848208,0.9610443593128831,0.07425464149070654,-0.2662329574826848,0.9470155236771929,-0.0593439198297217,-0.31565787982189775,0
67,13.441701417848208,0.6455318007640689,0.47989344825815045,-0.5941304339294534,0.8973794595686804,0.2268556722927192,-0.3784793382641142,0
68,13.641701417848209,0.6785529059060366,0.3741036223933962,-0.6321490596359478,0.8556148216410642,0.2812331341235531,-0.4345471220238073,0
69,13.841701417848208,0.7386318940205665,0.26354719503721263,-0.6204561234475875,0.8913993016495863,0.12974241939808373,-0.4342512977843151,0
70,14.041701417848207,0.7512694112420242,-0.5072261587937915,-0.4222746683941129,0.8773794983676142,-0.23416229193725366,-0.4187758790557149,0
71,14.241701417848208,0.11569110344878536,-0.9848589892153298,-0.12910592528835232,0.5617246441282086,-0.7386130267685467,-0.3727146641424827,0
72,14.441701417848208,-0.05213940379748866,-0.9961547943605168,-0.0704067343668164,0.07702212431323557,-0.957362807712821,-0.2784314040737886,0
73,14.641701417848209,-0.5125775236464905,-0.8582210236710008,-0.026850638382191608,-0.26651014940747053,-0.9396816168971351,-0.21440802020538685,0
74,14.841701417848208,-0.5910890830117566,-0.8057360565901827,0.03745801723026904,-0.4495620970863564,-0.8809872315121439,-0.14749718226422318,0
75,15.041701417848207,-0.6383716999924698,-0.7574509993058434,0.13692901920083814,-0.558472025440495,-0.8256724872099358,-0.0798369630243394,0
76,15.241701417848208,-0.5604457535428613,-0.8125123242231888,0.1603879057822203,-0.6352454274574737,-0.7719767315566548,-0.022697419004732367,0
77,15.441701417848208,-0.6457053631547521,-0.7527959175542296,0.12791751446488892,-0.6631374526492454,-0.7480428633135439,-0.02608818773975796,0
78,15.641701417848209,-0.9395358698896873,-0.3420593292513296,0.016363510098989852,-0.7191963536813174,-0.6940184022201528,-0.03309172451359629,0
79,15.841701417848208,-0.9547062852160082,-0.29727235516016115,0.012847405441620417,-0.79118090704703,-0.6098136983965199,-0.04647607526671516,0
80,16.041701417848206,-0.9560548429965858,-0.29316727447214935,-0.0034765444547087227,-0.8241679051658474,-0.5625705956321634,-0.06528084730311003,0
81,16.241701417848205,-0.9572065326899433,-0.28930152426745054,-0.007764137571333105,-0.840282055083154,-0.5352437354185043,-0.08625666119481948,0
82,16.441701417848208,-0.9615624937589644,-0.27434181757600223,-0.011581784194908339,-0.8807022029197401,-0.4628512091061721,-0.10065976356654051,1
83,16.641701417848207,-0.9404260420789784,-0.3392866432549115,0.02198711187223399,-0.9115303861273332,-0.40320631033445364,-0.08085187983610122,1
84,16.841701417848206,-0.9389310847580603,-0.34314735743072866,0.02565753619036773,-0.9214745658902639,-0.3831815345439574,-0.06369094128593121,1
85,17.041701417848206,-0.9383516381111942,-0.3449275703315563,0.022829246137536296,-0.9255261060112223,-0.37373706424476255,-0.06100847401312477,1
86,17.241701417848205,-0.942390995012111,-0.33367102315640895,0.0237246881083584,-0.9343063986732258,-0.35245834519470903,-0.05333543194607897,1
87,17.441701417848208,-0.8991644580392624,-0.256023370820533,0.35490183289559285,-0.938436541961432,-0.34417001330426916,-0.029729760402814703,1
88,17.641701417848207,-0.8808241882294152,-0.27238914838060607,0.3872375256538032,-0.9284713250041966,-0.3714004106701653,0.0016533599077080483,1
89,17.841701417848206,-0.8795627205806096,-0.28230836913006857,0.3829770297079935,-0.9207522693469881,-0.39014772448525337,-0.00010757021253792265,1
90,18.041701417848206,-0.831538926476987,-0.4590414525970931,0.31276821857575465,-0.9177149363689108,-0.3964857339575753,-0.02446136409787972,1
91,18.241701417848205,-0.7800261875930319,-0.5452735625841505,0.3069786452114695,-0.89677664934415,-0.43177422088208695,-0.09676085661436898,1
92,18.441701417848208,-0.6790010460578844,-0.6565917731169146,0.3283973552382614,-0.8795068618472835,-0.46568586588162925,-0.0980018075426205,1
93,18.641701417848207,-0.5857017123810866,-0.6780177409073512,0.4441232341690253,-0.8416476323318256,-0.5367835070927102,0.05909931897647194,0
94,18.841701417848206,-0.36848943606310103,-0.4569352364978339,0.8095836739686433,-0.6922170681873211,-0.5745435668273479,0.4367324356255885,0
95,19.041701417848206,-0.3506687124806407,-0.41839059502585035,0.8378429232744556,-0.562966522799892,-0.5416262174623596,0.6242673584002413,0
96,19.24170141784821,-0.36335501730727726,-0.26626562262213366,0.8927909887578815,-0.50884287627467,-0.4999763187498975,0.7007871345521564,0
97,19.441701417848208,-0.3629811171076255,-0.2554011855907643,0.8961110104346071,-0.49932467379832446,-0.4802707611773236,0.7211205628009445,0
98,19.641701417848207,-0.572735180995708,-0.11843556926815776,0.8111395862500739,-0.5173207927840784,-0.4529200432911312,0.7261147510816818,0
99,19.841701417848206,-0.6066071847416881,-0.07317319239409108,0.7916270632909295,-0.548558186858844,-0.3961440039701806,0.7363109694610093,0
100,20.041701417848206,-0.539525473873554,0.22370746470495198,0.8117063713417556,-0.6217870214687519,-0.1823420995600888,0.7616641377018066,0
101,20.24170141784821,-0.5283956050759342,0.44121199681929846,0.7253482325057149,-0.6467892821337111,-0.0018108175726062189,0.7626666017708378,0
102,20.441701417848208,-0.4794735243655306,0.5371789719950213,0.6939336362209785,-0.6577204106069463,0.15545753035035592,0.7370460078776616,0
103,20.641701417848207,-0.5148783959634369,0.4988566792808225,0.6971673048178816,-0.6483059861010749,0.2918756971710242,0.7032125751054527,0
104,20.841701417848206,-0.6084996580054335,0.32598833481912737,0.7235051981631663,-0.6832568054175265,0.33478806094033836,0.6489045323485152,0
105,21.041701417848206,-0.9289255015076798,0.2566145678219105,0.26692016827186327,-0.7586464174304056,0.2919482350120297,0.5824275417537976,0
106,21.24170141784821,-0.9623139544428556,0.27154960891556074,0.014582968914443016,-0.8587037835029371,0.22094617443712267,0.46239658324791044,0
107,21.441701417848208,-0.9318379046201339,0.3503634077114609,-0.09446481911257075,-0.9749599590850415,0.14609358087582788,0.16765960696534016,0
108,21.641701417848207,-0.6232440589255493,0.3428856462874947,-0.702848686833812,-0.96054359270787,0.029013634677470614,-0.2766120306686962,1
