,timeStamp,x_gaze,y_gaze,z_gaze,x_head,y_head,z_head,fixations_head
0,0.041701417848206836,-0.9939434782295676,-0.10743518276997151,0.023109383117947385,-0.998052096268074,-0.0587411676300949,0.021011624410227133,1
1,0.24170141784820684,-0.994348084374839,-0.09831495912239192,0.040075627416805544,-0.9981962669987752,-0.04843845009494443,0.03546729623342539,1
2,0.4417014178482069,-0.99441923398513,-0.09441531807015716,0.04707584087553211,-0.9980447544920689,-0.04422946034395104,0.04416359211555417,1
3,0.6417014178482069,-0.9497626819426185,-0.12954100985887315,0.2849034481256895,-0.9944134243859764,-0.08005417473859386,0.0687987682148372,1
4,0.8417014178482068,-0.9011017185209589,-0.09077080945052511,0.42400041630907775,-0.9918531866769924,-0.07993500801905952,0.09918493117247014,1
5,1.041701417848207,-0.8922523437949181,-0.039039314703656104,0.44984629252661856,-0.992918126134255,-0.01702212831842483,0.11757483549446747,1
6,1.241701417848207,-0.9699195536563615,0.02366746225400994,0.24227238939982326,-0.9912724533049524,0.039309402106167936,0.1258320079504301,1
7,1.441701417848207,-0.9234627108228102,-0.1715403589067867,0.34320624555202617,-0.9909778898028108,0.03558977300235421,0.12921373758083618,1
8,1.641701417848207,-0.9170312709228801,-0.17006807059011228,0.36073605241966683,-0.9860395235146902,0.053282050937816704,0.1577563980153667,0
9,1.841701417848207,-0.8636070218919651,-0.3110274198699086,0.3967932154510187,-0.9861837522348657,-0.009351624846328047,0.16539091250940963,0
10,2.041701417848207,-0.8548843111173418,-0.348574035056478,0.38427718731388905,-0.9807681687054872,-0.06913898007610052,0.18252013776052706,0
11,2.241701417848207,-0.9979399419390363,-0.05955126737413373,0.023864593791788898,-0.9845243751190597,-0.028070437008861752,0.17298498594547668,0
12,2.4417014178482073,-0.9991904910544867,-0.03304743406844503,0.02293969676753097,-0.9881728489724495,0.036973555933062265,0.14881994730323336,0
13,2.641701417848207,-0.9943662782098761,-0.10011808461975895,-0.03481485158822571,-0.9961002361344458,0.07284898493360491,-0.049772934081137754,0
14,2.841701417848207,-0.8542676077523373,-0.5162134629556786,0.06124144845123659,-0.9789087999967967,-0.15806833218643318,-0.12942937706962368,0
15,3.041701417848207,-0.6929522193515174,-0.717243395430325,0.0733425756800575,-0.8721232130809087,-0.38604528080305667,-0.3006162709753442,0
16,3.241701417848207,-0.6939365160447558,-0.7097574407147654,0.12122906850129876,-0.8013485403960279,-0.4936500579603373,-0.3378611209963524,0
17,3.4417014178482073,-0.8120386645346866,-0.5792492796563898,0.07115812896835276,-0.866388964138981,-0.41752552450931335,-0.2739390428569944,0
18,3.641701417848207,-0.9371961398461197,0.3466730665309516,0.03848610657833833,-0.9743164325845052,-0.04618113581346604,-0.22039689628209766,0
19,3.841701417848207,-0.9313379254187101,0.363140503153322,-0.027177999306896322,-0.9419337105723711,0.2773640762518474,-0.189288283029681,0
20,4.0417014178482065,-0.6349648823393452,0.7724380487061859,0.012611863730694351,-0.8635588112255109,0.4765257551573262,-0.16489203809317982,0
21,4.241701417848207,-0.4465465834138058,0.8894328309881604,0.09749557939641852,-0.6951704011816637,0.7092030048658442,-0.1173422822778833,0
22,4.441701417848207,-0.31108098288733477,0.944211678534879,0.10813384393517306,-0.476540410002097,0.8679157838492965,-0.1401122042517874,0
23,4.641701417848207,-0.271581052043366,0.9623193476235329,-0.013609017614688922,-0.25886895714348424,0.9444318701864693,-0.20257172952693292,0
24,4.841701417848207,-0.07899603254231502,0.8795602784354892,-0.4691836990359519,-0.19088504945682389,0.8870112773874378,-0.4204448735344171,0
25,5.0417014178482065,-0.33893492441882145,0.8059558825862964,-0.4853434169057537,-0.23951960256876315,0.8647365814961522,-0.44143063397056004,0
26,5.241701417848207,0.2606713797530388,0.9011481047766975,-0.34638493765609013,-0.10903633935962487,0.9081264244726837,-0.4042492719517404,0
27,5.441701417848207,0.5157622543433352,0.82489047880123,-0.23139791480857919,0.20393270087733695,0.9395299582673845,-0.27512708160223265,0
28,5.641701417848207,0.6763745647318573,0.7188045158572903,-0.16074052434578234,0.4184134027776453,0.895354168608411,-0.15254880245866717,0
29,5.841701417848207,0.7045261362759785,0.6909190106312206,-0.1620920851010823,0.5700596994429289,0.8088222179643111,-0.1443556677042174,0
30,6.0417014178482065,0.6758997543635845,0.7191406780955719,-0.1612333934378582,0.6650966229344846,0.7370994486951377,-0.11971167401080242,0
31,6.241701417848207,0.9089049697603955,0.416902856107833,0.009152295558270436,0.7883578287949772,0.6136859697395965,-0.04337584952990122,0
32,6.441701417848207,0.9690426481742315,0.24646132176054453,0.01460009916124628,0.8838769803141235,0.46568510193875823,-0.04357601981680757,0
33,6.641701417848207,0.9748535857400173,-0.0447100162739909,0.21831514105670752,0.9561625590114126,0.2923740292689982,0.01644955177985933,0
34,6.841701417848207,0.9627506825181544,-0.06209792384898395,0.2631633925234923,0.9615414696715403,0.2576495653894131,0.09515620608526133,0
35,7.0417014178482065,0.9811068914455546,0.1538052529823354,0.11735932733737334,0.9094086802925058,0.41526142818871165,0.02310407901896966,0
36,7.241701417848207,0.3018846171477276,0.8373172518173877,-0.4558130074257951,0.5864260633188001,0.7213664806968837,-0.3684221393828114,0
37,7.441701417848207,0.33409952220131683,0.8712378026302526,-0.35961396042542726,0.2484322013378168,0.7912443725299275,-0.5587609366072115,0
38,7.641701417848207,-0.04379932932597236,0.8485448281973597,-0.5273075888796869,0.061589916845604664,0.8082894373516567,-0.585555178961551,0
39,7.841701417848207,-0.43763831209171883,0.8312379474326828,-0.34280633386419823,-0.0929425047488679,0.8428341352123027,-0.5300870790086635,0
40,8.041701417848207,-0.49120777598796844,0.7948403908107822,-0.35629155749851454,-0.2626242225411088,0.8463678722506387,-0.4633464606065371,0
41,8.241701417848208,-0.34131682497504934,0.6487266491148966,-0.6801886206906946,-0.3231973009148379,0.8060258917599479,-0.4958485318057769,0
42,8.441701417848208,-0.33130975494331044,0.6279652932265717,-0.7041970156016493,-0.314752496970348,0.7731618258103805,-0.550592096529264,0
43,8.641701417848207,0.09307666741264256,0.7206481705361288,-0.6870247071876578,-0.2817815928447647,0.7530885334564544,-0.5945223248207538,0
44,8.841701417848208,0.22771636530776734,0.7138051106197126,-0.6622896051005175,0.01742024250279056,0.7955175626723433,-0.605680066232164,0
45,9.041701417848207,0.46933368589114566,0.6912489732522743,-0.5494549556292202,0.2441317941503422,0.7635111702872854,-0.5978715246033005,0
46,9.241701417848208,0.2573525141424966,0.8919531663535114,-0.3717381235446289,0.20461463804051483,0.8154201726434073,-0.5415005004113526,0
47,9.441701417848208,0.03887389681742437,0.9983562984664424,-0.04211319815227177,0.08448449490225796,0.9371484139449997,-0.3385486971788286,0
48,9.641701417848209,-0.2611799859129639,0.9540157768637048,0.14710170785428026,-0.08387098844994079,0.9955930214303066,-0.04195465380268675,0
49,9.841701417848208,-0.48756985245227474,0.8333123700595594,0.26051129128194617,-0.25036593836270166,0.9626726418603208,0.10285077307164349,0
50,10.041701417848207,-0.4918875323059345,0.8507128551543773,0.1852951527619265,-0.3491554729655815,0.9267257264474876,0.1388160064205771,0
51,10.241701417848208,-0.5454929412262823,0.8265254291586753,0.13889984170749517,-0.5235121541059656,0.8403655596260858,0.14043059032015495,0
52,10.441701417848208,-0.9553416487551514,0.16642500914087613,0.2441824123196595,-0.7777291259012009,0.6100872796584468,0.15142958074270071,0
53,10.641701417848209,-0.9556750490893058,0.146274595559223,0.2555170116492037,-0.9357286152175193,0.324033798040198,0.13933433313705704,0
54,10.841701417848208,-0.8796206153330703,-0.21631081164106872,0.42364750187892414,-0.9825520749539056,0.07052174316725451,0.1720991102371724,0
55,11.041701417848207,-0.8459468323292962,-0.2642845325325704,0.46317128876482666,-0.9643181592482237,-0.09908582230416248,0.24550455711131958,0
56,11.241701417848208,-0.9080015739576955,-0.40157975598266793,0.11944388337310985,-0.9376939766549371,-0.24641933517062384,0.24496431862440374,0
57,11.441701417848208,-0.8821508705307191,-0.4652245412055072,0.07332099209653438,-0.8997916651485944,-0.38844164398122,0.19871599973400808,0
58,11.641701417848209,-0.4425810407761877,-0.8925493762585864,0.08647330967342082,-0.7297521312291062,-0.6638678517003216,0.16352768097596515,0
59,11.841701417848208,-0.1766991554049701,-0.9829431935691783,0.05099104524517268,-0.4549900265544198,-0.8852343554007304,0.09666546308926564,0
60,12.041701417848207,0.028498223705129666,-0.9949515579318658,-0.09622498955367874,-0.25908099579878396,-0.9652998472483996,0.03276038031109209,0
61,12.241701417848208,0.09325072502415843,-0.972310883673042,-0.21427983520018187,-0.18357734318901736,-0.9803921372938451,-0.0716283198188278,0
62,12.441701417848208,0.3013022858920239,-0.9467087579165773,-0.11383962491282497,-0.04544384634853632,-0.9925141957795034,-0.1133597283219068,0
63,12.641701417848209,0.5170724090382971,-0.8553463080294211,-0.03191891526619899,0.1332745240337379,-0.980286310658209,-0.14586517877717908,0
64,12.841701417848208,0.49100747377800685,-0.8700537095419264,-0.043797296794131045,0.2966052712402752,-0.9446971980646224,-0.13990181214456815,0
65,13.041701417848207,0.7047527935314609,-0.7060955492660852,-0.06893892453634239,0.3900435901986737,-0.9109174894763538,-0.1345188652606985,0
66,13.241701417848208,0.6872138866689173,-0.7222177409711539,-0.07834927310399485,0.38756112225126743,-0.9109257689665003,-0.14145889845509352,0
67,13.441701417848208,0.11846564951924715,-0.99209438396543,0.04140800874513305,0.043103802791589985,-0.9936226908284631,-0.10419218039616954,0
68,13.641701417848209,-0.5365233455609144,-0.8438739430427501,0.004412246775223516,-0.34472175286761925,-0.9354672474703382,-0.07789699615610951,0
69,13.841701417848208,-0.572118602559184,-0.811117970930074,0.12152342095253205,-0.5096817110352734,-0.8595322180134757,-0.03780105333176859,0
70,14.041701417848207,-0.5391062824037669,-0.8415778505471475,0.033333732782769854,-0.5848060195155287,-0.8107302586187458,-0.02680237486464318,0
71,14.241701417848208,-0.583725025249235,-0.8096118680947039,0.06159316470180467,-0.7136535184301378,-0.6996863631213299,0.03372905119228394,0
72,14.441701417848208,-0.9450476245192008,-0.3252731497882753,0.03289932244636862,-0.8528359921724448,-0.5163903441306448,0.0775356881950277,0
73,14.641701417848209,-0.9756497858390621,-0.21771753194825536,0.026581415962148785,-0.9104368214569909,-0.40123814664813406,0.10056213904676982,0
74,14.841701417848208,-0.9062723113275011,-0.20356851915955645,0.3704461576643691,-0.9204006892043,-0.3244797081389113,0.21811806508938433,0
75,15.041701417848207,-0.8798076408047765,-0.1830469644069689,0.4386710886335312,-0.9115737252378003,-0.2827664068114783,0.29845686896937906,0
76,15.241701417848208,-0.7659986034380963,0.04141542257394325,0.6415067437711844,-0.8851723221736923,-0.25874748950848936,0.3866777686015678,0
77,15.441701417848208,-0.7393192558382068,0.041908233052860885,0.672049654377731,-0.8526968188149646,-0.22562273814787623,0.47117142868970124,0
78,15.641701417848209,-0.771617541205069,0.00709180066429263,0.6360472281741207,-0.8493405241879357,-0.23863975192889417,0.4708202871281977,0
79,15.841701417848208,-0.7937399950498645,-0.015603553792354966,0.6080570280551739,-0.8528925687944124,-0.24542079887092977,0.4608067898553828,0
80,16.041701417848206,-0.8267234795159087,-0.08926146914716618,0.5554823836475811,-0.8659512957654564,-0.2444762756981963,0.4363023080191838,0
81,16.241701417848205,-0.5998731605825238,-0.7791597606448061,0.18183030166796219,-0.8471550462076187,-0.42198143356769635,0.32289316717626476,0
82,16.441701417848208,-0.4816303838999224,-0.8763566738249328,0.005581536250332258,-0.8016093286757032,-0.5849718612122742,0.12341153013368167,1
83,16.641701417848207,-0.48352713312022183,-0.8743376298490876,0.041655978759588264,-0.7461367323212469,-0.6623058758069856,0.06805074248319422,1
84,16.841701417848206,-0.45376754723970614,-0.8904325937214235,0.03499727290232529,-0.7259878466877577,-0.6854272258570587,0.05595680937624898,1
85,17.041701417848206,-0.4377524025686488,-0.8985740462288294,0.030618907382948903,-0.7132211356205639,-0.6990188063522123,0.0518490122378582,1
86,17.241701417848205,-0.44668824117050693,-0.894632892780061,0.010079799401752255,-0.7206420890250067,-0.6927485999200291,0.0278272678233762,1
87,17.441701417848208,-0.563908087902713,-0.8254202365391189,-0.026250743029698563,-0.8008036739239546,-0.5973057731759764,-0.04403736096254851,1
88,17.641701417848207,-0.9503666968180926,0.3099472466807442,-0.02712647883699091,-0.9803886331645348,-0.1681889759659063,-0.10271609574606583,0
89,17.841701417848206,-0.9543798330435986,0.2882330826447311,-0.07797964060438368,-0.9721024174963281,0.21516473078268797,-0.0933864472233977,0
90,18.041701417848206,-0.8117071068184963,0.5822523026399969,-0.0459763940600789,-0.9139529499490534,0.401084738371578,-0.061814544605828615,0
91,18.241701417848205,-0.6582591055822213,0.7525768308649167,0.01797396905007642,-0.8254937745429016,0.5644061290472021,-0.0023978500508361022,0
92,18.441701417848208,-0.6327501569759879,0.7732946151807,0.040529951633278695,-0.7469123428559374,0.6634059387464757,0.0448833212380966,0
93,18.641701417848207,-0.5129586850431609,0.8507477798102155,0.11446223214135129,-0.6218407780651162,0.7760762406157468,0.10497483263668761,0
94,18.841701417848206,-0.5265699524855856,0.8490701481285914,0.04247315265224027,-0.5027391584151353,0.8640044627190556,0.027379316967334387,0
95,19.041701417848206,-0.04441975180720248,0.9121080048462418,-0.4075363457960464,-0.40883772737593893,0.8871156483711574,-0.21419042716493736,0
96,19.24170141784821,-0.08156406249199177,0.881985360165196,-0.464164979467508,-0.36925504953371174,0.8786543757411607,-0.3026833269025034,0
97,19.441701417848208,-0.11645421085257507,0.8861939097860274,-0.44844037622950317,-0.31609907553516003,0.8362223667651449,-0.44812222413926,0
98,19.641701417848207,-0.03852205222613525,0.8378575521952357,-0.5445280284078085,-0.2517757155960148,0.8140374928178964,-0.5234041930696277,1
99,19.841701417848206,-0.05751599923901479,0.8694333765440734,-0.49069085337176344,-0.17138689384003192,0.836178682424086,-0.5209911166991099,1
100,20.041701417848206,-0.2148505854367611,0.8880962497430253,-0.40635486600981613,-0.15676421494895626,0.8399910670419419,-0.5194612480264316,1
101,20.24170141784821,-0.24505056429097383,0.8836856748352344,-0.39881054277898936,-0.17871434844978876,0.8378134657226076,-0.5158776776640378,1
102,20.441701417848208,-0.14100456392007554,0.8812896897005501,-0.4510501034045086,-0.1780193463093705,0.8373687852237705,-0.5168390754117298,1
103,20.641701417848207,-0.15413765114824968,0.8773983771678534,-0.4543277145868585,-0.19405324341589344,0.8337373061040193,-0.5169385293535246,1
104,20.841701417848206,-0.23332965027714947,0.8619989310150631,-0.4500167966092287,-0.28746477702148177,0.8117800181837317,-0.508308178224205,1
105,21.041701417848206,-0.46740142001081086,0.7498948163540738,-0.4681812437263667,-0.44235999036850454,0.6949544532998883,-0.5668826569580604,0
106,21.24170141784821,-0.7745813240383883,0.4353040674034556,-0.45883999537196574,-0.5648568744222191,0.5390167416523018,-0.6248181044404022,0
107,21.441701417848208,-0.8379067943217836,0.1155814275774736,-0.5334352234606801,-0.6967213310516478,0.3578911968323095,-0.6216858355210917,0
108,21.641701417848207,-0.8095484435908746,-0.3226019473956724,-0.49046845058180105,-0.8190063113313437,0.0832224297951193,-0.5677170855086389,1
