,timeStamp,x_gaze,y_gaze,z_gaze,x_head,y_head,z_head,fixations_head
0,0.03333333333333333,-0.9885102774157121,0.0043682199866040055,0.15109053609561596,-0.9922540804214528,-0.016060892837758627,-0.12318233480589218,1
1,0.23333333333333334,-0.9892282035401593,0.018234002852463328,0.14524146260860296,-0.9938285353858484,-0.0011883115707200611,-0.11092082837966497,1
2,0.43333333333333335,-0.9671235503114367,-0.2526848916146831,0.028677238058746675,-0.9915379634900833,-0.010214473794448781,-0.12941457214332927,1
3,0.6333333333333334,-0.9296378336833513,-0.3655497047650444,0.046334776687869304,-0.98225528878612,-0.14573849965644148,-0.11804591212568787,1
4,0.8333333333333334,-0.9276036841673813,-0.3703015631615588,0.04927633751819862,-0.9769673387464679,-0.16664202796584282,-0.13328635915980133,1
5,1.0333333333333334,-0.936376652661502,-0.3469395963851992,0.05321353972924219,-0.9775123875153325,-0.1533007532107472,-0.14480473514043707,1
6,1.2333333333333336,-0.7280696156917424,0.6548492185095319,-0.20269961944693832,-0.953711279417178,0.19253287585723378,-0.2310105781703335,0
7,1.4333333333333336,-0.7725621711118965,0.6168465292512023,-0.15049269456561176,-0.7768331488933381,0.5876803870827699,-0.22619023281014317,0
8,1.6333333333333335,-0.4982206788897373,0.8579209829607372,-0.1254900080577399,-0.6219576244712938,0.7460205636365108,-0.2379538442502832,0
9,1.8333333333333335,-0.47962853868364946,0.8697776580175929,-0.11594520470299063,-0.464671031884314,0.8471893315389477,-0.2575870118118496,0
10,2.033333333333333,-0.03459890344955535,0.9560024684949205,-0.29131116715928873,-0.2973223417858123,0.9004529899007349,-0.3174647036346362,1
11,2.2333333333333334,0.09080992926626241,0.9282505133437997,-0.36070007100585516,-0.2524858216199357,0.9115454112167872,-0.3245548846813508,1
12,2.4333333333333336,0.10973189843742198,0.9141413547307015,-0.39026208378016586,-0.25152474537506014,0.911836135836801,-0.32448445855883784,1
13,2.6333333333333333,-0.13205512157807447,0.9490088019970755,-0.2862581677386269,-0.2515246293809897,0.9180728242380068,-0.3063945988597154,1
14,2.8333333333333335,-0.12103880549938068,0.9494598047771008,-0.2896129946599649,-0.2512806754659312,0.9190515221913393,-0.30364835203762786,1
15,3.033333333333333,-0.141149511518885,0.9568749255630441,-0.25390390352788866,-0.2901887154151412,0.922339161462263,-0.25510974242235446,1
16,3.2333333333333334,-0.12020489850321658,0.9438355380860033,-0.30777468937801966,-0.3628048662993546,0.9039072068719877,-0.2265488696824354,1
17,3.4333333333333336,-0.15370604167347784,0.9337054114455418,-0.3233707738655161,-0.4262840115168981,0.871565933398373,-0.2421874589331249,0
18,3.6333333333333333,-0.766534663179623,0.6356600664008206,-0.091437903122318,-0.6033340993998256,0.7718150759025267,-0.20072232838171847,0
19,3.8333333333333335,-0.9964638670204993,0.08250760484285478,-0.015882596313214165,-0.9289687918230317,0.35740403349358585,-0.09632933437625843,0
20,4.033333333333333,-0.8905934493840636,-0.4540676445797464,0.02580469065880731,-0.986734320162796,-0.11902321434686663,0.11040315149217964,0
21,4.233333333333333,-0.9122821051568972,-0.4095059169216769,-0.006801809806008183,-0.9560737689287014,-0.2516347081029681,0.15034268204472848,1
22,4.433333333333334,-0.9144579042518902,-0.40229003223064974,-0.04392574779220193,-0.9467458289027157,-0.2955797816699671,0.12769075190962284,1
23,4.633333333333334,-0.9418090014049504,-0.32607722304847514,0.08166669750642208,-0.9384983883547696,-0.3245374839039331,0.11788213009953925,1
24,4.833333333333334,-0.9413538325738973,-0.3277435694567402,0.08023163078356593,-0.9326476143684592,-0.34239913484241663,0.11371569756188644,1
25,5.033333333333333,-0.9468837845163871,-0.31412151174179365,0.06883875711381164,-0.9360036850432966,-0.3378426303027829,0.09878997284880227,1
26,5.233333333333333,-0.829496813657715,-0.5575608905952478,-0.03257129733879798,-0.9365065256852185,-0.34061825515437294,0.08327503590267459,1
27,5.433333333333334,-0.8306772504808112,-0.5564249312895858,-0.01914683715446063,-0.9352834785221749,-0.34582430300016775,0.07516891816375072,1
28,5.633333333333334,-0.8423533724133481,-0.5387659566034554,-0.0131164015272199,-0.9437310143341453,-0.3249328972823309,0.0615661014484069,1
29,5.833333333333334,-0.7320465353811202,0.6243952046541952,-0.27246742638587923,-0.9950952562490257,0.09675219145058024,-0.020602049417381686,0
30,6.033333333333333,-0.34108254827436485,0.9294982499946383,-0.1403413642500687,-0.7524051615504841,0.6545956046352828,-0.07342388755955705,0
31,6.233333333333333,-0.38983517104955784,0.9081640145946405,-0.1525341339114228,-0.3968288403277415,0.900184985309463,-0.17942648552413368,0
32,6.433333333333334,0.0027868894142480394,0.9526330773109032,-0.30410927848480956,-0.20003724971730208,0.9509638418885936,-0.23590860549378848,1
33,6.633333333333334,-0.08029263751392113,0.9449802209188507,-0.31712059919408947,-0.1568803235657943,0.9526630417562846,-0.26042598362981295,1
34,6.833333333333334,-0.07940464468777098,0.9443617610636506,-0.31917983432975455,-0.1417341004080186,0.9528988634424874,-0.2681328044673861,1
35,7.033333333333333,-0.18638325038797482,0.9410593815870721,-0.2822561324431606,-0.1318090659934238,0.9569331724948033,-0.25866053719300286,1
36,7.233333333333333,-0.21627268338040245,0.9364392832928008,-0.2762382941040333,-0.16927222117966634,0.9558275834143913,-0.2402926256070019,1
37,7.433333333333334,-0.24640838670376064,0.9240561428477151,-0.29223817654004997,-0.221773381805912,0.9430344244202044,-0.24799726103492106,1
38,7.633333333333334,0.123469594522152,0.9240024406674688,-0.36190433662654015,-0.20112926718484936,0.9457109162419296,-0.2552995902514055,1
39,7.833333333333334,0.16676130148871565,0.9782413793973819,-0.12342800314554674,-0.1282525340499895,0.9575779757921553,-0.2580614418845921,1
40,8.033333333333333,0.26633936892827964,0.9621575229409706,-0.05758681799666752,0.015706129139183456,0.9730568140268686,-0.23002989845527358,0
41,8.233333333333334,0.2081284730807214,0.9750916950516817,-0.07667284352575861,0.0959556670206016,0.9732261350241572,-0.20886215567347885,0
42,8.433333333333334,-0.49541320739079314,0.8659203196710756,-0.06890394708221957,-0.09355673048239571,0.9703442540150155,-0.2228882385445403,0
43,8.633333333333333,-0.6742160048721049,0.7333952028282582,-0.08697272700563172,-0.49700866655692205,0.8392267738848439,-0.2206372755500485,0
44,8.833333333333334,-0.9938159319656472,0.10865279872216387,0.022901150649988697,-0.8697616790698285,0.46623313412153716,-0.16168267151689827,0
45,9.033333333333333,-0.8861593720310195,-0.46242273752145935,0.02977883786766658,-0.9646932508365735,-0.2351093575945681,-0.11870350357859565,1
46,9.233333333333334,-0.9310217941085068,-0.36345013086285566,0.033202729868945506,-0.9284072717448325,-0.3575228792640224,-0.10117968459172225,1
47,9.433333333333334,-0.9016381943647477,-0.42637170467233915,0.07249645451662576,-0.9461656655569095,-0.3200537206211817,-0.04833372774563539,1
48,9.633333333333335,-0.8973315101400463,-0.43807021697664916,0.05376472735740368,-0.9435072391931436,-0.32512973500319425,-0.06391200987987244,1
49,9.833333333333334,-0.9074846940476503,-0.4163535719806483,0.05586799771065498,-0.9529143769811469,-0.29709960490572246,-0.060712559717872996,1
50,10.033333333333333,-0.9140366477739493,-0.40288020147060577,0.047165133193557175,-0.9586331979223971,-0.2753051538503618,-0.07231503373785204,1
51,10.233333333333334,-0.907536109003431,-0.4127808242996138,0.07739639491245022,-0.9588075938460898,-0.28051571187464663,-0.04470943272433899,1
52,10.433333333333334,-0.901251873016574,-0.4243874745973292,0.08740899718575043,-0.9565925793322402,-0.28958660210823717,-0.03271447761920726,1
53,10.633333333333335,-0.874108809753218,-0.4844068500929866,-0.03583004737372454,-0.9539548309420847,-0.2999150621807851,0.004597390494035992,1
54,10.833333333333334,-0.8809793994002639,-0.47231833364771303,-0.02811920220415463,-0.9568248688142038,-0.2882720575778201,0.037220844140510675,1
55,11.033333333333333,-0.8848468065929882,-0.4554577609543717,0.09800182063931898,-0.9654173290435906,-0.2589268286042295,0.030434819061327244,1
56,11.233333333333334,-0.8829371613877669,-0.45829273132457915,0.1019300812104525,-0.9655068644058478,-0.2555074034920193,0.050124460555249516,1
57,11.433333333333334,-0.8871056887617967,-0.4499519280888601,0.10289197916055444,-0.9681091201639616,-0.24413810850087625,0.056225576324080165,1
58,11.633333333333335,-0.8786926056375098,-0.4649455266919942,0.1082818637033376,-0.962773402275526,-0.26079376673738636,0.0710913996326858,1
59,11.833333333333334,-0.8701036405041783,-0.48743802372481776,0.0729645654315841,-0.9565279162351485,-0.2896943115323831,0.033638539335466205,1
60,12.033333333333333,-0.8663945048494812,-0.49375783853981636,0.07459060830366528,-0.9518977202513511,-0.3047058149944818,0.032327952128610504,1
61,12.233333333333334,-0.8541588478669105,-0.5131653255310645,0.08410714169004271,-0.9416370189898592,-0.33414068293687466,0.040862311172657595,1
62,12.433333333333334,-0.8337119712315764,-0.546388999563206,0.07989624635412011,-0.9234452864768544,-0.3823764514464559,0.03220329583904533,1
63,12.633333333333335,-0.8175652633144821,-0.5725256707275849,0.06165546674424552,-0.9070975172843305,-0.42028871307891696,0.02305410581809606,1
64,12.833333333333334,-0.8136701621243949,-0.579122642031139,0.05057502106113443,-0.8980598229381476,-0.4397324878761405,0.011130747080193367,1
65,13.033333333333333,-0.8260230872237975,-0.561377608576143,0.05040872903176065,-0.9023448308525039,-0.4309516725488264,0.007379848313824733,1
66,13.233333333333334,-0.8415757830361538,-0.5380927884755148,0.04697182557373993,-0.9099492171253417,-0.4147094614059957,0.0029128805891557225,1
67,13.433333333333334,-0.8418060597409206,-0.5384911754474657,0.03728017903219711,-0.9054592757561679,-0.42431170157990616,-0.01015282470450633,1
68,13.633333333333335,-0.8464569234295576,-0.5296981761391827,0.054134268010119876,-0.9063461176208251,-0.4225082667719785,0.004845573546688635,1
69,13.833333333333334,-0.9892447245640166,-0.1124649306282056,0.09352280096883485,-0.9017601039444414,-0.4319618036936225,-0.015418011670211167,1
70,14.033333333333333,-0.9956874084336996,-0.02787189475056433,0.0884858303323009,-0.9417460001021728,-0.3361787026213206,-0.009917217119963809,1
71,14.233333333333334,-0.9914113944894583,-0.06454408937696862,0.1137431642032435,-0.9677528655262034,-0.2513915769296051,0.016020808801950545,1
72,14.433333333333334,-0.9853489665771002,-0.09852827647160359,0.13921060592130136,-0.972715982729105,-0.22898321683661618,0.03728677178983086,1
73,14.633333333333335,-0.9836184719000562,-0.11665831787242113,0.13742466521034635,-0.974733887218206,-0.21837210513837949,0.04698375044542934,1
74,14.833333333333334,-0.8997285712578484,-0.42506476968089885,0.09903756680389154,-0.9653508377100405,-0.25527336221591396,0.054159677579414194,1
75,15.033333333333333,-0.8682688392677441,-0.489041197774362,0.08335424186003941,-0.9575797779484024,-0.2828502327836856,0.05510639417075963,1
76,15.233333333333334,-0.8691024315044035,-0.4905362380687575,0.06352293046204159,-0.9529945070237288,-0.3017542384757121,0.027310238822524095,1
77,15.433333333333334,-0.8655260869792104,-0.4970097764785649,0.06201511785994725,-0.9467907173338499,-0.3216141864846423,0.01231473192059719,1
78,15.633333333333335,-0.8668948021057292,-0.49309595218381697,0.07314221778154865,-0.9444397392996784,-0.32850728261509987,0.010795559290673341,1
79,15.833333333333334,-0.8555509178269899,-0.5140097069487946,0.06185990759619118,-0.9356049351028828,-0.35292712901127743,-0.009265366640759623,1
80,16.033333333333335,-0.8486972422647889,-0.5251776623185972,0.062461299808088566,-0.9285055629046944,-0.3710742434524596,-0.013465715770861478,1
81,16.233333333333334,-0.8586450099361944,-0.5076250360450554,0.07103217363933513,-0.9339514525262731,-0.35729270203164504,-0.008752679532060523,1
82,16.433333333333337,-0.8655703441246823,-0.494578654057892,0.07861255829804256,-0.9372420208337537,-0.34864723410310944,-0.0047434729590276606,1
83,16.633333333333336,-0.87605538222898,-0.4718640716930816,0.09935424053789627,-0.9423806896598708,-0.3342292501444917,0.014472183803343188,1
84,16.833333333333336,-0.8795389976655787,-0.46447067972833833,0.1033350824169823,-0.942075144400697,-0.3349994305347123,0.01642570679832833,1
85,17.033333333333335,-0.8840946070473406,-0.45218433367704985,0.11792393381689409,-0.9439645097702672,-0.32855542020159473,0.031342306078730744,1
86,17.233333333333334,-0.8908109998746971,-0.4359153056822801,0.1281936378069005,-0.9472242407046773,-0.3179980766980447,0.040539623059329274,1
87,17.433333333333337,-0.8982895908594115,-0.41894222857026736,0.13252629955676334,-0.9512960857285497,-0.30505960095950135,0.04443418886364357,1
88,17.633333333333336,-0.9066286089195271,-0.40340954232686604,0.12363376014775142,-0.955407782405571,-0.29298962247938065,0.036783833925507776,1
89,17.833333333333336,-0.9055420685758064,-0.40816124632152356,0.11574955309075928,-0.9530897832575111,-0.30090898120217086,0.03276660009861109,1
90,18.033333333333335,-0.9024845352475772,-0.41515620278811993,0.11474750945233715,-0.9498352455992716,-0.310938419703287,0.0336200144228773,1
91,18.233333333333334,-0.9223274966300642,-0.3845088222370334,-0.0382747251068973,-0.9496026724339254,-0.311901734150955,0.031178081082298286,1
92,18.433333333333337,-0.9231064088085521,-0.38281311247722416,-0.03645104843593312,-0.9500350108285378,-0.3108458690405569,0.028431037625127747,1
93,18.633333333333336,-0.9304143985460382,-0.3555770597520322,0.0888481938832389,-0.9498214232870077,-0.3127777732065191,0.0030542516292257622,1
94,18.833333333333336,-0.9918827757964643,-0.09389068811132724,0.08575020562239191,-0.9467803972785831,-0.3212656877547611,-0.01988057344416891,1
95,19.033333333333335,-0.9930000709899585,-0.06276366651412447,0.10005788914244333,-0.9574757028035237,-0.28841695738356604,-0.00747911990176526,1
96,19.233333333333338,-0.993693875724516,0.00301315262281496,0.11208658375943899,-0.9786896891312771,-0.20489679517918577,0.013557127771887344,1
97,19.433333333333337,-0.9932595059334899,6.8649168982747e-05,0.11591181630899992,-0.9908341783114568,-0.1281136618253768,0.04283130564847789,1
98,19.633333333333336,-0.9914857095430837,0.014086896299053376,0.12945133110365467,-0.9924147679807547,-0.10164873981631545,0.06914088506419253,1
99,19.833333333333336,-0.989133075931441,-0.007197610147027836,0.14684669729543764,-0.9878026635483956,-0.11528444775905482,0.10466801799778486,1
100,20.033333333333335,-0.9985641030565455,0.03503486235657661,0.040525183608868136,-0.979762224189004,-0.16982446644839327,0.10595109554758854,1
101,20.233333333333338,-0.9960915903648394,0.06386584962660705,0.06101390706975624,-0.9883180187447147,-0.12037363291607953,0.09347557072897074,1
102,20.433333333333337,-0.9973991012974095,0.05290345950903802,0.04895157508288569,-0.9911527612867921,-0.1077138338002373,0.07754955706916011,1
103,20.633333333333336,-0.9980561391086303,-0.003350592749988283,0.06223115550749772,-0.9834769380236893,-0.15638447301336508,0.09119763689855487,1
104,20.833333333333336,-0.9974533788690707,0.0018826644338679034,0.07129665179588375,-0.9831927990723026,-0.1560384512152406,0.09478355128776461,1
105,21.033333333333335,-0.9954798481253408,0.07548241599369754,0.05763919544982138,-0.9929867085103748,-0.08694430592904484,0.08011294769417117,1
106,21.233333333333338,-0.9953372860563419,0.06567270242588673,0.0706454750290294,-0.9917758271673682,-0.09711577719764122,0.08336206850708788,1
107,21.433333333333337,-0.9958880601347647,0.07356335258193156,0.052871588191786986,-0.9941820964152304,-0.08263692822365715,0.06908760569867607,1
108,21.633333333333336,-0.9823538590804953,0.17991231760877124,0.051112166088900644,-0.9963151897580383,0.031053553457790626,0.07994822996820258,0
109,21.833333333333336,-0.9717757945137839,0.19337693322759222,0.13511908411691964,-0.9854387689300345,0.04852446379987789,0.16295953210104974,0
110,22.033333333333335,-0.9967461489736675,0.021358587903695176,0.07772338920121342,-0.9510555240963878,-0.05836805101946489,0.3034576753122815,0
111,22.233333333333338,-0.9994904452949945,0.024433373891407383,0.020539230859412786,-0.9593497821463931,-0.10236247745031393,0.26300174658336867,0
112,22.433333333333337,-0.998593571589583,0.047602471014295364,-0.023342740483792444,-0.9719480784437763,-0.10632195610804498,0.2097917406830159,0
113,22.633333333333336,-0.9552748189196163,-0.2944808752016066,-0.02703764928003889,-0.9911384966641195,-0.04950369883496538,0.12326339372273766,0
114,22.833333333333336,-0.9259336311263748,-0.3703345078641331,-0.07415701608180196,-0.9987687498753385,-0.046322767501572805,0.017753463984508652,0
115,23.033333333333335,-0.909200289106401,-0.40603090391550845,0.09216148520066285,-0.9949502906952168,-0.09957358360238738,-0.012610332829963385,1
116,23.233333333333338,-0.914984989242645,-0.38999855228106334,0.10345819773856342,-0.9817787536378405,-0.18763979772269945,-0.030029738858557156,1
117,23.433333333333337,-0.9180309851081736,-0.3873081909691657,0.08492040737955067,-0.9753883448581472,-0.21724729648230692,-0.03769865894183704,1
118,23.633333333333336,-0.9318127237455938,-0.35067694639590963,0.09354532127401355,-0.9792132872549832,-0.19952983625336446,-0.03645795534578882,1
119,23.833333333333336,-0.9394331778240325,-0.33102975271216356,0.08879531081517561,-0.9822263776545164,-0.183095399781027,-0.041320910187378435,1
120,24.033333333333335,-0.934147373758126,-0.3479845580019379,0.07921762110157256,-0.9779028042460671,-0.20234861812745703,-0.05254657162543403,1
121,24.233333333333338,-0.9226076875979404,-0.3756678068143833,0.08757142061456161,-0.9706076363275365,-0.23604560752984802,-0.04693918904857515,1
122,24.433333333333337,-0.9253873593804364,-0.3645001476897504,0.10391283574733787,-0.9722291057163733,-0.23177760021844698,-0.03239922892475368,1
123,24.633333333333336,-0.9247075417875228,-0.36257563588697056,0.11599513102900404,-0.9710126206159918,-0.23801693711125274,-0.021964249421319377,1
124,24.833333333333336,-0.9242700359383511,-0.36294959551405476,0.11828986339794079,-0.9694898548598824,-0.2445692339198247,-0.016592502633244882,1
125,25.033333333333335,-0.9253841802052836,-0.3512086148508458,0.1425364089639749,-0.9719356194293534,-0.2350831100255344,0.008779696190759115,1
126,25.233333333333338,-0.9338574757380951,-0.3268635414563977,0.14515660603174252,-0.9760732772227094,-0.21679420041198472,0.016769977920314236,1
127,25.433333333333337,-0.934486130492753,-0.32512999862757963,0.14500398583870464,-0.9758391269297854,-0.21787483031794977,0.01638769864376997,1
128,25.633333333333336,-0.9248358221060003,-0.35299563983119264,0.141678440172404,-0.9680095122725116,-0.25032560794768655,0.017166075717985917,1
129,25.833333333333336,-0.920032018379624,-0.3612446781378756,0.15180042053096607,-0.9639457975895234,-0.2645105279090778,0.029028949942403615,1
130,26.033333333333335,-0.9452178054295372,-0.30770107591702633,0.10901077092872015,-0.9601303601029004,-0.2782640840498405,0.026810280427067942,1
131,26.233333333333338,-0.9525444418737262,-0.28283609328958054,0.11252924325773876,-0.9684957222786224,-0.2469862148830304,0.03184094197355603,1
132,26.433333333333337,-0.9958412243378411,-0.09107568820967593,0.0023398560732980586,-0.9712014826584751,-0.23611117828955377,0.03192477985356062,1
133,26.633333333333336,-0.998589199369201,-0.05298923512495325,-0.0034280991891360527,-0.9775088242207877,-0.20972798112694807,0.022151128705061793,1
134,26.833333333333336,-0.9982939071535488,-0.05793152937616673,0.007294713444678368,-0.9781988645522428,-0.20673617246232773,0.019675781670113655,1
135,27.033333333333335,-0.9134937123950347,-0.3786000469100272,0.1489672510804395,-0.9792638607450319,-0.20152752636992596,0.02071103942233655,1
136,27.233333333333338,-0.9036451636415967,-0.3968117759651246,0.16113917178189693,-0.9767162601694112,-0.21226203790926684,0.031147622433892474,1
137,27.433333333333337,-0.9885552366916859,-0.07612502265795651,0.13024409750453342,-0.9786644240289873,-0.20232923700093983,0.035760662670425145,1
138,27.633333333333336,-0.9875810670823997,-0.10264807644882792,0.11894119699138876,-0.9777697294744939,-0.2059306273269217,0.039483323721739655,1
139,27.833333333333336,-0.9899352049702261,-0.08069898751643255,0.11625817551630245,-0.9787844561665717,-0.2003681824739882,0.04282032016203491,1
140,28.033333333333335,-0.9915309203392169,-0.06461255800223079,0.112657229504694,-0.9800772835730379,-0.1937053124918437,0.043894989879628234,1
141,28.233333333333338,-0.9934423807305615,-0.04854690751797439,0.10351538020427498,-0.9826362033338153,-0.181386757072176,0.03905043221968758,1
142,28.433333333333337,-0.9971080325706352,-0.049666194075237424,-0.05752252210393981,-0.9869326678331146,-0.16034236113023112,0.015944791970858577,1
143,28.633333333333336,-0.9955980825148032,-0.06989615310061417,-0.06244185995454552,-0.9838398920493381,-0.17904108129940255,0.0018324899692478348,1
144,28.833333333333336,-0.995981239695638,-0.07189611815357162,-0.05340710035929649,-0.9823356787115248,-0.18711230641830273,0.0023662453785311894,1
145,29.033333333333335,-0.9815181640533033,-0.1811465770513221,-0.061709085684546645,-0.9791402869952212,-0.20263804027123372,0.014903792066124567,1
146,29.233333333333338,-0.9826336423026198,-0.176264301261532,-0.05798293814452145,-0.9788136690496664,-0.20358205821278705,0.0218665693554285,1
147,29.433333333333337,-0.983568731629875,-0.14240266997126574,0.1109685980133735,-0.9771656755021596,-0.20946747447858635,0.035645753687797016,1
148,29.633333333333336,-0.9846583587283886,-0.13582844289375898,0.10953789612445976,-0.978267696566827,-0.20330691158535952,0.040726079549320164,1
149,29.833333333333336,-0.9856997468863172,-0.13289163905535914,0.10361380823727194,-0.9791219482125657,-0.19921842171581058,0.040400878424752124,1
150,30.033333333333335,-0.9846688062918645,-0.1409503313622129,0.10276354414206075,-0.9774681828569216,-0.2065567254645501,0.043477243102001385,1
151,30.233333333333338,-0.986076758654949,-0.1335127833195606,0.09913103818085278,-0.9791476938556619,-0.19859074244493125,0.04279615207364065,1
152,30.433333333333337,-0.9907341041200711,-0.11628851453003056,0.07016349707503808,-0.9834982471486573,-0.18024964393934875,0.015532666070470148,1
153,30.633333333333336,-0.9833560971915141,-0.15406147890683114,0.09631119786044721,-0.97522598819141,-0.2179991290843863,0.037558643140253874,1
154,30.833333333333336,-0.9429753592608984,-0.30747179174470707,0.1275090942171543,-0.9694852638324479,-0.24251846481277592,0.035820628645844434,1
155,31.033333333333335,-0.9475325173988968,-0.2964089636967243,0.11968230743072822,-0.9699290784472867,-0.2410060447029165,0.033965706220439346,1
156,31.233333333333338,-0.9578052946705611,-0.2640198690888707,0.11358928746732991,-0.9778122281874018,-0.20706782638551033,0.0317200517523115,1
157,31.433333333333337,-0.9617058212462981,-0.2501516756105113,0.11200916288517222,-0.981089733348222,-0.1911110689177832,0.0306511738081472,1
158,31.633333333333336,-0.9565901490780953,-0.2653723033925117,0.12046919639019855,-0.9781140958568864,-0.20424838907207776,0.03969144804019142,1
159,31.833333333333336,-0.955422388633217,-0.2723256000672624,0.11404747628248253,-0.9766487139044671,-0.21189650968646104,0.035456435402422964,1
160,32.03333333333333,-0.9522224479375658,-0.2845031131419863,0.11104228139005316,-0.9733662819229599,-0.22678158230902243,0.03358861623957055,1
161,32.233333333333334,-0.9584066544219771,-0.2629724344944681,0.11091520840590778,-0.9781412582244714,-0.20526059908106045,0.033283110190195656,1
162,32.43333333333333,-0.9649670756495119,-0.24385331845545832,0.09681994624399555,-0.9822585065335142,-0.18667297071853825,0.01792842284380435,1
163,32.63333333333333,-0.9620471318131131,-0.2538778942718141,0.10005663881158812,-0.9800165287661596,-0.1980535246406859,0.01850418121745796,1
164,32.833333333333336,-0.954726563657161,-0.27866607996905524,0.10412686743616742,-0.9746777488295197,-0.2226288776667836,0.020968279983069892,1
165,33.03333333333333,-0.9535668282072906,-0.2729689932572211,0.12727227845382183,-0.9744954150358807,-0.22058389666244466,0.04124840126912628,1
166,33.233333333333334,-0.992864626888364,-0.08699522154244622,0.08155773478101867,-0.9744234501409291,-0.22437976672894747,0.012355569517894708,1
167,33.43333333333333,-0.9949993986630571,-0.029057710531562295,0.09556069337766122,-0.9820779287080603,-0.1873190014431494,0.02084547055903596,1
168,33.63333333333333,-0.9953081875994595,0.035916226230597675,0.08984228620661698,-0.9904740192488971,-0.13711205351686467,0.012708342666300826,1
169,33.833333333333336,-0.9947481477308554,0.01789121387914307,0.1007771157156364,-0.9858860579184926,-0.1662183665510379,0.02000338528949751,1
170,34.03333333333333,-0.991203064006605,0.09781677837413079,0.08915359651985327,-0.9855035754638357,-0.16708504349692807,0.029415828861784805,1
171,34.233333333333334,-0.9804024365461956,0.18692855920058069,0.062199486890792736,-0.9979628303273738,-0.061860528300593694,0.015603343338833791,0
172,34.43333333333333,-0.9680945345332551,0.24806978269693056,0.035416876196774374,-0.9997052102412576,0.022682644299989247,-0.008659691913870199,1
173,34.63333333333333,-0.9566579845027209,0.28836733827998023,0.040617470385435867,-0.9963811135509015,0.08460581623016053,-0.008156740715123857,1
174,34.833333333333336,-0.9743295374603181,0.21433483887596072,0.06886602410752811,-0.9899605876950959,0.13996077088694667,-0.01972352461179335,1
175,35.03333333333333,-0.9883942402886026,0.10471979313618493,0.110048128970152,-0.9842356478286368,0.17685615945311708,-0.001445132117646771,1
176,35.233333333333334,-0.9896866847076167,0.0815445075294301,0.11777418819176513,-0.9851207771234451,0.17171679800519407,0.007098997291400938,1
177,35.43333333333333,-0.9910203369716597,0.0361979449002754,0.12871829898493406,-0.9920219424040153,0.12370324719889135,0.02428934790015567,1
178,35.63333333333333,-0.9926321485686471,0.01489606287414241,0.12024776479769143,-0.9957284902178128,0.08923490344116405,0.023704551807635362,1
179,35.833333333333336,-0.9945700338018486,0.015180164370838323,0.10295635227155377,-0.996852207701414,0.07819810591067473,0.013066454484682055,1
180,36.03333333333333,-0.988966337273474,0.07612792682267946,0.12708313223071735,-0.9902853663396586,0.13301258691978213,0.04052832262055829,1
181,36.233333333333334,-0.9888598714434276,0.09908266766452453,0.1110800594948044,-0.9878350531869692,0.15280963088808835,0.02882922827521386,1
182,36.43333333333333,-0.9908809877947627,0.06711720840823206,0.11683384938604675,-0.991879275045959,0.12221737865987745,0.03519113649502196,1
183,36.63333333333333,-0.9940697283004312,0.047287286206160316,0.09792490919048182,-0.9950301936343576,0.09840846824172278,0.01518838813999155,1
184,36.833333333333336,-0.9901841945351619,0.05300430678399128,0.12932828134287408,-0.9939602543770606,0.09989272557445503,0.045436286115788545,1
185,37.03333333333333,-0.9899252568967764,0.051974378845531036,0.1317066805498978,-0.9943078578389943,0.09482816325664442,0.04857471866106582,1
186,37.233333333333334,-0.9894201330053225,0.06166424859776717,0.13132144093255735,-0.9936591928036314,0.10036574539929302,0.05067667813975707,1
187,37.43333333333333,-0.9887534883012667,0.06456882528363773,0.13489776192942501,-0.993478527900746,0.09874038327523398,0.05701536030603127,1
188,37.63333333333333,-0.9896520601764418,0.048864078151572496,0.13491145857532602,-0.9950890171661947,0.07969057833344481,0.05871336849558427,1
189,37.833333333333336,-0.9902971586745981,0.04556258532492121,0.13128437964787507,-0.9957948793676878,0.0714770131920435,0.05730265971346054,1
190,38.03333333333333,-0.9899649692761621,0.05791379391661456,0.12890055112462437,-0.9951305100887717,0.08044844043377786,0.05695012135399128,1
191,38.233333333333334,-0.9895055070735475,0.06801531156403101,0.12748634775523915,-0.9946255567358049,0.08633217124591173,0.057155560499016905,1
192,38.43333333333334,-0.9898088396910332,0.06897662774066099,0.12458204403130117,-0.9948591123857701,0.08430092386434179,0.056113284867454684,1
193,38.63333333333333,-0.9902178057889012,0.06560799517497143,0.12314336388021623,-0.9953402610696583,0.0782588368835353,0.056332221183094354,1
194,38.833333333333336,-0.9902939464882867,0.06398834045815822,0.12338311000321377,-0.9955895295395296,0.07411556637831952,0.057518444795378154,1
195,39.03333333333333,-0.9903397210691727,0.06461367085515497,0.12268785763577096,-0.9957472923378206,0.07147799954059891,0.05812250324593356,1
196,39.233333333333334,-0.9903334648809773,0.06433331546785125,0.12288552745442596,-0.9958902692242559,0.06822219491026674,0.05956764042720518,1
197,39.43333333333334,-0.9902169727956457,0.06577479092219969,0.12306105666118981,-0.9959107669801293,0.06689719198189889,0.06071663625389525,1
198,39.63333333333333,-0.990314189098016,0.07182605106885981,0.11882266306977257,-0.9958470599980662,0.07052799006137817,0.05757113609362517,1
199,39.833333333333336,-0.990284949031184,0.07715708246387923,0.1156827746380931,-0.9957539528656387,0.0733596973917456,0.05560953291519703,1
200,40.03333333333333,-0.9901390688502296,0.07433228449547997,0.11874062412706007,-0.9958754591458228,0.06884169757363495,0.05910068143665213,1
201,40.233333333333334,-0.9902531201223806,0.06968723038647051,0.12059207274507458,-0.9960715245972028,0.06264300379724523,0.06258891245150582,1
202,40.43333333333334,-0.9898938495795608,0.07426571393178823,0.1208088171399756,-0.9958078160705406,0.0656032034893899,0.06374176923141352,1
203,40.63333333333333,-0.9901058352525156,0.07296672910578687,0.11985946538559702,-0.9960113230886681,0.06297096048539581,0.06321473257641347,1
204,40.833333333333336,-0.9915779084324985,0.06878188098015738,0.10973743371093977,-0.9968887086242872,0.05732082692182055,0.054103839220519416,1
205,41.03333333333333,-0.9911340883172197,0.0741395765255552,0.11025671030919203,-0.9964894890105718,0.06218717627395317,0.05604866990858806,1
206,41.233333333333334,-0.9908553673356904,0.0792243397547709,0.10922062539866258,-0.996348207023519,0.06518863883527774,0.05514246755290188,1
207,41.43333333333334,-0.9949001054120585,-0.018593059608689264,0.09913666519236329,-0.99640358804318,0.0681007406407843,0.05042002438370611,1
208,41.63333333333333,-0.9966649216903454,-0.01566250112568559,0.08008570365842844,-0.9976673077684763,0.06353006692671957,0.024977461966478272,1
209,41.833333333333336,-0.9975353511991852,-0.0011288131549373245,0.07015660260289003,-0.9982423701470673,0.05919043090688209,0.0029433539072563084,1
210,42.03333333333333,-0.9991066436276685,0.02807880852750178,0.031583146941534926,-0.9963833720540098,0.06573166320762013,-0.05384723155595681,1
211,42.233333333333334,-0.978827539080243,0.18165437303437915,0.09433099965335787,-0.9896588075397681,0.10221668309086072,-0.10063396224370284,1
212,42.43333333333334,-0.9805005502775475,0.17105237017485805,0.09674584002937789,-0.990624223860475,0.09064061365786977,-0.10221509798731693,1
213,42.63333333333333,-0.9881161959409981,0.09460229310095891,0.12114780005898558,-0.9907869216775532,0.09304646821669778,-0.09840543981466332,1
214,42.833333333333336,-0.9879968524740492,0.10030179918368697,0.11748092858794988,-0.9905561016280446,0.1001195889783763,-0.09367324821021154,1
215,43.03333333333333,-0.9887727365200233,0.09216167295746737,0.11762100812518832,-0.9914313034786382,0.09704808015733096,-0.08743935395704225,1
216,43.233333333333334,-0.9714671987882608,-0.2074033460350498,0.11504492049610505,-0.993219353440445,0.0798661922466675,-0.0844790346024578,1
217,43.43333333333334,-0.9661474704893558,-0.2126253065148739,0.14611483256834595,-0.9947153346499316,0.06746043404101204,-0.07739827421379204,1
218,43.63333333333333,-0.969786014285815,-0.18979032573839,0.15327987066718432,-0.9929827046579409,0.08800088578434219,-0.07900121740436453,1
219,43.833333333333336,-0.9750915408619562,-0.15739123562987284,0.15628335127696247,-0.988946375271994,0.12506050350979625,-0.07965511470245228,1
220,44.03333333333333,-0.989972603390288,0.11474020038709598,0.0823949692140489,-0.985785464148037,0.15346877077306167,-0.06836925531146994,1
221,44.233333333333334,-0.9886141737331409,0.12332057032950286,0.08622095120993196,-0.9847081519400779,0.16527921504417123,-0.055069379669098695,1
222,44.43333333333334,-0.9882109940855787,0.12667682549972198,0.08597681693169189,-0.9841300194534262,0.1719569914822267,-0.04380522675412466,1
223,44.63333333333333,-0.9864496122200577,0.1395623799996774,0.0862525630907493,-0.9812310183616743,0.18956997694794075,-0.03533995536031806,1
224,44.833333333333336,-0.9829892619382132,0.17293095037855077,0.061862729614350305,-0.9721575061052004,0.22772772605092312,-0.05522559289852304,1
225,45.03333333333333,-0.9681820337387046,0.2387513447478655,0.07497562888480369,-0.9533862708767401,0.29861965328912676,-0.04336958811454416,1
226,45.233333333333334,-0.9666101320608282,0.24769394190501956,0.0656701129959532,-0.9469698419704302,0.3164700469501052,-0.05563117634830785,1
227,45.43333333333334,-0.9784092479928581,0.19475766126994234,0.06917222577532568,-0.9609311107805951,0.2715999191417778,-0.05333745640871083,1
228,45.63333333333333,-0.9834028782231568,0.1663608659328723,0.07240746776732516,-0.9675327633405665,0.24704496744961096,-0.05337729779960799,1
229,45.833333333333336,-0.9862831535495535,0.14598209941917184,0.07703744332153895,-0.9729629874255056,0.22628612343654536,-0.046234353462509946,1
230,46.03333333333333,-0.9812721027872491,0.1638804049403413,0.10123375508238491,-0.9698217789307458,0.24268552480374275,-0.023440417281598732,1
231,46.233333333333334,-0.9784859072742409,0.17768631715484487,0.10484704078634853,-0.9670502187188827,0.2540786663388989,-0.016059445420303613,1
232,46.43333333333334,-0.9810042740814231,0.18076365497768593,0.07039257967348601,-0.9646744794362467,0.2581442321451036,-0.05258045392179036,1
233,46.63333333333333,-0.9689790581731685,0.21929362939185032,0.11397319390974893,-0.9669595898357062,0.24318791376415433,-0.07647738374056241,1
234,46.833333333333336,-0.9719723702007985,0.22314471617975096,0.07400099463723847,-0.9651407708341523,0.2468263389515012,-0.0870634876021927,1
235,47.03333333333333,-0.9659157463609178,0.24875039287184922,0.07162410891684315,-0.9569983774303965,0.27698618819632237,-0.08621343946311086,1
236,47.233333333333334,-0.9689561076780201,0.23693658244567006,0.07060536305712024,-0.9584111067398926,0.2734945979797952,-0.08154051357138296,1
237,47.43333333333334,-0.9684304585789059,0.23350955900058892,0.08726816574215822,-0.9567468341463319,0.2823146805019755,-0.07024184311390802,1
238,47.63333333333333,-0.9709118054700734,0.2215401942073023,0.09083065754156705,-0.9583116243641705,0.2774733081504144,-0.06817179675327996,1
239,47.833333333333336,-0.9760024101083733,0.1959252256914061,0.09503999895000985,-0.9645671214119609,0.2561557942604793,-0.06320187780301068,1
240,48.03333333333333,-0.9795778300446745,0.17828771858219986,0.09295571143142009,-0.9679799501950557,0.2420837454935402,-0.06640991031613042,1
241,48.233333333333334,-0.9801287599095043,0.17114615802744848,0.10028263354490097,-0.9709639428067558,0.23272458144720704,-0.05539215611782581,1
242,48.43333333333334,-0.9772162295427923,0.1845914572719169,0.10475893575442281,-0.9678220616615548,0.24580174866967563,-0.05386981819263335,1
243,48.63333333333333,-0.9759666075498314,0.1922920837979697,0.1025326067956346,-0.9659730247997216,0.25303341465671775,-0.0535743075217768,1
244,48.833333333333336,-0.9747112726281467,0.19161407481667433,0.11498687465866951,-0.9675758596375085,0.24952541891323096,-0.03916658222150268,1
245,49.03333333333333,-0.991503008208191,-0.04888240266906792,0.12054997064871964,-0.970514968528562,0.23547480929051792,-0.051500583021932084,1
