,timeStamp,x_gaze,y_gaze,z_gaze,x_head,y_head,z_head,fixations_head
0,0.03333333333333333,-0.9994147468030424,-0.005110308190518917,0.03382378782467652,-0.9922572161420533,-0.12328244216180069,-0.015068393034585426,0
1,0.23333333333333334,-0.9984297735130339,-0.05372502819810078,0.015862178533404863,-0.9864220376503852,-0.1575264360782379,-0.0464433587733586,0
2,0.43333333333333335,-0.9803277618449163,-0.19596319291622566,-0.023577666937493733,-0.9786119374460959,-0.19193707033050691,-0.07401916590276399,0
3,0.6333333333333334,-0.960391467458887,-0.2785438540611434,-0.007845418849877925,-0.9483764396238135,-0.30953551583344063,-0.06906441344270707,0
4,0.8333333333333334,-0.9199100707832313,-0.3919789567183843,-0.010860900586867664,-0.9219558545010713,-0.37871429325640515,-0.08107333985041598,0
5,1.0333333333333334,-0.877193889735252,-0.48009188016587634,0.0065319529952883,-0.8823070859432065,-0.4665778199279039,-0.06196244060503087,0
6,1.2333333333333336,-0.8459605830797368,-0.5313949975093017,0.04438522837027189,-0.8398817824978885,-0.5400471867305012,-0.05429205773076415,0
7,1.4333333333333336,-0.8150201749025254,-0.5760203003449714,0.06279114660798878,-0.7763569404762618,-0.6278255124145017,-0.0557227685583433,0
8,1.6333333333333335,-0.8113043835147596,-0.5821163091459529,0.05409066385273412,-0.7486222968606389,-0.660138119602935,-0.061500566584405746,0
9,1.8333333333333335,-0.8216977891357815,-0.5673657436691611,0.05393381351349814,-0.7437716508841226,-0.6653592568468907,-0.06403741616633266,0
10,2.033333333333333,-0.5147701220105014,-0.8267164773011552,0.22704974706892428,-0.6257685011646518,-0.7800064825901297,0.0019157420283401028,0
11,2.2333333333333334,-0.3394962498603429,-0.9087992906509933,0.24254101847525752,-0.35842005565146606,-0.9313372415110633,0.0643894889043484,0
12,2.4333333333333336,-0.27537859272105625,-0.9356921269453785,0.22056036417136304,-0.24137678167843846,-0.9686873000649339,0.058156375054403416,0
13,2.6333333333333333,-0.2721708253078218,-0.9393024632594952,0.20888734850608845,-0.21088093773000677,-0.9761673245733384,0.05125021499899845,0
14,2.8333333333333335,-0.036940713704898154,-0.9985925870194623,0.038055601700019724,-0.2067406811783557,-0.9774399977853809,0.04323588180232334,0
15,3.033333333333333,0.13787762213289856,-0.9904371131204439,0.004907776341554908,-0.022031342681331556,-0.9989823868474843,0.039354932450219905,0
16,3.2333333333333334,0.43248712665621825,-0.898313803159559,0.07737697544914536,0.2363867094065476,-0.970971287785503,0.03655245425558422,0
17,3.4333333333333336,0.41316502013898293,-0.9083096238812692,0.0653321765917915,0.38738762944742466,-0.9215058081801308,0.027529439540044914,0
18,3.6333333333333333,0.29289862667157457,-0.9542724794275855,0.05978653277314422,0.3533026302419935,-0.9351162173527093,0.027109251336948574,0
19,3.8333333333333335,0.22199708823460812,-0.9729930933005924,0.06325925390565756,0.08447345782573434,-0.9963669163398832,0.010826030958593804,0
20,4.033333333333333,-0.4997256695035865,-0.8594875530687075,-0.10749605276082501,-0.6416759544553923,-0.7481373401519096,-0.16894522705358425,0
21,4.233333333333333,-0.9787368309523822,0.1922981376776066,-0.07138376554240052,-0.9539844297121847,0.04623477393562922,-0.2962702373608238,0
22,4.433333333333334,-0.6788382541102074,0.7126576930227398,-0.17691138270928788,-0.8322766784068172,0.46458928631914975,-0.3024439214426019,0
23,4.633333333333334,-0.6919460262822393,0.7028183225749012,-0.16509725062889738,-0.7253491342413357,0.625687684117342,-0.2870253567182215,0
24,4.833333333333334,-0.3576223848676671,0.9004299280425458,-0.24765333538407625,-0.5340589272398926,0.7944719953172891,-0.2891285369726423,0
25,5.033333333333333,-0.2688323359964354,0.9340897785064928,-0.23495842358253768,-0.40834085052788716,0.8711688830182214,-0.27262158214445653,0
26,5.233333333333333,-0.1378553632469075,0.8938920262846867,-0.4265594263039097,-0.27934468723605455,0.9008072619612201,-0.3324346890908361,0
27,5.433333333333334,-0.17965887804543615,0.8320102744354102,-0.5248634020136749,-0.2892845789644052,0.8758127110381863,-0.38635026537758366,0
28,5.633333333333334,0.003065656760725094,0.6832532602237457,-0.7301750366468633,-0.23590921121781216,0.8666526137619918,-0.4396135702205946,0
29,5.833333333333334,0.1866711123088231,0.6102380053520875,-0.7699113407745677,-0.030581094485683913,0.7965848019932592,-0.6037528052882388,0
30,6.033333333333333,0.23027498064394364,0.6033064399527734,-0.7635409437619847,0.11833157260000624,0.7211625254820094,-0.6825849769562905,0
31,6.233333333333333,0.21584340423134463,0.5396947598579072,-0.813720585355772,0.15650469190641453,0.6425458914648814,-0.7500940332870804,0
32,6.433333333333334,0.21887062581359834,0.49851467726550536,-0.8387960215134747,0.17339900653557244,0.5771768875039701,-0.7979972588071379,0
33,6.633333333333334,0.20416825036324332,0.48487929646958927,-0.8504160119604806,0.16246564415800097,0.5348587562334576,-0.8291749063670012,0
34,6.833333333333334,0.012447511789415194,0.3776585911290982,-0.9258612466221042,0.13044015712654095,0.48881698070390156,-0.8625794599828617,0
35,7.033333333333333,0.0342321921813157,0.19825025925031836,-0.9795534654757969,0.13413788736196253,0.41737830535701187,-0.8987782693141724,0
36,7.233333333333333,0.030030289751607122,0.11923487308516025,-0.9924118231549848,0.18120287201007343,0.3271650041401055,-0.9274311722393775,0
37,7.433333333333334,0.10747250924301496,0.05264814569206869,-0.9928130904214535,0.2744579947275636,0.35366803158001564,-0.8941989334417936,0
38,7.633333333333334,0.35960430240579505,0.8382129611743107,-0.4099802158771014,0.4388354531255685,0.6615661733001428,-0.6080737154532194,0
39,7.833333333333334,0.5238649747813157,0.823946065145868,-0.21605177603531212,0.44279417042850655,0.8036361825247055,-0.3976206845369706,1
40,8.033333333333333,0.5313794516457893,0.821647781251158,-0.2062299734123773,0.44874120725991784,0.8315258459982482,-0.3274081494767798,1
41,8.233333333333334,0.5561708260660585,0.7965634417991917,-0.2369824791456617,0.4650889025422812,0.8249109626251775,-0.3212696942956493,1
42,8.433333333333334,0.5473007185982492,0.795911027385872,-0.258819550860065,0.45110628883196124,0.8325921850422491,-0.32139285863694717,1
43,8.633333333333333,0.5356066744069801,0.7960882409866099,-0.28172504839566626,0.44238302521165374,0.8320629819839369,-0.3346168749728328,1
44,8.833333333333334,0.5447719508663547,0.7891339133547441,-0.28370969025166154,0.45164054101583373,0.8288349807700216,-0.3302323369430718,1
45,9.033333333333333,0.547843597375087,0.7768289483922148,-0.31049022167367774,0.4495520005639577,0.8197342135331388,-0.35487859607498146,1
46,9.233333333333334,0.4107030784884816,0.806732991067747,-0.42485863818801,0.4375841179999115,0.823614834619,-0.36080291555052196,1
47,9.433333333333334,0.39345183418252927,0.808087378436203,-0.43839530448045194,0.42668136562940484,0.8248954246141682,-0.3707971826689591,1
48,9.633333333333335,0.5430798178624205,0.7483748264906589,-0.3807879075096749,0.41746453823462004,0.8275726981220066,-0.3752956016790199,1
49,9.833333333333334,0.5469318059913939,0.7483649276114263,-0.3752539602937415,0.4175503141380847,0.8272527854806427,-0.3759049934194879,1
50,10.033333333333333,0.5469974025340435,0.7515280062574936,-0.3687810969011923,0.41815064278620206,0.8275797778342053,-0.3745153551690156,1
51,10.233333333333334,0.5433436505505277,0.7581238412460932,-0.3605910685814265,0.4171324196605213,0.8295659381234409,-0.37124237200720306,1
52,10.433333333333334,0.5333722248425264,0.7682114297117657,-0.3540695821822858,0.40803890240742047,0.8350507642582566,-0.3690453566078963,1
53,10.633333333333335,0.5285544902665373,0.7725647679227853,-0.351815051104261,0.40430701755103027,0.8377574902936926,-0.3670125652015266,1
54,10.833333333333334,0.525208347740223,0.7786338148051678,-0.34334468673031326,0.396263545744985,0.846817301491332,-0.35478959991599324,1
55,11.033333333333333,0.4844557554743536,0.8116006122415494,-0.3265073769410351,0.33981895253901356,0.8807670350626817,-0.3298067759191438,1
56,11.233333333333334,-0.0019407291171775198,0.9521461296430693,-0.3056370091730011,0.15543985204501737,0.9466757291945163,-0.282211828508753,0
57,11.433333333333334,0.012320208021260548,0.9467461774435442,-0.3217450667381717,0.014960395431637685,0.9669919751424745,-0.254367267113096,0
58,11.633333333333335,0.020146810581331775,0.9964034165178061,-0.08230636412236925,-0.05069149657718863,0.9750620685996424,-0.21606557928775139,0
59,11.833333333333334,-0.005201553292265182,0.9965636217542043,-0.08266735534351413,-0.09830923658926466,0.9756655319497998,-0.19598995833039684,0
60,12.033333333333333,-0.27330118241991175,0.930997889063084,-0.24196982094459657,-0.18841750222466164,0.9650164058913081,-0.18232438458978018,0
61,12.233333333333334,-0.3621069941672976,0.8994061957541398,-0.2448408050431766,-0.2985901404524058,0.9375967090598466,-0.17820308410562968,0
62,12.433333333333334,-0.3231571867800592,0.9435998492694541,-0.07203302777935622,-0.38561185689919075,0.9104127295065336,-0.14984044104053337,0
63,12.633333333333335,-0.14917343318940018,0.9035855023753983,0.40159746852723976,-0.3724013038751189,0.9268894461138839,0.0468318647376912,0
64,12.833333333333334,-0.09511802372872852,0.9275215632749553,0.3614641216247119,-0.288586065719515,0.9490905353282584,0.1262744567315662,0
65,13.033333333333333,0.1594081698299203,0.9534905845203344,0.25582169693469325,-0.15495487259473906,0.9697829692149559,0.1884409193348733,0
66,13.233333333333334,0.2001963184699611,0.9447632771089259,0.2595068097323781,0.03673498350841636,0.9598564812466862,0.2780756666725202,0
67,13.433333333333334,0.23356412435815632,0.932867972898305,0.27423556471292165,0.13519287008064396,0.9385945164381432,0.3174322314945446,0
68,13.633333333333335,0.46788022442695926,0.8407930325025914,0.27231447277967935,0.24529781419529423,0.9036228122774699,0.35113358637812975,0
69,13.833333333333334,0.7074689522336781,0.648333464516389,0.2813385867838924,0.48214660121076364,0.7998155293536585,0.35753289910948927,0
70,14.033333333333333,0.7157798753943025,0.6346305984888138,0.2913814912485818,0.6219348159670568,0.712438908614472,0.32500444024696556,0
71,14.233333333333334,0.7754264718057562,0.37804503496678343,0.5057625315895202,0.7072325509418599,0.6150431209352639,0.3486317229950254,0
72,14.433333333333334,0.896843123154003,0.25106330053532544,0.36419724267995585,0.7868021256795542,0.5253704832124686,0.3239263348282019,0
73,14.633333333333335,0.8790030204325424,0.277214706442353,0.38795063681162834,0.8410264358463407,0.46761224772022564,0.27205389170096306,0
74,14.833333333333334,0.861167894257721,0.5071812249140115,-0.03401562867926936,0.869014192182402,0.48922296952764793,0.07399472867791178,0
75,15.033333333333333,0.8674049101347427,0.39835759105866003,-0.29819448606585647,0.862270223850035,0.4736385244277876,-0.1793226400638758,0
76,15.233333333333334,0.9780786767080569,-0.011308757942219043,-0.20792838710195605,0.9099941082778795,0.34121566758826954,-0.23554742854006858,0
77,15.433333333333334,0.9814251369327436,-0.029317026280863804,-0.1895922270732444,0.9503525786951272,0.19798332021697776,-0.240067867661175,0
78,15.633333333333335,0.9805864964861725,-0.06303931322015476,-0.18567759126427963,0.960794892837704,0.11318932472508159,-0.2531034386674053,0
79,15.833333333333334,0.9809570718176814,-0.07101517247937425,-0.18077629415552562,0.9625238591745173,0.06713052598322883,-0.26275713691736136,0
80,16.033333333333335,0.9807341080627864,0.09291059620166245,-0.17183780258063838,0.9389836037999584,0.22901356734518663,-0.2566370545472233,0
81,16.233333333333334,0.6933068816239832,0.7116857037432901,-0.11326529468573539,0.8035651150006788,0.5521870398631358,-0.2221994126030345,0
82,16.433333333333337,0.7177184233450753,0.6832116988911321,-0.1345438192164644,0.5907081121374466,0.781803824151527,-0.19961639911856477,0
83,16.633333333333336,0.4740249171605306,0.8512548099518252,-0.22509026288321332,0.45845160460104223,0.857853014854531,-0.23218598395192075,0
84,16.833333333333336,0.05735089308042113,0.9981995466236653,-0.01756531192968413,0.3274916298588639,0.9216369391445303,-0.20816960579461743,0
85,17.033333333333335,0.012515974708835309,0.9996864104289265,-0.02168942555293148,0.10373697243491609,0.9872817669105988,-0.12047137948875512,0
86,17.233333333333334,-0.02225673684471674,0.9973197260683718,0.06969936628071462,-0.03145040632627982,0.998410351267393,-0.046772239886850885,0
87,17.433333333333337,-0.05474425479053707,0.9935525985516309,0.09927890248552655,-0.10149781185304158,0.9948322665154699,-0.002637363975231739,0
88,17.633333333333336,-0.08202223982266416,0.9919965633067614,0.09599567991346408,-0.16135952845296908,0.9868581495663599,0.008607857567119613,0
89,17.833333333333336,-0.11969156762348288,0.9895921988482964,0.07988246752840858,-0.22488452415552568,0.9743838592841332,0.00174515383323878,0
90,18.033333333333335,-0.46216886021900433,0.8814972168249813,-0.09676053624116872,-0.3197316427657105,0.9471835855897199,-0.024797818527884118,0
91,18.233333333333334,-0.4829187958865331,0.8701529729448838,-0.09809811544918431,-0.47032106775520455,0.88165494769859,-0.03850514802206836,0
92,18.433333333333337,-0.4682656356358748,0.8278247196517705,-0.30892317494159915,-0.543215047757089,0.8367352322156617,-0.06922111714835777,0
93,18.633333333333336,-0.48720052824597787,0.8236835311296178,-0.29013976946065867,-0.5763735973388633,0.8133290198876028,-0.079305622116779,0
94,18.833333333333336,-0.7161344940736464,0.6534506628271567,-0.24526234453872497,-0.6423781917258234,0.762498397664083,-0.07711324370539373,0
95,19.033333333333335,-0.674210446413647,0.6804631601462972,-0.28707170120098224,-0.6845335411674727,0.7198955212940319,-0.1147356502466182,0
96,19.233333333333338,-0.8264833643448671,0.5601840348140106,-0.05584886391579555,-0.7301088228222699,0.6749235193242935,-0.10686135831061508,1
97,19.433333333333337,-0.8517608379947041,0.5201519670387117,-0.06281246726819525,-0.7871345659694553,0.6116683620910462,-0.07925269631333817,1
98,19.633333333333336,-0.7019852691910252,0.7013601098838422,-0.12373632491119552,-0.7992993807748829,0.5965669099512285,-0.07230782699079928,1
99,19.833333333333336,-0.7034535612752341,0.6994147546520477,-0.1263807267909413,-0.8015592242932219,0.5937566003837474,-0.07039822051148188,1
100,20.033333333333335,-0.6890251730365645,0.7125437700375771,-0.13238461656313696,-0.7875170385074497,0.6119235146624168,-0.07325657829608985,1
101,20.233333333333338,-0.670021739417934,0.7305721742159768,-0.13166308126694803,-0.7671191643943828,0.63678359493722,-0.07768423802609078,1
102,20.433333333333337,-0.6529113478050805,0.745697809960029,-0.13282148970769014,-0.7455724088778057,0.6607869972515733,-0.08650044730170768,1
103,20.633333333333336,-0.6582237648739557,0.7433706729954023,-0.11891811420266672,-0.746958888151466,0.6599956315043044,-0.08036283846878571,1
104,20.833333333333336,-0.9074499198670662,0.42012376010885233,-0.005537971221901878,-0.8079194202577349,0.5888769299807045,-0.022139821745120553,1
105,21.033333333333335,-0.9422684654356496,0.3347667627790064,0.007832852865384649,-0.8753938701476963,0.4833310937754566,0.008753621973750982,0
106,21.233333333333338,-0.9981119633996471,0.05242747613688122,0.031997941565329716,-0.9440158965510661,0.32537668473987325,0.054442631150381594,0
107,21.433333333333337,-0.9978735565872445,0.011768379104814453,0.06410827027122888,-0.9824269874790827,0.17216327397030484,0.0720903694580641,0
108,21.633333333333336,-0.9976482926258872,0.03159832688426298,0.060822939412427585,-0.9963358629280912,0.046421353892886576,0.07183248670404994,1
109,21.833333333333336,-0.9989222159440492,-0.007378058101564902,0.045825437827481316,-0.9971526925351857,-0.047022643497524164,0.05895234319629916,1
110,22.033333333333335,-0.9958789438734217,-0.08952466410343737,-0.014507365947171086,-0.9955336066002218,-0.07194554601206639,0.06112836116387436,1
111,22.233333333333338,-0.9938730992891527,-0.10886695943507017,-0.019085273190005986,-0.9937249578391739,-0.09738606452254465,0.05501511250868084,1
112,22.433333333333337,-0.9892973215302248,-0.14442091742343352,-0.020818458725297116,-0.9926268981241962,-0.1096545780650894,0.051649923811211876,1
113,22.633333333333336,-0.9876043742045453,-0.1556248722775642,-0.020457252519352362,-0.9927263242568737,-0.11007091291587057,0.04877334576696372,1
114,22.833333333333336,-0.9706621116853532,-0.23648781359695886,0.04345778363723827,-0.9903775014302106,-0.12934042424258277,0.04922864326387643,0
115,23.033333333333335,-0.9427165313595441,-0.3289380928792614,0.05554522980764761,-0.9805153534969371,-0.19097296533419575,0.046032250306076036,0
116,23.233333333333338,-0.9200940649593197,-0.3815625355283417,0.08852651076270078,-0.9696223537462442,-0.24094858899271288,0.04214580142806914,0
117,23.433333333333337,-0.9291751060098841,-0.36002324405869857,0.0837668556707926,-0.9420061044443981,-0.33406174915965836,0.03205069325115128,0
118,23.633333333333336,-0.9147605518981514,-0.3965368655067082,0.07727643227468836,-0.9076089934991484,-0.4196428430992513,0.012074732089795478,1
119,23.833333333333336,-0.9102404252613155,-0.4082651498834666,0.06915154091363637,-0.8823570524520321,-0.4705724093693491,-0.002763969697378881,1
120,24.033333333333335,-0.90589559525269,-0.41641366436515054,0.07715458918147748,-0.8618580997978095,-0.5071480174130021,0.0012264774644738501,1
121,24.233333333333338,-0.9376529641415612,-0.3280524847266707,0.114841134186325,-0.8544201051980618,-0.5195423007666004,0.006487029172165201,1
122,24.433333333333337,-0.9323769890172429,-0.337807477409316,0.1286827826769963,-0.844579744394335,-0.53504468666383,0.020303660546895374,1
123,24.633333333333336,-0.9288637072198869,-0.3525692523953888,0.11360957563112883,-0.8413295909333169,-0.5399490858825672,0.024889838781270945,1
124,24.833333333333336,-0.8708688815425722,-0.4852467878036159,0.07824925614382623,-0.8482562553636666,-0.5291894150487157,0.020491174607815018,1
125,25.033333333333335,-0.8788471122008881,-0.4698842088896525,0.0826836356983967,-0.8607227338602018,-0.5087366070270045,0.018532136597580046,1
126,25.233333333333338,-0.8864616326057314,-0.453744979879491,0.09111128992689094,-0.873042092108013,-0.4873566615020015,0.016762753272888915,1
127,25.433333333333337,-0.8752625348057987,-0.4670798720577001,0.12550652685773203,-0.8722247893183751,-0.48879264530804944,0.017483328952910007,1
128,25.633333333333336,-0.865708119570939,-0.4778129736324948,0.14914494271486994,-0.8695424462794592,-0.4933185103878802,0.023082058552409353,1
129,25.833333333333336,-0.9552516682805108,-0.28394954774713793,0.0828667881693104,-0.877930465858964,-0.47845326227905977,0.017904550572065792,1
130,26.033333333333335,-0.9563770125306787,-0.2822356032673707,0.07540606176692374,-0.8834943026049231,-0.468230457274192,0.014073242179460158,1
131,26.233333333333338,-0.9712427054490965,-0.2300415636279002,0.06138799651031498,-0.9180721428162962,-0.39635353900328457,-0.006885688365460482,1
132,26.433333333333337,-0.9885647316375443,0.14711522466038782,-0.03311920946390077,-0.9951141281020216,-0.0007184108200515485,-0.09872869865265646,0
133,26.633333333333336,-0.5349132384139232,0.8353464926603592,-0.1267440908664617,-0.7909036255897965,0.5866942781812036,-0.17395769307033132,0
134,26.833333333333336,-0.24127836029845834,0.940681425983694,-0.2385439323499362,-0.4913414152326055,0.8377321733463517,-0.2383032089956378,0
135,27.033333333333335,-0.25666625456082826,0.934857399805217,-0.24528366394675535,-0.35977096108309237,0.8991926188012241,-0.24903310995677874,0
136,27.233333333333338,-0.28614386316800067,0.9234012133856273,-0.2558356673516099,-0.27268316589690084,0.9274112250161137,-0.2560318549527677,0
137,27.433333333333337,-0.31336292099694324,0.9195300969477208,-0.2372089385996637,-0.2703066366026088,0.9334217280438133,-0.23591990128916032,0
138,27.633333333333336,-0.3726922617535162,0.9020036961520008,-0.2179215688204771,-0.3261285311787388,0.9214731196566863,-0.21101533333237438,0
139,27.833333333333336,-0.4270427368104913,0.8801077211631342,-0.20747264900810555,-0.39029765362603736,0.9005721515994572,-0.1914093554075503,0
140,28.033333333333335,-0.6409244572090513,0.7561907525518659,-0.13187640390276822,-0.48518881019519755,0.8620471690471077,-0.14651449347841394,0
141,28.233333333333338,-0.6786237258040123,0.7266296599805365,-0.10714091661195962,-0.5641955982750032,0.8201414818029403,-0.09513819797110322,0
142,28.433333333333337,-0.6347180812318454,0.7609432879155261,-0.13452981057621988,-0.5888887216525192,0.8054036421787103,-0.06734275518368595,0
143,28.633333333333336,-0.33063791110636076,0.943714755300439,-0.009001798012328364,-0.5423086478359144,0.8397210122271861,-0.02774801085721753,0
144,28.833333333333336,-0.18853831006212085,0.9374065228787077,0.2927837367467163,-0.45553288037634154,0.8866829313260155,0.07926647583397774,1
145,29.033333333333335,-0.15002585192121137,0.9496394050864774,0.2750949728045136,-0.37401529274404943,0.9198049060328221,0.11862333510542743,1
146,29.233333333333338,-0.16254915422568667,0.9553695050461315,0.24667160616581718,-0.35660443595760405,0.9271494631578344,0.11500934406168244,1
147,29.433333333333337,-0.1718560897268916,0.9570934010472524,0.23331889356755092,-0.3498475497626162,0.9304280923415232,0.10913412347569339,1
148,29.633333333333336,-0.18709179667691833,0.9564275465345004,0.22414952118217604,-0.3515548683432556,0.9296209664110955,0.11051711791870485,1
149,29.833333333333336,-0.18874896202019037,0.9583202265801066,0.21446718318603994,-0.34447407623654813,0.9321485073575928,0.1115202718432336,1
150,30.033333333333335,-0.19474294066142894,0.9598480200833488,0.20190830939962512,-0.3441302583567994,0.93290696721121,0.1061082268821076,1
151,30.233333333333338,-0.1933968122439545,0.9651637365077128,0.17622892709299287,-0.3358531573111542,0.9382210812888837,0.08332982268820038,1
152,30.433333333333337,-0.17932611047261832,0.9722120851242219,0.15048524060908877,-0.31503491301460157,0.9472765148360047,0.058482544592682276,1
153,30.633333333333336,-0.17053770641008875,0.9760000510332371,0.13542817681525934,-0.30234328335533245,0.9521910513989051,0.04382625521037667,1
154,30.833333333333336,-0.17315497645786343,0.9760949319712205,0.13136223927740845,-0.30305620475027684,0.9520528815717952,0.04185985491135138,1
155,31.033333333333335,-0.17478499220142973,0.9778227259674127,0.11538164101278982,-0.3019478688898673,0.9530005141251171,0.024849638832990503,1
156,31.233333333333338,-0.11168231299077724,0.9821793507172094,-0.1511647577636774,-0.29143953708799497,0.9564643837409801,-0.015455706289999586,1
157,31.433333333333337,-0.189937787654884,0.9719196470292396,-0.13890945446342645,-0.2481912358515569,0.966701560801422,-0.062363473208056484,1
158,31.633333333333336,-0.08197144366347786,0.9918299412106873,-0.09774482155966036,-0.23638825831255827,0.9670191899507234,-0.0948392197300345,1
159,31.833333333333336,-0.04772982471917725,0.9934430938577206,-0.10388783903170486,-0.2239476910546258,0.968369729713461,-0.11003407765769802,1
160,32.03333333333333,-0.050603884806176,0.9922668272680374,-0.11333927097853605,-0.22443078976526531,0.9669018176646589,-0.12137419660750877,1
161,32.233333333333334,-0.03466319262879769,0.9910805859939713,-0.1286768632762911,-0.20865591423083157,0.9692189664177937,-0.13068016143439729,0
162,32.43333333333333,-0.029470463921208112,0.9900311190532098,-0.1377311695387708,-0.20084730333995898,0.9695328252416658,-0.14023716169396938,0
163,32.63333333333333,0.17851184875175036,0.9307423483720677,-0.31914291595158645,-0.12359644943311088,0.9733543964280537,-0.193145376961781,0
164,32.833333333333336,0.30851266646051095,0.835193424260541,-0.455271214448462,0.015339618116994469,0.9549980911113409,-0.2962150267790609,0
165,33.03333333333333,0.3890885291509956,0.8021675554816048,-0.45292088648657125,0.12532111785612776,0.9231983372884239,-0.3633172820651118,0
166,33.233333333333334,0.601428908520736,0.7062406227926171,-0.3735069620677138,0.2501421648653435,0.884102168508322,-0.3947052735844332,0
167,33.43333333333333,0.5727998863510522,0.730785719566636,-0.3712849610120188,0.32954943431658346,0.8522199107014231,-0.40634762721797507,0
168,33.63333333333333,0.5789234583374099,0.727218711979313,-0.3687825569814851,0.3642426786837503,0.8384639384839505,-0.4053461420653565,0
169,33.833333333333336,0.5469348838183927,0.7527007781023942,-0.36647478972858577,0.339420952976262,0.851769162230789,-0.3991023815430645,0
170,34.03333333333333,0.4817104317547458,0.7997817031733034,-0.35819587826755744,0.26161956763508654,0.8857061364629784,-0.38350989773701394,0
171,34.233333333333334,0.4862865426271945,0.7880100248104244,-0.3775786001059436,0.1718001289747937,0.912933620482591,-0.37018498116049087,0
172,34.43333333333333,-0.010763527830400632,0.941308936903567,-0.3373746163749147,0.042955523439363374,0.9344770389185619,-0.3534225328697186,0
173,34.63333333333333,-0.06563278750081336,0.9382038486894742,-0.33980270085614594,-0.05697734166789564,0.9352766715895181,-0.3493009162840729,0
174,34.833333333333336,-0.3764462833010804,0.900499951352941,-0.21768792663387063,-0.22213550103326324,0.9245443671704916,-0.3096345140872007,0
175,35.03333333333333,-0.6012314331472716,0.7883204659664409,-0.13065835883758695,-0.4572401007593282,0.8675636074688496,-0.19561410289965153,0
176,35.233333333333334,-0.5685037294140968,0.804421320345527,-0.17236545192068733,-0.5794618885579235,0.8011968380829726,-0.14935711015794306,0
177,35.43333333333333,-0.6828919227779333,0.7189593222423187,-0.12944541230002507,-0.6603427103315752,0.7426723902301235,-0.11128892892747518,1
178,35.63333333333333,-0.7115988315820155,0.6936955950560789,-0.11141599656648409,-0.7218010511370416,0.6878834161659846,-0.07628661967394565,1
179,35.833333333333336,-0.6561756441629599,0.7185412588740848,-0.2305037598456265,-0.7411873509115096,0.6674501700660114,-0.07177451725808756,1
180,36.03333333333333,-0.653199804715061,0.7172467800474545,-0.24266658532184626,-0.7399237861737404,0.6673915857656492,-0.08426898541889151,1
181,36.233333333333334,-0.643133819465531,0.7187424428755798,-0.2641745465954697,-0.7306994850606524,0.6749511908702001,-0.10256291959083717,1
182,36.43333333333333,-0.643921444753226,0.7138325632881896,-0.27533297037647203,-0.7293838261393858,0.6751428679104748,-0.11036911740106162,1
183,36.63333333333333,-0.6433604698903912,0.7137785696505028,-0.27678052548923604,-0.7270544714101214,0.6773136297804137,-0.11241904872498211,1
184,36.833333333333336,-0.6422072180739453,0.7141395123080995,-0.2785222540733043,-0.7251161304239453,0.6789027975815358,-0.11531517174668714,1
185,37.03333333333333,-0.6454824088852997,0.7107580868742005,-0.2795986440642327,-0.7258651119820996,0.6779703166753702,-0.11608655785366646,1
186,37.233333333333334,-0.6454741069955303,0.710143549933067,-0.28117488452346573,-0.7238550407189284,0.6798880747338126,-0.11741416379870055,1
187,37.43333333333333,-0.6436252124568272,0.7102081103879221,-0.2852210122503622,-0.7203946098416136,0.6829296258958578,-0.12099062850028001,1
188,37.63333333333333,-0.6440027401093044,0.7086025874204122,-0.2883450083368965,-0.7192648189040167,0.6839028404760417,-0.12220894024487015,1
189,37.833333333333336,-0.621297336084363,0.7589579837608684,-0.19486507911914816,-0.719888666364191,0.6830411018275935,-0.12334975174086645,1
190,38.03333333333333,-0.6263728982806678,0.7578855303135432,-0.18239110515821755,-0.7204557377345445,0.6825089965722051,-0.12298373698735655,1
191,38.233333333333334,-0.6254272229235658,0.758118705165765,-0.18465323637537662,-0.7189739939392834,0.6833261796564636,-0.1270501012793693,1
192,38.43333333333334,-0.6294221143235896,0.7556967994656987,-0.18097002314671268,-0.7223843698621,0.6802250819827617,-0.12431677288476348,1
193,38.63333333333333,-0.6284831546692033,0.7550729312414319,-0.18674526179670084,-0.7203003832126681,0.6816039583922935,-0.1287765578342587,1
194,38.833333333333336,-0.6301000845326759,0.7526300908560268,-0.19110685442956654,-0.7208704929115898,0.6804961156955137,-0.131418297708957,1
195,39.03333333333333,-0.633809560660282,0.7488946065201455,-0.1935001528181744,-0.7236041302145574,0.6774965459373009,-0.1318919746590397,1
196,39.233333333333334,-0.6557621993259826,0.7352532818223049,-0.17140171966663728,-0.7437309659635547,0.6597417465308546,-0.10772686828890819,1
197,39.43333333333334,-0.6586487781395816,0.7320479028701099,-0.17403348803810786,-0.7478911535069834,0.6548234741535436,-0.10892676532183257,1
198,39.63333333333333,-0.6658628298153617,0.7267731984762293,-0.16860429960979711,-0.7565007252639796,0.6459663470781692,-0.10214759477128847,1
199,39.833333333333336,-0.6634084539619436,0.7287212423277629,-0.16986634214024351,-0.7565586203467318,0.6460124951368111,-0.10142440587038995,1
200,40.03333333333333,-0.6611787485432805,0.7309008813927291,-0.16919386529680588,-0.7571778495212511,0.6457305648357472,-0.09855831690568108,1
201,40.233333333333334,-0.6706804693537223,0.7229648350595397,-0.16586004731340012,-0.7653853872370009,0.6369112293542757,-0.09235418196536611,1
202,40.43333333333334,-0.6820694216933447,0.7136289677057807,-0.15973415552751513,-0.7760342688454018,0.6253201227883182,-0.08213134367332264,1
203,40.63333333333333,-0.7127671500236321,0.6892706455060463,-0.12988058781383593,-0.8012232305358817,0.595914856966127,-0.05410007483068484,1
204,40.833333333333336,-0.9061677279763166,0.422234522874203,0.024042804899485404,-0.8289691311941066,0.5588418081185554,-0.02249473329630145,1
205,41.03333333333333,-0.9121734898777866,0.4092306270228167,0.021675291709496995,-0.8424238060056002,0.5383904457789307,-0.02139763933249307,1
206,41.233333333333334,-0.749259960407046,0.6468890007168246,-0.14193002671182725,-0.8386398711216932,0.5438742414457355,-0.029731734843692407,1
207,41.43333333333334,-0.8135574735337533,0.5316581074094091,-0.23550773677996598,-0.8364666659118576,0.5467657298487868,-0.03702368810943291,1
208,41.63333333333333,-0.8181532955312839,0.5212552613615312,-0.2427305862766816,-0.8349743046166379,0.5485018874125744,-0.04431241513171727,1
209,41.833333333333336,-0.9921736373350168,0.12112160847320658,0.030348465171496183,-0.891253525930112,0.4533216836592235,-0.012907503302755736,1
210,42.03333333333333,-0.9947582300322442,0.08454103826662374,0.057522835743020494,-0.9563448249737688,0.29130001144811957,0.023428168434961587,0
211,42.233333333333334,-0.9952625327914337,0.07376928173929748,0.0633291709502726,-0.9907792241058291,0.12792870635871378,0.044618103608711226,0
212,42.43333333333334,-0.9963269824274497,0.013048687125263579,0.084630230126827,-0.9982488246283603,0.02987642078232748,0.05105569125313169,0
213,42.63333333333333,-0.9923650824377639,0.07246810977090506,0.09979937988044973,-0.9973903438336131,-0.04061680515742637,0.05968900372992368,0
214,42.833333333333336,-0.995335251807429,0.056665557327443106,0.07808169518019319,-0.995574811143588,-0.08413098334433768,0.041866132588571046,0
215,43.03333333333333,-0.9992055755594741,0.03456644647191567,0.019833772943253426,-0.9925079643601095,-0.12127697946401751,0.014826831550811255,0
216,43.233333333333334,-0.9790322069872742,-0.1854747962294709,0.08423204642689965,-0.9872272558923176,-0.15877732616287885,0.01311891458510046,1
217,43.43333333333334,-0.9708685030374469,-0.2143064968257289,0.10717777394642508,-0.9809411440181742,-0.19299178040238854,0.022553152095262683,1
218,43.63333333333333,-0.9634812712200619,-0.24086732567191121,0.11699047581677481,-0.9712756595270698,-0.2361932002102451,0.02891998244637777,1
219,43.833333333333336,-0.9573227371138711,-0.26824053389311653,0.10761130508242164,-0.9591663293793529,-0.2821509548806948,0.019768440627711298,1
220,44.03333333333333,-0.9764659258727789,-0.21531815316610886,0.012344574782185468,-0.9521736168781544,-0.3054505347195467,0.00808542891359743,1
221,44.233333333333334,-0.9761886620299716,-0.2168951326280404,0.003492501452954012,-0.9485505299779612,-0.31650609917944067,-0.008705243290296018,1
222,44.43333333333334,-0.909598881151553,-0.37710034487596383,0.17442822392684074,-0.939455645728238,-0.34261150985264516,-0.006359483141757943,0
223,44.63333333333333,-0.8925629047348682,-0.413030607556403,0.18093418226759608,-0.9191904425831582,-0.39380252759785866,0.0029153938526067197,0
224,44.833333333333336,-0.8730754444151656,-0.4532637949654994,0.17969752511577686,-0.8960815805779564,-0.4438294738451117,0.007293770991955178,0
225,45.03333333333333,-0.821216859070782,-0.5270243673346993,0.21874228355162562,-0.8545502891945715,-0.5174902648385176,0.04413195027228743,0
226,45.233333333333334,-0.7659601756086019,-0.5969117674253037,0.23874955767674275,-0.8004821778366059,-0.5960068534569046,0.06327806569708512,0
227,45.43333333333334,-0.7745957520276567,-0.5826346473203653,0.24604529802981936,-0.7462553880059325,-0.6616837088604622,0.07264685334395908,0
228,45.63333333333333,-0.5470481241015008,-0.7823901384699321,0.29766427589153066,-0.5864798694159781,-0.7931133324265851,0.16435511764777747,0
229,45.833333333333336,-0.36774002455194443,-0.8782420162117933,0.3057093968179249,-0.4525716758150543,-0.8676641623038799,0.20576146311556942,1
230,46.03333333333333,-0.37737665050473534,-0.875020896163156,0.3031918450942473,-0.4188568417072411,-0.8832826041976201,0.21064374492708193,1
231,46.233333333333334,-0.5242364156791087,-0.8000210112466487,0.2917919841938958,-0.40669820824566505,-0.8869000039079191,0.21910032057917908,1
232,46.43333333333334,-0.5345447729444284,-0.7966285261475167,0.2822142396227113,-0.41230232543973544,-0.8856455035398185,0.21363247528568352,1
233,46.63333333333333,-0.5376193621322211,-0.7987557192393389,0.27010131884718774,-0.4073149133000916,-0.8897228398767599,0.2061257616237542,1
234,46.833333333333336,-0.5640837414249164,-0.7843498828508367,0.2580790458986298,-0.4324067967375547,-0.8799272079832011,0.19685647255311636,1
235,47.03333333333333,-0.5819915869815294,-0.7717474187605636,0.25630394908999826,-0.457559885699134,-0.8676931487735691,0.19428728875148896,1
236,47.233333333333334,-0.5982532786036998,-0.7607724673812846,0.2516312133152733,-0.4761992529404229,-0.8589214355919467,0.18838322372136165,1
237,47.43333333333334,-0.47665756213286187,-0.8563166647988076,0.19879471333363805,-0.4788093880576225,-0.8589615524007882,0.18145694091192313,1
238,47.63333333333333,0.13255899979875002,-0.9728895131923759,0.18951017569686648,-0.28009405290662576,-0.9460429537624392,0.1629418643651157,0
239,47.833333333333336,0.3369946862947615,-0.9412664753008434,0.021260382965090027,0.08590334310795217,-0.9899666502769943,0.11219022676786582,0
240,48.03333333333333,0.3566060587698633,-0.932098676286825,0.06343639738331222,0.27580836453404445,-0.9584443682798609,0.07289814103030441,0
241,48.233333333333334,0.028449150341764207,-0.9990729436880939,0.032309426414573204,0.286964926326304,-0.9561129693346618,0.05915336785505251,0
242,48.43333333333334,-0.036390427302789796,-0.9987674078606876,0.033755026232601744,0.21080798864086642,-0.9760851824117301,0.053082093039479486,1
243,48.63333333333333,-0.06574125874031111,-0.997120189695329,0.03780759449093453,0.14799459702557588,-0.9879580653973079,0.04512715665368639,1
244,48.833333333333336,0.0023749810578833075,-0.997859718515693,0.06534785098805367,0.11196359305999426,-0.9929497614317653,0.038922038765925815,1
245,49.03333333333333,-0.005586686937750884,-0.9979119558289304,0.06434685184792319,0.09127341170914244,-0.9951146082445931,0.03763084869072202,1
