,timeStamp,x_gaze,y_gaze,z_gaze,x_head,y_head,z_head,fixations_head
0,0.04,-0.9998273542077294,-0.011359782970176547,0.01470432279439946,-0.9917325211687794,-0.06148871826707149,0.11263100808431756,0
1,0.24000000000000002,-0.9999848741627191,-0.004625644047396737,0.002975712169864813,-0.9929396288764843,-0.054503976594365705,0.10535753386460035,0
2,0.44,-0.9465311535042727,0.3222764425740441,-0.014719714932368176,-0.9960490900578505,0.001050153366234723,0.08879812707954993,0
3,0.6400000000000001,-0.9274700968930365,0.37105110436331695,-0.04604668630840629,-0.9918050322915969,0.10592692138696995,0.07143014242280836,0
4,0.8400000000000001,-0.9184362483209196,0.3890334164970357,-0.07160906799308342,-0.9728899375554007,0.2259134815897089,0.04947997816759066,0
5,1.04,-0.9132536883051547,0.4022034583653989,-0.06480801552234561,-0.9562469619982547,0.2878305778057969,0.052395669182577466,0
6,1.2400000000000002,-0.9278245033085766,0.3707074123504763,-0.041445210683590916,-0.9563416950769765,0.2779250508274779,0.09037825169718201,0
7,1.4400000000000002,-0.9625697497913277,-0.05986394217524911,0.2643402829950427,-0.9722923610557315,0.17143143793530613,0.1589302574090427,0
8,1.6400000000000001,-0.96892738002787,-0.049864083474282554,0.2422670126360538,-0.9779029372947434,0.12590882999491887,0.1668916168045112,0
9,1.84,-0.897508516025914,0.4275980026961957,-0.10788147084270754,-0.9612160661713282,0.2651121199750731,0.07602129949191454,0
10,2.04,-0.4568283404269149,0.8890959328528509,-0.028570781706309393,-0.7383012756582604,0.6740249494907181,0.024527409676123733,0
11,2.24,-0.1619053605701839,0.9816427873051173,-0.10081712329995991,-0.3978467508777292,0.9166015412324299,0.039491485492047,0
12,2.4400000000000004,0.06175128692666121,0.9980589452324019,0.008069721462788544,-0.300828489935768,0.9507578645456475,0.07457682379644098,0
13,2.64,0.1265985357593697,0.9909275301760938,-0.0451158584390278,-0.05497383518957283,0.9965565905200893,0.0620712440307512,0
14,2.8400000000000003,0.36592692180001185,0.9277187448604943,0.07372528966669135,0.24720786541818646,0.9674910686419137,0.05337886635656707,0
15,3.04,0.9061294297238857,0.42289873678966794,0.009279817345683833,0.6857924192406745,0.7237468178622831,0.07667660233892915,0
16,3.24,0.9892956078794652,0.14533178226883722,0.013148128876873893,0.8814533330595592,0.46493991131069184,0.0828908952093038,0
17,3.4400000000000004,0.9728035977534557,0.2312680399298458,-0.012971272294593146,0.8667766782479955,0.4919034750734557,0.08203146503646591,0
18,3.64,0.25019842741417364,0.9646066364965964,0.08327534897073512,0.39012891351655077,0.9191774712457553,0.053964869986449664,0
19,3.8400000000000003,-0.6065317025201947,0.7942605040051796,-0.035630683622299264,-0.5782572359292084,0.8143676738073269,0.04923272238212411,0
20,4.04,-0.9273580292951434,0.3613270939498546,-0.09721016757305218,-0.9433385718377519,0.3300396872733915,0.03444043709932287,0
21,4.24,-0.9870101700977251,0.10605024774356427,-0.1206825135518351,-0.9810044590324618,0.18961316499920702,0.04095239940969431,0
22,4.44,-0.9772215202889502,0.13803759733624374,-0.16119467114576166,-0.9967603816338373,0.021091348775165535,0.07761376560901527,0
23,4.640000000000001,-0.9970047356770226,-0.0740861208356977,0.022199183253185775,-0.9880349086159,-0.1150019696144587,0.10276948156513041,1
24,4.840000000000001,-0.9906320979077974,-0.12507068635717744,0.05482125508359934,-0.9823835987865748,-0.1496040679045723,0.11198699791289342,1
25,5.04,-0.9911030858220299,-0.121925133959058,0.05337541553108385,-0.9806485328245895,-0.14795692419662465,0.1282076583174916,1
26,5.24,-0.9958567412248664,0.06374335551083615,0.0648547267761474,-0.9821286570774106,-0.11644658110601991,0.14786309443549855,1
27,5.44,-0.996766055216989,0.07759085189983918,0.020906718265185583,-0.9886393884540281,-0.06767305872260496,0.13421071760620387,1
28,5.640000000000001,-0.9909488843103637,-0.12826270013674385,0.039610458690571296,-0.9908454179696388,-0.05133912539511809,0.1248585275110854,1
29,5.840000000000001,-0.9915929143528002,-0.12556862608533542,0.031241196333712622,-0.9900381804384516,-0.04208025615942598,0.13436388397064597,1
30,6.04,-0.9979280075943595,-0.06005526383874809,-0.02308802598773391,-0.9904425318964709,-0.033369860592089316,0.1338284103416497,1
31,6.24,-0.9668793690065042,0.25162061986970236,0.04279426884492181,-0.9929234230366564,-0.004095744132488158,0.11868572308905047,1
32,6.44,-0.9944080623508493,4.373635089321737e-06,-0.10560589714831894,-0.993626861179574,0.01433087669724712,0.11180468109840616,1
33,6.640000000000001,-0.9780836919502408,-0.010682499948879551,-0.2079379131756132,-0.9945486418019208,0.038159699308215674,0.09704038560651741,0
34,6.840000000000001,-0.9240623601071778,0.37248586918480875,-0.08580811086832164,-0.9906494965637997,0.12613223575369104,0.05200225054424056,0
35,7.04,-0.9139171308880966,0.3972774837228569,-0.08322306649063813,-0.9782577962217337,0.2041161124429095,0.036719160837232326,0
36,7.24,-0.9454084817883569,0.32588657780337826,0.0008607962807796564,-0.9701351461943067,0.24252300196548762,0.004515709933010312,0
37,7.44,-0.9560514297637555,0.28483267958054503,-0.06954141420510299,-0.9711476638442892,0.23664166421685345,-0.029545520243474392,0
38,7.640000000000001,-0.9509655759050728,0.30299110768863763,-0.0621358359173344,-0.9595888332809923,0.280085936018756,-0.02722387714711737,0
39,7.840000000000001,-0.9422563843629085,0.33307983524179524,-0.0347955382576167,-0.9428331360116131,0.33263608812859824,-0.020467303510983487,0
40,8.04,-0.8937420576134198,0.4483249359051245,-0.015162001800436142,-0.8696224427196471,0.49371569982333374,0.0012707738863552375,0
41,8.24,-0.05541986953783573,0.9981534402860178,-0.024866598191075107,-0.4110302524069321,0.9104332880360009,0.046533425000210835,0
42,8.44,0.8782798293533877,0.4533641081175319,-0.15193922081470274,0.6301466762901433,0.7734235192613104,-0.06878390955692332,0
43,8.639999999999999,0.9897122352265354,0.1155470206384453,-0.08437166268643961,0.9889777314373305,0.124892750660908,-0.07952891017374507,0
44,8.84,0.9465098219933628,0.3219539764346194,-0.021559079943937076,0.9894373071763041,0.14355827706060725,-0.02012054311130866,0
45,9.04,0.9448838885166053,0.29237151625351704,-0.14735444922145732,0.9787788472461098,0.19614224142653555,-0.059331183299774354,0
46,9.24,0.6848767550233114,-0.16838247060371073,-0.7089366502178668,0.9185722968938285,0.0012437719313618386,-0.39525104479378576,0
47,9.44,0.7213731955508773,-0.1668544711125326,-0.6721460393474569,0.8556449929856116,-0.10415980591954395,-0.5069737476531262,0
48,9.64,0.7201606453641108,-0.17333633845415575,-0.6718058935734744,0.8777403722375541,-0.11265769492123076,-0.4657038573163374,0
49,9.84,0.997117764374221,0.050301669649332914,0.05679705978169486,0.9882160136172521,-0.02540488788681072,-0.15094271132415057,0
50,10.04,0.8848560318362152,0.46583257792689065,-0.005460060902111267,0.963141778922107,0.2553646429499566,-0.08453882436963914,0
51,10.24,0.9295895539612719,0.3673136200699163,0.030724024430684917,0.9424815804613218,0.32657802806312336,-0.07124087364379247,0
52,10.44,0.7893693347199042,0.3599390731729472,0.4973328030677803,0.9306382115624174,0.36556706429100994,-0.01652999351355543,0
53,10.64,0.9991386656298316,0.035903589136875844,-0.020805266893993164,0.9298221223101363,0.3677142273870643,0.014733222315875172,0
54,10.84,0.9996115782499693,0.027471353669576582,0.004692265568683402,0.9353549478948635,0.35220393563302466,0.03261148836231121,0
55,11.04,0.7511821179960696,0.6587812833308804,-0.041625068598828606,0.8846027581947041,0.4661813422066787,0.012365935981624169,0
56,11.24,0.6914074100637084,0.7187898913839419,-0.07277970426743625,0.7557080175184127,0.6540265277815343,0.03398077716034345,0
57,11.44,0.6620226825434817,0.7421243304341003,-0.10477330755336021,0.6053464828472903,0.7953325540863886,0.03165065741556056,0
58,11.64,0.09820105598347234,0.994956326667229,0.020456310238780914,0.3590437022286357,0.9326605448775578,0.03509883073055335,0
59,11.84,0.08838817343945199,0.993603974632895,-0.07027568846870749,0.17649783267425934,0.9840636082985901,0.0216178140349288,0
60,12.04,-0.3080636391483196,0.9477698097538502,-0.08263886466938564,-0.17101734823505405,0.9852499633289076,0.0059645924451216465,0
61,12.24,-0.9875553995708393,0.15573607173766585,0.02192279038353886,-0.8896554964094244,0.4550080884326137,0.03848034783366444,0
62,12.44,-0.9966212758970074,0.0542940550849936,-0.06162944111257767,-0.9914540604019213,0.13033834035814904,-0.005546453391793725,0
63,12.64,-0.9865184526312809,0.14454895766474257,-0.07672640651053522,-0.9931893301542518,0.11600293620025194,0.010875351059581475,0
64,12.84,-0.9675075122665764,0.24095303191215894,-0.07662147296990976,-0.9816094303714852,0.18873538739374432,0.028668445215984686,0
65,13.04,-0.698511973155318,0.20656674293455934,-0.6851359018998145,-0.9577674310272803,0.2875159398492191,-0.004016515408199727,0
66,13.24,-0.6184882386033961,0.203002189649533,-0.7591194963289797,-0.9217755269465309,0.34088236023223567,-0.1847406138480275,0
67,13.44,-0.9700838601645624,0.23364123363011335,-0.0659475412431781,-0.9312251103518852,0.3175489188144706,-0.17883645604260862,0
68,13.64,-0.9510876773751457,0.2943716715101812,-0.09368857431647284,-0.8991499703747483,0.40196621880868144,-0.1730678760248158,0
69,13.84,-0.9601010507904303,0.2605931486398245,-0.10147503709333824,-0.8416439486403062,0.5190573394959032,-0.1490467780013665,1
70,14.04,-0.9429622700195174,0.31220444851563806,-0.11554453533891361,-0.7888196740335683,0.5991183887207437,-0.1371884767545553,1
71,14.24,-0.9509580610492588,0.28280658494822575,-0.12529645499915892,-0.7857051047319412,0.6019609426630808,-0.14251495327278754,1
72,14.44,-0.9645402795461347,0.22885349532164465,-0.1314843215449295,-0.8104912929499153,0.5652048622279092,-0.15377687656570616,1
73,14.64,-0.9694710909097324,0.21036091764557105,-0.12599241333353017,-0.8199913743833349,0.5517215893129812,-0.1523726806973223,1
74,14.84,-0.9682144409790004,0.20506711867270264,-0.14320709870323334,-0.8200792741779204,0.5452610242028141,-0.1736674971003902,1
75,15.04,-0.9631246255733056,0.21948704367505983,-0.15561617291612911,-0.8180284398475335,0.5496582293214898,-0.16942639268949616,1
76,15.24,-0.9667796439160178,0.1889900591194173,-0.1721042639322371,-0.8405237483188023,0.513855439811188,-0.17167531997512556,1
77,15.44,-0.9719304493343361,0.2042830979508532,-0.11670311713213907,-0.8714659025084389,0.467038129460486,-0.149741665528343,1
78,15.64,-0.9691926101857873,0.22938878704016805,-0.08970211113179741,-0.858787613153284,0.4941662127052881,-0.1352168248222011,1
79,15.84,-0.9582186926457892,0.27475733182009987,-0.07953204181519911,-0.8324011040824756,0.5450859013626518,-0.0999487971810626,1
80,16.04,-0.9430013149506845,0.3327627157395036,-0.004182704262814356,-0.7467169500465175,0.6649426507972794,0.01628089874405516,0
81,16.24,-0.9501627461248118,0.300801106454087,-0.0819112338605266,-0.5743745058061976,0.8127771079577533,0.09740277131435779,0
82,16.44,-0.9621536737369973,0.24630975613041178,0.1165839274916459,-0.6835738825600475,0.7280752473435173,0.05131453290695384,0
83,16.64,-0.9693259300378186,0.24147963885745438,0.045769262322997106,-0.7565903170453253,0.6526272738500785,0.04060460048158638,0
84,16.84,-0.9790508614401092,0.19991707223158448,-0.03863385747931637,-0.7881683696986632,0.6148205615550913,0.02804100739334584,1
85,17.04,-0.9630124295303801,0.26393757320359884,-0.05425880593405767,-0.8354113722709567,0.5496227030093486,-0.0016502778718636834,1
86,17.24,-0.9666668378374199,0.24838302825028885,-0.06213771723052016,-0.8622139661415812,0.5065146790230228,-0.005473255394097404,1
87,17.44,-0.953636574756761,0.29415236418149354,-0.06365272918446548,-0.848532566718194,0.5290877934125054,0.007654415753028139,1
88,17.64,-0.9233653139088761,0.3758410329628744,-0.078358247883438,-0.7973236062097403,0.6035203518160391,-0.006184814026270013,1
89,17.84,-0.9540877654430191,0.29122120386901185,-0.07004817091851927,-0.8058928442753133,0.5918746341798774,-0.01487080899891821,1
90,18.04,-0.9661753035733601,0.24269700301076297,-0.08719774936613503,-0.8340294808868717,0.549971358986188,-0.04388996817566449,1
91,18.24,-0.9679555637580034,0.11070383425563458,-0.22540338877449717,-0.8488929084099853,0.5093579798811713,-0.1411923453399955,0
92,18.44,-0.9521600846072598,0.05398547576399607,-0.3007935200220099,-0.8738033708970332,0.4454781970885418,-0.1949790884370016,0
93,18.64,-0.892872128254844,0.09148249759076507,-0.44091985124308203,-0.8940202292939003,0.39144535577135803,-0.21794119174290266,0
94,18.84,-0.8863888856403148,0.0816895810970568,-0.45567703009204713,-0.8982181042371622,0.38105059425496257,-0.21909970752727703,0
95,19.04,-0.9599073590147187,-0.025253950900472645,-0.2791775422080097,-0.891955255992707,0.3751331845473056,-0.25237059091419833,0
96,19.240000000000002,-0.8879444594415895,0.03462257741636545,-0.4586457391931506,-0.9041781363075316,0.29598957543168514,-0.30798063098060147,0
97,19.44,-0.8215059965570871,-0.035782166976736904,-0.5690760354708291,-0.8983620577502788,0.16739345361746846,-0.406109646377307,0
98,19.64,-0.8099649815383047,-0.023783387773975512,-0.5859958013054759,-0.8966401649793406,0.12387280821704369,-0.4250787479164829,0
99,19.84,-0.846587595865848,0.026178067230372252,-0.5316052589301258,-0.9182661369523146,0.1502276910085996,-0.36635903507474454,0
100,20.04,-0.8755727309346307,0.10877554692732913,-0.47068064888449956,-0.9282979904790062,0.22633880519207214,-0.29501455241540925,0
101,20.240000000000002,-0.8753135841379405,0.1699413691732076,-0.45270968673878415,-0.8685265251557104,0.43910560084706407,-0.22988681216130222,0
102,20.44,0.08643541961340706,0.9546058550446057,-0.2850553976875577,-0.10284388258895483,0.9897189223484761,-0.09939612949909345,0
103,20.64,0.9675445226500621,0.24236051667940106,-0.07154702401049047,0.8479118284984823,0.5269547333629364,-0.05800206960753062,0
104,20.84,0.8904201761307806,0.45152757579740177,-0.05722550335078674,0.898260554475964,0.43543668552574427,-0.059353762904198394,0
105,21.04,0.697240272394595,0.7134543857906447,-0.06956178510651356,0.7484155147219552,0.6629861237261477,-0.017989359912130805,0
106,21.240000000000002,0.7397450273111547,0.6654959325413206,-0.09946083821976166,0.7503745777681308,0.6603987608543324,-0.028486307260891106,0
107,21.44,0.7468479113567315,0.6550150835210333,-0.11477559697959377,0.7524446275754437,0.6576227437231836,-0.036870169118732005,0
108,21.64,0.31950589956553943,0.9472532714788662,0.025044356957231964,0.6947428138739992,0.7192040422451038,-0.008829959724757547,0
109,21.84,0.31619974043531357,0.9486209005747936,-0.011666667960842887,0.5558973741314984,0.8307010488872818,0.030230395486578642,0
110,22.04,0.016356031313573383,0.9997737792951179,-0.013596708190831933,0.3444207144079156,0.938484002243713,0.02494291521382502,0
111,22.240000000000002,-0.013982535851094713,0.9980911100712331,-0.060155005510321206,0.1096170663070764,0.9934254534445072,-0.0330146516384064,0
112,22.44,-0.10589147909985458,0.9936666411197175,-0.03759788531159793,-0.22475591750204177,0.9731094966298246,-0.05042504453805742,0
113,22.64,-0.5444437676835637,0.8376134606116958,-0.04454968498907004,-0.6653659454064207,0.7441243679619236,-0.05972506759048245,0
114,22.84,-0.9675965886955,0.24138396342219892,-0.07409874322431005,-0.9486142805308948,0.31194824236315344,-0.05309652398596726,0
115,23.04,-0.9765088573854359,0.134839315080601,-0.16807382472111804,-0.9962092164314045,0.03461632947631038,-0.07980543108532413,1
116,23.240000000000002,-0.8769262692340042,-0.004726980627940387,-0.48060167912885415,-0.9923871477724492,-0.03032446910166504,-0.11936572166985637,1
117,23.44,-0.7395925427225569,0.08572714371165589,-0.6675730129208521,-0.9884703668894171,-0.012044467868776155,-0.15093463676459185,1
118,23.64,-0.7418657786355077,0.07794370207889505,-0.6660029623025472,-0.9855786763171064,-0.005059996229587192,-0.16914215685977596,1
119,23.84,-0.7416184603217192,0.06096061677723223,-0.6680463026708422,-0.983490758281805,-0.01867902930066005,-0.17999172825067677,1
120,24.04,-0.9428100226584688,-0.3229039012996906,-0.08271838792056657,-0.9865407992950498,-0.08246928222412543,-0.14119514444810802,1
121,24.240000000000002,-0.9257599816020754,-0.3743398118689161,-0.05327440017559777,-0.9880468156477236,-0.10312823550971074,-0.11457773400206145,1
122,24.44,-0.9587299612479692,-0.2842028115359409,-0.008100822213454588,-0.9978950460190983,-0.016135265710893774,-0.0628102724956736,1
123,24.64,-0.8592749142281777,-0.5115082703870926,-0.0024312761593525164,-0.968403978448924,-0.24696217029237993,-0.034690358441126515,0
124,24.84,-0.7984352276765548,-0.6020655081283511,0.004279150294002885,-0.9364127552364722,-0.34982040946227827,-0.027510597123344676,0
125,25.04,-0.7962003625145789,-0.6050168294209464,-0.004429316999151637,-0.9300256915091929,-0.3655301782801991,-0.03794603930970666,0
126,25.240000000000002,-0.7482934704420408,-0.663366538372645,-0.001310672079818426,-0.8948724522774381,-0.4445722776240807,-0.0394814402359094,0
127,25.44,-0.5835648181197528,-0.8120654138286433,-0.0013662782199703218,-0.7532327096150138,-0.6567170974018809,-0.03692071432235922,1
