,timeStamp,x_gaze,y_gaze,z_gaze,x_head,y_head,z_head,fixations_head
0,0.04,-0.9963480598579038,0.07649338064366626,-0.037938190983420196,-0.9992144607837067,0.005627254623090791,0.03922748228134461,0
1,0.24000000000000002,-0.9954650921438577,0.08209303286379144,-0.0480622958070625,-0.9995960630854329,0.0014301043651930541,0.02838424678599175,0
2,0.44,-0.9535346186370726,-0.004980558704043016,0.30124230296498594,-0.9944133398972328,0.029555259046978814,0.10133408161668285,0
3,0.6400000000000001,-0.9279277388816543,0.003383945460002432,0.37274476566023584,-0.9750961896755486,0.058033177844471553,0.21405506569455238,0
4,0.8400000000000001,-0.916512647732888,0.0003806447247032479,0.40000552703087117,-0.962697306150264,0.07900163697282234,0.25879072256678676,0
5,1.04,-0.9235916880269506,-0.02088658696086811,0.3828082343584767,-0.9658407806568823,0.06825406817845205,0.2499859367988432,0
6,1.2400000000000002,-0.9094230674591165,-0.10025375913998853,0.40360731924923354,-0.959808349489917,-0.017653110518378562,0.2801005175619415,0
7,1.4400000000000002,-0.9827228591828983,0.14816442955817868,0.11091926727619947,-0.9793751318057663,-0.018421113747426096,0.20120888093904413,0
8,1.6400000000000001,-0.9304223478882914,0.356074634533764,-0.08674738723261766,-0.9945434868126642,0.07375996850958462,0.07377479165659019,0
9,1.84,-0.9181299749878721,0.38672491343464316,-0.086493874683341,-0.9879539046278453,0.14839892335860053,0.04387301991660007,0
10,2.04,-0.9160725497980623,0.39073692113627895,-0.09019834791955976,-0.9823624539853689,0.1854734201708949,0.023740669955893395,0
11,2.24,-0.9074015849725847,0.41065233958139263,-0.0893701269192902,-0.9728303495756134,0.2311820532591141,0.012488762768579529,0
12,2.4400000000000004,-0.8127973915816573,0.5822249481946027,-0.0193522592439884,-0.9470951621224861,0.32095249599354814,0.0004991990519219035,0
13,2.64,-0.7877660701504514,0.6151797723853736,-0.03128044704914716,-0.9193052442187408,0.3928048123667697,-0.024129801769358885,0
14,2.8400000000000003,-0.7455184612141365,0.6654627592455853,-0.036899052103791456,-0.8795752294819601,0.4730336613302532,-0.05085834179613798,0
15,3.04,-0.7479407167850899,0.663583586627171,-0.015540519104126566,-0.8048530182827089,0.589602832957646,-0.06767657149657758,0
16,3.24,-0.4193061919614847,0.906402415956378,-0.051156404596099346,-0.711206892279544,0.6990467980750185,-0.07428546610971536,0
17,3.4400000000000004,-0.3772819450871885,0.9247198564117415,-0.050512583274627876,-0.6650923282136161,0.742372397100023,-0.08084193822118041,0
18,3.64,-0.7254878763349509,0.6880099137040103,-0.01759829355372809,-0.7061908709511208,0.7043483189155191,-0.07202707425808473,0
19,3.8400000000000003,-0.9808364153859817,0.18797652637351422,-0.051232331445346675,-0.8440325241611598,0.5331587320247161,-0.057886653245274186,0
20,4.04,-0.987109532985285,0.160045815111013,-0.00032703978940858326,-0.9200828523899196,0.38740455066330365,-0.058010851255550354,0
21,4.24,-0.9896488782381767,0.13598906885212647,-0.04584834734917201,-0.9458925363546551,0.3187080521667681,-0.06093018260781832,0
22,4.44,-0.9848087522719459,-0.15790342041947183,0.07223732600536127,-0.9835839422433547,0.175317403292638,-0.04273683029598302,1
23,4.640000000000001,-0.9697971614459417,-0.23762533964058555,0.055024209327260445,-0.9976636289261867,0.0554951662437803,-0.03984432257433039,1
24,4.840000000000001,-0.9861509704128258,-0.12968341860334612,0.10338507867768745,-0.9967707802756549,0.07115110768317068,-0.03722272778988347,1
25,5.04,-0.998559738225779,0.002261829851341335,0.053603482351314284,-0.9960088923201093,0.08097866541512715,-0.037533214182292975,1
26,5.24,-0.9990732581501783,0.01234129443731062,0.041234903914028384,-0.9952188514458784,0.08742015385508874,-0.043556336240545765,1
27,5.44,-0.9634266501933596,0.26050749758585534,-0.06280870480082998,-0.9916567122745991,0.11782902147055628,-0.052280844484617034,1
28,5.640000000000001,-0.9575636889070201,0.28074233545914495,-0.06523436799513632,-0.987869861582735,0.14261604330072677,-0.061431268664690376,1
29,5.840000000000001,-0.9378729512797102,0.19083668288537944,-0.2897855892262265,-0.984445559889492,0.15916447957630817,-0.07438822524477974,1
30,6.04,-0.9346763246892256,0.19621255122659081,-0.2964469645764546,-0.9827797845858989,0.16438800376399323,-0.08438293208809347,1
31,6.24,-0.8604454411210458,0.20083732888578398,-0.4682926544160527,-0.9822320766942783,0.16566007083408177,-0.08818666817661676,1
32,6.44,-0.8917551783920049,-0.10696797124186913,0.4396937058219535,-0.9932269366393321,0.11612688715254517,0.0038468707163263264,1
33,6.640000000000001,-0.966629020545741,-0.007584146631414532,0.2560679936240663,-0.9932775568737753,0.11488924172445943,-0.014147690512698931,1
34,6.840000000000001,-0.9431884309995539,0.31750132565460004,-0.09792084474804898,-0.9894661528669371,0.1383705545645458,-0.042547878445387134,1
35,7.04,-0.9478082028896235,0.30608489649541754,-0.0892840784940515,-0.9914283536210889,0.1242789800703205,-0.040305765702421614,1
36,7.24,-0.9494298556025627,0.30391650049316976,-0.07885245727612106,-0.9923301862432861,0.11685323049865781,-0.04032522774135934,1
37,7.44,-0.9527520720146033,0.29623342578566014,-0.06715092493161942,-0.9917066748059091,0.12249279643440684,-0.03890226172199265,1
38,7.640000000000001,-0.9544495534778905,0.29152766140655106,-0.06354268251091351,-0.990389321496931,0.13163942590133612,-0.04242703634730361,1
39,7.840000000000001,-0.9578272944810494,0.28054841735204294,-0.0621245480335828,-0.9902547599909287,0.1317861727813702,-0.04503237700751989,1
40,8.04,-0.9606164148498954,0.2705700281414688,-0.06330847804566904,-0.990321040594852,0.13065023649578106,-0.04684818308884655,1
41,8.24,-0.9638808361396948,0.2586984671865924,-0.06331537568356187,-0.9910265708429497,0.12460494944104188,-0.048372951719522245,1
42,8.44,-0.9651724162398481,0.2534912995299416,-0.06468669099865446,-0.9909776051794713,0.12441537407274615,-0.04984175686208098,1
43,8.639999999999999,-0.9660616850115855,0.2506723652499656,-0.06235532096432832,-0.9909114905952219,0.1253963035794553,-0.04868454431300149,1
44,8.84,-0.9643115051578145,0.25831137704209367,-0.058125325899195605,-0.9896230500982829,0.1365082269211918,-0.044852231795127755,1
45,9.04,-0.9605418449761054,0.2717968913264701,-0.05904078179671199,-0.9868411193696944,0.1549397373041049,-0.04624157139743047,1
46,9.24,-0.9606285490074674,0.27138144019893723,-0.05953910267512096,-0.9863051118102265,0.1587930424427183,-0.044575734304685116,1
47,9.44,-0.9611515830264065,0.2702821425998584,-0.05599283737642599,-0.9861113229798104,0.16095052265562063,-0.04098033611247061,1
48,9.64,-0.9206331315348506,0.1417851183900511,-0.36377412954119487,-0.9859820417900119,0.1581309420655993,-0.05323549970691817,1
49,9.84,-0.912605333624543,0.1444496154671059,-0.3824732848597955,-0.9856258886293552,0.15968323676690918,-0.05516222946217285,1
50,10.04,-0.9130281043663315,0.14178102999277667,-0.38246283501983713,-0.9865373475205361,0.1539528084675909,-0.05515972001457398,1
51,10.24,-0.8669303688904659,0.12529536123732912,-0.4824238882433666,-0.9865321762077506,0.14350134179626858,-0.0784960521903533,1
52,10.44,-0.8725339063040514,0.06867321743904942,-0.4837029786515298,-0.9932266632281177,0.06672567200896627,-0.09512349945040585,1
53,10.64,-0.977194832327231,-0.12596995872767328,-0.17094393575410324,-0.9863601041149717,-0.1435636481016771,-0.08051846964541985,0
54,10.84,-0.967244464796073,0.23360432257238617,-0.09933360859676227,-0.9904707011024281,-0.11718449750180186,-0.07235733413355386,0
55,11.04,-0.9555631562936049,0.28892566387170227,-0.05848944426561001,-0.997424443828877,-0.04639105360788511,-0.05470236738758205,0
56,11.24,-0.949419560539055,0.3130660343848484,0.02433425939643146,-0.9988608978337976,-0.0019455711767466415,0.04767726430339677,0
57,11.44,-0.9205256152226273,-0.1217824650324734,0.3712164098334262,-0.9835573079377699,-0.077275193678787,0.1632285711636086,0
58,11.64,-0.8301125683977828,-0.13571800324924221,0.5408269107413896,-0.9681187849654712,-0.182880553547774,0.1711745347037336,0
59,11.84,-0.7696686468874153,-0.6286015328867741,0.11167043857213543,-0.9049469679485067,-0.411520843610883,0.10826624808587339,0
60,12.04,-0.6004599713866714,-0.7901066751427234,-0.12320415844129914,-0.7312146045426903,-0.6821311550406773,0.0047211679009515825,0
61,12.24,-0.6393315079849626,-0.7626562885648231,-0.09803371058061204,-0.6396605592901894,-0.7686116981855169,-0.008392037949047646,0
62,12.44,0.08676619804143187,-0.9914830821769844,-0.0971232445620635,-0.31547271271634064,-0.9488537365815377,0.012391695067558495,0
63,12.64,0.072056186010796,-0.9971952947842149,-0.020234873802433752,0.034913686160967794,-0.9985659249732325,0.040584824762542805,0
64,12.84,0.04950681752672925,-0.9987708486596608,0.0024221655674831247,0.25779007243103214,-0.9653278509324222,0.04106602939407086,0
65,13.04,0.040486310607821374,-0.9991735888128906,0.0036052839189235765,0.30863891420539263,-0.9511148324114651,0.01107231705775334,0
66,13.24,-0.028742576453760438,-0.9832557441839188,-0.17995000924736868,0.26737944875104275,-0.9635879316813605,0.002555054525127972,0
67,13.44,0.015092500774659734,-0.9819529766920104,-0.18852206233241545,0.30928158872936745,-0.9509355755842183,-0.008150457738676831,1
68,13.64,0.012508075030630394,-0.9849653483652666,-0.17229860875444408,0.43273923243842133,-0.9012862586100746,-0.020489918234588858,1
69,13.84,-0.012345297475638561,-0.9798080759339106,-0.19955883334226582,0.3936474901276767,-0.918820589022716,-0.028467151317439456,1
70,14.04,-0.02119292632535713,-0.9821579167373199,-0.18686007188261466,0.3880588780726079,-0.9210106299273072,-0.03390762023400749,1
71,14.24,-5.026538251101664e-05,-0.9999980107814502,0.001993967535926402,0.4425851237093926,-0.8961443816159719,-0.03230565847137649,1
72,14.44,-0.054027304472472115,-0.9984349508924164,-0.014446425436676397,0.386904234275785,-0.9209891988720986,-0.045650948077762106,1
73,14.64,-0.09994977451190612,-0.9906926390466363,-0.09240204280117766,0.3142172294297625,-0.9475189269796271,-0.058952656809175136,1
74,14.84,0.6386841346390917,-0.7693890294088258,0.011094935135451798,0.5353085631264415,-0.8438277071851692,-0.03741046417949395,0
75,15.04,0.846779302105878,-0.5284198364760104,-0.06113337831126641,0.8020222513760544,-0.5970971355999725,-0.015340109386605167,0
76,15.24,0.9644023336512475,-0.06449061758991351,-0.2564548675515825,0.9227877657896993,-0.37899611790920185,-0.06945993030956492,0
77,15.44,0.7878926101098394,-0.13147032669358114,-0.6016151495211768,0.8878799679431634,-0.30588210932658133,-0.3436645133253775,0
78,15.64,0.8022118386238523,-0.02369147447051758,-0.5965692583507396,0.9238937791094418,-0.11410884248333693,-0.3652389039929717,0
79,15.84,0.9338207635764469,0.35774119640116736,0.0001338318466430702,0.9717516233140148,0.13336928365751155,-0.19470854311832175,0
80,16.04,0.9411762639294217,0.33772314498971073,-0.011415671426343485,0.9687447459817166,0.18354415206084682,-0.16686869501822224,0
81,16.24,0.9697379600315399,0.24409593101855656,-0.005046318861516398,0.9823964374535408,0.11277628707059983,-0.14892531266766396,0
82,16.44,0.9806342290888227,0.19501800145284315,0.018013546255790158,0.9905633118839462,0.052427910851823196,-0.12663190479978176,0
83,16.64,0.9985456172093138,0.03480744366765732,0.041171497633604406,0.9836395507418512,-0.1507244182501334,-0.0986680493347672,0
84,16.84,0.5661781548007394,-0.8230057010352754,0.04586843238944741,0.3596888452073484,-0.9288993184685385,-0.08814755119734757,0
85,17.04,-0.9362970646846914,-0.3390094784721289,0.09176262947892358,-0.7596054035327152,-0.6467421998596687,-0.06873250937203805,0
86,17.24,-0.9970876902892909,0.05190943329266483,-0.05587082072783141,-0.984092622143209,-0.1723353522356494,-0.043153648896913296,0
87,17.44,-0.8441562456248735,0.516815297298743,-0.14248572367269086,-0.9842274830778394,0.17037741371608672,-0.04762140747268229,0
88,17.64,-0.9349371927452494,0.34124323366281156,-0.09718796788172997,-0.9398217546176679,0.3295663757275093,-0.09011699915777312,0
89,17.84,-0.945716390070131,0.2890635504480097,-0.14853542794603192,-0.9257911936007035,0.3322254868817201,-0.1803798539681985,0
90,18.04,-0.8830013353800188,-0.1173555904574631,-0.4544626575478824,-0.9313636156904916,0.24855758226002592,-0.2660468824643227,0
91,18.24,-0.8779404873440358,-0.10817358932090687,-0.46638929582007865,-0.9375183533705882,0.18637805793254933,-0.2938070057275567,1
92,18.44,-0.8928639568149325,0.005297613204882178,-0.4502953363239663,-0.9485643368198395,0.10007496098256564,-0.3003509632045094,1
93,18.64,-0.8978924578486247,0.003996553329050661,-0.4401967306785048,-0.9542368671503102,0.05927588703770669,-0.29311835593673485,1
94,18.84,-0.895336361295186,0.024257740456691577,-0.44472953822591105,-0.95202286623849,0.055648531920338494,-0.300924746496797,1
95,19.04,-0.8911647252742833,0.0410464906127874,-0.4518192315906728,-0.9479000296771495,0.05583843411464542,-0.31363609966597256,1
96,19.240000000000002,-0.8921317947637919,0.03746234062135324,-0.45021931745173394,-0.9479496898857189,0.04151641402152514,-0.31570203168868366,1
97,19.44,-0.8981174486898145,0.045746418818887816,-0.437369767501305,-0.9533321848348032,0.04050271437321924,-0.29919437743129873,1
98,19.64,-0.926499609914869,0.17586639929730863,0.33267023074780083,-0.9715315449859381,0.04841976059555436,-0.2319094303410396,1
99,19.84,-0.9229385151410571,0.1823134243475227,0.33903733212125886,-0.9722221461141434,0.05470072370843137,-0.22757840282193548,1
100,20.04,-0.919314608936133,0.19754554115555742,0.34034748267933906,-0.972203770063643,0.06660878725274529,-0.22446179838617947,1
101,20.240000000000002,-0.9739241423743907,0.22683994575360195,-0.003924781625895974,-0.9719949328450451,0.08569711970058988,-0.21881922721410743,1
102,20.44,-0.9754284475696087,0.22015992188425568,-0.008303762271523817,-0.9717540890893186,0.09111431521063254,-0.2176974320057229,1
103,20.64,-0.9773024124655152,0.21178438142156786,-0.005231670380265758,-0.9737572744657367,0.08458370934380198,-0.21128740269761281,1
104,20.84,-0.9797691652820812,0.20012082026654837,-0.002009989626351996,-0.9751844019437323,0.07822110553894018,-0.2071155253811529,1
105,21.04,-0.861199003279257,0.5005412025321465,-0.08828805875364594,-0.9395502805557183,0.269716193730115,-0.21094654571101604,0
106,21.240000000000002,-0.29243077226915104,0.9443567314664089,-0.15058089906807134,-0.6560134090565771,0.7310898097945788,-0.18749425898542635,0
107,21.44,0.017600240309015136,0.9936047135665708,-0.11153432081363263,-0.2335585960003284,0.9576161627908581,-0.16858726819089195,0
108,21.64,0.39996089004173,0.9123592666477989,-0.0873604887744927,0.22215109104684883,0.9643486438492848,-0.14380746104684577,0
109,21.84,0.7871742448036095,0.6118277143400148,-0.0776115731275962,0.5203355541502277,0.8457954888549527,-0.11781724033343889,0
110,22.04,0.8194437168828534,0.5690177878676186,-0.06878046198925791,0.7017606024986295,0.7046139160451407,-0.10512509736638642,0
111,22.240000000000002,0.8097024944474712,0.583390262161497,-0.06354268251091362,0.7237049226330362,0.682517687191864,-0.10208227871173355,0
112,22.44,0.7266409909384655,0.6826801338355017,-0.07707597001859184,0.6427126475151301,0.7582213330958698,-0.10963969519482762,0
113,22.64,0.6546804921955351,0.7494182776357399,-0.09882154767100672,0.4464212909065257,0.8880890106715026,-0.10957162109717679,0
114,22.84,0.6355407854889621,0.7640010997774601,-0.11131140785608878,0.35370185039134155,0.9282315533634067,-0.11524402097418357,0
115,23.04,0.20794934852474545,0.9766359159294883,-0.054215829466161984,0.20547456533772063,0.9743353461385951,-0.09192843011962822,0
116,23.240000000000002,-0.08849779785489481,0.9949708846356342,-0.04691565306182797,-0.008660455954827728,0.9974091732264999,-0.0714138478607967,0
117,23.44,-0.2888786009598047,0.9569917304722397,-0.02675783465181185,-0.28181910235722174,0.9578025766024415,-0.05649971504613385,0
118,23.64,-0.4991929218044515,0.8647132413113559,-0.0554746529610044,-0.6576341967262664,0.7459121740678516,-0.10550967668213893,0
119,23.84,-0.9921654313989515,0.003780291188683207,-0.12487380083693067,-0.9390217638042591,0.3099553686706622,-0.1488818206973986,0
120,24.04,-0.9875161871555586,0.09280065118474642,-0.12727851054060596,-0.9819368147420486,0.11899101016431692,-0.14710958960691642,0
121,24.240000000000002,-0.9765982993722361,0.20443908967338525,-0.0667863779282426,-0.9932188784880865,0.05729452039158278,-0.10116124429822994,0
122,24.44,-0.9156559783750974,-0.39427882228191574,0.07821981568585476,-0.9916196172865557,-0.12306024295833838,-0.03932824958601167,0
123,24.64,-0.8280099708947165,-0.5606555639905121,0.00805150081735606,-0.9620180906233112,-0.2728153339871229,-0.009642969199043533,0
124,24.84,-0.8149520448502028,-0.5791182545068492,0.02179935529812329,-0.9465076819275706,-0.32261226052053543,-0.006673635735281685,1
125,25.04,-0.7910399948739485,-0.6113754823467807,0.02181160459629137,-0.9290616925016225,-0.3693231877059495,-0.021089204554382096,1
126,25.240000000000002,-0.756334758038776,-0.6534062018625136,0.03190719589732398,-0.901352300550975,-0.4326475978890127,-0.019495802941454313,1
127,25.44,-0.7385398223283877,-0.6737043702239945,0.02610272737176592,-0.8819098963244987,-0.47043642853682527,-0.030405615771246314,1
