,timeStamp,x_gaze,y_gaze,z_gaze,x_head,y_head,z_head,fixations_head
0,0.033366700033366704,-0.9944159059721045,-0.019178419198882416,0.10377472807341276,-0.9997091381846954,-0.019897571268693744,0.013628121206580609,1
1,0.2333667000333667,-0.9948455754760902,-0.011802661397131528,0.10071235346069357,-0.9996933466318774,-0.01789714850625727,0.017114460999464513,1
2,0.43336670003336675,-0.7970581971590404,-0.027942060169824024,-0.6032557265497331,-0.9995561730997042,-0.022820537446949424,0.019148887406493995,1
3,0.6333667000333668,-0.7890714403930341,-0.04513694267730552,-0.6126409375497268,-0.9993115162769097,-0.034009603546124235,0.014827012611412426,1
4,0.8333667000333668,-0.9199253603587711,-0.2993387561802087,0.2532462051389339,-0.999249330760853,-0.037365521725224546,0.01022706019291711,1
5,1.0333667000333666,-0.9107507643957522,0.2959088193581921,-0.2880468985748578,-0.9976722851272497,0.03596243125860405,-0.05793716447101504,1
6,1.2333667000333668,-0.7830458378600804,0.4359353358979872,-0.44362100798487186,-0.9677740995936859,0.18069730507787163,-0.17539035347825108,0
7,1.4333667000333667,-0.6435807124331709,0.5835192989519976,-0.49528688084238803,-0.8833821159057287,0.3636811520642797,-0.2955876467836845,0
8,1.6333667000333667,-0.7027308166860428,0.5806189629834267,-0.4111581436671515,-0.8235914388506629,0.4575285737619497,-0.3352085112929733,0
9,1.8333667000333667,-0.6954227544125805,0.5998314027317431,-0.39571388772961813,-0.7891076316164208,0.523724772393405,-0.3209696379818492,0
10,2.033366700033367,-0.6428083862609643,0.7582019940756377,0.10921133060402652,-0.7936667101651652,0.5959850250938847,-0.1220450860929906,0
11,2.233366700033367,-0.6631001289435391,0.7423043946981921,0.09634523655486421,-0.8151197178675956,0.5746736822391504,-0.07300687971107572,0
12,2.433366700033367,-0.6988801156761801,0.3431453429790593,-0.6275490877248034,-0.8955183858669744,0.44502184291201974,-0.0015426942012510556,0
13,2.633366700033367,-0.8977787067839074,-0.2882048866118858,-0.3330635629702606,-0.9794908916973389,0.20104819369551893,-0.01331228356523461,0
14,2.833366700033367,-0.9031929821400169,-0.1516731002749847,-0.4015441540677659,-0.988690195217561,0.06164037254645244,-0.13671928303277397,0
15,3.033366700033367,-0.9009651288754438,-0.1346924375926534,-0.4124557961840333,-0.9829494474473984,0.002309805632230161,-0.18386149287111714,1
16,3.233366700033367,-0.8865926051645578,-0.10442030008662292,-0.45061064501112547,-0.9717429949801528,-0.010845158532227296,-0.2357921420306745,1
17,3.433366700033367,-0.8705876157695045,-0.11910644448199087,-0.4773791555479023,-0.9595235394002479,-0.05865247855437275,-0.27545319765116194,1
18,3.633366700033367,-0.8741046123644514,-0.1118884289793918,-0.47267547652032466,-0.9552058050126551,-0.06882802805972157,-0.28782733126570165,1
19,3.833366700033367,-0.8828835131144168,-0.11227592393006196,-0.45597238861185035,-0.9524912701075279,-0.06813349628042535,-0.29684711056965724,1
20,4.033366700033366,-0.8881968895582985,-0.10269578277848283,-0.44783910233305724,-0.9497702415111978,-0.06046421254231042,-0.30705140830388533,1
21,4.233366700033367,-0.8938079485856054,-0.08669186059160171,-0.4399907639398332,-0.9483331538088712,-0.04689259652549923,-0.31379183191730364,1
22,4.433366700033367,-0.9041023181209396,-0.08551989915369898,-0.41867092712186865,-0.9487902876223973,-0.04341773476653152,-0.3129087573417397,1
23,4.633366700033367,-0.9929754463581769,0.021575677422710552,-0.116336808764598,-0.9502197193530677,-0.045641191353193146,-0.3082196726434551,1
24,4.833366700033367,-0.9935925054023589,0.01629741323986599,-0.1118406345205218,-0.951008743440264,-0.046093247188193076,-0.3057086561807152,1
25,5.033366700033366,-0.9927361575681136,-0.0037416453507970486,-0.12025357186780937,-0.9526008215693408,-0.04632481841904826,-0.30067538300276464,1
26,5.233366700033367,-0.9880791268986759,-0.038257711349165224,-0.14911735817628374,-0.9551916369478732,-0.04399448780451946,-0.292700225055705,1
27,5.433366700033367,-0.9870238702697456,-0.04745673977837381,-0.15340057811931726,-0.9577256915287169,-0.042305025691960756,-0.2845554156698541,1
28,5.633366700033367,-0.9256616570064049,0.009603198341461061,-0.37823045267372574,-0.9596976540348636,-0.03928333671235291,-0.2782754611832007,1
29,5.833366700033367,-0.9220462659510609,0.0006345885282822006,-0.3870791659894723,-0.9607759703676606,-0.035590781809482816,-0.2750324181151564,1
30,6.033366700033366,-0.9204241426206302,-0.011592018356387955,-0.3907493093935078,-0.9608124022326742,-0.04812504891257359,-0.2729899400766269,1
31,6.233366700033367,-0.795549292812094,-0.5741428306733429,-0.19354930300204753,-0.9307787494434956,-0.27932241088927684,-0.23585993801280616,0
32,6.433366700033367,-0.513294992499449,-0.816891368492247,-0.2630907500423662,-0.8562997090640803,-0.4692280804853813,-0.21581431078771493,0
33,6.633366700033367,-0.42080702312819673,-0.8885462064659635,-0.18277606041528272,-0.7862699593709581,-0.5932935315279773,-0.17257559629870384,0
34,6.833366700033367,-0.36506728740774375,-0.9267269827410228,0.08889867898046731,-0.7067847755396911,-0.70735024882632,0.010531217909246413,0
35,7.033366700033366,-0.29840530309407787,-0.9403451223150384,0.16341764293871905,-0.6500567878611125,-0.7496840932966503,0.12409646575818445,0
36,7.233366700033367,-0.9370788503058467,-0.32922664367860943,0.11615956870439373,-0.9196217846261185,-0.05017202705748769,0.38958765501747616,0
37,7.433366700033367,-0.2415659994073779,0.49039885371969133,0.8373498863681343,-0.42912323234238625,0.6980485784265431,0.5732202313428104,0
38,7.633366700033367,0.004068862463757095,0.6646841127768295,0.7471134281890068,-0.16127926980430063,0.7889863815048319,0.592865488058888,0
39,7.833366700033367,0.21154057740292337,0.4946880087199737,0.8429320008996606,0.030066233118314245,0.7525328009010825,0.6578680758283131,0
40,8.033366700033367,0.23052553268324277,0.3262205704753649,0.9167541208960203,0.10349748910076068,0.6588320414940602,0.7451366390472335,0
41,8.233366700033368,0.047943237948112366,0.24075699155135108,0.9694005967370734,0.09574076698094475,0.5546620423932402,0.826549287257608,0
42,8.433366700033368,-0.3195213337193915,0.1841132866368215,0.9295205296183453,0.010452735402549498,0.4995730309895122,0.8662087087016367,0
43,8.633366700033367,-0.2899293986102796,0.1283864197152706,0.9483975279671368,-0.03710800374746588,0.4438684380064019,0.8953232968038055,0
44,8.833366700033368,-0.2746315960665017,0.09077405447033622,0.9572552206579928,-0.07281542322522397,0.4080160684771442,0.910066372307529,1
45,9.033366700033367,-0.22642066737087432,0.0992809856246764,0.9689566384935505,-0.1391789895344017,0.3682137415329843,0.9192648418265887,1
46,9.233366700033368,-0.2525488570988559,0.11566846228927424,0.9606455546192344,-0.19637662207137616,0.3562023314421125,0.9135404322628746,1
47,9.433366700033368,-0.24527462556359383,0.16464651938385297,0.955370023451344,-0.21029896978156942,0.37222454031025215,0.9040040015949222,1
48,9.633366700033369,-0.2162975371787479,0.17342333892270284,0.9608016033122082,-0.2165833011152143,0.39253430464769934,0.893872750089622,1
49,9.833366700033368,-0.18385970330366164,0.1819551557918645,0.9659647668428948,-0.2006805989473276,0.41541765835417443,0.8872178234986473,1
50,10.033366700033367,-0.19330984373534066,0.1743463731687507,0.9655229911700296,-0.21534906513669164,0.4128482236689123,0.8849752111546272,1
51,10.233366700033368,-0.2069657296551613,0.18845344805428116,0.9600262937361452,-0.23053073425627707,0.43141834989005534,0.872200543419576,1
52,10.433366700033368,-0.21179801048018645,0.21465726542986555,0.953448405082733,-0.23808306588200123,0.46135866132642467,0.8546722408966587,0
53,10.633366700033369,-0.2572469840661322,0.942088126887982,0.21516028993653308,-0.3339460385376216,0.7472775344268767,0.5745052914342198,0
54,10.833366700033368,-0.4933535625710954,0.8498853023147921,-0.1851951273865019,-0.367146630943723,0.9301082390778261,-0.01010024683952801,0
55,11.033366700033367,-0.2593055353311293,0.8129309429607583,-0.5214440730544064,-0.31093695547089933,0.9202790933383953,-0.23749652647301814,0
56,11.233366700033368,-0.6679550453858405,0.6061568852824722,-0.431752113797086,-0.32678757556297994,0.89723854160233,-0.29693918555992865,0
57,11.433366700033368,-0.6644205682910871,0.5992261332481069,-0.4466243943900411,-0.3545049913688142,0.8733100807429262,-0.33414923906449495,0
58,11.633366700033369,-0.760626605415386,0.3828475642474629,-0.5242851415823755,-0.44500426011934857,0.7931802108406828,-0.415735927731007,0
59,11.833366700033368,-0.4953122651330093,0.4475359957374599,-0.7445651701013738,-0.45926596165383443,0.7054625319356469,-0.5398123678660257,0
60,12.033366700033367,-0.484256614963548,0.4377775967941427,-0.7575264395446478,-0.4443598595152548,0.6581113769682931,-0.6078106043468476,0
61,12.233366700033368,-0.4571470686760616,0.42737493476102173,-0.7799789886521925,-0.4021066329322371,0.6201004198618196,-0.6736361963546008,0
62,12.433366700033368,-0.28840327725384035,0.4700535769956157,-0.834190136853027,-0.3401118445926489,0.5958095542152004,-0.7275540586607088,0
63,12.633366700033369,-0.2376963938755606,0.48860563459555506,-0.8395028041525705,-0.2868964024495681,0.6070834384433087,-0.7410399132498501,0
64,12.833366700033368,-0.21862822760702766,0.37731858621578473,-0.8999068743984187,-0.19023313933591657,0.6920692653656636,-0.6963127778768913,0
65,13.033366700033367,-0.13048143627467543,0.2630069488704857,-0.9559298821741771,-0.10254000109115119,0.6848094145714614,-0.7214718385983748,0
66,13.233366700033368,0.09987754763554746,0.7686819307700687,-0.6317852204554236,0.18305128129044163,0.793602836445112,-0.5802471597553933,0
67,13.433366700033368,0.8516371734907284,0.44900441849425665,-0.27038705017318665,0.6571081790350486,0.618449221113334,-0.4309633417699852,0
68,13.633366700033369,0.924643969497996,0.35084634308767526,-0.14812283150478378,0.8386212956899118,0.44339353892872896,-0.3164119025125823,0
69,13.833366700033368,0.9426744163832879,0.3306532581938329,-0.04509287684580066,0.8946268414758882,0.39466591233734566,-0.2094794313287264,0
70,14.033366700033367,0.9070565250457234,0.34980655868045024,0.23427298580100422,0.91001310456436,0.414576518833585,-0.0015682961969249111,0
71,14.233366700033368,0.9008496839513893,0.32948715924759037,0.28268013516275836,0.9045618736923433,0.39881076497737133,0.1507242196873525,0
72,14.433366700033368,0.6748060256317974,0.7266032029590458,0.12916893287735365,0.8672508506274261,0.4896409086329474,0.09015399424932502,0
73,14.633366700033369,0.3088250300663785,0.849943565901419,-0.4268759018582345,0.7576562797253854,0.6356591416738756,-0.147967622806886,0
74,14.833366700033368,0.23511083611183015,0.7231639457480296,-0.6494280578423888,0.6207634512994685,0.7030929485302831,-0.34686170624294227,0
75,15.033366700033367,0.22036287226555057,0.6404519104178867,-0.735704801512778,0.5427091812753222,0.6942829863514156,-0.47269216137189063,0
76,15.233366700033368,0.2014934672394719,0.5828245938930023,-0.7872203474334698,0.5019448201875473,0.679199616057621,-0.535480418908172,0
77,15.433366700033368,0.505639633783805,0.5902989662081709,-0.6291865313565961,0.5901319547239933,0.7178826390107989,-0.369308533100076,0
78,15.633366700033369,0.9002392117652768,0.4136194984289165,0.13597158570688608,0.7360403079734527,0.6581162758542348,0.15851697856727384,0
79,15.833366700033368,0.6982632395944826,0.2792099714183299,0.6591435656149527,0.6800505383943096,0.5166980358255558,0.5201484451612084,0
80,16.033366700033366,0.4197046713529636,0.16345537084698875,0.8928215558474014,0.5879007509398032,0.4273163723751169,0.686857645327317,0
81,16.233366700033365,0.34996782466518,0.15152040998548233,0.9244263556698032,0.5127408490584333,0.4013523217150864,0.7589552922015546,0
82,16.433366700033368,0.287069115642919,0.13425439918938342,0.9484551012790694,0.45041614510943107,0.4012896409639476,0.7975537099655335,0
83,16.633366700033367,0.2560360619502544,0.13294978880830477,0.9574810121547231,0.41210396331224675,0.414028192065023,0.8116347575096247,0
84,16.833366700033366,0.3207695319636937,0.16927906958458372,0.9319074546135847,0.4704120920921817,0.4483553058082364,0.7600591972781197,0
85,17.033366700033366,0.6179281387340252,0.48256215595877683,0.6207242390926268,0.5293226966654192,0.5361500811948176,0.6575413091431129,0
86,17.233366700033365,-0.11709744481124976,0.4580935938362769,0.8811574477383941,0.24430255397575856,0.6104642492417477,0.753425286620134,0
87,17.433366700033368,-0.21798034838482744,0.40968165122858113,0.8858021857980782,-0.00820197999507949,0.6491966007025615,0.7605764269029113,0
88,17.633366700033367,-0.3237084928661663,0.3384780904210998,0.8835413934565832,-0.1653860005953873,0.6293154830247203,0.7593480714615832,0
89,17.833366700033366,-0.20446394716914365,0.22020218810962183,0.9537848240875656,-0.19550069863736683,0.5899477274101809,0.7834163361558556,0
90,18.033366700033366,-0.20247063676653387,0.1496571662590088,0.9677852932519061,-0.2169547830985066,0.52895689932356,0.8204481828541552,0
91,18.233366700033365,-0.1675367190169873,0.18264291255214204,0.9687997802825381,-0.17204397258284843,0.5659517352768234,0.8062874827473538,0
92,18.433366700033368,0.08610010171325205,0.9921377232426216,0.09082681654619061,-0.04124322799070734,0.809112913958906,0.5862041356130425,0
93,18.633366700033367,0.40504767621862137,0.9142897071847285,0.003272816212156682,0.25907501823020296,0.9531717892311421,0.1560245978777817,0
94,18.833366700033366,0.4032273280802401,0.688948401899105,-0.6022937999099274,0.4175188959684544,0.8702243346969755,-0.2615101887317007,0
95,19.033366700033366,0.36318804352195927,0.5436800160183384,-0.7566415830662434,0.3979553286882215,0.7955588606366788,-0.45685627458875916,0
96,19.23336670003337,0.16608918652099436,0.532061199858617,-0.8302561422391305,0.36253549960245895,0.7381660473015035,-0.5689278496780327,0
97,19.433366700033368,0.1816872994008782,0.5162807324535684,-0.8369252837222825,0.3360177824087837,0.7077780336244721,-0.6214034961470356,0
98,19.633366700033367,0.21574987458055178,0.5199401586240799,-0.826507243203859,0.3402450051559045,0.6978480671874083,-0.6302709033338422,0
99,19.833366700033366,0.21828845862071317,0.5292425439579366,-0.8199100429302749,0.3229827151866284,0.6997954853684786,-0.6371565304919732,0
100,20.033366700033366,0.18023168019841226,0.6213618173438202,-0.762512972610986,0.2968063677036013,0.7392912148531056,-0.6044455969991132,0
101,20.23336670003337,0.01453778196622224,0.7295976001643985,-0.6837221619414231,0.17714369523417373,0.7991085556599263,-0.5744959769309866,0
102,20.433366700033368,-0.6310572460164308,0.5701196878109156,-0.5260516075638797,-0.1441234245001337,0.8407583092131007,-0.5218753720951799,0
103,20.633366700033367,-0.6708439254427108,0.5646223526807127,-0.480801441917463,-0.33627525255095564,0.8174576416501161,-0.46763442840494734,0
104,20.833366700033366,-0.7764994707143676,0.43666428388158895,-0.4542828140734424,-0.47944997436757275,0.7671600464042471,-0.4261375192117767,0
105,21.033366700033366,-0.7089751809513635,0.5584698411436568,-0.43065720628820386,-0.5543849215945311,0.7293276102029411,-0.40092218160672116,0
106,21.23336670003337,-0.6675130303897285,0.6107809048235643,-0.42587913844520414,-0.5602427462680607,0.7395083072794733,-0.3731695709977838,0
107,21.433366700033368,-0.6572961890577164,0.7518399397960206,-0.051946364432164924,-0.5859869518841436,0.7595566410245709,-0.28229948865876797,1
108,21.633366700033367,-0.6544429462897189,0.7553751328486288,0.03335923748452006,-0.6000874416343484,0.7708140186122154,-0.21387101510870962,1
109,21.833366700033366,-0.6448900691331362,0.7617725408242249,0.06180125224996278,-0.5961313889406689,0.7785908209468697,-0.19601964354867213,1
110,22.033366700033366,-0.6417269130988795,0.7647233898107192,0.058178226863546456,-0.5911914440186273,0.7814385620581954,-0.19961575651132915,1
111,22.23336670003337,-0.6340739145531364,0.7715810852401945,0.0511165314044862,-0.5805784316204147,0.7873750443042766,-0.2072901935548751,1
112,22.433366700033368,-0.6296847118316896,0.7753180865715604,0.048775283909544775,-0.5723258493202387,0.79228915769825,-0.21147343283179867,1
113,22.633366700033367,-0.6301228724556001,0.7751681311304349,0.04538208994805201,-0.5677717055169774,0.7945554364099887,-0.21521372838570324,1
114,22.833366700033366,-0.7440682475236189,0.5991804418610527,-0.295542283131068,-0.5626579629025044,0.7908750767506926,-0.24069198108160905,1
115,23.033366700033366,-0.6785276018260691,0.48444640981613096,-0.5521883461070369,-0.5257827782764213,0.7915413819104192,-0.3114718459046844,1
116,23.23336670003337,-0.6721232942788453,0.4684486235990095,-0.5734162225957217,-0.5056268545932989,0.7779773055005974,-0.37295146606511315,0
117,23.433366700033368,-0.6754283276372843,0.48065912861683946,-0.5592525156871466,-0.479896605452099,0.7742577498025951,-0.41258233717183584,0
118,23.633366700033367,-0.6218493012953576,0.5348803790271593,-0.5720196033443593,-0.3675267470923953,0.8052165555994879,-0.46534974885582514,0
119,23.833366700033366,0.3919797051181673,0.6973387651213641,-0.600058794981363,0.009335123788751953,0.8481281649906139,-0.529708855139786,0
120,24.033366700033366,0.44236791404517706,0.5533328662772933,-0.7057856386472269,0.3011172035082322,0.7602557060182591,-0.575621135138435,0
121,24.23336670003337,0.4703728726225851,0.4877953403552754,-0.7353944972791531,0.4049917486742649,0.6913179993221858,-0.5983820746972052,0
122,24.433366700033368,0.47192690801610965,0.4796675140534142,-0.7397324309858073,0.4453038143641431,0.6594253672915612,-0.6056919166417316,0
123,24.633366700033367,0.4762984046658757,0.49363437979038804,-0.7276434077222859,0.47141183061032416,0.652069660331125,-0.5937811415296672,0
124,24.833366700033366,0.8680066922765779,0.4125638564264831,-0.2763248930762161,0.6083800344486839,0.6558257415004953,-0.44695226867031757,1
125,25.033366700033366,0.9050464238123196,0.3490025643582717,-0.24308060559386885,0.7048130878022771,0.5982732204536116,-0.3811924250961499,1
126,25.23336670003337,0.49869426582236387,0.572536003999123,-0.6507738112129361,0.7089218090785059,0.5754401262925162,-0.40779716730908283,1
127,25.433366700033368,0.30522399669039313,0.5961970096573606,-0.7425546697179704,0.6588865044802633,0.6026955480136077,-0.4501407009129005,1
128,25.633366700033367,0.32083935483678344,0.5967196519672161,-0.7355187049586441,0.6324781437454233,0.6261350116016465,-0.45598941317858444,1
129,25.833366700033366,0.3289704975360619,0.5888563270712517,-0.7382591941987797,0.6192499502814328,0.6352219112858183,-0.4615437384461361,1
130,26.033366700033366,0.3392401936801213,0.5883759460112448,-0.7339821776768468,0.6170945325466091,0.6404112351256508,-0.4572393113304245,1
131,26.23336670003337,0.35149470713831893,0.5824410407268289,-0.7329487737426101,0.6205131128858523,0.6373954607166544,-0.4568265572342677,1
132,26.433366700033368,0.36367511278201353,0.5747072993131751,-0.7331111324070495,0.6269153314514309,0.6307121592232557,-0.4573612788584984,1
133,26.633366700033367,0.37730567465872455,0.5714214512155096,-0.7287783977047385,0.6343885532677014,0.6277679104142185,-0.45106386924367897,1
134,26.833366700033366,0.3804563987884866,0.57622731879926,-0.723336025433762,0.6312740630640052,0.6358628831163612,-0.4440399207026457,1
135,27.033366700033366,0.3831135175419371,0.578833272396868,-0.7198444800392492,0.6286686964761766,0.6417276384158754,-0.43927361423619443,1
136,27.23336670003337,0.38393528984110503,0.5841070947463578,-0.7151311733392667,0.6232113426335735,0.6508995515473543,-0.4335174693231083,1
137,27.433366700033368,0.3894923614732408,0.5798858342379513,-0.7155614017008979,0.622980780296397,0.6508436461771314,-0.4339325933968886,1
138,27.633366700033367,0.3937000423959842,0.5809228544336125,-0.7124106356688562,0.6208948046239691,0.6555358702070571,-0.42983992888381095,1
139,27.833366700033366,0.4048269043522927,0.5815108877607773,-0.7056629967117536,0.6268395636227801,0.6551340707771605,-0.4217481603802786,1
140,28.033366700033366,0.9681123153780615,0.17447454620588404,-0.1797697903975513,0.7102838992351295,0.6175572642345292,-0.3378162338883449,1
141,28.23336670003337,0.9138671398912045,0.38105233888216034,-0.140164066934094,0.8128861147581211,0.531572738586329,-0.2380054369657911,0
142,28.433366700033368,0.9978125087838879,-0.0018712350476614184,-0.06608097906205776,0.918216936291373,0.37652014303299464,-0.1229237153607789,0
143,28.633366700033367,0.9902773487243617,-0.12961045621660783,0.05051635619056839,0.9925771819411091,0.12128846719250803,-0.00892443925062622,0
144,28.833366700033366,0.9307517616494537,-0.36105710529184226,0.05778343105695955,0.9954149835833043,-0.08272730972168583,0.04801252632452184,0
145,29.033366700033366,0.842691339969026,-0.5263736152671017,0.11314646566220517,0.9594060868598212,-0.26248820814844087,0.10314989616740301,0
146,29.23336670003337,0.788201591972577,-0.30888344678669066,0.5322868274840821,0.9396319615095284,-0.24410666682287255,0.23979931635095045,0
147,29.433366700033368,0.6254708938474705,-0.20937369655319849,0.7516307711511655,0.858115675530709,-0.1728019175936438,0.4835048962362579,0
148,29.633366700033367,0.5152702089084984,-0.19910058506124398,0.8335799714722417,0.7609224417670796,-0.11785584550387937,0.6380494003568935,0
149,29.833366700033366,0.3309023847501966,0.09387661043496694,0.938983915612975,0.6304461503000807,0.09207368813703457,0.7707529354628838,0
150,30.033366700033366,0.17831856205302868,0.2828069457510244,0.9424556869488971,0.4598058532585636,0.4030285117929293,0.7912942537331743,0
151,30.23336670003337,-0.06640045880169781,0.407394519580616,0.9108351576913373,0.14684479348634305,0.6354882259060737,0.7580180217915039,0
152,30.433366700033368,-0.2608897100298759,0.39711270231277035,0.8799079843156195,-0.0796837676205692,0.664622321859394,0.7429183444121026,0
153,30.633366700033367,-0.1826032119634653,0.23013454101051506,0.9558735062833918,-0.17792878002104842,0.5944166292168552,0.7842258731709209,0
154,30.833366700033366,-0.18343667446568562,0.15919538547031148,0.9700555735141825,-0.14422587537203366,0.5297909598079151,0.8357753500666186,0
155,31.033366700033366,-0.013351471751567656,0.10417328076947603,0.9944695398934003,-0.03738309126909328,0.4894110041134266,0.8712516132208044,0
156,31.23336670003337,0.047119061419602516,0.03476207923482115,0.9982842240054723,0.08713477387674681,0.4288261786739838,0.899174977223742,0
157,31.433366700033368,0.09619910369235563,-0.0355756021872536,0.9947261477300181,0.19445260386390067,0.34748921993238024,0.917300074610994,1
158,31.633366700033367,0.11288000219632413,-0.050908506000010546,0.9923035972528794,0.23634192330385084,0.30533775574682803,0.9224485623624372,1
159,31.833366700033366,0.1070090763292459,-0.06527505071947637,0.9921130103656196,0.24704136809524363,0.2732247460123936,0.929687474701092,1
160,32.03336670003337,0.11076821192073935,-0.055161398663808175,0.9923142764897291,0.25723617671931515,0.27031382798823295,0.9277715148597621,1
161,32.23336670003337,0.112037438773736,-0.04385150236754605,0.9927359457847443,0.257411004657874,0.2723959708507272,0.9271138062532099,1
162,32.43336670003337,0.1097708278697746,-0.034965952172093015,0.9933417073381565,0.25142555393291166,0.27596837196460516,0.9276996542549394,1
163,32.63336670003337,0.1080873220527679,-0.03248051690315674,0.9936106615939492,0.24843917622668768,0.27339268312193066,0.9292655253108215,1
164,32.83336670003337,0.11495398687611824,-0.038964346856472716,0.9926063472370777,0.2575086467138971,0.2632377961135864,0.92972854079287,1
165,33.03336670003337,0.1305181197092054,-0.028779757683490125,0.9910281257236108,0.2733984006458316,0.2651560804791271,0.9246326662568483,1
166,33.23336670003337,0.14930582596058006,-0.007305645572588333,0.9887640759438001,0.2934550978461191,0.2821221172019707,0.9133954327308641,1
167,33.43336670003337,0.5888640382425547,0.058528727363446546,0.8061101243241441,0.3041826610329427,0.28601231068333055,0.9086637809797967,1
168,33.63336670003337,0.13766076788679207,0.0320405218714621,0.9899610689027238,0.315786293261418,0.29465426166168496,0.9019190002837402,1
169,33.83336670003337,0.15679436513299805,0.06249701451651612,0.9856518910036456,0.337655211121199,0.3145005066477877,0.88717438518083,1
170,34.03336670003337,0.15070795751051078,0.06328005714279716,0.9865509342710163,0.33726523009613607,0.3137917131777752,0.8875736168392779,1
171,34.23336670003337,0.13671661234746815,0.06125778031974511,0.9887143431034722,0.3247008230353657,0.31500233479734796,0.8918199956226457,1
172,34.43336670003337,0.1316809967814802,0.06309801278089805,0.9892819395246926,0.31759565241674104,0.3212714261864522,0.8921421816516176,1
173,34.63336670003337,0.1270237142713677,0.0575977805740568,0.9902259700117185,0.3104672897565799,0.31788142789459833,0.8958579462118398,1
174,34.83336670003337,0.12715762059250335,0.05158530974788763,0.9905402037996579,0.3057542413852571,0.3146266963934224,0.8986236062954764,1
175,35.03336670003337,0.12877360918463965,0.05019538105890834,0.9904028378886609,0.3006779739133282,0.3154612245281921,0.9000427611077986,1
176,35.23336670003337,0.04127279321305923,-0.06544722992834831,0.9970021146592912,0.29444126787471797,0.3157834916392788,0.9019895377333567,1
177,35.43336670003337,0.10337887637572103,0.007426870171622393,0.9946143219955901,0.2921753726329715,0.31101802474674395,0.904378980245239,1
178,35.63336670003337,0.1164169939284399,0.017394880467917557,0.9930480862768796,0.29517212416798005,0.3109861910762742,0.9034162972152064,1
179,35.83336670003337,0.10438857020087461,0.009818755686293737,0.9944881188069519,0.29313324698798887,0.3111289688354734,0.9040307872310843,1
180,36.03336670003337,0.11253163863532668,0.03256134011035915,0.9931144895913391,0.2939775740494883,0.3169303473945744,0.9017385102435918,1
181,36.23336670003337,0.11741194908575697,0.039468017079026425,0.9922986999083159,0.2927456458472617,0.3203819487135522,0.9009191938103976,1
182,36.43336670003337,0.12582312890713573,0.031368663523873457,0.9915566283277747,0.30060660896616725,0.3128274656448381,0.9009853735683448,1
183,36.63336670003337,0.23750864015400375,0.1010792359249232,0.9661121228496359,0.3082409739211489,0.31016790039226816,0.8993238435415764,1
184,36.83336670003337,0.25136496756462884,0.1164135102665818,0.960866040459671,0.3158730219747567,0.3150480028073334,0.8949687089030798,1
185,37.03336670003337,0.25368488310032594,0.11629348528553841,0.960270693797596,0.3227922529538581,0.3147555873472335,0.8925996200238218,1
186,37.23336670003337,0.19630050157824602,0.19821319167145718,0.9603008089799483,0.318517604358567,0.3178705450544199,0.8930312717371578,1
187,37.43336670003337,0.19626221216490874,0.19160811646124706,0.9616483108612576,0.3154727480915478,0.31690876761382464,0.8944527814373734,1
188,37.63336670003337,0.20162147772620717,0.19369691131402672,0.9601199332723526,0.3181468168525626,0.32088288143713534,0.8920856345257353,1
189,37.83336670003337,0.20507628348157173,0.1878404803171079,0.9605517538933674,0.3222483362663225,0.3154868119836396,0.8925379998845915,1
190,38.03336670003337,0.210532478503654,0.1775655343032357,0.9613254165591978,0.3273899534461851,0.31535853257588153,0.8907102864086008,1
191,38.23336670003337,0.21552426071413358,0.1716174048697044,0.9612995159623323,0.33312907733785607,0.3251511851500412,0.8850433461856841,1
192,38.433366700033375,0.22168358786688105,0.15913855308822725,0.9620453771997726,0.34092360481033174,0.3263451304626042,0.8816291462437451,1
193,38.63336670003337,0.21759213508155803,0.15394726574902,0.9638225470069943,0.3373152381722411,0.3318947687603478,0.8809451132541232,1
194,38.83336670003337,0.2374038484966986,0.2026369550663895,0.9500408818363444,0.35259601460957196,0.38855623007109064,0.8512931965864572,0
195,39.03336670003337,0.32286555325754673,0.36270740289028824,0.8741860067561598,0.4255181886162811,0.5354058466422701,0.7295716897865439,0
196,39.23336670003337,0.32314855774396933,0.43558261519560537,0.8401445083837363,0.4680113229013167,0.6299960933936718,0.6197340751845678,0
197,39.433366700033375,0.4551634426183869,0.6330569931501268,0.626151007287778,0.48977866933160275,0.7237980220971081,0.48603835062274564,0
198,39.63336670003337,0.5272710164899104,0.7241423887345331,0.4445256753074463,0.5441138167966943,0.7997715111587276,0.2535856547792452,0
199,39.83336670003337,0.5678942854351949,0.7756114633598263,0.27554117382866444,0.5719335705014515,0.8192306273804764,0.04187087406840921,0
200,40.03336670003337,0.5157140486941836,0.8431962792880541,-0.15185208123116187,0.5511269723339329,0.8145083900159511,-0.18120469905511688,0
201,40.23336670003337,0.4862674453306721,0.8287682821490611,-0.27692436894444006,0.5074003736012551,0.7927047409747325,-0.3378817167375133,0
202,40.433366700033375,0.36390203737486226,0.7162536423444987,-0.5954460739837519,0.4477650764516339,0.7680978158736408,-0.4577468531409095,0
203,40.63336670003337,0.3397164344545245,0.6764026861084593,-0.6535075748503347,0.40333699024921316,0.7338964711318535,-0.5465484808842842,1
204,40.83336670003337,0.312869480650411,0.6169743582513723,-0.7221186393784956,0.3781542271827071,0.7025127932818914,-0.6028890078108277,1
205,41.03336670003337,0.30929725849758344,0.5961581233909994,-0.7408985745706369,0.37453154410272815,0.6918790244803953,-0.6172759010005839,1
206,41.23336670003337,0.31255730996665454,0.593665702813928,-0.741531497165733,0.3762720829146013,0.6942737432298435,-0.6135171465254486,1
207,41.433366700033375,0.3160207547094553,0.5932186310899451,-0.7404205145190385,0.37796716047445406,0.696983262529938,-0.6093891674094661,1
208,41.63336670003337,0.32423549586681033,0.5974877487933561,-0.7334028451416393,0.38161260657466384,0.6960223556506561,-0.6082143527883921,1
209,41.83336670003337,0.31549087924480856,0.6835156182059904,-0.658233928616431,0.3814935902122848,0.6971631069953411,-0.6069812541352032,1
210,42.03336670003337,0.30857690523262304,0.6838174054220302,-0.6611913865129673,0.37908879166020637,0.6965979763311476,-0.6091329472364425,1
211,42.23336670003337,0.31137301859160926,0.6835138396672693,-0.6601936642201712,0.38157569545586867,0.6963946876439856,-0.607811177635461,1
212,42.433366700033375,0.19421116267738048,0.22095535639100064,-0.9557514084601845,0.3842479027715663,0.6999234743424271,-0.602047073973522,1
213,42.63336670003337,0.367948263685433,0.6538215234878106,-0.6611592022160421,0.3868827190296287,0.7021196458577849,-0.5977873908144773,1
214,42.83336670003337,0.3643665496607428,0.6522781267314526,-0.6646580044474246,0.3893651537157399,0.7005328515952799,-0.5980372069593197,1
215,43.03336670003337,0.36416303495586544,0.6509582810248352,-0.6660620093781998,0.39153490661775775,0.6994194811146889,-0.5979237462562288,1
216,43.23336670003337,0.3669484560442553,0.6522778767630916,-0.663236309389173,0.3961653621510952,0.6992091410989164,-0.595113084073445,1
217,43.433366700033375,0.3686641368293432,0.6536682249426148,-0.6609119501993036,0.4002751795142604,0.699119389148906,-0.5924625392215841,1
218,43.63336670003337,0.37243097004979236,0.6532344167087718,-0.6592267966147319,0.40674043865813314,0.6975671172203352,-0.5898833211179146,1
219,43.83336670003337,0.3767376484922145,0.6500051407954607,-0.6599712578196341,0.4137411191358426,0.6939118630820661,-0.589325557404561,1
220,44.03336670003337,0.3842984984885024,0.6453672366518659,-0.6601634599974595,0.42485008455275347,0.6877602737540636,-0.5886324927331601,1
221,44.23336670003337,0.4231054021752491,0.6473982717488468,-0.6339221532544255,0.46890975785645767,0.6859476999165971,-0.556416563346319,1
222,44.433366700033375,0.9110009275477657,0.33329242846969226,-0.24288570796134892,0.61811458796464,0.6163372385786965,-0.4879167597925804,0
223,44.63336670003337,0.896995304312638,0.3406550026529783,-0.2816976982663815,0.6866919762682049,0.5737232321584252,-0.44642556222796786,0
224,44.83336670003337,0.8767143353290013,0.36804154878822953,-0.3097053318788506,0.6876045060286415,0.5737823187229024,-0.4449425738340598,0
225,45.03336670003337,0.24507911856729228,0.6848183240157764,-0.6862653194898473,0.5578434443347219,0.6661681145468271,-0.49500579266701483,1
226,45.23336670003337,0.2675225116730461,0.6646620345369164,-0.6976074007587594,0.49465538340599224,0.6978356895719467,-0.5180167970511349,1
