,timeStamp,x_gaze,y_gaze,z_gaze,x_head,y_head,z_head,fixations_head
0,0.033366700033366704,-0.9997125626056432,-0.0019447174795605864,-0.0238958206049253,-0.9975318599014074,0.048790099914605096,0.050494699048140634,0
1,0.2333667000333667,-0.9886074043472496,-0.1504459042005903,0.004629252538036706,-0.997599766295573,0.03507476032884823,0.0597031613475549,0
2,0.43336670003336675,-0.96266638947663,-0.26959714826589537,0.0243063822673414,-0.9982874078993232,-0.005883671475501208,0.0582033816854204,0
3,0.6333667000333668,-0.9402448125580958,-0.33698071251035405,0.04882306681893357,-0.9929350134244089,-0.10541827469445003,0.054470601945584896,0
4,0.8333667000333668,-0.9070498963058585,-0.42043193392978623,0.022304137364879944,-0.9767315422106204,-0.21045876521724236,0.04126260527520031,0
5,1.0333667000333666,-0.9283334126157532,-0.3616410820542961,-0.08609763522761733,-0.9478165373022953,-0.31853191505012574,-0.013462195615365755,0
6,1.2333667000333668,-0.9910200221520935,0.0844416155412236,-0.10367704306379612,-0.9675024200129838,-0.2015471262995451,-0.1527017457313938,0
7,1.4333667000333667,-0.9587488463659739,0.22953961863994368,-0.16766697070843567,-0.9614991176677533,-0.08979173148001042,-0.2597246458885904,0
8,1.6333667000333667,-0.9591586331913043,0.2114941150346593,-0.18784290159677353,-0.9333589096249897,-0.1426771268738819,-0.3293696757302718,0
9,1.8333667000333667,-0.5693703358291713,-0.8049237182982675,-0.16707850968532212,-0.7728321154285013,-0.565421583454479,-0.28814745240265055,0
10,2.033366700033367,-0.3615075573543678,-0.9212094773172276,-0.14382414566615478,-0.5921003993207322,-0.7561623516578105,-0.2786316835170738,0
11,2.233366700033367,-0.29739290057424445,-0.9502132584172585,-0.09301734363060529,-0.5235200373941269,-0.8108892954779227,-0.26150587168583894,0
12,2.433366700033367,-0.40244398746263993,-0.9153531146785923,-0.01294265828069181,-0.47654707545829605,-0.8443610734330622,-0.24486172126960176,0
13,2.633366700033367,-0.30773365403490444,-0.6487077046846341,-0.6960447629693939,-0.4636900585273341,-0.8276281216790782,-0.31626448082084524,0
14,2.833366700033367,-0.2723523589941746,-0.6935234774954252,-0.6669702982239619,-0.38711827937064647,-0.7995225905172335,-0.45924183719443773,0
15,3.033366700033367,-0.22933647545160407,-0.6980291969378313,-0.678350957285211,-0.2874217255712793,-0.8188039111939359,-0.49693954026937887,0
16,3.233366700033367,0.043143137137986454,-0.6414239903220396,-0.7659725415164992,-0.12407640394581015,-0.8407471122529175,-0.5270192968215264,0
17,3.433366700033367,0.19241400881729584,-0.6081965749039356,-0.7701128329575995,0.06409547962566864,-0.8310084845498374,-0.5525546743062972,0
18,3.633366700033367,0.6786055222929781,-0.6788434074100781,-0.2804749067730468,0.37140398968939403,-0.7659925172847012,-0.5247042404122988,0
19,3.833366700033367,0.8196247747422513,-0.42572614881611504,-0.3833698929792393,0.6155398501267179,-0.6259643805282114,-0.47883116775739487,0
20,4.033366700033366,0.9112146896763735,-0.27323459499875585,-0.30827040956578405,0.7201511525773807,-0.5563843952062926,-0.4145102196718413,0
21,4.233366700033367,0.9067539631262431,-0.3082631334515812,-0.2876996539960806,0.8182359934317225,-0.46545410277638616,-0.3374053011756508,0
22,4.433366700033367,0.9529152402847652,-0.2765653134660411,0.1243550249103694,0.8834366017806113,-0.4040402825137484,-0.23725770954920755,0
23,4.633366700033367,0.955296817590231,-0.2743287364968069,0.11023490660422812,0.8888048975344198,-0.4005812078359142,-0.22262198913752923,0
24,4.833366700033367,0.9830550100126726,0.1412480411818439,0.11684108075191912,0.9694039438743818,-0.15302186146254,-0.19193828048446743,0
25,5.033366700033366,0.9213020313164412,0.37837643079110184,0.08963171154221175,0.9602383128096237,0.17266772267136138,-0.2193814945705602,0
26,5.233366700033367,0.8316219913889686,0.5325913737862688,0.1573254334387852,0.850502740380587,0.495785519951471,-0.17561835556558816,0
27,5.433366700033367,0.8642349306652799,0.49416619195747996,0.09432793512116268,0.7502280393224314,0.6365013425007194,-0.1789523121091261,0
28,5.633366700033367,0.7566031272078702,0.42332316488670607,-0.49834647181411285,0.7621870046719508,0.5999525384566035,-0.24316233571151105,0
29,5.833366700033367,0.8370724860564114,0.3746390622375193,-0.3986918937389263,0.8036622725303593,0.5212340900993728,-0.287127106051689,0
30,6.033366700033366,0.9014496311149258,0.41163193056192343,-0.13396908712321795,0.8624892159379984,0.5060588597984165,0.004096682826834092,0
31,6.233366700033367,0.7952435983889351,0.23799426152629105,0.5576256366972144,0.8486932610070792,0.46080382206297127,0.2595757814075258,0
32,6.433366700033367,0.6227495545840127,0.2157339494091814,0.7520916535487752,0.8286176348832269,0.4078167560706705,0.3835078990431916,0
33,6.633366700033367,0.4818045135835312,0.33522562001471895,0.8096222541261353,0.7961674340308497,0.4137834827686344,0.4414755331573793,0
34,6.833366700033367,0.43637149620310434,0.35761579526011433,0.8256457232263366,0.7503564364068781,0.4477299542323891,0.48631585047768483,0
35,7.033366700033366,0.4083153978797762,0.3717558970536037,0.8337122338433993,0.706675669389251,0.4801894827597606,0.5196417601965494,0
36,7.233366700033367,0.31128658933528364,0.34153107897144164,0.8868242111019575,0.6360937509035424,0.48605930284977744,0.5992754743643784,1
37,7.433366700033367,0.2381281012566815,0.2680185558353606,0.9335207877277375,0.6086746886996536,0.45231189175039,0.6518658419625649,1
38,7.633366700033367,0.19963614795020626,0.25357554067918664,0.9464908100984721,0.6011399742147585,0.4487766229562252,0.661233902706966,1
39,7.833366700033367,0.56580832845715,0.3622608333402955,0.7406942851650206,0.6090057023532396,0.45428975786304754,0.6501791064022058,1
40,8.033366700033367,0.5351405335101943,0.36188483423574414,0.7633242929087171,0.6250699539263185,0.45399106453027166,0.6349643029534974,1
41,8.233366700033368,0.5646126771122254,0.3618534265897228,0.741804976061392,0.6775475179200643,0.4407168212299166,0.5888107034059065,1
42,8.433366700033368,0.7462519271165696,0.2753649432320051,0.6060381252971142,0.7266693112140317,0.4384495145350793,0.5288796983659685,0
43,8.633366700033367,0.7074311995945466,0.27953618976405875,0.6491537694971916,0.7426443525919817,0.417120727086694,0.5239176124143038,0
44,8.833366700033368,0.6663817932245188,0.28584689950544334,0.6886413113530145,0.7394500866883861,0.4191676479352019,0.5267941269803688,0
45,9.033366700033367,0.659184853856796,0.28838019734879666,0.694486997878912,0.7505421032075763,0.4185299380490578,0.5113895210789913,0
46,9.233366700033368,0.9768709291465714,0.21382184869936452,0.0018452119392153227,0.8956461298179565,0.29618729666102855,0.33179978215596917,0
47,9.433366700033368,0.984636433446786,0.10952034963244928,-0.1360014225866006,0.9897718799253542,0.13817620181761794,0.035481868049574886,0
48,9.633366700033369,0.9292126093444923,-0.27180253780346236,-0.25037433390584785,0.9800232341040904,0.01632837696534964,-0.19821161601136456,0
49,9.833366700033368,0.7966558125212159,-0.5879704923067276,-0.1401078746992692,0.9608253598037637,-0.18815889784094023,-0.20349657766471405,0
50,10.033366700033367,0.8018589178143571,-0.5973108167725851,-0.015558408917866813,0.9144738375820018,-0.3757518187052752,-0.1501604845414546,0
51,10.233366700033368,0.5948880119940059,-0.8027044687915471,-0.04211637410675417,0.874930818708306,-0.4724839229591125,-0.1060896084429605,0
52,10.433366700033368,0.6213648010613994,-0.7835193341388784,0.0017991755045986856,0.8531760766465547,-0.5186320153784834,-0.05578005792794538,0
53,10.633366700033369,0.6224918332703717,-0.7816874956030327,0.038322013641651866,0.8406114645145152,-0.5416148772007776,-0.005068581808420485,0
54,10.833366700033368,0.5171868466009164,-0.6713995352165284,0.5307922661588335,0.7919288139237872,-0.592676007720878,0.1469146131237644,0
55,11.033366700033367,0.514953263589069,-0.6765706646778931,0.5263793993084083,0.763742164265752,-0.6202301422300762,0.17892030961275607,0
56,11.233366700033368,0.4474709280417764,-0.7199604393694186,0.5304966864179506,0.6940342497831273,-0.6918542382424572,0.1991335560721014,0
57,11.433366700033368,0.005884266139683847,-0.9743706313190036,-0.2248716261225597,0.5576220413957249,-0.827816942729892,0.06145541700289142,0
58,11.633366700033369,0.14415081393084295,-0.9573035756336571,-0.2505801407176763,0.3169351577657535,-0.9423570609292904,-0.10730925164545091,0
59,11.833366700033368,-0.002086602213133948,-0.9509907447284831,-0.30921230494915486,0.10628656733886738,-0.9709374283241945,-0.21443804672333708,0
60,12.033366700033367,-0.5345368567950795,-0.7054621455732427,-0.4653960785082251,-0.17623968748266372,-0.9347989966941472,-0.3083673269586599,0
61,12.233366700033368,-0.5451451924214842,-0.5411977754241618,-0.6402512686872877,-0.36207864586610483,-0.8120435477897604,-0.4576945823371596,0
62,12.433366700033368,-0.5107221222992544,-0.5556005536873668,-0.6561028414329854,-0.45812080638920716,-0.7201110765061921,-0.521119337816585,0
63,12.633366700033369,-0.510203616542803,-0.537012914207059,-0.671795653187401,-0.47256087421652454,-0.7019136761710609,-0.5329197044243543,0
64,12.833366700033368,-0.6915033551808494,-0.5973870697976632,-0.40614258409109244,-0.5012491665884307,-0.715328848072479,-0.4868818256103876,0
65,13.033366700033367,-0.8522240047327199,-0.5186438623441858,-0.06872255677745442,-0.6449535181090038,-0.6690312199631543,-0.3693672781845089,0
66,13.233366700033368,-0.9357001588035382,-0.34344834235942,-0.08067495860302637,-0.8323436058589513,-0.48519774336866095,-0.26793146813257723,0
67,13.433366700033368,-0.9903537906793716,0.0713875457144159,-0.11875684234549175,-0.9441612136167042,-0.25307045250467297,-0.21098566010729816,0
68,13.633366700033369,-0.8919815040553581,0.43368380430117354,-0.1276219193947604,-0.9886849202358616,0.012957022332732602,-0.14944645887566826,0
69,13.833366700033368,-0.8581454731512138,0.5059698341969272,-0.08706821344677763,-0.9774603164367748,0.19145586678679136,-0.08897179813985148,0
70,14.033366700033367,-0.6474415705936459,0.679519130108757,0.3450697965390064,-0.945638055451391,0.3202762845098282,0.05649574906744476,0
71,14.233366700033368,-0.7339812399326819,0.5418938766599893,0.40941734924803946,-0.9118197860780762,0.4000435821762169,0.0924651830482784,1
72,14.433366700033368,-0.5108782865214827,0.7750744269595765,0.37183734217283493,-0.8839970137437889,0.4446677725697945,0.14429085809531078,1
73,14.633366700033369,-0.5704741537749763,0.7188262312061279,0.39730100579374156,-0.8768454274554943,0.44191365218245104,0.18935263495700075,1
74,14.833366700033368,-0.5866992160021445,0.7007609743848529,0.4058547606246119,-0.87265392538127,0.4343302907813708,0.22323155024868488,1
75,15.033366700033367,-0.8177546701224654,0.38139628888547955,0.4310616780894373,-0.8828878496159617,0.4060667494198792,0.23583646880004847,1
76,15.233366700033368,-0.8109711204115551,0.39085993436169125,0.4353784027362886,-0.8916134394095669,0.38304914006716845,0.24145150850231858,1
77,15.433366700033368,-0.8123136716279145,0.37985261170410534,0.44255902687432264,-0.8973934120969391,0.3653888815006607,0.247337884685524,1
78,15.633366700033369,-0.8171353276107511,0.36417656001421417,0.4468392210926477,-0.9000735752152171,0.3511402393854978,0.2580079291099256,1
79,15.833366700033368,-0.8248026942451643,0.33976101122300184,0.45195461145854143,-0.9074295863512054,0.3279316774931786,0.2627401010713633,1
80,16.033366700033366,-0.660563947717818,0.49741381122026784,0.5623475539048601,-0.9106567037228148,0.31115950470504256,0.27181635454183084,1
81,16.233366700033365,-0.6577479557744242,0.46729660879658974,0.5907634942020145,-0.9088934606591386,0.2972627187336623,0.2924851333352286,1
82,16.433366700033368,-0.6510684801277089,0.4564677308263148,0.6064215076153472,-0.9083075865464477,0.2932754672842004,0.2982730770810556,1
83,16.633366700033367,-0.7662126003186731,0.26920518501339014,0.5834782082261544,-0.9119250327186377,0.27359638296654754,0.3058394250725932,1
84,16.833366700033366,-0.7435560461164925,0.27292761004920324,0.6104383064294363,-0.9113671429617551,0.27359664053845484,0.3074976569273333,1
85,17.033366700033366,-0.7297910054662473,0.25309032528180797,0.635098713263783,-0.9119482966841634,0.27077838090120643,0.30826834513354545,1
86,17.233366700033365,-0.7124432146949543,0.24606966988929324,0.6571715022699124,-0.9097814207158872,0.2753457337490046,0.3106163122348931,1
87,17.433366700033368,-0.690392872461112,0.24312260557288853,0.6813582613532654,-0.9056553263704734,0.28142457450631514,0.3171571198644788,1
88,17.633366700033367,-0.6775434505573684,0.23460740070761157,0.6970611451946184,-0.9031713488241799,0.27971901277948924,0.32563597551987356,1
89,17.833366700033366,-0.7323505027071296,0.2867818021203977,0.6175912395405168,-0.905509608082051,0.27456816277259993,0.32351920138188,1
90,18.033366700033366,-0.9230271384503808,0.3035762581252666,-0.23635218887660747,-0.9621030936029461,0.25491219958153855,0.09683701660079454,0
91,18.233366700033365,-0.9123399574581201,0.1770642608459772,-0.36916669616364894,-0.9692407875120767,0.22238224636950277,-0.10544397717567089,0
92,18.433366700033368,-0.7917989449694142,0.022619477913254193,-0.6103628346846282,-0.9487630070208619,0.0895090469800633,-0.30304601468663617,0
93,18.633366700033367,-0.7648339208359001,-0.00882350733256441,-0.6441670740243841,-0.8970207443737345,-0.03486017428963015,-0.44061156636167437,0
94,18.833366700033366,-0.6210646885563638,-0.3559803296971469,-0.6982525742860508,-0.8078172032404531,-0.24752161951279167,-0.5349433745944867,0
95,19.033366700033366,-0.6075457383349652,-0.3684042910814596,-0.7036806478394795,-0.7196374974102152,-0.35250657051444606,-0.598214836045803,0
96,19.23336670003337,-0.3754959326683749,-0.33987894416133635,-0.8622558250689195,-0.5604022540744428,-0.3722854496129032,-0.7398329930699241,1
97,19.433366700033368,-0.37911774459288844,-0.2919064735890923,-0.8781004193209239,-0.47741650322637663,-0.3987331388503163,-0.7829976797089969,1
98,19.633366700033367,-0.3512352453254019,-0.23179618543871108,-0.9071407447895103,-0.43368267436992863,-0.41198718293070163,-0.8013650223538406,1
99,19.833366700033366,-0.36473459999707114,-0.23748019127347306,-0.900317627461382,-0.4349691671138294,-0.4153821696297937,-0.798911432396575,1
100,20.033366700033366,-0.3765108673705839,-0.22981646184954937,-0.8974541551604771,-0.44729419936476017,-0.40568296269084386,-0.7970879706763978,1
101,20.23336670003337,-0.39520979708265297,-0.6711781844747374,-0.6271595179657913,-0.45353273816096323,-0.4139593344855887,-0.7892691079780506,1
102,20.433366700033368,-0.5147888577441297,-0.8038590600446451,-0.2979983951745943,-0.4476494249649179,-0.5022667186439337,-0.7398230434848824,1
103,20.633366700033367,-0.5718559296970449,-0.789962655311695,0.22122341395798212,-0.597262082427362,-0.7544004589999745,-0.27231957762004416,0
104,20.833366700033366,-0.6434529425441003,-0.7188956664881005,0.2629778154825391,-0.6389251944530323,-0.7679156664807693,0.045608388116123305,0
105,21.033366700033366,-0.9125032387235981,0.20771412848447743,0.35240981845981356,-0.8642109153213559,-0.4741746873443466,0.16821967697423398,0
106,21.23336670003337,-0.7460446302509546,0.4339637815381175,0.5050671697773017,-0.9270809045069967,0.0746641018036324,0.36735033469475153,0
107,21.433366700033368,-0.47460763626016467,0.801991570278499,0.3627080269387028,-0.7692880454593835,0.4856007427245977,0.4151961244744475,0
108,21.633366700033367,-0.30897780632941124,0.9095335974510999,0.27799523431801104,-0.6261892533561262,0.7159199089049063,0.3087809952294477,0
109,21.833366700033366,-0.07217322188826092,0.8986687026296537,0.43264949896677674,-0.5089866540167463,0.8027978301828353,0.3105611532155443,0
110,22.033366700033366,0.2483500037322517,0.9019557820984264,0.35326766450583447,-0.4422075989584475,0.8436528985787317,0.30447040273745607,0
111,22.23336670003337,0.2482361612096911,0.88779248596473,0.3875607179945372,-0.3427698684698067,0.8979356680269207,0.2760803385868672,0
112,22.433366700033368,0.15260835215317653,0.9876170833506112,0.03637564469702786,-0.1860790063999746,0.968127819815367,0.16763987555692933,0
113,22.633366700033367,0.03611859632930242,0.9620194742674223,-0.2705808162627831,-0.027698961712536163,0.9983835901978325,0.04962836229147937,0
114,22.833366700033366,0.017384633045524456,0.9509760419418573,-0.3087755530907062,0.0024520520611746033,0.9992855861694543,-0.037713455352959786,0
115,23.033366700033366,-0.048207655514583225,0.9333598774005906,-0.3556899790668022,0.05827490334188867,0.9967427338256739,-0.05574906462188867,0
116,23.23336670003337,-0.017579839813694598,0.94307601021062,-0.3321123126253278,0.10736522316253228,0.9920588007016767,-0.06551369937357204,0
117,23.433366700033368,-0.05106767662672085,0.9846726758216582,-0.16676874375662945,0.1702902025017417,0.9839891811843504,-0.052597892011635894,0
118,23.633366700033367,-0.060048636141255995,0.9903565932333078,-0.12485183033056468,0.19393129862864317,0.9803180123405295,-0.03697629095680074,0
119,23.833366700033366,-0.05049652662405746,0.9919611297195334,-0.11603110757229171,0.2007502461290646,0.9795659247039168,0.012244910701202361,0
120,24.033366700033366,0.1599134384071497,0.7000926715625972,0.6959151840857821,0.22792327164451281,0.9180032153031027,0.32453209230525576,0
121,24.23336670003337,0.15627493609084656,0.7215705568085954,0.6744731839715614,0.2081833250581625,0.9015405405300907,0.3793209155167158,0
122,24.433366700033368,0.1493300540927462,0.9178555480541747,0.3677522642361682,0.11613824859346533,0.9603993277988719,0.2532687078521897,0
123,24.633366700033367,-0.2225085250807124,0.9175790896756648,-0.3294519243476727,-0.1284040532898763,0.9915764484079446,-0.016986643618364026,1
124,24.833366700033366,-0.250144982912736,0.916429417801166,-0.31238535450978305,-0.16599148717929507,0.9809862858127137,-0.10056208645102274,1
125,25.033366700033366,-0.3051985681842785,0.9120018192111884,-0.2740556799881169,-0.2191027967747614,0.9681624016298493,-0.12106002030315442,1
126,25.23336670003337,-0.31878748259646095,0.9126214617495044,-0.2559230519003895,-0.24195633058600136,0.9618108497278954,-0.12797274489148636,1
127,25.433366700033368,-0.11246006316201113,0.9297531882109954,-0.35058771114385345,-0.22802666634439622,0.9633895026349343,-0.14101243083031986,1
128,25.633366700033367,-0.1267728941550056,0.9147562104314627,-0.38360097599541265,-0.21843892062565523,0.9621224589696118,-0.16310981546849537,1
129,25.833366700033366,-0.13348775598257284,0.8936866433732014,-0.4283750721728303,-0.2132598738489898,0.9586081211732106,-0.1886549660800911,1
130,26.033366700033366,-0.1350096467235945,0.8859567821364067,-0.4436811642137564,-0.2064734929753519,0.9592607946534472,-0.19284041210128772,1
131,26.23336670003337,-0.1707973066809616,0.9452129768419701,-0.27820982807958217,-0.2081169888681753,0.9570790209476009,-0.20171035324550227,1
132,26.433366700033368,-0.20415740923908282,0.9259871839911161,-0.3175964221098675,-0.22193865858855277,0.9522565239124782,-0.2096443285425049,1
133,26.633366700033367,-0.30711956870348867,0.8991366089848948,-0.3118187436677405,-0.27218333240914044,0.9368528303093457,-0.21959737680588115,1
134,26.833366700033366,-0.33654048446224216,0.8833634008874163,-0.32620485019468615,-0.32411890075364974,0.9157830201546772,-0.23725176115389424,1
135,27.033366700033366,-0.5210514033036198,0.753724654235946,-0.4005054065955071,-0.3978602035421563,0.8879238220434048,-0.23086477575677528,0
136,27.23336670003337,-0.5493587886476732,0.7890066627222331,-0.2750879995846524,-0.4615070077603976,0.8855613067602427,-0.05284367282027113,0
137,27.433366700033368,-0.4872883058868897,0.8464016634096768,-0.21483559091364923,-0.4902817924630822,0.8715638186593894,-0.0005234339027781076,0
138,27.633366700033367,-0.47992624783717686,0.8051173268914348,-0.3485066521260667,-0.5039342029018269,0.8494264502939017,-0.15660467645253137,0
139,27.833366700033366,-0.6433194542725329,0.5408992494924277,-0.5418192333731048,-0.5912020767336292,0.7285011872400485,-0.346072426893106,0
140,28.033366700033366,-0.748957642127394,0.35897140663961885,-0.5569577897059599,-0.7280833045527596,0.5135176658984187,-0.45408623458741165,0
141,28.23336670003337,-0.7964172851606426,0.04690557913825549,-0.6029256791206163,-0.8012850881724995,0.24637159642767636,-0.5452001870378149,0
142,28.433366700033368,-0.7448877914934489,-0.14023176818476935,-0.6522861559743436,-0.7924744887262783,0.016047216913973407,-0.6096939162787666,0
143,28.633366700033367,-0.7664466014113942,-0.05733395191389467,-0.6397440309552397,-0.776585312980391,-0.04807089559248254,-0.628175485561228,0
144,28.833366700033366,-0.7941341363815121,-0.07493410788528149,-0.6031051756609515,-0.8027150258151904,0.020751453095461076,-0.5960016480891183,0
145,29.033366700033366,-0.8818386112593978,0.004695238384047059,-0.4715279614493858,-0.8310298850670741,0.10570910604068896,-0.5460905740126671,0
146,29.23336670003337,-0.8285789641122092,0.4511797408914218,-0.33150224982628357,-0.8617208782616146,0.21386566999206758,-0.4601071648723539,0
147,29.433366700033368,-0.85122251018365,0.464381593937685,-0.24447898349048483,-0.8931721311992487,0.32583963764820517,-0.30995495573756926,0
148,29.633366700033367,-0.8418865247373656,0.5394781488991648,-0.013798779872573975,-0.9006265999647389,0.4210257841379974,-0.10774514618737482,1
149,29.833366700033366,-0.8557746772028729,0.5157803890272302,-0.04025285273415583,-0.8989643918043636,0.4250670438590308,-0.10574039196426178,1
150,30.033366700033366,-0.8640989082740254,0.4996691116034754,-0.06052979125217069,-0.8971556029881057,0.4287725459811072,-0.10614107517793525,1
151,30.23336670003337,-0.8250506286800164,0.46618196804686535,-0.319320893119541,-0.8857264564986842,0.44185464432608385,-0.142313448225226,1
152,30.433366700033368,-0.8302708877542504,0.44549617681304216,-0.3349379187143959,-0.8821377227549256,0.44392967266414435,-0.15735146590057555,1
153,30.633366700033367,-0.8348140420258614,0.39421234877184197,-0.38429433942257213,-0.893153249322826,0.39939856397807566,-0.20678022225621365,1
154,30.833366700033366,-0.8396288057435287,0.24423631058463618,-0.48515161873140367,-0.9072138745886046,0.33785243063786,-0.2506366311336436,1
155,31.033366700033366,-0.8236391080586042,0.19474198643978025,-0.5326294944836565,-0.8979824361943946,0.2813881471452033,-0.33830201733446663,0
156,31.23336670003337,-0.7985520495731276,0.14010305183964594,-0.5853936786366718,-0.8819220175030936,0.2133274063640672,-0.4203629059958235,0
157,31.433366700033368,-0.6543509834983805,0.2227274930838212,-0.7226460089278143,-0.8557254609743109,0.144800890797842,-0.4967561146724364,1
158,31.633366700033367,-0.662237655872942,0.1944527950209571,-0.7236224137300119,-0.8324733437042158,0.11203345913220644,-0.5426201581740168,1
159,31.833366700033366,-0.6614785113994397,0.20614648508777506,-0.7210754507281034,-0.8263241334020611,0.12570740908207426,-0.548986405896544,1
160,32.03336670003337,-0.6453730532395973,0.2016224198150508,-0.7367781361984921,-0.8130980753897441,0.11740264754103234,-0.5701650095786749,1
161,32.23336670003337,-0.6540376640308884,0.1646623490281613,-0.7383231303714837,-0.8161159707764978,0.09237485776623369,-0.5704573672906708,1
162,32.43336670003337,-0.6064219895438501,0.09230739765382043,-0.7897668737900181,-0.8409351680449516,0.09344352956288816,-0.5330068948222325,1
163,32.63336670003337,-0.59482737912501,0.07690272453864093,-0.8001664576835282,-0.8298498400111952,0.0901853431576752,-0.5506503853743556,1
164,32.83336670003337,-0.5967470416112937,0.06264242732673338,-0.7999805589055173,-0.8272777305992929,0.08266733537686471,-0.5556776656625431,1
