,timeStamp,x_gaze,y_gaze,z_gaze,x_head,y_head,z_head,fixations_head
0,0.041701417848206836,-0.9966861863170814,-0.025102355641162137,0.0773725904049812,-0.9943183298071802,0.10577643251418337,0.0119333706065033,0
1,0.24170141784820684,-0.9731635718712176,-0.060518130826225716,0.22201400456762493,-0.9999336212839212,-0.0017636867545495702,0.01138606319391063,0
2,0.4417014178482069,-0.9782697177212817,-0.11662565049255103,0.17142583538286574,-0.9955046548602552,-0.09413262095250463,-0.010465745275725873,0
3,0.6417014178482069,-0.8031076560675117,-0.5790162755911926,0.1405640258609989,-0.9739819257667296,-0.2265469883395383,-0.00597246632626584,0
4,0.8417014178482068,-0.6760296915297515,-0.725736268971128,0.12763512083300488,-0.901634193972598,-0.4320121509812714,0.020525147110776475,0
5,1.041701417848207,-0.4824927889735412,-0.8657688507374875,0.1328345048593339,-0.7553047531087791,-0.6529309680167968,0.056532123044645846,0
6,1.241701417848207,-0.29843996159155906,-0.9515158462943822,0.07450626534671163,-0.5514826530930782,-0.8307999009821088,0.07508933256820083,0
7,1.441701417848207,-0.27370871640880007,-0.9600070309495119,0.05890703768947968,-0.40083384059428484,-0.9114708336393039,0.09248325069604585,0
8,1.641701417848207,-0.4452172669050102,-0.7224836010942619,0.5289603306482447,-0.35044628159607166,-0.9248429731846106,0.14782719190506283,0
9,1.841701417848207,-0.5194249140717795,-0.6790217904424171,0.5187746782042265,-0.38832712610036263,-0.8973187078202564,0.20981224876164561,0
10,2.041701417848207,-0.5676510338051258,-0.6463515910674995,0.5099038385269167,-0.4343751881332092,-0.8671496464551901,0.24365895548261354,0
11,2.241701417848207,-0.5623706470108861,-0.7533499450288896,0.3408857810257371,-0.38758113842419606,-0.9213008627782573,0.031393970469556956,0
12,2.4417014178482073,-0.513683093175843,-0.8509243565346193,-0.10980628051911484,-0.26851433861900054,-0.7830885904978909,-0.5609566020540516,0
13,2.641701417848207,-0.5090196143387106,-0.7573715551626486,-0.40900777455811405,-0.19334869764984516,-0.4790400286408027,-0.8562341572706194,0
14,2.841701417848207,0.039885012975005595,0.08384034882074624,-0.9956806624865221,-0.16504107253787229,-0.36177057678947544,-0.9175420939362725,0
15,3.041701417848207,0.07688920510730583,0.11430357402052865,-0.9904659222326128,-0.13412387144973165,-0.2869334480436446,-0.948514619550548,0
16,3.241701417848207,0.07855149232314099,0.15366600207506806,-0.984995646112242,-0.12954929217554167,-0.2214886564896893,-0.9665194027763793,0
17,3.4417014178482073,0.06579575191682768,0.1805601862908943,-0.9813607584147113,-0.11685436770159471,-0.21761966526343965,-0.969013280631225,0
18,3.641701417848207,0.07000691724953564,-0.17352367540279603,-0.9823383152518903,-0.04777941907479983,-0.3276765186870333,-0.9435810649933694,0
19,3.841701417848207,0.2817908720519716,-0.6145280821078326,-0.7368508266461116,0.08520478829635852,-0.5073583224825043,-0.8575124935877679,0
20,4.0417014178482065,0.28147314769656284,-0.8406006828382491,-0.4627778723509351,0.13738048714538395,-0.7213340503117587,-0.678825301246595,0
21,4.241701417848207,0.06351543895463457,-0.9496392723090443,-0.30684041699676606,0.0779568215914781,-0.9094479236256758,-0.4084448655330384,0
22,4.441701417848207,-0.193568879990355,-0.9780901184804641,0.0766212035284702,-0.09421632585868583,-0.9866180332330139,-0.1330719370908444,0
23,4.641701417848207,-0.2221453189172392,-0.9707110799964721,0.09149566358708197,-0.15317052591405694,-0.9863582245725325,-0.06030126706241559,0
24,4.841701417848207,-0.42655260324468147,-0.8979426818643484,0.10840579666902894,-0.05051728541527423,-0.9973445548484255,-0.05245800976464836,0
25,5.0417014178482065,-0.5260944777183948,-0.8408669708633184,0.12715084673472105,-0.15980655777568975,-0.986043533697874,0.046690617306854545,0
26,5.241701417848207,-0.5212644978302761,-0.7353704736801393,0.4330283936893723,-0.25970984088684224,-0.9547694787079614,0.1447965506296985,1
27,5.441701417848207,-0.543812214178225,-0.7285510253268104,0.41651131942100916,-0.2986108657678983,-0.9346185191852432,0.1931832664630386,1
28,5.641701417848207,-0.5660727080145584,-0.697361797552137,0.43960005977697186,-0.3404679191941363,-0.9077251697260535,0.2451868924829024,1
29,5.841701417848207,-0.5698938684505922,-0.691493495169218,0.44391184354675434,-0.3544801601209335,-0.8961505324883523,0.2669420146801173,1
30,6.0417014178482065,-0.5670095654631238,-0.6953568247386052,0.44156430897748594,-0.35242265795839545,-0.8934650394617676,0.27842143131792535,1
31,6.241701417848207,-0.29221633921763934,-0.8308451976548041,0.47360940513063204,-0.2008055142262702,-0.9425152939756726,0.2670993561921751,1
32,6.441701417848207,0.4015517652761942,-0.8945038665863833,0.19651720653821161,0.1266632895077588,-0.9626954479772375,0.23911061359751298,0
33,6.641701417848207,0.6948575511424726,-0.7068983726350093,0.13216532974370343,0.40819302722288753,-0.8513817976628965,0.32943510307025636,0
34,6.841701417848207,0.8395795678487293,-0.533562991443929,0.10206215465267571,0.5908350739840542,-0.729678677080595,0.34421351449960585,0
35,7.0417014178482065,0.9710051689597559,-0.1990460009027311,0.13239958979568603,0.7716693382811535,-0.5630829974056221,0.29574308172707525,0
36,7.241701417848207,0.9631200187972591,-0.2245062988874094,-0.14831301747265715,0.9165242901282766,-0.37968336048670864,0.12579257281087447,0
37,7.441701417848207,0.9297991750631693,-0.15477140758971572,-0.33394506351277053,0.9636736709470759,-0.2661005133040696,-0.02288171197042492,0
38,7.641701417848207,0.8679380967302992,-0.28870626066846883,-0.40414373098566797,0.9659408065061365,-0.2465841688172216,-0.07845129708930919,0
39,7.841701417848207,0.8196016789637299,-0.25358343686522333,-0.5137592124599384,0.9526639103375291,-0.2085022268111966,-0.22126521496878138,0
40,8.041701417848207,0.9065514381981545,-0.09355351516237467,-0.4115971692099219,0.9549991460743722,-0.11251117066776936,-0.27444100909337155,0
41,8.241701417848208,0.8805011531165017,0.4554580092049054,0.1314371378706008,0.9731216866363935,0.12101284483631528,-0.1959338520587064,0
42,8.441701417848208,0.7035995585858721,0.710311867676993,-0.020117450012080627,0.9076459336629464,0.40456810592739645,-0.11181908053385915,0
43,8.641701417848207,0.5509393286084248,0.8156044807728935,0.17679136612311377,0.7366638817371259,0.6752892587993984,-0.03620417509279081,0
44,8.841701417848208,0.5194589866650037,0.8388459881070908,0.1627874977066921,0.5169403019294838,0.8560093468520695,0.004552180021437868,0
45,9.041701417848207,-0.012587030734202642,0.9365157630878174,0.3503994750928425,0.26807475799358577,0.9626341665022206,0.03835864451797051,0
46,9.241701417848208,-0.2794567017907802,0.9186679081445835,0.27920105008662577,0.02751822139383947,0.9959406252836289,0.08570308279737884,0
47,9.441701417848208,-0.4476248644672695,0.8939198337899253,-0.023223080494434466,-0.18031339873189034,0.9817925742528223,0.05975298636696531,0
48,9.641701417848209,-0.48341030407138924,0.6883392039371562,-0.5408360363740286,-0.3342617325329963,0.9412685129137909,-0.04777740848037458,0
49,9.841701417848208,-0.43996534584052865,0.5434786263787826,-0.7148856391961275,-0.3913542219437553,0.9044762005092403,-0.16960152027374945,0
50,10.041701417848207,-0.3782570150973016,0.3981860744136027,-0.8356850367649076,-0.4003130850988981,0.8408718493047204,-0.3642581048452619,0
51,10.241701417848208,-0.5133203628212271,0.2279677792713099,-0.8273650323328823,-0.42139362926729546,0.7571310126400076,-0.49917936547062347,0
52,10.441701417848208,-0.5596799395730648,0.2632666485521594,-0.7857792546253717,-0.4964465656263043,0.7562892714620253,-0.4261071993633605,0
53,10.641701417848209,-0.8499074777095184,0.17862098869256707,-0.49573361973133795,-0.6532339649274616,0.6917441848512444,-0.3078560861663041,0
54,10.841701417848208,-0.9151599915643561,0.3282602460088396,-0.23393888246750208,-0.773930769345935,0.6047149577610976,-0.18801857386865614,0
55,11.041701417848207,-0.8304536253220367,0.5567643471402643,0.01897993527284926,-0.7917755859585375,0.6057242895535336,-0.07867341688831113,0
56,11.241701417848208,-0.6669117816768473,0.7379858948562015,0.10298298137995679,-0.7763535805945394,0.6297541063810478,-0.026170276923374276,0
57,11.441701417848208,-0.9357293730074158,0.3258025024794876,0.13514166592599125,-0.7680572518308867,0.6403811470425783,0.00021076626361401794,0
58,11.641701417848209,-0.934003090234133,0.3354027297419175,0.1230578575904881,-0.7525897496006849,0.6582578104740081,0.017473515557643853,0
59,11.841701417848208,-0.8561984366360404,0.4989698513973253,0.13399001641365546,-0.7300410976975886,0.6825126610790438,0.03487783163130853,0
60,12.041701417848207,-0.7246956209919808,0.6762089917922101,0.1325053068160303,-0.6943607957793361,0.7179722479147198,0.04877434273233015,0
61,12.241701417848208,-0.7664150275547328,0.6385828021472001,-0.06942629429912142,-0.6529912269111102,0.7556937115706115,0.050293855188839776,0
62,12.441701417848208,-0.8429106847576171,0.5359150881399728,-0.04792281111715139,-0.6110254525878145,0.7886681199061518,0.06819452275331607,0
63,12.641701417848209,-0.8058968693185884,0.5920182547320433,-0.006679976536186506,-0.5812444676248582,0.8095717345404164,0.08214910522164375,0
64,12.841701417848208,-0.6219901145187007,0.6814822476711763,0.38562967151148464,-0.5664269652286372,0.8184348652408859,0.09656533757000554,0
65,13.041701417848207,-0.40387181074770806,0.8556022796580048,0.32377816406822874,-0.5348639640081932,0.8374144751227297,0.11250571923402536,0
66,13.241701417848208,-0.265091242582983,0.9099898634887289,0.31881825771679867,-0.43017848294504824,0.8976306159234778,0.09594660060645574,0
67,13.441701417848208,-0.06703899048299833,0.9486552594402703,0.30912614333202887,-0.2325820896099045,0.9685626213968955,0.08827241939283414,0
68,13.641701417848209,0.369156424169729,0.8599606182623054,0.35240781707012797,-0.004098627755948936,0.9957102909015826,0.09243493843349453,0
69,13.841701417848208,0.5239277915446053,0.7926712663104519,0.3117241293403153,0.20270757353692798,0.9758682110539615,0.08118419972575719,0
70,14.041701417848207,0.6738409900079885,0.6871811735416553,0.2715149257683038,0.3829666576138951,0.9198995856809322,0.08438774448988975,0
71,14.241701417848208,0.7044309268426853,0.678357068476383,0.20882709823124831,0.4901484721156251,0.8674743494566947,0.08510422032662539,0
72,14.441701417848208,0.7460010838320209,0.6363122991281642,0.1964409348880221,0.541463915265262,0.8366185578690203,0.08298323381728422,0
73,14.641701417848209,0.7679933211089676,0.6154326353553583,0.17728206359239154,0.5903139572938254,0.8028047782925685,0.08386846710608031,0
74,14.841701417848208,0.7977451648805592,0.37942875241108304,0.4686538954852063,0.6665243472166739,0.7398262516654942,0.09166467102418345,0
75,15.041701417848207,0.8300437389483816,0.3174987833857614,0.45849963356708656,0.7365710092090643,0.665855576733843,0.11874131263036554,1
76,15.241701417848208,0.8546433278609409,0.308324209140214,0.4177570636157312,0.804806748290068,0.5823183515085677,0.11485397425910684,1
77,15.441701417848208,0.8627890568776779,0.33631052730432676,0.3774788372298678,0.8339908722578457,0.5410749729252412,0.10815312600451098,1
78,15.641701417848209,0.8649392947965872,0.33384435620447633,0.3747371907713481,0.840485642091509,0.5324645031287673,0.10032665820139015,1
79,15.841701417848208,0.8087664557926179,0.34323238286629754,0.47758596224823346,0.8198879146894493,0.5651668880425844,0.09148877530302464,1
80,16.041701417848206,0.7812039792727727,0.42499619030653857,0.4572729830126792,0.7757688756378571,0.6246490474948515,0.0894215804789313,1
81,16.241701417848205,0.7315136100978223,0.4941048719432136,0.46983849753253726,0.71659856932847,0.6901368594518745,0.10098319494992346,0
82,16.441701417848208,0.45646484214994537,0.25010878265758374,0.8538650038024552,0.6596907303399723,0.7407490534540558,0.12688175641294694,0
83,16.641701417848207,0.6104100568061237,0.7715803963773576,0.17906215255074098,0.596232390274049,0.7924708986315868,0.12843991439634023,0
84,16.841701417848206,0.3142356034343519,0.9344580493040678,0.16746384572523434,0.5079736336417713,0.8541232606300121,0.11151790517908942,0
85,17.041701417848206,0.26484671969657064,0.9539110736417946,0.14110236939727433,0.37213574894264895,0.9200942540136586,0.12223562528961301,0
86,17.241701417848205,-0.3463798810141512,0.9380355611683203,0.010500667229136418,0.16947865002689166,0.9777507813265869,0.12361390213204852,0
87,17.441701417848208,-0.3794924114247048,0.91738655947769,0.11994753086557997,-0.039448719155603496,0.9886289157616331,0.14510915021789636,0
88,17.641701417848207,-0.35098738536795143,0.926936011730868,0.13265551428056604,-0.222674202881334,0.9621575248653601,0.15706398924045872,0
89,17.841701417848206,-0.4645747939940653,0.7782780960826967,-0.42243752904218257,-0.33207997311246096,0.9425041044042599,0.037535378494849246,0
90,18.041701417848206,-0.40662238263872874,0.6685214250001813,-0.6226855886022501,-0.33912713910514797,0.9397469901370833,-0.043224738873134994,0
91,18.241701417848205,-0.48512887570786317,0.7556677255438933,-0.44001847975482117,-0.29325059750743493,0.9559649741123867,-0.011621330897806018,0
92,18.441701417848208,-0.6055015060344762,0.7575725844192869,0.24382720423747628,-0.2886759310631374,0.9567886194630161,0.03495346178687623,0
93,18.641701417848207,-0.6412578305759203,0.743882516727556,0.18822113598674833,-0.33256027110097386,0.9402869126350499,0.07255472426033487,0
94,18.841701417848206,-0.6877558214568018,0.7005725416674697,0.19023681009168816,-0.4156998323995218,0.8993679028272688,0.13539211464147408,0
95,19.041701417848206,-0.5320452865509295,0.8437982565046276,0.07023044481341427,-0.5409847684463518,0.8215031489387566,0.18018894692170767,1
96,19.24170141784821,-0.7476940544813148,0.65897978347631,0.08184892096300493,-0.5893583122936397,0.7853145682164728,0.18957270024285533,1
97,19.441701417848208,-0.801957006757551,0.5916215643507843,0.08275798395079878,-0.6149137447426086,0.7641656443134361,0.1947612758678002,1
98,19.641701417848207,-0.8069468838367465,0.5838083774660477,0.0894678996435323,-0.6247115856511389,0.7536079908467365,0.20447599097494293,1
99,19.841701417848206,-0.5777654980842126,0.8143249824373955,0.05533400583581427,-0.5889211371071561,0.7837380177027724,0.19729828655044857,1
100,20.041701417848206,-0.5786281327816042,0.8133401564872569,0.06055802010435254,-0.5725383691656556,0.7962709876047611,0.19532621465658423,1
101,20.24170141784821,-0.571294401458986,0.8189061021475879,0.05491359328129693,-0.5516615122472488,0.8120849715289866,0.19023032072160279,1
102,20.441701417848208,-0.5504653927120903,0.8322139293782054,0.06639146914485264,-0.5187477726231151,0.8338172452165595,0.18881088416197045,1
103,20.641701417848207,-0.598002598265376,0.6146758774671147,0.5143602415893869,-0.49688751740014225,0.8504401830080454,0.1727839407386157,1
104,20.841701417848206,-0.555306418572198,0.7487405647151008,-0.36197009302238004,-0.5033168163234766,0.8496556099141354,0.15734524761631122,1
105,21.041701417848206,-0.6128155866778267,0.7817939364293149,0.11513165371463964,-0.5119689818911135,0.843763187202032,0.16109452350730413,1
106,21.24170141784821,-0.8177850777111465,0.5708944544143482,0.07284976727428842,-0.521974413427467,0.8392086238090257,0.1525503112144096,1
107,21.441701417848208,-0.8171006671455161,0.5730134201481834,0.0632623116905615,-0.5185456785446995,0.8420019665483472,0.14880546895639724,1
108,21.641701417848207,-0.8186372386543623,0.5704631943947444,0.06636878279209865,-0.5201191098839482,0.8412211835113198,0.14772620602094919,1
109,21.841701417848206,-0.820762199242318,0.5675875843878619,0.06475914100469153,-0.5238544027004793,0.8390644603870737,0.1467903133271161,1
110,22.041701417848206,-0.8206259407628346,0.5672210942363877,0.06952190734141153,-0.523382671271008,0.8391668312960736,0.14788376741796755,1
111,22.24170141784821,-0.8215890827946387,0.5656644620057226,0.07081733867098304,-0.5250302015212214,0.8383408633220978,0.14672383710544676,1
112,22.441701417848208,-0.7350792001935446,0.6707521531339016,0.09874268838275471,-0.5400942042438457,0.8291187107773504,0.14443134694764767,1
113,22.641701417848207,-0.6373154132536759,0.7675293177144682,0.06875907560503725,-0.5444252658220505,0.8255725159971502,0.1484289418028864,1
114,22.841701417848206,-0.3067465381771244,0.9319063491391435,0.19353841414691544,-0.5252726069394789,0.8385590932307475,0.1445936912836458,1
115,23.041701417848206,-0.21862834745014115,0.9539213374635481,0.2055133271176733,-0.49444920263314174,0.858054418392436,0.13878977301180756,1
116,23.24170141784821,-0.25249693732343537,0.950343295148603,0.18191458987222606,-0.4713892303367154,0.8717262693610063,0.13373669963215593,1
117,23.441701417848208,-0.3377379049047876,0.9260487903185743,0.16842430210640547,-0.4589465877185649,0.8792689538815943,0.1274917109519373,1
118,23.641701417848207,-0.33234850893566964,0.9321571507895443,0.14362282144616123,-0.4479304133705379,0.8863272959736033,0.11739790964842407,1
119,23.841701417848206,-0.5853694465710051,0.8057336763081208,0.09019896830982047,-0.4468133798657047,0.8876188267890257,0.11176145087935588,1
120,24.041701417848206,-0.6004281197579708,0.7954118537332626,0.0824988238978148,-0.45192113849921156,0.8850106161620013,0.11190841728007483,1
121,24.24170141784821,-0.6057714038784177,0.7913997283353728,0.08202119380909953,-0.45570226050476953,0.8829207056909546,0.11307730644576759,1
122,24.441701417848208,-0.8084809373546475,0.5876684652196538,0.0316914644743216,-0.45341615677851455,0.8836215653813082,0.11673353402209748,1
123,24.641701417848207,-0.8042259014668027,0.5936184642654765,0.028945091000123383,-0.4410379020674718,0.8899395384120986,0.11616017781832058,1
124,24.841701417848206,-0.8025382255712401,0.5961073182827866,0.024258227195525235,-0.43479026987531183,0.8933656201644675,0.1133811709672732,1
125,25.041701417848206,-0.8082034611719907,0.5883203605805377,0.026197684554191494,-0.4414768646530241,0.8897678475134474,0.11580740696269128,1
126,25.24170141784821,-0.8120460983371968,0.5828655000540022,0.02913662681460997,-0.4475380904534005,0.8860710554887452,0.12077972602380478,1
127,25.441701417848208,-0.8133103578030787,0.5806816053724063,0.03653950016562354,-0.4506468598155394,0.8839372840645936,0.1247889641711316,1
128,25.641701417848207,-0.8072080538083982,0.5881168613826268,0.05033602312764139,-0.4482983475909627,0.884071982394276,0.13208073853771354,1
129,25.841701417848206,-0.8106046892084197,0.5834453844486766,0.05011507955553048,-0.4557860415347563,0.8804754731836552,0.13046848456273308,1
130,26.041701417848206,-0.8027180023400255,0.5932851408248185,0.060469417028066484,-0.4510429528835234,0.8822827434147894,0.13467522165040066,1
131,26.24170141784821,-0.6561350735847271,0.745382251977084,0.11786459879682248,-0.44338423597818144,0.8861158243592339,0.13494133950053847,1
132,26.441701417848208,-0.42491996528633386,0.8949670160277592,0.13593036203670672,-0.44606783810519696,0.8845062938022622,0.13664589284842005,1
133,26.641701417848207,-0.4270832795547529,0.8926219316307785,0.14431202131664153,-0.451143538598601,0.8802452610721755,0.14709788557525255,1
134,26.841701417848206,-0.4310801252807052,0.8911192295552416,0.14169136990248968,-0.4588992142471382,0.8755943129727954,0.15081813635321684,1
135,27.041701417848206,-0.42150420602249644,0.8967927749068295,0.13452480507420608,-0.452547107931412,0.8798286741799832,0.14526740581977918,1
136,27.24170141784821,-0.40077569102326444,0.9076904169197586,0.12440640062657422,-0.43042189188515406,0.8924479506845716,0.13518006622617726,1
137,27.441701417848208,-0.1488915243592967,0.9843512678414821,0.09425441885042846,-0.35145987437749954,0.927767572955989,0.1253925327677286,1
138,27.641701417848207,0.33366531524075305,0.8967751289882553,0.29062316740650035,-0.16458830793335116,0.9819611237394871,0.09307545517439227,0
139,27.841701417848206,0.5596271483742605,0.8036487748321327,0.2024008436575935,0.14025932999852792,0.9883267521454329,0.05947731787853672,0
140,28.041701417848206,0.7115353852417793,0.6882680907821417,0.1414370204717927,0.41428481043271037,0.9075924928279466,0.06814662726127348,0
141,28.24170141784821,0.7509810863503807,0.5989780221078563,0.27794376585158825,0.5936521877308746,0.8001112581280873,0.0860177575796769,0
142,28.441701417848208,0.8696692727131731,0.3961444940308773,0.29452486473566364,0.7129690559898154,0.6958399614314775,0.08649782237739764,0
143,28.641701417848207,0.899540545642345,0.34683856617072356,0.2655745013402254,0.7704050678067317,0.635344059740949,0.053046745890721156,0
144,28.841701417848206,0.32776722719721296,0.4163791115545637,0.8480548804390446,0.706816845118924,0.7072890622209566,0.012334095780856478,0
145,29.041701417848206,0.40782051784211254,0.8862322235712923,0.2197154321636842,0.5395768553489712,0.8404383209002748,0.05020205109397746,0
146,29.24170141784821,-0.09861621380477797,0.9132642094475112,-0.39525096599125814,0.24143160027436483,0.9693495187305512,0.045522444198532554,0
147,29.441701417848208,-0.47888773888418285,0.7525248640677363,-0.45207616892093566,-0.22640209300047837,0.9740282054056436,0.003338766129044639,0
148,29.641701417848207,-0.817966218902105,0.349424868076285,-0.4569830700418398,-0.7266230832122287,0.687023363112636,-0.00421823192317779,0
149,29.841701417848206,-0.8973054457444642,-0.08836521631871053,-0.43247488433697073,-0.9619955192158295,0.27112665877158726,0.03248008485244608,0
150,30.041701417848206,-0.777644205942624,-0.44879812919941975,-0.4402836905802522,-0.9841040014877797,-0.1744501725043216,0.03326336677115931,0
151,30.24170141784821,-0.7900420709133896,-0.6087416214856375,0.07257523308898163,-0.8844543871042537,-0.46542248995815433,0.033501387630829944,0
152,30.441701417848208,-0.53505863887921,-0.8378459260254375,0.1082887676691543,-0.799585117183367,-0.5992046189079848,0.040217720698694046,1
153,30.641701417848207,-0.5352809734759492,-0.837769935772686,0.10777668648678018,-0.7667312742447538,-0.6406311621477481,0.04141095483374034,1
154,30.841701417848206,-0.48833782084212346,-0.7074833397629356,0.5108752261492513,-0.7635261884284253,-0.6426737596884413,0.06323130705500404,1
155,31.041701417848206,-0.46489133619324624,-0.7125660053995446,0.5254766726329477,-0.7591304456664767,-0.6427968428653266,0.10263130742899615,1
156,31.24170141784821,-0.49242255363243,-0.6953229876762822,0.5234940032923447,-0.7909061989123636,-0.6036127326550503,0.10059350624518242,1
157,31.441701417848208,-0.8153360228470332,-0.5780362987976896,0.03318444093623905,-0.8314105260674602,-0.5499489910378262,0.07945215164302387,1
158,31.641701417848207,-0.8194388760565042,-0.5729006562291067,0.017457562817075504,-0.8513994643384046,-0.5193731468720134,0.07328360275354677,1
159,31.841701417848206,-0.8330805036203422,-0.5530977931334339,0.007726947560487128,-0.8762920822233063,-0.4778692278424993,0.06126326561615755,0
160,32.04170141784821,-0.9652545283270123,-0.23472795915296774,0.1148324028141873,-0.9062823274233978,-0.41949093963910344,0.05176576630101717,0
161,32.24170141784821,-0.9856199027469058,-0.1294895252698521,0.10856274754522502,-0.9448014756274035,-0.3241524622808506,0.0477006587956875,0
162,32.44170141784821,-0.9543497913804868,0.24368924148314144,0.17271951041324987,-0.98223208355466,-0.1829394697872845,0.04187223936952487,0
163,32.64170141784821,-0.9448736271754833,0.3087321524212923,0.10907926810151378,-0.998169145271543,-0.05243973445893212,0.030140200360223177,0
164,32.84170141784821,-0.9681970068389084,0.2312797838970848,0.09541602333306819,-0.9986967819688142,0.03544066242416445,0.03672461207516159,0
165,33.04170141784821,-0.9499981868823758,0.30173845857918363,0.08035762275264655,-0.9858197399079057,0.1610634194978333,0.0470958098727899,0
166,33.24170141784821,-0.9696019965335807,0.24137606876721013,0.040119343770571504,-0.9545608678012276,0.2948843571404804,0.04309020278918579,1
167,33.44170141784821,-0.9631654504154843,0.2658342663933455,0.040551916564440973,-0.9193594679115761,0.39235297149233117,0.028936387516090584,1
168,33.64170141784821,-0.9742986049580111,0.21466894635580938,0.06826032410822724,-0.9232849650487692,0.38116900838076656,0.04748747587434526,1
169,33.84170141784821,-0.8900190997332563,0.4366148105047199,0.13127646155321174,-0.9339905744824597,0.3544276912277502,0.045195336804714,1
170,34.04170141784821,-0.8904752437126431,0.44042630230942964,0.11436132462048548,-0.9329541177018268,0.35559093864925345,0.05613999121614695,1
171,34.24170141784821,-0.9526731759250808,0.2744342933277089,0.13076558614001402,-0.9259020660763747,0.3728907954640814,0.06047990322136283,1
172,34.44170141784821,-0.9439026781033851,0.2832687739573048,0.16972488317858073,-0.9080557971175974,0.4141844794615987,0.06233687748234789,1
173,34.64170141784821,-0.9533069638592229,0.26344939491662,0.14764907373762004,-0.9125014421116626,0.40230234559230466,0.07412112300192118,1
174,34.84170141784821,-0.9601981133930844,0.241886495508804,0.13968001405652503,-0.9181706935494333,0.38736260429831204,0.08314319153233134,1
175,35.04170141784821,-0.9674620749847672,0.21623542590742387,0.13137493691265464,-0.9271677683287877,0.36513482098956235,0.08388379982532992,1
176,35.24170141784821,-0.9767406739850931,0.18207097163645272,0.11325995351625273,-0.9420003542457878,0.3272282710772257,0.07454522928142529,1
177,35.44170141784821,-0.979077935288908,0.17762720992594955,0.09927220620260273,-0.9467235294228741,0.3153816847960446,0.06518398370999462,1
178,35.64170141784821,-0.9755616733424053,0.19716841322314962,0.09697442102138104,-0.9436171359112758,0.3269772221931469,0.05169716608726725,1
179,35.84170141784821,-0.9761488165995726,0.19656188155768073,0.09217870995928666,-0.9464753481212516,0.3190047914481516,0.04919713845211897,1
180,36.04170141784821,-0.9765227352380333,0.19422422875214937,0.09316810896901576,-0.9490780818458565,0.31116783947369214,0.049248048053343346,1
181,36.24170141784821,-0.9739212544304506,0.20486988024172437,0.0974972940053156,-0.9473024122131881,0.31582577971854736,0.05359306559851311,1
182,36.44170141784821,-0.9726463528045295,0.2092463845139009,0.10087131873782439,-0.9484681948496219,0.31326135873326916,0.047701200019351284,1
183,36.64170141784821,-0.982742752019917,0.14589139288360553,0.1137206438374375,-0.9677781953718877,0.24516312316166594,0.05744917409633017,1
184,36.84170141784821,-0.9204704439327692,-0.1328543069482914,-0.3675376102815878,-0.9811153626957938,0.17961333714892178,0.0717753035558137,1
185,37.04170141784821,-0.9152074492492008,-0.16605201987867968,-0.36718122437426187,-0.9866400110343039,0.1473548277316979,0.06948412315335582,1
186,37.24170141784821,-0.9126674695611107,-0.1594477318480582,-0.3763170349763991,-0.9864421117190246,0.15189966115280276,0.0621164484575175,1
187,37.44170141784821,-0.9733966003931654,0.16019413258424367,0.16381971257638667,-0.9866755135193035,0.15733437329431368,0.04144063225271217,1
188,37.64170141784821,-0.9442951342643882,0.24433673911053552,0.22046826829598695,-0.9867065699693033,0.15637312800919786,0.044244656355673616,1
189,37.84170141784821,-0.9497300131311546,0.2358225123574683,0.20591416858319575,-0.9876577807133284,0.14948547578215132,0.04675682545476126,1
190,38.04170141784821,-0.9799479347135596,0.1262028929955656,0.15419103427300335,-0.9843463511597156,0.17000124273388742,0.04649557427850703,1
191,38.24170141784821,-0.9732166120606041,0.1365801888022599,0.18491965291990628,-0.9781136592624723,0.2013070745781967,0.052622535941787354,1
192,38.441701417848215,-0.9690709273722344,0.1571069099733684,0.19031278611942512,-0.9734341005928794,0.22122997217020496,0.05901992220007195,1
193,38.64170141784821,-0.4667208230664227,0.03272054426067945,0.8837992075689398,-0.9781081605662483,0.1947552002722312,0.0733132880222524,1
194,38.84170141784821,-0.9108556834386679,-0.39102983081822734,0.13205148752568374,-0.9927076332714625,0.06413291050409718,0.10207117435811809,0
195,39.04170141784821,-0.8012717304745017,-0.5980339083515326,0.01786220602804734,-0.9815644308571068,-0.1460820935288918,0.12325295139014193,0
196,39.24170141784821,-0.654548449626076,-0.7545986353642231,-0.04633817646986782,-0.9381881329841241,-0.31873299552795153,0.13495297214045354,1
197,39.441701417848215,-0.6998242546499884,-0.7141588434499424,-0.014938504805666402,-0.906414127177736,-0.4021215744118619,0.12927362238735612,1
198,39.64170141784821,-0.7395799138154676,-0.6730680135696001,-0.001000095084556504,-0.9164308923508274,-0.3865907752369245,0.10345043280131912,1
199,39.84170141784821,-0.7651590362791384,-0.6438216289887977,-0.005035796520057086,-0.9276289472712868,-0.36378747422882796,0.08463574763995683,1
200,40.04170141784821,-0.6935181639723328,-0.6946945418157284,0.19087181513225046,-0.9232414027774829,-0.37461392456858295,0.08537985545074522,1
201,40.24170141784821,-0.6976856338187944,-0.693940856350776,0.1779911353130239,-0.9176408466915464,-0.38660217886102827,0.09205450441519829,1
202,40.441701417848215,-0.7094410140797427,-0.6812663948195016,0.18047034889738986,-0.9203901022628495,-0.3793190623760693,0.09486363146497001,1
203,40.64170141784821,-0.7417809789352678,-0.6459747932224386,0.18021527629771983,-0.9339080735107712,-0.3431285607456556,0.10039173786729234,1
204,40.84170141784821,-0.760879405391851,-0.6233935995065099,0.1801192675558627,-0.9439917267749655,-0.31539973164331264,0.09696715454083195,1
205,41.04170141784821,-0.8179411374809875,-0.5380189151012562,0.20373498131046652,-0.9622887628619985,-0.25200349204571565,0.10244304205893913,1
206,41.15929941618015,-0.9829040373437947,0.03751746900083803,0.1802556320702333,-0.9827545000315421,-0.15769185002085828,0.0965757376609309,1
