,timeStamp,x_gaze,y_gaze,z_gaze,x_head,y_head,z_head,fixations_head
0,0.033366700033366704,-0.9977725413523741,-0.06645864791652487,-0.005762277356448298,-0.990158725295309,-0.09749071399125231,0.1004054749854073,0
1,0.2333667000333667,-0.9660732790389814,-0.21738176958691174,-0.13945460113647584,-0.990083542981631,-0.10998489681194525,0.08739508218547826,0
2,0.43336670003336675,-0.9566572433510299,0.2832882821066676,-0.0674882802052453,-0.993943161813454,-0.07999440689804133,0.07535174815028897,0
3,0.6333667000333668,-0.9199994154497328,0.3849124199852149,-0.07378010919804757,-0.9952419280917846,0.06783834971375781,0.06993899396088601,0
4,0.8333667000333668,-0.9225737161554141,0.3748115273283354,-0.09150987510094334,-0.9784945603650846,0.19611066765992657,0.06394529979535662,0
5,1.0333667000333666,-0.903512365836408,0.4172565992664252,-0.09778719317638011,-0.9517388313650941,0.3013903146305573,0.057940271993659295,0
6,1.2333667000333668,-0.8719637635107126,0.4556334704886147,-0.1791014675951454,-0.905986392014241,0.42081744505689084,0.045840325269452205,0
7,1.4333667000333667,-0.8834311442370127,0.39973667966588405,-0.2444585861077019,-0.855137186777818,0.5176747108126213,0.027446048436670364,0
8,1.6333667000333667,-0.3079041397738637,0.930468703630634,-0.19855234139653158,-0.6952165512770866,0.7183195514048017,0.026286287299624067,0
9,1.8333667000333667,-0.19804579286596213,0.9478820991097832,-0.2495944512911366,-0.42252391219634167,0.9063037487934292,0.00933051688146832,0
10,2.033366700033367,0.14030288741067798,0.95680757958958,-0.25462591271148494,0.0640066505798671,0.9979411995659792,-0.004063359492013687,0
11,2.233366700033367,0.5164213277197217,0.827426052311903,-0.2206244325357917,0.5222198788670691,0.8528107544119446,-0.0004639777943687118,0
12,2.433366700033367,0.7499143318636254,0.6202809212753029,-0.22995667758817895,0.7422848288318079,0.6700834126554269,-0.001205392131540076,0
13,2.633366700033367,0.9549144817067443,0.23472660964743838,-0.18177390173003083,0.8779872402319313,0.4785735331002686,-0.010284911562224636,0
14,2.833366700033367,0.9376231904957907,0.29826752696152986,-0.1786035694065134,0.9151293259901189,0.4030931673736599,0.0073630923898646596,0
15,3.033366700033367,0.9413004608791098,0.28561498363777194,-0.17993755436364736,0.9255522150284975,0.37860399742783224,0.0034799982051631757,0
16,3.233366700033367,0.9562183113150841,0.24249800506743577,-0.16383302061563662,0.9365020188405155,0.35066103371573737,0.0008989666564493719,0
17,3.433366700033367,0.7707861662552814,0.6287882764597066,-0.10253774571501441,0.886690844881521,0.46222402284104086,-0.011326884476294076,0
18,3.633366700033367,0.05216468733071422,0.9939825172672733,-0.09632030296206301,0.5311363332537509,0.8451919347265198,-0.05953813039559527,0
19,3.833366700033367,-0.28827974501040127,0.9432806370638125,-0.1646706663532574,-0.18512584607860738,0.9826187769529898,-0.013739006262838967,0
20,4.033366700033366,-0.9490568393802097,0.2574390923837519,-0.1817036855385088,-0.796648989799527,0.6043502799476572,0.010541640222550688,0
21,4.233366700033367,-0.96339856000293,0.20765482717003542,-0.16953668434077634,-0.9670470631394115,0.25341761852602523,0.024484450045636205,0
22,4.433366700033367,-0.9515762200292851,0.27416418844353085,-0.13905644627228866,-0.9589757125764635,0.28212159983502716,0.027802618491588667,0
23,4.633366700033367,-0.9320196630147668,0.34050961142720126,-0.12406672511006878,-0.9342326156809525,0.35572480483673097,0.025870504861635585,1
24,4.833366700033367,-0.9108700973270607,0.39612439731542426,-0.11576323961812247,-0.9013198422586409,0.43248778102669366,0.024017935245670627,1
25,5.033366700033366,-0.9120975947992442,0.3959449238580774,-0.10632777074901456,-0.8903457611316674,0.4545265640063062,0.02626838874946968,1
26,5.233366700033367,-0.9283279538252353,0.35588825041635563,-0.10747447772488698,-0.9023150513745354,0.4305687212542805,0.020931419933290885,1
27,5.433366700033367,-0.9385866676947334,0.32880371368977634,-0.1046096797122894,-0.9112881974641246,0.4110604315148542,0.02414834995209255,1
28,5.633366700033367,-0.9404978115495628,0.3243814745969377,-0.10119548116788354,-0.9122891968142807,0.40849082874892323,0.029388164351870347,1
29,5.833366700033367,-0.9271635480042724,0.35717981866548,-0.11309435171671631,-0.8947617556662629,0.4461967317567605,0.017603328282248795,1
30,6.033366700033366,-0.9191265666500704,0.3823010112640659,-0.09514352980905472,-0.8329767836743426,0.5531479567615168,0.013304728110964824,0
31,6.233366700033367,-0.25718326839969136,0.946235351732845,-0.19620251167167035,-0.6419012883976117,0.766365179933582,-0.025439082901214077,0
32,6.433366700033367,-0.08366589905969057,0.9492035880379545,-0.3033357311468712,-0.3850553959831866,0.9214353615434928,-0.05185765634353518,0
33,6.633366700033367,0.1142639407501358,0.9639831452688523,-0.240167124065348,-0.1992259857225427,0.9773469188153499,-0.0714283339790538,0
34,6.833366700033367,0.15684248159366004,0.9556516424753175,-0.24925965217373255,-0.07996787236577246,0.994436967912684,-0.06855841478563475,0
35,7.033366700033366,0.3581356544979614,0.9233114711806211,-0.13868950992628798,0.06503264313522661,0.996712998833798,-0.04831100581217478,0
36,7.233366700033367,0.4709948406502081,0.8760874939677693,-0.103124017542756,0.21999623325020373,0.9754957424497905,-0.0031166998659515805,0
37,7.433366700033367,0.38359024644964934,0.9090856234846261,-0.16254799907186182,0.29358034888527806,0.95583448073103,0.013821150243049724,0
38,7.633366700033367,0.36409154711463215,0.9185495900372955,-0.15396102091760225,0.2864259678412285,0.957265749803404,0.04003060328726694,0
39,7.833366700033367,0.3486184866722732,0.9148804407007404,-0.20361466050742444,0.2718158168442301,0.9623233719670697,-0.007063248490083272,0
40,8.033366700033367,0.38295677262042627,0.8998032645538779,-0.2090411332784319,0.30327762492694554,0.9527063298131101,-0.019321784407875634,0
41,8.233366700033368,0.6751710952792146,0.717064837535035,-0.1730953808462828,0.4114004729809596,0.9104737189232108,-0.042275974041770775,0
42,8.433366700033368,0.7030602078132994,0.689886537376707,-0.17251930250235142,0.5000350142103761,0.8651268086075968,-0.03899473800481167,0
43,8.633366700033367,0.6242273230566651,0.7301601164183691,-0.27786049294821347,0.5442381847645559,0.8376654294322569,-0.046058946777512946,0
44,8.833366700033368,0.6482214273252042,0.7156518691072977,-0.26009879545993,0.5849052602563238,0.8107115068356234,-0.02515331407181733,0
45,9.033366700033367,0.810114477728278,0.4592109301555826,-0.3644720216980779,0.6810602792803204,0.7303671562450724,-0.052160454993205235,0
46,9.233366700033368,0.8087707768416035,0.34361119669039397,-0.47730616593128655,0.8367711943209113,0.527651550280332,-0.14627990238415478,0
47,9.433366700033368,0.8675756554551135,0.15497451819958294,-0.47254140640840975,0.9000660354936113,0.3830765100744982,-0.20768610733497916,0
48,9.633366700033369,0.8639901418801172,0.17657683414887046,-0.47153118282456885,0.9008774289038916,0.37930766839140395,-0.21105816921169054,0
49,9.833366700033368,0.8727004661174858,0.19076243700303244,-0.4494480938517679,0.8958967610832873,0.3996478587537989,-0.19403758005597632,0
50,10.033366700033367,0.8615267494188381,0.16299644399772817,-0.4808365827179814,0.8991758298893642,0.3735814583137177,-0.2278589935617411,0
51,10.233366700033368,0.9411092797643987,-0.050927794809016616,-0.3342449449987621,0.9186281977093289,0.32862192969267273,-0.21938519024395042,0
52,10.433366700033368,0.9440914104551316,-0.13510942175572724,-0.30072720671344905,0.9519064704082368,0.2245625903951917,-0.2084363562095975,0
53,10.633366700033369,0.9723632330911888,-0.15660107972768977,-0.17316421327910841,0.9815294667155852,0.0964774673020311,-0.1652029184730231,0
54,10.833366700033368,0.9761958931316888,-0.18055563150436152,-0.12017171948876469,0.9941645178277074,0.023154065977589615,-0.10536033751420674,1
55,11.033366700033367,0.9858709888138594,-0.13180586106073813,-0.10337121652191594,0.9950296335904439,0.04612283132394901,-0.08825368381846597,1
56,11.233366700033368,0.968747110532775,-0.23204024365413803,0.08767189492264918,0.9986746837748127,0.033766011476755155,-0.03884240538676386,1
57,11.433366700033368,0.9603681374102202,-0.25123423721422394,0.12072447431490978,0.9998624205048057,0.016213101904872473,-0.003503625107414659,1
58,11.633366700033369,0.9570805605861712,-0.2587457395458728,0.13056585623707231,0.9998540873268468,0.005011088366313001,0.016330739394868184,1
59,11.833366700033368,0.9847797021619267,-0.02699762525891921,-0.17169760173120166,0.9994542281642633,0.03303311305846436,-0.0002434055128888857,1
60,12.033366700033367,0.985820448119723,-0.028311857820923127,-0.16539795275563754,0.9983218534948974,0.05788986543122437,0.0014967681407387966,1
61,12.233366700033368,0.9650224335433948,-0.22890817412802478,-0.12779965013785607,0.9978843267894907,0.06485319228243512,0.004575346835240526,1
62,12.433366700033368,0.9563801392973799,-0.26179245987314176,-0.12962151484647064,0.999506854598064,0.03086819051243539,-0.005762154629375007,1
63,12.633366700033369,0.9931663466365468,0.03180094333883236,-0.11229117468160593,0.9996044757075998,0.02387591244522126,-0.01486044919384544,1
64,12.833366700033368,0.9560655503023295,0.27384128713485517,-0.10464039843879352,0.995429545514734,0.09263628434890048,-0.02320643743360715,1
65,13.033366700033367,0.8153857431306456,0.4219669060401846,-0.39634583397098955,0.976963294586959,0.210993149433383,-0.03200955985291118,0
66,13.233366700033368,0.7358975985853573,0.47418677894512545,-0.4833235180186784,0.9300216690199838,0.3413444665464576,-0.13617507228343195,0
67,13.433366700033368,0.7321797159853888,0.4704625136115917,-0.4925219657901751,0.881697122141941,0.4332940389719911,-0.1867256291941676,1
68,13.633366700033369,0.6604729585048115,0.7043211289926556,-0.2602061074195082,0.8626692004338664,0.4812602928670095,-0.1555325725767896,1
69,13.833366700033368,0.6572973363069717,0.7333868890930352,-0.17350470480710284,0.8533982321544835,0.5029551371023279,-0.136921829588933,1
70,14.033366700033367,0.6524560222341361,0.7496420399549061,-0.11107632953359362,0.8463492984796952,0.5208206801018519,-0.11152884891888923,1
71,14.233366700033368,0.7183957392744182,0.6906761638917984,-0.08290957980880065,0.8363754941284532,0.5410238272069298,-0.08814335604997162,1
72,14.433366700033368,0.916920850001131,0.3915020248140955,-0.07734545493865162,0.8507650753473446,0.5206654670503816,-0.07145808554974678,1
73,14.633366700033369,0.9407785087215127,0.33151111466672334,-0.07096603680743029,0.8661997310894413,0.49599796076148733,-0.06069636546800748,1
74,14.833366700033368,0.964357392467312,0.25854419351201924,-0.05630026283123398,0.8972508554427188,0.43867531581045444,-0.05004867336810963,1
75,15.033366700033367,0.9636474675144733,0.2645243541708608,-0.037555617468380674,0.9121751322101803,0.40803604037947705,-0.037988392026747114,1
76,15.233366700033368,0.6068219712505364,0.7871263858851473,-0.11044975260723576,0.8026391176806768,0.5957403622745269,-0.02939162339511166,0
77,15.433366700033368,0.29506511736059204,0.9427740408918173,-0.15528581499124303,0.47823714513332677,0.8782282753992374,0.002080697961371903,0
78,15.633366700033369,-0.023579588553785003,0.9780507702512756,-0.20702824400192596,0.10836320104743657,0.9940881515837019,0.006794375589554173,0
79,15.833366700033368,-0.6273165846897605,0.7543331443189027,-0.1935340020645772,-0.37812560143757185,0.9257540195405023,0.000724459852814677,0
80,16.033366700033366,-0.9554021628247414,0.23160774254478217,-0.1832063341238953,-0.7867645398154353,0.6170074299657334,-0.017418101391566913,0
81,16.233366700033365,-0.9597415562270347,0.24082091981507592,-0.14457326803503692,-0.9021598718293152,0.4311424140193281,-0.014959428281184484,1
82,16.433366700033368,-0.9524453370657894,0.28521139483904573,-0.10724896342436512,-0.8912728771196282,0.45337846560686645,-0.008979166713207136,1
83,16.633366700033367,-0.9502336654168531,0.2983704068746138,-0.08961630102793883,-0.8854715247898541,0.4646333012486165,-0.007488267966839579,1
84,16.833366700033366,-0.9528479038488785,0.29688617896905545,-0.0627651883447546,-0.8853949870729811,0.46455516176809636,0.01625480054178651,1
85,17.033366700033366,-0.9477761123000237,0.31360157298891866,-0.058090398280002786,-0.8761660835646117,0.48151593436768075,0.02180364559126573,1
86,17.233366700033365,-0.9527827234901286,0.2995166210272649,-0.049948729184468965,-0.8821344656557734,0.4698075789642426,0.03346077180760375,1
87,17.433366700033368,-0.9517028667612258,0.30183026226237375,-0.05621517749763877,-0.8808519933989547,0.47228124220414236,0.032406696641287654,1
88,17.633366700033367,-0.9529177897312235,0.2976784447312195,-0.05775144635558549,-0.8828098389455425,0.46855310099004527,0.03323822819522634,1
89,17.833366700033366,-0.9560401213815612,0.285196752274476,-0.06819163292385133,-0.8891901905354329,0.4567687346335029,0.026516563066686878,1
90,18.033366700033366,-0.9502697304985388,0.30412107076693834,-0.06706574098453899,-0.8797300035589386,0.4745039081765508,0.03035065013091956,1
91,18.233366700033365,-0.9431237914380864,0.3249693468225764,-0.07008878404678658,-0.8687876510211145,0.49432790212153604,0.029119454276059595,1
92,18.433366700033368,-0.9360952821132995,0.34289396365139396,-0.07841780726760335,-0.8567859894584707,0.515230145758268,0.021346315128931696,1
93,18.633366700033367,-0.9279729852565983,0.3595283058373667,-0.09800783609319386,-0.8447347475356862,0.5351829124089338,0.0015673453073314272,1
94,18.833366700033366,-0.9259802048844864,0.36120680569657754,-0.10995591698748854,-0.8400571743875249,0.542343878530573,-0.012925214909737909,1
95,19.033366700033366,-0.9155541189600294,0.38594847064516896,-0.11315667572874184,-0.8203700138113622,0.5716375422839092,-0.014951946052523096,1
96,19.23336670003337,-0.7916582909467605,0.58406313441753,-0.17929697540567918,-0.7803315820400762,0.624729596425498,-0.028205556560128534,0
97,19.433366700033368,-0.2534348652128605,0.9594284398927532,-0.12356309246493034,-0.664926175472047,0.7460205097084879,-0.036422249606587756,0
98,19.633366700033367,-0.11748276188201756,0.9888925313738258,-0.09104593375675991,-0.45228972833168885,0.8913414749075393,-0.03073071355011839,0
99,19.833366700033366,-0.056663504233724904,0.9952703879268335,-0.07890565381469972,-0.3210867457945704,0.9470315832609513,-0.0058721360090649675,0
100,20.033366700033366,-0.03085425660364227,0.9943684333507549,-0.10138754166564136,-0.2583020024657652,0.9660564234110802,-0.003881018985713078,0
101,20.23336670003337,0.2562292827482211,0.9590890059672079,-0.12039449030236064,-0.13030094384654728,0.991345964036467,-0.015963822264961656,0
102,20.433366700033368,0.28838445361718396,0.9463209282964768,-0.1459832441755323,0.08708639250117439,0.9960792356372828,-0.015560095545275614,0
103,20.633366700033367,0.5603681031656428,0.811274433531791,-0.16679742939329564,0.3176262548960778,0.9481413842388526,-0.01189443963893729,0
104,20.833366700033366,0.6177627083499178,0.7577228168380455,-0.21029828581135046,0.5013385387010443,0.8648740070311509,-0.02554645914765062,0
105,21.033366700033366,0.8408578152462327,0.5070383402910451,-0.1893944455738737,0.6693360815451453,0.7429597633396945,1.2677404807064314e-07,0
106,21.23336670003337,0.9239470897546768,0.37810673707465703,-0.057940233971047674,0.8075230414413573,0.586979911828655,0.057975172711465614,0
107,21.433366700033368,0.9041331167006095,0.42674285894218056,0.020828817227497725,0.8891903775077085,0.4369542289184608,0.13568888818901978,0
108,21.633366700033367,0.826317034511503,0.5611971905533596,0.04751706841895818,0.902690282347502,0.4125679853680211,0.12222074948534563,0
109,21.833366700033366,0.7950574522290381,0.6025253431088328,0.06961938355554766,0.8865584627104929,0.45152128034230077,0.10071060318783417,0
110,22.033366700033366,0.5486663264625127,0.814159442694787,-0.19002543007988534,0.8548533659419286,0.5170088255973928,0.04390440743433243,0
111,22.23336670003337,0.4713047843294227,0.8474873352787975,-0.24420691392800456,0.7937390481635375,0.6074494404909058,-0.03136081420702638,0
112,22.433366700033368,0.5827469356522571,0.7168261749837584,-0.38283971038289466,0.7609700961626196,0.6284252945367762,-0.16126426117593315,0
113,22.633366700033367,0.8293129403921792,0.3157859553201086,-0.4609981315804269,0.8387695515738043,0.5070991064070995,-0.19828296859236494,0
114,22.833366700033366,0.8115416708698687,0.3529799009970293,-0.4656235667724186,0.8722008421014791,0.44816878334321675,-0.19598579712349548,0
115,23.033366700033366,0.3512223974732397,0.913961443893329,-0.20326658994918742,0.6665882296212473,0.7224133707094612,-0.18379078853578562,0
116,23.23336670003337,0.12286896759698723,0.9777020094042229,-0.17029972873905394,0.21129421532204024,0.9650602936117778,-0.1549625253582057,0
117,23.433366700033368,-0.8269781195624364,0.5505608464244445,-0.11397343615674721,-0.48223783053485403,0.8677726635620988,-0.12007197497908466,0
118,23.633366700033367,-0.9391500142167628,0.2999300148925955,-0.16744920711422218,-0.8242214621949912,0.5609821137538799,-0.07718840136561866,0
119,23.833366700033366,-0.9659644522133031,0.19724805738684015,-0.1673495769859345,-0.9165621884614049,0.3935464173145106,-0.0709575373146028,0
120,24.033366700033366,-0.9422816475408418,0.26385208112595493,-0.20612466129315846,-0.9195345666942757,0.3836659681607372,-0.08518571200415463,0
121,24.23336670003337,-0.9166457541480216,0.30942398367603774,-0.2530165206630905,-0.8868487611573189,0.4517967272336097,-0.09684519654958881,0
122,24.433366700033368,-0.9916518432957395,0.1218360123907928,-0.042220939980922655,-0.9049972152158438,0.4154077716032499,-0.09174106901050268,0
123,24.633366700033367,-0.9973804827608672,-0.06783278885239968,0.025117431481057852,-0.9701798242951921,0.23430604761139628,-0.06206274714574224,0
124,24.833366700033366,-0.9880025552328513,-0.13231172054078333,0.07965274295901312,-0.9951841422106757,0.07861491799271746,-0.05855098429061939,1
125,25.033366700033366,-0.9946748369167249,-0.018372021850778818,0.10141221631441584,-0.9992730722141685,-0.008537348492122218,-0.03715428411881495,1
126,25.23336670003337,-0.9952971714343088,0.009491527251039982,0.09640254895648445,-0.999805390725329,-0.008341845639044453,-0.017877200225620258,1
127,25.433366700033368,-0.9929047982052275,0.059985734673213574,0.10267313834080838,-0.9995512926412582,0.02995161040107545,0.00033825075373792544,1
128,25.633366700033367,-0.9947456438704656,0.04374164734818323,0.09256226168368811,-0.9999314678680762,0.011643775992120317,0.0012173938721082886,1
129,25.833366700033366,-0.9968346498369461,0.023607963894154965,0.07591669727553285,-0.9999271583884888,-0.011798539682558366,-0.002544086964244401,1
130,26.033366700033366,-0.9974891197183202,0.026774780592028723,0.06556345908979591,-0.9997983978538204,-0.019721690536780065,-0.003770752087522018,1
131,26.23336670003337,-0.9886674587256039,-0.10941848889101599,0.1027825391098274,-0.9998799290235567,-0.013110178913811993,0.008261400891788818,1
132,26.433366700033368,-0.9866540527167186,-0.13045016822361769,0.09745016094447806,-0.9994519783439451,-0.03234516697053128,0.007037979683347145,1
133,26.633366700033367,-0.986316830991681,-0.13640356683521546,0.09259144591785493,-0.9986358557302234,-0.05196190486535146,0.005136934176013917,1
134,26.833366700033366,-0.8964757247584298,-0.4354739987050403,-0.0818148603292258,-0.9947986077280985,-0.10172455367484355,-0.005276859093301331,0
135,27.033366700033366,-0.9970060864804698,-0.07668923833667939,-0.009880498177635678,-0.9974395055296046,-0.07118180203887067,-0.00689810607033724,0
136,27.23336670003337,-0.9422850575094808,0.31307732314867404,-0.1186653282320288,-0.9998072989139996,-0.015119566256415796,-0.012520533315744155,0
137,27.433366700033368,-0.948410701583148,0.29336189506346494,-0.12023285593935555,-0.9995803939885854,-0.02527698806250176,-0.014146018100961366,0
138,27.633366700033367,-0.8262349147222778,-0.5543122556181902,-0.10036826672482065,-0.971317651143191,-0.23725959971308988,-0.01580831811607315,0
139,27.833366700033366,-0.7234801977843155,-0.6813244439186885,-0.11123581047872014,-0.9287360980802248,-0.3703730507583714,-0.016524629940053617,0
140,28.033366700033366,-0.6174918884066872,-0.7758628666538866,-0.12938539291418077,-0.8705400682691046,-0.49078170178984676,-0.03596262957967286,0
141,28.23336670003337,-0.39008850634327785,-0.9143868632752292,-0.10829414337145893,-0.7928083629530243,-0.6078663400405406,-0.044197423878138804,0
142,28.433366700033368,-0.3862662128520039,-0.9167520628316653,-0.10180406722158443,-0.7157622577601775,-0.6961433256528515,-0.055397297001218766,0
143,28.633366700033367,-0.3639507315791502,-0.9260544815055319,-0.09981463954010834,-0.6684658183823144,-0.7417518958135654,-0.05438358862234413,0
144,28.833366700033366,-0.3625546122261873,-0.9273551071041765,-0.09255624496121503,-0.651896676877673,-0.756824205892924,-0.04741143375169595,0
145,29.033366700033366,-0.8149747331782522,-0.5769013561045796,-0.054781471372480905,-0.6833508720901045,-0.7291160105424862,-0.03770184059569429,0
146,29.23336670003337,-0.9278414515262674,-0.36914979966538425,-0.053279135096545804,-0.7459414293635853,-0.6657102955990467,-0.020029635354669683,0
147,29.433366700033368,-0.9271913266853081,-0.3688343470574057,-0.06540235584652516,-0.8187378514774704,-0.5741175070979199,-0.007577506299949098,1
148,29.633366700033367,-0.9378912853650209,-0.3409008492859026,-0.06439369373238206,-0.8568986817494517,-0.5154263902419666,-0.007764371074848854,1
149,29.833366700033366,-0.9372777530144383,-0.34309028616323417,-0.0616398348848841,-0.8698232861623708,-0.49327917908911073,-0.009116047765739878,1
150,30.033366700033366,-0.9297908543710071,-0.3627837402725787,-0.062264957414833955,-0.8690374547346758,-0.4946452969427312,-0.009996623465632293,1
151,30.23336670003337,-0.9251114403011645,-0.3736217305714514,-0.06764336973198931,-0.869817012175883,-0.49304577133531174,-0.018006462667262343,1
152,30.433366700033368,-0.9233127635090694,-0.37849133839697124,-0.06509875190596877,-0.8715880535680185,-0.4898944129254604,-0.018377406289564455,1
153,30.633366700033367,-0.9260967354576326,-0.37128443993346655,-0.0670276154880054,-0.8796598321018619,-0.47520135818256554,-0.019551188402997466,1
154,30.833366700033366,-0.9288241588154229,-0.36354176678954825,-0.07157559500525491,-0.8874377070431195,-0.46031300413217247,-0.02379609936239955,1
155,31.033366700033366,-0.9301241890397861,-0.36098215003449063,-0.0675342899537491,-0.892800155062628,-0.44998056710533696,-0.020624556909346194,1
156,31.23336670003337,-0.9313030382247179,-0.3587337794605444,-0.06312468983973907,-0.8976410426593392,-0.4404238694786241,-0.016351566497742977,1
157,31.433366700033368,-0.9307195169442052,-0.36033841488298973,-0.06258919666172244,-0.8993938989772682,-0.4369836887918696,-0.011656337860516106,1
158,31.633366700033367,-0.9311710778191081,-0.35833073917175146,-0.06722726528594382,-0.9025986429984,-0.4302572885857441,-0.01394113611908648,1
159,31.833366700033366,-0.9307194354155346,-0.35688693996734916,-0.07995651706103082,-0.9053786227647459,-0.4238913138345773,-0.024611044191744463,1
160,32.03336670003337,-0.9314477860205607,-0.35282401699350324,-0.08899570186230414,-0.909219519197439,-0.4150998448859508,-0.03181170674511484,1
161,32.23336670003337,-0.9954451548816285,-0.046262356206762646,-0.0833590908113159,-0.9104746046235523,-0.4120056535369925,-0.03587946194053415,1
162,32.43336670003337,-0.9953314432418268,-0.04880637856892952,-0.08326617263408422,-0.9115638676917314,-0.4094717258430742,-0.03720511865303054,1
163,32.63336670003337,-0.9944726756216995,-0.05932832400553004,-0.08662705935510703,-0.9150778261770341,-0.401777429552242,-0.03474865668636805,1
164,32.83336670003337,-0.8991267128622894,-0.4233489071922631,-0.11111641191368075,-0.9128256566622861,-0.40615525010150116,-0.042275682774532614,1
165,33.03336670003337,-0.8981967230395023,-0.4251383602494838,-0.11180349442428153,-0.9127660458325212,-0.40592401993011784,-0.04564904839137051,1
166,33.23336670003337,-0.9518442018164528,-0.27369009333373445,-0.13815335059046338,-0.9104517396978622,-0.41079469813869945,-0.04822183802252736,1
167,33.43336670003337,-0.9525493260016122,-0.27082400179242394,-0.1389393449927402,-0.9118393332619587,-0.40766878348887453,-0.04853033365935261,1
168,33.63336670003337,-0.8966004752352805,-0.4298274843190589,-0.10656416626529902,-0.9144811597190962,-0.40095104681499244,-0.05442854560595286,1
169,33.83336670003337,-0.8972544345661827,-0.4288566858506806,-0.10495914754079735,-0.9172434035916676,-0.3943079771876516,-0.05644251672060583,1
170,34.03336670003337,-0.8939258505560371,-0.43493566274397155,-0.10829378089774158,-0.9169539851503763,-0.3941024597434163,-0.0622787310486711,1
171,34.23336670003337,-0.8894727816419922,-0.4441700950114663,-0.1074760318190154,-0.9147952977742841,-0.3990344384788756,-0.0626185282317267,1
172,34.43336670003337,-0.8813894255795701,-0.4569120726938058,-0.11993347448967669,-0.9110084689463428,-0.4080639264613343,-0.059560065723598093,1
173,34.63336670003337,-0.8716186672581185,-0.47328413383109913,-0.12760496679568442,-0.9046511768589087,-0.4230435451936052,-0.05138489153260296,1
174,34.83336670003337,-0.8597344810069094,-0.4931178388400527,-0.13300909437138678,-0.8955376676322023,-0.4424901757252933,-0.04706092050177403,1
175,35.03336670003337,-0.8584257304914705,-0.49438689784281564,-0.13669989199535865,-0.8960047634645805,-0.4412465290889346,-0.04976911106047251,1
176,35.23336670003337,-0.8591885948761768,-0.4925046263450819,-0.13868724333330953,-0.8991325731310189,-0.43471793267558234,-0.05080290291962735,1
177,35.43336670003337,-0.9388795613334857,-0.17174274992043853,-0.2983447622466449,-0.9023529173590565,-0.42737196606839917,-0.055789023583774175,1
178,35.63336670003337,-0.94548210329457,-0.14240267527285028,-0.29289088484418835,-0.9100641193668215,-0.4111667659124423,-0.052203345201192436,1
179,35.83336670003337,-0.8145103024286615,-0.5427535979768418,-0.204918274247963,-0.9196555850534491,-0.3887878531704976,-0.055476212082961544,1
180,36.03336670003337,-0.8183392606019989,-0.535352864947245,-0.20908889150347293,-0.9231071821139455,-0.38003736719005976,-0.058691821141443064,1
181,36.23336670003337,-0.8249514683721033,-0.5223909596307673,-0.21578405901909606,-0.9258076390855642,-0.3727672882967584,-0.06264793840738168,1
182,36.43336670003337,-0.8730166747942809,-0.39258404531629393,-0.28934348600621934,-0.9338994545975268,-0.3509213938356681,-0.0684542478658142,1
183,36.63336670003337,-0.9886110474211044,0.040735123189221636,-0.14487527965704103,-0.9438784501258909,-0.32127658686238114,-0.0766474143204133,1
184,36.83336670003337,-0.9859870442168897,0.08165708590565378,-0.1454705088938572,-0.9562120017347182,-0.28081661650271716,-0.08246596652225327,0
185,37.03336670003337,-0.9847608174437121,0.09555449201667933,-0.1453116357454769,-0.9680659922724534,-0.2378648219107041,-0.0791742451996837,0
186,37.23336670003337,-0.9820547926196517,0.12122235586050735,-0.14447672730374753,-0.9787758111290322,-0.1895465621953465,-0.0779102837155067,0
187,37.43336670003337,-0.9316933676183525,-0.18807515336008562,-0.3107655151791361,-0.986646721961532,-0.14076101739810667,-0.08194255319193798,1
188,37.63336670003337,-0.9465749434855878,0.04451029173165785,-0.31939741748364125,-0.9920839077519374,-0.09267736960366403,-0.08473738928590893,1
189,37.83336670003337,-0.9449704401106048,0.08078050032224889,-0.31702583188891276,-0.9941478120710477,-0.06318347284333102,-0.0876240635545101,1
190,38.03336670003337,-0.9404660380705402,0.1066091366409205,-0.3227353764627904,-0.9948668131702783,-0.0307459640330514,-0.09640907502975737,1
191,38.23336670003337,-0.9418514850970314,0.12568327427067233,-0.31164000800461994,-0.994958295445895,-0.004400396886125427,-0.1001929480085494,1
192,38.433366700033375,-0.9432936522979933,0.14096368789248004,-0.300543381610815,-0.9941681959870692,0.014912435976182345,-0.10680457546881097,1
193,38.63336670003337,-0.9474333234895735,0.14361105010623126,-0.285912510794626,-0.9936231237605564,0.020840956123224064,-0.11080948730223661,1
194,38.83336670003337,-0.9522251317795727,0.13954541830726244,-0.2716512003228152,-0.9936994681101817,0.02094207032601729,-0.11010357291206263,1
195,39.03336670003337,-0.9582196119315428,0.08899166221710343,-0.27183756062325315,-0.9937830900451721,0.022269463985062053,-0.10908364182629533,1
196,39.23336670003337,-0.96089747661558,0.08645032410679805,-0.26306345412398174,-0.9935266853848007,0.028549102439735848,-0.10995305442859195,1
197,39.433366700033375,-0.9615811345695482,0.08338347434976025,-0.2615509851736434,-0.9935038811361007,0.029358943104026664,-0.1099458531610886,1
198,39.63336670003337,-0.9605318610835188,0.0875226889629941,-0.2640422745700369,-0.9928888377555495,0.035793002411818306,-0.11353685233782601,1
199,39.83336670003337,-0.9602512066106432,0.08686959433184512,-0.2652758824006137,-0.9925524032732463,0.037205535051971286,-0.1159977366934356,1
200,40.03336670003337,-0.9601469826115098,0.08716686173876236,-0.2655554744241388,-0.9922355729846619,0.039824727434462,-0.11782427079583546,1
201,40.23336670003337,-0.961709001399424,0.0841936140962969,-0.26082030590566946,-0.9927576838917883,0.03849311513711441,-0.1138000929738333,1
202,40.433366700033375,-0.9627889543505472,0.07834867960312529,-0.25864824334417447,-0.993150636727157,0.032868556217375465,-0.11212257034436941,1
203,40.63336670003337,-0.9635513859173435,0.06933593196903273,-0.25838199479598495,-0.9935002180806258,0.023619916577652916,-0.11135266595198268,1
204,40.83336670003337,-0.9323257340673845,0.036037698516230766,-0.35981941287452274,-0.9933213287220334,0.020438121764124736,-0.11355624634800937,1
205,41.03336670003337,-0.9181182764619129,0.02190920579722973,-0.39570041335326106,-0.9929544032681115,0.020672192037819528,-0.11667996189072177,1
206,41.23336670003337,-0.9211254209479826,0.03267140963328094,-0.38789243080521235,-0.9920628412100019,0.024888997515011623,-0.12325525097551387,1
207,41.433366700033375,-0.9298034327017126,0.03480893603147077,-0.3664067610026722,-0.9920797697389173,0.025631861442900663,-0.12296641067278959,1
208,41.63336670003337,-0.9348419419406909,0.03473756754198601,-0.35336078586881153,-0.9918449944023372,0.02588581700794373,-0.12479355575052387,1
209,41.83336670003337,-0.9369971504635946,0.030715268484115456,-0.3479840690391627,-0.9916413302601995,0.02176408767949568,-0.12717624230673436,1
210,42.03336670003337,-0.9838148121874057,0.0015972965582861732,-0.17918109265311696,-0.991704860808517,0.019774925228980566,-0.12700559586470184,1
211,42.23336670003337,-0.982788951596673,0.015788943528788613,-0.18405593139520665,-0.9916968974102415,0.020872982923862714,-0.1268920101927651,1
212,42.433366700033375,-0.9633159677037979,0.19513317461652793,-0.1842427489237264,-0.9914040436874496,0.044904409567454256,-0.12288863316667019,1
213,42.63336670003337,-0.946503215500724,0.3008065498179339,-0.11682072861192641,-0.9879852888354291,0.11263388352244467,-0.1058238032175466,1
214,42.83336670003337,-0.9488515782088639,0.2956940873954724,-0.11066024222776244,-0.9774354609272575,0.2001909281806057,-0.06740557837529247,1
215,43.03336670003337,-0.9570342234523037,0.2821330996046752,-0.06698066324324467,-0.9698265730642361,0.2432697191206488,-0.016008183452257258,1
216,43.23336670003337,-0.960801943649104,0.27607825694352883,-0.02530654308922295,-0.9674510360310457,0.24754545818243953,0.052533218211931784,1
217,43.433366700033375,-0.9658745973603142,0.2563043860771992,-0.037340646106367316,-0.9731141518821236,0.22115223633705314,0.06434699503361241,1
218,43.63336670003337,-0.9616025073208383,0.2654006615038008,-0.0698792300159521,-0.9740028092080991,0.22096572519881155,0.04992670570040453,1
219,43.83336670003337,-0.9601414771040717,0.2655479382744126,-0.08725042362430138,-0.9766909182606017,0.21042299326461755,0.04239120301220288,1
220,44.03336670003337,-0.9530668402962263,0.2914415486481172,-0.08200866813547746,-0.9715968514761655,0.2303907139073716,0.0540340369290876,1
221,44.23336670003337,-0.9396453581106305,0.32933952418808654,-0.09274739235530947,-0.9603329962371268,0.2741743016383383,0.05088210549252116,1
222,44.433366700033375,-0.922274920554249,0.37385834999896045,-0.09817792548586855,-0.9437246807081424,0.3271039374227167,0.04885428481586862,1
223,44.63336670003337,-0.9581481717104966,0.25759289611597086,-0.12489187691126825,-0.9433613851945085,0.3291417625949315,0.04165329566553424,1
224,44.83336670003337,-0.9650448833855276,0.22842584943275082,-0.12849126181316797,-0.9529425906795606,0.3009281632858213,0.03664231720769972,1
225,45.03336670003337,-0.9867785192319947,0.04808912141739058,-0.15477593606118262,-0.9642838342399379,0.2628927279722566,0.03231254559500144,1
226,45.23336670003337,-0.9855699642803857,0.03931329015772758,-0.16463994267896853,-0.9704811347131398,0.23955601625862885,0.027915627168181023,1
227,45.433366700033375,-0.9847734358295014,0.045623391955181294,-0.16774917642439588,-0.9703920085549431,0.2405885192889023,0.02136619102874325,1
228,45.63336670003337,-0.9851670773156087,0.044334625876636787,-0.1657717428327287,-0.9725937402763769,0.23167453665733573,0.019705974723834792,1
229,45.83336670003337,-0.9854001165070285,0.051533430145552755,-0.16226803741146265,-0.971990691670302,0.2341575100374903,0.020108600133533973,1
230,46.03336670003337,-0.985062961337542,0.058923918250148304,-0.1617990545675783,-0.9710921927353641,0.2381026470631756,0.016943514096305276,1
231,46.23336670003337,-0.9846277730058013,0.06195403398612923,-0.16330905148975006,-0.9706239181054976,0.24031529258365583,0.011737536026131161,1
232,46.433366700033375,-0.984368595568398,0.0620400222854218,-0.16483174358576785,-0.9708890364542461,0.2394099101061417,0.0075745518623073025,1
233,46.63336670003337,-0.98384110369737,0.06393435553056782,-0.16723959118113044,-0.9707009201517439,0.24027230587986884,0.002990425342387796,1
234,46.83336670003337,-0.9840386950662263,0.06284499165822101,-0.16648829879555135,-0.9712463753043692,0.23806616381820808,0.002231614439548386,1
235,47.03336670003337,-0.9842471280188723,0.0634962084564266,-0.1650024924001463,-0.9713827743807524,0.23750618601906484,0.0025134118305396103,1
236,47.23336670003337,-0.9842529878158636,0.06369631439293015,-0.1648903742136055,-0.9715121273717835,0.23698555269059066,0.001426248746511866,1
237,47.433366700033375,-0.9587713392408442,0.25510793655047315,-0.12520966320247873,-0.970027460899093,0.24298522197033193,-0.0022151762204102097,1
238,47.63336670003337,-0.9554712973041066,0.2670557904537454,-0.12552212877868654,-0.9690985855502773,0.24657791080822603,-0.00687498261108165,1
239,47.83336670003337,-0.9812996219193832,0.08425990102802487,-0.17306449982484348,-0.9684436135701762,0.248839793856721,-0.01399015112441573,1
240,48.03336670003337,-0.980431047721972,0.08752109907477637,-0.17633779481308007,-0.9669387338575193,0.2540946855071197,-0.021572569690590078,1
