,timeStamp,x_gaze,y_gaze,z_gaze,x_head,y_head,z_head,fixations_head
0,0.033366700033366704,-0.9987251526020731,0.050473979696927906,-0.0006685308668854037,-0.9871745838644828,-0.02644552989072427,0.1574387973810284,0
1,0.2333667000333667,-0.9982705895506431,0.053326174577199015,0.024741647947821337,-0.9894735069570985,-0.0059028916228576235,0.14459368900650457,0
2,0.43336670003336675,-0.7686867642465732,0.0349706951745193,0.6386687004630364,-0.9847420929634076,0.008028009529620708,0.17383486821992777,0
3,0.6333667000333668,-0.7695858039022815,0.055885075825831666,0.6360931918610827,-0.9807942583721458,0.03974777352070624,0.1909521857543901,0
4,0.8333667000333668,-0.8995886818179842,0.43528012827519164,0.03565688536193814,-0.9754209090599895,0.1257083616917365,0.18097363887971074,0
5,1.0333667000333666,-0.8777527462275886,0.4785931871911782,0.02233109187022465,-0.9594506992891896,0.2162002527789216,0.1808640548362665,0
6,1.2333667000333668,-0.9194430016005121,0.3916721158577638,0.034892985933330456,-0.9476857781697541,0.2669852765751046,0.17495864639080524,0
7,1.4333667000333667,-0.5903139053419335,0.8070718350456169,0.012827557680855993,-0.847166883039407,0.5011955559788224,0.17638391918872637,0
8,1.6333667000333667,-0.5399160643593636,0.8416225600725206,-0.012732235611724946,-0.7520968431459185,0.6401431067127444,0.15673908720577637,0
9,1.8333667000333667,-0.5236098380538934,0.8517116569138922,-0.020493681225402908,-0.7084625774542279,0.6895362967923012,0.1504010364089022,0
10,2.033366700033367,-0.5670906404993091,0.8231174851073265,-0.029762580007011312,-0.7396779240107932,0.6586938498586554,0.13783679076888833,0
11,2.233366700033367,-0.8192143398798636,0.1801972879579758,0.5444417349430422,-0.8730694412077328,0.46401932116531247,0.14978591527410062,0
12,2.433366700033367,-0.9583338399668808,0.2634188524847213,0.11048420398394336,-0.916575357196138,0.3637553506092214,0.16604716042117235,0
13,2.633366700033367,-0.9954793453110915,0.07971172194832812,0.05164217697806171,-0.9433058945494337,0.27462688672721447,0.18642441469617335,0
14,2.833366700033367,-0.997544786413094,0.000995723579399271,0.07002433601690439,-0.9591945394217085,0.1887830493659205,0.21049179512674807,0
15,3.033366700033367,-0.991433620528047,-0.08895628454014314,0.0956355348574042,-0.9662740005912509,0.08911050966037942,0.24160685596531978,1
16,3.233366700033367,-0.9977814849042196,0.016957969954714887,0.06437806798394945,-0.9646774577026486,0.032069484206159245,0.2614745700505226,1
17,3.433366700033367,-0.9974726217692158,-0.009608492345706371,0.07039918817493461,-0.9616332973892103,-0.003614216972512964,0.2743143065682689,1
18,3.633366700033367,-0.9983274749666303,-0.0045361783797006556,0.057633981403855575,-0.9601869706476202,-0.015381164670156454,0.27893440299098254,1
19,3.833366700033367,-0.9987979695355046,-0.015197509762586301,0.04660098441846688,-0.961650122592101,-0.029782665391650913,0.27265735743010133,1
20,4.033366700033366,-0.9987370318245544,-0.017874408558962777,0.046955796031442495,-0.9617455640821677,-0.035512918637027345,0.27163266110347056,1
21,4.233366700033367,-0.9985844355300337,-0.02416774758457485,0.04738190681950257,-0.9617650327468305,-0.04276220555710377,0.2705169413574321,1
22,4.433366700033367,-0.8444614979444073,-0.07422335235981418,0.5304485577829003,-0.9604224128496825,-0.058882911134399675,0.27225280838281934,1
23,4.633366700033367,-0.8456219020998015,-0.08381067459686578,0.527161616122354,-0.9609365509798378,-0.06625700634464265,0.26872095954952946,1
24,4.833366700033367,-0.8434459981897581,-0.0892982748846766,0.5297401874884551,-0.9596172315037246,-0.07143025773899667,0.2720891164314873,1
25,5.033366700033366,-0.9923102275736382,-0.08648753435436583,0.08854557388179683,-0.959459540013265,-0.07481153235774125,0.271736316497851,1
26,5.233366700033367,-0.9924582629830874,-0.08385351288109219,0.08941579622244306,-0.9598852588714823,-0.07302919701951345,0.2707157664117705,1
27,5.433366700033367,-0.9940086159146116,-0.10919742411196857,0.004774311974417791,-0.9598524941351758,-0.07097777071796249,0.2713767594441189,1
28,5.633366700033367,-0.9913629887759127,-0.0954594032637377,0.08992734185897672,-0.9598317706085635,-0.07210701198890242,0.27115226525416053,1
29,5.833366700033367,-0.992045458085868,-0.09639630745052177,0.08095406723015929,-0.9589622022444182,-0.07575713739975888,0.2732258238152638,1
30,6.033366700033366,-0.9998453347957184,0.014655878349884036,-0.009721713687990977,-0.9583347775780764,-0.07940383480443351,0.2743892948034408,1
31,6.233366700033367,-0.9885760394067559,-0.1197221676131339,0.09156427738405902,-0.9587409576108985,-0.07581562405310367,0.273984976501954,1
32,6.433366700033367,-0.9879949969312815,-0.12356263961995398,0.09272626450421828,-0.9585207960755975,-0.07594160761931122,0.27471941271558814,1
33,6.633366700033367,-0.9882655910869451,-0.11955164746438221,0.09507115788778112,-0.9589701066257121,-0.06893718138338104,0.27499818112341273,1
34,6.833366700033367,-0.9878069483202611,-0.12187842966043738,0.09686630597746027,-0.9593224043926456,-0.06857369772184702,0.27385794202663893,1
35,7.033366700033366,-0.9872651792803109,-0.12451458208835223,0.09901305281617451,-0.9596125807045323,-0.06891718200970845,0.27275284962292967,1
36,7.233366700033367,-0.9872373697562011,-0.12097349607272297,0.10357504045280969,-0.9594261588081193,-0.06250701540267045,0.27494421037757477,1
37,7.433366700033367,-0.9872199648896657,-0.11881292667004854,0.10620842423906433,-0.9595623639230887,-0.05902476396982596,0.2752383457671557,1
38,7.633366700033367,-0.9866252354383223,-0.12391691731176047,0.10590204153001581,-0.9600138855448107,-0.06263731035446624,0.2728551024128257,1
39,7.833366700033367,-0.9860723225796216,-0.12841410631440367,0.1056938595279016,-0.9601877050961858,-0.0667079445698448,0.27127407010878596,1
40,8.033366700033367,-0.9858348126726402,-0.1337811835121602,0.1011549161473961,-0.9601785514551043,-0.07094838831775667,0.270228561630133,1
41,8.233366700033368,-0.9848409481136517,-0.14843699492918774,0.08974834513792242,-0.9599315225606907,-0.08203559773034536,0.26795826671207534,1
42,8.433366700033368,-0.9812622959314473,-0.17903585541223616,0.07120722617932769,-0.9595650970390628,-0.11218324320864476,0.258166118008549,1
43,8.633366700033367,-0.9767199436976425,-0.2067329379627307,0.05726817567001808,-0.9576363012409157,-0.1398804886416461,0.25172636620543454,1
44,8.833366700033368,-0.9759496600605747,-0.21200510890280544,0.050755244327645076,-0.957232974113421,-0.14515425843272273,0.25027040282226987,1
45,9.033366700033367,-0.976208051156793,-0.21139235204888954,0.0482816150506048,-0.9565390733700468,-0.1460412746170894,0.2523983899009423,1
46,9.233366700033368,-0.9553741748755823,-0.285476947586054,-0.07591507345547177,-0.9548063476064368,-0.1589225180968236,0.2511741861979876,1
47,9.433366700033368,-0.9518313318899249,-0.29793913938426686,-0.07245263870705054,-0.9527473561889185,-0.17298960505605177,0.24969395630967375,1
48,9.633366700033369,-0.9499615127548927,-0.3040612159520808,-0.07155348515745337,-0.951448048737765,-0.18331078394790593,0.24727265728645326,1
49,9.833366700033368,-0.9486417249000404,-0.3076145850696379,-0.0738386405015072,-0.9508594445699241,-0.1923304657375078,0.24264234713126515,1
50,10.033366700033367,-0.9485732290109412,-0.3079386693855232,-0.07336623951675844,-0.9504865239404621,-0.1960652625280474,0.2411094785307824,1
51,10.233366700033368,-0.949259800673071,-0.30587873743575433,-0.07310286458703484,-0.9509852150426865,-0.19649184590491495,0.23878457919868856,1
52,10.433366700033368,-0.9507292116813751,-0.30208448214971567,-0.06970603775892785,-0.9513380393684863,-0.1937660308008386,0.23960521730173734,1
53,10.633366700033369,-0.9508093130095845,-0.3032790566326042,-0.06311469006720762,-0.9504674467165461,-0.19520429254168117,0.2418820309684699,1
54,10.833366700033368,-0.9479192926359725,-0.31178176094585,-0.06512409838164901,-0.9490698165969376,-0.2054141192124202,0.2388964688999006,1
55,11.033366700033367,-0.9397959356828255,-0.34152301964524845,0.012067573344890553,-0.9474510266876273,-0.21370339893861376,0.23804917414400883,1
56,11.233366700033368,-0.9380541127448897,-0.3395246903256169,0.06911921745572495,-0.9453098186128552,-0.2135147943578482,0.2465781406054819,1
57,11.433366700033368,-0.9371435250146166,-0.33971099079984013,0.0797399288497897,-0.9435548841955979,-0.21474781920579772,0.25216572855363656,1
58,11.633366700033369,-0.9455672183942146,-0.32124295514705553,0.052015375290532156,-0.940732139300505,-0.22112313384724397,0.2571528762519856,1
59,11.833366700033368,-0.9498201494224953,-0.3109848327336091,0.0336172211920933,-0.9417891622262996,-0.21920754423638247,0.25491415508547066,1
60,12.033366700033367,-0.9511532452721082,-0.3070276524050162,0.03227266129406374,-0.9431514026231452,-0.2185098369929021,0.25043738312665953,1
61,12.233366700033368,-0.9517559075860241,-0.3053774021453232,0.030088779205504484,-0.9447070981460702,-0.21889785991543778,0.24415615011068775,1
62,12.433366700033368,-0.951314819350619,-0.3058710501318294,0.03798703956813829,-0.9444249929484649,-0.2192250883750725,0.24495263485260627,1
63,12.633366700033369,-0.9500638624433195,-0.310718474409898,0.028856315420836713,-0.9429209680945064,-0.22300490208142476,0.2473233947190863,1
64,12.833366700033368,-0.9494012680440265,-0.3134946640307628,0.018929549932155596,-0.9432795424568563,-0.22288592683918657,0.2460600910335124,1
65,13.033366700033367,-0.8342420403083916,-0.5478902574168071,0.06210059588955033,-0.9439022410339812,-0.2220522815391801,0.24442042393031135,1
66,13.233366700033368,-0.8564061795017545,-0.5110474314833086,0.0734777414290992,-0.9440020219668288,-0.22105201157271584,0.24494119845831394,1
67,13.433366700033368,-0.9455751737559394,-0.08163686882531268,0.3149968451029693,-0.9620722640293202,0.020985450452771223,0.27198634093423213,0
68,13.633366700033369,-0.5568391443791993,0.8038692694046797,-0.20910371826877697,-0.6543857180336898,0.7243347633471996,0.2170679217210337,0
69,13.833366700033368,0.12378346646222144,0.9891575065746723,0.07902582247324841,-0.08384682438667723,0.9879713801221588,0.12993175939617962,0
70,14.033366700033367,0.613767582126258,0.7819423540391334,-0.10888301102846915,0.35564289770400737,0.9309051247685444,0.08326931002691401,0
71,14.233366700033368,0.7876545370002517,0.6129089010513985,0.06279338623522755,0.5870036224037176,0.8015877341183366,0.11350705615046502,0
72,14.433366700033368,0.8553121199336258,0.507973256139601,0.10200170852284134,0.6344656026690438,0.7571898152425325,0.15529643499703094,1
73,14.633366700033369,0.9080473903087711,0.404629695152282,0.10828086975270262,0.6633518914137626,0.7242618741588516,0.18817280833768682,1
74,14.833366700033368,0.9088039777730168,0.4029390073084068,0.10823810037716611,0.6743352751881566,0.7068950456171854,0.21347442731809843,1
75,15.033366700033367,0.8360418555185933,0.2854986666527964,0.4685344460768103,0.6663311031268556,0.6968730948111596,0.265274858842794,1
76,15.233366700033368,0.8325682768711014,0.34682325461793717,0.431907043707448,0.6384070231301733,0.7132179405222994,0.28940739820398625,1
77,15.433366700033368,0.8446159218645054,0.34504611940521746,0.4093496305316183,0.6387021880807879,0.7148754635632198,0.2846271008461517,1
78,15.633366700033369,0.8537437902293844,0.350324687124263,0.38521961818688827,0.6397260253337772,0.7139436330320976,0.28466664954570525,1
79,15.833366700033368,0.875461003782768,0.3495147956045015,0.3337775284665106,0.6520480773870924,0.7054310223217601,0.2778495591536417,1
80,16.033366700033366,0.8878350918274102,0.35017999004104655,0.2985344608159441,0.6585727171715479,0.7005686365588035,0.27474635878829007,1
81,16.233366700033365,0.9042941767275695,0.4246795616432621,0.043581095203015514,0.6535278819931044,0.7073919903100677,0.2692543026634275,1
82,16.433366700033368,0.9026545812658713,0.42850843745793027,0.039940279757385455,0.647714793927072,0.7132435771757046,0.267860309388337,1
83,16.633366700033367,0.9045562142739115,0.4238479003077823,0.04616289227435467,0.6447867171493802,0.7175820992883376,0.26329834820725323,1
84,16.833366700033366,0.9058853624513182,0.4207252577665985,0.04860007791838449,0.645961839184545,0.718048306187375,0.2591137439403045,1
85,17.033366700033366,0.9068674009591602,0.41773254985299546,0.05559706710693234,0.6471603392020815,0.7172562389694511,0.25831566546232715,1
86,17.233366700033365,0.741973967318835,0.6634304851263361,0.09661585390701835,0.6364974258675934,0.7290203090895725,0.2517943919130681,1
87,17.433366700033368,0.792800757910276,0.6042053122954004,0.08001811576705707,0.6273367757682279,0.7390436459501003,0.24548535424645465,1
88,17.633366700033367,0.8496954437062555,0.5263475671641294,0.031239261918810025,0.6153954032950663,0.7516644674641724,0.23725308418460023,1
89,17.833366700033366,0.8151143335836973,0.5781369227125855,0.036692257804984627,0.5607458972675483,0.7944020526332277,0.2334296842085997,1
90,18.033366700033366,0.14247952093135735,0.9845587396033146,0.10170385629809495,0.40072883219284855,0.8899865227308457,0.21757847413476844,0
91,18.233366700033365,-0.04241831680786107,0.9963618673375032,0.07391695147198533,0.0408202904278947,0.9691197661561398,0.24318836883134723,0
92,18.433366700033368,-0.7448137535968679,0.6569897506700109,0.11669164480587862,-0.5573521199241991,0.7879621329245523,0.26167592837896225,0
93,18.633366700033367,-0.9799418181151922,0.037290875554970265,0.19576369354258516,-0.9046639756093775,0.3387420923720121,0.2585283081019708,0
94,18.833366700033366,-0.9639320000818615,-0.26517254682291586,0.022773221766590444,-0.9804912559731602,-0.05096909075550451,0.189839534206478,0
95,19.033366700033366,-0.8945914201275649,-0.44193414861458413,0.06633550574503673,-0.939081671094578,-0.30245569795234545,0.1632365332588715,0
96,19.23336670003337,-0.8617729099110041,-0.4769377350987219,0.17285210031244078,-0.9118316875606562,-0.373289318818849,0.17093290501259803,0
97,19.433366700033368,-0.8639622541833002,-0.43417992650203124,0.2550627663325273,-0.9198726028240221,-0.34317816215528485,0.1899029846881822,0
98,19.633366700033367,-0.8741508585028126,-0.3227355119342737,0.3629077925800415,-0.9485508304440047,-0.24509892542445447,0.200444103978557,0
99,19.833366700033366,-0.9581984979880939,-0.08960513369537326,0.27171043128447514,-0.9699703721054033,-0.11796771161652445,0.21269954455444112,0
100,20.033366700033366,-0.9982536435033441,0.05568148428815551,-0.019729053189821065,-0.9766754088566558,-0.022025266035440957,0.21358846736364828,0
101,20.23336670003337,-0.9845065735886986,-0.06638374363230784,-0.1622960416707685,-0.9697302100179209,0.05388833314799798,0.23815828209224543,0
102,20.433366700033368,-0.9999942478405938,-0.0012167753738825924,0.003166029597918571,-0.9580449559037894,0.12079529005331657,0.2599199114501272,1
103,20.633366700033367,-0.9762161382062389,-0.13307588330667977,0.17115157255440286,-0.9451468537023229,0.16825298244427325,0.2799792114340042,1
104,20.833366700033366,-0.9600008143654823,0.18791553081804327,0.20757213130616461,-0.9377348066505357,0.18873329985509454,0.2916044819989734,1
105,21.033366700033366,-0.9286883079792907,0.2284911320496002,0.2921126994795911,-0.9306794323842581,0.2236837216223478,0.289484691854493,1
106,21.23336670003337,-0.9336160180478672,0.24846269374763008,0.2581228789939324,-0.928638842505145,0.24567774980400908,0.2779790341769383,1
107,21.35468802135469,-0.9327138021493908,0.22684806835720778,0.2803300147373281,-0.9333422291020204,0.2308611598819696,0.2749098183638106,1
