,timeStamp,x_gaze,y_gaze,z_gaze,x_head,y_head,z_head,fixations_head
0,0.033366700033366704,-0.9956873943375889,0.09042576797920249,0.020731455390169084,-0.9977120820495906,0.044672520040003286,0.05074413547935059,0
1,0.2333667000333667,-0.998792878456189,0.044791242258985245,0.020162603058574993,-0.998747829921333,0.0095971494543548,0.049098543255162067,0
2,0.43336670003336675,-0.9994792264318295,0.031872171743605,-0.005043867521887544,-0.9998037212762577,-0.012124107989551573,0.01566923506762355,0
3,0.6333667000333668,-0.9787494939586209,0.051896212480037056,-0.1983839993698354,-0.9974140499506603,-0.0008372968025215979,-0.07186453850882615,0
4,0.8333667000333668,-0.8951721019898177,0.11600898915266009,-0.4303589458288392,-0.9686753462181124,0.033861048351232714,-0.24601118477373268,0
5,1.0333667000333666,-0.7858811018064477,0.11749502223823781,-0.6071126860581321,-0.8960812747027223,0.03966990705817847,-0.4421138400922775,0
6,1.2333667000333668,-0.439285525563431,0.07754813165638998,-0.8949941420518147,-0.7425780935078148,0.03241466726991578,-0.6689746365805506,0
7,1.4333667000333667,-0.38855872342327835,0.07305872282463864,-0.918523021742463,-0.6907150080941065,0.023545984106111886,-0.72274363658633,0
8,1.6333667000333667,-0.5936634511686559,0.10010186670155251,-0.7984631006060242,-0.7582654153642475,0.01775554629486091,-0.6517041510058509,0
9,1.8333667000333667,-0.9966563801840419,0.061374048085601214,-0.05393779806433348,-0.9592919188541648,0.014921661618849044,-0.28202191126865933,0
10,2.033366700033367,-0.9687791454624032,0.07300651456807657,0.23693251391009498,-0.998909544065767,0.006043874995808273,-0.04629464709182448,0
11,2.233366700033367,-0.96538730604422,0.08052728136401342,0.24807802459066086,-0.9993541308251195,0.013604065639550762,0.033260345771575196,0
12,2.433366700033367,-0.956576388733557,0.08438593597048581,0.2789993303358484,-0.9932174341237332,0.01919480522181493,0.11467644921763175,0
13,2.633366700033367,-0.9573548687766387,0.08479551264353477,0.27619083305784325,-0.9878984205895012,0.017634960366285844,0.1540964593027639,0
14,2.833366700033367,-0.9529541397081172,0.08263147899291728,0.2916340965878396,-0.9787784034882946,0.012560046683267469,0.20453626106932654,0
15,3.033366700033367,-0.9272430871992878,0.07509524503451295,0.36685277893773793,-0.9474901737648601,0.0003657848522353396,0.3197846725852838,0
16,3.233366700033367,-0.5687399643868373,0.02001683720095891,0.822273785996933,-0.7949060525234662,-0.04740583077025453,0.6048777189404008,0
17,3.433366700033367,-0.4074703787093691,0.0037517657857733034,0.9132107175936625,-0.6643961708824392,-0.07844702598782131,0.7432521727048091,0
18,3.633366700033367,-0.3402652499576459,-0.023649373528836184,0.9400320562634842,-0.6146390408166066,-0.09574423769543257,0.7829763026121306,0
19,3.833366700033367,-0.4255389816165039,-0.010962842704320956,0.9048736879833721,-0.7063975543890528,-0.074644818495348,0.7038683443833529,0
20,4.033366700033366,-0.9626616626017628,0.22676666298077444,0.1478492607941422,-0.9121518687010369,0.04409020079577705,0.4074739533013055,0
21,4.233366700033367,-0.9879901952531043,0.1451665586497687,-0.052934339832629636,-0.9724124327183734,0.1014918683276568,0.21003204840713435,1
22,4.433366700033367,-0.9953925626681996,0.07330689111336461,0.061804092907573736,-0.9849575085617865,0.0630160151700531,0.16089651382129516,1
23,4.633366700033367,-0.9961511032175427,0.05881927828196282,0.06498670680117419,-0.9907465669910143,0.02700930013428564,0.13301029171374565,1
24,4.833366700033367,-0.9963752791741656,0.05766326928145112,0.0625399906170334,-0.993382109656433,0.008004053315639359,0.11457713273186396,1
25,5.033366700033366,-0.9960944728844194,0.06309320724162672,0.06176607717085702,-0.9946879314954514,0.000878436787238357,0.1029327318500358,1
26,5.233366700033367,-0.9950201958352287,0.07618010185913356,0.06427598276771282,-0.9954076117406803,0.005747086881743979,0.09555447389363307,1
27,5.433366700033367,-0.9938285814598785,0.09093129098305495,0.06353149607557523,-0.9960786106679808,0.01683056434371114,0.08685697135876799,1
28,5.633366700033367,-0.9927533951476761,0.1036181320977945,0.060860324706057095,-0.9965683042865746,0.027231313476693487,0.07816693967218834,1
29,5.833366700033367,-0.9928552350778632,0.1017381172604106,0.06235252741299324,-0.9969308756015915,0.024155352766080117,0.07446709478011093,1
30,6.033366700033366,-0.9930270189384383,0.09883135814025477,0.06426275987219336,-0.9972043958661487,0.02037208696240084,0.07189138291913637,1
31,6.233366700033367,-0.9929839728180458,0.09851533374805777,0.06540304842283665,-0.9975333917774647,0.018075196947868438,0.0678263926819273,1
32,6.433366700033367,-0.9934101858190996,0.09011364137905511,0.07082184937058207,-0.997613186377477,0.0075542744203518685,0.06863572906117996,1
33,6.633366700033367,-0.9935338474179627,0.08695643910649772,0.07300049131874911,-0.9977428380573226,0.0022698737224990133,0.06711241895955848,1
34,6.833366700033367,-0.9934667822700054,0.08537638915614998,0.07572730485590905,-0.9977671473276092,-0.00190119349418876,0.06676155463305744,1
35,7.033366700033366,-0.9929612994353466,0.0891200203707748,0.07800948527442585,-0.9977995249663929,-0.0001906746033844783,0.06630287791669913,1
36,7.233366700033367,-0.9928175372542477,0.09009587131310175,0.07871513001160489,-0.9978916410785084,-0.0012823431900053667,0.06488935399266005,1
37,7.433366700033367,-0.9924207882135594,0.0911084857319137,0.08246346432945703,-0.9977825617196835,-0.002159762163286578,0.06652289046263772,1
38,7.633366700033367,-0.99259410203218,0.08889521152313237,0.08279245122103733,-0.997874076017232,-0.006505168130718948,0.06484605770859653,1
39,7.833366700033367,-0.9927374729858787,0.08819941398258062,0.08181181517813556,-0.9979838581472751,-0.009432313024902795,0.0627634475509431,1
40,8.033366700033367,-0.9949809868317633,0.06912336385843038,0.07235189294127559,-0.9980297695716529,-0.034043665064431454,0.05270301621097821,1
41,8.233366700033368,-0.8429592791156935,-0.5379766685134738,-0.0008705675703972884,-0.9607557673122523,-0.2762446521398505,0.02524376636673621,0
42,8.433366700033368,-0.5873172246297395,-0.8046572279287131,0.08709318684776018,-0.6557808261430165,-0.7546754410839022,0.020408005488069012,0
43,8.633366700033367,-0.23421356279075728,-0.9699236186775865,0.06627353118882169,-0.27677364666095117,-0.960345055607974,0.03367079867358154,0
44,8.833366700033368,0.06712653993341039,-0.997691184279373,0.01031156863871498,-0.07655216834360845,-0.9965247967375452,0.03283435714440084,0
45,9.033366700033367,0.43324080829060413,-0.897376243207459,-0.08377517626702813,0.16851065627541817,-0.9856192559858984,0.012603211949015224,0
46,9.233366700033368,0.718071782716625,-0.684311282816858,-0.12685023876884935,0.5404170547189027,-0.8412887887777736,0.013512247991098698,0
47,9.433366700033368,0.9113371806218563,-0.38370141292511417,-0.1491233346444391,0.813009929698807,-0.5805472838068461,-0.04449388132804869,0
48,9.633366700033369,0.9466187933705513,-0.32033535345099506,-0.036029451385048615,0.9246012683719782,-0.376028251783048,-0.060952837390183916,0
49,9.833366700033368,0.9705589191189524,-0.23965990015826943,-0.024052375657708302,0.971600176571848,-0.2308693591229535,-0.05188868762756458,0
50,10.033366700033367,0.9961331638418278,-0.07082983046297457,0.05197937101444062,0.9904074556534692,-0.13767620261295985,-0.011761590882906252,0
51,10.233366700033368,0.8763908350007003,-0.09014545717745567,0.47308868183147545,0.961218918805913,-0.02489818471071775,0.27466028203528486,0
52,10.433366700033368,0.7972554207535918,-0.12602542886855125,0.5903400590824845,0.874078702284826,-0.005276963229895457,0.48575567507868095,0
53,10.633366700033369,0.40930223451607867,-0.11029539136654334,0.9057077936417715,0.8044988044864382,-0.03167808891668729,0.5931089042178328,0
54,10.833366700033368,0.2639028988204202,-0.10784474459689267,0.958501315104476,0.6910346905795918,-0.06821528223479248,0.7195955333971967,0
55,11.033366700033367,0.2841803307745127,-0.09721249435169974,0.9538297911801714,0.6718374006051706,-0.061264402207454716,0.7381606736817201,0
56,11.233366700033368,0.683573271552067,0.025860284614638466,0.7294236273245159,0.7527904517424061,-0.05254078736802044,0.6561600425416141,0
57,11.433366700033368,0.9397813356041064,0.32101930438310766,-0.11729299835688384,0.9674399142241441,0.06471050220182555,0.24468870687215746,0
58,11.633366700033369,0.8859873454176924,0.3793199271251218,-0.26672610791878454,0.982619162504616,0.17776127485258789,0.05348374184282888,0
59,11.833366700033368,0.8970771684757958,0.3951361064177546,-0.1977877933656825,0.9839360300265595,0.17529606204662435,0.03378134761254829,0
60,12.033366700033367,0.9793874562297611,-0.09915111947895336,-0.1759808685223141,0.9206675115828411,-0.3902373282012635,0.00928228388913681,0
61,12.233366700033368,-0.17906249880856323,-0.9755708404850361,-0.12727197930319892,0.14875771488372658,-0.9831001989918362,-0.1067011762108743,0
62,12.433366700033368,-0.9756913758827084,-0.20428160636754814,-0.0793433319693699,-0.6488263710457483,-0.7475976079065946,-0.1418525885838639,0
63,12.633366700033369,-0.9921467124380029,-0.1249495409552792,0.005702035910797304,-0.9302032956446188,-0.3536182736094955,-0.09836638318719729,0
64,12.833366700033368,-0.6680631297109306,-0.7440836959481889,-0.005577467608138735,-0.8546523563331756,-0.5100052895631724,-0.0972828578513995,0
65,13.033366700033367,-0.26273407909052593,-0.9633619770227421,0.05389345889147742,-0.6300435607306907,-0.7706522111427074,-0.09560481704730373,0
66,13.233366700033368,-0.026710764790662422,-0.9988759793508714,0.039157539761014055,-0.38526610475056017,-0.9167674343679605,-0.10539212405449479,0
67,13.433366700033368,0.013455423193427907,-0.9998976538843195,0.004861413716166471,-0.18241461184313124,-0.9761667752860365,-0.11757268481148583,0
68,13.633366700033369,0.13038864573897185,-0.9912300509218817,-0.021489234787696855,-0.046623876637826134,-0.9934429199764544,-0.10439051142664746,0
69,13.833366700033368,0.27324653044717284,-0.9616516526436139,-0.023715660783308556,0.13925541921831708,-0.9859389731026823,-0.09237028491652191,0
70,14.033366700033367,0.6133428838923616,-0.7812184844127434,-0.11622472366263997,0.41823597820332564,-0.903098097822833,-0.09742942186571713,0
71,14.233366700033368,0.8487622206882444,-0.5065664315813985,-0.15163490075589015,0.6594362537683454,-0.7483488161796384,-0.07153933560290054,0
72,14.433366700033368,0.8118026553689451,-0.5605737514978995,-0.16350387722467408,0.7322925274580067,-0.6760462455548454,-0.08190926748764397,0
73,14.633366700033369,0.7788816450002937,-0.6092045324727356,-0.14904100340615067,0.7088629810114506,-0.7025430494613337,-0.06282147566819735,0
74,14.833366700033368,0.5476318667851385,-0.833993106982559,-0.06748952501686534,0.6458279715649011,-0.7585099858339056,-0.08699903754992934,0
75,15.033366700033367,0.6594508117575307,-0.7506541028944259,-0.040534487539605604,0.7276647444081137,-0.6795921636599294,-0.0930511194854259,0
76,15.233366700033368,0.9778729105716999,-0.20919954912346456,0.00034556702888668327,0.8693184809236798,-0.4921396621095783,-0.045650100801817244,0
77,15.433366700033368,0.9855727401514031,0.1692499345050047,0.0009129843957957934,0.9874780147792105,-0.12638115381607729,0.09441914153298864,0
78,15.633366700033369,0.9133203341698237,0.3983999237479167,-0.08440063950928223,0.9890377589005215,0.0942834739117562,0.11364390883881458,1
79,15.833366700033368,0.9137438693872595,0.3955807130978176,-0.09267168166285605,0.9851067410232932,0.1436098842945674,0.09455638488947947,1
80,16.033366700033366,0.9220434623203952,0.38086224681595515,-0.06913611605030105,0.9825968703836706,0.1473815734129028,0.11305778226443905,1
81,16.233366700033365,0.9632702054562817,0.2630376986743043,0.05405257030280098,0.9710009116794271,0.18989354503409786,0.1452503737417035,1
82,16.433366700033368,0.9843291553259248,0.16311917888845484,0.06699438375048838,0.962715584549493,0.21530862604073386,0.1637708729230547,1
83,16.633366700033367,0.9724415117438111,-0.20564502533157183,0.10985276416089318,0.9634846719048812,0.18439784488263625,0.19415128587517252,1
84,16.833366700033366,0.9687708724686631,-0.21571173230686716,0.12227610233187747,0.9646035731463145,0.14738326894041176,0.2186735436896771,1
85,17.033366700033366,0.9662376435940231,-0.21474117080715244,0.1423764224239494,0.9556094424056777,0.13359229639570494,0.2626093904048985,1
86,17.233366700033365,0.9726568330010594,-0.17050583160259739,0.15769098454209748,0.9287234159306531,0.10493944128415858,0.35561289398033347,0
87,17.433366700033368,0.9776765520974345,-0.13923327313084127,0.15736154273565459,0.8913396200254726,0.048857367539269766,0.45069572819140247,0
88,17.633366700033367,0.9822335915250086,-0.1510944081566923,0.11129982706034275,0.9018417043578245,0.005115521781198088,0.4320363083328537,0
89,17.833366700033366,0.7638883628317675,-0.1312283092825874,0.6318652546018303,0.887427174563604,0.0010229097988898501,0.4609468120093709,0
90,18.033366700033366,0.7058860067394516,-0.1525399484653018,0.6917055078656192,0.847411826592356,-0.04406659099689826,0.5291042730023248,0
91,18.233366700033365,0.40114754614301695,-0.10316353741021156,0.9101856573097864,0.7900766605685585,-0.09173287930692021,0.606105559518222,0
92,18.433366700033368,0.39381381053756714,-0.08365605127830006,0.9153755227852686,0.7789492822702953,-0.08626342527925063,0.6211252990417335,0
93,18.633366700033367,0.3323981420703878,-0.07589839778421396,0.9400802669782745,0.7573635455607775,-0.08795654922540494,0.6470425838412545,0
94,18.833366700033366,0.2615818315252591,-0.07202260232482621,0.9624903584817103,0.6978570142163398,-0.10042338421965631,0.709161992503072,0
95,19.033366700033366,0.2082996418074563,-0.059572900737493106,0.9762491120203933,0.6499416504342477,-0.10622799389283433,0.7525233978716608,0
96,19.23336670003337,0.5111177302246744,-0.11754842187641754,0.85143469177873,0.6511128211555712,-0.10596273351262842,0.7515477318396784,0
97,19.433366700033368,0.670149763635654,-0.14530873565509972,0.7278630816584899,0.6809173630401817,-0.10963990140884283,0.7241067854463625,0
98,19.633366700033367,0.9537498247024039,-0.2062444797575437,0.21868810312788772,0.8069921650033549,-0.15789641218411615,0.5690627106414387,0
99,19.833366700033366,0.9768620939446356,-0.2110832485159732,0.03441382876179622,0.8747704962614551,-0.17150593621074237,0.4531691656710162,0
100,20.033366700033366,0.9824442868930605,-0.17824111978277601,0.05507564225470087,0.930832726710841,-0.17879611050724128,0.31871991740640143,0
101,20.23336670003337,0.9879219451137542,-0.15485470643954122,-0.005500023289067217,0.9660902001701106,-0.16334429872766537,0.19997091090566882,1
102,20.433366700033368,0.9886474673706139,-0.14732080251223587,-0.029542620209147986,0.9782946749144286,-0.15635826253001497,0.13598390630022275,1
103,20.633366700033367,0.9919026148795255,-0.12338744070654328,-0.03007893068328344,0.9867708060521008,-0.12895088081898773,0.09826009698394589,1
104,20.833366700033366,0.9951350467378548,-0.09556905018125464,-0.02393314441314389,0.992465694996507,-0.09318819971450057,0.07954749329219037,1
105,21.033366700033366,0.9955761056115071,-0.09335496674733909,-0.01063334937958928,0.9941529589053137,-0.07995017322130865,0.07258005305655489,1
106,21.23336670003337,0.9948026025507472,-0.1018164802157534,0.001089180763525018,0.99445217178624,-0.0794561735580721,0.06893181060396232,1
107,21.433366700033368,0.9942175071614393,-0.10608936202870639,0.01663116706776426,0.994425869753509,-0.0767953246628734,0.07224726759470802,1
108,21.633366700033367,0.9930773083260651,-0.1144092172188826,0.026608094693539246,0.9940969197284236,-0.08056176158270871,0.0726712925242922,1
109,21.833366700033366,0.9920639240822431,-0.12043851545509654,0.036107264220843524,0.9937807099640765,-0.08269877084403056,0.07457086431162596,1
110,22.033366700033366,0.9993475802533321,-0.025220143439589088,0.025852624754495603,0.994030268602947,-0.0779121166572934,0.07637753059070272,1
111,22.23336670003337,0.9833954359664249,0.1798339549204403,-0.024354982612974883,0.9944281933514327,-0.07003442826158572,0.07878925768071778,1
112,22.433366700033368,0.9822284723310715,0.18417672771609228,-0.03614085098558839,0.9949493019370971,-0.06115531423433765,0.07959845548616408,1
113,22.633366700033367,0.9970828620610246,-0.04150017764420949,0.0640585781897724,0.9955740370963392,-0.04678099606364261,0.08150996912642508,1
114,22.833366700033366,0.9962272873143883,-0.04456443987731853,0.07446611785662251,0.9960559226710486,-0.03620840027901214,0.08100339907164991,1
115,23.033366700033366,0.9958536460558746,-0.04459899312643893,0.07928710771196618,0.9960204852216173,-0.03298906794154623,0.08279441053140238,1
116,23.23336670003337,0.9953997634429964,-0.05348651706621286,0.0794890145224651,0.9959021908687773,-0.035805757913271494,0.08304681765742739,1
117,23.433366700033368,0.9949955745935345,-0.06607917542935242,0.07494897673657415,0.9957728016183248,-0.0416378859568606,0.0818707152175687,1
118,23.633366700033367,0.9950670459729595,-0.07313903622999259,0.06702428961202457,0.9959287425709438,-0.04393176341816619,0.07871429275569487,1
119,23.833366700033366,0.9952894412620393,-0.07347231437028698,0.06325145953550496,0.9959833089418337,-0.04145318318461677,0.07936549573422119,1
120,24.033366700033366,0.9951812212406548,-0.07539134077865277,0.06269356127670801,0.9958363989832082,-0.04101310976783738,0.08141124791653902,1
121,24.23336670003337,0.9949612476764712,-0.07830522628914875,0.06261315483095739,0.9956525982660444,-0.04226654322383548,0.08300266796906641,1
122,24.433366700033368,0.9814397737204102,0.19167664052026215,0.006003002456817165,0.9959010548931096,-0.03779322288333253,0.08217518583418114,1
123,24.633366700033367,0.915722331601639,0.39881922170534645,-0.04894731662104042,0.996147754150547,-0.03199636655063561,0.08164486774059279,1
124,24.833366700033366,0.9147781577049654,0.40126898588022203,-0.04652013710821912,0.9961662351509131,-0.029501987276825115,0.08235572045689364,1
125,25.033366700033366,0.9336200140213743,0.35478510895385595,-0.04981160390239975,0.9958587792495944,-0.03289505104106818,0.08475380468458689,1
126,25.23336670003337,0.9893224627259188,0.11045849571103816,-0.09507883818798847,0.9957782398091571,-0.032523875853248264,0.08583644110783804,1
127,25.433366700033368,0.9984442994551594,0.012821797527626962,0.054264006428352066,0.9958305772778876,-0.03168193604682161,0.08554365135248121,1
128,25.633366700033367,0.9974091792153541,-0.0012897558392518079,0.07192541794684795,0.9958485535529417,-0.031359709407428146,0.08545306906364204,1
129,25.833366700033366,0.9973054381996732,-0.00906574908343601,0.07279886764857153,0.9958162003662044,-0.034001778307346055,0.0848172987081861,1
130,26.033366700033366,0.9975987219268263,-0.008414072065104864,0.06874586097537536,0.9958780910400732,-0.028062211243889124,0.08625160918199462,1
131,26.23336670003337,0.99794766014715,-0.01088072057105827,0.06310370454009295,0.9958973971767545,-0.025180809001905488,0.08691548282426691,1
132,26.433366700033368,0.9978823236431835,-0.011916840826087653,0.06394417147173109,0.9958690397604644,-0.0218291281907965,0.08813821423764281,1
133,26.633366700033367,0.9976317696110214,-0.019387629544634077,0.06599221229374357,0.9955927894324449,-0.02704390438012165,0.08979768853373946,1
134,26.833366700033366,0.9971960267158265,-0.039665230127704294,0.06345670824337606,0.9951591111365068,-0.04601560184776408,0.08683840111716415,1
135,27.033366700033366,0.9972450531527997,-0.04094128292894669,0.061855600509588146,0.9952376976178748,-0.046349741364656825,0.0857532898243641,1
136,27.23336670003337,0.9973997151130634,-0.037163983034981966,0.06174663276127312,0.9954420176511242,-0.042966591628019205,0.0851414205808792,1
137,27.433366700033368,0.997501289431175,-0.03465537879097791,0.06156445649883818,0.9955793220290926,-0.040304141194690564,0.08483743130629616,1
138,27.633366700033367,0.9973229810423272,-0.038161299183926356,0.06237456796996958,0.9953596140926427,-0.04389565358247488,0.08562949392535978,1
139,27.833366700033366,0.9810771459923707,-0.18977841547505567,0.03836387143188048,0.9956049102763631,-0.040905186016609384,0.08424742364334831,1
140,28.033366700033366,0.9770285856818396,-0.21170650302398933,0.024402855117747074,0.995991017939014,-0.03846088272745098,0.08076294128269719,1
141,28.23336670003337,0.9720489672938223,-0.23414289860174636,0.017260017884870808,0.9959106674557617,-0.03837000501721449,0.08179049555295398,1
142,28.433366700033368,0.9965208644083752,-0.05612230078564799,0.061615372702841065,0.9956052267689919,-0.04144738805461104,0.08397824988480433,1
143,28.633366700033367,0.9969502880828399,-0.026389579398985143,0.07344190350670103,0.9954693390853777,-0.0402429419264576,0.0861469707304044,1
144,28.833366700033366,0.9904576703951677,0.13775605139897273,-0.004107731532251927,0.9954019732268344,-0.03956128658561641,0.08723426104355522,1
145,29.033366700033366,0.9877081452244948,0.1554757463250976,-0.01612179152086694,0.9952426968364877,-0.03677856974300777,0.09021813122257728,1
146,29.23336670003337,0.9879794964462794,0.1534715873406872,-0.018519894192086706,0.9949927559131849,-0.04004610079815501,0.09157360695718676,1
147,29.433366700033368,0.9908946871495783,0.133971445193367,-0.013392940362009944,0.9948616943725336,-0.04278798377781161,0.09175727499463658,1
148,29.633366700033367,0.9990604421131817,0.006107883536363661,0.042906022459788584,0.9946387608802891,-0.0463380531279714,0.09244739145499226,1
149,29.833366700033366,0.9223547397622109,0.38538732267831916,-0.027172514734957114,0.9948364535597487,-0.03823214293148206,0.09401454097919351,1
150,30.033366700033366,0.9196230865952524,0.39125396463074,-0.03483839493645613,0.9952634791774078,-0.031867619532637136,0.09184259273891028,1
151,30.23336670003337,0.9186681173721571,0.3934474394153617,-0.03532707943479228,0.9957147221664993,-0.02535335334033787,0.08893480497134498,1
152,30.433366700033368,0.9977395443358336,0.05291334818976921,0.04142437992138765,0.9960442047904762,-0.026972344127086892,0.08466660944905194,1
153,30.633366700033367,0.9985677766431132,0.035572989068785046,0.039961955642110636,0.9961016374106247,-0.031198893852674835,0.0825115565859832,1
154,30.833366700033366,0.9985786992025718,0.03418146024653735,0.040892655505776414,0.996295015080126,-0.03369438717026652,0.07912604627878078,1
155,31.033366700033366,0.9985089623899349,0.033074488672216504,0.04342729816655909,0.9963557889098494,-0.03422950981494832,0.07812478840713957,1
156,31.23336670003337,0.9986004357552746,0.028209113137515864,0.04473718414664261,0.9962302915335104,-0.03765166381214076,0.07815086975353662,1
157,31.433366700033368,0.998415348119109,0.027232794768063607,0.049245989982121374,0.9960440074676895,-0.0355099398779787,0.08145783791365958,1
158,31.633366700033367,0.9981939088630837,0.02292669004611149,0.055527355350023344,0.9957502058964182,-0.034994497346662864,0.08518751441787357,1
159,31.833366700033366,0.9978799298950504,0.018201602740434628,0.06248477550835031,0.9953128961980693,-0.03559634431114532,0.08991740061575529,1
160,32.032032032032035,0.9133671118590836,-0.40661565945968553,-0.02059670984311325,0.993828646784829,-0.05930420339338577,0.09374237190146102,1
