,timeStamp,x_gaze,y_gaze,z_gaze,x_head,y_head,z_head,fixations_head
0,0.03333333333333333,-0.9998798180976256,0.015219105771447533,-0.002954349433736146,-0.9910047314528772,-0.09637898713363056,0.09284779521941529,0
1,0.23333333333333334,-0.9868596420130417,0.010174961172260003,0.16125916138636795,-0.9908888732277221,-0.08623616818628753,0.10345319816246065,0
2,0.43333333333333335,-0.984507738306557,-0.17533974052531515,-0.0006990043085006631,-0.9876812086758566,-0.10176531731931218,0.11886820525060131,0
3,0.6333333333333334,-0.9763603437815997,-0.19643299714758694,0.09019177746498001,-0.9667013284722836,-0.12890815193815627,0.22106838284524347,0
4,0.8333333333333334,-0.8764905844392805,-0.09211581981396541,0.4725240005854616,-0.932098775097863,-0.16654962521378228,0.32164125326551735,0
5,1.0333333333333334,-0.8130937315224258,-0.13131155522572727,0.56712949070132,-0.9015612298776388,-0.19207901659906929,0.38767641166809946,0
6,1.2333333333333336,-0.7732739593402196,-0.16492804164469166,0.6122467842998831,-0.8651149887155212,-0.2277836581319505,0.44686761058256425,1
7,1.4333333333333336,-0.8399380216102303,-0.3815195709753633,0.38593644142043315,-0.8521651806682963,-0.2551915412950378,0.4568279567934009,1
8,1.6333333333333335,-0.8358840154067788,-0.4022353690580842,0.37350317356904317,-0.8442395975430336,-0.2856763064505989,0.45348489486764654,1
9,1.8333333333333335,-0.8109586651179985,-0.5387692915717951,0.22819661244036898,-0.8292516742002389,-0.310199835816719,0.46488463374839706,1
10,2.033333333333333,-0.7085516484682979,-0.2126208665668084,0.6728647178692292,-0.8154000361695326,-0.3477045413690686,0.462843745691838,1
11,2.2333333333333334,-0.7007132972203892,-0.24318300125373032,0.6707181993950656,-0.8021737651744435,-0.3531988195816844,0.48142272932627694,1
12,2.4333333333333336,-0.8245437349164264,-0.34869958060710404,0.44557404737540557,-0.8000849546858531,-0.35112800345665823,0.4863879012412597,1
13,2.6333333333333333,-0.8267213499135435,-0.3475122834866479,0.442455672834041,-0.7963870906641948,-0.3455700989818639,0.49633547980482345,1
14,2.8333333333333335,-0.7401545405564519,-0.5428786585726264,0.39680476075779836,-0.7903268697998744,-0.3557713470516992,0.4988087684567622,1
15,3.033333333333333,-0.7464671901112905,-0.5434775068751484,0.3839517334355036,-0.8013593479968868,-0.36055181190293584,0.4773107858738527,1
16,3.2333333333333334,-0.7513733174635611,-0.6285855302411704,0.20079434497821266,-0.8096946531931732,-0.37270944628543873,0.45330148603328974,1
17,3.4333333333333336,-0.9061459160834374,-0.41939214391044416,0.054861720639344295,-0.8097074419301221,-0.40448806381462027,0.4251626332528272,1
18,3.6333333333333333,-0.9254364053243842,-0.3786667448646455,0.013377444968897532,-0.8192512177430287,-0.4126380595651703,0.39819250875029716,1
19,3.8333333333333335,-0.9336851964907839,-0.3580835482018461,0.0028506773129143813,-0.8320379958689426,-0.40400854962785615,0.38011822536941015,1
20,4.033333333333333,-0.8974930512934904,-0.3373768527935286,0.2840476757148948,-0.839474089520104,-0.38973266025818853,0.3786709740031151,1
21,4.233333333333333,-0.7653903134878799,-0.2626697035111305,0.5875221654340369,-0.8280752426910349,-0.38068667564068287,0.41154470891001554,1
22,4.433333333333334,-0.8514569102584101,-0.15114792875661073,0.5021707215736384,-0.8310205760352203,-0.3565897759787387,0.42690576697149873,1
23,4.633333333333334,-0.8576631769879682,-0.09880889950015735,0.504629246297193,-0.8450480419820253,-0.3087227862078612,0.43655932932237335,1
24,4.833333333333334,-0.865815496102845,0.08642683484818493,0.4928427020118174,-0.8577615567111659,-0.2525176360336654,0.44774988031311297,1
25,5.033333333333333,-0.869188992979926,0.08755239681389736,0.48666731171785516,-0.8652450448811351,-0.22427993507236602,0.4483854625571376,1
26,5.233333333333333,-0.8747072618486643,0.09296206405251745,0.47565245791050853,-0.8690980960065136,-0.19930043564624453,0.4527116475959839,1
27,5.433333333333334,-0.8547770785092943,0.2613384954955465,0.4483952908174215,-0.8728339290704011,-0.1684716464701244,0.45801554187513227,1
28,5.633333333333334,-0.8547410421874992,0.2760126169610844,0.43958478827016056,-0.8820394370463138,-0.14028425711384523,0.449807468480725,1
29,5.833333333333334,-0.9056171419506561,0.10435371735879807,0.41105704455528497,-0.8824776330760804,-0.15106470140823253,0.4454353860088808,1
30,6.033333333333333,-0.8336500382163778,-0.3116648314553935,0.4559524609163907,-0.8827653649221316,-0.16316018550242742,0.4405724280532201,1
31,6.233333333333333,-0.780954108110443,-0.35727136161288464,0.5123161672216662,-0.8785587985644707,-0.182127887349426,0.4415471323817973,1
32,6.433333333333334,-0.8658039262707237,-0.034688792872298764,0.4991795758074063,-0.872090199615871,-0.18466685201042257,0.4531631466729297,1
33,6.633333333333334,-0.8548724457849861,-0.05485344907576985,0.5159304222102903,-0.8667757188309008,-0.19388685730267424,0.45946462302387114,1
34,6.833333333333334,-0.8526287234617215,-0.06928311773258981,0.5179035716475489,-0.8632651192752008,-0.19677793026183515,0.4648137046222301,1
35,7.033333333333333,-0.7439837462987682,-0.364619379257089,0.5599472238643795,-0.8640141944031903,-0.22146562582972137,0.4521420666623005,1
36,7.233333333333333,-0.7983009909951043,-0.328817526055128,0.5045736441147317,-0.858573348185518,-0.24158666159080833,0.4522031520532752,1
37,7.433333333333334,-0.9274645707175256,-0.3287920812485729,0.1780596455460575,-0.8593101898075844,-0.26303856310134555,0.4386304959922793,1
38,7.633333333333334,-0.9664349286201445,-0.09116814142396697,0.24019137938792925,-0.8647702007151163,-0.24499471314356397,0.4383492790992592,1
39,7.833333333333334,-0.9626997485202474,-0.09352424996255825,0.2538944837289569,-0.8657033846228047,-0.2399088488604114,0.4393192393819018,1
40,8.033333333333333,-0.9635822939471497,-0.0993006517465312,0.24829124703513616,-0.8668482098992434,-0.24256664504369868,0.4355865054231151,1
41,8.233333333333334,-0.9650264846133341,-0.09953343290934821,0.24252212214169455,-0.8676181516146998,-0.24162388953050803,0.4345763902892573,1
42,8.433333333333334,-0.9598835669697433,-0.08182136976547426,0.2681954535616595,-0.863719829149062,-0.23412781181984724,0.44628715471898334,1
43,8.633333333333333,-0.8450883216483716,-0.19712347456186502,0.49695881558756627,-0.862049092598002,-0.2283009449396261,0.45249313861166446,1
44,8.833333333333334,-0.7998526563344465,-0.20896137905159584,0.5626463100559582,-0.8611641177154012,-0.23868702440656211,0.4488038176524304,1
45,9.033333333333333,-0.8177099585702606,-0.0685101495338573,0.5715389602344461,-0.8587111815634341,-0.24172385071709143,0.4518679969332107,1
46,9.233333333333334,-0.832770239247369,-0.04057307762354631,0.5521300154818914,-0.853210229203953,-0.24947996659633162,0.4580306223920313,1
47,9.433333333333334,-0.8845205578114695,-0.05631499496802336,0.46308962863644265,-0.8433203076157483,-0.25754256629356376,0.4716807027108545,1
48,9.633333333333335,-0.8966256867265034,0.0039120420361473405,0.44277203370282303,-0.8278928811655948,-0.25219550254414913,0.5009898260562133,1
49,9.833333333333334,-0.7918204792918982,-0.041509858675133564,0.6093416613089236,-0.8106534197911555,-0.23400613905062018,0.5367328570783853,1
50,10.033333333333333,-0.7638217764131844,0.008945700790569914,0.6453652208744856,-0.7977960264214778,-0.21015354091515312,0.5651167927667023,1
51,10.233333333333334,-0.7387679304260594,0.055439734479866554,0.6716758003790216,-0.7900696353411806,-0.177169180513334,0.5868569270172145,0
52,10.433333333333334,-0.7387330388289133,0.2789429373852592,0.6135668953141808,-0.7879048109806889,-0.1064856132964685,0.6065202576949595,0
53,10.633333333333335,-0.7074241377782527,0.33679767691767093,0.621384272500967,-0.7677124237088004,-0.006543479583088062,0.6407611234759061,0
54,10.833333333333334,-0.5750291830335655,0.4769769739192037,0.6647062546799373,-0.7365174589286927,0.07223740070974881,0.6725502142085159,0
55,11.033333333333333,-0.5312503103747852,0.5478233374278569,0.6462682869336069,-0.722198135759444,0.1587254089558428,0.6732281168054292,0
56,11.233333333333334,-0.47711541985314143,0.6064428350396979,0.636072294607598,-0.6908848565969625,0.23645400881503603,0.6832039348834972,0
57,11.433333333333334,-0.39173217982396286,0.640279617371186,0.660747993466022,-0.6393818914745477,0.311424181223043,0.7029977071114721,0
58,11.633333333333335,-0.32583135975666344,0.6208669687549355,0.7129923787167586,-0.5773944193768861,0.38353296019557426,0.7207760768200129,0
59,11.833333333333334,-0.2815547290516125,0.6654414839529013,0.6913136523917588,-0.5103300326342569,0.4577853708037491,0.7280081126399571,0
60,12.033333333333333,-0.19599735089875048,0.6967317449055571,0.6900361686763454,-0.43559351190738427,0.5106177074508387,0.7413014563737492,0
61,12.233333333333334,-0.15318045206044562,0.7043234211070459,0.6931552983182226,-0.3849894495596967,0.5397734023203391,0.7486172572651845,0
62,12.433333333333334,-0.09417374802122958,0.8668192651936485,0.4896485133979042,-0.36844463616584533,0.554984371824029,0.7458155918936703,0
63,12.633333333333335,-0.027991500098679623,0.8764261348159931,0.4807220674503355,-0.3158192790594778,0.6025718986042996,0.7329156090483828,0
64,12.833333333333334,-0.06091161881042656,0.8111923208602152,0.5815984811459807,-0.24857652087293897,0.6296234440259634,0.7360598019207338,0
65,13.033333333333333,-0.0659700175966392,0.6185749813990231,0.7829514347426013,-0.19510300365207667,0.6430520456208383,0.7405530937001029,1
66,13.233333333333334,-0.014840806271281204,0.5815008744591548,0.8134104028548299,-0.1175512740321202,0.6328000944472274,0.7653402762438455,1
67,13.433333333333334,0.1440508010377957,0.7337019101846594,0.6640262598058543,-0.06438284813207529,0.6369904652173343,0.7681783621585594,1
68,13.633333333333335,0.14503286979840274,0.7485713477389685,0.6469979938317459,-0.05692429179551381,0.6570850552886653,0.7516640573553262,1
69,13.833333333333334,-0.007989998308456203,0.9223296709261268,0.3863212886398233,-0.08435161447241202,0.6804470291083711,0.7279262639261542,1
70,14.033333333333333,-0.008400607656818826,0.9363137198660034,0.3510641647643399,-0.0988292484893164,0.7132722750946219,0.6938843140065778,1
71,14.233333333333334,0.02748082027749632,0.9743842427054061,0.22320428330184036,-0.08876261438861807,0.7373855795444618,0.6696145946488739,1
72,14.433333333333334,0.09230566458497486,0.9736579909891571,0.20849407873722628,-0.04193974807088047,0.7628652977065316,0.6451957804317046,0
73,14.633333333333335,0.3489578530386852,0.5948283116333608,0.7241599937044556,0.09344775580033216,0.7404896776921566,0.6655392957348555,0
74,14.833333333333334,0.6089072790222246,0.5264563052141819,0.5933596584315309,0.24457821572658534,0.6761412709744434,0.6949924302300453,0
75,15.033333333333333,0.7881501203519634,0.37973447083185485,0.48437704265503484,0.4129989557265354,0.5785148940130747,0.7033863660704779,0
76,15.233333333333334,0.8511785017564161,0.3555257125273311,0.3861303224037663,0.5516002264202178,0.4903564785880419,0.6747501123526395,0
77,15.433333333333334,0.9006129094260169,0.15124213844628145,0.40745822231659634,0.6494305236427728,0.4036836227862856,0.6444218553519226,0
78,15.633333333333335,0.9252320955640627,0.09847695339048512,0.3663984975256609,0.6997488267662789,0.3295303127751241,0.6338464738416909,0
79,15.833333333333334,0.992047777505333,0.04232740458079153,0.11853100003030312,0.7319965219832679,0.27471262046770556,0.6234693801303844,0
80,16.033333333333335,0.6373655457896604,-0.1933367770326434,0.7459128981904513,0.7589986485465993,0.2555684236716356,0.5988370665936034,0
81,16.233333333333334,0.47746139027572865,-0.11156024987577735,0.8715416980521487,0.7189434114138713,0.2399510444611559,0.6523372344474793,0
82,16.433333333333337,0.49067631876093937,-0.06417274534091955,0.8689756089572497,0.6683861447387852,0.26817872640843016,0.6937868060313459,0
83,16.633333333333336,0.4621882917607863,0.21953091518446863,0.8591787708256738,0.575896842102341,0.35374626671697285,0.7370253767953692,0
84,16.833333333333336,0.31521768514858706,0.48045045342983067,0.8184162588613672,0.46075702455302037,0.4445848034452985,0.7681453748285888,0
85,17.033333333333335,0.19070810328004853,0.5299503278128084,0.8263068857237145,0.3371991042083603,0.5208234350882617,0.7842446771154667,0
86,17.233333333333334,-0.12712691855700575,0.41891735647951356,0.8990811948975558,0.17627027121388902,0.5782497403634138,0.796590251795631,0
87,17.433333333333337,-0.32734518036732463,0.5898753530004951,0.7381681385787561,-0.010026950765863102,0.5990276148694609,0.8006655836753219,0
88,17.633333333333336,-0.5224360937185069,0.4527563094889775,0.7225456748179099,-0.22665045018329366,0.5726502615173713,0.7878459566538352,0
89,17.833333333333336,-0.7404633779977285,0.29848109337812956,0.602181885097841,-0.4262658482643432,0.4689232956199524,0.7735685938741327,0
90,18.033333333333335,-0.7717970839116444,0.253227169992024,0.5832711733347646,-0.5685846982203101,0.32734036486201107,0.754691808940394,0
91,18.233333333333334,-0.6764370110573215,-0.3470417208747352,0.6496114331230171,-0.6634019469387893,0.09238839629178981,0.7425377034389937,0
92,18.433333333333337,-0.7021411409808546,-0.39415150816153727,0.592994440746361,-0.6967130233208276,-0.1291101655512088,0.7056355491941229,0
93,18.633333333333336,-0.2641085659834929,-0.5319730360884696,0.8045193311841297,-0.6131805776826925,-0.3117311508605832,0.7258328104569646,0
94,18.833333333333336,-0.18182658777218266,-0.5890356111459258,0.7873856366362486,-0.5125993826029421,-0.43295228784242656,0.7414810782529054,0
95,19.033333333333335,-0.11806552700008516,-0.5991211658543345,0.7919055246426405,-0.44207643054935364,-0.5003347860270912,0.7444686235456585,0
96,19.233333333333338,-0.035649117522018076,-0.6077468511554237,0.7933302624573,-0.3557889222082569,-0.563648273379908,0.7454628540375003,0
97,19.433333333333337,0.026426499970951506,-0.6103212712672724,0.7917130704604958,-0.2924055093030318,-0.6103043750199814,0.7362252290982053,0
98,19.633333333333336,0.12061316594434054,-0.5799412312896696,0.8056802296513829,-0.2069337450949821,-0.6224458892061923,0.7548109300687676,1
99,19.833333333333336,0.16515836944484527,-0.5551465838196727,0.8151901517288265,-0.15654926379671733,-0.6187411486503052,0.7698387616713042,1
100,20.033333333333335,0.19442474900635995,-0.5534281665219613,0.8098865855624198,-0.11869086731315617,-0.6278557387683689,0.7692266566572409,1
101,20.233333333333338,0.21104351019000292,-0.5706050513986085,0.7936438194335499,-0.08874648493886073,-0.6500358467278758,0.7547035572857532,1
102,20.433333333333337,-0.05984485364063491,-0.8328453453425835,0.550261050987551,-0.07763656477596784,-0.6629631296763139,0.7446156407836019,1
103,20.633333333333336,-0.19538843333453154,-0.8726057225754245,0.44764116549720856,-0.10132690639272557,-0.7148931668233812,0.6918530321319095,1
104,20.833333333333336,-0.2031673308462894,-0.929112876055257,0.3089859207554988,-0.13275486988449986,-0.8163333604699913,0.5621174157644652,0
105,21.033333333333335,-0.21244100743840333,-0.9759145152803687,-0.04959513306403607,-0.165801185896911,-0.9097943326790233,0.3805052417251421,0
106,21.233333333333338,-0.2054382174078424,-0.9691824606799974,-0.13594299076654823,-0.1948086946278108,-0.94158937021239,0.2746980713446006,0
107,21.433333333333337,-0.46108813882245286,-0.8864285303939438,-0.040523928004079494,-0.2403484962423938,-0.9417409859773702,0.2352796542083295,0
108,21.633333333333336,-0.510019256540124,-0.8593316153054461,-0.037809164164153794,-0.30609437493867836,-0.9257337928321836,0.2220882221988364,0
109,21.833333333333336,-0.8369409922634614,-0.5467846101354034,0.023587403166256193,-0.4937848588099193,-0.8408240545775937,0.22179139400293266,0
110,22.033333333333335,-0.9527048712034285,-0.2923041640363763,0.08313665901546965,-0.7443209313650604,-0.6307032454955581,0.219544453934093,0
111,22.233333333333338,-0.9854519075052789,-0.13305366452663892,0.10574147885404234,-0.8846997120359851,-0.4134098617179168,0.21540358808018514,0
112,22.433333333333337,-0.9336725733252208,0.014191419095759788,0.35784651660217265,-0.9406926752894402,-0.24157733961482372,0.23819672466560113,0
113,22.633333333333336,-0.8936046475088514,0.15005540968016065,0.4230296774179092,-0.9511180157179685,-0.11505204598097248,0.28659648792737646,1
114,22.833333333333336,-0.9531024216276436,0.027364867571692934,0.30140825786680936,-0.9566084239744547,-0.05117626279136227,0.28684719504959344,1
115,23.033333333333335,-0.9955114843327036,-0.06237104080871608,0.07118102155866284,-0.9571296561726137,-0.05583962769019942,0.28422659491031826,1
116,23.233333333333338,-0.9906730491413124,-0.13615770705075597,0.0052904173498465315,-0.9575739713106839,-0.07950316995564687,0.27700421555508664,1
117,23.433333333333337,-0.9119624920649001,-0.1670821456207533,0.37471051450625587,-0.9424211656388792,-0.12396648028505868,0.3106036997873506,1
118,23.633333333333336,-0.8674853673559124,-0.18205281395429165,0.46295346456712255,-0.901647343853655,-0.16302613361923585,0.40056778087960593,1
119,23.833333333333336,-0.8756792034326321,-0.17247728439519647,0.45104048492707366,-0.8896040718125652,-0.17208893163682634,0.42307209199213347,0
120,24.033333333333335,-0.8873049650165435,-0.16030508937035534,0.432425921261611,-0.8879373290885336,-0.16599831490582442,0.42896603485538176,0
121,24.233333333333338,-0.9000098121098367,-0.15026825461192483,0.4091476380988928,-0.8924825042134743,-0.15718385694671289,0.4228099038435611,0
122,24.433333333333337,-0.9454657996157212,-0.011870410274498743,0.3255050155019429,-0.8931045055236188,-0.16749286325045454,0.4175050693986567,0
123,24.633333333333336,-0.9453146814697355,-0.003241245500641656,0.32614359924023856,-0.8943500045292936,-0.16343661155423708,0.41644512651983573,0
124,24.8,-0.9788238791473569,-0.20459558069611294,0.006667980994326698,-0.9463478848641389,-0.2183951270168639,0.23817902785186337,1
