,timeStamp,x_gaze,y_gaze,z_gaze,x_head,y_head,z_head,fixations_head
0,0.033366700033366704,-0.9999914845040873,0.00407903178947476,0.0006264335341530794,-0.9832638469905324,-0.044621754026492,-0.17663834880619275,0
1,0.2333667000333667,-0.9996108964044572,0.01508515252241818,0.023462607759005882,-0.986855760322684,-0.047241094977816214,-0.15454445076816617,0
2,0.43336670003336675,-0.9904685982103512,-0.13420210961861032,-0.031012090112353036,-0.9833663890895924,-0.05441692009115039,-0.17328976777839455,0
3,0.6333667000333668,-0.9480288252315686,-0.31172023792422937,-0.06381096926480491,-0.9654999006703793,-0.15650431318158303,-0.2081257835085529,0
4,0.8333667000333668,-0.7897440515029873,-0.6134158165680377,-0.005036774743272293,-0.9288890126621944,-0.2988788060023766,-0.21871593786930005,0
5,1.0333667000333666,-0.8316013144746445,-0.5552079925404426,-0.01354026525794569,-0.9199997994845464,-0.33721874716395206,-0.19970950280236852,0
6,1.2333667000333668,-0.8691089902767186,-0.4944058777695638,-0.01457364220398037,-0.9439971034847432,-0.2676814014137002,-0.19291484118546368,0
7,1.4333667000333667,-0.9791868263757639,0.20110610031298023,-0.02737691489312003,-0.980421233483439,-0.1030385385648166,-0.16780126490953057,1
8,1.6333667000333667,-0.9990036026549234,0.03540775454787858,-0.027167863374969126,-0.9877267529955323,-0.012653378326470831,-0.15567836533645313,1
9,1.8333667000333667,-0.9999369998757113,0.010135455107449214,-0.004823777495585656,-0.9927151505989008,-0.01104041509958887,-0.11997807718842156,1
10,2.033366700033367,-0.9999489924863667,0.009277354519452611,-0.003992883496990682,-0.9943784573687979,-0.0040256445204741535,-0.10580773935324592,1
11,2.233366700033367,-0.9883289531634399,0.15200541089848266,0.010011762903844503,-0.9952914081267048,0.005508468728764006,-0.09677122341597807,1
12,2.433366700033367,-0.9841605985551469,0.17615367943855384,0.01994486078754861,-0.9953148349330478,0.039088450094038704,-0.08843343503136097,1
13,2.633366700033367,-0.9407149587140715,0.33910135667203334,0.008101626674273422,-0.9893808678934491,0.1203711275161072,-0.08146342680557257,0
14,2.833366700033367,-0.9377231033138517,0.34600845113879736,0.03087933373585238,-0.9654351126166898,0.2565570983929358,-0.04597280273158161,0
15,3.033366700033367,-0.9612549955715557,0.2756234236444483,0.004534515105436826,-0.9340631422285383,0.35464182116623827,-0.041895405595883436,0
16,3.233366700033367,-0.8011583844124062,0.5944237068065669,-0.06932315538147382,-0.8704099973139929,0.49068532214414184,-0.04017898963581399,0
17,3.433366700033367,-0.42991480390624515,0.8612557330991282,-0.27094616363059726,-0.6503114455071763,0.7443347164980005,-0.15185800491975437,0
18,3.633366700033367,-0.5003895713828851,0.8239046920586516,-0.26606641136188447,-0.6070794350747931,0.772070061086146,-0.18804887737953935,0
19,3.833366700033367,-0.6026677545608032,0.5695380538016462,-0.5589436312227494,-0.5612425767411796,0.7856467212655242,-0.2603190339134904,0
20,4.033366700033366,-0.5956709410168168,0.5258709234681201,-0.6071539359000542,-0.537870714024759,0.7329710750975305,-0.41647148529625244,0
21,4.233366700033367,-0.9068734315761917,0.22030602714919095,-0.35922949976715796,-0.6307938544345175,0.6609990343351573,-0.40642267384538794,0
22,4.433366700033367,-0.9875848860548155,0.05981703605088704,-0.14525155776852802,-0.8278554470474617,0.40470168819998686,-0.3884223247470827,0
23,4.633366700033367,-0.9994291684520442,-0.030082160691672695,0.015375332691541552,-0.9152419143367826,0.2826553819576088,-0.28712048567028514,0
24,4.833366700033367,-0.996534087455327,-0.07505111402929905,0.03587677274421702,-0.943536592275207,0.21287605161825443,-0.253815849948565,0
25,5.033366700033366,-0.9995478765428822,0.0038983845673814903,-0.029813505268252025,-0.9560503038303889,0.16698226933366334,-0.24100775563039536,0
26,5.233366700033367,-0.9934959067184352,0.11384478720895606,0.0022907987825539025,-0.9642386970412309,0.12494871681327882,-0.23373393697737732,0
27,5.433366700033367,-0.9913800306070724,0.129195864465668,0.02177299975861799,-0.9705680915211536,0.11569870382087577,-0.21121408488818866,0
28,5.633366700033367,-0.964646485388609,-0.2605616625364877,-0.03955727801082945,-0.9802074307848926,-0.007631522353641979,-0.19782606628208946,0
29,5.833366700033367,-0.9714346584667194,-0.2322031238954969,-0.04895317745377458,-0.9732518443856548,-0.15506550733269928,-0.16951559171820726,1
30,6.033366700033366,-0.8489055962392438,-0.5285110250445201,-0.005948535961454077,-0.9731289598534095,-0.18295707662801416,-0.13980964060590498,1
31,6.233366700033367,-0.9014443909261456,-0.43267584777510193,-0.01377028757461687,-0.9548935492893604,-0.2659039461174189,-0.13218699241889498,1
32,6.433366700033367,-0.9075493864168874,-0.41989913826384123,-0.006230962976500684,-0.9492899227712921,-0.2896016199440113,-0.12239094840174633,1
33,6.633366700033367,-0.9119537805833835,-0.40999534586990843,-0.01562429021390651,-0.9477790132729382,-0.2921090096309684,-0.12801276690936264,1
34,6.833366700033367,-0.9182787827826033,-0.3955938524375849,-0.016418922159835172,-0.9510714574971694,-0.28113121674421787,-0.12817301473448173,1
35,7.033366700033366,-0.9321136285076134,-0.36124724535429825,-0.025780055746691913,-0.9597318620585732,-0.2458836148938893,-0.13585286480710454,1
36,7.233366700033367,-0.9310291018045878,-0.36455017193304445,-0.01697008357464669,-0.9608662259677843,-0.24488555416949462,-0.12948807340263563,1
37,7.433366700033367,-0.9296013106352002,-0.36846064560290465,-0.008840582967690795,-0.9620170589177062,-0.24459836113018923,-0.12122219303309247,1
38,7.633366700033367,-0.9316654208712769,-0.3633089405724216,-0.002481381246730493,-0.9649978076964166,-0.23546377185580145,-0.11548178767471871,1
39,7.833366700033367,-0.9337895306609406,-0.3578174519401739,-0.0019451259757978748,-0.967908469445558,-0.22485583058891975,-0.11221876057827729,1
40,8.033366700033367,-0.9319042107572658,-0.3626376562877875,0.006962199004476381,-0.9691446571320197,-0.22525605546035557,-0.10009167313468932,1
41,8.233366700033368,-0.9298294709031802,-0.36798960089753413,-0.0008992614667249406,-0.9681485096905338,-0.22721026289766239,-0.1051853583821131,1
42,8.433366700033368,-0.9318135063025585,-0.3629067853574064,0.004717479590326768,-0.9697496838627242,-0.22480818702382102,-0.09511482374062209,1
43,8.633366700033367,-0.9311191408886198,-0.3647060033163288,0.0025839148339221714,-0.9689548312146481,-0.22904253860286886,-0.09309162462942906,1
44,8.833366700033368,-0.9314527930814689,-0.36386163565646845,-0.0006358916022613176,-0.9685957998124818,-0.23149916689325814,-0.09072106874010241,1
45,9.033366700033367,-0.9333674300923419,-0.3583624106132358,-0.020040536477046487,-0.9673543587771276,-0.22866515880241864,-0.10926019268131158,1
46,9.233366700033368,-0.9371332591148683,-0.34840590462563925,-0.01986404497415228,-0.9694002778896342,-0.22203162786915862,-0.1047141702601495,1
47,9.433366700033368,-0.9325814428600817,-0.3595781011186181,-0.03155062010384492,-0.9650477407794635,-0.23543949154471147,-0.11511343899658753,1
48,9.633366700033369,-0.9305451315838659,-0.363648821403612,-0.04295687113058857,-0.96216181096038,-0.24216830686388793,-0.12489659995420331,1
49,9.833366700033368,-0.9276295280483784,-0.37039784817687654,-0.04805093920707748,-0.9589213200698842,-0.25242925222311763,-0.129419374660477,1
50,10.033366700033367,-0.9349185551053841,-0.35105564581086185,-0.05183848824936717,-0.963165729757707,-0.23428285566545448,-0.13199742634439515,1
51,10.233366700033368,-0.9353809904904221,-0.35003540570114255,-0.05037476932745157,-0.962930757247814,-0.23663752550769707,-0.12948759889559316,1
52,10.433366700033368,-0.9331234691180277,-0.35359287619911034,-0.06521249329981028,-0.9600877075778149,-0.24032003951198563,-0.14310091672290046,1
53,10.633366700033369,-0.9275269009308885,-0.36949423385581137,-0.056283738298452714,-0.9565129160369332,-0.2592918118356846,-0.13360687770279828,1
54,10.833366700033368,-0.9333314125299154,-0.3549098376749793,-0.054143157521822936,-0.9597389751652015,-0.24703809716736697,-0.13369097986317438,1
55,11.033366700033367,-0.938529389120789,-0.3440621491604204,-0.027996843959121036,-0.9655181965129862,-0.23836405642212813,-0.10467659150115403,1
56,11.233366700033368,-0.9432754578065987,-0.3302044763026612,-0.03458922562644639,-0.9682571472837027,-0.2241907499782468,-0.11052874901227062,1
57,11.433366700033368,-0.9478671278845037,-0.3174820821154638,-0.027441490695875377,-0.9721080861847071,-0.21212805874623705,-0.100037770201354,1
58,11.633366700033369,-0.9419144734951813,-0.3348169651162198,-0.02635762680249349,-0.9685837655160768,-0.22909857670683936,-0.09674363715303604,1
59,11.833366700033368,-0.9889423494609552,0.14475458602017166,0.03223568315973808,-0.9761741507925228,-0.20073816401527592,-0.08239063558605088,1
60,12.033366700033367,-0.9772089220597726,0.2107741619513311,0.02523836960842309,-0.9911729567235286,-0.11095336889218975,-0.07256390143461276,1
61,12.233366700033368,-0.9871095529491419,0.159899816160376,0.006839537149780026,-0.9972911790917612,-0.031115726065448632,-0.06664919877376557,1
62,12.433366700033368,-0.9529737651755608,-0.3028492081693887,-0.011106754624541493,-0.9968044455447036,-0.04150141125556698,-0.06825342633240278,1
63,12.633366700033369,-0.9520760464742286,-0.3056891868621715,-0.010262688027356,-0.9968310656373041,-0.0481942092627828,-0.06328621314261106,1
64,12.833366700033368,-0.9606356153956149,-0.27759785266427567,-0.010892503370272009,-0.9979091998590481,-0.01686880338429315,-0.06239128391896477,1
65,13.033366700033367,-0.959800946717027,-0.28016681309471314,-0.016991160097267366,-0.9976656597123921,-0.01769332903120898,-0.06595587569300762,1
66,13.233366700033368,-0.9600226353914614,-0.27827989133562736,-0.030279392567630525,-0.9975747891377353,-0.021210770278106438,-0.0662921058725119,1
67,13.433366700033368,-0.957719618414502,-0.2848583561383136,-0.04035900695208832,-0.9973401110436391,-0.031835125471691726,-0.06556849616747024,1
68,13.633366700033369,-0.9561386863719249,-0.28734522615614155,-0.056846577981841694,-0.9971153116110378,-0.035073634336473244,-0.06731192706537506,1
69,13.833366700033368,-0.9541544594224046,-0.29102136944203993,-0.06997020860636624,-0.9969975926869914,-0.03777048422190847,-0.06759578905514113,1
70,14.033366700033367,-0.9523590065251096,-0.29395985833454163,-0.08123991862651389,-0.9967933160304914,-0.0407227703892139,-0.0688820810426377,1
71,14.233366700033368,-0.9509548554818945,-0.2955319541180866,-0.09135495022468348,-0.9965315875288241,-0.04261393960883318,-0.07147620029280292,1
72,14.433366700033368,-0.9496790155275796,-0.2971503571763471,-0.0990526763724056,-0.9963140850363092,-0.04431295145140619,-0.07344798357972734,1
73,14.633366700033369,-0.949225015804343,-0.2975873497451529,-0.10204723731145814,-0.9964245509497153,-0.04563733209717625,-0.07110097174940959,1
74,14.833366700033368,-0.9482294777759054,-0.30004119790773626,-0.1040967676487818,-0.9964681714106434,-0.047839312034106046,-0.06901147433313108,1
75,15.033366700033367,-0.9507700607813364,-0.2901852644181673,-0.1087603045068037,-0.996798938672537,-0.03728521462322841,-0.07072261754067266,1
76,15.233366700033368,-0.9525566090522993,-0.2849605234478029,-0.10692710894408,-0.9974489055096157,-0.031004776460513996,-0.0642991814434949,1
77,15.433366700033368,-0.954142963286918,-0.2811022397055106,-0.1029210204117924,-0.9980184819622208,-0.02599904029041416,-0.05729886181942982,1
78,15.633366700033369,-0.952907636746933,-0.285520995030954,-0.10219979073319747,-0.9981657205972185,-0.029747993003728997,-0.052728086793336126,1
79,15.833366700033368,-0.9509646456520426,-0.29243137680845555,-0.10074786636845706,-0.9981406148216704,-0.03544520527847675,-0.04958780561977844,1
80,16.033366700033366,-0.9484266890869881,-0.2946706855355822,-0.11685890001828626,-0.9973340686393444,-0.03688808669884432,-0.0629605002441241,1
81,16.233366700033365,-0.9486279732788017,-0.294565624530258,-0.11548186506137043,-0.9974097891437201,-0.03738920966808922,-0.061447209217956766,1
82,16.433366700033368,-0.9498686161420421,-0.28970296155244185,-0.11756617768791544,-0.9971395997584588,-0.032806329557740856,-0.0680908461872068,1
83,16.633366700033367,-0.9503032765665946,-0.2900914739798118,-0.11300716468885659,-0.9970124982431097,-0.034467130048051006,-0.06912376793320779,1
84,16.833366700033366,-0.9494161192754396,-0.29518700932147923,-0.10711518093998437,-0.9968324317595283,-0.04168720554794986,-0.06772946098994477,1
85,17.033366700033366,-0.9473495420757925,-0.30168047846470963,-0.10732070649268984,-0.9962533227574233,-0.04992413086195989,-0.07061797258822955,1
86,17.233366700033365,-0.9480878242110402,-0.2999698371374204,-0.1055820741912432,-0.9961853065626478,-0.04898907698988384,-0.07221430138388608,1
87,17.433366700033368,-0.9494772363535525,-0.29655751666970664,-0.10269672318587798,-0.9963260475668371,-0.04695456117134456,-0.07162175734405983,1
88,17.633366700033367,-0.9513491729510458,-0.29288822836501544,-0.09566209704247501,-0.9966415463311182,-0.04335958062666157,-0.06946635800585796,1
89,17.833366700033366,-0.9514277154895402,-0.2946776815636068,-0.08916482594976555,-0.996650971397506,-0.04580911369327655,-0.06773748087318202,1
90,18.033366700033366,-0.9513207388447866,-0.2961572052361915,-0.08532151915254063,-0.9964748558538346,-0.04827277010446028,-0.06861196191278494,1
91,18.233366700033365,-0.9529666398886505,-0.2932552378812387,-0.07652417078644658,-0.9969754983863413,-0.04496903303160233,-0.06338486953137708,1
92,18.433366700033368,-0.9552766744514984,-0.28700298759207915,-0.07124437073977925,-0.9973676715767132,-0.03915912938943483,-0.06102696354159178,1
93,18.633366700033367,-0.9558372279133478,-0.2863066030150397,-0.06636055157181371,-0.9974643237219771,-0.03916189880265912,-0.05942447798701871,1
94,18.833366700033366,-0.9542614686196321,-0.29177375738074374,-0.06521597972756267,-0.997065614290728,-0.04520939727622031,-0.06177597588848009,1
95,19.033366700033366,-0.9531401791304107,-0.2952491141059528,-0.06596786753336167,-0.996743593217287,-0.04904605557100298,-0.06400542018623877,1
96,19.23336670003337,-0.955466709885935,-0.28724717515836695,-0.06761972096426631,-0.9969799962186622,-0.04125878526695821,-0.06579209510368059,1
97,19.433366700033368,-0.9602409592919547,-0.2711365803846355,-0.06650003665707997,-0.997511706284337,-0.02542369231726992,-0.06575736988860816,1
98,19.633366700033367,-0.9623410279782423,-0.26354495277131895,-0.06666186119921723,-0.9975753440894326,-0.018227527183968126,-0.0671653937501138,1
99,19.833366700033366,-0.9605870940609837,-0.26843527269005646,-0.07221453523557599,-0.9969930732948328,-0.024439840697546747,-0.07353574633335251,1
100,20.033366700033366,-0.9569661605163438,-0.2814957662310612,-0.07054006819244814,-0.9967068635245547,-0.038324275445851534,-0.0714610251437472,1
101,20.23336670003337,-0.9536121024665067,-0.2931651333638832,-0.06839709503440505,-0.9963425598997744,-0.050133889538796904,-0.06919607251915436,1
102,20.433366700033368,-0.9537934743385952,-0.293211252948746,-0.06561379011563302,-0.9964367040496027,-0.04889349373070249,-0.06872642209201972,1
103,20.633366700033367,-0.9536441927825086,-0.2936296796334709,-0.06591179568592552,-0.9962708572663829,-0.048352259146914,-0.0714593450648436,1
104,20.833366700033366,-0.9517227878954937,-0.29858009869709257,-0.07122962629737573,-0.9955469402128974,-0.05247188519753827,-0.0783134158146244,1
105,21.033366700033366,-0.9195105925282615,-0.37983207021016974,-0.10113292573727924,-0.99449957619996,-0.059382649737725335,-0.08628032132663388,1
106,21.23336670003337,-0.9143271280865151,-0.391505927199991,-0.10358094328755998,-0.9936264446022065,-0.06959017181929522,-0.08867748628225468,1
107,21.433366700033368,-0.8925814841977946,-0.43755330360449884,-0.10883657736281487,-0.9877402385788192,-0.12524602475774735,-0.0931807618268872,1
108,21.633366700033367,-0.870004236252413,-0.4782146596090587,-0.12001403350378698,-0.9771906382678206,-0.18433661338332394,-0.10544415321911614,1
109,21.833366700033366,-0.8656073301424705,-0.48674156145141356,-0.11750149939240871,-0.9723520976420705,-0.20589534581166502,-0.11017488272814491,1
110,22.033366700033366,-0.9972590508135653,-0.034682970756199534,-0.06535653838715577,-0.9694483330755492,-0.2109918783785378,-0.1251093791661349,1
111,22.23336670003337,-0.9978411334032163,-0.014477635169319127,-0.06405833722856737,-0.9736048664245792,-0.1877899581341194,-0.1297246919378234,1
112,22.433366700033368,-0.9847347359768186,0.17405957616433812,-0.0008739028299779615,-0.9778935414765115,-0.15875740277800865,-0.1360893405146333,1
113,22.633366700033367,-0.9762637964399951,0.2161114311497956,0.01431254998087055,-0.9854179070306013,-0.1037495973498705,-0.13486129746212935,1
114,22.833366700033366,-0.9874516226336815,0.1559595278648713,0.024817707917458867,-0.9888938192138136,-0.05509664641638062,-0.13803395913464916,1
115,23.033366700033366,-0.9944267446602962,0.10402926004039913,0.017127829978530205,-0.9848913307274004,-0.10173842412889308,-0.14013693201215674,1
116,23.23336670003337,-0.8135018098785509,-0.5812934374475411,-0.017684595125246047,-0.963781757467681,-0.22007291826891426,-0.15064074686854162,1
117,23.433366700033368,-0.7996188462031472,-0.6004677273964409,-0.006943281076092644,-0.9193868253005099,-0.359671818655508,-0.1592609441416489,1
118,23.633366700033367,-0.7850828622074557,-0.619362744003567,0.005889890365797862,-0.8905330644778214,-0.4296104335918974,-0.1496186366089548,1
119,23.833366700033366,-0.7921288248073367,-0.6103441363688515,-0.00345833912577638,-0.8829328123943595,-0.4459388852999754,-0.14686102061065168,1
120,24.033366700033366,-0.8006626999835197,-0.5990699932069852,0.007374557212680572,-0.8852278734392627,-0.4469071755057657,-0.12901778392012386,1
121,24.23336670003337,-0.8184963878586291,-0.5744763413358879,0.006371523185938364,-0.8968228005117785,-0.42362131742910686,-0.12749056397176597,1
122,24.433366700033368,-0.8292785989900491,-0.5587999913266978,0.0062908624515739505,-0.905258202600509,-0.4050615236906055,-0.12819028297784923,1
123,24.633366700033367,-0.8410792945349574,-0.5401192561899654,-0.029271306724793812,-0.9069499351228186,-0.3976043884211717,-0.13911349858637562,1
124,24.833366700033366,-0.8701976665294378,-0.48497463790108436,-0.0869230795556284,-0.9051504460748644,-0.4007669010804997,-0.14173412069366834,1
125,25.033366700033366,-0.8804494319180945,-0.46538137682557645,-0.0907136811017817,-0.9053323526391125,-0.39985599134148947,-0.1431381062234807,1
126,25.23336670003337,-0.9449541107824022,-0.31076279650359756,-0.1024119759828103,-0.9065851970539948,-0.39696571978009376,-0.14325326454235576,1
127,25.433366700033368,-0.9592911501752097,-0.2650827737363864,-0.09742490576719916,-0.9132601542139356,-0.3811555909688019,-0.1437925804704887,1
128,25.633366700033367,-0.9662122047272401,-0.23927758265193488,-0.09581343265102252,-0.9153871111270679,-0.37488616104342953,-0.14672015212833353,1
129,25.833366700033366,-0.9701433981023013,-0.22534747000730196,-0.08966774715486288,-0.9127910906830801,-0.3814384368794733,-0.1460039165246505,1
130,26.033366700033366,-0.968765225926354,-0.24531242275945106,-0.036273299763726154,-0.9082360956850326,-0.3919889087675423,-0.14646463702218357,1
131,26.23336670003337,-0.9671417947996119,-0.25259328058813724,-0.028868379821321677,-0.9082936941278045,-0.3930000352740138,-0.14336504972374028,1
132,26.433366700033368,-0.9730527126592965,-0.22927346792894582,-0.024537630085633717,-0.9145485727142002,-0.3785514631408576,-0.14247700832181726,1
133,26.633366700033367,-0.9760396226028503,-0.21634355242751213,-0.023283522764610844,-0.9151411830161799,-0.37602828757656825,-0.1453249534318895,1
134,26.833366700033366,-0.9769179346296499,-0.21228925332242585,-0.023761774402299703,-0.9159666139218684,-0.37332944862944795,-0.14707238002609271,1
135,27.033366700033366,-0.9764027158330191,-0.2150550126071578,-0.019725061886841404,-0.9175398616201325,-0.3697166050187304,-0.14639069065870422,1
136,27.23336670003337,-0.9764715757782485,-0.21508715339406145,-0.015517027485438985,-0.9199071256345546,-0.3645775421260389,-0.1444094733184375,1
137,27.433366700033368,-0.9760907338335699,-0.21719749342749847,-0.008492830685630547,-0.9214674268861527,-0.3626173840358694,-0.13930690572543764,1
138,27.633366700033367,-0.9760887134968534,-0.2173272785813895,-0.004435917995737133,-0.9231841006298181,-0.3593767389538539,-0.13630655099153438,1
139,27.833366700033366,-0.9776054497870195,-0.21033462819048998,-0.006850454779622694,-0.9254997068516468,-0.3525652946412043,-0.13837631889914134,1
140,28.033366700033366,-0.9801931824126924,-0.19784505963489551,-0.008868908035571662,-0.9292200182620858,-0.3423896131374278,-0.1389946418989303,1
141,28.23336670003337,-0.9802157657420633,-0.19789107165771294,-0.0040219832002066245,-0.9293957042623221,-0.344287890286528,-0.13300178006626215,1
142,28.433366700033368,-0.9786769968087524,-0.20540221093450378,-0.001125904356140485,-0.9260694808792509,-0.3546546315197865,-0.12890077162530622,1
143,28.633366700033367,-0.9910890047200637,-0.12988109785372173,-0.029554782071710868,-0.9255874076869947,-0.357832333235319,-0.12346648137303146,1
144,28.833366700033366,-0.9920213240534997,-0.12229847420143505,-0.030606793872311806,-0.9279062422311597,-0.35055909813855024,-0.12687917221015904,1
145,29.033366700033366,-0.9920786858905855,-0.12070387417110795,-0.03479160475883089,-0.9292154050821343,-0.3449373054423319,-0.1325782269915704,1
146,29.23336670003337,-0.9926182367319301,-0.11530238998630042,-0.037608442810639846,-0.9324757797159,-0.33515495384284544,-0.1347593305037713,1
