,timeStamp,x_gaze,y_gaze,z_gaze,x_head,y_head,z_head,fixations_head
0,0.04,-0.9997143457549894,-0.021561702668631565,-0.010311152685467668,-0.9923004791065948,-0.09540559735117635,-0.07897804225788212,0
1,0.24000000000000002,-0.9989580096701397,0.041723082374635484,-0.018495386263414345,-0.9968734555203653,-0.02109750121451429,-0.07614597245678865,0
2,0.44,-0.9964911780457466,0.06853888941438359,0.048039074874974975,-0.9997930731018485,-0.005925143436664525,-0.019460309679364386,0
3,0.6400000000000001,-0.9857846925021189,0.132214490677807,0.10367192717081765,-0.998271399197181,0.05319503947418862,0.024990024414594483,0
4,0.8400000000000001,-0.8875865859121368,0.44986775128766127,0.09904069295102921,-0.9897749220947883,0.13934781938682161,0.03045962613679581,0
5,1.04,-0.8624987000863716,0.4914974177192333,0.12052502115596171,-0.977696536871819,0.2061808299490628,0.03998683721386374,0
6,1.2400000000000002,-0.9800437764366333,-0.19499083893307217,0.038636368876992545,-0.9986433778490688,0.05068750712048036,0.011923946499105841,0
7,1.4400000000000002,-0.9580618760296509,-0.2865612607326166,0.0002924822718790191,-0.9775686279104848,-0.2103474087465255,0.010655766459269488,0
8,1.6400000000000001,-0.8935194365849164,-0.448270884758895,0.026004428900699553,-0.9107181328712136,-0.41239459172253845,-0.022873197799420042,0
9,1.84,-0.8475176839561748,-0.5284986151543192,0.049020293364364205,-0.8355683648838413,-0.5493800220941376,0.0026643815771235507,0
10,2.04,-0.8514433477882579,-0.5230633840040373,0.038064705717615145,-0.8205689575950074,-0.5714896247731036,0.008136006891628291,0
11,2.24,-0.7252064274869294,-0.6878737003370908,0.03009003017950541,-0.7915969398373777,-0.6079119520293137,0.06178465359625393,0
12,2.4400000000000004,-0.7022310944200207,-0.6924096015917137,0.16565154286412334,-0.8133823150836873,-0.5749799914622956,0.08835846833846646,0
13,2.64,-0.7748037176235681,-0.6188164582294835,0.12940398054548352,-0.8953786515139276,-0.44503420711925723,0.015544288559941753,0
14,2.8400000000000003,-0.6525177312543553,-0.7173176544049774,0.2442867026213469,-0.9093763773877763,-0.40560592760060526,0.09229537228018257,0
15,3.04,-0.6681702797381083,-0.7227296070712406,0.17666463238958874,-0.8348897750631415,-0.5364392265681637,0.12325591139563005,0
16,3.24,-0.7168610539485193,-0.6541210552763443,0.24132110221855863,-0.6915777666743143,-0.7172593327298623,0.08520118692647816,0
17,3.4400000000000004,-0.7031823337911747,-0.6591367390341396,0.26659588275034807,-0.6605024447912271,-0.7408660817005669,0.12187686166972402,0
18,3.64,-0.746858574629629,-0.6238272558096272,0.23030810756729553,-0.7088220161755772,-0.7006170554893745,0.0818968310875873,0
19,3.8400000000000003,-0.663672392379248,-0.7052255896227905,0.24939090467535655,-0.7184195014715256,-0.69122409310586,0.07799149322449199,0
20,4.04,-0.5842510629860417,-0.7790450864483196,0.22746307102563032,-0.6317070561147817,-0.7720472184374334,0.06992344211935224,0
21,4.24,-0.4591131156276068,-0.8681859152076644,0.18833046406182385,-0.5619729508778327,-0.823337806461324,0.07938046946898401,0
22,4.44,-0.45597145354062174,-0.8751421066077141,0.16191456635604165,-0.522174901541366,-0.8512005508297724,0.05282986340468012,0
23,4.640000000000001,-0.48220615641737385,-0.8583028049168782,0.175480818852097,-0.5224906962196374,-0.8502942963209996,0.06326991392356009,0
24,4.840000000000001,-0.3104896503990749,-0.9400450479850303,0.141108060556023,-0.4282485751498973,-0.90068351829871,0.07329636926301338,0
25,5.04,0.09210183317741438,-0.9887223476689582,0.11809052267368193,-0.25950289533284465,-0.964686654928984,0.04514316244790433,0
26,5.24,0.11162955754890042,-0.9904568591298624,0.08083348368123519,-0.05558945717501096,-0.9982050982680192,0.02227990221526439,0
27,5.44,0.4409122568286053,-0.8952436250269943,-0.06430578221927068,0.10586205677582572,-0.9937757272328014,-0.03468470697741248,0
28,5.640000000000001,0.46775053973062536,-0.8806767643939737,-0.07495244651290592,0.18258115936001496,-0.9825756671006135,-0.03477324644805894,0
29,5.840000000000001,0.6132316020792725,-0.7855735071307454,-0.08259096261450044,0.2560632504010736,-0.9631427571433854,-0.0823871419353462,0
30,6.04,0.055011838530297896,-0.9972569021695139,-0.04952139635330655,0.0326485436363792,-0.9967225484564087,-0.07401509303504152,0
31,6.24,-0.5928577369464424,-0.8046841539105452,0.03167200953544183,-0.5894205719739776,-0.8071652109224857,-0.03267585668851986,0
32,6.44,-0.9991481039329639,0.03640304085927013,0.01943926499025667,-0.9738068171233745,-0.21580353947588443,-0.07161784186725573,0
33,6.640000000000001,-0.9320189921233657,0.36232588810176514,0.007781332316049923,-0.9516655101076937,0.285310719833586,-0.11371257634714138,0
34,6.840000000000001,-0.7864774681676048,0.6174839941123713,0.012911587032873964,-0.8729856516287486,0.4678766031904064,-0.13779526928503863,0
35,7.04,-0.7862792757067132,0.6158499928920057,0.04993682858415371,-0.8442169559829845,0.5311411866948639,-0.07201924067355507,0
36,7.24,-0.5852752696865849,0.8102624643618412,-0.030456486001697536,-0.7781521629213779,0.6219329452910671,-0.08762775189607391,0
37,7.44,-0.6283906920160582,0.7777212266207836,-0.01657805329474933,-0.7391693075394328,0.6697748385907218,-0.07092531552589738,0
38,7.640000000000001,-0.6218796198980561,0.7828567381773321,-0.020026628418130174,-0.7128909400776252,0.6976439261407832,-0.07127032954963444,0
39,7.840000000000001,-0.6164959781029951,0.7872966063828503,0.009836796271079837,-0.6347195624851137,0.7704282229342989,-0.059761444970852076,0
40,8.04,-0.3196327130554285,0.9470024344776429,0.03195806374366578,-0.43947420140809046,0.8982095403552046,-0.009058030228111007,0
41,8.24,-0.044698487487755734,0.9983481875754502,0.03609628209553915,-0.26401209635477235,0.9642253825708504,-0.02381227801903281,0
42,8.44,-0.09702905491051561,0.9943426999469727,0.043219874656655555,-0.17684785985700835,0.9836994457099846,-0.03256124957468809,0
43,8.639999999999999,-0.24377009887747159,0.9698128603220831,0.006257383412218916,-0.16111067357180303,0.986359654897915,-0.03373398954921074,0
44,8.84,-0.4537155050764103,0.8901681354614839,-0.04174842586593813,-0.22353420348605085,0.9720584333976775,-0.07165795093574708,0
45,9.04,-0.3681735484970499,0.9297500369214673,-0.0036203634652472883,-0.12697281965879487,0.9906236989283063,-0.050424103259213766,0
46,9.24,0.39613666137957454,0.9180960336185662,-0.013244567373130992,0.07887853050706961,0.995425669939051,-0.05390652141844069,0
47,9.44,0.4172216111663172,0.9073167334703934,-0.05198530889008267,0.24752909836150094,0.9659845091027242,-0.07485501745315157,0
48,9.64,0.6181900821385002,0.7850993504028646,-0.038210369568934775,0.3291079027304428,0.940072662851114,-0.08917049355243997,0
49,9.84,0.6349898715910388,0.7716490091245106,-0.03668337080963907,0.3698445828284887,0.926070261012901,-0.07489229746721847,0
50,10.04,0.6509456217226104,0.7575799597773385,-0.0483983688147741,0.5150204068610281,0.8549718508986919,-0.061458235311196444,0
51,10.24,0.9489473191044956,0.2705696134268677,-0.16214521224638867,0.7787569626646266,0.6148783104907051,-0.12434732160147646,0
52,10.44,0.8039950317667285,0.10149018307966022,-0.5859110270620227,0.8554828356625447,0.30240973187282233,-0.42035398410789415,0
53,10.64,0.27125329789836494,0.07709173370228084,-0.959415714366842,0.7900592627095449,0.12085812299725661,-0.6009988980958543,0
54,10.84,0.15046110390169853,0.238708405156412,-0.9593642444454372,0.8206620074876785,0.03196399506254377,-0.5705192130734384,0
55,11.04,0.29112771913865537,0.2740712189017334,-0.9165858487445911,0.8638414876166352,-0.1541374548494653,-0.479603512585978,0
56,11.24,0.4166078782259183,0.21102254422690545,-0.8842552581851587,0.8213997253222773,-0.37593179793538484,-0.4289263043245969,0
57,11.44,0.5225848570113585,0.13548571165438753,-0.8417533422327009,0.7343441509854418,-0.5534926059421355,-0.3929180615355502,0
58,11.64,0.632525371903335,0.15310528082937963,-0.759256496107017,0.7021618347787951,-0.6226667884464981,-0.3453329239238561,0
59,11.84,0.6330600511765873,0.3052324035998539,-0.7113846718878281,0.9062309280906252,-0.3352817125428159,-0.25754937042509174,0
60,12.04,0.3942544470609619,0.6358364034887052,-0.6635325907377904,0.8860671540871466,0.4551419380952952,-0.08792505123548978,0
61,12.24,0.13499883048597172,0.8122660043394497,-0.5674497810043149,0.712996562668082,0.7008067497744758,-0.02249002209948707,0
62,12.44,-0.024538715427896984,0.7698187744397983,-0.6377906443067003,0.46071291630484695,0.8874389195666601,0.013991882941276719,0
63,12.64,-0.16471163565588232,0.6596596949013356,-0.7332933683064652,-0.07961020642279776,0.9960752615040964,0.03868188791754614,0
64,12.84,-0.3965919577601268,0.6398422956876468,-0.6582679209023876,-0.29646017721872897,0.9474079241099199,0.12053874338640032,0
65,13.04,-0.31425152409775975,0.7150173080672946,-0.6244967804291985,-0.12922921603483306,0.9755410173938762,0.17781882100931717,0
66,13.24,-0.2562027635610208,0.7983098064112907,-0.5450335741321481,0.24691041901054833,0.9561908775180192,0.15727126481133213,0
67,13.44,-0.36409878424444564,0.8638620955597612,-0.3481010703327622,0.2933303381198522,0.9416326609797042,0.16518245825381828,0
68,13.64,-0.33247922890675496,0.7478499701130411,-0.5746111594352251,-0.06304529327199415,0.9729914266600268,0.22206524861475765,0
69,13.84,-0.7061967477474134,0.5240483848732499,-0.47608764296368233,-0.5070008371175029,0.8129623670218732,0.28643034226203123,0
70,14.04,-0.7180126614515682,0.5145203693239793,-0.46875004804901266,-0.5742290944562206,0.7423255680924347,0.34527336711109463,0
71,14.24,-0.7447443448509357,0.4931505229397484,-0.44962030930197533,-0.4983773993373637,0.7883761706156996,0.3606701837344631,0
72,14.44,-0.8473288049110584,0.34911903190109084,-0.4001872036090643,-0.6048292721468569,0.6994187198260307,0.3807820976768998,0
73,14.64,-0.8862519286197337,0.09551709692322098,-0.453248279878879,-0.874374403705795,0.29175916078286374,0.38774475398567937,0
74,14.84,-0.8512291859997172,-0.32847115534045196,-0.4092866636131304,-0.9068099660329375,-0.07889704141902526,0.4140905002033582,0
75,15.04,-0.7515773698482575,-0.4745194880127135,-0.4582168838313661,-0.9086749216762122,-0.21706933549560886,0.35663817841647993,0
76,15.24,-0.8191520184506224,-0.16938059847315878,-0.5479965178075002,-0.9731766414742481,-0.006427812683066933,0.2299693625529592,0
77,15.44,-0.8237289366147935,-0.034372214383509105,-0.5659409773658697,-0.9808071695208767,0.07173746342494389,0.1813037025485176,0
78,15.64,-0.6375881421641377,-0.49414840299612445,-0.591014988632322,-0.9768979784571212,-0.21206049451840742,0.026470480747404327,0
79,15.84,-0.40516720631111536,-0.40581179115900134,-0.8192413106566157,-0.795351450169006,-0.5467341498236321,-0.2617209203153038,0
80,16.04,-0.33166304845544925,-0.3568115258193045,-0.8733184741729321,-0.650337739019548,-0.6143984404663345,-0.4467386054053072,0
81,16.24,-0.7950643061555809,-0.5770925694509069,-0.1866464983917324,-0.6201106502255718,-0.6795962603322552,-0.3919332907769283,0
82,16.44,-0.8454153262212845,-0.5325389461269009,-0.04092917111559284,-0.6995146261452124,-0.6696810360833394,-0.2494125051381124,0
83,16.64,-0.8657258500563045,-0.4923496936909276,0.09005849025349769,-0.7934093749278157,-0.5593194337490411,-0.24013191126400726,0
84,16.84,-0.7055748489758933,-0.6814614836959841,0.1943563189904393,-0.7932463006305069,-0.6046792740255876,-0.07157710597603227,0
85,17.04,-0.685096688533325,-0.6861193609812797,0.24470952136627735,-0.7380703041052773,-0.6745328999236883,0.016049707738261223,0
86,17.24,-0.6500312220363315,-0.7373334358490307,0.1838445396442808,-0.5630732270981702,-0.8263975672176703,0.003949914172310169,0
87,17.44,-0.28215765149083794,-0.9455244108902457,0.16239041879319374,-0.3549628864704864,-0.9339315685996296,0.0421090774248961,0
88,17.64,-0.30940889723273485,-0.946260749724208,0.09411018990843953,-0.2216466793025617,-0.9738920044556982,0.049062340052323336,0
89,17.84,-0.04694605453545486,-0.9986223142177723,0.023442301719230972,-0.1689312916918672,-0.9854232970461383,-0.020078454274061807,0
90,18.04,0.02732975567274465,-0.9968769106374961,0.07409122412749014,-0.08099670650380592,-0.9963548043843928,0.02677008247418706,0
91,18.24,0.4515113981303121,-0.8888840880585893,0.07760499568108517,0.16055360824060566,-0.9868852869253776,0.016732284098036784,0
92,18.44,0.49685406799764054,-0.8583298514281569,0.12808552323160524,0.45264402902593326,-0.8890529136004675,0.0685441449409784,0
93,18.64,0.7096466424088321,-0.7045391821539454,0.005117003783531733,0.5933965757523658,-0.803948490464166,0.03933609749016129,0
94,18.84,0.7828074721919989,-0.620640450288219,0.044920963329047284,0.733646735815336,-0.6789039094551421,0.02918816119639329,0
95,19.04,0.8155532523145286,-0.575635766130238,0.05929888186845134,0.7792338409756234,-0.6244625023231483,0.05330294804876189,0
96,19.240000000000002,0.8927778269902223,-0.44908143007178286,0.03568782424439797,0.829022450482116,-0.5582465019756264,0.03290318569081954,0
97,19.44,0.9198840474143994,-0.3907308085272382,0.03380494904823677,0.8847198136376612,-0.4657559671975891,0.018499469635112915,0
98,19.64,0.8940156711854766,-0.4467030082945747,0.03453117512276435,0.87078122587765,-0.49165368795689846,0.004087514819285454,0
99,19.84,0.9052720559031712,-0.41993957501343837,0.06429042026911054,0.8906853778066315,-0.4536795481826164,0.029230554600890614,0
100,20.04,0.9726796482519421,-0.14156972648555094,0.1839899845624341,0.9336675966324097,-0.3508783569656279,0.07175790975050417,0
101,20.240000000000002,0.9757398950256825,-0.06167173318448203,0.21006726204073875,0.9652439080280223,-0.24537726315227026,0.08996775390490079,0
102,20.44,0.9633410942332988,-0.018070362279197446,0.26767031618857046,0.9746178001544584,-0.19583024220274786,0.10849267192256572,0
103,20.64,0.9500886522913778,-0.05366297680892401,0.30733017702002235,0.9663610981866512,-0.2223767783128023,0.12920834484935087,0
104,20.84,0.9314708685014551,-0.02098075494414587,0.36321044733751595,0.9894305976473633,-0.07775309177747454,0.12239913871521228,0
105,21.04,0.9722091116958833,0.1659322534724967,0.16515426241257308,0.9934033811616987,-0.009633325277263655,0.11426688645713358,1
106,21.240000000000002,0.9665852676804506,0.21705940282062086,0.1363749828607398,0.9934749599962701,0.06640877709859885,0.09272204799656872,1
107,21.44,0.9636415117440124,0.23107387593997464,0.13416370858690585,0.990769098503613,0.10729990053153401,0.08284518571565291,1
108,21.64,0.869202780844585,0.4643977648527769,0.16976820011941374,0.9865693358229195,0.1414127946630795,0.08175186309498522,1
109,21.84,0.9430955110180437,0.28474335697368747,0.17173257628350744,0.9903778009118293,0.1168618120765987,0.0741291328643675,1
110,22.04,0.9393729626502082,0.28947219972840604,0.18380501251644113,0.9866175895274605,0.14712834980401115,0.07027788214631996,1
111,22.240000000000002,0.9266514104550269,0.3005910800518012,0.22574801459813845,0.9803718686357893,0.18171987546915125,0.07647801021893177,0
112,22.44,0.9119871348919673,0.33305240725241525,0.23949020818169545,0.9686151021935969,0.23655071899997168,0.07634488288735666,0
113,22.64,0.9154136006322745,0.3039797118353288,0.2638451715873639,0.9480536162689734,0.31155397317147926,0.06425311261244376,0
114,22.84,0.7368701419287982,0.6701913929810193,0.0886898568495546,0.8838475423945885,0.4669938450525159,0.0270235172787183,0
115,23.04,0.614087877226979,0.7778211745665721,0.13375462399012983,0.8074019649909839,0.5893407033354441,0.027921359579763997,0
116,23.240000000000002,0.5390343423033872,0.8338046931911637,0.11921288281869823,0.7264275210389186,0.6868890878007659,0.022055333538242065,0
117,23.44,0.5344995475004892,0.8438095311652282,0.047913555873992764,0.6220119762021878,0.7824871839300092,0.02854660130966561,0
118,23.64,0.5417740999278887,0.8402074622074727,0.023070437754941327,0.6046061902844542,0.7964897042150999,0.007450218054610872,0
119,23.84,0.43270806689433083,0.9012460203414255,0.02278902506283394,0.5241162478332004,0.8516243736216497,-0.006171305435668396,0
120,24.04,0.3867866327329502,0.9205764285977046,0.05417693097067344,0.49167847987648794,0.8705050825266799,0.021752556667310904,0
121,24.240000000000002,0.8374319218947491,0.5152105754078158,0.18238925182042423,0.6848414782434009,0.7265429131704702,0.05592445796930498,0
122,24.44,0.9819276247228734,-0.0004383074313802832,0.18925630159308224,0.9826416177257868,0.17192025964448435,0.06970563418420299,0
123,24.64,0.9702613796557978,-0.17478827686747272,0.16745719876472212,0.9572173005094515,-0.283070804716359,0.06004963882182267,0
124,24.84,0.9163055875857044,-0.38499979550625635,0.11026888781228522,0.9336238068445836,-0.35521816168424036,0.04654723302943862,0
125,25.04,0.9744627306388502,-0.15629705025988846,0.1612253661057518,0.9473155399747081,-0.31452171865869494,0.06057521122049855,0
126,25.240000000000002,0.7565501659244914,-0.6493777259707857,0.07707409067018658,0.877205043115835,-0.47803897881247737,0.044609943600839246,0
127,25.44,0.6965156263059488,-0.7092331217502028,0.10887773566755535,0.8567617067979226,-0.5146779470014491,0.03264948139074003,0
128,25.64,0.7205309078358233,-0.6798973536287054,0.13628939570622423,0.8726550861260807,-0.4848328952919642,0.058396612068630414,0
129,25.84,0.997838944266489,-0.00939461280116526,0.06503216554486582,0.999012340000634,0.012505024228582668,0.04263764645826774,0
130,26.04,0.05827906262068461,0.9951256035885836,0.0795523974655196,0.44410023810835425,0.8957592154951238,0.019758703592679384,0
131,26.240000000000002,-0.17430781914369697,0.9846908106716528,0.0008896989221200866,-0.26188407864787744,0.9648188446683369,-0.023266420515594112,0
132,26.44,-0.5640924113648335,0.8253855906646682,-0.02320297747584103,-0.459631820517277,0.8868821181487883,-0.046676525962124425,0
133,26.64,-0.5974950750811236,0.7960782913817215,0.09622364181718221,-0.5871359429256826,0.8092786455044744,-0.018424398367739552,1
134,26.84,-0.5398611407110592,0.83480173818677,0.10796298750267166,-0.6308359149621668,0.7758042165522706,0.013185824720638872,1
135,27.04,-0.4862617824738249,0.8685030392723329,0.09618705567850383,-0.552477872958245,0.833400330427011,0.014563280388782305,1
