,timeStamp,x_gaze,y_gaze,z_gaze,x_head,y_head,z_head,fixations_head
0,0.033366700033366704,-0.997860874156894,0.03138602785686637,-0.0573462560435089,-0.9960522192616905,-0.03376499733627449,0.0820969028571894,1
1,0.2333667000333667,-0.9965897660239074,0.04510599801656534,-0.06909621696839313,-0.9974623092736261,-0.04279554979054503,0.05689887957288641,1
2,0.43336670003336675,-0.9944507508595385,0.022160457497021325,-0.10284268684949285,-0.9972022767820347,-0.07249538220409509,0.018221930188893086,1
3,0.6333667000333668,-0.9950302730994007,0.040601262809228926,-0.09091915680442979,-0.998490071842779,-0.04798155808712977,0.02674596259127141,1
4,0.8333667000333668,-0.9960031683720749,0.05349243832006442,-0.07152795002908076,-0.9986259397766177,-0.02564614391044679,0.04570019373910536,1
5,1.0333667000333666,-0.9898267368945227,0.1416907987724917,-0.012913112403861492,-0.9975808148060546,0.0017173150233694527,0.069495098819983,1
6,1.2333667000333668,-0.9940867707668475,0.10249728334619909,-0.03585804084149685,-0.9967262510339654,-0.028909986266823486,0.0755049216530237,1
7,1.4333667000333667,-0.9260177783716587,-0.284055611034431,-0.24860306510474442,-0.9754708626675964,-0.21962258187089945,0.01491702446519318,0
8,1.6333667000333667,-0.6771140718274831,-0.7039057734578898,-0.21455348010660738,-0.866077499389546,-0.49915367714711223,-0.02748402520861586,0
9,1.8333667000333667,-0.4320708711099594,-0.89011063986879,-0.14497520867601457,-0.7061882789541063,-0.7065903130966261,-0.04503603119558232,0
10,2.033366700033367,-0.3865360133917179,-0.9124023463883378,-0.13458034275589184,-0.5284117274500354,-0.8479256869855551,-0.04246263820518042,0
11,2.233366700033367,-0.031125205762671637,-0.9982782085396423,-0.0497176017232719,-0.38973112832379697,-0.9206712570698443,-0.021773470575292202,0
12,2.433366700033367,0.10167147782171532,-0.9944606099325762,-0.026664693699301276,-0.19309771513611323,-0.9810658296990403,0.01493687404199786,0
13,2.633366700033367,0.245437271247552,-0.9632337134751695,0.10927652587537268,0.0544211984417276,-0.985110053616042,0.1630843813023342,0
14,2.833366700033367,0.015948460104299567,-0.9232617916694863,0.38384021501603,0.1431153905970337,-0.8679538048568193,0.475577730354176,0
15,3.033366700033367,0.13334876422711253,-0.536733726702,0.8331476542004334,0.1407401598001812,-0.7153843773370044,0.6844102571422833,0
16,3.233366700033367,0.11981069124006323,-0.35570228815023747,0.9268879546467654,0.13829001228859455,-0.5717903024696532,0.8086604494488917,0
17,3.433366700033367,0.12684861737629569,-0.33846682897197045,0.9323892073353172,0.11993495595573062,-0.4577971617431202,0.8809298298047584,0
18,3.633366700033367,0.23635625215226946,-0.41535140939855686,0.8784184246582977,0.27221707120362426,-0.6020523281549246,0.7506203170102421,0
19,3.833366700033367,0.7081270127880832,-0.6862462828317732,0.16619919692766225,0.5215532246854764,-0.7691498941123042,0.3693110805367373,0
20,4.033366700033366,0.6304874152852438,-0.7186571157636502,-0.2932875195592279,0.6558909150839083,-0.7548017952426492,0.009019834192885485,0
21,4.233366700033367,0.6200800202372809,-0.7525965944720269,-0.22158324506072472,0.7080764856760264,-0.6785379169370007,-0.1954839781452269,0
22,4.433366700033367,0.9304973140236991,-0.1683451721441902,-0.3253223810475147,0.8175641943939105,-0.5171248687235751,-0.2533192811308717,0
23,4.633366700033367,0.9936081925443287,-0.07330177813656681,-0.08584642701248679,0.8629946181406262,-0.45764906753231777,-0.21400378512333668,0
24,4.833366700033367,0.9814030968777864,-0.14450752511156695,-0.12635480451815045,0.8413023792053089,-0.49999454643210106,-0.20546474218620597,0
25,5.033366700033366,0.8984745097798693,-0.41049380482562114,-0.15568683783675655,0.657793654607123,-0.7100873878469671,-0.2511641088596776,0
26,5.233366700033367,-0.09874289616154963,-0.9456261072137877,-0.3099049948182958,0.25945478813666634,-0.9232375893821013,-0.2834000114059353,0
27,5.433366700033367,-0.060994947171200686,-0.9493368297507228,-0.30828428454663376,-0.13719641081471728,-0.9594196333110324,-0.24635566175122392,0
28,5.633366700033367,-0.6762902568901019,-0.6551358918932843,-0.3367914066432085,-0.4000868704440672,-0.8874212201169228,-0.228941202461384,0
29,5.833366700033367,-0.8093657873122198,-0.35627916236675605,-0.4668963276699806,-0.7189969550478876,-0.6301093601761361,-0.29326706744925624,0
30,6.033366700033366,-0.8488694103222215,-0.10052362644077578,-0.5189563803889488,-0.8850393247576683,-0.3050740147175292,-0.351618030221175,0
31,6.233366700033367,-0.9249613676744399,0.2411271947569745,-0.29377566995662036,-0.943393257996717,0.044224418385121346,-0.3287147115430603,0
32,6.433366700033367,-0.7817321275982372,0.532831084686642,-0.32401530191086736,-0.8932015623446821,0.3371667136197726,-0.29750559028673995,0
33,6.633366700033367,-0.7116248495999765,0.6385695087682923,-0.29294889640214145,-0.7616858313522634,0.5855516653886538,-0.2774237579548402,0
34,6.833366700033367,-0.18946578791914193,0.9221642405636425,-0.33721777627203964,-0.610273509774215,0.7449551472390766,-0.26945885004925546,0
35,7.033366700033366,-0.09071266518065552,0.9406558672824835,-0.32701338156543613,-0.3486907356981963,0.8922164761653635,-0.2869922133043204,0
36,7.233366700033367,0.37348636305563204,0.8792188260874579,-0.29577388739520055,-0.059356305470927795,0.9570897372381618,-0.2836477813666603,0
37,7.433366700033367,0.4832558020224659,0.8387312909712854,-0.25098536084254874,0.27646730369372263,0.9304021370873846,-0.24066095090718542,0
38,7.633366700033367,0.7628646240711094,0.6071696402160497,-0.22222194612764548,0.48521613814143494,0.8485235392303306,-0.21112342991516994,0
39,7.833366700033367,0.764802527438085,0.610818857698343,-0.20488391128736438,0.6276834765034507,0.7569812572300488,-0.18163928409613553,0
40,8.033366700033367,0.8059592751891892,0.559583133783249,-0.19312266340809364,0.7298967004456649,0.6624140758114732,-0.16869617317936833,0
41,8.233366700033368,0.8823466931547952,0.36004327760891947,-0.30303985105497955,0.7837890503563841,0.5879634382796204,-0.19993428867466656,0
42,8.433366700033368,0.8676546674096547,0.4044828448042381,-0.2890830440916807,0.771894784333153,0.6056465494908522,-0.19331502530610536,0
43,8.633366700033367,0.5314348114284809,0.8113462516319784,-0.24350421180076873,0.6741266772681227,0.711872008200687,-0.19695549480977023,0
44,8.833366700033368,0.24496783716789722,0.9331997349337829,-0.26292396899636156,0.5538797589172644,0.8089085770207192,-0.19719058467398518,0
45,9.033366700033367,0.24458687539220475,0.932013018033028,-0.2674490504803585,0.38753564974486937,0.9018598459490533,-0.19095794940659536,0
46,9.233366700033368,0.1744499772212772,0.9465823321879553,-0.27119936179332627,0.22901859718843204,0.9570313678396448,-0.17788041801395924,0
47,9.433366700033368,0.01830464149482719,0.9292209672919286,-0.3690709065271858,0.10046025673717579,0.9778558295797407,-0.1835911582108952,0
48,9.633366700033369,0.014907662870218996,0.9303673232273407,-0.3663255457356764,0.041427281917095604,0.9811427448002108,-0.1887927293061628,0
49,9.833366700033368,0.09071311090358841,0.8865080072921728,-0.45373415621600943,0.027508271478797808,0.9804452153981197,-0.19486014113508132,0
50,10.033366700033367,0.0878467019761483,0.8856887723693079,-0.45589292103613754,0.016726708511159982,0.9801017189760911,-0.19778988265958983,0
51,10.233366700033368,-0.09730353846689127,0.9927591245790863,-0.07043679412628233,-0.06367794511414743,0.9843431422447738,-0.1643584425021265,0
52,10.433366700033368,-0.13245019745465292,0.9830535964210749,-0.12673820165133245,-0.1369915833477664,0.9799533566633638,-0.1446538103752471,0
53,10.633366700033369,-0.337994767603321,0.9157771860590881,-0.2170522576857355,-0.21636102334110557,0.9686840191220659,-0.12181616754893898,0
54,10.833366700033368,-0.39153095207256644,0.8917914773751029,-0.22674098537820966,-0.3210318898845111,0.9392011283052046,-0.12181857931945278,0
55,11.033366700033367,-0.33169895662769733,0.9105900985288601,-0.24657955031449344,-0.4042680565230042,0.9050808441747002,-0.13189391185011162,0
56,11.233366700033368,-0.4150163069766622,0.8876826135886631,-0.19945185503236898,-0.463352692286019,0.8793094003427544,-0.11008751527836191,0
57,11.433366700033368,-0.5036388595036129,0.8466270128964745,-0.17196104277391833,-0.555889976414479,0.8266280843826032,-0.08759191875885611,0
58,11.633366700033369,-0.7077835148493696,0.69039141389555,-0.14967361733710915,-0.7538372360188331,0.6541146838730615,-0.062156270263995256,0
59,11.833366700033368,-0.9831678643534718,0.12434549977601488,-0.133862418878811,-0.9075176675802081,0.41660205593350563,-0.053426678932492526,0
60,12.033366700033367,-0.9842613326876375,0.0964226628593131,-0.14809557408334412,-0.9789498363304571,0.19692121129326723,-0.053658685143823215,0
61,12.233366700033368,-0.9618194600153496,-0.26619169841823664,-0.06360272029556624,-0.9986854184530649,0.035855925943314,-0.036630418288282666,0
62,12.433366700033368,-0.9469754396914642,-0.31890790094014554,-0.03918248765849555,-0.995808420758752,-0.09051275292423579,0.013154113578533752,0
63,12.633366700033369,-0.9640218788780697,-0.25791354804080163,-0.06436162506805872,-0.9846019951493602,-0.17092417439400923,0.036658392703796686,0
64,12.833366700033368,-0.9523729359380814,-0.29733473753226525,-0.06765977201630521,-0.9699746301355913,-0.24079274756535932,0.034177033417899134,0
65,13.033366700033367,-0.950824404581807,-0.3020266697273138,-0.0686501451206104,-0.9690686735137048,-0.2457624590832944,0.02251043579589634,0
66,13.233366700033368,-0.9704151620057964,0.116551580119746,-0.2114477299969298,-0.9956018023991643,-0.09274656350934891,-0.013233518683323927,0
67,13.433366700033368,-0.9085443954836077,0.3366172952064639,-0.24745884102858512,-0.98442440253226,0.1623240182634851,-0.06752413489855581,0
68,13.633366700033369,-0.893930938319928,0.41400167790232517,-0.1717267836084779,-0.9371942429054061,0.34099730947312984,-0.07340153947329126,0
69,13.833366700033368,-0.9500411451135785,0.2578992707511407,-0.17581179919820622,-0.9771249533086804,0.1993985049870544,-0.07393958229822946,0
70,14.033366700033367,-0.8740987582963866,-0.4264096542943614,-0.23265031156067323,-0.9725176758113785,-0.22000743179014334,-0.07619777025307227,0
71,14.233366700033368,-0.5329201566837499,-0.8396490964402562,-0.10481174288804122,-0.8154789761422441,-0.5773128058172976,-0.0412790953069097,0
72,14.433366700033368,-0.43982158109366276,-0.8899566673504397,-0.1205574843913473,-0.6712059183264515,-0.7410264111584962,-0.01903872813777734,0
73,14.633366700033369,-0.3948938343882952,-0.9105999288275135,-0.12192878733686086,-0.6150002822266365,-0.7885266643779111,-0.0005936549525377823,0
74,14.833366700033368,-0.6927281283574398,-0.718638226811403,-0.060719347392416925,-0.6895171102077634,-0.724178935726374,0.01144656197080052,0
75,15.033366700033367,-0.8370424603695209,-0.5379107206442109,-0.10005986285501843,-0.8684133963506322,-0.49450659254288015,-0.03635110686608763,0
76,15.233366700033368,-0.9811024968511823,0.19348100012750696,0.001730104631406216,-0.9898703514850287,-0.0969475517666048,-0.10372010151059066,0
77,15.433366700033368,-0.9769158452375921,0.09514757488275494,-0.19126518323430144,-0.9746698554065074,0.2009852738201808,-0.09809991166807917,0
78,15.633366700033369,-0.839274960105077,0.45839710154867697,-0.2923861122426874,-0.9122649008813783,0.39225858989739637,-0.11792348905792735,1
79,15.833366700033368,-0.8903000829870455,0.35823691280374653,-0.281126442260597,-0.8956808898838572,0.42593903701466834,-0.12779546253243423,1
80,16.033366700033366,-0.8924167651755734,0.3446699706122525,-0.2911956877972515,-0.8940358685898184,0.422891313633409,-0.14786075384718858,1
81,16.233366700033365,-0.8548622796290757,0.4817261151789156,-0.19274447546430495,-0.9002958723640039,0.4144753589021,-0.13295683159323787,1
82,16.433366700033368,-0.8439499360579982,0.4944879603336224,-0.2079186439759432,-0.8812277691379011,0.4557167217808296,-0.12553839408552342,1
83,16.633366700033367,-0.7919073736450064,0.5654890205046454,-0.23044495927523512,-0.8338156488286845,0.5331702759926521,-0.14311156685019974,1
84,16.833366700033366,-0.7987746560938299,0.533668924309567,-0.27777063921237954,-0.8393528501934924,0.5178177285518738,-0.16538316984941062,1
85,17.033366700033366,-0.8485812231180094,0.24878342006244933,-0.46692260351537335,-0.8751176498704274,0.4367117773060927,-0.20845124717164468,1
86,17.233366700033365,-0.8458739467866494,0.21949910386577512,-0.48612489089708055,-0.904568284642952,0.35465188156299793,-0.23659725552493774,0
87,17.433366700033368,-0.8398027424256,0.24084317287297247,-0.4865448796307706,-0.9069806398633695,0.34178413022118853,-0.24610917748425867,0
88,17.633366700033367,-0.7681935348662383,0.48054378411031917,-0.42303234455848465,-0.8599695243413005,0.445808247658235,-0.24840978950937376,0
89,17.833366700033366,-0.8739208267071916,0.2517775376277747,-0.41577693561994666,-0.8560163045527697,0.46127310383190406,-0.23337354181890732,0
90,18.033366700033366,-0.9044343484172135,-0.3113380882082538,-0.2916626548496746,-0.9720661899070788,0.14744072622681542,-0.18261586647727154,0
91,18.233366700033365,-0.7348953426329522,-0.5974360622309011,-0.3209345523972618,-0.9360206203426458,-0.3192021595979315,-0.14824095116190245,0
92,18.433366700033368,-0.4793691265993709,-0.8394697587409297,-0.25592140321356854,-0.7487716187070259,-0.6475604243232747,-0.14144454697555778,0
93,18.633366700033367,-0.2560289962440317,-0.9638799968901557,-0.07337918422350775,-0.4972347613604768,-0.8641496793066776,-0.07747853798927623,0
94,18.833366700033366,-0.32681480829452775,-0.9413328662409318,-0.08416956703014984,-0.35034165901744774,-0.9365960732782717,-0.006965448774118481,0
95,19.033366700033366,0.10217429234843411,-0.9855068583149699,0.13541287308544428,-0.26027413613220696,-0.9619062382730895,0.08362872013816892,0
96,19.23336670003337,0.13042345413287504,-0.9799612398252228,0.1505512904370543,-0.1681208202677389,-0.9729700737190119,0.158318114692298,0
97,19.433366700033368,0.13423711025633628,-0.9756162076978404,0.1736473826676148,-0.11687974819570013,-0.968893767277322,0.21813755337600357,0
98,19.633366700033367,0.29116744451554494,-0.8697181728825186,0.39851200610794707,-0.020135822448641927,-0.9420365227275874,0.3349055665432166,0
99,19.833366700033366,0.1859496940898015,-0.6414354756033855,0.7443005051089032,0.07897529594150893,-0.8527102172390729,0.5163798873378437,0
100,20.033366700033366,0.1785497318969207,-0.5536841956534793,0.8133595789828122,0.09386072523171424,-0.7583137662287868,0.6450971990381679,0
101,20.23336670003337,0.10229023368269716,-0.4712520711387798,0.8760469128651442,-0.0012987104957975226,-0.708318400651411,0.7058918873663838,0
102,20.433366700033368,0.03933531488330293,-0.37992315446133107,0.9241813294517387,-0.09999872447274447,-0.6428395331186898,0.7594455805148711,0
103,20.633366700033367,0.0990186857507411,-0.26484493045243607,0.9591936523381711,-0.11632292806106859,-0.5980443408632266,0.7929766344406173,0
104,20.833366700033366,0.08437389054769687,-0.10156269384213558,0.9912447053141691,-0.1344660230741873,-0.492438082121935,0.8598974496500631,0
105,21.033366700033366,0.09645217578573863,-0.12281310431500243,0.9877317040546536,-0.1386048335870495,-0.48220640435715256,0.8650235162718137,0
106,21.23336670003337,0.08994898337554455,-0.11161582489773085,0.9896722124128299,-0.14996410229777415,-0.46220524229452675,0.8740006190029165,0
107,21.433366700033368,0.10654450838174004,-0.07638556199359879,0.9913695141835941,-0.12843286870760673,-0.43766894396970396,0.8899162284844453,0
108,21.633366700033367,0.08464223574628764,-0.09376619614278177,0.9919897138523077,-0.13958441708397798,-0.4539638544237569,0.8800187551319872,0
109,21.833366700033366,-0.34082181691388114,-0.52068922895669,0.7827663865828736,-0.2825265641189187,-0.6070828930828251,0.7427173765931061,0
110,22.033366700033366,-0.9234865691194307,-0.19765960863260723,0.32879056521017685,-0.7411619602071837,-0.5230280311377464,0.4208570153698496,0
111,22.23336670003337,-0.9716618069199012,0.08058400830008884,0.2222150998007206,-0.9575039729347683,-0.18690249784594967,0.21966701644325062,0
112,22.433366700033368,-0.9747346542020272,0.2232831461536842,-0.006081984985803914,-0.9869456879787515,-0.045246656205871275,0.15456697280575973,0
113,22.633366700033367,-0.984572515421176,0.17497528521691974,0.0007819465940489568,-0.9885714168018926,0.10594674893224927,0.10724663292143868,0
114,22.833366700033366,-0.9999988707680695,0.0014964974439581375,-0.00013768800344099086,-0.9739221789920488,0.20948380830490712,0.08713279133284327,0
115,23.033366700033366,-0.9574591582420322,-0.2853577472865006,-0.04292920173999313,-0.9960210378840695,0.008132063600503425,0.08874661477452996,0
116,23.23336670003337,-0.9477147341701111,-0.3184558772775161,0.020558133774328687,-0.9848124523327662,-0.15760424642101206,0.07283773225731495,0
117,23.433366700033368,-0.7538500499441846,-0.6515576639404299,0.08475088648292088,-0.8408816546569312,-0.532834742186329,0.09489562888062812,0
118,23.633366700033367,0.09635618707782617,-0.9940127107036193,0.05151908550688651,-0.39622576638082646,-0.9093716400427856,0.12668213110704055,0
119,23.833366700033366,0.3551009825956743,-0.9348279428600819,-9.69926495684742e-05,-0.035174576880509956,-0.9939685984835562,0.10387095055843307,0
120,24.033366700033366,0.3928693037628087,-0.9195943163103172,-5.9755222327203136e-05,0.08347904520437638,-0.9927284947299809,0.08672591748094839,0
121,24.23336670003337,0.045648519234841034,-0.9988990983392937,-0.010807591249311872,-0.010398298256866056,-0.9990248141421315,0.04291032651519851,0
122,24.433366700033368,-0.4653787020609309,-0.8844689144790819,0.03372540567996703,-0.4218063866638567,-0.9066529065411724,-0.007738167097269752,0
123,24.633366700033367,-0.995732839447242,-0.07724749431985511,-0.05048699899614847,-0.8127833012343573,-0.5821101374099787,0.023045458535597068,0
124,24.833366700033366,-0.9998041595837985,0.01746792658781526,0.009301291289761201,-0.982992927712551,-0.17931414384831876,0.03964015493224015,0
125,25.033366700033366,-0.9920179349861695,0.12422769050396346,-0.021630940289956446,-0.997077430826733,0.07328714395038154,0.021577568620157084,0
126,25.23336670003337,-0.9928054325509413,0.11899111570812555,-0.013359920653729832,-0.95265327660568,0.3040154910108312,0.005129892582227271,1
127,25.433366700033368,-0.9959472910254078,0.08674268065502398,-0.02376343518796483,-0.9254406578080099,0.37888697363919127,-0.002061572800706823,1
128,25.633366700033367,-0.9993330857011927,-0.008507340604962603,-0.03551068823275613,-0.9485560550491751,0.31604142380711103,0.018953333942099474,1
