,timeStamp,x_gaze,y_gaze,z_gaze,x_head,y_head,z_head,fixations_head
0,0.033366700033366704,-0.9913514937953052,-0.12516214535872747,0.039454443590273135,-0.9936511955628491,-0.07806509971097668,-0.08101321968441876,0
1,0.2333667000333667,-0.9973491505872242,-0.06036423803896845,0.04063041457969066,-0.9985197763511029,-0.020856072489031312,-0.05023226528910553,0
2,0.43336670003336675,-0.9938194110626021,0.10901309061775735,0.020955292151326084,-0.9982362442304665,0.025503089249589172,-0.05360963666525073,0
3,0.6333667000333668,-0.9896333725148332,0.14346037022374866,0.006701505814545604,-0.9950640285945703,0.0713197557658883,-0.06900051764036759,0
4,0.8333667000333668,-0.9800637995925974,0.19671708900991713,-0.027880739222364986,-0.9880101634266206,0.11347262507625125,-0.10468944705177902,0
5,1.0333667000333666,-0.9681509285766245,0.23364717806821161,-0.0899598559190763,-0.9769123847306935,0.1373212294215188,-0.1636614570079105,0
6,1.2333667000333668,-0.9656958674933437,0.23416808937285527,-0.11223545529709023,-0.9726980650601409,0.13795894734891367,-0.18661672774603585,0
7,1.4333667000333667,-0.9447322881957448,0.07418791045507964,-0.31933846868603427,-0.9618988164987066,0.13578893957034893,-0.2373015606959802,0
8,1.6333667000333667,-0.9306366878917618,0.06997134456365947,-0.35919265873595607,-0.8941313274545517,0.11468922797400485,-0.43286897584729694,0
9,1.8333667000333667,-0.7042751225364537,-0.4652614009744525,-0.5362167290746838,-0.8214969408480881,0.0026379976817024814,-0.5702068196237788,0
10,2.033366700033367,-0.6667011483151339,-0.5018648211522888,-0.5510365506253313,-0.7620714679212728,-0.16296913537765292,-0.6266483373428647,0
11,2.233366700033367,-0.7268988452471603,-0.6097825417819039,-0.3158849798840489,-0.7179813918203243,-0.26184347527200225,-0.6449346598355762,0
12,2.433366700033367,-0.7106318060178094,-0.6253596058027809,-0.3223783486930495,-0.702557185678542,-0.2900593823583303,-0.649829943567816,0
13,2.633366700033367,-0.44319197264596877,-0.6725655692206493,-0.5926520315337485,-0.6536229665347348,-0.3680294306165263,-0.6613103324600401,0
14,2.833366700033367,-0.623380654020852,-0.5378976276372112,-0.5675056848832402,-0.637838090557206,-0.40943537777170214,-0.6523229580991928,0
15,3.033366700033367,-0.6250277979227001,-0.5272412863184136,-0.5756360636940718,-0.6311510723530084,-0.4247214714871305,-0.6490454495067771,0
16,3.233366700033367,-0.41106758170401847,-0.9114721944168261,0.015552558535042818,-0.571030662058013,-0.6225554389950747,-0.5351156028067559,0
17,3.433366700033367,-0.3733912988889555,-0.9267220135937967,0.04201484778834444,-0.5248487930702802,-0.706203463195137,-0.47519513148165304,0
18,3.633366700033367,-0.2363883751816614,-0.9659384968429692,0.10527752084713762,-0.4701448329523945,-0.7630870855998252,-0.4434658226277763,0
19,3.833366700033367,-0.343516880605104,-0.9184325733105431,0.19615749035281013,-0.5973552209232911,-0.7106926661443289,-0.37159477165906285,0
20,4.033366700033366,-0.9552938629428519,0.2875434811731592,0.06879230958868189,-0.9621164259607089,-0.23905291316615052,-0.13109419362950053,0
21,4.233366700033367,-0.9544566010916823,0.28320768474331404,-0.09384031082027276,-0.9897312040892892,0.08199871214949248,-0.11708268385116125,0
22,4.433366700033367,-0.5576184741733238,0.8258876234145346,-0.08349413602945964,-0.8076409210125638,0.5744002846064058,-0.133343375351224,0
23,4.633366700033367,-0.5429365122494886,0.8292323703967698,-0.13264094221813902,-0.5365212419911152,0.8301111641582739,-0.15185655083698688,0
24,4.833366700033367,-0.07800003540175682,0.9878082639484886,-0.13472500937984044,-0.3357086133569658,0.930081294882148,-0.14915935045544626,0
25,5.033366700033366,0.39912728112468737,0.9160390049795794,-0.03962265536327991,0.02886824068901056,0.9951080063149764,-0.0944811115903826,0
26,5.233366700033367,0.7859276490538317,0.6132565995313493,-0.07895614975392239,0.3421211250375878,0.9292952310024493,-0.1391528276360924,0
27,5.433366700033367,0.8427293461067605,0.5334235321617045,-0.07257123773646747,0.5714800707678357,0.8078561030602319,-0.14414938592836907,0
28,5.633366700033367,0.9555815726287941,0.27935984544117576,-0.09392515534915638,0.7182045552221594,0.6812666637999442,-0.14162609100386175,0
29,5.833366700033367,0.9715878722725534,0.20801955374302797,-0.1128931871879091,0.799003055197886,0.578672432215253,-0.16350025681486752,0
30,6.033366700033366,0.9612498756563621,0.25280008528049874,-0.10995814400398601,0.7924197772508416,0.5853214710899225,-0.17166732974813803,0
31,6.233366700033367,0.9459191968395255,0.30565346282458167,-0.10868686081495424,0.7665943441024455,0.618385705295833,-0.1730093381176768,0
32,6.433366700033367,0.9521717344742057,0.3053654843133698,-0.010995865515926883,0.8155057177183602,0.5270551139517773,-0.23908854264882973,0
33,6.633366700033367,0.9897927949419102,-0.07316792374118536,-0.12229749799765245,0.8931352645279611,0.3539761419130125,-0.2775072795674877,0
34,6.833366700033367,0.9950587040656165,-0.09192239002742121,-0.037529317538461913,0.9408210316097702,0.2078571648165687,-0.2676773907433084,0
35,7.033366700033366,0.9950161338715693,-0.08458333087245858,-0.05280675594841353,0.9500920238315399,0.1673007933283462,-0.2633165220858623,0
36,7.233366700033367,0.9981504107528341,0.02907532901541475,-0.05338897598375916,0.9271152090896553,0.2705903522309816,-0.2593033944131047,0
37,7.433366700033367,0.7561413667351848,0.6415439077129886,-0.12911873600758042,0.8582909957390744,0.433920455779815,-0.2739518291398435,0
38,7.633366700033367,0.7369571286462866,0.6472540666513814,-0.19482393010272078,0.7767296638818773,0.5602289021460077,-0.2878100179740536,0
39,7.833366700033367,0.36545004972911693,0.8968575365209638,-0.24918430997664026,0.6279007445161535,0.7177049649553889,-0.30106517286867307,0
40,8.033366700033367,0.15368551704981087,0.9574320923834354,-0.24434514589696482,0.3624841970548045,0.8838236043533427,-0.29573813293756956,0
41,8.233366700033368,-0.3984200611167844,0.896330505457188,-0.1945586798026753,-0.009458838768640343,0.9605826200362002,-0.27783369207772113,0
42,8.433366700033368,-0.48870095354579923,0.8521769924768524,-0.18699131396012295,-0.43194387280526314,0.8617474619291925,-0.26611238716862684,0
43,8.633366700033367,-0.9597170246152911,0.24723728033106798,-0.13348018533875902,-0.7511742560596119,0.6117225990179083,-0.24805785390522145,0
44,8.833366700033368,-0.963877372807963,0.220782836941439,-0.14898103604455618,-0.9123798497725626,0.3376601592308682,-0.23140576180635827,0
45,9.033366700033367,-0.9524815979475227,-0.24911809051817257,-0.17526831587002092,-0.9662482468198763,0.11843476589394783,-0.22877397523573645,0
46,9.233366700033368,-0.9534917928533154,-0.2659703653682276,-0.14182089305621332,-0.9775568672807808,-0.06286794755668126,-0.20107260480283262,0
47,9.433366700033368,-0.782811243144265,-0.6118494834002952,-0.11334358062864605,-0.9580103878338433,-0.22054172262723323,-0.1832414947086545,0
48,9.633366700033369,-0.7546688393385432,-0.6467523586930422,-0.1103917091832657,-0.9084586166726558,-0.3553503448189445,-0.22006606787567748,0
49,9.833366700033368,-0.5342730135695432,-0.8437759935575528,-0.050935446079166266,-0.781070296509114,-0.5882820845161979,-0.20941198854994328,0
50,10.033366700033367,-0.2761279425261781,-0.9609067696844907,-0.020286432184514633,-0.610317436448167,-0.773992354522768,-0.16866671843502407,0
51,10.233366700033368,-0.11372253763958623,-0.9924592676634537,0.0457360521004445,-0.46285397812807694,-0.8804925991950175,-0.1024645191947738,0
52,10.433366700033368,-0.018748622153969385,-0.9946159817184024,0.10191927235643988,-0.39378740932592887,-0.9184687234804817,-0.036697142184476186,0
53,10.633366700033369,-0.13130331089835645,-0.9561961517616289,0.2616263746325699,-0.45112955396335974,-0.8919450919094345,0.03026678971233212,0
54,10.833366700033368,-0.5269667757572456,-0.716708863464643,0.4567651719201373,-0.5837380334391098,-0.8027927002296182,0.12154747539410017,0
55,11.033366700033367,-0.5950320556633919,-0.6991006956124364,0.3964783350035725,-0.7478423311868848,-0.6513730600834026,0.1282379985907056,0
56,11.233366700033368,-0.9924584081688522,-0.016125757135888708,-0.12151653390276765,-0.9165996741661566,-0.3878432965043634,-0.09707015336922148,0
57,11.433366700033368,-0.9867435498284934,-0.02891767547832965,-0.15969012153791592,-0.95259258555301,-0.16065418949677862,-0.25837491624878156,0
58,11.633366700033369,-0.859310275117933,0.41337941261436684,-0.30116990603867394,-0.9294970350576736,0.045657704176103625,-0.3659926718779509,0
59,11.833366700033368,-0.859522229068916,0.34624905528768085,-0.3759429869658307,-0.8328157450133229,0.15638796128364366,-0.5309997555775796,0
60,12.033366700033367,-0.5879971341882084,0.3954992663540926,-0.7055775651902694,-0.6606676685509673,0.1246683925608533,-0.7402540264177714,0
61,12.233366700033368,-0.5847891717878058,-0.14597374146997966,-0.7979431629890615,-0.6084985280692563,0.05001356798226457,-0.7919773887903823,0
62,12.433366700033368,-0.5465440594425722,-0.20286502268743958,-0.8124871529187762,-0.5666568732482496,-0.04549632492982127,-0.8226968289828261,0
63,12.633366700033369,-0.5792604577491411,-0.5419130895871066,-0.6089232508472742,-0.5284673078414839,-0.14932115408707342,-0.8357185515978924,0
64,12.833366700033368,-0.5685873637065566,-0.5891383342989975,-0.5741292823856236,-0.5603655038887115,-0.2372779162290138,-0.793529893905433,0
65,13.033366700033367,-0.8617676964451615,-0.13662140166148112,-0.4885601600331863,-0.6899721527327908,-0.11987663713797102,-0.7138403325126493,0
66,13.233366700033368,-0.970437472495931,0.16774012349613004,-0.1735349041121488,-0.8154694803557179,0.06215387495555792,-0.5754532321886673,0
67,13.433366700033368,-0.9728112538826338,0.21081073965302788,-0.09590149303447404,-0.8749360853179967,0.09200292064887737,-0.47541803625913887,0
68,13.633366700033369,-0.8360089599643883,0.5487024941801515,0.003819913577904939,-0.8779917383507645,0.31400270947138176,-0.36129324077878044,0
69,13.833366700033368,-0.808344581764569,0.5847929612476405,0.06779549842784445,-0.8521639454791323,0.4811286217938894,-0.20574707608165757,0
70,14.033366700033367,-0.6656527711299745,0.7202419942425157,0.1953403645347016,-0.7970926418073697,0.6035439486722634,0.019442798091857925,0
71,14.233366700033368,-0.5623922883340032,0.6231309720799107,0.5435280173617448,-0.7285259907428,0.6345187521169127,0.25813917568671696,0
72,14.433366700033368,-0.509039510785791,0.5454596874301082,0.6658472090859973,-0.6764365584568353,0.6076661661682207,0.4161435003427176,0
73,14.633366700033369,-0.48796221631907,0.4489151151439394,0.7485773806630048,-0.6520744004289138,0.5817928970458798,0.48612344240144917,0
74,14.833366700033368,-0.5079810097835411,0.4633128813031818,0.7261518213967638,-0.6542409943448343,0.5848542621361555,0.47949370525571666,0
75,15.033366700033367,-0.5432336992887166,0.4284482131034342,0.7220313543368951,-0.639631561291284,0.607752931216338,0.47064619450073525,0
76,15.233366700033368,-0.1634253526178035,0.26286369095713324,0.9508915995517785,-0.5284765487076218,0.5383228052404104,0.6564458049406483,0
77,15.433366700033368,-0.049919548850774764,0.146657465549375,0.9879269337563227,-0.4568110588559623,0.45868691325197225,0.7621876226483033,0
78,15.633366700033369,-0.08548477188461917,0.15776754204281862,0.9837691581126145,-0.46554042831230824,0.42482259101911646,0.7764005897515774,0
79,15.833366700033368,-0.07451933642509088,0.1074425427333909,0.9914146299655597,-0.49541028505854445,0.4008883003950974,0.7706213207954621,0
80,16.033366700033366,0.12506055615177916,-0.04588514807996653,0.9910874888125103,-0.4414889863611817,0.32509908649537433,0.8363002205438247,0
81,16.233366700033365,0.2081365007770409,-0.06576539164437878,0.9758863203806838,-0.36867889087396094,0.25728866321168986,0.8932404039264503,0
82,16.433366700033368,0.16402266147806657,-0.059488833269232384,0.984661182964941,-0.36409957367011986,0.2291060071115453,0.9027413461001115,0
83,16.633366700033367,0.22745138629477754,-0.2439306408016617,0.9427426527693942,-0.35012149855737973,0.21313412938831933,0.9121341892165966,0
84,16.833366700033366,0.2005717498746047,-0.23778518068751198,0.9503837019844387,-0.3839753971115971,0.19860037155073595,0.9017321036942743,0
85,17.033366700033366,0.19906511056583304,-0.23543870293154143,0.9512842366597517,-0.44461861038677775,0.10762448871336211,0.8892307128787885,0
86,17.233366700033365,0.24491831194595717,-0.25792295440916313,0.9346072811948298,-0.46950957341441885,-0.22492652948655315,0.8537967069539129,0
87,17.433366700033368,0.20068828508683387,-0.35059273202826624,0.9147726211894747,-0.39524883213841383,-0.3803818469957972,0.8361148313295762,0
88,17.633366700033367,0.1915466888474221,-0.3308551412217177,0.9240371970428175,-0.3317955431110723,-0.45740056550866875,0.825043295981477,0
89,17.833366700033366,0.19289895037603438,-0.17445891096024324,0.9655848400479322,-0.30997639742717986,-0.4630563603275478,0.8303574171393131,0
90,18.033366700033366,-0.077210176650369,-0.1757969158316888,0.9813939234607503,-0.6131866184390531,-0.3393686754846782,0.7133239608109729,0
91,18.233366700033365,-0.9231913418342168,0.2992866811133092,0.2411332180984582,-0.964082939032407,-0.0585046773991275,0.25907776706823077,0
92,18.433366700033368,-0.9213023344797817,0.3295093472448694,-0.20645967780747135,-0.9603215495762102,0.22609600512798095,-0.16328844994277764,0
93,18.633366700033367,-0.912120456343305,0.24266286003182047,-0.3303800984945344,-0.8840164576676797,0.255802461045919,-0.39125439741367574,0
94,18.833366700033366,-0.9308644289899972,0.18206542893668684,-0.31677057064573877,-0.8729126367308333,0.1754512044152261,-0.4552366456084914,0
95,19.033366700033366,-0.7470177219039398,-0.5287095163874933,-0.40302700956977006,-0.8452575416405296,-0.09171150534421747,-0.5264301359984118,0
96,19.23336670003337,-0.7103453981982613,-0.5568405890731838,-0.43050897042824027,-0.7321053362047832,-0.2962566989825988,-0.6133952600146299,0
97,19.433366700033368,-0.726533078225317,-0.5163125349980927,-0.4533994402822845,-0.656305808968968,-0.4016709000869175,-0.6386886355157371,0
98,19.633366700033367,-0.46903728658818294,-0.8797976073242111,0.07720229230138603,-0.6110581330146252,-0.6144131052458256,-0.4991036908086967,0
99,19.833366700033366,-0.48868003726039777,-0.872458379732319,0.002863008563189649,-0.5602404950379763,-0.7117106770893427,-0.4237906320774834,0
100,20.033366700033366,-0.7581340331035725,-0.6415811842333918,0.11664635394125973,-0.6052278029021232,-0.7296940793008019,-0.3181915417286003,0
101,20.23336670003337,-0.8608345123664108,-0.4968214011455214,0.11014734532745077,-0.7657232371668591,-0.5960337305836654,-0.24168515897593917,0
102,20.433366700033368,-0.8486609807624295,-0.52257051208415,0.08182053306756587,-0.8258215123495292,-0.5250854295331302,-0.2056796573138558,0
103,20.633366700033367,-0.8709879790067501,-0.3228013361418548,0.37037715616756195,-0.8723410813737259,-0.4595274405898464,-0.16689987744951806,0
104,20.833366700033366,-0.8727088932774162,-0.2581635487797189,0.41440411397085525,-0.9245643810761188,-0.36650442100445274,-0.10418836129589687,0
105,21.033366700033366,-0.9830263075660489,0.17267761529075396,-0.061981608647713474,-0.9539171569316136,-0.2613619241972738,-0.14741778146277346,0
106,21.23336670003337,-0.9503838917747887,0.2942217810042969,-0.10101485948941752,-0.9853481391965975,0.038286856682430606,-0.16620216962236614,0
107,21.433366700033368,-0.9636945542211569,0.2312235643687389,-0.13352329177001995,-0.9611735464705027,0.23629241125504466,-0.14251775309972356,1
108,21.633366700033367,-0.8927727408140328,0.4476523272063016,-0.050638199081152004,-0.9491019632591717,0.2890683772299119,-0.12507972107121026,1
109,21.833366700033366,-0.8827276275144925,0.46696675682782685,-0.05228750941033949,-0.9395210337588665,0.32024769042659673,-0.12141517162653827,1
110,22.033366700033366,-0.8830366271734341,0.4647321557285622,-0.06534782706447675,-0.9358854924866671,0.3277745437724897,-0.12915956568417564,1
111,22.23336670003337,-0.9862132823795672,0.16155787168702287,-0.03581083291519078,-0.9324658757506489,0.33815259679078097,-0.12712282188587076,1
112,22.433366700033368,-0.9870296525143332,0.15517236384335972,-0.04115826231389135,-0.9328197542470543,0.33584545765900287,-0.13059530870701486,1
113,22.633366700033367,-0.9800995306912719,-0.1356159179612655,0.14495941754253855,-0.9464758442135119,0.29911665531392156,-0.12129593082265037,1
114,22.833366700033366,-0.9740630161105124,-0.16530599278859265,0.15451591954834104,-0.9644337681418915,0.24163735223810814,-0.1071396139202914,1
115,23.033366700033366,-0.9629204352578402,-0.22043363235022953,0.15554179210660957,-0.9889671815060377,0.13253980769377893,-0.06615975574698155,0
116,23.23336670003337,-0.9662924037830629,-0.23443729926121343,0.10638676189384823,-0.9996827884108181,-0.013185466405535909,-0.02145847223920052,0
117,23.433366700033368,-0.9696242835690357,-0.2268298175964068,0.09152585734324092,-0.9987706347328035,-0.049273125678942334,-0.005420173545186791,0
118,23.633366700033367,-0.9914649073412332,0.11244872290929571,0.0659744058473325,-0.9994487558606712,-0.03307275519674028,0.002894351784707311,0
119,23.833366700033366,-0.9921626957819774,0.11605714031910794,0.0463025407466016,-0.998921105600941,-0.04108467871509902,-0.021648878951821854,0
120,24.033366700033366,-0.9794730323431509,0.19583145166399937,0.047776787791605664,-0.9980094319949462,0.0586488645924782,-0.0231837083129244,1
121,24.23336670003337,-0.9496014493243262,0.3068958836700475,0.0638122560917579,-0.984487305638832,0.17533867747559514,-0.006410399137526481,1
122,24.433366700033368,-0.9989301731116802,0.01992443324084627,0.041731597226797264,-0.9807863907045855,0.19496718395732276,-0.00677148347288337,1
123,24.633366700033367,-0.9995457241617455,0.00743730214817598,0.029206708933544344,-0.9824073850299081,0.18617698431995536,-0.014623964859954718,1
124,24.833366700033366,-0.9900732609730138,0.14051633608549233,-0.003177609065239505,-0.9798111394398691,0.19895820632112157,-0.019640854539132828,1
125,25.033366700033366,-0.9893680117057878,0.1445706801022719,0.01581947749146459,-0.9784719580904307,0.2063575926507925,-0.00302839661340812,1
126,25.23336670003337,-0.9974718009899322,-0.06650832012533331,0.02503296993980506,-0.9782478444868592,0.20741272798948657,-0.0033339203309274675,1
127,25.433366700033368,-0.9947692960188648,-0.10202648540239831,0.0049642697918666785,-0.9765918237782826,0.2147744281482909,-0.011847140709156018,1
128,25.633366700033367,-0.9936871231486635,-0.11202978628274252,0.005935341100246831,-0.9780792582798014,0.207980289500766,-0.010254935495224339,1
