,timeStamp,x_gaze,y_gaze,z_gaze,x_head,y_head,z_head,fixations_head
0,0.04,-0.9275333614244959,0.0455580292130801,-0.37095327120649024,-0.9998677589310345,0.008181064475352233,0.014054708616003568,0
1,0.24000000000000002,-0.9273120041096528,0.05693426063203446,-0.3699336927077921,-0.9994242827367216,0.032498163622909,0.009745380307021323,0
2,0.44,-0.9913991130968761,0.12187681823905419,-0.04768479555007027,-0.998865915972025,0.035169242644420604,0.03209371092886496,0
3,0.6400000000000001,-0.9634972787841825,0.17141292971712635,0.20564678772416412,-0.9953574515677639,0.041921034228366814,0.08663815843928493,0
4,0.8400000000000001,-0.9640547953090826,0.15129512209867535,0.21842192580121236,-0.9892462923779097,0.028201678503432526,0.143514592798603,0
5,1.04,-0.9738457429161992,0.07840563622502725,0.21325342954368845,-0.9853727904270804,-0.0541724557541877,0.16157292138074902,0
6,1.2400000000000002,-0.9331481489264475,-0.32286590261573805,0.15808902897819915,-0.9630717832624593,-0.2027750194284038,0.1771299855458619,0
7,1.4400000000000002,-0.8455844590292034,-0.5184218693252571,0.1273800928465513,-0.9090946673219031,-0.37302477503290105,0.18547076065658402,0
8,1.6400000000000001,-0.793844534992031,-0.5920802206186324,0.13875109590730267,-0.8087618637817477,-0.5536241084394246,0.1985059048162698,0
9,1.84,-0.49282328453660845,-0.8630848083453639,0.11049807157591479,-0.6361387027009977,-0.7397200621722033,0.2194123527649335,0
10,2.04,-0.5412650969664604,-0.8319278839540686,0.12218056598982595,-0.5525667178203827,-0.8031917965952738,0.2226049420818553,0
11,2.24,-0.2866771872765541,-0.9467330667088267,0.1466720515139269,-0.5025057114139901,-0.8331764357790025,0.23087883588349464,0
12,2.4400000000000004,-0.17078197441799076,-0.9663929565197533,0.19214101801256112,-0.41254660075670596,-0.8770980693499817,0.24597617556710946,0
13,2.64,-0.14289062367165495,-0.968134656617935,0.20566369714171476,-0.36206492008113667,-0.8952951462212714,0.25952956440311875,0
14,2.8400000000000003,0.014484298815713281,-0.9871873034336972,0.1589069948967711,-0.2905116928352878,-0.9231934894567789,0.25162817280779887,0
15,3.04,0.05392812831865551,-0.9832504691964253,0.1740984543327597,-0.22342516146309355,-0.9439691790609704,0.2429061263289746,0
16,3.24,0.03845298706016803,-0.9775040045748788,0.20738198770921676,-0.11279087671730126,-0.9669116395213069,0.2288232931490168,0
17,3.4400000000000004,0.059028770763534355,-0.9752299858408074,0.21317147778041154,-0.05822143136491431,-0.9716604295670079,0.2290988313882861,0
18,3.64,0.17664250129436115,-0.96435303412549,0.19702957216984843,-0.04533892963303643,-0.9671046092489104,0.2503059252779344,0
19,3.8400000000000003,0.14915648728517433,-0.968747443267848,0.19819367664674808,-0.08530414804271469,-0.9571636191446988,0.276696600110172,0
20,4.04,-0.08019130811014558,-0.8805683890777759,0.4670852879941248,-0.2750690393358527,-0.903838428434281,0.32773940697496345,0
21,4.24,-0.6068059516787162,-0.7785969103095924,0.15991681670057215,-0.537465069763793,-0.7623910904299225,0.3604041120976213,0
22,4.44,-0.9985689612787896,-0.014399017845361921,0.05150434792994301,-0.8638110474805561,-0.34838873098120476,0.36394472983662,0
23,4.640000000000001,-0.8466253435642435,0.5290872672159859,-0.057377620242103765,-0.9362206355993237,0.23975681394458837,0.2569194263677602,0
24,4.840000000000001,-0.8100801626991949,0.5863162984695744,-0.0018243218420054465,-0.6989757757995494,0.711352748707733,0.07355359781391757,0
25,5.04,-0.3510725394165854,0.8955192198605973,-0.27348381840221836,-0.41579608635912885,0.908532323831974,-0.0410198868953197,0
26,5.24,-0.3376637148862964,0.91050720697682,-0.2386626105875338,-0.3437633463313565,0.9354169243108694,-0.08259503273115773,0
27,5.44,-0.3376159358693941,0.9113829439025386,-0.2353648431915348,-0.3365083679155941,0.9305874038621649,-0.14411523894390857,0
28,5.640000000000001,-0.38137802298499984,0.7787098317473954,-0.4981584100705282,-0.38622776700132533,0.7984865424059259,-0.4617871301734162,0
29,5.840000000000001,-0.389770428450349,0.23309343243131758,-0.890924500091348,-0.5616884824407116,0.49976898761288846,-0.6593458938325462,0
30,6.04,-0.39464100783421624,0.26733194084079154,-0.8790859504860091,-0.6280613181905319,0.34766688191512113,-0.6961800915080731,0
31,6.24,-0.7847424080627226,0.09683504738813516,-0.6122110147532934,-0.6719251129448658,0.29652470213700904,-0.6786676238163918,0
32,6.44,-0.84957239684772,0.15478937039932258,-0.504248939836071,-0.7223599117985063,0.22519045206077334,-0.6538236903991158,0
33,6.640000000000001,-0.8708034755290799,0.09379067955906782,-0.4826019223276297,-0.7637544730284584,0.14209529349861483,-0.6296729567756297,0
34,6.840000000000001,-0.9444743341598666,-0.12188409024890128,-0.3051434099853292,-0.8846356542086783,0.003063763604629699,-0.4662728521534993,0
35,7.04,-0.9261159435803314,-0.19221240555077249,-0.32459767435811665,-0.8911520821626584,-0.23583528074425106,-0.3875947455957563,0
36,7.24,-0.8121070887352816,-0.5285480592117121,-0.2472226234175143,-0.7820946425791856,-0.5664580346075712,-0.25971766416141934,0
37,7.44,-0.43499715787104754,-0.8998127166363316,-0.03338484122556273,-0.5378619369013713,-0.8400687091386727,-0.07063356679928952,0
38,7.640000000000001,-0.009894077984120786,-0.9791914875138439,0.20269715834532528,-0.03213501899645621,-0.9960012406884348,0.08335987704643344,0
39,7.840000000000001,0.5407520594866291,-0.8033533884129144,0.24942041513568697,0.5660393100748773,-0.8142029427933369,0.12912423241447438,0
40,8.04,0.8766331565878781,-0.4385589673286521,0.19794024589860315,0.7817076024059841,-0.6022240549569128,0.16204756083305144,0
41,8.24,0.9077822297234912,-0.2938459362607238,0.29930918653009236,0.8682919734418337,-0.4514626486334577,0.2055493267937144,0
42,8.44,0.9110537594877741,-0.29858752081734014,0.2843000874698201,0.8862536409213153,-0.40657536430044533,0.22192556657057885,0
43,8.639999999999999,0.9739993458535124,-0.22645587302972595,0.006558341808325915,0.9042398470605993,-0.38513745920431486,0.1844435862410745,0
44,8.84,0.9961709382064433,-0.0714447417639273,-0.05038958967068734,0.9728076397215394,-0.2000907520440447,0.11665756317468967,0
45,9.04,0.929085944371722,0.29869457991697995,-0.21813036445924805,0.9997518495453889,-0.0009308204234623105,0.022256974275799972,0
46,9.24,0.9162694846417854,0.37395443927100286,0.14355594332450058,0.9888272911115596,0.1442209537200819,0.03769489171021525,0
47,9.44,0.8645382476733667,0.45701943142905366,0.2090618511496758,0.9489110855068332,0.30326804493479015,0.08715643822273586,0
48,9.64,0.8237031085973581,0.484738067036834,0.2941805487323092,0.9090343491883578,0.3884587724277717,0.15085202723068697,0
49,9.84,0.8371879199436679,0.4917817906722219,0.23930536363319954,0.8511114021343682,0.4713562093907143,0.23115515357803898,0
50,10.04,0.8877085040508923,0.43601597834428046,0.14786371584742167,0.8963667904572061,0.3822152403231102,0.2245842537449909,0
51,10.24,0.9476012860686361,-0.08182558786802828,-0.30879827689143347,0.9895544379584793,0.03822212954969338,0.13900029902616973,0
52,10.44,0.5091493369126355,-0.8540871144269292,0.10631158775648768,0.7674302427278352,-0.6256793450829887,0.13991490157670264,0
53,10.64,0.1917763485766551,-0.9473214857339654,0.2565225814492717,0.31508517178383166,-0.9156657943579909,0.24955457832847489,0
54,10.84,-0.05601984510599467,-0.9563328506489728,0.2868610390483692,0.0617050491300517,-0.9523071536229419,0.29883703262887035,0
55,11.04,-0.02518470083168156,-0.9579390714740028,0.2858644192402128,-0.14784155729766313,-0.9373070694299996,0.3155920333790892,0
56,11.24,-0.5780768645773311,-0.8024841574337674,0.1478049921628439,-0.5179010409772002,-0.7876576275853903,0.3337273939329634,0
57,11.44,-0.850619490958067,-0.5217618073380063,0.06489297346875468,-0.9358993425600834,-0.27962036363760195,0.21425422477696765,0
58,11.64,-0.9328384645284467,0.3597483093706717,-0.019838170307607414,-0.9526677385873679,0.29422262693121465,0.07653251372146465,0
59,11.84,-0.7587824572313477,0.6295694479374436,-0.1670074633712532,-0.9310224349122499,0.3583203959631196,0.06930887047773103,0
60,12.04,-0.7651163398783377,0.6285795690389704,-0.13958764930307635,-0.8461739186714454,0.5324117476858358,0.02296585043764797,0
61,12.24,-0.42158631646676553,0.9036906950434727,-0.0748872850344416,-0.703341252379156,0.7079372026830489,0.06431173888972315,0
62,12.44,-0.391958200335879,0.9193807719141872,-0.03328311019019558,-0.5609061521926701,0.8246181306365399,0.07341135510199674,0
63,12.64,-0.32790838314852605,0.9445766887473106,-0.015842074866823,-0.46335617858865863,0.8834972125037109,0.06880208762739093,0
64,12.84,-0.3741946389223399,0.9272663021349813,-0.012473056028798628,-0.31026619670782185,0.9501496153791389,0.030831730008831715,0
65,13.04,-0.3185823021546824,0.8743839885495971,-0.36600267392728264,-0.32939505938120667,0.9433725084871758,0.03933452790952545,0
66,13.24,-0.3605239514228742,0.8023022392851874,-0.4757453071638341,-0.43461591861073934,0.8934832231812591,-0.1131226466441248,0
67,13.44,-0.46545109657538614,0.8035783252067535,-0.3709678583849008,-0.48140413161606066,0.8435466475156558,-0.23807376068791086,0
68,13.64,-0.4841125832253358,0.7948683522653119,-0.36581321645058185,-0.5066821257074463,0.8233273626506052,-0.25574455497504217,0
69,13.84,-0.4944049131524475,0.7880715976829458,-0.3667518763089981,-0.5184553024097567,0.821116860502232,-0.23868640682319078,0
70,14.04,-0.46845586086630386,0.8833226121835704,0.017037289256339565,-0.5320824171241285,0.8439437396626386,-0.06817085646803715,0
71,14.24,-0.4429196849602992,0.8912620633127997,0.09733492268492727,-0.4999760892717824,0.8618837250222608,0.0847369736198231,0
72,14.44,-0.39780622983809877,0.913462704505627,0.08565098352770421,-0.4387568744489902,0.8895343281630717,0.12736202001863198,0
73,14.64,-0.41427410833181544,0.9032607360212133,0.11179000817736674,-0.44105915203545887,0.8806599055087871,0.17293049249630954,0
74,14.84,-0.43393485224890915,0.8960185440394526,0.09408141549284448,-0.4523038061397522,0.8745291231150482,0.1749859416499475,0
75,15.04,-0.418288801939663,0.9083050503200204,0.004051386802922737,-0.42667169558153,0.885386188048077,0.18450626602713904,0
76,15.24,-0.3567635723094186,0.9340258802028305,0.01775974617920421,-0.33332452236130167,0.9178710157657289,0.21542414258805567,0
77,15.44,-0.34853019187111484,0.9370012523029387,-0.02356604627443009,-0.13622279053625302,0.9765412488369161,0.16676492634409912,0
78,15.64,-0.3596958926585391,0.9094913834667538,-0.20843293454803938,-0.07234909752970176,0.9937783366779757,0.084677184862239,0
79,15.84,-0.3536828961952807,0.9036193633655709,-0.24162047738078524,-0.14205692188670938,0.9866620772168659,-0.0794844407803974,0
80,16.04,0.28122301899588376,0.9498780639778063,-0.13654771019909434,0.07857454316781731,0.991201900081334,-0.10651213283528918,0
81,16.24,0.6448605667807823,0.7506049386875678,-0.14403845121702977,0.4531370528820196,0.883738720314245,-0.11693025922633811,0
82,16.44,0.8527217563101155,0.507969474677614,-0.12178924053930745,0.6892612326440182,0.7180128756961528,-0.09683214088612244,0
83,16.64,0.9075221013545063,0.3879588821444904,0.160908487402929,0.8535788420528478,0.516340673950774,0.06924932363410102,0
84,16.84,0.8780825101781435,0.3640879921032534,0.3105012710529083,0.9173501447351712,0.32644623779864346,0.22781915148088863,0
85,17.04,0.8440897969348281,0.3373020825345985,0.41682096855645795,0.8928807100596592,0.2854821642262419,0.3482297682738503,0
86,17.24,0.6967741597075265,0.3084374260606038,0.6475894722499591,0.8123512206215073,0.30555118289103833,0.49671316570897817,0
87,17.44,0.4294794742824106,0.26435713149550566,0.8635176247173953,0.5912517155380264,0.33018832813175675,0.7357968991772773,0
88,17.64,0.20905942608414133,0.1930577567588112,0.9586567993399023,0.3675065376400294,0.31304612978345114,0.87575171448273,0
89,17.84,-0.06695079207479228,0.14136063567120002,0.9876916331138947,0.09727890930059455,0.3340674850476268,0.9375157221290962,0
90,18.04,-0.34851188174396003,0.1458954118391003,0.925880120257252,-0.11189869181181519,0.29598786391244397,0.9486147095567056,0
91,18.24,-0.20485479204954385,0.005497409531474815,0.9787769371326552,-0.23023347090884708,0.1428683197152681,0.9625908747204085,0
92,18.44,-0.21840132412323285,-0.16144864920546842,0.9624111363086716,-0.21647658195607045,-0.048601083737018345,0.9750773426370877,0
93,18.64,-0.1873590021402115,-0.2268055176547355,0.9557488485362627,-0.15647680821202536,-0.15647956112003159,0.9752072371775445,0
94,18.84,-0.24198001802085367,-0.18081198729066164,0.9532852123738359,-0.13333595605562495,-0.18037870151938437,0.9745178535362569,0
95,19.04,-0.21695985130551548,-0.08543422206485687,0.9724347878504048,-0.17757302945461526,-0.07912803992088957,0.9809212876212792,0
96,19.240000000000002,-0.3265578188825542,0.4290229013716955,0.8421991100834064,-0.2788093143817057,0.16035007767717424,0.9468649422187555,0
97,19.44,-0.5603352438832141,0.6870951995526129,0.46251983872488595,-0.36362883812315416,0.5103611677328662,0.7792981114795225,0
98,19.64,-0.4484207388815042,0.8936542216562464,0.017348575069286103,-0.4231409210180497,0.7360160933162335,0.5284241396260262,0
99,19.84,-0.4391004760263844,0.8983692046353943,-0.011115040088640234,-0.42551972743921296,0.873538304883687,0.23635522304572187,0
100,20.04,-0.39754830669212937,0.8500525341429722,-0.34549389725917246,-0.43934253309309956,0.8954620841601498,-0.0715946537592005,0
101,20.240000000000002,-0.3965348383106545,0.46021328821636115,-0.7943323305487622,-0.512551221815411,0.7711449731812813,-0.3776594700954429,0
102,20.44,-0.44940186974421836,0.46206547335465986,-0.7645478780324583,-0.5709960335684645,0.5272175060181806,-0.629289465188359,0
103,20.64,-0.7764709867070508,0.1221353791868513,-0.6182036524908786,-0.7244701827003261,0.26116782316237014,-0.6379140400734138,0
104,20.84,-0.7629344446680714,0.015685142450836027,-0.6462855479161813,-0.7336962558527247,0.08181889444295977,-0.6745335222654432,0
105,21.04,-0.18461967014142844,0.003247753835851919,-0.9828046751475554,-0.64220687985823,0.05862017456895992,-0.764286594541774,0
106,21.240000000000002,-0.24030043096848835,-0.03468734792540284,-0.970078600305285,-0.546796923096606,-0.008560218821720486,-0.8372215044692825,0
107,21.44,-0.12754713462848696,-0.09190592859032959,-0.9875652022717348,-0.45093098217203376,-0.16936408724530178,-0.8763430009242562,0
108,21.64,-0.051118104451692646,-0.07237372424189815,-0.9960667565161604,-0.23568961294968796,-0.15366070306619206,-0.9596034569971231,0
109,21.84,0.08648636304448697,-0.0672758163899471,-0.993978910005843,-0.14566496671250936,-0.19994429931342647,-0.9689189824978692,0
110,22.04,0.23865795523682207,-0.03812686605097733,-0.97035494664958,-0.1361839169840766,-0.20512432427628302,-0.9692151218099483,0
111,22.240000000000002,0.21040374729873387,-0.046257333652858355,-0.9765195964270144,-0.19921681691430757,-0.18911790796459776,-0.9615337106652191,0
112,22.44,-0.20974272775150019,0.09917205732043242,-0.9727141878281582,-0.3376962370078782,-0.09148642342078021,-0.9367985300161359,0
113,22.64,-0.5526611950989927,0.22494660832282898,-0.8024740661453231,-0.5026530535984328,0.03293177142804857,-0.8638607562210369,0
114,22.84,-0.5839061709929054,0.42769366359015676,-0.6900229804877762,-0.6248809307320959,0.2571866339957173,-0.7371423591826362,0
115,23.04,-0.48036261319835843,0.6742193397568432,-0.5609634941233617,-0.5280457743116965,0.5839205801846126,-0.6166071814927444,0
116,23.240000000000002,-0.7818039926534843,0.29176803274475605,-0.5510480307008874,-0.5416900623105201,0.664758933487632,-0.5144583916532135,0
117,23.44,-0.8500423955208826,0.15287049334565067,-0.5040421987109583,-0.691096315690327,0.5445144147779607,-0.4752787966428453,0
118,23.64,-0.8303666463051538,0.18519429333256696,-0.5255419169019565,-0.7836886549934071,0.42312378454117877,-0.45475087134625114,0
119,23.84,-0.9300791933133018,0.10251903709663489,-0.35276414386733923,-0.8571017857699721,0.33967271141979183,-0.3872970151532957,0
120,24.04,-0.942283068866427,0.043693475570366735,-0.3319540605569548,-0.9282230541836425,0.14206932352998342,-0.34382883676870923,0
121,24.240000000000002,-0.9491126190452378,-0.1082896205008447,-0.2957339927381912,-0.9513018942500809,-0.018934104446875787,-0.30767873778505234,0
122,24.44,-0.9477317676995636,-0.039197596817353304,-0.3166512985869554,-0.9505429434545775,-0.0655255779063165,-0.3036025548126227,0
123,24.64,-0.8985336880146555,-0.33302295231288914,-0.2858897072921456,-0.9568796084169222,-0.07673953664023757,-0.2801650558369462,0
124,24.84,-0.9583440170626049,0.05488582332226981,-0.2802932238898158,-0.9702531010575499,0.024546419760008445,-0.2408451642968427,0
125,25.04,-0.9564789421626646,0.03193978019606563,-0.290048071257882,-0.967175336885979,0.15948174624610884,-0.19783184863359407,0
126,25.240000000000002,-0.9536505590395061,0.10530037741372922,-0.2818908330545067,-0.9382516238847517,0.3006652478240202,-0.17112655851312897,1
127,25.44,-0.8899212915707778,-0.061446072041169184,-0.4519562755839444,-0.9206466593306224,0.348192790904064,-0.17655454971708923,1
128,25.64,-0.9056570600911011,0.11444693725830755,-0.40827342316067633,-0.9237214128637272,0.3361035449312247,-0.18377474935829405,1
129,25.84,-0.8913325922675432,0.13409520262955743,-0.4330642984515802,-0.9264167636477778,0.32757430262339443,-0.18559918182247964,1
130,26.04,-0.886239952807786,0.12313632780243021,-0.4465603999713657,-0.9294534708896727,0.3080824464622342,-0.2029814071115509,1
131,26.240000000000002,-0.8977851754766719,-0.0915281820368859,-0.4308182570264914,-0.9410930604968124,0.2560771823679089,-0.2208355228563925,1
132,26.44,-0.814017976656119,-0.44157733272361255,-0.37733830034251525,-0.9684120697624676,-0.17201739463746477,-0.18052168590092563,0
133,26.64,-0.8372699193386604,-0.4100425390420165,-0.36172392559327543,-0.8950739591818847,-0.4171454005860689,-0.15758274767357697,0
134,26.84,-0.6842519526145575,-0.6900928798489003,-0.23573519577062918,-0.8507147798325732,-0.5062077518396226,-0.14155590892609057,0
135,27.04,-0.4431314488917781,-0.8958820310134885,0.032092140941672925,-0.6621665116283026,-0.749341795462485,-0.004731220885164717,0
136,27.240000000000002,-0.49492000706159467,-0.8670376511554678,0.05744473943678722,-0.45950458564980384,-0.8828435013361277,0.09717452297474381,0
137,27.44,-0.1965563251295886,-0.9460210811145071,0.25770084427197826,-0.3328054515856913,-0.9246323756996842,0.1851904457654409,0
138,27.64,-0.2991307210775165,-0.9118625809886665,0.28111820485399497,-0.44647456828199816,-0.8630655865639585,0.23617420089081254,0
139,27.84,-0.594447547930492,-0.7465769175432942,0.298755784799187,-0.7894064987075897,-0.5810655430389907,0.1979904404031339,0
140,28.04,-0.4380204302553768,0.895972570554333,-0.07328884971914836,-0.9435144855868002,0.2101760636673771,0.2561375367828047,0
141,28.240000000000002,-0.2513574478802365,0.9625522815073215,-0.10155067089972492,-0.4386447132106059,0.8828838713034457,0.16765108220535438,0
142,28.44,0.20211714039801887,0.9499774713971474,-0.23809969633581982,0.04445588535566758,0.9935163912400461,0.10463677458044769,0
143,28.64,0.621440988054219,0.719266582451505,-0.31059085906499045,0.4185146392655508,0.9078074280259911,0.027040161635262284,0
144,28.84,0.584989165476423,0.7469853889255996,-0.31591217926327086,0.6084149507823227,0.7935361727973893,-0.011471273975285115,0
145,29.04,0.6450488048783378,0.6642969346942856,-0.3776527795221479,0.7018412354325569,0.7091919224504218,-0.06682587356389293,0
146,29.240000000000002,0.6065177800492068,0.713485033360956,-0.3508208797293819,0.739056003154249,0.6697635048163711,-0.07220160536828613,0
147,29.44,0.5120961177717932,0.8419944254412973,-0.16971432965085068,0.6085185052793178,0.7928558880024466,-0.03293584054608167,0
148,29.64,0.062199313741309714,0.9970064486743845,0.04592805974349534,0.25372910836842155,0.9635615376321693,0.08468000214038518,0
149,29.84,-0.5575520238723799,0.8218449844790584,0.11707502791983176,-0.27603574591419244,0.9337407320754787,0.22788706027491862,0
150,30.04,-0.5755722904358045,0.8100407457074675,0.11202914253073758,-0.6549850744624847,0.7047268158957393,0.2726805222028638,1
