,timeStamp,x_gaze,y_gaze,z_gaze,x_head,y_head,z_head,fixations_head
0,0.03333333333333333,-0.9996574000893165,0.026074709023780555,-0.002278595179901115,-0.9901586006143672,0.09833251436112576,-0.09958243946006223,0
1,0.23333333333333334,-0.9999249725683871,0.011279834687962509,0.004776459308190827,-0.9929400776459691,0.07286510907368894,-0.0935984940268615,0
2,0.43333333333333335,-0.9313000828044982,-0.0985127135967736,0.35067848669135004,-0.9955779702195349,0.0688374748907008,-0.0639211018695979,0
3,0.6333333333333334,-0.9094081922800212,-0.1006378912723773,0.4035452324761543,-0.9983610073685383,0.056576022996555335,0.008628591308603347,0
4,0.8333333333333334,-0.8276278012763331,-0.19313840258189074,0.5270007400399154,-0.9975935965836935,0.026009587314640915,0.06426910161915658,0
5,1.0333333333333334,-0.8137150395126319,-0.19292400727126574,0.5483139264047125,-0.9939202664847164,-0.030530713356481543,0.10578458967588256,0
6,1.2333333333333336,-0.8173488081359848,-0.12244704442161575,0.562981036226884,-0.9821799209062889,-0.04447424008625115,0.1826051613105913,0
7,1.4333333333333336,-0.7792822786817619,-0.08844798593173693,0.6203999386824438,-0.9503393595164948,-0.016256869703608266,0.3107906303948343,0
8,1.6333333333333335,-0.7341295859019465,0.010066404158112099,0.6789347675666361,-0.8933008602241973,0.03718419744405398,0.4479184173297087,0
9,1.8333333333333335,-0.6094798871362086,0.1785886897971801,0.7724249782684152,-0.8667969255186238,0.09755180926046357,0.48902631260646084,0
10,2.033333333333333,-0.6038268812947077,0.47517711942326535,0.6399998457831964,-0.8683429919568559,0.17196879789044708,0.46519585216501014,0
11,2.2333333333333334,-0.5450959251536286,0.5648469162634625,0.619530785004722,-0.84032768389777,0.29500184672971347,0.4547782911497294,0
12,2.4333333333333336,-0.5492736701285581,0.6006052567681766,0.5810092605509287,-0.791816713664562,0.43443652155852597,0.4292915101624789,0
13,2.6333333333333333,-0.5783646151239533,0.7517156601612834,0.3168878953838522,-0.7323160061695719,0.5579057581799212,0.3904541357157522,0
14,2.8333333333333335,-0.5467552086180564,0.7740850607447851,0.3191411295661651,-0.6757898023266702,0.6333690765450305,0.377030179094162,0
15,3.033333333333333,-0.34290265860733393,0.9018863079628423,0.2627143966918751,-0.6188274405822559,0.696813873581379,0.36263345731872104,0
16,3.2333333333333334,-0.2785191602122427,0.9527740855103736,0.1210314809235131,-0.48096603037204355,0.816804877335622,0.31859295345141925,0
17,3.4333333333333336,-0.010407985040859935,0.947118527382632,0.32071508997230525,-0.3499384716169537,0.8791503716921363,0.32347749540883003,0
18,3.6333333333333333,0.052003558400069705,0.9447735002375303,0.32357172800270484,-0.24125605909420478,0.9131038540099049,0.3286896191585495,1
19,3.8333333333333335,0.07327418996592844,0.9760447794125084,0.20485966334646044,-0.15015020520839983,0.9329882656096263,0.3270899144128675,1
20,4.033333333333333,-0.022330296302129515,0.9488173789350249,0.3150348223576698,-0.16022374394477396,0.9276807184045672,0.33724892375915133,1
21,4.233333333333333,-0.055489933480475984,0.8980862270965116,0.4363049346293087,-0.1979262935230039,0.9244029472061732,0.32604351477799265,1
22,4.433333333333334,-0.07950940440168097,0.8804113314012382,0.4674977456116652,-0.21739487092229032,0.9216350166901904,0.3214472991131728,1
23,4.633333333333334,0.18264748318033364,0.8603662283689943,0.4758254406502469,-0.13207108510455323,0.9448957585866936,0.29954838321076493,1
24,4.833333333333334,0.4888877993197598,0.8325703249327089,0.26041385085614405,0.050236268964527875,0.9563843867825677,0.28775896510631216,0
25,5.033333333333333,0.645932743197841,0.7088474651223639,0.2833834195123475,0.25427986879289016,0.9233289517667826,0.2877592659775267,0
26,5.233333333333333,0.7476527999947697,0.574729562758338,0.3327179291105169,0.42038943827970543,0.8580779390905395,0.29491519226551643,0
27,5.433333333333334,0.7595971793823414,0.5326703915544585,0.3731948271822791,0.46654681636742706,0.8345189394651805,0.2931078433125416,0
28,5.633333333333334,0.2306612003276663,0.9725753759091835,-0.029875555869481315,0.39895796255267163,0.868785594491919,0.29333280573291526,0
29,5.833333333333334,-0.1301432939878177,0.978949504620685,0.15722782970236704,0.1276391289612424,0.9416414583534802,0.31147972111831995,0
30,6.033333333333333,-0.33532040260941814,0.7493395368674892,0.5710083064904354,-0.1898682368396964,0.9285084144894654,0.31909587409060025,0
31,6.233333333333333,-0.7128658294386032,0.49507434906404935,0.49671289304549,-0.4522161256157691,0.8333837381319849,0.3177611064152166,0
32,6.433333333333334,-0.6850577806745524,0.44183991902279623,0.5792005896882237,-0.6259271138344155,0.7128474551882281,0.31632855356193496,1
33,6.633333333333334,-0.639883946489707,0.47229015060475915,0.6062099872704934,-0.7089289604147873,0.6314134970606294,0.3142240041990359,1
34,6.833333333333334,-0.6157467394987552,0.4835157666601995,0.6221482590087765,-0.7130760020703517,0.6226860036604663,0.3221564156069556,1
35,7.033333333333333,-0.5796215636185419,0.511417591961096,0.6344216969974392,-0.6817596654668197,0.6520145476479087,0.33178424947254936,1
36,7.233333333333333,-0.5703659867778527,0.5193397648216659,0.6363716286902673,-0.6673760452375704,0.6662841786412774,0.3326779336466102,1
37,7.433333333333334,-0.5950481148888092,0.48581832535814645,0.6402330011124705,-0.7018352392314557,0.6297335692452586,0.33296085166060085,1
38,7.633333333333334,-0.6447823873033327,0.401849374004862,0.6502097766377524,-0.7836444297249445,0.5186797074293655,0.34186659512455214,0
39,7.833333333333334,-0.8710911185336649,-0.08915405826245286,0.48296150685857353,-0.8837780661035249,0.32203523245966864,0.3394549144274698,0
40,8.033333333333333,-0.8193217469709653,-0.35859519567030373,0.4473492601789145,-0.9392889825855146,0.06665469761724757,0.33659078787011093,0
41,8.233333333333334,-0.7422910228125286,-0.3380767536583049,0.5785396668231073,-0.9237974080260365,-0.15556589971320942,0.349853683374631,0
42,8.433333333333334,-0.7471037526720298,-0.3096161566407402,0.5881953912522498,-0.874658411567788,-0.32288270525046825,0.36155140951717196,0
43,8.633333333333333,-0.7385193326432873,-0.2702611004062233,0.6176958255641132,-0.8016825547651063,-0.458670644420686,0.38330969376211355,0
44,8.833333333333334,-0.5709647881915904,-0.6838464810626079,0.45426115944863776,-0.7269732946363548,-0.5745808048153683,0.3759876695096361,0
45,9.033333333333333,-0.522693823113962,-0.719990312819024,0.4565140925812416,-0.6130163121142463,-0.7005576301997667,0.3652807247183131,0
46,9.233333333333334,-0.2329920009951215,-0.8382162963478996,0.49306000447115933,-0.49213710142435585,-0.7957667043916327,0.3529255241312443,0
47,9.433333333333334,0.020428908367076892,-0.8638505046118792,0.5033338508234183,-0.3591956401820872,-0.8681637944561583,0.34244724859409537,0
48,9.633333333333335,-0.1785869154224276,-0.9748991427695711,0.13296005064325994,-0.25490276855564004,-0.9363636750904016,0.241345492093527,0
49,9.833333333333334,-0.22994909631795668,-0.933024384598257,-0.27674701596873413,-0.17389132287872455,-0.9833926959565481,0.051967426016684956,0
50,10.033333333333333,-0.38825285231507634,-0.8737459657807554,-0.2929636666057117,-0.1199659443683499,-0.9874468563579509,-0.10274666934071433,0
51,10.233333333333334,-0.016483248551940777,-0.91470745784005,0.4037803475764615,-0.022135496303071323,-0.9983268142042984,-0.05341902136985339,0
52,10.433333333333334,0.21938197809253795,-0.8622341914161346,0.4565344968796662,0.05741604318365151,-0.9980850673018629,0.023012961873012095,0
53,10.633333333333335,0.05465244368885391,-0.8067453942141096,0.5883663648723959,0.14083720488262735,-0.9805665094057178,0.13658038787738108,0
54,10.833333333333334,0.061370584834351094,-0.8241352323210114,0.5630584074181672,0.27210794130185006,-0.9271055493884989,0.2577451620758752,0
55,11.033333333333333,0.11520748132570172,-0.6802135253087224,0.7239038584188292,0.3781698376513199,-0.848919175631756,0.36922053996964216,0
56,11.233333333333334,0.3753171458631357,-0.7253649295865355,0.5770465829957491,0.3792527756478745,-0.8369004851113424,0.3946706350664852,0
57,11.433333333333334,0.4703033535991648,-0.8595884532102569,0.19980602268444508,0.35614508763502756,-0.8509725198497265,0.3860135321644119,0
58,11.633333333333335,0.4822739782638662,-0.8681668317378449,0.11703914797971045,0.3400988681193033,-0.8711012820051155,0.354281408477799,0
59,11.833333333333334,0.33760692913092005,-0.9395615586847108,0.056970508552639035,0.34163456645736595,-0.8935144725795934,0.2914064348848512,0
60,12.033333333333333,0.2997917519452933,-0.9513308947569461,-0.07137530487865158,0.32127887484380524,-0.941768181660498,0.09926014603544343,0
61,12.233333333333334,0.13455896355489827,-0.8542121171306009,-0.5022106572687286,0.2829308998570657,-0.9509365165392478,-0.12517926113487005,0
62,12.433333333333334,0.0367169952580097,-0.734277523914156,-0.6778557222106485,0.1986187063372502,-0.9232609259350688,-0.3288462743204437,0
63,12.633333333333335,-0.140620567750453,-0.5982953293788535,-0.7888400058116913,0.06291172941803236,-0.8581834890213964,-0.5094734668976345,0
64,12.833333333333334,-0.1834330827720322,-0.4465825161338787,-0.8757376093489893,-0.05226564617792523,-0.767138439022905,-0.6393488231029324,0
65,13.033333333333333,-0.12458748402400469,-0.35215302341052745,-0.9276131774222447,-0.1357799105219935,-0.651714683994746,-0.7462116231768761,0
66,13.233333333333334,-0.1635703161404275,-0.15641663815012713,-0.9740526613009859,-0.23144899602372457,-0.5114079291579688,-0.8275828008326223,0
67,13.433333333333334,-0.19783190522795396,-0.11692667217613205,-0.973237222165127,-0.35289305845630586,-0.41702972352193024,-0.8375874276710327,0
68,13.633333333333335,-0.5645864602979396,-0.05514955130108246,-0.8235293897849258,-0.48328562464045727,-0.3192266563686577,-0.815186694493703,0
69,13.833333333333334,-0.6417741182340311,0.08741482249114377,-0.7618954193153901,-0.6283121650120367,-0.16609208074100387,-0.7600245022451653,0
70,14.033333333333333,-0.7218040783302347,0.47797050748593545,-0.5005427718781663,-0.726206686999472,0.15871551306802756,-0.6689045026525116,0
71,14.233333333333334,-0.5121961935895483,0.7805390930119174,-0.358348689899254,-0.6399966984654277,0.5398895343992622,-0.546738983976358,0
72,14.433333333333334,-0.14884409955947653,0.9753672762573087,-0.1628008305652268,-0.44307853416303405,0.8199021503172678,-0.3625491366271033,0
73,14.633333333333335,0.11445654857357984,0.9896293096584168,0.08679589825348569,-0.1061117906569099,0.9648445342956106,-0.24044814934507322,0
74,14.833333333333334,0.6377772143092029,0.7539399836985119,0.15752690528503602,0.3513291745973331,0.9340674193510411,-0.06392078835279923,0
75,15.033333333333333,0.7632650083796786,0.5950519602216122,0.2516737801591304,0.6737028020427902,0.7338552327870258,0.08706912099471951,0
76,15.233333333333334,0.7434860952358071,0.46810199460365426,0.4776075259447796,0.8011910590809166,0.5655560795323594,0.19554847929039743,0
77,15.433333333333334,0.7155261709791223,0.5018237802209424,0.48599916897945367,0.8051929366395186,0.5566040148294539,0.20458813617011481,0
78,15.633333333333335,0.6415188092104699,0.5913468640618494,0.4886333019692759,0.7255436116508098,0.6570449099463215,0.20464225835914096,0
79,15.833333333333334,0.3156605592583289,0.8578340119694338,0.4055603768086136,0.5261725319934505,0.8204473796932056,0.22362594601287814,0
80,16.033333333333335,0.3595298511834015,0.8257774831759768,0.434545549266807,0.24201517066477363,0.9398235181959955,0.2411646985232335,0
81,16.233333333333334,-0.2689895840901244,0.9026786561394754,0.3358807041216463,-0.07846158168331252,0.9606702124759208,0.26637665637443286,0
82,16.433333333333337,-0.23507231609927653,0.9271677301474233,0.2917207678191546,-0.39873792222226834,0.8726254984290821,0.28201561813712483,0
83,16.633333333333336,-0.5556633405021028,0.5571680468961485,0.6170915811611557,-0.670281865578578,0.6730537055168243,0.3126034711364758,0
84,16.833333333333336,-0.49814393911314425,0.46711669603853734,0.7305166720937182,-0.8188745158417909,0.45227815338328636,0.35339637700049675,0
85,17.033333333333335,-0.6702618604496261,-0.13535989817630364,0.7296757748427084,-0.8923389265533996,0.23717255597880824,0.38403179405878085,0
86,17.233333333333334,-0.554256187242907,-0.02583476426772806,0.8319450966609436,-0.884171749230875,0.12682038225852868,0.44961862562155447,0
87,17.433333333333337,-0.5209165398399292,-0.01565168372485156,0.8534641078087425,-0.8553154687354012,0.1113470059565772,0.5060012778703697,0
88,17.633333333333336,-0.48515108585306593,-0.02199324827087217,0.8741537169892298,-0.8222382199816022,0.098191697582205,0.5606092222996438,0
89,17.833333333333336,-0.3498208872091362,-0.388720061523786,0.8523626344703041,-0.7895310206676321,0.06460235041838303,0.6103009943658518,0
90,18.033333333333335,-0.34707412857268544,-0.34881653760252535,0.8705553241296595,-0.7745123485870914,0.012309633491790267,0.6324390048134331,0
91,18.233333333333334,-0.5275326438697288,-0.07563640367520207,0.846161003645817,-0.7696571290451062,-0.05621298055877951,0.6359779905993154,0
92,18.433333333333337,-0.5764860066240556,-0.06398197036274735,0.8145981780210105,-0.7553789993660293,-0.16730454425175278,0.6335706407256336,0
93,18.633333333333336,-0.4633535780848973,-0.20686275805766982,0.8616909312536006,-0.7404995997959896,-0.27397789150124907,0.6136745535465111,0
94,18.833333333333336,-0.37746823549549946,-0.3176077967068633,0.8698522970383684,-0.7093761131854324,-0.3768659918837598,0.595615273648518,0
95,19.033333333333335,-0.5951807663588884,-0.28812649517321043,0.750161967934691,-0.6544569881079447,-0.4988511407823062,0.5681844683347734,1
96,19.233333333333338,-0.47945819747321994,-0.4399227853037528,0.7593337736768456,-0.6062797648367368,-0.557748703391315,0.5668696769230281,1
97,19.433333333333337,-0.4145885427969827,-0.5421257881500415,0.7309007935446307,-0.5957144536941932,-0.5831509152324714,0.552321735697012,1
98,19.633333333333336,-0.3660730463708885,-0.3342551140155018,0.8684837612041006,-0.6170920736876723,-0.551547894875958,0.5612417413644036,1
99,19.833333333333336,-0.23899151214937253,-0.44305620790251793,0.8640510712681267,-0.6395670283195174,-0.526657603515411,0.5599873078436205,1
100,20.033333333333335,-0.28702766558749115,-0.5145955496262647,0.8079644419726886,-0.6260670499024764,-0.5671797890421763,0.5351141335532849,1
101,20.233333333333338,-0.3525190803972837,-0.7425474110217497,0.5695205354864301,-0.5743859869248005,-0.6574869710850292,0.4876388221602715,0
102,20.433333333333337,-0.25096393892354685,-0.7989237092447463,0.5465693077429381,-0.43632172629469823,-0.7860273589055612,0.43793189221060724,0
103,20.633333333333336,0.00041072743879139173,-0.9028908513392551,0.4298696801018265,-0.19573928565927973,-0.9169884998249308,0.34758915868941903,0
104,20.833333333333336,0.19328633985889943,-0.9263311616329832,0.32334342394988963,0.01366862004716557,-0.9769543321771661,0.21301033229933727,0
105,21.033333333333335,0.4399927714981433,-0.8892131639749157,0.12532481814510163,0.2373270709758486,-0.9678063942294663,0.08382508377916399,0
106,21.233333333333338,0.3561338998306076,-0.9132067679392927,0.19804556137746235,0.2825887508397307,-0.9566901146206926,0.06991153328233228,0
107,21.433333333333337,0.30433025618941517,-0.9303745738015036,0.20441684762111875,0.2170768055213242,-0.9721241214209394,0.08861350380288424,0
108,21.633333333333336,0.45790633083595544,-0.8821385085379911,0.11024265932351726,0.1828276696694648,-0.9803285283718013,0.07436410198215052,0
109,21.833333333333336,0.2596035987543326,-0.9481878129079955,0.1831552428038909,0.19319419594428844,-0.9763591454850894,0.09694752024196483,0
110,22.033333333333335,0.17954625898154453,-0.9658680576602269,0.1867137811662355,0.09638326438238631,-0.984256926975593,0.1481504912160511,0
111,22.233333333333338,-0.35295540022580146,-0.8131271268984243,0.4628679735662839,-0.14893211005721246,-0.9525140505043687,0.26558653991809816,0
112,22.433333333333337,-0.4694955615195917,-0.6355609547027536,0.6128916629965921,-0.4043430254676246,-0.8295501491570558,0.38516654552179697,0
113,22.633333333333336,-0.547154453717926,-0.30308931128543787,0.7802300129840923,-0.5984785197331516,-0.6391424613584741,0.48303247872855065,0
114,22.833333333333336,-0.5814177491918062,-0.1571574492295179,0.7982824920267295,-0.7123124735741947,-0.4839719148818286,0.5083130193062421,0
115,23.033333333333335,-0.5689919992396392,-0.0039583948354863585,0.8223335308204361,-0.7907097685820723,-0.3155282080583706,0.5246141551543947,0
116,23.233333333333338,-0.534774923979001,0.0789359592467901,0.8412995275293118,-0.82122898439163,-0.18382703769571213,0.540176429888524,0
117,23.433333333333337,-0.8023671773597809,-0.00392276144718476,0.5968178320378226,-0.8497932785588024,-0.05533555213334419,0.5242035486205525,0
118,23.633333333333336,-0.8180456613140349,0.032729004663379815,0.5742213059953696,-0.8604764706309903,0.03899587319981233,0.5079956351818576,0
119,23.833333333333336,-0.7885745496396334,0.12454496888433852,0.6021949272339057,-0.8486600661751176,0.15940615650151688,0.5043468740351819,0
120,24.033333333333335,-0.5494267109632589,0.14316007707659842,0.8231861767616837,-0.8108852709564516,0.29471203542192903,0.5055787708392693,0
121,24.233333333333338,-0.45197799185981025,0.5908663053194063,0.6682760687863718,-0.7522766764468515,0.42735624329535477,0.5014443572227741,0
122,24.433333333333337,-0.39501542037729964,0.6522892981192963,0.6469014524818916,-0.6915484044901795,0.5336020259869154,0.48685694213983066,0
123,24.633333333333336,-0.39301390814005915,0.6335708089642951,0.6664293646267442,-0.605704778284357,0.6510802565617205,0.45740159715399115,0
124,24.833333333333336,-0.3406377082479059,0.6943494222616475,0.6339123216380409,-0.4935455395245998,0.7678699131596158,0.40839759656444596,0
125,25.033333333333335,-0.3028008615464239,0.7251912196058647,0.6183925397781752,-0.3962697354127336,0.8369220551307957,0.37753380038291656,0
126,25.233333333333338,0.03544863351014005,0.897741798227695,0.4390934503009222,-0.310249398555965,0.87670310314889,0.36760981981547874,0
127,25.433333333333337,0.1206276227567144,0.8955877941949175,0.4282189621176833,-0.20038110735297165,0.9110401175022053,0.36035165618818066,0
128,25.633333333333336,0.0874414892896801,0.9073603121621985,0.4111584242888873,-0.0828014695200337,0.9279478719829586,0.36339601473822164,0
129,25.833333333333336,0.48414928201482055,0.8009075764844901,0.3523443296752126,0.06899260782773203,0.9328930966932134,0.3534833662384635,0
130,26.033333333333335,0.4959202509929804,0.7859754494243194,0.3691960150885959,0.2402906376894028,0.9004003889566308,0.3626838140937205,0
131,26.233333333333338,0.6551850992908171,0.6024634528608965,0.4558182462717008,0.3518770829254266,0.8613118941519167,0.36650285060873705,0
132,26.433333333333337,0.7071270955129421,0.5424814751161771,0.45352521423533587,0.46245396313169507,0.8133095423543731,0.35307778222242975,0
133,26.633333333333336,0.675451174586659,0.5555426072715701,0.48491042704339576,0.564325045498307,0.7483559893339412,0.3485692990659851,0
134,26.833333333333336,0.7378846623324167,0.45812728773864986,0.4956264856964408,0.7039394152264292,0.6211730629462126,0.34440285358964984,0
135,27.033333333333335,0.9250939565524102,0.0447512854730113,0.3770921558435294,0.8285941845137136,0.4506913164568039,0.3321280094488978,0
136,27.233333333333338,0.9252817353103334,-0.05541620976495698,0.37521027970510706,0.8978016470165078,0.3203238260743949,0.30223310385116214,0
137,27.433333333333337,0.9445362333197854,-0.29367371813598303,0.14699337135483176,0.9449467411414695,0.19682059280727707,0.26141405978468146,0
138,27.633333333333336,0.9091226539367899,-0.40388481561920014,0.10184819984257278,0.9710336746452023,0.0401589045563137,0.23554376470174837,1
139,27.833333333333336,0.9142364972961388,-0.3927145073630128,0.09973436077056676,0.9737107054661255,0.0018213321525226557,0.22778091405965165,1
140,28.033333333333335,0.9219121246580712,-0.3758610245281987,0.09384308524901454,0.972617435287707,-0.008703925518704015,0.23224893165508342,1
141,28.233333333333338,0.9403749364271964,-0.32748344687170716,0.09192154787955009,0.9695424944807632,0.027703364234702783,0.24335134067043684,1
142,28.433333333333337,0.9548018060542461,-0.28854997791254855,0.07136120376099135,0.9724192117727094,0.068647110627062,0.22290906392046628,1
143,28.633333333333336,0.96605642677098,-0.24879477735440006,0.06954235440119165,0.967513968869257,0.1089391207397488,0.2281424730630168,1
144,28.833333333333336,0.9691321873049774,-0.2383144843620915,0.06315861043991468,0.9663336113158119,0.11361899173647204,0.23084643457963339,1
145,29.033333333333335,0.9420409784667482,-0.1929133547447436,0.27448721728076975,0.9646279254282986,0.14257928423820684,0.22172982025433097,1
146,29.233333333333338,0.9449428138245893,-0.3007265694448908,0.12902173859925647,0.981117527945964,0.06930143022498181,0.1805705073537006,1
147,29.433333333333337,0.8120126391780003,-0.5731270909064581,0.11027606940891435,0.9831102151584273,-0.12976862938460074,0.12905195728385208,0
148,29.633333333333336,0.6560951978994762,-0.7464335912385178,0.11124740520127514,0.9148837740677107,-0.39111199297353844,0.10009539899460501,0
149,29.833333333333336,0.5079523692193288,-0.8586111781770028,0.06907412912204919,0.8351298616466998,-0.5451211409923744,0.07349187593970122,1
150,30.033333333333335,0.5097135206963729,-0.8587427184432934,0.052469708784504764,0.81346111992087,-0.57674849972818,0.07511440899306766,1
151,30.233333333333338,0.5198499024775609,-0.8516126193000607,0.06717161262736479,0.8094657989629154,-0.5778684570606177,0.10408249921917898,1
152,30.433333333333337,0.7069492201226212,-0.7019617297598398,0.08644379746743837,0.7951773843829719,-0.5937814093955077,0.12294944173171178,1
153,30.633333333333336,0.6914877849068648,-0.7164656526320844,0.09231257727459947,0.7840228491083736,-0.606216534574382,0.13345293284381432,1
154,30.833333333333336,0.765683023874401,-0.6399167054513332,-0.0650854594734125,0.8130231122466814,-0.5696325727536199,0.1204663895483394,1
155,31.033333333333335,0.7949062472016588,-0.6055309389774401,-0.0381620243288374,0.8705475283069622,-0.47877162719210536,0.11368698234390152,1
156,31.233333333333338,0.9351763080756289,-0.35026153289355927,-0.052555983380491,0.937397241651995,-0.3301072368308306,0.11097577904725596,0
157,31.433333333333337,0.9846968784377894,-0.10300843901884282,0.1405749589570436,0.987444700948001,-0.13073323512049975,0.08866670065273309,0
158,31.633333333333336,0.9817091495280273,-0.036372541857874724,0.1868801325228404,0.9946766219031956,0.06505039928327425,0.07991785402733367,0
159,31.833333333333336,0.9256043026879369,0.25695864154142506,0.277900938074637,0.9672580917961259,0.241008388515213,0.07954081040709658,0
160,32.03333333333333,0.7758416151407663,0.5466321360045925,0.3150604642014353,0.9124831167875581,0.4055036352532222,0.05423433759239028,0
161,32.233333333333334,0.6786490292377774,0.6369384741399664,0.3657114645111282,0.8431773658381205,0.5361368750703587,0.040114597443804655,0
162,32.43333333333333,0.6153841324008072,0.6244127554898358,0.48105205578076105,0.7649784551952281,0.6425412034328012,0.0441448182491456,0
163,32.63333333333333,0.5315935384424946,0.7790732763468482,0.3323449111516165,0.6891706533099098,0.7201704519893831,0.07998956618084262,0
164,32.833333333333336,0.46670603135336164,0.8106451991715924,0.3536097302937863,0.6227583524915465,0.7747243987395622,0.10942641545640974,0
165,33.03333333333333,0.375112261271492,0.8510148014571153,0.3675113592049839,0.5374697984741752,0.8348548943916807,0.11892653630870326,0
166,33.233333333333334,0.0932965371076852,0.9704220373945002,0.22265854015245418,0.4481203117519846,0.8841678277624311,0.13204332071395344,0
167,33.43333333333333,-0.009921536981248757,0.9791080855747326,0.20309830099267762,0.3335654074644978,0.9331548002574956,0.13400088693526419,0
168,33.63333333333333,-0.0040740745911581056,0.980352853136923,0.19720974941041977,0.2185148331889421,0.9671381261456112,0.12998120107140537,0
169,33.833333333333336,-0.07435875048775986,0.9646763064925381,0.2527259383557892,0.12314608521122455,0.9838633574318705,0.12979959784235676,0
170,34.03333333333333,-0.04086183647019881,0.9359768913743469,0.3496820972447641,0.015306068818390417,0.99098569085097,0.13309051350848744,0
171,34.233333333333334,0.031193659248417827,0.971787937398388,0.2337844313671914,-0.02517068186496152,0.9911107130822766,0.13063686764460544,0
172,34.43333333333333,0.01497233812333415,0.9736969629360825,0.22735446654985658,-0.0596498927587229,0.9899368839208129,0.128323248661434,0
173,34.63333333333333,-0.0032534866784709737,0.9725893232710323,0.2325068237356234,-0.09355224480720575,0.9870777913704034,0.1300976989606627,0
174,34.833333333333336,0.0016006962579516726,0.8624185148930698,0.5061933849243014,-0.12120359538238118,0.9826800845104552,0.14017681681686395,0
175,35.03333333333333,-0.03316391429619253,0.8659207956212173,0.49908048499142244,-0.17118790807959,0.9753472642841433,0.1392566486052687,0
176,35.233333333333334,-0.07098508013708121,0.8612318287113375,0.5032304199990876,-0.2137297332885661,0.9664350361189664,0.1425584864893377,0
177,35.43333333333333,-0.11361900250761964,0.8560728147171528,0.5042123145773264,-0.2686749181565546,0.9526081612191081,0.14265861184071146,0
178,35.63333333333333,-0.37283574732255975,0.7237550092697439,0.5806653012496802,-0.3190439512179698,0.9353323154714134,0.1528542339162043,0
179,35.833333333333336,-0.503173073921312,0.6579481661598435,0.5602865948132949,-0.3362012967284086,0.9302865252370637,0.1467503629995057,0
180,36.03333333333333,-0.5687260910674632,0.5998398991489282,0.5627990127284583,-0.3787304533679403,0.9131950981927516,0.15045915169389218,0
181,36.233333333333334,-0.6055178153193203,0.5532146769382116,0.5721028723499544,-0.45388603331531985,0.8774019065900709,0.15541352281379125,0
182,36.43333333333333,-0.4326565569022833,0.7717094889831327,0.46612527112660745,-0.5142615667982714,0.8442734886870336,0.15078898240393093,0
183,36.63333333333333,-0.45564895204903,0.7597918135196552,0.46378921139364016,-0.5691084618131164,0.8053102845219863,0.16610510027035916,0
184,36.833333333333336,-0.5229001207878398,0.586378450636499,0.6186564283260955,-0.6153350372316444,0.7690811850382833,0.17284942225891514,0
185,37.03333333333333,-0.5303395970933114,0.5621127711706283,0.6346409569526545,-0.6737203132104673,0.7157818589527346,0.18373151597305734,0
186,37.233333333333334,-0.5644601083204637,0.527225932834465,0.6351516369038805,-0.7490876275596368,0.6370381945076985,0.181796768330592,0
187,37.43333333333333,-0.8592440711524663,0.35851104159624236,0.3649239088397924,-0.8397596845490787,0.5077780720424836,0.1922631055581134,0
188,37.63333333333333,-0.9082891688627501,0.2527148912621057,0.33338561675782713,-0.9071734074101716,0.378081518061151,0.18463687223410769,0
189,37.833333333333336,-0.9106291674141971,0.1340588451283151,0.3908743346619072,-0.9398220638861681,0.2890216601638644,0.1822113283768804,0
190,38.03333333333333,-0.7301612402163461,0.00648769156074102,0.6832440802114131,-0.9516978143467489,0.23161596641317098,0.20155722331416048,0
191,38.233333333333334,-0.7119022910594394,-0.0007416259920247021,0.7022781343422343,-0.9530438433607504,0.17651814230362883,0.24606661307427516,0
192,38.43333333333334,-0.6774237745993738,-0.025567003562067255,0.7351485278067245,-0.9479819289505411,0.12047573209364307,0.2946453128079799,0
193,38.63333333333333,-0.5308740608090927,0.01309080157366692,0.8473496105352399,-0.9360463191825448,0.06645000594086664,0.3455454891259158,0
194,38.833333333333336,-0.4462853771177466,-0.01364027238702141,0.8947867372397059,-0.9015832431608124,0.06911479334217564,0.42704894449336844,0
195,39.03333333333333,-0.4931053493426665,-0.03136417746883533,0.8694040503824162,-0.8750898888279863,0.10186747744048558,0.47311806508622667,0
196,39.233333333333334,-0.5823159938670022,0.4703819338996747,0.6630602684126741,-0.86700692038082,0.19973453203312747,0.4565140925812417,0
197,39.43333333333334,-0.5201284728660628,0.6159163573032621,0.5917038216204943,-0.8213031643778865,0.35978773397628483,0.4427345690852257,0
198,39.63333333333333,-0.428422110196937,0.6506910656933943,0.6269414905086427,-0.7204340450568041,0.5625976042202983,0.4055351063085307,0
199,39.833333333333336,-0.24458760010221198,0.8402972875504827,0.48381543424279233,-0.5833940485169076,0.7200711060256443,0.3756979989593477,0
200,40.03333333333333,-0.19014693314509756,0.8643702762532129,0.46551924701934577,-0.4039067956537295,0.8548756420223254,0.3256484870249727,0
201,40.233333333333334,0.16438961972806038,0.9631378681173168,0.2129354360459846,-0.1858045125407628,0.9481361181148226,0.2579042160292169,0
202,40.43333333333334,0.18470785968548004,0.9487168136279819,0.25655294601695416,0.022585861742076274,0.969726878402149,0.24314534779384828,0
203,40.63333333333333,0.5070232924987821,0.7427757886042725,0.43727738190649124,0.2117591337734836,0.9430020881604028,0.2567199466123044,0
204,40.833333333333336,0.4822574006746425,0.7389523571498232,0.47050739989638635,0.34759541936161836,0.9027039764202178,0.25358027406316136,0
205,41.03333333333333,0.6686757957075011,0.5774939577257786,0.4683731514777049,0.45467554995724957,0.8513186334760077,0.2617761038895947,0
206,41.233333333333334,0.7153904629379024,0.5098144989782643,0.47781341773650005,0.5557705965762476,0.7850366234814049,0.2735626871015057,0
207,41.43333333333334,0.6992105729609992,0.5143857181672675,0.49649965519131634,0.6374667423120358,0.7107924738919015,0.29733854695399153,0
208,41.63333333333333,0.6974817623603752,0.5065941691236862,0.5068348241632056,0.6758748517143756,0.6718196033514293,0.30307029774096855,0
209,41.833333333333336,0.6740727922182375,0.5427311916983439,0.5010675846119006,0.6571210374007457,0.6945813407080538,0.2928287952807415,0
210,42.03333333333333,0.7570663182490361,0.5494967101235277,0.35341753682615784,0.5886536358060864,0.7578557480902243,0.28132110148170897,0
211,42.233333333333334,0.27464701583203527,0.8938890710165808,0.354304029629459,0.49024435833736435,0.8276791306867038,0.2731441482882037,0
212,42.43333333333334,0.20854827706409906,0.916890121085512,0.3403235548553627,0.40423157281509675,0.8739486071680033,0.26983451886024584,0
213,42.63333333333333,0.23300502110753413,0.9157549931898717,0.3272635827379745,0.30746498868187594,0.9168133024896824,0.25479138351368147,1
214,42.833333333333336,0.05457112979102907,0.96723154402529,0.2479619568316567,0.23824160548941126,0.9395762891023446,0.24584005851466756,1
215,43.03333333333333,0.044405464610144274,0.9669999960062511,0.2508767873611823,0.19738369393745941,0.9490451047639434,0.24566861112319302,1
216,43.233333333333334,0.039909610540934115,0.9691354546075063,0.24327698947737195,0.17156369150600914,0.955806773289328,0.23874528663635322,1
217,43.43333333333334,0.041369755325113,0.9705622427431274,0.23727089224296194,0.15899730756548047,0.9584555839755379,0.23681796750466125,1
218,43.63333333333333,0.08549595729209286,0.9146400937226153,0.39512522096393,0.16517732236593113,0.9578793996037271,0.2349117025412412,1
219,43.833333333333336,0.09310008927566182,0.9018579895494209,0.4218821400139383,0.17059896553555892,0.9561696030811291,0.23798252688353577,1
220,44.03333333333333,0.08432182653592923,0.8962449309588213,0.4354708409299779,0.1582709184359471,0.9546080792706664,0.2523365438627767,1
221,44.233333333333334,0.1636671510279502,0.9431825011138176,0.2891709412563394,0.1567619542684306,0.9540341203029132,0.25543019984291127,1
222,44.43333333333334,0.06102389727388252,0.9784226447398697,0.19739607955008937,0.16233225274239427,0.9522275539259617,0.2586714620203775,1
223,44.63333333333333,0.06024755675151494,0.9774815041045756,0.20223783285757846,0.16314034909568914,0.951298555617156,0.26156506757908216,1
224,44.833333333333336,0.042049632251840996,0.9830719260333092,0.17832951710988618,0.14608579634588414,0.9569898626833859,0.25065782019961663,1
225,45.03333333333333,0.03369107022146778,0.9877858783094801,0.15213142476063712,0.13520001709021673,0.9597412286145178,0.24620668040551102,1
226,45.233333333333334,0.18657042830323783,0.9346469645958738,0.3026987394332288,0.13954206005124553,0.9592581996664833,0.2456658703387017,1
227,45.43333333333334,0.24965561544823062,0.8868093133801231,0.38889756411867643,0.15732570384243255,0.9577433555136896,0.24078265693330483,1
228,45.63333333333333,0.25608431461566944,0.8797126348469289,0.40065758934343976,0.1686780606071117,0.9570384728862493,0.23584968366605735,1
229,45.833333333333336,0.25521882040340554,0.8775715356902264,0.4058713508714213,0.1701795306193738,0.9579395504429266,0.23106437426694246,1
230,46.03333333333333,0.2545842111889021,0.8767698512317853,0.40799694531248326,0.17207250108863698,0.9588527637632599,0.22581503889834018,1
231,46.233333333333334,0.2549511862315097,0.8760169570530845,0.40938268599758915,0.17444924800230743,0.9594939347992698,0.22122126695877214,1
232,46.43333333333334,0.2550649731791217,0.8763812512748053,0.40853122508706785,0.1760885578671907,0.9606749200766723,0.21470099609441057,1
233,46.63333333333333,0.0064523093451045455,0.9591831098543724,0.28271209644125606,0.17111962717275592,0.9614352915561288,0.21531431291634737,1
234,46.833333333333336,0.005160813906447681,0.9614434683545113,0.2749542201135864,0.1708623904000675,0.9616745971812356,0.21444815849776772,1
235,47.03333333333333,0.3252735006061205,0.8890373901461126,0.32219507868002784,0.17191487152057822,0.9620870962964957,0.21173968945344382,1
