,timeStamp,x_gaze,y_gaze,z_gaze,x_head,y_head,z_head,fixations_head
0,0.03333333333333333,-0.9973726484457679,0.008304792511600028,0.07196409211276245,-0.9840662605743443,-0.029524978962836998,0.17533359751191716,0
1,0.23333333333333334,-0.9993752987338409,-0.004162545653174482,0.03509537710769733,-0.9839797114687234,-0.03827862318190598,0.17412258447779083,0
2,0.43333333333333335,-0.9622953270541326,-0.10971959840335906,0.24889618971769223,-0.9705947709214493,-0.07328086077353725,0.22929392949711752,0
3,0.6333333333333334,-0.9251035834341025,-0.14240993566380789,0.35199825303772847,-0.9172711548551866,-0.10522009371159417,0.38411243191278754,0
4,0.8333333333333334,-0.8425114250615672,-0.148332202010605,0.5178533156091719,-0.8621064129891559,-0.1589754914868427,0.48114376831617395,0
5,1.0333333333333334,-0.8498081456178352,-0.14748677790458467,0.5060373167908668,-0.8553131482836922,-0.17967226054827187,0.4859601806347023,0
6,1.2333333333333336,-0.8696963112012863,-0.11409560186773514,0.4802192415109115,-0.8728792195225165,-0.15293698480819076,0.463348839216785,0
7,1.4333333333333336,-0.8726811273171723,0.03968414030940271,0.4866752706192636,-0.8855705105605343,0.0250606261532465,0.4638284551882968,0
8,1.6333333333333335,-0.5331505079765647,0.6364090886020475,0.5574352050140379,-0.769812045730094,0.37158529811317564,0.5189545071342865,0
9,1.8333333333333335,-0.5173769308801593,0.6348047022119883,0.5738850942850634,-0.7223475227877288,0.43883404782816293,0.5344518077331029,0
10,2.033333333333333,-0.47825231532300844,0.6265619077272307,0.6153819128585069,-0.6852451579653074,0.4741971787872368,0.5527893894742614,0
11,2.2333333333333334,-0.49808489345613055,0.4358488842300724,0.749631368758136,-0.6769454830606696,0.5031509395811643,0.5372000976939121,0
12,2.4333333333333336,-0.706123254253081,0.672522522579909,0.22159288442049488,-0.7400460317219357,0.5340657654826366,0.40878555389355564,0
13,2.6333333333333333,-0.5408661515251565,0.7409141694732362,0.39813314306667724,-0.7720605774894915,0.5401110236066832,0.33496648618202707,0
14,2.8333333333333335,-0.31498428209007406,0.9379422971633161,-0.1450832493026059,-0.6594477775931745,0.7004013181070874,0.27306889647354193,0
15,3.033333333333333,-0.2723537705565891,0.9570265342464033,-0.09961745033841633,-0.5126974204574474,0.8285743050348637,0.2249577206771797,0
16,3.2333333333333334,-0.24367288296458234,0.9674204347170539,-0.06871119704673928,-0.36436568265611136,0.9137746388887602,0.17959275772219285,0
17,3.4333333333333336,0.09517848013165597,0.990761609109772,0.09660481786144967,-0.2467319387611578,0.954932090144322,0.16500925309738482,0
18,3.6333333333333333,0.16167669210578617,0.9859152574154827,0.04279897691643412,-0.10355412481125598,0.9897480264761015,0.09836354670932497,0
19,3.8333333333333335,0.3400419334191356,0.9383068019453902,0.06286357402813707,0.2082840202224745,0.9753701305905299,0.07260079387841742,0
20,4.033333333333333,0.6838958488840943,0.7241902124500477,0.0885155583536546,0.4012987828445194,0.9104022979792388,0.10063271198585792,0
21,4.233333333333333,0.6854804962347982,0.7223478441381892,0.09126927933650521,0.4756385039220974,0.871093617785638,0.12232711326553108,0
22,4.433333333333334,0.6873301393247502,0.713774286757604,0.13454942266503164,0.5178328881380574,0.8372087894896436,0.17587081271172997,0
23,4.633333333333334,0.673453272304746,0.7249445778569275,0.14462381912351416,0.5189232459119778,0.8316152385918596,0.19782507372419114,0
24,4.833333333333334,0.11848797804667638,0.9907836048336388,0.06563876485180117,0.36619178493153126,0.9011115596632917,0.23216703833630042,0
25,5.033333333333333,0.009752108779803925,0.9931190384223644,0.11670249310698327,0.1968909023465354,0.9371843101685375,0.28795753393007384,1
26,5.233333333333333,-0.005471093970864205,0.9678141316638804,0.25160658513332207,0.04605138443027845,0.9432990752971037,0.3287341243857778,1
27,5.433333333333334,0.0400144918213895,0.975603785012031,0.21586128674330318,0.04820708942127311,0.9506237484917516,0.306578807703697,1
28,5.633333333333334,0.03226094278235819,0.971900018250685,0.233172867407664,0.03428915924474435,0.9497719199797914,0.31105876225592743,1
29,5.833333333333334,0.07817138900459808,0.9663590706735975,0.24502934613623942,0.07763523485260754,0.9423058644128598,0.3256262093298287,1
30,6.033333333333333,0.10573297692307965,0.9603672058764255,0.2579057336859551,0.11075535468904985,0.9328596432312772,0.34279168227673934,1
31,6.233333333333333,0.11432110476153462,0.950434628447627,0.28914477697811514,0.11073748483120971,0.9268935531682222,0.35861616046749245,1
32,6.433333333333334,0.11054828459313226,0.9598052556622413,0.25797858046096644,0.11158080627693379,0.9347401066307063,0.33735835061045344,1
33,6.633333333333334,0.10329726027524233,0.9686298404045485,0.22602191994912355,0.10987980253128277,0.9414267434899765,0.31881360641846024,1
34,6.833333333333334,0.10107754644934902,0.9817684208814945,0.16097856181379125,0.11476802857914525,0.9569035997888271,0.2667654406538461,1
35,7.033333333333333,0.11080689565696322,0.9871645724137222,0.11501277688196163,0.12539773918523617,0.9647381507154967,0.23142106118777292,1
36,7.233333333333333,0.09776161472342099,0.9915109801165692,0.08572422641791669,0.11535171471196193,0.9709793679589342,0.2095066798722153,1
37,7.433333333333334,0.21570766957733362,0.9751957051155195,-0.049634040836518345,0.1367482438941645,0.9682166831326783,0.20941913068155185,1
38,7.633333333333334,0.22486084696610387,0.9731956869515668,-0.04824680715399018,0.15409792287182705,0.965237174852694,0.21111851280496108,1
39,7.833333333333334,0.2275254657172452,0.9725956269391779,-0.04785299268528912,0.1628578138858437,0.9633726168035103,0.2130505424763829,1
40,8.033333333333333,0.22019299811565218,0.9735866594877416,-0.060366050461669964,0.16110905399862524,0.9665205686063398,0.19970443956143252,1
41,8.233333333333334,0.15215670302329937,0.9879568348301007,0.028100360096785862,0.15636481894687498,0.9690576622081513,0.19099028957353742,1
42,8.433333333333334,0.16997892194544173,0.9851255458496175,0.025195733939674426,0.17610231415322203,0.9646869024465639,0.19587535628029826,1
43,8.633333333333333,0.16953977022105088,0.9853736256957484,0.01717801200979819,0.18487964921638478,0.9629817638116943,0.1961775671980489,1
44,8.833333333333334,0.171074258165684,0.9851002899407355,0.01763567270449217,0.19422032264608297,0.9605236079988099,0.19918048284960188,1
45,9.033333333333333,0.15733682042848662,0.9875136525526638,0.00786835176838417,0.18120084988296764,0.9646256978320176,0.1914771920720161,1
46,9.233333333333334,0.14163117444316742,0.9898818251032747,0.008636130850041857,0.1651951454038138,0.9670989097994608,0.19346902232581667,1
47,9.433333333333334,0.1658735291901814,0.9859340391707799,0.020494943727300124,0.1870700244249781,0.9599910426543157,0.20837947112208038,1
48,9.633333333333335,0.17336561440928072,0.9838804327196982,0.04385952407166004,0.19176502010620267,0.9529385439943922,0.234806959934145,1
49,9.833333333333334,0.5297048685511481,0.7743568871218385,0.3460984882951489,0.27076468738820797,0.911810190850634,0.30868861320835284,1
50,10.033333333333333,0.7052384874597983,0.5592359829827988,0.43576804740903036,0.41986785932389825,0.8090068154341492,0.4113623138886979,0
51,10.233333333333334,0.7151703247958067,0.5256656762512648,0.460659313747981,0.46107494247316516,0.7716013982726837,0.43822503306749483,0
52,10.433333333333334,0.7328543842146497,0.5040251912862252,0.4570372611573926,0.4954069525855901,0.7497965091018938,0.43860819220401354,0
53,10.633333333333335,0.8229612715643577,0.5599864113124844,0.09565544757378029,0.5509409758002858,0.7292424006727671,0.40579497562839345,0
54,10.833333333333334,0.7220422940967574,0.6889899533667891,-0.06283127959163154,0.5708072222645799,0.7381616745515232,0.3595781656801281,0
55,11.033333333333333,0.7187533105768171,0.6862908327401915,-0.1113488726105472,0.5958159221827564,0.7408947124782926,0.3099651785204581,0
56,11.233333333333334,0.7171751705652909,0.6864899311556132,-0.11996394936232875,0.6043182495567583,0.7423023281376835,0.2894593354756947,0
57,11.433333333333334,0.701039804615898,0.6977843267549333,-0.14710617145201094,0.5943261366765034,0.7644159054631701,0.24988950905971247,0
58,11.633333333333335,0.7026478497922204,0.6878775166037996,-0.18196296692832517,0.6017161628014328,0.7739449623827815,0.1973495746786267,0
59,11.833333333333334,0.08939698615734026,0.9950756317274192,-0.04280964854167651,0.46584867002663893,0.869553488576309,0.16389553727659106,0
60,12.033333333333333,0.05734349075680556,0.9982897740548565,0.011368864733479528,0.39467554546753036,0.9045980580839319,0.1610390235957954,0
61,12.233333333333334,0.007671953443144586,0.9999224917243569,0.009805696003835943,0.3329841016966421,0.9282720815563549,0.16562768675651046,1
62,12.433333333333334,-0.05548932893053765,0.9984184454370899,0.00903007119701813,0.2583498570710484,0.951653981874524,0.16616272185340553,1
63,12.633333333333335,0.1366716314773775,0.9010754520922172,-0.41156274708253027,0.21673241437864282,0.9611565687339026,0.17089502900106696,1
64,12.833333333333334,0.07500180727250838,0.9931391064571305,0.08971869443649944,0.21529574317978906,0.9605211694790728,0.17620109520436353,1
65,13.033333333333333,0.189935408253117,0.8948456718585264,-0.4039502002076304,0.24502237430375856,0.9511178965186629,0.18798612452110255,1
66,13.233333333333334,0.45456203062043926,0.8543535049191747,0.25189968033037374,0.2891501230361682,0.9364186926642536,0.19877685573813383,1
67,13.433333333333334,0.41480923915421253,0.9085943539836266,-0.048883484137073725,0.2896827730729761,0.9368280668578687,0.19605372766693252,1
68,13.633333333333335,0.4235475020939259,0.9037501863572186,-0.06199285546971135,0.29940960791212734,0.933895118561742,0.19543232643668854,1
69,13.833333333333334,0.17578258739915786,0.9818436745777814,-0.07129853195443249,0.27964570010520934,0.9413596924333151,0.18878615382098812,1
70,14.033333333333333,0.16869612069212964,0.9830833909314755,-0.0713348816365364,0.26566815941358013,0.9463476084194207,0.18397454474095998,1
71,14.233333333333334,0.17910563727507722,0.9816488087702103,-0.06547355906254085,0.2678936820156758,0.9449593814403453,0.18784233432313455,1
72,14.433333333333334,0.183741445654779,0.9808914935735472,-0.06396060493575512,0.2688666555786736,0.9441128818173818,0.19068714666809017,1
73,14.633333333333335,0.19457154199925486,0.9789808543457745,-0.06114247188697621,0.2762822222954572,0.9410258849104471,0.19529059775625104,1
74,14.833333333333334,0.19251366499023453,0.9791898310175591,-0.06423210742169413,0.27089993481773816,0.9427423950316458,0.19455076953263759,1
75,15.033333333333333,0.19378677706547437,0.9790954539105241,-0.06179625527748906,0.2691073181995596,0.9424240483802091,0.1985400824168723,1
76,15.233333333333334,0.19118368510324368,0.979422795550518,-0.06465126531130028,0.26248524342458535,0.9447864408392012,0.19616339666393182,1
77,15.433333333333334,0.006253522716149651,0.9990624914495891,-0.042837269196091037,0.24301079142062876,0.9507462904871348,0.19242465117045957,1
78,15.633333333333335,-0.0492973243891508,0.9981338148916464,-0.03603694462519586,0.20664951473400744,0.9602040791673305,0.1878938647498058,1
79,15.833333333333334,-0.06805176181955458,0.997151305317477,-0.03253047827663295,0.18460974453033274,0.9650631223290371,0.1859365809758137,1
80,16.033333333333335,-0.07008769649582963,0.9970351355615882,-0.03175930187510254,0.17047794347375173,0.9674568220561026,0.18698815001509325,1
81,16.233333333333334,-0.0752097445090198,0.9967682431445393,-0.028223461684155342,0.14999996864682436,0.9702813722523854,0.18987908801650585,1
82,16.433333333333337,-0.09075025185474733,0.9956071924736294,-0.023037145723321925,0.12349712481636749,0.97416892138053,0.1890591779797666,1
83,16.633333333333336,-0.08874777875643258,0.996036789438472,0.005877571854128107,0.11862789578522642,0.9718528746261246,0.20354216374625742,1
84,16.833333333333336,0.04144660325352184,0.9824775875307972,0.18171397601288103,0.11291147531875373,0.9642339240910895,0.23979978810091113,1
85,17.033333333333335,0.033947979687567464,0.9781969860119629,0.2048858004651474,0.10449058260156824,0.9582028059901494,0.2663251785697123,1
86,17.233333333333334,0.03557483603303119,0.964902759100818,0.26018665707689953,0.10174425331791404,0.9383081083150391,0.3304935714761084,1
87,17.433333333333337,0.13621279116033436,0.9882610879089527,0.06918162797538277,0.08915086483201484,0.9146662033533243,0.3942560839643688,1
88,17.633333333333336,0.3253070407992667,0.887307552412453,0.3268954521528955,0.1235993560768271,0.9097941911780968,0.39622938921284767,1
89,17.833333333333336,0.3259053115711156,0.8852184513763867,0.33192472223762726,0.13831333154714048,0.9045798196747586,0.40324282033721587,1
90,18.033333333333335,0.026620924064231388,0.9588816120210502,0.2825550929108846,0.1597550746803164,0.9007193537511987,0.40395910918298356,1
91,18.233333333333334,-0.014788390087616843,0.9701401977617995,0.24209357737311646,0.14818254313828666,0.8996585020755788,0.4106781142844061,1
92,18.433333333333337,-0.02979686084959965,0.976769298480893,0.21221188616251968,0.1323522132128394,0.9021083949055282,0.4107107686665092,1
93,18.633333333333336,-0.045886682554824254,0.978880521153551,0.1992168107120124,0.11853052950230836,0.9045372080965716,0.4095887605205522,1
94,18.833333333333336,-0.04863248017492,0.9796875204336718,0.19454368192917584,0.11124325268480456,0.9037101118074471,0.41344040991305675,1
95,19.033333333333335,-0.0734990513202406,0.9788834929536275,0.1907485168433307,0.08060630803503088,0.9047789426224034,0.41818379702237146,1
96,19.233333333333338,-0.05289422000394145,0.9865830461992775,0.15445418234003555,-0.01989334025028089,0.8978658153642612,0.4398195455115168,1
97,19.433333333333337,0.041206398989701465,0.9888224748496092,0.14329042506251338,0.03027787682856381,0.8979157408102638,0.4391247801934087,1
98,19.633333333333336,0.06705625243627955,0.9226133777956099,0.3798526215807611,0.06455623603898264,0.8869597150483318,0.45731275542003086,1
99,19.833333333333336,0.059200274441769396,0.9154779180434242,0.39798933287325267,0.06930294791914121,0.8766057766439742,0.4761926225427394,1
100,20.033333333333335,0.04615603558240172,0.9130017931456991,0.40533609029058126,0.06484809560543842,0.868748178674588,0.49099014913329425,1
101,20.233333333333338,0.026549785016278915,0.9028236961909394,0.4291904967630572,0.056579827649819725,0.8612485764887163,0.5050243683222388,1
102,20.433333333333337,0.004289053923953234,0.8954727970096512,0.44509557831116453,0.04366713939851624,0.8591341262633205,0.5098840397840585,1
103,20.633333333333336,-0.04533211162946693,0.9214922210664945,0.3857422535439336,0.03576253100842869,0.8677014592953242,0.49579755839721107,1
104,20.833333333333336,-0.05213096271242623,0.9298506715246322,0.3642253305192634,0.03469033056993348,0.8701613760663904,0.4915442610459355,1
105,21.033333333333335,0.009687543010081512,0.9906008784082995,0.1364406508601208,0.03713986966835009,0.8731960482353939,0.48595194353671384,1
106,21.233333333333338,0.03326346695562693,0.9926406164171684,0.11643946240444542,0.06144226532216768,0.8782934827655159,0.4741575752465642,1
107,21.433333333333337,0.08928731388644517,0.9936377049361411,0.06864318544605767,0.12228208864005868,0.8847035609552045,0.4498296344517623,1
108,21.633333333333336,0.11976349452753948,0.9906933894232045,0.06467853996276586,0.1720141042220224,0.8748204729333507,0.45287999302835563,1
109,21.833333333333336,0.08598300314048624,0.9934212061176917,0.07563881547601285,0.15603124750159003,0.8705817394436612,0.46662799396344284,1
110,22.033333333333335,-0.06388020602846656,0.979988743298427,0.18852422201438918,0.13426440133512396,0.8739716592255019,0.46706167623210526,1
111,22.233333333333338,-0.050465005963565235,0.9814090521837421,0.185174392033312,0.13817980473144997,0.8726245738603038,0.46843643609298957,1
112,22.433333333333337,0.48530212359051417,0.8045115402329236,0.34240769627826173,0.16697743702529294,0.8582860752928536,0.48524586395234204,1
113,22.633333333333336,0.5165838000109284,0.7827508420304995,0.3470479748778449,0.2122569802128742,0.8467317777342098,0.4878445151131416,1
114,22.833333333333336,0.5691084837470031,0.7480226752647687,0.3414346365220223,0.29357087461998566,0.8245140165986413,0.4837280000240137,1
115,23.033333333333335,0.7586909835109044,0.440595452582356,0.47985793595918086,0.48438478038865335,0.7274425907971908,0.48600273828663426,0
116,23.233333333333338,0.7623216323775012,0.46138929806810985,0.453856413899285,0.6146172316929144,0.6329572893339354,0.4707554868349125,0
117,23.433333333333337,0.9776721730362744,0.20634829079570927,0.039717816609410844,0.8151460902721144,0.4564727964169264,0.3566082411349981,0
118,23.633333333333336,0.9583869441398576,0.26274429670530186,0.1116239215002834,0.9161092843175559,0.29700153086620806,0.2693211277458646,0
119,23.833333333333336,0.9505962832377857,0.2887170415022099,0.11405777588888368,0.9706763011392734,0.13991906437573895,0.1954742280475782,0
120,24.033333333333335,0.9288837549242406,0.3561952540900121,0.10148847620097207,0.9697032533662788,0.18479262213614148,0.15977261096603557,0
121,24.233333333333338,0.9291152705544832,0.34767912851244015,0.12595252128996748,0.9682574458771406,0.17860925226841037,0.17486066884121088,0
122,24.433333333333337,0.9281730004167182,-0.3704825892724138,0.03517857790523797,0.9788926238985319,0.026288290923271868,0.2026774694863265,0
123,24.633333333333336,0.9269744447881312,-0.3716691157814976,0.0507981011843561,0.9802717678567359,-0.05431958536979277,0.1900437943956168,0
124,24.833333333333336,0.9321595679122449,-0.3609671081976872,0.027951507098117837,0.9861028432274284,-0.06123471441378894,0.15443928363419562,0
125,25.033333333333335,0.9870958958573746,-0.1250806971197035,0.09998255642648943,0.9500288390242491,0.21691584824725021,0.22448322832989956,0
126,25.233333333333338,0.5516253152180892,0.7701021926291056,0.3203937023700489,0.5768117231084733,0.742015085799779,0.3416165226246835,0
127,25.433333333333337,0.054081501840272495,0.9579218542252765,0.2818881202823357,0.28459766580641127,0.8884590316673557,0.3600621025132288,0
128,25.633333333333336,-0.034398368643579036,0.9766576851506054,0.21202952216830953,0.1058663069706669,0.9226997883691024,0.37069856432417786,0
129,25.833333333333336,-0.03733403903063032,0.979810563968079,0.19641137509374154,0.045157747916883206,0.9275669361351205,0.37091826160487257,0
130,26.033333333333335,-0.15157258803055645,0.9371863546256097,0.31417747732974166,-0.08495765539110006,0.8671190687242469,0.4908021163821955,0
131,26.233333333333338,-0.5426930264585126,0.5272931122621008,0.6537937387236497,-0.2814526129376342,0.7684027159171274,0.5747535931525449,0
132,26.433333333333337,-0.5473777301362936,0.544514810565302,0.635516515620068,-0.4688518651847881,0.6595888623765087,0.5874695406075179,0
133,26.633333333333336,-0.8368140442607486,0.03945313641725765,0.5460638290116016,-0.7303169435859768,0.38772283881948894,0.5624128040585441,0
134,26.833333333333336,-0.791952607126625,0.09666204981461077,0.6028826719942944,-0.7683750226155703,0.20552036531709347,0.6061032948767481,0
135,27.033333333333335,-0.608870154198056,-0.027082740977500727,0.7928074548514167,-0.7339198334176111,0.14322742996576557,0.6639635392261144,0
136,27.233333333333338,-0.5798757882260082,-0.046111996258163764,0.8133988898629952,-0.6961192472855152,0.11004508452971352,0.709442085676834,0
137,27.433333333333337,-0.5495114301887599,0.08030978293484249,0.831617416157732,-0.6829913838009335,0.13909227848794958,0.717060742000785,0
138,27.633333333333336,-0.9857801737623997,0.008470903397107533,0.16782637698708197,-0.8284152540561959,0.1938090632328386,0.5255151889867867,0
139,27.833333333333336,-0.99252976342462,-0.06289109694676472,0.10454366858447803,-0.9262409789293976,0.12321312315295921,0.356224894181758,0
140,28.033333333333335,-0.9878108298408037,-0.1344902922430599,-0.07837171518857587,-0.966506572508359,0.02897746905807377,0.2550006893816814,0
141,28.233333333333338,-0.8294778844363448,0.008428232397354274,0.558475965579238,-0.9176031192806604,-0.02450272872786851,0.3967418956592447,0
142,28.433333333333337,-0.7810828666362791,0.034174876745669526,0.6234914861060026,-0.8456666324048067,-0.012765011398063375,0.533558807743927,0
143,28.633333333333336,-0.5852297760102175,0.07913557259409028,0.8069966978998343,-0.7188686127736139,0.041284899074620636,0.6939189251471227,0
144,28.833333333333336,-0.49744757568479536,0.07915741512115178,0.8638749985250517,-0.6090093170839842,0.05450125971914919,0.7912883572970888,1
145,29.033333333333335,-0.48101653137930633,0.06675504800477358,0.8741663801048982,-0.5787976758505351,0.03254444962049992,0.8148215198612011,1
146,29.233333333333338,-0.5207185384784043,0.037699207579135474,0.8528956404114282,-0.6003204987527704,-0.0048176059464047636,0.7997450152705989,1
147,29.433333333333337,-0.5298284476783394,0.04753402476830715,0.8467717121633713,-0.612975910691633,-0.01113728249230699,0.7900230970360613,1
148,29.633333333333336,-0.5343344237751115,0.052936183692035926,0.8436139425264633,-0.6221540975151023,-0.013000853609262697,0.7827868526940136,1
149,29.833333333333336,-0.5352695952813392,0.0014293625714860772,0.8446800680079948,-0.6209293693708882,-0.08201628262330819,0.7795640112507276,1
150,30.033333333333335,-0.48669274888220193,-0.3190088156593519,0.8132426106132806,-0.6072452364798839,-0.22480777392836873,0.762046381497781,0
151,30.233333333333338,-0.4736015912351238,-0.5694881722875562,0.6718517354328538,-0.5682426143667179,-0.390470664443085,0.7243155330565911,0
152,30.433333333333337,-0.4971494024986111,-0.6387016141118556,0.5872841899167595,-0.5091336275802729,-0.5370021241802644,0.6726155424109942,0
153,30.633333333333336,-0.4452172106196944,-0.8573113565161443,0.2584547800998613,-0.4501923427453061,-0.6871545983794017,0.5702152334509634,0
154,30.833333333333336,-0.36559427854543786,-0.89340167898319,0.2611020173894827,-0.2895580853822229,-0.8281207720373734,0.4799709388181806,0
155,31.033333333333335,0.3927206544088058,-0.8586903278069455,0.3292740629498776,0.12858432303550443,-0.8769022679432626,0.46315060654765816,0
156,31.233333333333338,0.2623928865687579,-0.8657374864324727,0.42620250781019514,0.22538778253181102,-0.8279223549917835,0.5135610203181828,0
157,31.433333333333337,0.20073332417598233,-0.8724650218764157,0.4455456409476423,0.2770628645010154,-0.7097302856273073,0.6477029340506905,0
158,31.633333333333336,0.4501777249353198,-0.6261412329380374,0.6366216870221234,0.29545832519870885,-0.6413755572664688,0.7080549220307002,0
159,31.833333333333336,0.4201796917565711,-0.6033044859774049,0.677844173711696,0.279359329504974,-0.5970783673473474,0.7519679436414544,0
160,32.03333333333333,0.3614766601393907,-0.6108127763688564,0.7044447291300009,0.2342493757478592,-0.5653079914483201,0.7909197840276881,0
161,32.233333333333334,0.12204525711346756,-0.669112542002448,0.7330711843682917,0.14670346903652626,-0.5542830272660997,0.8192975148609799,0
162,32.43333333333333,-0.4338613188954764,-0.47445210172492003,0.7659370464568771,-0.10884125289042196,-0.5878127292275619,0.8016419256920687,0
163,32.63333333333333,-0.41185323947566893,-0.5005676582157181,0.7614518557872384,-0.24038044246866058,-0.567397663845481,0.7875767479688958,0
164,32.833333333333336,-0.3392361752439395,-0.5364321543907153,0.7727608693131396,-0.186600589614413,-0.5887617961180069,0.7864729921538639,0
165,33.03333333333333,0.5556560342170086,-0.6713609349748684,0.49042926771135575,0.15958868366302456,-0.6310491986472726,0.7591497618608192,0
166,33.233333333333334,0.6560972016390633,-0.5210408251774106,0.5459422318339492,0.5497383491758375,-0.5185510449445684,0.6548988939006704,0
167,33.43333333333333,0.8172872222054132,-0.47480926338220003,0.326493123704332,0.7145565836401072,-0.43303110689810015,0.5494478585227035,0
168,33.63333333333333,0.7050334942799364,-0.6081633704885621,0.36478087496388145,0.7982438144666972,-0.43478040565748394,0.41686066199867194,0
169,33.833333333333336,0.5222487712496301,-0.8520186300638035,0.03633833997929873,0.7311548915010506,-0.609446532750281,0.3065737241720949,0
170,34.03333333333333,0.4821682703176074,-0.875756963422302,0.02373815739006028,0.6960079031432094,-0.6717373334477927,0.25365715762548885,0
171,34.233333333333334,0.4873320031553346,-0.8689653028623416,0.08606289050437622,0.6382874581881552,-0.7273628851173126,0.25205625180408336,0
172,34.43333333333333,0.504822758003171,-0.8595688393223548,0.07934351560204299,0.6346846927429459,-0.7294710331122479,0.25504382495551986,0
173,34.63333333333333,0.49570263771072903,-0.8653713184042285,0.07356205713513743,0.6177385428485018,-0.7429926076498083,0.25760643947143,0
174,34.833333333333336,0.5059254141329996,-0.8597124093170433,0.07024278326374457,0.6162214938668826,-0.7423721818709139,0.2629726489213025,0
175,35.03333333333333,0.4590262980279314,-0.8882614163804275,0.016926721141725158,0.5597787278010223,-0.7974384777515656,0.22525463392066858,0
176,35.233333333333334,0.4884988929125011,-0.8724511174102649,-0.014066959616118126,0.4941960285191638,-0.8405793022058244,0.2218033410457461,0
177,35.43333333333333,0.2061553936083338,-0.8993357658998095,-0.3856100800803791,0.35209448102301044,-0.9356382221235956,-0.024710194951369502,0
178,35.63333333333333,0.2750540022976941,-0.8771543531833607,-0.3936312189238813,0.290604894767893,-0.9499775792294821,-0.11441763018973714,0
179,35.833333333333336,0.053341974596487596,-0.8162747980852448,-0.575195695182988,0.15222660036289293,-0.9638683988251172,-0.21859728243567308,0
180,36.03333333333333,-0.08610589378138911,-0.7157624061675735,-0.6930151174204746,-0.16319604303907542,-0.8943808999399675,-0.41647311721041774,0
181,36.233333333333334,-0.14653340662650427,-0.6927070303606182,-0.7061762746166181,-0.3134773966715062,-0.813061982417466,-0.49057327130963363,0
182,36.43333333333333,-0.09429081765535052,-0.697264179043584,-0.7105856080223989,-0.2591970007533435,-0.8162434072470163,-0.5162979904340641,0
183,36.63333333333333,0.09350049039937314,-0.6375529117211565,-0.7647116731493983,-0.15871729669508014,-0.8218203732999331,-0.5471929218831006,0
184,36.833333333333336,0.17771758469228985,-0.6713957308491771,-0.719474970161324,0.019270458973416782,-0.8845088360373232,-0.4661252711266077,0
185,37.03333333333333,0.5197140970853177,-0.7639273653596409,-0.38250782703818087,0.2955412415437505,-0.8880200995645108,-0.35224377541159635,0
186,37.233333333333334,0.6305330090418713,-0.5362888061220622,-0.5610904035329572,0.4804906810503923,-0.8369887798109611,-0.2618749470535297,0
187,37.43333333333333,0.6575639543563043,-0.5474595856985496,-0.5175882996726963,0.7151715533110293,-0.6751758486950138,-0.18074076096347885,0
188,37.63333333333333,0.9364502950295843,-0.3077477440134017,-0.1683810291976698,0.899446189233871,-0.4342663032023609,-0.04908493226666491,0
189,37.833333333333336,0.39322011917765903,-0.9129809322795207,0.10882901804172154,0.7636705900691421,-0.6372908398374896,0.10328414845791248,0
190,38.03333333333333,0.444696166419853,-0.8914288944642614,0.08717709381317493,0.7288440905890252,-0.6733875845524436,0.12383639442459099,0
191,38.233333333333334,0.39382321783184765,-0.9176168501365833,0.05368975174075992,0.671799138043985,-0.7341355293941244,0.0986455402163106,0
192,38.43333333333334,0.2652807381647744,-0.9159693839663113,-0.30104188677844906,0.5062593889002874,-0.8595483190813775,-0.06984352736428791,0
193,38.63333333333333,0.3557439092199348,-0.9112932002405558,-0.2073426493711424,0.39972979876436615,-0.909689344410632,-0.11261165412848728,0
194,38.833333333333336,0.3527447057371664,-0.9188456694396524,-0.17690056055987233,0.3628011562528736,-0.9285274313935834,-0.0788170677658885,0
195,39.03333333333333,0.3643483310891301,-0.9282399573687675,0.07497249613421252,0.3355848640396878,-0.9420093094241824,-0.0011224908194071637,1
196,39.233333333333334,0.38874409768873625,-0.9161451961374724,0.09775482651206116,0.3150846176898054,-0.9431080786562954,0.10615477223610653,1
197,39.43333333333334,0.401535104119491,-0.9089060689022505,0.11251363505107832,0.3267209965183217,-0.9326589426406039,0.15297283140017234,1
198,39.63333333333333,0.3629656016690135,-0.9264522478349595,0.09971060368186464,0.28478655067642494,-0.9464678907664865,0.15197089294290075,1
199,39.833333333333336,0.3485438824088143,-0.9353847375165266,0.05977085290113616,0.26489472425572674,-0.9564829001901064,0.12235704599820037,1
200,40.03333333333333,0.49336924590627496,-0.719212502769909,-0.4892036008180209,0.271743692734119,-0.9521189511881414,0.14008878701601474,1
201,40.233333333333334,0.4280877021265074,-0.8960672472686422,0.1174921599956543,0.3084034131825129,-0.9376460811983877,0.1603345288784768,1
202,40.43333333333334,0.34848874050939405,-0.7693307700894899,0.5354304473334409,0.40624749924937886,-0.8962977144627509,0.17780150843700704,0
203,40.63333333333333,0.479620618466923,-0.8696185672521903,0.11716488309922057,0.5052369556975608,-0.8405433705901537,0.19550565402157785,0
204,40.833333333333336,0.44669509338202773,-0.8874966879710899,0.1131950634469869,0.5873936193257259,-0.782567286094303,0.20629391341099113,1
205,41.03333333333333,0.4412621221247991,-0.8828141723310718,0.16101824961576147,0.6590224397233744,-0.7179202521425591,0.22423187887679075,1
206,41.233333333333334,0.42857737036890375,-0.8988862525846767,0.09124112297616736,0.6572403563340485,-0.7279452435607539,0.19527118677154529,1
207,41.43333333333334,0.37141215088809,-0.9274228303837222,0.044044385064705704,0.610109468453694,-0.7764627499085232,0.157708701432881,1
208,41.63333333333333,0.41648153240921176,-0.9053491132264377,0.08298262674908226,0.5769686951717765,-0.804004218414904,0.14382051857373307,1
209,41.833333333333336,0.4336154409946702,-0.8999137038565331,0.046184141674542316,0.5452656305262407,-0.8247086430272437,0.1501367586002301,1
210,42.03333333333333,0.40835929519095543,-0.9107230875296475,0.06185583134686588,0.5090910681136036,-0.844293152446075,0.16731813141324334,1
211,42.233333333333334,0.3968504362472525,-0.9109646117214382,0.11248647670531295,0.49817970925048827,-0.8470810379287242,0.185123451979198,1
212,42.43333333333334,0.40155333246332736,-0.9094172291580073,0.10823689065272342,0.49952114523402263,-0.8474234006813713,0.17986718834103882,1
213,42.63333333333333,0.40791586943483504,-0.9064308951140909,0.10948824524071427,0.5029679940883396,-0.8447229374470232,0.18293812034025222,1
214,42.833333333333336,0.4214525405217973,-0.9005033458458498,0.10710499618670033,0.5160460907165842,-0.8372344963448709,0.18092769380689416,1
215,43.03333333333333,0.4274449394604198,-0.8989365254327139,0.0959372032771324,0.5243558917037692,-0.8342971523844405,0.17029139836985038,1
216,43.233333333333334,0.2748855039458612,-0.9583179792873783,0.07787560783060572,0.5104970966839666,-0.841896318502761,0.1749379980699964,1
217,43.43333333333334,0.19617665602032291,-0.97114101257539,0.1356460590165836,0.510656266958342,-0.8414014411852786,0.17684397583041128,1
218,43.63333333333333,0.23257024336390136,-0.966995512746186,0.10407093845256188,0.5128223023382219,-0.8403102047207834,0.17576133268338845,1
219,43.833333333333336,0.3639369501638897,-0.9311218988558941,0.023704551807635615,0.5152238037337868,-0.8386537119180357,0.17664762537942236,1
220,44.03333333333333,0.3660529161500699,-0.9303081942292386,0.02306352809010404,0.5174416987427166,-0.8380939982598808,0.1727788716337126,1
221,44.233333333333334,0.3656423591225449,-0.9304776879094734,0.022736259981368544,0.5132324467527234,-0.8405475068063148,0.17341379530447093,1
222,44.43333333333334,0.3662190562168882,-0.9303426805506912,0.01860375256140686,0.5131627393874908,-0.8418812420546024,0.1670328625777767,1
223,44.63333333333333,0.21497625618950356,-0.9761053200203335,-0.031679859575882076,0.5101830353682235,-0.8436615709673828,0.16717782178062393,1
224,44.833333333333336,0.2223368227486648,-0.9741321505549224,-0.04040903989543464,0.511563044999034,-0.8442918669892718,0.15960731288724336,1
225,45.03333333333333,0.21554262614172542,-0.9760489406971099,-0.029493078509684894,0.50394611005245,-0.8484308103476391,0.16187488445046833,1
226,45.233333333333334,0.39697111986548295,-0.9156897950221224,0.06265883245870395,0.49994181413309025,-0.8489721116145172,0.17118567750282812,1
227,45.43333333333334,0.4243611422950381,-0.9028718357769339,0.06884815953124786,0.5045577715267718,-0.8464090443820529,0.17033257110781302,1
228,45.63333333333333,0.43100542701342326,-0.901292145280896,0.0436668150880858,0.5060110762408964,-0.845584576760339,0.17011617873256016,1
229,45.833333333333336,0.44079232316572436,-0.8966582731790872,-0.04130458785245236,0.5057540198469432,-0.8451019904905875,0.17324981119038632,1
230,46.03333333333333,0.45066760428412617,-0.8918965002837731,-0.03767417192672061,0.5033179296759838,-0.8439264528842623,0.18563190401670926,1
231,46.233333333333334,0.4599372696743293,-0.8866681258596761,-0.04772151033876655,0.5072620575614698,-0.8418339099108103,0.18439325660875475,1
232,46.43333333333334,0.4723775938468071,-0.879885446361042,-0.051584979534074496,0.514901035514978,-0.8367473670364516,0.1863619257873488,1
233,46.63333333333333,0.485406622226923,-0.8729440717404132,-0.048467088952379944,0.5270916597316022,-0.8279153851205642,0.19165202144003876,1
234,46.833333333333336,0.5003148855193731,-0.8641882858240287,-0.05351282063453053,0.5460930338718522,-0.8165949385073593,0.1869628432625008,1
235,47.03333333333333,0.5018753919130805,-0.8624028443710295,-0.06619988680390564,0.5526871814727681,-0.8146608695187454,0.1756830871502693,1
