,timeStamp,x_gaze,y_gaze,z_gaze,x_head,y_head,z_head,fixations_head
0,0.033366700033366704,-0.9994057992176228,-0.03208142895025258,0.012602793606752975,-0.9995785117341331,-0.015433133662075419,-0.024588966321176683,0
1,0.2333667000333667,-0.9999457288837168,-0.008452450635271535,0.006090596479050946,-0.9994996714395213,-0.01260353515485877,-0.029009613818334595,0
2,0.43336670003336675,-0.9485089488754666,-0.13753091088084593,-0.2853349303107542,-0.9917147765025901,0.010729470890291507,-0.12801047035626487,0
3,0.6333667000333668,-0.8593465667049462,0.10277582687614834,-0.5009596867037767,-0.920045594247436,-0.01760668042023028,-0.3914155200173628,0
4,0.8333667000333668,-0.8256937118471817,0.11577742913600887,-0.5521100262797987,-0.8437574173795912,-0.056593300447468096,-0.5337327224008148,0
5,1.0333667000333666,-0.9247237292197843,-0.2673940078661434,-0.27089937093898236,-0.8517889631988382,-0.11578083443041073,-0.5109308764903983,0
6,1.2333667000333668,-0.9148383241211671,-0.2855808821359869,-0.28550726869487264,-0.8364462328686214,-0.16439090961016203,-0.5228128999531628,0
7,1.4333667000333667,-0.8470108159824685,-0.34593479633783364,-0.40361094421659943,-0.8079093144246486,-0.1242479385471778,-0.5760598835474238,0
8,1.6333667000333667,-0.7756548202514693,0.19545777044827248,-0.600129869105056,-0.7912638790227801,-0.1269451149877833,-0.5981524985608287,0
9,1.8333667000333667,-0.725241438917021,0.2097115319989518,-0.6557788717427712,-0.7278129269078721,-0.11682716571991948,-0.675751253624917,0
10,2.033366700033367,-0.5155089036644896,-0.414480260861844,-0.7499711218430571,-0.6315254310627152,-0.29510939475891046,-0.7169979602802798,0
11,2.233366700033367,-0.25708037109762283,-0.7852383453482772,-0.5633031366777651,-0.4776598283228007,-0.6222311652855117,-0.6202172726989041,0
12,2.433366700033367,0.20267567514742407,-0.8480475468005387,-0.48963040047481116,-0.1312762564664781,-0.8114718916729281,-0.5694558047056043,0
13,2.633366700033367,0.5071851922976985,-0.7836723858635088,-0.35863738281018953,0.33544324964334715,-0.8145693208947039,-0.47323846813826564,0
14,2.833366700033367,0.8261693671401407,-0.5035336312215025,-0.2527806539831466,0.7801546056026567,-0.4994452851478905,-0.376713682390892,0
15,3.033366700033367,0.9286881285236046,-0.33270155505678206,0.16385370060552354,0.9137651043290027,-0.35901340531368225,-0.1901123586610836,0
16,3.233366700033367,0.9723121873923811,-0.16360992313881398,0.1668556361012565,0.9858752249760481,-0.11363642490048359,-0.12303171832606158,0
17,3.433366700033367,0.8490083541740896,0.5025148228978921,0.16329013231210313,0.9470202144822694,0.31818856422840164,-0.04368925447092209,1
18,3.633366700033367,0.8492234511496679,0.5068660485936891,0.14800790114202497,0.9129423019190505,0.40804050329574165,-0.0062690539081511395,1
19,3.833366700033367,0.8562155670859617,0.49733653698588653,0.13982586190884463,0.8954137287437833,0.44517798048734136,0.007128819423085052,1
20,4.033366700033366,0.8462777567640739,0.5196783566808469,0.11725341787710057,0.8800132384111263,0.47480163404061504,-0.011836745056154112,1
21,4.233366700033367,0.9603482833358327,0.275653496801005,0.04178904635545046,0.8892501003295114,0.4573443189304287,-0.00839243743000644,1
22,4.433366700033367,0.9850944626571185,0.16682113432707918,0.04194769104622383,0.9390497305904525,0.3434453559281494,-0.015195096886354058,1
23,4.633366700033367,0.8535837252162803,0.2703553542699019,-0.44531203269560693,0.9851673176008768,0.1707440204715204,-0.01708320240219835,0
24,4.833366700033367,0.967165570502748,0.23058635225779425,0.10686764424529435,0.9997916614561999,0.010791239837739282,-0.01732578498700585,0
25,5.033366700033366,0.8687747862362726,-0.4879483813655071,0.08447927510875666,0.9789973733537072,-0.2036319930035044,-0.009907289839446535,0
26,5.233366700033367,0.7891411563911762,-0.6073135192302649,0.09179610367410955,0.8935521640682168,-0.4487744867716113,-0.01288371498766928,0
27,5.433366700033367,0.48217885912060027,-0.8679713812643317,0.11886643396369005,0.6226546591532769,-0.7824770701585692,0.005550685613344304,0
28,5.633366700033367,0.06157158868177404,-0.9945137741337405,0.08456531514436721,0.15238243497243914,-0.988295053003793,-0.007244426830374376,0
29,5.833366700033367,-0.4258323685772542,-0.9025000077685156,0.0645021693411577,-0.34862569840094787,-0.9360847857754986,-0.046961646628821144,0
30,6.033366700033366,-0.9638140419152247,-0.2645875010946078,0.032495336150724086,-0.766575331666178,-0.6391175948394336,-0.062377566861389545,0
31,6.233366700033367,-0.9948844944921792,-0.09457974423809212,0.03548964072652957,-0.9233431739235131,-0.3785786100308404,-0.06415309186602146,0
32,6.433366700033367,-0.9965403775144841,0.03602677702719766,0.07489557610648563,-0.9691183030451354,-0.24389544493720855,-0.03639679438904785,0
33,6.633366700033367,-0.9877665777318563,0.11112041140443142,0.10940494543304081,-0.9879871228704373,-0.15301532933719159,-0.021627621922588314,0
34,6.833366700033367,-0.9960112463278219,0.04207431938561012,0.07868512462172658,-0.9972089324008508,-0.07051990480230308,-0.024521177920919564,0
35,7.033366700033366,-0.9945604384516563,0.06698303326727673,0.07976720830745089,-0.9992376870561841,-0.017029263341446797,-0.035129032959294176,0
36,7.233366700033367,-0.9955366672362911,0.05838257390018577,0.07414997810416163,-0.9987293177254263,0.0006438927535491302,-0.05039181796508868,0
37,7.433366700033367,-0.995125642287036,-0.03419918724200411,-0.09249525206625844,-0.9940600838748174,0.013408783339354628,-0.10800349149981081,0
38,7.633366700033367,-0.9246306058592546,-0.13572284798726242,-0.35586170241060583,-0.9618087864159196,0.00050367018393179,-0.27372176510004126,0
39,7.833366700033367,-0.8935435349390474,-0.17992754113173734,-0.4113466070249256,-0.9311345385466794,-0.07355156160958641,-0.35718152095293715,1
40,8.033366700033367,-0.9014623659164428,-0.1835603399208294,-0.39200918923474154,-0.9184045529534507,-0.11604723572448206,-0.3782408177273831,1
41,8.233366700033368,-0.9074696757376126,-0.17423066874911053,-0.38228583767112045,-0.9112903421138353,-0.13392995880490105,-0.38937472761411573,1
42,8.433366700033368,-0.9043823798363337,-0.18647056040517118,-0.383824492631399,-0.9022437259700363,-0.16138919346042802,-0.3998872180776707,1
43,8.633366700033367,-0.864038298501836,-0.2516901348817883,-0.43599299848190154,-0.901820332991237,-0.1523670888800276,-0.4043567202728311,1
44,8.833366700033368,-0.8442649854558449,-0.27981594430259676,-0.4570773147371114,-0.906072184088422,-0.1507224248043466,-0.3953681169269148,1
45,9.033366700033367,-0.6243513833919607,-0.06914719985361718,-0.7780771265169983,-0.937739338630651,-0.16257882013423267,-0.30694146026288166,1
46,9.233366700033368,-0.6743511004483471,-0.08996280119560218,-0.7329101498308941,-0.9521449779428317,-0.18287723707366763,-0.24489968791026678,1
47,9.433366700033368,-0.6991296311992201,-0.11292695758733594,-0.7060207228044446,-0.9591019866231308,-0.1864474852780826,-0.21298054955568896,0
48,9.633366700033369,-0.9374290790433721,-0.07120090289465358,-0.3408183580602446,-0.9571383246806175,-0.17254769307244364,-0.2326231309284586,0
49,9.833366700033368,-0.9260545536307658,-0.05388237711615839,-0.37352329664431294,-0.9489088004842938,-0.143646469183453,-0.2809586806891472,0
50,10.033366700033367,-0.9232577377715989,-0.15168732032859494,-0.3529675714515433,-0.9495073521973979,-0.10838528262126589,-0.2944289704397226,0
51,10.233366700033368,-0.9308586801632195,-0.12185406462855881,-0.3444614702666881,-0.9570409677508303,-0.059175960030681554,-0.28384994592390117,0
52,10.433366700033368,-0.9344436368567586,0.3464338613794101,-0.08245404312504075,-0.9699239633966269,0.047087619403975364,-0.2388100946941841,1
53,10.633366700033369,-0.8509692796779308,0.5207630326029999,-0.06824330676740671,-0.9706228222829385,0.12381275587992269,-0.2063049644214178,1
54,10.833366700033368,-0.9733910879488188,-0.1232646185617009,-0.19317252318239733,-0.9722505345747385,0.12149827684535713,-0.19991764990301378,1
55,11.033366700033367,-0.9546184267630518,-0.16749023196009571,-0.2462735907124227,-0.9765501389098754,0.07156085559806682,-0.2030489353362281,1
56,11.233366700033368,-0.9516064475450099,-0.17911858168293313,-0.2497232521946266,-0.9781754232595811,0.0347832087545959,-0.20484865076361622,1
57,11.433366700033368,-0.9954507037846089,0.09230471834292052,-0.023616420269829658,-0.9809640338653547,0.019364075996758445,-0.19322162617937713,1
58,11.633366700033369,-0.9925778964292636,0.11740054599080552,0.031721149429348665,-0.9846635037463046,0.016870343980410058,-0.17364669845417116,1
59,11.833366700033368,-0.9589049888810541,-0.1064730629224466,-0.2629918424037872,-0.9840970875208758,0.00855574341306498,-0.17742525634074752,1
60,12.033366700033367,-0.9568045810015327,-0.09802437842882362,-0.2737082662400328,-0.9837989627780105,0.004907373824004244,-0.1792080314022297,1
61,12.233366700033368,-0.9520188143988071,-0.11152935929722019,-0.2849936473773435,-0.9818551114554239,-0.016800463622397357,-0.18888696231060906,1
62,12.433366700033368,-0.9466700721840277,-0.14203842470419142,-0.2892072964823668,-0.9788978642397719,-0.05997354256082225,-0.19535133882192465,1
63,12.633366700033369,-0.8992792020418611,-0.1729626709435139,-0.4017223310136486,-0.9724665305910949,-0.0977176504768646,-0.21156584711479468,1
64,12.833366700033368,-0.8982223764341011,-0.1731332204249442,-0.40400674556047134,-0.969100276031286,-0.11269394075238075,-0.21941907554673604,1
65,13.033366700033367,-0.8992495386739985,-0.15808705827866862,-0.40787099578101604,-0.9681424613491243,-0.10217788949936697,-0.22860414132363124,1
66,13.233366700033368,-0.9075674762034319,-0.1344377490238007,-0.3978036799416854,-0.9714892316832766,-0.0755691506922709,-0.22471754757269427,1
67,13.433366700033368,-0.9209432849142369,-0.11567159195852486,-0.3721337780760509,-0.9733746402314629,-0.05083832983029648,-0.22351123903360273,1
68,13.633366700033369,-0.929787291345363,-0.1097685966681604,-0.3513494671095374,-0.9742088501736619,-0.03985324355233071,-0.2221009572731971,1
69,13.833366700033368,-0.9350939597640469,-0.10871847297752725,-0.33731228860839085,-0.9744507459368936,-0.03568254739818363,-0.22174873067101933,1
70,14.033366700033367,-0.9374327723242852,-0.11891555587949507,-0.3272291061966764,-0.9738325066851514,-0.04536767992870579,-0.22269266386929068,1
71,14.233366700033368,-0.9390665658551346,-0.12798955929091757,-0.31901827158575263,-0.9733356699085863,-0.05466054204209939,-0.22277768924932267,1
72,14.433366700033368,-0.941452050858204,-0.13380283268099372,-0.309458943805837,-0.9733643224591269,-0.06208716915417272,-0.2206968037605135,1
73,14.633366700033369,-0.9439871925424277,-0.12979343351164466,-0.3033839892498021,-0.9741790581505666,-0.05805574170009017,-0.2181849983764412,1
74,14.833366700033368,-0.9453727152029225,-0.1281407391906051,-0.29975053012386754,-0.9745517786536151,-0.05663218723094144,-0.21689081606309482,1
75,15.033366700033367,-0.9455568125186993,-0.12970241856569284,-0.2984955559429445,-0.9743119844257644,-0.05876938675429098,-0.21739897926359633,1
76,15.233366700033368,-0.9450122663454603,-0.13219656831294405,-0.2991251975058239,-0.9734996835257067,-0.0603117536252558,-0.22059206366049539,1
77,15.433366700033368,-0.9698157665731492,-0.24100852366614495,-0.03704416858833285,-0.974550525617795,-0.057207537180318194,-0.21674540527504235,1
78,15.633366700033369,-0.9670864352613159,-0.25211010412274537,-0.03441398164669593,-0.9779033990293452,-0.06398856943800925,-0.19902362962254194,1
79,15.833366700033368,-0.8265455081137938,-0.5589571573620866,0.06625269240269406,-0.9659967988347182,-0.22508746825677853,-0.1272234894774961,0
80,16.033366700033366,-0.8559043357902086,-0.51173781695793,0.07451291613307087,-0.9353359470244018,-0.34093457920165254,-0.09439427370639426,1
81,16.233366700033365,-0.8663153023056347,-0.49942281425353463,-0.008639999662980855,-0.9218783970161586,-0.3744878606624753,-0.09949403666230724,1
82,16.433366700033368,-0.8789061970391095,-0.47312189176633795,-0.060659478547807004,-0.9126074249609594,-0.39452662953143786,-0.10722139010799388,1
83,16.633366700033367,-0.8425502899063679,-0.4766647077854168,-0.25079825623504387,-0.91399901002579,-0.3885681027838314,-0.11670749406464825,1
84,16.833366700033366,-0.8448172252439161,-0.4670404105432217,-0.2610691687097301,-0.9179188076717125,-0.3729668044463762,-0.1353544432355314,1
85,17.033366700033366,-0.8422552633510105,-0.46494699899947745,-0.2728192798885372,-0.9168182761431495,-0.3656855780774036,-0.16036928170974335,1
86,17.233366700033365,-0.8220655392545542,-0.4714866076414918,-0.3192313079646756,-0.9112386106053594,-0.3716055674990164,-0.17763303956682197,1
87,17.433366700033368,-0.8112493213298162,-0.4773152019783175,-0.3377051030149097,-0.9075055766637858,-0.3779718436900079,-0.1832236712373876,1
88,17.633366700033367,-0.8759545599717489,-0.4755656679752075,0.08087585738645649,-0.9092272677877465,-0.3755970050716901,-0.17953457965641725,1
89,17.833366700033366,-0.87473627531252,-0.4769997597883106,0.0854849566548011,-0.9116263466445085,-0.37535922211479766,-0.16746002053314238,1
90,18.033366700033366,-0.8786279396736525,-0.47105474896477817,0.07823277511735256,-0.9167154636471347,-0.36528619854345284,-0.1618602850111544,1
91,18.233366700033365,-0.8806825972807849,-0.467611753804441,0.07574569658208766,-0.920674778224639,-0.35846635201240545,-0.15446626562434299,1
92,18.433366700033368,-0.8820470384134422,-0.46591654960607126,0.07010556917427523,-0.9232896350161686,-0.352975469862826,-0.15147464324707327,1
93,18.633366700033367,-0.8819495577577466,-0.4679631768199122,0.05635106664057844,-0.9231902281068599,-0.3516883000739462,-0.15503271370617866,1
94,18.833366700033366,-0.8852012706962936,-0.46432465122152616,0.02865883154763188,-0.9244346773136459,-0.34642707686121804,-0.15940140462808805,1
95,19.033366700033366,-0.886550502413805,-0.4624963510026604,0.011195176597716749,-0.9255852305217122,-0.34349862174714263,-0.15906186814533008,1
96,19.23336670003337,-0.8880877269196065,-0.4596726826816357,-0.0011018579922650168,-0.9269845408773769,-0.3393585692301803,-0.1597980677743131,1
97,19.433366700033368,-0.9489430490332337,-0.30174664780314114,-0.09195678458426587,-0.9303688859544166,-0.32870701093032684,-0.16237437301861427,1
98,19.633366700033367,-0.9660362486676034,-0.24693175252637428,-0.07614903712114662,-0.9341353619613338,-0.3178873552808329,-0.16229218984881996,1
99,19.833366700033366,-0.9697120426866455,-0.2441753917123059,-0.00607719924272698,-0.9366386263437065,-0.31285715481769893,-0.1575705693343427,1
100,20.033366700033366,-0.9684457995695106,-0.24748708922972815,0.029374716352125615,-0.9370469392396645,-0.31314946300274327,-0.15453299803818626,1
101,20.23336670003337,-0.9690081055354275,-0.24394463831863208,0.03891406997775535,-0.9395527859033869,-0.30575465675195823,-0.15412544363497177,1
102,20.433366700033368,-0.9683549106481286,-0.24663589465292515,0.03820343560998702,-0.940627705251375,-0.3027371230372516,-0.15352444251213043,1
103,20.633366700033367,-0.6753190574364472,-0.3283314127306335,-0.6604109736198024,-0.9416014556806123,-0.29920938020498056,-0.15446826683012682,1
104,20.833366700033366,-0.6768817396462719,-0.32549676273471434,-0.6602143348812248,-0.942989790883041,-0.2949209618615954,-0.15424616865578958,1
105,21.033366700033366,-0.6795407161061277,-0.3263615705046283,-0.6570483547287246,-0.9433191106336446,-0.2961301439551936,-0.14985323938582765,1
106,21.23336670003337,-0.681556370719447,-0.3249796410050984,-0.6556440699525419,-0.9447443783251476,-0.2923421163879817,-0.14830423665164305,1
107,21.35468802135469,-0.6822675339477089,-0.3251453726946774,-0.6548217305008673,-0.9451427858267585,-0.29133213043681416,-0.14775217147230413,1
