,timeStamp,x_gaze,y_gaze,z_gaze,x_head,y_head,z_head,fixations_head
0,0.03333333333333333,-0.999598290086479,-0.016416612079801753,-0.023103101610152794,-0.9904476750797316,0.014204728496629895,0.1371554906574711,1
1,0.23333333333333334,-0.999667369532153,0.0010087442521085179,-0.025770772741607096,-0.9909566135006738,0.028861127143108442,0.1310420753014304,1
2,0.43333333333333335,-0.9996827371520532,0.002704687825465863,-0.02504215853208429,-0.9915919382451834,0.029226959408188487,0.12606035400121887,1
3,0.6333333333333334,-0.9541016290770158,-0.29287701709937075,0.0625550497366888,-0.991746647556544,-0.0005147077360698986,0.12821202024889397,1
4,0.8333333333333334,-0.9490635067792629,-0.3075106274030334,0.06867076622582015,-0.9907596713893931,-0.03992652164496703,0.1296192362950652,1
5,1.0333333333333334,-0.9795165465701161,-0.18972973846108793,0.0674534012399741,-0.9863732250017796,-0.08081290133650645,0.1433078364122673,1
6,1.2333333333333336,-0.981730388933473,-0.17334739359613105,0.07846097487260818,-0.9823395891446527,-0.10607351906225282,0.15413416283506087,1
7,1.4333333333333336,-0.840838451615693,-0.540103929805744,-0.035755325378412174,-0.9723764389579064,-0.16990265930630427,0.1600535764054873,1
8,1.6333333333333335,-0.8324014192841162,-0.5531092579187242,-0.034322383052281524,-0.9644133837777795,-0.2074894790110362,0.16387477319594448,1
9,1.8333333333333335,-0.815904104757189,-0.5778319672128576,-0.020265969191948948,-0.9605710170262434,-0.22902065841634212,0.157647896489975,1
10,2.033333333333333,-0.8640151524659389,-0.4752834117848519,0.1660827949891611,-0.9566173142868846,-0.24212954212678964,0.16203888063060612,1
11,2.2333333333333334,-0.857383382459486,-0.48110081775174374,0.1828544192545928,-0.9508425243902203,-0.25985139858626044,0.16845101502810145,1
12,2.4333333333333336,-0.884993006007333,-0.46468460127723565,-0.029250652196508298,-0.9491523202868379,-0.27503589414152124,0.15318332098464907,1
13,2.6333333333333333,-0.8877836110614512,-0.4571613647041617,-0.05332679019516226,-0.9538307782505919,-0.27000083689638404,0.13155377051655506,1
14,2.8333333333333335,-0.8764288116683909,-0.47801135921390503,-0.05811779882279752,-0.95353526192919,-0.2738034879430085,0.1257066197456372,1
15,3.033333333333333,-0.8651972927277845,-0.49798981603017245,-0.05864970406359671,-0.9535270978744806,-0.27488709060043803,0.12338217472672973,1
16,3.2333333333333334,-0.8063659435433748,-0.5914167994573305,-0.00036662385446059793,-0.9531764677807475,-0.2770896298033003,0.1211443697597541,1
17,3.4333333333333336,-0.8218647915072841,-0.5696464259892847,0.006419800489356555,-0.9547749205247684,-0.2725218433134154,0.11889783872712115,1
18,3.6333333333333333,-0.8310292208436132,-0.556203925493195,0.0052561744660406485,-0.9571729928570752,-0.26618309514745003,0.11387019628837312,1
19,3.8333333333333335,-0.9577240087112109,-0.26740178035750084,-0.10611791083397586,-0.9622452718453939,-0.2517920666195587,0.10336726753975756,1
20,4.033333333333333,-0.9653449285417404,-0.23052491637782815,-0.1223414560471541,-0.9755282188463281,-0.20526266473569907,0.07881581503804225,1
21,4.233333333333333,-0.9825780898483263,0.11534746615719517,-0.14572322876305424,-0.9926381356863144,-0.11350147433041921,0.04227229478062028,0
22,4.433333333333334,-0.9296312771816961,0.3326392496576387,-0.15854594940499628,-0.9999506533433968,-0.002794001896096421,0.009533332655418386,0
23,4.633333333333334,-0.8677948598350526,0.4675948552760536,-0.16818778957828096,-0.9859021497604782,0.1670213448136738,-0.010040989707184226,0
24,4.833333333333334,-0.8181924871608676,0.5445152340757473,-0.18456493115689057,-0.9514780206658314,0.30727200688491463,-0.016537532305290713,0
25,5.033333333333333,-0.8085354655836621,0.551737000706383,-0.20458905871266794,-0.8949227348621942,0.44583393756634937,-0.018584906264375728,0
26,5.233333333333333,-0.517693060401978,0.8486091524986359,-0.10888710441177703,-0.8316950633298845,0.5552251556530005,0.002889318743407594,0
27,5.433333333333334,-0.3908804550153433,0.9140146760904998,0.10858011686389633,-0.7363815395411304,0.67463781788632,0.0510494162612988,0
28,5.633333333333334,-0.3861121513013608,0.9210414315034542,0.050991058740757114,-0.5848278104990503,0.8042597353139893,0.1055590366551287,0
29,5.833333333333334,-0.31096397400764936,0.946129980123425,0.09021899789411095,-0.4222155042480619,0.8906110379130324,0.16895575491834075,0
30,6.033333333333333,-0.020307321691332647,0.78958515526399,0.613304895849092,-0.23725861251355884,0.8961684250565534,0.3749540034721568,0
31,6.233333333333333,0.04969457082534873,0.8549217885864006,0.5163711698291401,-0.02939879530548306,0.8627047253399621,0.5048527188306379,0
32,6.433333333333334,0.03432465739427476,0.8372381712677085,0.5457600777512668,0.024706704239838395,0.8178335070721062,0.5749242849938979,1
33,6.633333333333334,-0.0012928834295228842,0.8136362809925554,0.5813727983876104,0.011505317961251482,0.7802094391071274,0.6254125508708253,1
34,6.833333333333334,-0.012943131993185475,0.7783598221547787,0.6276850026799975,-0.006608485362979755,0.7510325394866737,0.6602321202072838,1
35,7.033333333333333,-0.039875749974259356,0.7720994026078658,0.634249506942313,-0.043771260986584126,0.7501074231694231,0.659865842742123,1
36,7.233333333333333,-0.06270138893065358,0.7809490384640341,0.6214395667707905,-0.07449227427026647,0.7506082287127217,0.656534986168136,1
37,7.433333333333334,-0.10266783261087759,0.7960333667899446,0.5964815127931885,-0.119114533195225,0.7551978686187807,0.6445835145389113,1
38,7.633333333333334,-0.16394601466933895,0.8019366464017833,0.5744730798148007,-0.1738801662155045,0.7519723055894362,0.6358485192428904,0
39,7.833333333333334,-0.3921142722999331,0.8061830441006583,0.44307482084100674,-0.23990843279737456,0.7405274302672921,0.6277444296004773,0
40,8.033333333333333,-0.4497367843298551,0.7787707000975289,0.4373248466417681,-0.33218444801750496,0.710612538356696,0.6202284360020581,0
41,8.233333333333334,-0.5144356914274,0.7430919981283731,0.4279838801908258,-0.4286811919962007,0.6722297162381206,0.6036055369487033,0
42,8.433333333333334,-0.63283287755113,0.6540164078511187,0.4144696458751542,-0.5533440854793386,0.5931724839385757,0.5847706621943128,0
43,8.633333333333333,-0.6927814196194079,0.3554821039653178,0.6274443229406967,-0.6839842686263113,0.45774823251806857,0.5680071090209295,0
44,8.833333333333334,-0.7770235315836603,0.1560350249511459,0.6098257967270259,-0.7962166526942425,0.2675396132870133,0.5426431583412912,0
45,9.033333333333333,-0.7742299568830877,-0.11818376505301752,0.62177212187642,-0.8208025752731589,0.16092402293896646,0.5480753518140454,0
46,9.233333333333334,-0.862353787387145,-0.44580692854086756,0.2400044329674028,-0.8475535514423854,0.0032846837025613633,0.5306997157436343,0
47,9.433333333333334,-0.8441765671537294,-0.47411354333692324,0.2501644888729273,-0.8462783531753129,-0.16462811978410635,0.5066660943098825,0
48,9.633333333333335,-0.81189430086296,-0.5262401207870906,0.25278247466989046,-0.8153100953820775,-0.3064863591904213,0.4912591576736949,0
49,9.833333333333334,-0.7714281789901296,-0.5959470534868254,0.22303738274187007,-0.7786325678322683,-0.4135101651215127,0.4719540948568073,0
50,10.033333333333333,-0.8323175889922911,-0.5079689930049912,0.22184438960576516,-0.7804379560902318,-0.4294766967428055,0.45438569921223276,0
51,10.233333333333334,-0.8456500177765776,-0.4883437195813252,0.21539837274211335,-0.8034004027386504,-0.40889588512649067,0.43284171241459407,0
52,10.433333333333334,-0.9144849987635733,-0.3562842327095682,0.19177782082123432,-0.8388618283916097,-0.3544751349847235,0.4131079901733296,1
53,10.633333333333335,-0.9231454050397732,-0.3360772245637293,0.1866940285158959,-0.8731218508779803,-0.2968773210371959,0.3866808629518505,1
54,10.833333333333334,-0.9284164017959718,-0.3246945690673144,0.18060017080393698,-0.8953313728939891,-0.25673978384322405,0.3639593605114437,1
55,11.033333333333333,-0.9178098733237522,-0.3525462400264315,0.1825819954778231,-0.8965295078800641,-0.26384856510828075,0.355835321729914,1
56,11.233333333333334,-0.8835455135534503,-0.45449445176307424,0.11305803286875482,-0.8956683340343188,-0.2747109078355195,0.3497315435078358,1
57,11.433333333333334,-0.8946223793250844,-0.43500252777602405,0.1020960294976958,-0.8960879168724245,-0.276315585106757,0.34738471852162633,1
58,11.633333333333335,-0.9074838026109469,-0.40837324748663917,0.09851110970846076,-0.9038042087259572,-0.252538689627641,0.3454882957936504,1
59,11.833333333333334,-0.9860695521165597,0.13594419103901148,0.09584370251298002,-0.9160426063367664,-0.19955132956210725,0.3479155217085596,1
60,12.033333333333333,-0.9823843477636732,0.1691061585566369,0.07952421271009151,-0.9273395193002052,-0.15648057178798055,0.3399341798009893,1
61,12.233333333333334,-0.9146433211851768,-0.3994735948535247,0.06203581244855195,-0.9314247865599983,-0.16497837461355672,0.3243917429459803,1
62,12.433333333333334,-0.896415879624509,-0.43879207879673693,0.06245063924617679,-0.9182027652447142,-0.22383703424874402,0.3268037086626875,1
63,12.633333333333335,-0.8635550757427728,-0.5015999578392014,0.051673140552951455,-0.9113359539320645,-0.26998779474368134,0.3107625617093826,1
64,12.833333333333334,-0.8659207159403176,-0.4998914392773893,0.01702535293579211,-0.9209869466736427,-0.277491224854317,0.27346236338043345,1
65,13.033333333333333,-0.8654805455145395,-0.5008604775745676,-0.009066826326317896,-0.9277007168406901,-0.28946490829808363,0.23575717770038718,1
66,13.233333333333334,-0.7315804628877359,-0.6520854708810817,-0.19893356928071276,-0.9213408064795479,-0.3717953506547346,0.11357524178772027,0
67,13.433333333333334,-0.6183687941586069,-0.7482344003857785,-0.2403441625880794,-0.8423198769158606,-0.538806432369711,0.013596079930380289,0
68,13.633333333333335,-0.4444991894345817,-0.8410495325587204,-0.30831178111573687,-0.7394901124672151,-0.6694963021803103,-0.07020737091015788,0
69,13.833333333333334,-0.44489340856744053,-0.8544119261721376,-0.2684215256421557,-0.6142282159680794,-0.7770578560612964,-0.1374946800501469,0
70,14.033333333333333,-0.2844804283537254,-0.7339306315231188,-0.6167793073667089,-0.5120829258942289,-0.8300070071205925,-0.2210417271429139,0
71,14.233333333333334,-0.23552316549848817,-0.7235089794793625,-0.6488941324486632,-0.4405922296723694,-0.8484810791653835,-0.29318653695331304,0
72,14.433333333333334,0.06782396455464662,-0.7699484308019765,-0.6344913898057752,-0.3010398654759806,-0.8874802664622451,-0.3489323373296121,0
73,14.633333333333335,0.0374453592561414,-0.7976482532591997,-0.6019593916060505,-0.18725090591325821,-0.9132763095012556,-0.36175057807615324,0
74,14.833333333333334,0.37270397439953673,-0.7715537025920199,-0.5155546833104461,-0.06266626397772085,-0.9256786696317416,-0.37308436036355574,0
75,15.033333333333333,0.4197798428876104,-0.7434818663179347,-0.520595426374122,0.04611130469694208,-0.9201078404459265,-0.3889412674544568,0
76,15.233333333333334,0.38940070271563343,-0.7846448067672249,-0.48238948987078384,0.19247704516612274,-0.8898704351308239,-0.41362204458200375,0
77,15.433333333333334,0.6254779161429569,-0.5739685329692769,-0.5285238874247412,0.3501296988136822,-0.8300180108111468,-0.4341420225430235,0
78,15.633333333333335,0.6669236538697164,-0.3535124401101472,-0.6559281931708961,0.4539079155653721,-0.7699865579194491,-0.44842870649687216,0
79,15.833333333333334,0.6641986284262159,-0.19475673591819087,-0.7217409478554103,0.5649851132898382,-0.6622730838968945,-0.49212415517485614,0
80,16.033333333333335,0.6336108423513289,-0.20783159180708458,-0.7452136136046985,0.6054978929395131,-0.5938689673095766,-0.5298036912975093,0
81,16.233333333333334,0.6096381084545264,-0.13140781129216295,-0.7817118163693,0.6232425029327322,-0.5403254896700509,-0.5653469268961873,0
82,16.433333333333337,0.6055393403099344,-0.08076606647787771,-0.7917063532918636,0.6332946395282062,-0.5048692749276306,-0.586553420226059,1
83,16.633333333333336,0.6100243085803276,-0.04252255370017537,-0.7912409085530835,0.6489208014647301,-0.4788908577834137,-0.5912405092327816,1
84,16.833333333333336,0.5959315800265608,-0.17470051579879722,-0.7838018127732806,0.6640321269006717,-0.45684290098183616,-0.591908690818331,1
85,17.033333333333335,0.7689150413557941,0.04395744532573877,-0.6378380689307063,0.6837457252011632,-0.41450216877661644,-0.6005661789916388,1
86,17.233333333333334,0.7887529593585283,0.07563127899641343,-0.6100398993021117,0.7001604400546555,-0.37380260418712197,-0.608314861963274,1
87,17.433333333333337,0.6357942512867744,-0.03715039204903589,-0.7709640188759092,0.6439773935243303,-0.40278881234741415,-0.6504262366151673,1
88,17.633333333333336,0.6275483147436465,-0.05874024768108782,-0.7763586129906553,0.6018290149743957,-0.4319186469832571,-0.6717500421459612,1
89,17.833333333333336,0.6453503246177115,-0.0448194949027768,-0.7625707648424992,0.5942237548945248,-0.4443689333857131,-0.670398672552904,1
90,18.033333333333335,0.5591014358429747,-0.1795198284451696,-0.8094307973096534,0.5881421614045088,-0.4525194028164616,-0.6703096210357314,1
91,18.233333333333334,0.5556238767161019,-0.18515023682931997,-0.8105562888689575,0.578462259186177,-0.45959258661167496,-0.6739110245639365,1
92,18.433333333333337,0.2911191962216695,-0.20171401532888678,-0.9351796991012729,0.5639339941719613,-0.48129165747099956,-0.671071375239681,0
93,18.633333333333336,0.2029536566424934,-0.144675756184828,-0.9684413966925356,0.5151963645562887,-0.5098756401629383,-0.6889118503236956,0
94,18.833333333333336,0.16762045417769375,-0.15702262116097784,-0.9732662943845328,0.428807092920817,-0.5642301203930945,-0.7055273547510342,0
95,19.033333333333335,0.21422046084339164,-0.4087999447180112,-0.8871258080760565,0.33579537290336214,-0.6321895423240247,-0.6982677495866696,0
96,19.233333333333338,0.2518108433488056,-0.6103958733123418,-0.7510047782905427,0.24784018252937287,-0.6865180315844738,-0.683570213096787,0
97,19.433333333333337,0.15419493959898722,-0.8183058521959627,-0.5537142339365172,0.16633721329305368,-0.7671529321946461,-0.6195226469622053,0
98,19.633333333333336,0.11110781958370014,-0.8744447840625728,-0.4722302108644856,0.0981347827789269,-0.8233917513823551,-0.5589235977881333,0
99,19.833333333333336,0.07138231041509469,-0.9137508868754323,-0.39995485056961644,0.03414056220094386,-0.8828632352801533,-0.468387585022558,0
100,20.033333333333335,0.16311046387911665,-0.8769335460197697,-0.45208686381970015,-0.019502358887893145,-0.9225704102670449,-0.38533556298050736,0
101,20.233333333333338,0.13377537226327607,-0.8907359480204198,-0.4343887897724642,-0.07497669449284639,-0.9417894254568184,-0.32773643889662674,0
102,20.433333333333337,0.11247081655295021,-0.903855039700586,-0.4127909672361608,-0.08845682587243092,-0.9532700787686529,-0.28887981390360384,0
103,20.633333333333336,-0.47632430961611794,-0.8365564769222094,-0.2707183277656488,-0.14350712052945408,-0.9562624221836518,-0.2548879877059725,0
104,20.833333333333336,-0.5250365556488483,-0.8165406213323891,-0.23999589360343243,-0.2453166269016296,-0.9469042039798221,-0.20782728658899915,0
105,21.033333333333335,-0.539007832887735,-0.8126785395901182,-0.22141397285478762,-0.29712498139336285,-0.9408491325187867,-0.16284856545465912,0
106,21.233333333333338,0.14011260115978974,-0.9819082860889689,-0.12737573044368247,-0.20879711741690837,-0.9714173639658044,-0.11292505808773506,0
107,21.433333333333337,0.2556495706207027,-0.9657005969631832,-0.04544946717401684,-0.10636022842767023,-0.994004956440595,-0.02533077930788836,0
108,21.633333333333336,-0.5548554158232879,-0.8223979132735109,0.12568667302041708,-0.2987130653107558,-0.9538904187077892,0.029386624680813975,0
109,21.833333333333336,-0.8542860890209968,-0.5141641060750981,0.07635803906076191,-0.5006258024976215,-0.8619340800993643,0.08027108717885478,0
110,22.033333333333335,-0.8873704505593045,-0.4609817760198174,0.008335805407537982,-0.6289964488766919,-0.7708182463807947,0.10100840730824186,0
111,22.233333333333338,-0.8653313914682752,-0.5005789420642448,-0.024946055828933816,-0.7389782459430323,-0.663337395264956,0.1178755787517634,0
112,22.433333333333337,-0.8804042910983804,-0.47386613622345886,-0.01841654571870045,-0.8156078805098712,-0.5636990240802175,0.13048829641468274,1
113,22.633333333333336,-0.878973799833189,-0.4768301191857759,-0.0061722478955140055,-0.8393503386365821,-0.5243949251834202,0.143181603121805,1
114,22.833333333333336,-0.887688220895684,-0.4604437685983542,-0.0010763094353127393,-0.8567081830829111,-0.49478052405227896,0.14575089041693506,1
115,23.033333333333335,-0.8913998905533507,-0.45043284270318096,-0.050164622352871745,-0.8661345141434714,-0.48369054399682626,0.1259144989963709,1
116,23.233333333333338,-0.9502091570412361,-0.30840375290819283,-0.04460586359578847,-0.8683201740142362,-0.47890238119217954,0.12912236323870052,1
117,23.433333333333337,-0.9536034510790535,-0.29800618212805224,-0.04281090402667797,-0.873727557351026,-0.4679364939487347,0.13279907061563145,1
118,23.633333333333336,-0.9506294358813424,-0.30633652801574385,-0.049614586959688615,-0.8867796064173291,-0.4413474682918321,0.1372382668016363,1
119,23.833333333333336,-0.9575549314306193,-0.2836241137963353,-0.05143846193409713,-0.9098946474569001,-0.38904007162295784,0.14401233697460689,0
120,24.033333333333335,-0.9291447567080788,-0.3607240713053294,-0.08104421918183348,-0.9376909781155196,-0.3139593612881797,0.14887964609132498,0
121,24.233333333333338,-0.9396938601212346,-0.3358416002393872,-0.06469829054234268,-0.9503602952672283,-0.2630364356649753,0.1662141470881828,0
122,24.433333333333337,-0.9750870860522768,0.19695338270865337,-0.10205165189108223,-0.9719615485934683,-0.15973027552390348,0.17256009717441878,0
123,24.633333333333336,-0.9609663797510821,0.2573518974141112,-0.10155598399629566,-0.9832112887651951,-0.07126865881407944,0.16797720058247897,1
124,24.833333333333336,-0.9477065731286921,0.27952670552045644,-0.15400348096569633,-0.9857128064467473,0.022642775660213176,0.16690586543701402,1
125,25.033333333333335,-0.9568935188857955,0.23509339261814513,-0.17054585970245897,-0.9833514320630852,0.07953413079514371,0.1633838520115758,1
126,25.233333333333338,-0.961914408352149,0.19991462068175384,-0.18642643439760795,-0.9837759836100144,0.09035808237789487,0.15498461543372027,1
127,25.433333333333337,-0.9695375727501263,0.15435657821973195,-0.1901865972830103,-0.9860435500849092,0.06789375224770476,0.15201498525368004,1
128,25.633333333333336,-0.9732620278151863,-0.06579908346356371,-0.2200715925066808,-0.9878087730281458,0.03238576718357151,0.15226618144736087,1
129,25.833333333333336,-0.975117142285145,-0.08553093614555761,-0.20452632540511093,-0.986169601826941,-0.0025888143848166695,0.16571908300667623,1
130,26.033333333333335,-0.9752618474942529,-0.09800735131144817,-0.19813855735573266,-0.9843484723312299,-0.030598231864555587,0.17355642663392462,1
131,26.233333333333338,-0.9286508471219295,-0.3184626760984303,0.1902344029663115,-0.9797385583201094,-0.05284705940354587,0.19318267430914168,1
132,26.433333333333337,-0.9925436635772211,0.12076014597498512,-0.016554849344182238,-0.9780390838109282,-0.04290557249792572,0.20395750142347238,1
133,26.633333333333336,-0.9921213509928987,0.12435065379678722,-0.015236134822763127,-0.9779885902177512,-0.022813329737529437,0.20740749598358968,1
134,26.833333333333336,-0.9917762824886922,0.12605850130399138,-0.022114695157336245,-0.9787118582775395,-0.00913216554562859,0.2050358554481944,1
135,27.033333333333335,-0.9944935421383682,0.10475439694498423,-0.0030184376380701363,-0.9783711719210837,-0.017646472144965786,0.20610301301679748,1
136,27.233333333333338,-0.9932398587208042,0.11596392459079885,0.005191458540398403,-0.9777288811080955,0.0005234050982626942,0.20987129649910385,1
137,27.433333333333337,-0.9973044657551025,-0.037972375803407454,-0.06278456228066215,-0.979247012451536,-0.00323637955520253,0.20264455199219142,1
138,27.633333333333336,-0.9962250046797702,-0.04317538034546856,-0.07531020238199136,-0.9804970101354452,0.0019085700480551055,0.19652473247870023,1
139,27.833333333333336,-0.9941221626662264,-0.0679893688033241,-0.08425302027554236,-0.9821639844123016,-0.015268576539321128,0.1874053849114667,1
140,28.033333333333335,-0.9917741621184515,-0.08180057327267667,-0.09845139697589579,-0.985576393158946,-0.02100090700094136,0.1679230036443526,1
141,28.233333333333338,-0.9912949518814504,-0.07295166088748639,-0.10960097421150156,-0.9884930368316994,-0.01786879861795288,0.15020726404270818,1
142,28.433333333333337,-0.9921254468534171,-0.09307029563632659,-0.08381537911430549,-0.9832607319566469,-0.05512037575406643,0.1736665689440835,1
143,28.633333333333336,-0.9591859966954757,-0.035879459434277575,0.2804904421437759,-0.9672943370481516,-0.06619304590964206,0.24486760951130568,0
144,28.833333333333336,-0.8881769407519841,0.44233261170173793,0.12443304441170853,-0.9611555979444405,0.02767707631926017,0.2746159062881883,0
145,29.033333333333335,-0.8503060207733206,0.5168826168894398,0.09905569844368227,-0.9461563358275173,0.16842046464198585,0.2764466228103075,0
146,29.233333333333338,-0.8141005868273576,0.5765577689166571,0.06943611185254263,-0.9278171496088707,0.26301185756700163,0.26453752034602934,0
147,29.433333333333337,-0.87588849755962,0.4811626398252476,0.036081212273848466,-0.9194712097925265,0.3005520384604639,0.2534584118547412,0
148,29.633333333333336,-0.9153998716759784,0.3994137019957738,0.050117557738119545,-0.9409019649545614,0.20997513501380666,0.26573282638879797,0
149,29.833333333333336,-0.8817486348169851,-0.4714697316930455,-0.015350475421659009,-0.9550157747987225,-0.1064388175858626,0.2767953178731892,0
150,30.033333333333335,-0.8199328938705743,-0.5718350088839975,0.026735223276875296,-0.8786369820801663,-0.3745520809075768,0.29615501415451717,0
151,30.233333333333338,-0.8252341468575592,-0.5643792317834748,0.021556567253891476,-0.7932924609347132,-0.5240747946057909,0.3098914020798973,0
152,30.433333333333337,-0.7816849260856137,-0.6236698174637518,-0.0021529317823203286,-0.696977604557325,-0.6431547648900849,0.31713430458515973,0
153,30.633333333333336,-0.305832845316931,-0.9518353741242273,0.021810348258168168,-0.5476714403098503,-0.7675663787757563,0.3330132844827764,0
154,30.833333333333336,-0.34083972158309317,-0.9396087136453263,0.03104431401940089,-0.3867119561165975,-0.8526823128492156,0.3512644820510427,0
155,31.033333333333335,0.21193666849046278,-0.976756801745462,0.03207801105337336,-0.17981456166837595,-0.9180714528508135,0.35328675445366886,0
156,31.233333333333338,0.24273352649905372,-0.9678080844498417,0.06654281919832966,-0.02186856171188184,-0.9454110905036018,0.3251455611898221,0
157,31.433333333333337,0.42522432028638585,-0.9049446422086912,-0.016108133807650422,0.11936480711923858,-0.9497066406323184,0.2894984275609524,0
158,31.633333333333336,0.6307783522405584,-0.7755372937255892,-0.025701680596321705,0.24770151587087474,-0.937038458229253,0.24617653591399735,0
159,31.833333333333336,0.657582260758711,-0.7528144174360498,-0.029257874767045094,0.3246135506250663,-0.9184087763059833,0.22616666941601782,0
160,32.03333333333333,0.6554727451423472,-0.7548536531515366,-0.023482817108160445,0.3346151565932343,-0.9162699365984425,0.22018651244790471,0
161,32.233333333333334,-0.11336976288507045,-0.9918175178841924,0.05869674677035528,0.20949167379169215,-0.9501053485553623,0.23111266788830212,0
162,32.43333333333333,-0.3621590697428337,-0.9315049603693774,0.033753770311625,0.013570019502118003,-0.9735364126917101,0.2281287087020595,0
163,32.63333333333333,-0.47756846739637077,-0.8724335789583804,0.10386534193152862,-0.16778309981663614,-0.9583564410365303,0.23108821549295003,0
164,32.833333333333336,-0.4533889007933117,-0.8866063738817505,0.09147481855509004,-0.32173970107041805,-0.9171094188673565,0.23535904184861461,0
165,33.03333333333333,-0.8300886295778194,-0.5576293660780871,-0.0015352957266593571,-0.5185212878181604,-0.8217668397120168,0.23629417095883096,0
166,33.233333333333334,-0.9272096487287916,-0.3743316659200384,-0.01257263670675275,-0.6835083820259731,-0.6925122388852283,0.23074464391271415,0
167,33.43333333333333,-0.939041500362702,-0.343632138833189,0.010863413712720073,-0.7997547365320651,-0.5522248977015439,0.23545705288448446,0
168,33.63333333333333,-0.914017050490381,-0.3956034561752938,0.08983727998457305,-0.8537605460563851,-0.45520233188325093,0.25275238286820145,1
169,33.833333333333336,-0.9171660724788446,-0.3919834627598893,0.07180083855009964,-0.8794226830671704,-0.4032326160908697,0.2530201609110475,1
170,34.03333333333333,-0.914914373356039,-0.39896854154039446,0.061284519151716225,-0.8881907829257832,-0.3868303716566784,0.24795039159001211,1
171,34.233333333333334,-0.9076804813861532,-0.4164171656726273,0.052085389926323056,-0.8914638441231965,-0.38578880901387624,0.2376114674436992,1
172,34.333333333333336,-0.9409418404515756,-0.3385041461597561,0.006587557988858317,-0.8933431027194318,-0.383834866955979,0.23368546324601583,1
