,timeStamp,x_gaze,y_gaze,z_gaze,x_head,y_head,z_head,fixations_head
0,0.03333333333333333,-0.9992407108164412,0.02715768754788738,0.027936747378764937,-0.9964786480513184,-0.009749407592512251,0.08327816658291458,0
1,0.23333333333333334,-0.9991510913001799,0.0344677673590934,0.02256257447498544,-0.9968293237383047,-0.002051847974779145,0.07954300255410768,0
2,0.43333333333333335,-0.8667861968419459,0.4625831022655232,0.18627550150967204,-0.9926675653502486,0.07066952239894521,0.09806591306623913,0
3,0.6333333333333334,-0.7966409816735831,0.5433833882489654,0.26475958848212466,-0.9616402077485089,0.22613615078968136,0.15527572942166898,0
4,0.8333333333333334,-0.8226015519034775,0.4457574557199427,0.3530254629287716,-0.936923115379974,0.3005667226252561,0.17842287161963544,0
5,1.0333333333333334,-0.7908398377010485,0.4916237774238329,0.36452491351964056,-0.9112248825212964,0.36573999684009395,0.18948210518531283,1
6,1.2333333333333336,-0.7741289035576655,0.5130533309761038,0.3708108955396694,-0.8966355629616575,0.39783650170545726,0.19434707392496395,1
7,1.4333333333333336,-0.7674028665311334,0.5180110114933424,0.3778325454635213,-0.8856057348110785,0.41738164077143186,0.20370333432881613,1
8,1.6333333333333335,-0.7414203391701439,0.5512653400854458,0.38262567279954784,-0.8677104824085764,0.44903086605502324,0.21318958710066435,1
9,1.8333333333333335,-0.7192632001670007,0.5833745566810447,0.37727254803751614,-0.8500483477381517,0.482035121478139,0.21227328651809702,1
10,2.033333333333333,-0.699250226643169,0.6124442492864399,0.3687291174499856,-0.8356210512574104,0.5093843309310913,0.20558468351836165,1
11,2.2333333333333334,-0.8122484117795838,0.47315543485426265,0.341139930277031,-0.9313167282741869,0.31862630498695926,0.17642683868114176,0
12,2.4333333333333336,-0.7590599368535074,-0.6328261295531646,0.15283684771255526,-0.9784036936741983,-0.1592488538186182,0.13178017590723443,0
13,2.6333333333333333,-0.8514012443759992,-0.5202864411395876,0.06646758790043844,-0.9029582054603766,-0.41815652729559827,0.09905351014407304,0
14,2.8333333333333335,-0.8515143739360947,-0.5196665618571975,0.06978492292566131,-0.8682373547200081,-0.4875923207924228,0.0917476134461386,0
15,3.033333333333333,-0.8509572336047131,-0.5150338521470824,0.1030141627076172,-0.8585849697076713,-0.5044067415958369,0.09168254372969772,0
16,3.2333333333333334,-0.7992293850863592,-0.5875847272290539,0.12639849026645322,-0.7895799353971454,-0.605816600513726,0.09772293569184408,0
17,3.4333333333333336,-0.0979282724593204,-0.9783054419566404,0.18256099170183174,-0.46297672684088925,-0.8818534316369242,0.08937043982143736,0
18,3.6333333333333333,-0.12037592761807792,-0.9819513823697643,0.145880494625555,-0.28043364084589845,-0.9573796848661454,0.06914558617521431,0
19,3.8333333333333335,-0.13156857231306784,-0.9798099042452284,0.1505399027582312,-0.26133487329449623,-0.9628409596975408,0.06812760328140614,0
20,4.033333333333333,-0.16944758654536718,-0.9737407886646947,0.15204075737975375,-0.2919843970415343,-0.9540606577813119,0.06718164301490552,0
21,4.233333333333333,-0.20283325832614352,-0.9647132539079943,0.1678898658378456,-0.3356207012159433,-0.9387723888172017,0.0778790530872297,0
22,4.433333333333334,-0.1929540812810988,-0.7352136447347527,0.6497919814162131,-0.332147754038686,-0.9397943611471344,0.08040166816121681,0
23,4.633333333333334,-0.2867683003115474,-0.6961309426103288,0.6581532136796729,-0.4792649650402072,-0.8724418431460208,0.09565732388574727,0
24,4.833333333333334,-0.9706983566263265,-0.21535527938449103,0.10661521506884808,-0.8561270109341664,-0.5036416765657972,0.11572209285578439,0
25,5.033333333333333,-0.9292009361834089,0.32243268524704843,0.1806177833997928,-0.992893207213902,0.03693353381686846,0.11313263520439278,0
26,5.233333333333333,-0.8248476371601944,0.5047817365900124,0.25460120556748367,-0.9267253213252598,0.3554016317307981,0.12194203121844421,0
27,5.433333333333334,-0.7203334902430019,0.6042633631194084,0.34056636772581855,-0.8616200474123006,0.4898054821552398,0.13304692235409984,0
28,5.633333333333334,-0.7654043797976495,0.4833058773641574,0.4249371298107964,-0.8291245293078503,0.5343519105575699,0.16437928879122876,0
29,5.833333333333334,-0.761094255330169,0.459653210837798,0.4576619497728848,-0.8418354205535086,0.5032080874637838,0.19517875246178443,0
30,6.033333333333333,-0.8322047516144875,0.37944982468582145,0.4042933117628451,-0.9327958302522232,0.2725715172222502,0.23578953976634806,0
31,6.233333333333333,-0.7971384719053799,-0.6035110062780281,0.018566688170968928,-0.9563995575976765,-0.2607476031296901,0.13156965337451734,0
32,6.433333333333334,-0.8174228238408591,-0.575906581377894,0.01231001988881696,-0.8651358753734608,-0.4951289259548149,0.07992035926237949,0
33,6.633333333333334,-0.8522969708183727,-0.5133988872789418,0.10005726397703534,-0.8052999946464281,-0.5876862239755417,0.07821010658369311,0
34,6.833333333333334,-0.8601264052108427,-0.4968548547613895,0.1154028611391941,-0.7878152421939806,-0.6112301058472845,0.07579513093040567,0
35,7.033333333333333,-0.6587272269469115,-0.738646863073219,0.1431057376589969,-0.5077502437025394,-0.8567505247387788,0.09037825169718197,0
36,7.233333333333333,0.0068421155153854385,-0.9923806169945789,0.12301990273420435,-0.24604331648761274,-0.9668200815921776,0.06871401779747652,0
37,7.433333333333334,-0.1606876606670573,-0.9844424608970518,0.07108105860428292,-0.1697819039492825,-0.9840132327590176,0.053777902957479716,0
38,7.633333333333334,-0.21111663890932425,-0.9650971536373543,0.15497499416585625,-0.1663888826790469,-0.98430553290563,0.058799299419142144,0
39,7.833333333333334,-0.23290889127360742,-0.9389578153857745,0.25320282244017894,-0.22247717010050122,-0.9720889202911787,0.07447845212679448,0
40,8.033333333333333,-0.75204490284696,-0.6443822916087595,0.1385637988904404,-0.47051402924275,-0.8760536207537309,0.1055774684770907,0
41,8.233333333333334,-0.9015517749476065,-0.3906670380623568,0.18596683161361297,-0.8738809297048327,-0.47640873529840705,0.09678242417706727,0
42,8.433333333333334,-0.8988184297684995,0.4202723073303743,0.12448541279881745,-0.9793311181087723,0.1851107623538486,0.08151421204059522,0
43,8.633333333333333,-0.5809445544281904,0.7970112171211033,0.16515612148318623,-0.7123197435566337,0.6921054887456339,0.11657862320159247,0
44,8.833333333333334,-0.13622891588364172,0.9831574929962319,0.12183195985673143,-0.44138168134017636,0.8833184207093189,0.15789483529524895,0
45,9.033333333333333,0.44480087445212346,0.8950700520601498,-0.03165097141742819,0.02378029398072745,0.9983209551435331,0.052818255740737605,0
46,9.233333333333334,0.7451855284000881,0.6667041563991215,-0.014286220746495092,0.5300380368098415,0.8477460751225873,-0.019653794773981586,0
47,9.433333333333334,0.9422906952773867,0.33381745726650297,0.025576372256167185,0.7738158831036017,0.6306402986414767,-0.059175947698218906,0
48,9.633333333333335,0.9867284446402391,0.1386577964720182,0.0845043905094823,0.9243939481898376,0.3801245069415201,-0.03164155136003965,0
49,9.833333333333334,0.9006395567483595,0.2361898590754957,0.36477765733391143,0.9657456288303463,0.25948715947939255,-0.0013395747068549306,0
50,10.033333333333333,0.8933741204312273,-0.19238493375838356,-0.4060427541608314,0.9860213910111614,0.16644316549216573,0.007647818601561705,1
51,10.233333333333334,0.9922478005622828,0.10511798847291606,-0.06629110633199799,0.991313568908926,0.1303819668546268,-0.017261251871385358,1
52,10.433333333333334,0.9915283075871565,0.120946723097688,-0.047365656601383144,0.9973363149102389,0.06683621173832961,-0.02920951491781757,1
53,10.633333333333335,0.9831452902585426,0.16830550546731804,-0.07140444714327487,0.9947381748227221,0.081732305881458,-0.061772111228771714,1
54,10.833333333333334,0.9727758432991606,0.1950829557965261,-0.12509915687684578,0.9889089178786248,0.10166952598223154,-0.10827030814898385,1
55,11.033333333333333,0.9737083756586417,0.17955845370147863,-0.1401811716192442,0.9890248834706299,0.08327645101904364,-0.12204430581382969,1
56,11.233333333333334,0.9859725706715329,0.13669096074061585,-0.09577928343424015,0.9978191523093667,0.029249867774578303,-0.059172498001912564,1
57,11.433333333333334,0.9979205672250823,0.0599440630435339,-0.02369073268185518,0.9928789460595402,-0.053650251365082675,0.10636281775207031,0
58,11.633333333333335,0.7683197853056142,-0.6392321604850967,0.03266423900063445,0.955365897411261,-0.27504481404615994,0.1078255643615629,0
59,11.833333333333334,0.5946958394062094,-0.8037463701666387,0.018128183496877857,0.7901716560415666,-0.610017170704277,0.05922672905434494,0
60,12.033333333333333,0.5710317953192086,-0.8204962621513576,0.0266190257179391,0.7107055345709477,-0.7031049668801777,0.02326045310495206,0
61,12.233333333333334,0.5485641286452685,-0.8352234319535238,0.03846057045124006,0.674068785669705,-0.7386530907974697,0.004783684888744939,0
62,12.433333333333334,0.6666431972013385,-0.7453341220216732,0.007993383223574744,0.6760730469872878,-0.7357584797507205,-0.03980822292232575,0
63,12.633333333333335,0.6991182469317214,-0.711219691707307,-0.07348623636355217,0.6965967088639062,-0.7141393023127663,-0.06897885249994824,0
64,12.833333333333334,0.4060985461677408,-0.9094116080578821,-0.08974685470825441,0.7280890985698636,-0.6786407223041852,-0.09660763207002686,0
65,13.033333333333333,0.9974035022183065,-0.026239135226897605,0.06706535279264259,0.9392884447507244,-0.34039227208768,0.04324718095728873,0
66,13.233333333333334,0.860977241469449,0.14414886753910927,0.4877902148043264,0.9424559466941778,0.26173507988969447,0.2080181157878235,0
67,13.433333333333334,0.810158884304537,0.5310840270290975,0.24817803774102415,0.841018384083218,0.5074724722906178,0.187509379768855,0
68,13.633333333333335,0.4203539931906639,0.8853977718398001,0.19842707988019295,0.7195913088819068,0.6788235855867994,0.14624256505103198,0
69,13.833333333333334,0.45647476219981903,0.8731098124101748,0.17120177261841787,0.6046889644360145,0.7942108187587092,0.05983670826441877,0
70,14.033333333333333,0.6925638908898724,0.6424635291695,-0.32801809511451024,0.4446098532545229,0.8908536711085957,0.09328351977348223,0
71,14.233333333333334,-0.08238482808166453,0.7474681972679739,0.6591691999592518,0.23746826852256397,0.9647649711187991,0.11330212684252014,0
72,14.433333333333334,-0.47534333262443684,0.7995114402484707,0.3671922834719029,-0.059581947137752944,0.9914863068796164,0.11577950960983381,0
73,14.633333333333335,-0.38227919617548095,0.8938025193584697,0.23447744573813634,-0.3169446462117987,0.9415503782691331,0.11414454178334611,0
74,14.833333333333334,-0.6818679164289598,0.40181063853725835,0.6112318343338394,-0.5507901240216088,0.8288265052524963,0.09837104996488884,0
75,15.033333333333333,-0.7582805562803853,0.26550162134732797,0.5954153903192708,-0.7387932716927046,0.6566683992368735,0.15156224841718366,0
76,15.233333333333334,-0.8454543368363443,0.3234761972311479,0.4249354235051398,-0.8431762753009966,0.4942988032572204,0.21147685894210305,0
77,15.433333333333334,-0.6967653367964829,0.7059731054620946,-0.1269647187335542,-0.8859739078466515,0.35275706193093687,0.3010194177670043,0
78,15.633333333333335,-0.7822681652019626,0.6226989865231481,-0.017392236618654053,-0.8824597485608707,0.23352425451097344,0.40832733771446106,0
79,15.833333333333334,-0.6388636645978305,-0.21663342580601994,0.7381891199958033,-0.8580627904312926,0.0665725341810997,0.509211493752812,0
80,16.033333333333335,-0.7001125463598851,-0.5469846422233352,0.4589664732867622,-0.861031291148113,-0.1665392372857658,0.4805099354936263,0
81,16.233333333333334,-0.7404601162475115,-0.6050101686296661,0.29271404493365993,-0.893799344509068,-0.30749863786354403,0.32644650322407415,0
82,16.433333333333337,-0.8924348418645986,-0.4066941004019787,0.19534574918419567,-0.8926040252752572,-0.381218726804716,0.24068721693475814,0
83,16.633333333333336,-0.850780904773003,-0.5215114287251407,0.06478951908057776,-0.8648203649906295,-0.4685867987008358,0.18031125417116106,0
84,16.833333333333336,-0.8517594425212954,-0.5197588341650102,0.06600459365257529,-0.8461526347446594,-0.5184001505991226,0.12364061862300078,0
85,17.033333333333335,-0.34423452264775034,-0.62209042758721,0.7032112721805857,-0.7723687793383461,-0.6073417113250204,0.1859637448219119,0
86,17.233333333333334,-0.4005526760157656,-0.6784713966731853,0.61581987434066,-0.6379084158740743,-0.6982082688378524,0.3249277862594671,0
87,17.433333333333337,-0.39180373438131805,-0.685142479022344,0.6140599459042827,-0.594093985645577,-0.7151998616306825,0.3681596041708072,1
88,17.633333333333336,-0.5490674830628659,-0.5798379706829855,0.6019242699852257,-0.5836455903545178,-0.7182947863667858,0.37869568882946136,1
89,17.833333333333336,-0.548758297307944,-0.5712638167634887,0.6103457895263122,-0.5845457379127217,-0.7043874674976782,0.40267179677782156,1
90,18.033333333333335,-0.18804712720341166,-0.6414873878243601,0.7437285857171442,-0.5125261650344561,-0.6902182339977481,0.5107990990713505,1
91,18.233333333333334,-0.20945908143655778,-0.6621674308594759,0.7194867522843732,-0.5014424554109798,-0.7022122551813315,0.505423992885732,1
92,18.433333333333337,-0.24284914070837743,-0.6993498040626579,0.6722604751245793,-0.5209039692698562,-0.732359547276381,0.43852998564755286,1
93,18.633333333333336,-0.5454845277141409,-0.8325418043538544,-0.0965441558444078,-0.5602348667628392,-0.8002237445170783,0.21395993263760865,0
94,18.833333333333336,-0.5051199411256473,-0.8528131168839709,-0.13252785649768015,-0.5424832201463086,-0.8352609000504259,0.08972839409375793,0
95,19.033333333333335,-0.44419273224758016,-0.8913140163701095,0.09084129479820094,-0.5244316202544732,-0.8474321253150545,0.08264543944633433,0
96,19.233333333333338,-0.2045537282719953,-0.9785806673885369,-0.023187273738692272,-0.5003649866366088,-0.8607115788422909,0.09386404101122814,0
97,19.433333333333337,-0.16565970702658034,-0.9861741600939293,0.004169823845261796,-0.45339733509528135,-0.8861668001655354,0.095599470777162,0
98,19.633333333333336,-0.12113562409549639,-0.9892086335873471,0.0824162593864125,-0.40714256891975786,-0.9058773144381501,0.11670998140581482,0
99,19.833333333333336,-0.08845304299358625,-0.9739723114214871,0.2086959409510903,-0.3628536367279155,-0.9226792615287039,0.13038488661716696,0
100,20.033333333333335,-0.08088932173195496,-0.955225601423927,0.2846066900373948,-0.2295090423921609,-0.9632230119312298,0.13973914536150378,0
101,20.233333333333338,0.36896937656730944,-0.886368101314646,0.2796662084117427,-0.07851665918631584,-0.9880994884679053,0.1322669086343384,0
102,20.433333333333337,0.2572232772550429,-0.9453003125358401,0.2006078382262722,-0.011936447457467914,-0.9935944517076057,0.112372535603489,0
103,20.633333333333336,-0.21886758403420842,-0.9727872713209779,0.07603884148851421,-0.05317387491503772,-0.9950737911518192,0.08367012124567608,0
104,20.833333333333336,-0.24046314394960067,-0.9674220990109441,0.07919569904441291,-0.11499691502770515,-0.9909842941608183,0.06874473260327678,0
105,21.033333333333335,-0.2633393693680117,-0.9608582196192568,0.08604567584120754,-0.16450317024956684,-0.9838025979383922,0.07121204439919299,0
106,21.233333333333338,-0.19865530392377156,-0.9750842689612241,0.09872557240810925,-0.23187346077374166,-0.9707679925941091,0.06200163500757265,0
107,21.433333333333337,-0.22001888573525047,-0.9698454328988572,0.10484047980168328,-0.3035231351751457,-0.9507288622887721,0.06315328039419446,0
108,21.633333333333336,-0.9173841206333722,-0.37218485312899185,0.14101351109409763,-0.48928768669557915,-0.8679104782103967,0.08560935381539349,0
109,21.833333333333336,-0.9278432577623021,-0.3654621122720108,0.07446028148428327,-0.6699743043280755,-0.7365198824821848,0.09312837509878524,0
110,22.033333333333335,-0.889052179097474,-0.4505249241121594,0.08132352424585342,-0.7536366787761447,-0.6513871188301731,0.08790095463297525,0
111,22.233333333333338,-0.9124688341944441,-0.3949646731958995,0.10678732860732289,-0.7993623971281294,-0.5949483017445033,0.08400164467974765,0
112,22.433333333333337,-0.8285791022698549,-0.5485034925154453,0.11225234955242666,-0.7703606971348486,-0.632386380366629,0.08143624645514877,0
113,22.633333333333336,-0.0007531203246822216,-0.9697637404367878,0.2440445052522743,-0.5508326505355239,-0.8309775022708206,0.07784460047914789,0
114,22.833333333333336,-0.06956487327599692,-0.988283875168193,0.13585179604493225,-0.44611585183074265,-0.8914461315233373,0.07940051219864915,0
115,23.033333333333335,-0.6657728628102102,-0.6795909000703457,-0.30806282425355147,-0.3982156704799426,-0.9126713615707482,0.09195251792531853,0
116,23.233333333333338,-0.6855569448465179,-0.6783548929366402,-0.2642845334135695,-0.41302925997245804,-0.8996215261669448,0.14173193028975767,0
117,23.433333333333337,-0.6262833459348186,-0.0200945566266712,0.7793364994651965,-0.5089077114947403,-0.7887078895595084,0.3448953553293699,0
118,23.633333333333336,-0.34943160485633373,-0.48685314657061474,0.8005445441709156,-0.5978265537585514,-0.6034034791824703,0.5277382428170848,0
119,23.833333333333336,-0.5506701270537773,-0.16511811110597133,0.8182288314129322,-0.5965445810751072,-0.46069500768157884,0.657186938920118,0
120,24.033333333333335,-0.09609452297312922,-0.10092482119817837,0.9902424062423718,-0.4643906198278363,-0.27417847002929535,0.8421208457153361,0
121,24.233333333333338,-0.00015756979887234185,-0.034917630392543544,0.9993901811902737,-0.3555004063908343,-0.1561935642450643,0.9215329790866815,0
122,24.433333333333337,0.035367229531957194,-0.012722544593707124,0.9992933983241835,-0.30058477786695703,-0.12529340302290037,0.9454894787746786,0
123,24.633333333333336,0.062344491575329807,-0.1197819271158721,0.9908407815116523,-0.267664051958175,-0.08787628071986107,0.9594965943536099,0
124,24.833333333333336,0.20542545489035546,-0.4031150527519291,0.8917951764435036,-0.24246901326836565,-0.10941220427024753,0.9639697853985836,0
125,25.033333333333335,0.22791224226909712,-0.4710924485455235,0.8521313952362372,-0.20738575356934913,-0.22995176904884485,0.950848743559027,0
126,25.233333333333338,0.25980123713896774,-0.4754796907892939,0.8404893698482925,-0.14348079210650438,-0.3086293638536833,0.9402984515906431,0
127,25.433333333333337,0.19763365057171722,-0.5059285786908058,0.8396292118700956,-0.040722443854350504,-0.3665322883383316,0.9295137245743044,0
128,25.633333333333336,0.5188980689736138,-0.16134376620172725,0.8394718477252808,0.04054697528350994,-0.3494168227281955,0.9360896467699508,0
129,25.833333333333336,0.535765319687357,-0.06161857900142725,0.8421155935749849,0.09015841554219389,-0.314514064589832,0.9449615670926013,0
130,26.033333333333335,0.5688777809290193,0.05545470773325473,0.8205503310312502,0.2050225303945905,-0.31568819359187716,0.9264484478141766,0
131,26.233333333333338,0.4341632720066646,0.18188868536902725,0.8822804312548216,0.23413154563881994,-0.2814175012993176,0.9305840151750009,0
132,26.433333333333337,0.4147983991037736,0.14617673288573516,0.8980950121584012,0.22677943288713961,-0.28576414220282015,0.9310799878906613,0
133,26.633333333333336,0.03902613681865123,-0.4379184062894882,0.8981672617491061,0.06658616274277349,-0.2584754944485488,0.9637202403710172,1
134,26.833333333333336,0.18048554188037225,0.27176715944776214,0.9452870358879588,0.0036803387842956822,-0.24151530946548574,0.9703900300395834,1
135,27.033333333333335,0.22684831987061507,0.22994984896440782,0.9463946886648961,-0.004095291797059877,-0.2005463307622115,0.9796756594929317,1
136,27.233333333333338,0.3932064115462812,0.34061165193879916,0.8540330324304904,0.023238552615354627,-0.11396800052759874,0.9932125978500699,1
137,27.433333333333337,0.34237680914322777,0.42569160958581764,0.8375946359004086,0.0401478057326886,-0.1195876981855809,0.9920115604858266,1
138,27.633333333333336,0.3358409127148971,0.4028213754948634,0.8514375025750577,0.04674503738960785,-0.10872974514062816,0.9929716733125366,1
139,27.833333333333336,-0.052151953656747796,0.02631816959002091,0.9982923057297476,0.001469181342802068,-0.14066837404976004,0.9900556802768109,1
140,28.033333333333335,-0.11072290143194399,0.003926602841980329,0.9938435595648912,-0.0805288065226344,-0.1968074140153757,0.9771294454209332,1
