,timeStamp,x_gaze,y_gaze,z_gaze,x_head,y_head,z_head,fixations_head
0,0.033366700033366704,-0.9865620981573582,-0.11257562999292747,0.118414331949502,-0.9998683308728261,-0.004490031447806042,-0.015593605586478383,0
1,0.2333667000333667,-0.9900023663725221,-0.07091590940781993,0.1219272257113549,-0.9995380297304676,0.026011750810094113,0.015719921829597833,0
2,0.43336670003336675,-0.993437861203244,-0.04597064931749715,0.10472781545154233,-0.9987543304185066,0.04716050818283719,0.016299507299832226,0
3,0.6333667000333668,-0.8213940495303169,0.5668331493605295,0.06334032035134551,-0.9861996524504609,0.15972387263623097,-0.04357212430758075,0
4,0.8333667000333668,-0.7548286718008386,0.6553193883629008,0.028110059819497157,-0.9184547616951995,0.38687258125337154,-0.08228278430976955,0
5,1.0333667000333666,-0.7354141050928474,0.6756355398599555,0.05179489655007259,-0.8206021273779804,0.5701884425785025,-0.0386948122186227,0
6,1.2333667000333668,-0.7132881870963261,0.5812969878169704,0.3915530284696488,-0.7753316633775531,0.6039496777722932,0.1846770112465001,0
7,1.4333667000333667,-0.5128866321839105,0.46305098914424286,0.7228631156585487,-0.6907301965388678,0.5484997310163894,0.4712110362293374,0
8,1.6333667000333667,-0.4265298116704098,0.3488601262883033,0.8344872270098053,-0.6466226868189653,0.48422096536090964,0.5894142495698348,0
9,1.8333667000333667,-0.18545792082210782,0.29203553513497066,0.9382540198809555,-0.599917335582984,0.4339036783421227,0.6721806218481677,0
10,2.033366700033367,-0.11191509396129617,0.21230575012708522,0.9707735473356337,-0.5244309435942025,0.38602877915001876,0.7589163109782532,0
11,2.233366700033367,-0.08520989900398322,0.1627579511816784,0.9829797161889321,-0.49533268395545,0.35516066710399147,0.7927839760916828,0
12,2.433366700033367,-0.11785116966708765,0.16243689501775324,0.979655733890784,-0.505988454937103,0.35813041977862814,0.7846771857901483,0
13,2.633366700033367,-0.1501404931472845,0.17102210187448863,0.9737603776021708,-0.5181237216335499,0.3724091942398938,0.7699735067690266,0
14,2.833366700033367,-0.4839868747300735,0.5867854397423355,0.6491837588814205,-0.5676838630659844,0.4012771383964518,0.7188266062235288,0
15,3.033366700033367,-0.5312226431165172,0.6286779526944312,0.5679494125679151,-0.6227243092715924,0.47092281118129103,0.6248568960580724,0
16,3.233366700033367,-0.571381061830172,0.6878757011499171,0.4476055204634268,-0.7215309669254122,0.5711509094890843,0.39138178592963585,0
17,3.433366700033367,-0.8456564516738047,0.4989781706461077,-0.18943587559154196,-0.8131625206169673,0.572464860401254,0.10512230338816377,1
18,3.633366700033367,-0.8432820832580601,0.5284908346402009,-0.09784051184070039,-0.8418798791590395,0.5369975761506175,0.0535898523558634,1
19,3.833366700033367,-0.8209954592196917,0.5673764523342739,0.06364288866182344,-0.8239037521831885,0.562528863849093,0.06887586279032797,1
20,4.033366700033366,-0.8189665475551617,0.5691192676289304,0.07346463910678008,-0.8106081858140255,0.5788712523165246,0.0884445720934484,1
21,4.233366700033367,-0.8194694914167151,0.5687437294940962,0.0707129606110293,-0.803642702405964,0.58821456765606,0.09034394980757471,1
22,4.433366700033367,-0.823217756082075,0.5536951277857567,0.12543616518974007,-0.8042042726384522,0.5791013958906412,0.13377989814456154,1
23,4.633366700033367,-0.6879247860077919,0.6391402422257422,0.3438884114996514,-0.757504823001085,0.6269147728933023,0.1821107098943788,0
24,4.833366700033367,-0.5295518775868941,0.7435943344296062,0.4082184154939441,-0.6664074914152663,0.7098471181275058,0.22807482165220921,0
25,5.033366700033366,-0.12051028574483375,0.8805618079245733,0.4583537645250726,-0.5105811688428924,0.8074902772141044,0.29540873756156055,0
26,5.233366700033367,-0.04284776854523187,0.846310191480963,0.5309643382809722,-0.3318668402149956,0.870125847843144,0.3643424340932094,0
27,5.433366700033367,0.04167630943328968,0.609668927417972,0.7915597792795186,-0.2009264521275677,0.8524655207226814,0.48262935759694064,0
28,5.633366700033367,0.2539940624126158,0.43923327792019606,0.8617198754970294,-0.012730519807479024,0.815121621011809,0.5791499605667884,0
29,5.833366700033367,0.5131377055978363,0.3303039842883132,0.7922051331928204,0.274502049147589,0.7360691099684795,0.6187494568595475,0
30,6.033366700033366,0.5198728654706586,0.3739072858718181,0.7680661073887436,0.45280304667519883,0.6524317768218983,0.6077023757684996,0
31,6.233366700033367,0.6955763516649793,0.15145223336969435,0.7023074540482742,0.5232872377956959,0.5643180157042231,0.6385261497478385,0
32,6.433366700033367,0.5551211007729138,0.06538383032399873,0.8291957056140792,0.5927121741567988,0.46033219431835887,0.6608982898149802,0
33,6.633366700033367,0.28492777601646957,0.0759409377248854,0.9555360466417653,0.49590147881357005,0.44854656943611726,0.7435641857685219,0
34,6.833366700033367,0.0029382356104921785,0.1992674692039339,0.979940734171489,0.23757229076006767,0.527438880627467,0.8157007011554293,0
35,7.033366700033366,-0.30632299047338746,0.16665025507840167,0.9372267164297787,-0.07346983267040408,0.5736404109269513,0.8158056524926395,0
36,7.233366700033367,-0.6236855621971298,0.24399677683927828,0.7426182682905758,-0.44238199300275366,0.47120274658261246,0.7630636565057425,0
37,7.433366700033367,-0.7579772289057087,-0.11068185474785029,0.6428219407347566,-0.6577548383563183,0.28487367635106614,0.6972844191153864,0
38,7.633366700033367,-0.7958777677668716,-0.24578960424579194,0.5533227351366639,-0.7903425634397814,0.009650710359757626,0.6125891740840572,0
39,7.833366700033367,-0.6540248553724997,-0.5262320857813692,0.5434439073622691,-0.8310291840829883,-0.211954650220192,0.5142623080222768,0
40,8.033366700033367,-0.4941034264558074,-0.6506359073167557,0.5766582350705942,-0.8009270780730693,-0.4309986816167738,0.4156392089949387,0
41,8.233366700033368,-0.33269335795050203,-0.7732095511311579,0.5398723178818978,-0.6366856537742533,-0.6791684973194044,0.3651869802265051,0
42,8.433366700033368,-0.02339055619423852,-0.8688271330130992,0.49456273092618147,-0.35795796197961105,-0.8723141241764737,0.33306781023934945,0
43,8.633366700033367,0.23441587702040007,-0.8637879712086455,0.4460039656729623,-0.19041587314561748,-0.9294145521673777,0.31611767662328677,0
44,8.833366700033368,-0.5468096923442197,-0.7525763461694785,0.36691688915150367,-0.5198422124177527,-0.795976553227476,0.31013771279985186,0
45,9.033366700033367,-0.9932134707696677,-0.01160626889152108,0.11572508804960299,-0.9291637456192756,-0.320536575720216,0.18414949756194418,0
46,9.233366700033368,-0.9974518586060136,0.005535296695071693,-0.07112770384250353,-0.993361438302353,0.07891454774482763,-0.0836991460416992,0
47,9.433366700033368,-0.8449853284128284,0.5026184456723345,-0.1826868710033404,-0.9188791231091646,0.3146769198670201,-0.23799074187274197,0
48,9.633366700033369,-0.7092979564511802,0.4073240789213082,-0.5753116578908234,-0.7292291127043162,0.3677251593671274,-0.5770642151033943,0
49,9.833366700033368,-0.5450478157605056,0.07653738229973597,-0.8349041308110805,-0.5887333865331097,0.2147096316724885,-0.7792899163009364,0
50,10.033366700033367,-0.4475274790589972,0.10270461017197045,-0.8883529245387342,-0.535381071028245,0.16064914109594455,-0.8291917524009658,0
51,10.233366700033368,-0.3007283336154181,0.1102880134952161,-0.9473114711857832,-0.48879369520546845,0.154833145181661,-0.8585496029237557,0
52,10.433366700033368,-0.5092568462948439,0.5785656801797525,-0.6371178997799157,-0.5900106586254443,0.2694807285790174,-0.7610962880167604,0
53,10.633366700033369,-0.6433425295919998,0.7288047966951395,-0.234422605420901,-0.6602169176456356,0.4830115115098149,-0.5751638909071917,0
54,10.833366700033368,-0.6139346473213267,0.7893147544242014,-0.0081527459607649,-0.6906222562681361,0.6275960863992686,-0.359394005909157,0
55,11.033366700033367,-0.5747995767408024,0.8042655321779913,0.15087213238052505,-0.6983116632258908,0.7021776469281487,-0.13895097393375208,0
56,11.233366700033368,-0.6082846949964267,0.7927746716230405,-0.038704649153363,-0.6967412158861539,0.7159383144566416,-0.044542204463487486,0
57,11.433366700033368,-0.6273935520928994,0.752707335272646,0.19952192415623615,-0.6455877351003279,0.7635081215810231,-0.016487103076250207,0
58,11.633366700033369,-0.6305567291448735,0.7059830339122408,0.3224688623079547,-0.5793130376488508,0.8104664774373342,0.08683601418985197,0
59,11.833366700033368,-0.47514687107421844,0.8228797798079203,0.31161565893203896,-0.529334519200523,0.8396082800405498,0.12191350569194986,0
60,12.033366700033367,-0.12446560840382692,0.9201044925636974,0.37137048225291935,-0.42255249218754404,0.8975488634931562,0.12591834254086556,0
61,12.233366700033368,-0.21065408881173442,0.9767161408456349,0.04062554711641478,-0.2777397593036527,0.9570624237162018,0.08301893285521562,0
62,12.433366700033368,-0.3831978028031908,0.8798600919042889,-0.2810794595856893,-0.2455938060982964,0.9642304108222246,-0.09971658463744341,0
63,12.633366700033369,-0.19068047614246125,0.9097892006092463,-0.3686794901711694,-0.2533352814811031,0.9280549371700905,-0.27301148098772354,0
64,12.833366700033368,0.0696953892502204,0.8634321034095321,-0.49962741670073685,-0.22823720279758758,0.8934776597382282,-0.3867886384161666,0
65,13.033366700033367,0.06373254440037712,0.8066101505444511,-0.5876378372968443,-0.21260490107935706,0.8481628978517658,-0.48519980909387467,0
66,13.233366700033368,-0.13848909402393306,0.5880489886395597,-0.796880893105376,-0.1804874257370327,0.7998530980227371,-0.5724153306247561,0
67,13.433366700033368,-0.1298413760796419,0.4584270160517002,-0.8791961601438438,-0.15312203800481106,0.6903006942458348,-0.7071340700326717,0
68,13.633366700033369,-0.09239632996634156,0.3342726420571793,-0.9379364152120675,-0.11882712507840504,0.5681272842950527,-0.814316586583578,0
69,13.833366700033368,-0.10146148397406535,0.2900795751032125,-0.9516088520908789,-0.15206458409983487,0.517782419522325,-0.8418893800827704,0
70,14.033366700033367,-0.020747244439956014,0.48442840509321855,-0.8745848570533274,-0.14563885331437146,0.558169450276059,-0.8168452663655443,0
71,14.233366700033368,-0.13545549281323882,0.8024630205040983,-0.5811238337825784,-0.13266949618224994,0.6684684663649096,-0.7318119391336096,0
72,14.433366700033368,-0.2244621224403977,0.9045788643969949,-0.3624276944106167,-0.13867546475020706,0.7805079731397613,-0.6095706844506025,0
73,14.633366700033369,-0.20461544667207743,0.9726835008223674,-0.10963268769454652,-0.22288223347787073,0.8588180713996179,-0.46125375904956795,0
74,14.833366700033368,-0.15445200711715307,0.9868453404133247,0.04775826213329563,-0.2088993136650576,0.9367318144789396,-0.28088179808108205,0
75,15.033366700033367,-0.22004033774586257,0.9691421294508926,0.11111157765091746,-0.1881355466306074,0.9761525831573186,-0.10831043573588445,0
76,15.233366700033368,-0.3446193189208617,0.9129429765472268,0.21856954636822454,-0.17248361709370025,0.9842059236103661,0.03985099452384949,0
77,15.433366700033368,-0.3753368584219323,0.8774493145917202,0.2986719655951582,-0.17819270265617537,0.9766914026023595,0.11967148700807292,0
78,15.633366700033369,-0.10973715529531974,0.8741822350815007,0.47303612612104295,-0.20145758669137742,0.9594176568748142,0.19731345732444963,0
79,15.833366700033368,-0.07705131437275548,0.8838966076235945,0.4612915368667982,-0.20215386050351936,0.9563800911346851,0.21088133621716118,0
80,16.033366700033366,0.0518335714988683,0.9943495351552099,-0.09264061097752803,-0.14142671886127128,0.9827733887933091,0.1189745748967015,0
81,16.233366700033365,0.07643990781637872,0.9810567786690123,-0.1780015098829354,-0.013977185249307855,0.9984124419462095,0.05456403631985028,0
82,16.433366700033368,0.25337653537108795,0.9260963237726187,-0.2795459361503665,0.11078478107439005,0.9883041208938201,-0.10479359191569311,0
83,16.633366700033367,0.5604139334949065,0.7400757657623473,-0.3717849971099455,0.2974659900805772,0.9180546551005174,-0.2620870752129,0
84,16.833366700033366,0.5264530392067029,0.7495373638819722,-0.4012990626140184,0.3899255509536545,0.8705818410977479,-0.3000755282663761,0
85,17.033366700033366,0.7225142360343602,0.5583132946606604,-0.40774924124128464,0.4251524709426021,0.8287706505349866,-0.3638469255926387,1
86,17.233366700033365,0.762962621600207,0.4737134902773115,-0.43986767006706323,0.5081983812202067,0.7611793076813136,-0.4029149623468432,1
87,17.433366700033368,0.7123099495998272,0.5173609052957892,-0.4742912916896256,0.5273424861901421,0.732842862941978,-0.4299432991614188,1
88,17.633366700033367,0.44369745787771725,0.7299337305021802,-0.5199320291615265,0.5211613522752139,0.726473801025571,-0.44791367619009925,1
89,17.833366700033366,0.42633859858814516,0.7392670091348281,-0.52126738681673,0.4992541439297225,0.7357936300367912,-0.457551126942423,1
90,18.033366700033366,0.7110903914259039,0.42727531073675523,-0.5583782446125249,0.4888151838626168,0.7267744472820653,-0.4825542651383414,1
91,18.233366700033365,0.5562447853025,0.47685449077894915,-0.6805891076469891,0.5012427121693767,0.7015389359721208,-0.506555885181677,0
92,18.433366700033368,0.381235350915162,0.5207620389955895,-0.7638497927955139,0.5157003787093795,0.6968160655970382,-0.4984982348262294,0
93,18.633366700033367,0.27297024717531154,0.8423516888401641,-0.46468363051131145,0.5310114439900732,0.705822894619351,-0.4688719311099121,0
94,18.833366700033366,0.48244918238397416,0.7853361495811095,-0.3879303011858603,0.555624360468447,0.720530648971519,-0.4148700446485763,0
95,19.033366700033366,0.7088456647535204,0.6460688659049358,-0.2830774524197402,0.561755933708929,0.7519745981187387,-0.34491227105884603,0
96,19.23336670003337,0.7093945497005372,0.6619999186317383,-0.2418997325065578,0.5509920357033746,0.7846369435066011,-0.28417009602713306,0
97,19.433366700033368,0.44052113646470364,0.8937565070848307,-0.08450109094780528,0.4769126659637224,0.8404513691263643,-0.25728545465493086,0
98,19.633366700033367,0.15623993541034015,0.9873491281244478,0.027032975693877203,0.35650406175263305,0.9125789777948842,-0.20026098781519872,0
99,19.833366700033366,0.06884720326621929,0.9976271463491322,-0.00037345643306136816,0.16522886261038433,0.9767668897489289,-0.13647661356687926,0
100,20.033366700033366,-0.4304207712497145,0.8938671273248212,0.12545723719607574,-0.09506922965721087,0.9945642495355371,-0.042471109217893065,0
101,20.23336670003337,-0.5178046045377908,0.8415358868521927,0.15393421536278395,-0.27336273978432224,0.9579170023279856,0.08756614156496138,0
102,20.433366700033368,-0.564971187940275,0.8192726982069708,0.09797858322115287,-0.29326251477688065,0.9545024042110049,0.05405791137430242,0
103,20.633366700033367,0.08509002969949919,0.9962900512222899,-0.012877137928343132,-0.12398369450960484,0.9922770962806453,-0.003769309300192393,0
104,20.833366700033366,0.3965976839875414,0.9081046562368914,-0.13437339906616885,0.06291077809576273,0.9957812376970585,-0.06679790902341401,0
105,21.033366700033366,0.4516301730026616,0.8662638770803862,-0.21358155842498136,0.2004988169208653,0.9708642673415645,-0.13123566136024406,0
106,21.23336670003337,0.4187144762469083,0.8024776675091805,-0.42509737770339456,0.29108950279746054,0.9226618415329865,-0.2529071520145004,0
107,21.433366700033368,0.31447834885535186,0.69604036642043,-0.6454697331513891,0.3446216532631471,0.8144881912354672,-0.4667385804067975,0
108,21.633366700033367,0.26108749972346934,0.627295316136628,-0.7337124122169362,0.31666976358660426,0.758910860440113,-0.5690119214357918,1
109,21.833366700033366,0.2461762151340177,0.6258105748923882,-0.7401070162180254,0.28836369781484805,0.7407066667988309,-0.6067948677620081,1
110,22.033366700033366,0.425931289455465,0.5235228844383568,-0.7379067191265765,0.2971224655163225,0.7163368201095954,-0.6313317674889922,1
111,22.23336670003337,0.4379359987047874,0.4946483250568496,-0.7506897465377386,0.320064138149016,0.6969161963123692,-0.6417684650934687,1
112,22.433366700033368,0.4414334874559699,0.4860517727909737,-0.7542480694832515,0.33086948474805494,0.6864693245597715,-0.6475223938220267,1
113,22.633366700033367,0.44181855317253954,0.4916359786560867,-0.7503935171384385,0.3307256369605419,0.6876991232372976,-0.6462897716626004,1
114,22.833366700033366,0.4334147205599949,0.5028768404900044,-0.7478412687868278,0.3170529743421333,0.6941014546416959,-0.6462975956361651,1
115,23.033366700033366,0.43268045447488457,0.5090595010501423,-0.7440739537881885,0.31151083632734977,0.6965174943722082,-0.6463933623453261,1
116,23.23336670003337,0.49636413233272564,0.6078106408045607,-0.619829712952138,0.31411535823731396,0.6909369380527882,-0.651104975678793,1
117,23.433366700033368,0.49060143700821746,0.6271780928373696,-0.6049445180100005,0.3173805300947983,0.6898815718080699,-0.6506404659997499,1
118,23.633366700033367,0.4981984116217566,0.6345304177294002,-0.5909056537499976,0.3275250489073065,0.6945627762089861,-0.6405543632223049,1
119,23.833366700033366,0.5092882450542318,0.632691595195534,-0.5833753755674912,0.3414412801617609,0.6929778847230882,-0.6349799236875229,1
120,24.033366700033366,0.4353459830670138,0.7359626899774621,-0.5184908812973991,0.36735559165268616,0.6972787294286428,-0.6155097422201234,1
121,24.23336670003337,0.4348190527497795,0.7485136493967454,-0.5006592733911467,0.39045355259645437,0.7068395856654618,-0.5898506789019459,1
122,24.433366700033368,0.4196138970044002,0.7619437538789968,-0.4933212881739077,0.3832770892050826,0.7239219602856316,-0.5736163075669031,1
123,24.633366700033367,0.39411310999000965,0.8016303508752275,-0.44951489084307633,0.36147028803456827,0.7583492387371205,-0.5424441565498115,1
