,timeStamp,x_gaze,y_gaze,z_gaze,x_head,y_head,z_head,fixations_head
0,0.033366700033366704,-0.9929667567943842,-0.11354473844948132,-0.03353523925188558,-0.9721289034944822,0.006458153231978291,0.23435803218035411,0
1,0.2333667000333667,-0.9961461413718604,-0.07814192685391833,-0.03983345701179405,-0.9725279304134925,0.025982924969193927,0.23133160652123289,0
2,0.43336670003336675,-0.8733671774796914,0.36101049194786494,-0.3269574865402501,-0.9852093777041516,0.10120174611317334,0.13827757832506157,0
3,0.6333667000333668,-0.8223212023309374,0.392421727127717,-0.41205949603801284,-0.9328832480777085,0.35982435732720447,0.015977400603629278,0
4,0.8333667000333668,-0.7003761120908684,0.4959348405387207,-0.513343876511947,-0.824935241521195,0.5543454281725055,-0.11037659879072778,0
5,1.0333667000333666,-0.4927865717310235,0.6342980462714232,-0.5956738899916972,-0.7133705174532103,0.6502126669035783,-0.2613924111879977,0
6,1.2333667000333668,-0.49876599289558077,0.6643034046480538,-0.5567166881851932,-0.552069454369434,0.7709788716408097,-0.31750731808211835,1
7,1.4333667000333667,-0.7785790657686322,0.49809045279092634,-0.38173359713990845,-0.4955848162720533,0.823332656565261,-0.27662072683330324,1
8,1.6333667000333667,-0.7528901338319562,0.5372486019862933,-0.380158369685941,-0.5531389337166437,0.7872983477447622,-0.2723942577316598,1
9,1.8333667000333667,-0.7517404275307022,0.5492255186796325,-0.36501734102237554,-0.5836241512508451,0.7694188032005381,-0.2595718693506324,1
10,2.033366700033367,-0.4502766929087755,0.7584986837181142,-0.47109515665205537,-0.5580578385766983,0.7915199579301777,-0.24913370908272067,1
11,2.233366700033367,-0.4309166469290111,0.7573087882970201,-0.49070789943464066,-0.5203160533762315,0.8108509900447591,-0.26794006147348837,1
12,2.433366700033367,-0.6031626513199164,0.561364798386761,-0.5666254311138182,-0.5270229390802686,0.7896706564845575,-0.31411315790721644,1
13,2.633366700033367,-0.5786341739293627,0.5677306217917132,-0.5855462695988072,-0.5220807651734055,0.7710241696922696,-0.3646277614037335,1
14,2.833366700033367,-0.3319895691270985,0.654997012261511,-0.678794401803151,-0.4597492414976612,0.7812822308597726,-0.4221714233402141,0
15,3.033366700033367,-0.19195779313731465,0.5399719970828489,-0.8195013410728573,-0.3748764543981834,0.7662267432027753,-0.5218852574452691,0
16,3.233366700033367,-0.3390253614738228,0.5134833749447384,-0.7882871481464766,-0.2751874840105605,0.7743907932588835,-0.5697286616976673,1
17,3.433366700033367,-0.3122086888512628,0.5035261180375428,-0.8055974075552987,-0.23252136293480435,0.7598309025806508,-0.60711680528743,1
18,3.633366700033367,-0.3080645166218495,0.4982189551029451,-0.8104777149155158,-0.22312270283704583,0.746403716175657,-0.6269750808109207,1
19,3.833366700033367,-0.32336675966247963,0.5057629859129752,-0.7997735559680504,-0.24498449524998012,0.7392670960228781,-0.6272692865309231,1
20,4.033366700033366,-0.31383854155653235,0.5250748578189824,-0.7910763322967286,-0.24714495808938736,0.7443832027976439,-0.6203329888726837,1
21,4.233366700033367,-0.16632888219294756,0.5991109948411855,-0.7831990288610232,-0.2516696607877264,0.7431163430871299,-0.6200326462984045,1
22,4.433366700033367,-0.1546068914372195,0.5902292286981532,-0.7922917181887635,-0.22975680685292804,0.7372851549161983,-0.635312844231048,1
23,4.633366700033367,-0.12036141212259613,0.5814521592858996,-0.8046281855202563,-0.19047771626700283,0.7384051749504862,-0.6468972385256015,1
24,4.833366700033367,-0.08348212845735367,0.5731255642729762,-0.8152041595852003,-0.15034505811055465,0.7425775081933059,-0.6526676089918623,1
25,5.033366700033366,-0.07041302386274223,0.5578989892892551,-0.8269163946981174,-0.1386494351195407,0.7416809775945635,-0.6562664562625499,1
26,5.233366700033367,-0.1919637065680722,0.673944666680031,-0.7134062808906224,-0.12995061003565572,0.7432765659757233,-0.6562414078848555,1
27,5.433366700033367,-0.18326841819636147,0.6666511807148057,-0.7224879861584961,-0.11721669171074386,0.7462568844992546,-0.6552563693104058,1
28,5.633366700033367,-0.20867482353923072,0.6726045646056741,-0.7099703639536533,-0.11149530953408979,0.7519003846464403,-0.6497804302381174,1
29,5.833366700033367,-0.22435124113119087,0.6877862868279796,-0.6903742059595466,-0.10413834863913543,0.7637239486107514,-0.6370878547430614,1
30,6.033366700033366,-0.2458601939438469,0.7093712927845585,-0.660564254260748,-0.10475765847478383,0.7771079326653552,-0.6205877004738803,1
31,6.233366700033367,-0.2582949203481413,0.7254478624991697,-0.6379726741152267,-0.1072007171984467,0.7806516328872422,-0.6157036903435135,1
32,6.433366700033367,-0.13867978954567342,0.4007549755340034,-0.9056287128599162,-0.09514734128608504,0.7563654415588441,-0.647192631495202,1
33,6.633366700033367,-0.12641208099400192,0.34861323213521295,-0.9287027512390638,-0.08151146153395775,0.7372040930126111,-0.6707354224163589,1
34,6.833366700033367,-0.12337082290609686,0.32130371715590356,-0.9389055124970093,-0.0707869646736165,0.7215014933336031,-0.6887850178028534,1
35,7.033366700033366,-0.10300124875966662,0.2855838745793781,-0.9528024943996418,-0.06061625769892903,0.7025948579359698,-0.7090036212210145,1
36,7.233366700033367,-0.09693745979214974,0.2756814538487843,-0.9563487151101667,-0.0600132528740025,0.7030323450627021,-0.7086211479169384,1
37,7.433366700033367,-0.08518495105546525,0.28073137946512267,-0.9559986488993002,-0.05332257177465799,0.7137125242998158,-0.6984061397188039,1
38,7.633366700033367,-0.08032981816013114,0.2779871600351848,-0.9572200683071437,-0.05549990742509853,0.7188746607545958,-0.6929206176762028,1
39,7.833366700033367,-0.0507192623122214,0.728393940174743,-0.6832787310806748,-0.054010296447928735,0.7430637573323553,-0.6670375854603169,1
40,8.033366700033367,-0.08307976369485237,0.8397766706261073,-0.5365378796846859,-0.05911345242650512,0.7861465515641836,-0.6152066313085077,1
41,8.233366700033368,-0.10259776088385375,0.8483807312676425,-0.5193494336912284,-0.06252305955234899,0.8280872517363874,-0.5571017595878606,0
42,8.433366700033368,0.04844370742912696,0.922541163397871,-0.3828459338258984,-0.050027679479890896,0.8706743735397662,-0.48930907057502365,1
43,8.633366700033367,0.037285370925055406,0.9201051660578736,-0.38989265767463976,-0.03830848777128204,0.8992783827591843,-0.43569582287038694,1
44,8.833366700033368,0.03831362080144973,0.927251885264374,-0.37247282818314037,-0.01723119965356562,0.9226317742816211,-0.38529689181778665,1
45,9.033366700033367,0.0725364639769111,0.7855206880960193,-0.614569532247477,0.015041148889190559,0.930013254999155,-0.36721806786427313,1
46,9.233366700033368,0.07536824805115366,0.7352173152592859,-0.673628329666017,0.057283951050818904,0.9073102902693315,-0.4165412177964971,1
47,9.433366700033368,0.0639674607880138,0.7218386697489503,-0.6890987583905517,0.06343576628206371,0.8988591731045387,-0.43362205949655336,1
48,9.633366700033369,0.07780221354498867,0.9922703773838853,-0.09667633492195504,0.1298735464188276,0.9778887131278432,-0.16391011767968355,0
49,9.833366700033368,0.09614381176053788,0.9902495145635618,-0.10080806697276135,0.17305848698733073,0.9788348665493094,-0.10923856511805705,0
50,10.033366700033367,0.0970744409951203,0.9942555403450628,-0.04508296128952236,0.169455345245831,0.9845383299735317,-0.04437524963924458,0
51,10.233366700033368,-0.3626618914909045,0.9317585911294856,-0.0173862105312033,-0.0008889828634298103,0.9996038327994875,0.028131604327577317,0
52,10.433366700033368,-0.4605805914596349,0.8776204808210617,-0.13284506168503885,-0.19289934952889526,0.9749563767403354,0.11067928624944535,0
53,10.633366700033369,-0.4891212101853221,0.860691448992359,-0.14131762585848828,-0.2972283086430704,0.9434853660915614,0.14659705492352768,0
54,10.833366700033368,-0.6538215643222056,0.7462277570745437,-0.12514590124634517,-0.39278089598553373,0.9016904294812738,0.18076929255456403,0
55,11.033366700033367,-0.7177239623062707,0.6646673589351554,-0.20758038418297714,-0.5980948783062503,0.788984157034021,0.14066455307982562,0
56,11.233366700033368,-0.9622455976520403,0.23655340529387464,-0.1346324487006761,-0.8122593791629814,0.5677342373930346,0.13383772507599428,0
57,11.433366700033368,-0.9823147128148881,0.11015010936310632,-0.1514092414441735,-0.9297665046082517,0.3325876338136749,0.15785978823872499,0
58,11.633366700033369,-0.9673691470715065,-0.1401160845104974,-0.21110285681533006,-0.9771489406949804,0.18712568772262894,0.10081629180351026,0
59,11.833366700033368,-0.9004997813971434,-0.2443940202461237,-0.35968278603741205,-0.9980184282183548,-0.028708114285386405,0.05599161643265567,0
60,12.033366700033367,-0.7876925828769432,-0.4813617084937355,-0.3844883619521433,-0.9638335597572066,-0.2661957320853011,-0.012833600637471769,0
61,12.233366700033368,-0.7468526518598776,-0.5668941817446809,-0.34762350771185957,-0.940335014966971,-0.3378111310210904,-0.04066570281352607,0
62,12.433366700033368,-0.7565082062156587,-0.5475326897701344,-0.35763569111799887,-0.9422200745390794,-0.32941602159321043,-0.06088034044971667,0
63,12.633366700033369,-0.8716990368723012,-0.30920089847483473,-0.38017837063444015,-0.9602752933729475,-0.2664850341020167,-0.08280753309419903,0
64,12.833366700033368,-0.8845783227699939,-0.28795721478388003,-0.3668812251115269,-0.9903111915165014,-0.10435135521057615,-0.09162171479995236,0
65,13.033366700033367,-0.8846464656673714,0.06646771337208539,-0.461500459221131,-0.9845075069837289,0.09674910185713394,-0.14623467435092544,0
66,13.233366700033368,-0.8161025270083699,0.3573172444641991,-0.4542037562802235,-0.8564060274428866,0.491814204424913,-0.15712257789822495,0
67,13.433366700033368,-0.5442665304868737,0.759894276177833,-0.35543583503066795,-0.5784405593420301,0.8084554282409648,-0.10865698254506136,0
68,13.633366700033369,-0.3395705182896553,0.9164979767924498,-0.21147889172170659,-0.40537172833972757,0.9119869809287507,-0.06287693121745755,0
69,13.833366700033368,-0.20703522523611595,0.9622914782700731,-0.1764412830383758,-0.3036995746430739,0.9522401478619191,-0.03170597990169208,0
70,14.033366700033367,-0.2735168888145291,0.9526008552038792,-0.1331920500557704,-0.31209479157269227,0.9493957727482857,0.03527758156228557,0
71,14.233366700033368,-0.5092211968945896,0.8325306194938092,0.2181433937539625,-0.42657882006309433,0.8668032342694326,0.25822986530149694,0
72,14.433366700033368,-0.630388983295265,0.648963288823358,0.4259769706211044,-0.5189135346019662,0.7322025448291335,0.4411441679911849,0
73,14.633366700033369,-0.6329699582226231,0.583776978875697,0.5084815344950244,-0.5597427661004114,0.6583479443342319,0.5032554222153508,0
74,14.833366700033368,-0.6287155214187456,0.5756145319860844,0.5228620312220001,-0.5673071682882646,0.6363152247281638,0.5227480383395975,0
75,15.033366700033367,-0.5774450294461595,0.5979870243966882,0.5558495809309553,-0.5226321091773779,0.6507854740406028,0.5507576102375288,0
76,15.233366700033368,-0.24423256927263476,0.760360595544209,0.6018323826865281,-0.4091837271269904,0.6861287487538673,0.6014948192527657,0
77,15.433366700033368,0.07192758173360941,0.897509114899688,0.4350905786821102,-0.19301920733754813,0.803520221375709,0.56311529853052,0
78,15.633366700033369,0.1439862880092891,0.899272213900607,0.41301021073528893,0.06444907495552143,0.8699386837782088,0.48893046867997025,0
79,15.833366700033368,-0.004908461073631076,0.8497103555302199,0.5272269138754168,0.13416532784110996,0.8626186066725278,0.4877384588359161,0
80,16.033366700033366,0.32596018428000517,0.8105504431627457,0.4865777814006946,0.2291965137492955,0.864984347918872,0.4463978449102692,0
81,16.233366700033365,0.4789528953636932,0.8177166645169281,0.31928604822955425,0.3922185005454364,0.8481342337049796,0.35613616700295453,0
82,16.433366700033368,0.5976621601326765,0.7507639995097094,-0.2813420682829501,0.5339190766916204,0.8378206473837309,0.1139604420940621,0
83,16.633366700033367,0.38679680450905,0.6866413387989003,-0.6155582051065859,0.5249080051077276,0.8242357303385651,-0.2123841966980553,0
84,16.833366700033366,0.19799459543393122,0.5123128179943868,-0.83566363849195,0.40518285446530666,0.7624912149053742,-0.5044145137081932,0
85,17.033366700033366,0.1197488312015059,0.44582211990268317,-0.8870754504727043,0.30225476627832937,0.709682733871051,-0.6363901896693127,0
86,17.233366700033365,-0.1152500967076112,0.45291836677182024,-0.8840714723650084,0.19718827876143213,0.7015525191801488,-0.684792556582715,0
87,17.433366700033368,-0.18110182262270058,0.4511493501200644,-0.873880079718596,0.03746429125143308,0.7303940763939941,-0.6819977419681037,0
88,17.633366700033367,-0.4614610229514109,0.4884533983441527,-0.7405855804312466,-0.1473814906513814,0.7400382062959195,-0.6562180654597182,0
89,17.833366700033366,-0.6369609103675422,0.4275831762476141,-0.6414463547747026,-0.4636458099914261,0.712429873854734,-0.5267601329986186,0
90,18.033366700033366,-0.7814780119866894,0.2406563967117432,-0.5756532076719906,-0.7468252331348924,0.5354491681235388,-0.39439353380706493,0
91,18.233366700033365,-0.8160551142464139,0.01505624011630125,-0.5777779505535262,-0.8467759392917231,0.38791209761620277,-0.36399823235782036,0
92,18.433366700033368,-0.7936731941448012,-0.02096762450129661,-0.6079829106305225,-0.9040775866704448,0.21104400461931577,-0.37162366097220917,0
93,18.633366700033367,-0.8314066488733103,-0.243754909874552,-0.49934610053679307,-0.934729358838314,0.08416330544928272,-0.34525000179806703,0
94,18.833366700033366,-0.8333181011116104,-0.253898764841472,-0.4910360063902796,-0.954936347121132,-0.08045592744265213,-0.2856981216009165,0
95,19.033366700033366,-0.7422473970372505,-0.3568441258080276,-0.5672134267343564,-0.9388471259287632,-0.2009167852894938,-0.27963998198440165,0
96,19.23336670003337,-0.5510478882710306,-0.3518351361074167,-0.756675797044093,-0.8997958658282137,-0.250876508476296,-0.3569711155446592,0
97,19.433366700033368,-0.4603930354337284,-0.30520940713172584,-0.8335979071005506,-0.8183562179316722,-0.19789970995326497,-0.5395635322860345,0
98,19.633366700033367,-0.4207309983863801,0.038116407539417384,-0.9063843370629754,-0.7547707874131324,0.07250960035884114,-0.6519688768059111,0
99,19.833366700033366,-0.3842623559211462,0.3143476444214402,-0.8680599059216029,-0.6742955187518167,0.29749348369806905,-0.6758869584097664,0
100,20.033366700033366,-0.3272232983339279,0.4055115764100134,-0.8535134881329829,-0.58596141177813,0.46568772857697976,-0.6631622451254251,0
101,20.23336670003337,-0.34671702425050915,0.49300245943347654,-0.7979573172090192,-0.5172630842053945,0.5936525757471672,-0.6164539893836987,0
102,20.433366700033368,-0.5149161881739956,0.5208653408174524,-0.6808528592078333,-0.571934558776853,0.624150160684606,-0.5322851091230217,0
103,20.633366700033367,-0.6715425723809241,0.442842243162652,-0.5940718148091881,-0.6018207765698275,0.6560748780820008,-0.4553872058354054,0
104,20.833366700033366,-0.6613639439683521,0.48423359369322916,-0.572813722214794,-0.617858892275157,0.6878320738788267,-0.3809690635472494,0
105,21.033366700033366,-0.6810763794868432,0.3609248109231021,-0.6370778964657438,-0.6607863846201325,0.6817318069041997,-0.3140113013185823,0
106,21.23336670003337,-0.6938897185039695,0.2650999176224415,-0.6695066035753914,-0.7276938472382508,0.5864889807947582,-0.3556576163923936,0
107,21.433366700033368,-0.7091734945993582,0.7026676384845032,-0.05771606695146303,-0.7629912416418274,0.6372295573814765,-0.1085488663103884,0
108,21.633366700033367,-0.6831994898533984,0.7300441089567107,0.016554638070891498,-0.7086537120332994,0.6914019099851183,0.14061762083877047,0
109,21.833366700033366,-0.5922845264977361,0.7737126209932595,0.2248728969598016,-0.6269979462647741,0.7222552028368644,0.2919263560469244,0
110,22.033366700033366,-0.5945703850928515,0.7041787221116703,0.3880958444710703,-0.6185940013009087,0.6799310486858801,0.393745134049236,0
111,22.23336670003337,-0.7708428539179094,0.33222521577720254,0.5435326122372823,-0.7061135557330536,0.45985590131834614,0.5384572373296838,0
112,22.433366700033368,-0.8252307949138439,-0.0184743638748044,0.5644934304358972,-0.756755302971396,0.24148592056810453,0.6074586089537671,0
113,22.633366700033367,-0.8609677992965532,-0.0573824348961254,0.5054124105518606,-0.7777309060817681,0.17101849672779024,0.6048861971496775,0
114,22.833366700033366,-0.9000301882964509,-0.19135923636368382,0.39157030379404845,-0.8573521040497282,0.10579540409261651,0.5037407092487008,0
115,23.033366700033366,-0.9456608431007564,-0.15723032942552226,-0.2846123562579611,-0.9874322513425986,0.03844486771736804,0.15329560057184133,0
116,23.23336670003337,-0.8230440437342353,-0.44863046468674644,-0.348323424748541,-0.980280079592864,-0.17954126136751844,-0.08255847031025354,0
117,23.433366700033368,-0.5988854550345681,-0.7401871800262221,-0.30571089328459883,-0.8677246705416384,-0.49030462848883416,-0.08157982235719519,0
118,23.633366700033367,-0.581057042882868,-0.7467894000300329,-0.3235402678477606,-0.7647187291443044,-0.6376393745630554,-0.09285091977334456,0
119,23.833366700033366,-0.7855896203542234,-0.5091639541278943,-0.35156936187409,-0.9365986188211266,-0.3314792634575291,-0.11359808589942172,0
120,24.033366700033366,-0.3901632036298338,0.9206569631197699,0.012784005334315469,-0.6204562905466755,0.7814875238587206,0.06566004549362785,0
121,24.23336670003337,0.20500305596354113,0.9786859999109685,-0.012143336603955735,0.3088849231421142,0.9396954586640449,0.1468419191568286,0
122,24.433366700033368,-0.077534001188371,0.9576033132254994,-0.2774605794689906,0.15519715701052011,0.985630512179137,-0.06668085120440993,0
123,24.633366700033367,-0.5662665662055365,0.7599720736750009,-0.3190370248606098,-0.49700289543601817,0.8598975989107417,-0.11646562289257435,0
124,24.833366700033366,-0.7490457270577342,0.5671984372673331,-0.34236885304893844,-0.7222338690699147,0.6814109017946652,-0.11856399657435049,1
