,timeStamp,x_gaze,y_gaze,z_gaze,x_head,y_head,z_head,fixations_head
0,0.033366700033366704,-0.9982510576892427,-0.041472390977170766,0.04212916577556312,-0.9856043594484729,-0.09360317589967253,0.1407923722992863,0
1,0.2333667000333667,-0.998500839780335,-0.03615183322694145,0.041098879696374754,-0.985869070401455,-0.10933885268283532,0.12691411001055897,0
2,0.43336670003336675,-0.9677210080845823,-0.24892333029490218,0.03941099017603271,-0.9821516563690793,-0.17705285247793667,0.06348552056098913,0
3,0.6333667000333668,-0.8914950408918895,-0.34015429389437,-0.2992183958422197,-0.9417682836145721,-0.3173321130289065,-0.11123322353628148,0
4,0.8333667000333668,-0.8774606734208709,-0.36412455498056917,-0.3122115870047014,-0.8620764848236688,-0.32017788150950055,-0.39282344444566325,0
5,1.0333667000333666,-0.9107725444162527,-0.23378397619188557,-0.34035044412113985,-0.8806308271997961,-0.16553856022647342,-0.4439440632146682,0
6,1.2333667000333668,-0.9276022530753276,0.13917430071564216,-0.3466764689301661,-0.9089514278390174,-0.044647357056975596,-0.4145044213723645,0
7,1.4333667000333667,-0.9041557708135202,0.28111759284062315,-0.3216756768860572,-0.9194668234999,0.12479766026442067,-0.37283549251047726,0
8,1.6333667000333667,-0.7723121016068748,0.5945150842188268,-0.22379864241736114,-0.8896383446841496,0.3405126908143457,-0.3042938104234458,0
9,1.8333667000333667,-0.7767132809371875,0.5864005740031165,-0.22989311869780926,-0.848339025563149,0.46531945838805844,-0.25258404413582936,1
10,2.033366700033367,-0.7724027643459161,0.5913164207875832,-0.23181643629766507,-0.828922466710459,0.5116713264288377,-0.22600884472339156,1
11,2.233366700033367,-0.7724670105104726,0.5939446109492119,-0.2247765930816708,-0.8181644929534871,0.5366035709782512,-0.2065513739570682,1
12,2.433366700033367,-0.7710164474042285,0.5918739314504721,-0.23498699347309496,-0.8119751179290786,0.5478323849552107,-0.2014350661090195,1
13,2.633366700033367,-0.7732774428382758,0.5818109936352338,-0.2520673800448591,-0.8111693148633216,0.5461438317894448,-0.2091201989825765,1
14,2.833366700033367,-0.7788276848521107,0.5653729338322381,-0.2716263665365142,-0.8138210395549381,0.5365782935132111,-0.22311219264793714,1
15,3.033366700033367,-0.7918244318052196,0.5438144640079556,-0.27799262208210035,-0.8242804992848343,0.5182837702372727,-0.22791136875413362,1
16,3.233366700033367,-0.8036670375413213,0.5219724560944698,-0.28576922131024374,-0.8342938226118947,0.49865081438982417,-0.23516203532883057,1
17,3.433366700033367,-0.6688547541738901,0.36640365840790523,-0.6468243014329998,-0.8393370054697366,0.4756184103124124,-0.2632499174187696,1
18,3.633366700033367,-0.680099847909278,0.35541930721423975,-0.6412030200592687,-0.8520207511319857,0.44501719008894147,-0.27571786334191306,1
19,3.833366700033367,-0.6880693836715366,0.3697818042358576,-0.6243572218769845,-0.8571370817753321,0.43044344952010183,-0.2829036228309979,1
20,4.033366700033366,-0.6912953852632955,0.38566459613002246,-0.6110429687064066,-0.8584954378578995,0.4239326187325057,-0.2885597303016712,1
21,4.233366700033367,-0.6931005213608443,0.3993748141358259,-0.6000928470855993,-0.8583613694833865,0.4225851150948415,-0.29092538541503227,1
22,4.433366700033367,-0.6986081778464781,0.4058665653525956,-0.589252870145671,-0.8612582195934546,0.41768619431854753,-0.2894348324898058,1
23,4.633366700033367,-0.6986537279723632,0.41887185090679263,-0.5800252933349002,-0.8590297713143796,0.42086485330341217,-0.29144575352792856,1
24,4.833366700033367,-0.697781163086332,0.43204703179539117,-0.5713464892328285,-0.855817544626154,0.4264853783976811,-0.29272265427029626,1
25,5.033366700033366,-0.7494667630569946,0.3051833405196114,-0.587505489116622,-0.857089082407338,0.4223478640906958,-0.2949925194240947,1
26,5.233366700033367,-0.7476671689684852,0.3048598986198399,-0.5899612247090067,-0.8589820150947824,0.41655151900440984,-0.2977158540602536,1
27,5.433366700033367,-0.8488574913529153,0.19527286560493448,-0.4912326000302429,-0.8586335563847793,0.4086955071324323,-0.3093806689174195,1
28,5.633366700033367,-0.8654346024862691,0.16848956369398402,-0.471841303560471,-0.863161193230779,0.38700230815430875,-0.3243176960692327,1
29,5.833366700033367,-0.7667917379038824,0.34551304856378184,-0.5409724243938002,-0.8639920186149571,0.36796251981137906,-0.34368790462236604,1
30,6.033366700033366,-0.7230828319994336,0.43174358304225346,-0.5392111799374303,-0.8616868190862168,0.36827970930664566,-0.34909294110034683,1
31,6.233366700033367,-0.7272217529355092,0.41885405843705265,-0.5437920556501497,-0.8666980360971562,0.3596179365145587,-0.34570139421521445,1
32,6.433366700033367,-0.9238488880946261,0.1709617306604466,-0.342454841717719,-0.8775354256387469,0.34857325453863136,-0.3292844711937843,1
33,6.633366700033367,-0.9924412669749436,0.11752683879303628,-0.035323841360820514,-0.919912192718325,0.27918011458133857,-0.2753543558952976,1
34,6.833366700033367,-0.9850782645372105,0.1540135295093443,0.07681565897935466,-0.9533076649764938,0.2405067040866953,-0.1826499964041067,0
35,7.033366700033366,-0.9908980246095582,0.12336691716490296,-0.05386750944774825,-0.9685979678704769,0.2225195000651526,-0.11091910893951913,0
36,7.233366700033367,-0.9943017340531035,0.10031708581247342,-0.036063055237790693,-0.9797341581922645,0.18593395593132722,-0.07449525691627898,0
37,7.433366700033367,-0.9633874102200793,-0.2626043817526826,0.05407066222768295,-0.9998877020892122,0.008653538057406993,-0.012235174287445662,0
38,7.633366700033367,-0.7956035805804289,-0.5905796669384353,0.1350207375423784,-0.9659827915838917,-0.24727731488539628,0.07570453029284731,0
39,7.833366700033367,-0.6972278153983928,-0.7163730044265229,0.026136028078152098,-0.8469714260571809,-0.5150053102645732,0.13194291887765824,0
40,8.033366700033367,-0.3517270939889721,-0.9203930020134272,0.17077696916968857,-0.664377822664536,-0.7352191660133635,0.13436847352762749,0
41,8.233366700033368,-0.016695647480838405,-0.9808627884166907,0.19398310662176155,-0.4249377956418247,-0.8936702887032829,0.14415715356532846,0
42,8.433366700033368,0.25028497560399354,-0.9475129772909586,0.1989386560026281,-0.10792460841279677,-0.9806186580543163,0.16352163885766524,0
43,8.633366700033367,0.37366208354799546,-0.9195649785637053,0.12156026290570109,0.17179033328979765,-0.975802027760921,0.1352718891930446,0
44,8.833366700033368,0.31057946520980423,-0.9017727952020252,-0.30057648215307553,0.3204227606778248,-0.9451223117620887,0.06382060990845334,0
45,9.033366700033367,0.5371106260158443,-0.8061410556108194,-0.24829171125823324,0.4724122595695223,-0.8769924605287052,-0.08781162328659349,0
46,9.233366700033368,0.8958801416375716,-0.4369261348851975,-0.0805873716765044,0.7049144382658976,-0.6975952563404095,-0.12828286345273265,0
47,9.433366700033368,0.9825513260425118,-0.17062944939711036,-0.0740167730351723,0.925654011724464,-0.36463779435603066,-0.10101450146179455,0
48,9.633366700033369,0.9764451086749728,0.2140879616401206,-0.02685692509389046,0.9962413060332271,0.0032497753505389684,-0.08656037842674366,0
49,9.833366700033368,0.8081306272321732,0.5882764793225161,-0.029251892336042765,0.9490660058993257,0.3009453151962779,-0.09330398548676563,0
50,10.033366700033367,0.4517801777313681,0.8918114325785995,0.02381259606006012,0.7284425179799681,0.6831063814751793,-0.05231796619605195,0
51,10.233366700033368,-0.19383973747038508,0.9721430529594723,-0.1317726859407856,0.2574811208993986,0.9653779029152688,-0.04182077167278054,0
52,10.433366700033368,-0.43007219463166446,0.8993111583961906,0.07922971531443165,-0.13592924652693578,0.9905173432715159,-0.019965786159279506,0
53,10.633366700033369,-0.4731380906110297,0.8586403218869343,0.19717288059682728,-0.33382316333214257,0.9425905164795395,0.009231135669942925,0
54,10.833366700033368,-0.47268743420489423,0.8053601932165575,0.3577171350760028,-0.49124031792242195,0.8649128399075824,0.10299868645026009,0
55,11.033366700033367,-0.6431381441264031,0.6403052652516512,0.4199791600313745,-0.62250415694977,0.7691985823067113,0.14429870254995983,0
56,11.233366700033368,-0.6802927368710274,0.5229253284010592,0.5135668340899475,-0.6997989242596308,0.6731883021826415,0.23895391900849072,0
57,11.433366700033368,-0.4713566410939185,0.5089115261432124,0.7202999204881573,-0.671507034371596,0.6205935519020611,0.4048974513713912,0
58,11.633366700033369,-0.48351674529389366,0.5110139813013255,0.7106871800834521,-0.6709855383229028,0.5992743139771852,0.4366333747764809,0
59,11.833366700033368,-0.6204712109540188,0.7387096677247416,0.2632935684502294,-0.7016664072939927,0.6240196571319708,0.34389492637728575,0
60,12.033366700033367,-0.5031375666599074,0.8398007694028845,0.20392953863006305,-0.6844418233231673,0.7158660000725914,0.13811321597199472,0
61,12.233366700033368,-0.4689986384713875,0.7674850619544186,-0.43704342666239376,-0.5772112040146249,0.7921094257591986,-0.19846884789160257,0
62,12.433366700033368,-0.45612959510375206,0.7985897779887672,-0.3926832807267697,-0.5019403196329121,0.8100621344640875,-0.3030763168482433,0
63,12.633366700033369,-0.2922767878642058,0.925449919719198,-0.24107410762566767,-0.43635468525141935,0.8563595545874156,-0.27612117254201685,0
64,12.833366700033368,-0.1300687972172479,0.9910145715936562,-0.031180552905624468,-0.3598387332229957,0.9136063921508849,-0.18931309065543633,0
65,13.033366700033367,-0.17188409092001344,0.968986855656353,0.1775396655787506,-0.32249990563480596,0.9424725602372106,-0.0879732008367243,0
66,13.233366700033368,-0.25451028006278437,0.9267383707362818,0.27637023998148785,-0.3179727526005991,0.9473055926147269,-0.03880003613992431,0
67,13.433366700033368,-0.28158881205469843,0.9169467997364571,0.28269472470970075,-0.3312932027873459,0.9435141246710372,-0.005090219361590263,0
68,13.633366700033369,-0.3099113794267533,0.9037312594258413,0.2953383612712531,-0.3532621562637664,0.9350551916403669,0.02962494790327093,0
69,13.833366700033368,-0.4290079589219056,0.866318630907326,0.2558206421001192,-0.3915936234575113,0.9183387314931738,0.05751876482440429,0
70,14.033366700033367,-0.44612063484164455,0.7872597011014708,0.4256742207253233,-0.4359248868165424,0.8952538124662612,0.09214176207675397,0
71,14.233366700033368,-0.507769712409347,0.6548177818120133,0.5598067450312866,-0.4761362072069736,0.865549579661055,0.15530047435577604,0
72,14.433366700033368,-0.523078413185169,0.6299758193399944,0.57403783908954,-0.5050921245998665,0.8430201856725857,0.18492947903390614,0
73,14.633366700033369,-0.5494183382240101,0.6806320918009894,0.4846436270433945,-0.5304796483429361,0.8273147583570614,0.18477454721511893,0
74,14.833366700033368,-0.6152926406594368,0.7109536958997149,0.34052871925415223,-0.5600844960549302,0.8112383777050497,0.16792156447989035,0
75,15.033366700033367,-0.7019681523277098,0.6535671521771451,0.2830029871091079,-0.6175671698625728,0.7735967256198916,0.14198202991264222,0
76,15.233366700033368,-0.8439652632105222,0.507951815788816,0.17235889106988025,-0.7010282844723065,0.7001530463691868,0.13544392208498085,0
77,15.433366700033368,-0.9083415409974861,0.4145519692765302,0.05533813935490689,-0.8068156289278193,0.5770255238548553,0.12684670172234405,0
78,15.633366700033369,-0.9916782269531353,0.1262237901199236,0.025334738894395203,-0.8973187566476444,0.4292097638619794,0.10294672201614805,0
79,15.833366700033368,-0.9950049797904621,0.0895311622088284,0.044150438114685005,-0.955575266843488,0.28419788412679603,0.07815031704893358,1
80,16.033366700033366,-0.9966898615368334,0.06205627233584757,0.05251989121720395,-0.9769092361459402,0.20604399252998942,0.05651740860175499,1
81,16.233366700033365,-0.943485363869731,0.13644925082373718,-0.302021472934032,-0.9831501010202977,0.1795816611681047,0.034151220122899416,1
82,16.433366700033368,-0.9520300318762549,0.12574000371229538,-0.2789771852179483,-0.9863305127942894,0.16404494683897344,0.015536246250380362,1
83,16.633366700033367,-0.9679379959381779,0.11052063988209215,-0.2255686684343308,-0.9880440994773381,0.15165727451284647,0.027729561398473202,1
84,16.833366700033366,-0.9723230543914966,0.06277639163020193,0.22504888925005173,-0.9856223395969198,0.16412330136669268,0.040151533420177986,1
85,17.033366700033366,-0.9611946343061981,0.054698693493538876,0.27039402343815594,-0.985665989786486,0.15381530779794889,0.06930662064513829,1
86,17.233366700033365,-0.9535078867753422,0.046245356061631535,0.2977987187681549,-0.9841385484810063,0.14650065538468127,0.10004436698563793,1
87,17.433366700033368,-0.8024041834304318,0.05942398736091825,0.5938150521327926,-0.961688892177908,0.1848329300220093,0.202462990793645,0
88,17.633366700033367,-0.727860192485131,0.214852697040132,0.6511972502783542,-0.9261192897123037,0.2651781363981881,0.26829762801628015,0
89,17.833366700033366,-0.5780294315293184,0.44586701230013887,0.6834358665071953,-0.8317054216643014,0.4285265175201766,0.3530313234774459,0
90,18.033366700033366,-0.341444530920214,0.5731176454782452,0.7449508686793698,-0.6209002227911602,0.6364736965398983,0.4575851253599987,0
91,18.233366700033365,-0.13619522190747374,0.7122153092262259,0.688621968015373,-0.3655548430874329,0.7969113771660695,0.4809385757439308,0
92,18.433366700033368,-0.011882381484984328,0.7632236211012491,0.6460251645279325,-0.1347545891005874,0.8786088813671966,0.4581349520599964,0
93,18.633366700033367,0.15382990416250025,0.7799860356018846,0.6065955364585297,0.05481359016562393,0.8923947450319982,0.44791415402109125,0
94,18.833366700033366,0.16029933592006096,0.843684758034685,0.5123476865991903,0.15394682198674575,0.891327636517884,0.4264216462371767,0
95,19.033366700033366,0.13296097879662433,0.9176962413497531,0.3743727911186654,0.18524445920030086,0.9213396667524896,0.34178605706494203,0
96,19.23336670003337,0.10509086762561798,0.9863648642783913,0.12665016406924123,0.1389923691424474,0.9716096670225374,0.1914569828147406,0
97,19.433366700033368,0.026635739169273753,0.946909712495034,-0.32039434105720177,0.02383889062237099,0.9965585692055576,-0.07938970611399616,0
98,19.633366700033367,-0.04895889767004252,0.8530554541632159,-0.5195184486246126,-0.054065631903878586,0.9653958884400463,-0.25512288417523066,0
99,19.833366700033366,-0.247732405307803,0.9108677982403917,-0.33007349104269446,-0.0898417056059524,0.9437981198062159,-0.31807794168106923,0
100,20.033366700033366,-0.3231138417728948,0.8912706103950608,-0.3181731357308101,-0.15782900536391575,0.9399691408172043,-0.30256903241608146,0
101,20.23336670003337,-0.3921377601634879,0.8610673765095223,-0.3237143033061285,-0.22431929022734254,0.9309324878991051,-0.28817626377945127,1
102,20.433366700033368,-0.40930598386071315,0.845701340820412,-0.3424293411937287,-0.3014019287081038,0.9165968833686552,-0.2626918932321726,1
103,20.633366700033367,-0.2378870663358008,0.7050313751904294,-0.6680871976525509,-0.32901204390282324,0.9065557063578529,-0.2644008816870729,1
104,20.833366700033366,-0.2223843009686799,0.7075093794754523,-0.6708022813295524,-0.31690860768779927,0.9076496492358044,-0.2752109165994366,1
105,21.033366700033366,-0.2318496159685216,0.698275847239968,-0.6772419041498792,-0.32923113548222294,0.8988603908590065,-0.2892349515080781,1
106,21.23336670003337,-0.5451853279804,0.6919044674759178,-0.4733298702192483,-0.38271493546797175,0.8743706760063233,-0.298337391404416,1
107,21.433366700033368,-0.5879026124828977,0.6056604445233523,-0.5362331061912899,-0.5458203298117814,0.7770566022164312,-0.3134696229557391,0
108,21.633366700033367,-0.7466778140064974,0.4435264605649438,-0.49573835926747883,-0.6646909833546247,0.6637313519714095,-0.34299648548821465,0
109,21.833366700033366,-0.8469580675893097,0.2695249011373973,-0.4582776008188254,-0.7758249928203913,0.5084095246722188,-0.3736513558623974,0
110,22.033366700033366,-0.8843053538831779,0.06286925825629801,-0.46265699763415497,-0.8597171207602501,0.31877367663139156,-0.39908622546839556,0
111,22.23336670003337,-0.9137370494591948,-0.13241276764742071,-0.38412428120278375,-0.9056039246156599,0.1035667846087744,-0.41128512354146046,0
112,22.433366700033368,-0.8816146559844332,-0.362413579626865,-0.3023441675565972,-0.9139652888522759,-0.08101214496821439,-0.39762354450010245,0
113,22.633366700033367,-0.7778149439610784,-0.5605756070627631,-0.28418110724859813,-0.8903948518600955,-0.2565490480893335,-0.3760047788333222,0
114,22.833366700033366,-0.7318857056431529,-0.6310548232673799,-0.2571247244163816,-0.8286870423275774,-0.42948877924946416,-0.35891109536649496,1
115,23.033366700033366,-0.6487782544442756,-0.7176297791817607,-0.2531684747194566,-0.7612166528401778,-0.5472137629933559,-0.34800331180816046,1
116,23.23336670003337,-0.6486491512623875,-0.6945475701415513,-0.3112201011776902,-0.7451184303251557,-0.5675981090884638,-0.3501869662751267,1
117,23.433366700033368,-0.5835101977949478,-0.7057126488820298,-0.401852592721772,-0.7560089544484467,-0.5461832400703613,-0.36074136034007587,1
118,23.633366700033367,-0.6722142005118559,-0.6428435130841099,-0.36726051559606365,-0.7652579912347485,-0.5387135575508902,-0.35237467241875065,1
119,23.833366700033366,-0.6853996149331232,-0.6310678567884312,-0.36329151927616327,-0.7809655736048118,-0.5201260742721605,-0.34577686404144864,1
120,24.033366700033366,-0.7163927920595041,-0.6021739794377096,-0.35237461028476663,-0.7953611106101355,-0.49731972369595373,-0.3465166607134386,1
121,24.23336670003337,-0.7394536936331236,-0.5774010554048268,-0.3461448485673634,-0.8089431420965989,-0.4772339024635482,-0.34330568768124814,1
122,24.433366700033368,-0.9464977325985569,-0.21814835789552917,-0.23780945341444124,-0.83974755427204,-0.42241126283323194,-0.3411638464517628,1
123,24.633366700033367,-0.9378673535393797,-0.24471654335853582,-0.24600536695708575,-0.8864221765515996,-0.33012406762961494,-0.32445928078759295,1
124,24.833366700033366,-0.966840736176932,-0.13556781601698376,-0.21642633418610008,-0.9054451406151659,-0.2794515833118136,-0.31949320794173897,1
