,timeStamp,x_gaze,y_gaze,z_gaze,x_head,y_head,z_head,fixations_head
0,0.04,-0.9969556070089246,0.07418891809909871,0.023990041366198592,-0.9807715535003874,0.04465376549984192,0.18998210723939912,0
1,0.24000000000000002,-0.9767133900423766,-0.10268111901174441,-0.18838137251444032,-0.9820616101329741,0.017388364384212037,0.18775686055926769,0
2,0.44,-0.9536756788116527,-0.16061028961315396,-0.25437577422685664,-0.9919389116281908,-0.03988727108950643,0.12027552204381693,0
3,0.6400000000000001,-0.8715872916964245,-0.3971056440759528,-0.2874764345060563,-0.98319721198006,-0.18192793491700798,0.015015620249261908,0
4,0.8400000000000001,-0.8014310412926634,-0.539309567921193,-0.25856039140056536,-0.874707101567378,-0.48358892245608626,-0.03208177902421358,0
5,1.04,-0.5849365712414762,-0.8033688454333688,-0.1115692870431708,-0.7585189499752423,-0.6512364866473385,-0.023238781975125314,0
6,1.2400000000000002,-0.6199904730688699,-0.7725914478296739,-0.13680010250101113,-0.753671152856508,-0.6562396638283808,-0.03645952509778642,0
7,1.4400000000000002,-0.7234773570436606,-0.6880796722726282,-0.05591849828377456,-0.8331176493462281,-0.5488602441138714,0.06831848050913529,0
8,1.6400000000000001,-0.9660043359146635,-0.12692043292157804,0.22522616788701372,-0.9202741527084656,-0.2756147200312848,0.2777265020821608,0
9,1.84,-0.9322711685164743,-0.21961806154699803,0.28746891205009745,-0.8566155189150314,-0.30555149620269756,0.41575008830092236,0
10,2.04,-0.44344568454912003,-0.6487858504165656,0.6184115499843259,-0.6111424070418963,-0.5163634518710013,0.5998947773459122,0
11,2.24,-0.4739114342550839,-0.6570356243743756,0.5862696826420958,-0.5829623274053567,-0.5602615072634586,0.5884402844002161,0
12,2.4400000000000004,-0.6412668486598733,-0.6665193782609133,0.380169366483573,-0.7568067025330281,-0.5579945670887821,0.34041985562021415,0
13,2.64,-0.9709154345290432,0.1612454205427487,-0.17698342675875453,-0.9740948199923447,-0.2234058486444418,-0.03505864309323369,0
14,2.8400000000000003,-0.8728959539164943,0.23586820560802887,-0.4271051898765249,-0.9808292435696514,0.03125315643104511,-0.19234665365345574,0
15,3.04,-0.7464361777888144,0.6315478390887888,-0.20971494803734744,-0.9730395530800808,0.19254750643615773,-0.12696253741531255,0
16,3.24,-0.8090840426426651,0.5276783609806878,-0.25872487181123033,-0.925978184439463,0.358403181430092,-0.1187920935205056,0
17,3.4400000000000004,-0.7206565190306173,0.6568204848301356,-0.22190320476770795,-0.8614012485451763,0.49667929065397937,-0.10629003358862783,0
18,3.64,-0.7390550004755007,0.6322058828176554,-0.2326229309481466,-0.7901969275102227,0.6038216875180124,-0.10482454596278395,0
19,3.8400000000000003,-0.5876438154217202,0.7938930431748533,-0.1562324620403004,-0.7535945121311189,0.6513804539072364,-0.08831090280063734,0
20,4.04,-0.6011765085035885,0.7752996118412926,-0.19364224100690522,-0.7499240178637097,0.6548498521136181,-0.09373173751682636,0
21,4.24,-0.7487672401029049,0.509910505867461,-0.4234842336553621,-0.8057440244580115,0.5742825201240481,-0.14483146802466665,0
22,4.44,-0.8705407278800379,0.008388149900087743,-0.4920248774638815,-0.9228489180174901,0.3082272522904932,-0.23096717398669692,0
23,4.640000000000001,-0.8655593825201516,0.023791681497157553,-0.500240853212602,-0.958541668528156,0.12854836530057626,-0.254309235919202,0
24,4.840000000000001,-0.7666817074758979,0.02839641744891196,-0.6413990979865103,-0.9524735977875755,0.0018851414177757618,-0.30461531767038125,0
25,5.04,-0.7730443576633214,0.01308698120759748,-0.6342169597289046,-0.9432689586317448,-0.06485383856305944,-0.3256342293209064,0
26,5.24,-0.773311442201308,-0.07933803138402346,-0.629042836487819,-0.9282700741720733,-0.18794324806548826,-0.32092367457569715,0
27,5.44,-0.7213506933151588,-0.44923767056500685,-0.5271040624004584,-0.896024380248814,-0.287646903206283,-0.3382300534777539,0
28,5.640000000000001,-0.47273185750476826,-0.39403164745777836,-0.7882027985879021,-0.829326587904986,-0.32933894417979576,-0.451390374775993,0
29,5.840000000000001,-0.45814753943414405,-0.39880879019365373,-0.794388054400816,-0.7856652894694698,-0.3431749169701016,-0.5147436539535174,0
30,6.04,-0.37979762635367426,-0.19728664532681772,-0.9037874432585384,-0.7446311475238082,-0.30320033128185586,-0.594637715964897,0
31,6.24,-0.3860982014936936,-0.23193504123194347,-0.8928237874586854,-0.7334277525267452,-0.3038162381985229,-0.6080949146559822,0
32,6.44,-0.39212729129591695,-0.24154722700761522,-0.8876323138247384,-0.7295365563923208,-0.2943845274017313,-0.6173444443045498,0
33,6.640000000000001,-0.43056982965869545,-0.18850433644362702,-0.8826526706069779,-0.7632861524400014,-0.21512089450281077,-0.6091939348365588,0
34,6.840000000000001,-0.678239146319368,0.3377659814041232,-0.6526145893297858,-0.8209834628028918,0.007762062554501324,-0.5708992066810684,1
35,7.04,-0.6096862421215286,0.2544295981177603,-0.7506985185607895,-0.8257132526164963,0.04199082594250708,-0.5625250172127034,1
36,7.24,-0.6119345365955906,0.23156654680033267,-0.7562493354208714,-0.8266471976000797,0.042338793885296974,-0.5611255093401772,1
37,7.44,-0.6298891372741893,0.21391506884741218,-0.7466458451394374,-0.8366048817269527,0.044910292163294195,-0.5459627620345907,1
38,7.640000000000001,-0.6902667294947983,0.14724194944019245,-0.7084148858385227,-0.8574674662767696,0.054669954723623126,-0.511625586075808,1
39,7.840000000000001,-0.7888843793918308,0.16946015922716026,-0.5907154055772302,-0.8822102630681576,0.07596484410202628,-0.4646874155792979,1
40,8.04,-0.8884642809229966,0.39199473859389583,-0.23868671190220447,-0.9260884772373977,0.15747619644607588,-0.3428722500888558,0
41,8.24,-0.9458935031835246,0.2624215367385142,-0.19084134167154815,-0.9504377677445617,0.18102101848869387,-0.2527833865388522,0
42,8.44,-0.9655679514629518,0.23681481717550668,-0.10769063781856995,-0.9745148136213851,0.17565939415357076,-0.13951578863367914,0
43,8.639999999999999,-0.9964422996038643,0.08411979675415351,0.005157843949063812,-0.9909705851337607,0.12836996798938044,-0.038709827150965534,0
44,8.84,-0.9982211363484914,0.03968067154680638,0.04449727241889575,-0.9982739281685296,0.058541486901117976,0.004696663749934763,0
45,9.04,-0.995696357815955,-0.07363096622862264,-0.056278271511138164,-0.9996848289421287,0.013371598507962879,0.021247191256456452,0
46,9.24,-0.9947248911205291,-0.07727602405290888,-0.06745967011352799,-0.9998735552008104,-0.0044448207913070715,0.015268175340408757,0
47,9.44,-0.9463557599238985,-0.3100666800864587,-0.09093640392616348,-0.9654425035144609,-0.26044728343540174,-0.009380029789386377,0
48,9.64,-0.7742927902640679,-0.6115976451633576,-0.16253921180970432,-0.8746941437599567,-0.4844970644538094,-0.013143416895087981,0
49,9.84,-0.7638772241405828,-0.6251447823435309,-0.16026723791198777,-0.8267096324588882,-0.5625658728470111,-0.008415599061912669,1
50,10.04,-0.8011017357867971,-0.5982264585687395,-0.01900297838985228,-0.7834602737202582,-0.6213664848740654,-0.009679409973038958,1
51,10.24,-0.7914633702934812,-0.6109325504833396,-0.018632021994557588,-0.7682826137420801,-0.6400569661372596,0.008300934935583378,1
52,10.44,-0.8346768130302836,-0.5325150426279792,-0.14050746302076053,-0.777862552254589,-0.6284241036059918,-0.0036049697617001933,1
53,10.64,-0.8453984771752738,-0.5115874599021375,-0.15355678318005836,-0.791963412080597,-0.6104922979528268,-0.009649252092026913,1
54,10.84,-0.8564370901152334,-0.49273058116289575,-0.15405221537461444,-0.8050678354596174,-0.5931138838253123,-0.009038867297449482,1
55,11.04,-0.8562140769950597,-0.48911768638030634,-0.1663169962014533,-0.8112566825890236,-0.5844790810519712,-0.01570983027583712,1
56,11.24,-0.8499200233280784,-0.4960976541091224,-0.17754737827809405,-0.812191991674183,-0.5828838265669523,-0.024302538694360377,1
57,11.44,-0.8473562129577374,-0.4944876717615419,-0.19357011865928903,-0.8132938841840306,-0.5801430185376633,-0.044577303539597816,1
58,11.64,-0.6570273427430435,-0.5457565588487421,-0.5200623514172075,-0.8206314766559623,-0.5619825064499804,-0.10363224385128862,1
59,11.84,-0.6537569467431438,-0.5421582953248139,-0.5278884706030003,-0.8191129398742746,-0.5568928121165406,-0.1375659388927895,1
60,12.04,-0.6428004841777334,-0.5251006053521572,-0.5577426752541619,-0.814922529954877,-0.555680566441226,-0.1646826592313268,1
61,12.24,-0.6362126327174213,-0.5090844739454292,-0.5797124152185061,-0.8129197657738666,-0.5489038018581873,-0.19459206232472584,1
62,12.44,-0.6062003661572904,-0.481595926951695,-0.6329190147359331,-0.8001072477804112,-0.540360068656351,-0.2604599551772956,1
63,12.64,-0.4564040718618295,-0.6648551043328785,-0.591323104089853,-0.7676945844311873,-0.5754515737923788,-0.2819583502131148,1
64,12.84,-0.45240919649957057,-0.6699942902885013,-0.5885860768854636,-0.7550169836290688,-0.5887933180657452,-0.2885685066544731,1
65,13.04,-0.43583334113708866,-0.7164856621895331,-0.5446995452817162,-0.7201205102562296,-0.6553436158642352,-0.22792804973126443,1
66,13.24,-0.19950326557107328,-0.9754452729128189,-0.09330041038770398,-0.37417600657233424,-0.9248398536109816,-0.06829027220914431,0
67,13.44,0.17843628376022397,-0.9777888276825447,-0.10995226735741141,-0.13614363302182236,-0.9895980250520017,-0.0464829000902205,0
68,13.64,0.6773503294285423,-0.7291193863380221,-0.09788488999386703,0.2746871686997812,-0.9615026647772283,-0.007719130649708239,0
69,13.84,0.7297628502572906,-0.6755345734050184,-0.10535284770168919,0.6040098344172702,-0.7969677297295102,-0.003815455020351498,0
70,14.04,0.9103694168523746,-0.40052534797122974,-0.10395657984174542,0.8192988534518344,-0.5733624313925575,-0.0022160776439784126,0
71,14.24,0.9553006184383107,-0.2740163613381146,-0.1109764034847112,0.8747812529192778,-0.48433093124365434,-0.013465087509295735,0
72,14.44,0.8052462125163438,-0.4242027166668522,-0.41428322727398204,0.8441171910973495,-0.5319051969838194,-0.06740199637640718,0
73,14.64,0.7811047502057548,-0.3981276491115228,-0.4810090895387917,0.8368140779206422,-0.5259684396747696,-0.15198486589102797,0
74,14.84,0.7045599605234596,-0.5225928628227334,-0.4800957839368316,0.8062216201287099,-0.5568540802514307,-0.19980048184219035,0
75,15.04,0.6935219318456394,-0.529236454972347,-0.48881090902044705,0.771188087608971,-0.5925508833559595,-0.23270664830230037,0
76,15.24,0.6080351963708472,-0.6101162860553305,-0.5079875170359164,0.7336953564468863,-0.6301184835329132,-0.25424755778268227,0
77,15.44,0.5831488574739676,-0.6139358989978327,-0.5319963552022977,0.6695049907316033,-0.6762161092862301,-0.3074001316318352,0
78,15.64,0.11409979957829863,-0.8175050495686582,-0.5645057392674926,0.4873550763338735,-0.7525116575504254,-0.4429573735951528,0
79,15.84,0.09060218166136103,-0.7866373668657258,-0.6107314448501562,0.2431242496327658,-0.8405854249660705,-0.48405241717722625,0
80,16.04,-0.10828771709916807,-0.6884688239603676,-0.7171362832545004,0.05514256722200023,-0.840549615446969,-0.5389208116709913,1
81,16.24,0.006689453619020291,-0.736768412394905,-0.6761120896030262,0.0031675780587234192,-0.8339673803416987,-0.5518046529119216,1
82,16.44,0.07050581575844467,-0.8072748889735554,-0.5859489598736142,-0.001905256545508771,-0.8383480094810857,-0.545132080322372,1
83,16.64,0.07713205237777954,-0.8053843775841357,-0.587713068460627,-0.011554537571414614,-0.8433142437322603,-0.5372965465921004,1
84,16.84,0.11194206263106626,-0.8290118597027963,-0.5479126856407088,0.007399777249128603,-0.853578042444544,-0.5209124386623956,1
85,17.04,0.11005106594960312,-0.8366818326764098,-0.5365186611410646,-0.008173375359317392,-0.8561231875018931,-0.5167071547374146,1
86,17.24,0.04952355341006617,-0.5910309929207523,-0.8051271844030295,-0.04659370622874648,-0.8199293595441134,-0.5705653966877499,1
87,17.44,-0.08279303873771116,-0.4285686925134966,-0.8997078350963985,-0.09028262170159179,-0.7648401607010885,-0.6378625061856357,0
88,17.64,-0.07327707495343408,-0.3765654864613831,-0.9234873603316781,-0.11270969388034063,-0.7083339935300182,-0.696820980249028,0
89,17.84,-0.2132096525457149,-0.43915146052623133,-0.872747179187085,-0.16684699873784586,-0.6760170071432934,-0.7177486224753049,0
90,18.04,-0.20528971013148528,-0.43260465382655056,-0.8779005344580566,-0.18954814187717622,-0.6576232723158486,-0.7291111942766377,0
91,18.24,-0.5312118729721242,-0.3891474528691316,-0.7525810294838124,-0.2175229445258623,-0.6459343144841279,-0.7317462879828766,0
92,18.44,-0.6837556374626241,-0.29444102933297117,-0.6676696102739896,-0.4284649741293179,-0.5786910256762428,-0.6939268425029697,0
93,18.64,-0.6598817829227437,-0.32078245199201155,-0.6794517282785395,-0.5374703054041556,-0.5035000628526287,-0.6764712540205701,0
94,18.84,-0.7218088046780234,-0.09976337942148315,-0.6848644520017726,-0.6437632254042063,-0.4118516370942569,-0.6449396395322233,0
95,19.04,-0.6908639282917147,-0.14530201999809036,-0.7082332635296194,-0.7076912836493413,-0.3115082704675734,-0.6341416596290207,1
96,19.240000000000002,-0.6893056769333519,-0.13369776640267947,-0.7120270999101004,-0.7290207737936527,-0.2627544605974058,-0.6320512675515099,1
97,19.44,-0.6392382764489913,-0.028506769293220963,-0.7684801819350882,-0.7391761503969805,-0.23993825629616355,-0.6293236463457074,1
98,19.64,-0.6291567222279579,-0.020567833753066384,-0.7770062953992577,-0.7377989898146919,-0.2161391903965027,-0.6394814313200696,1
99,19.84,-0.6149546309326188,-0.009450620296903056,-0.7885058577274686,-0.7356106837692145,-0.1853885911990491,-0.6515427784710849,1
100,20.04,-0.6070988986786927,-0.0009105253846079148,-0.7946257598181943,-0.732059350298319,-0.1613170902785569,-0.6618654727547455,1
101,20.240000000000002,-0.6268077630150428,0.18280852395368724,-0.7574252912294073,-0.7365803579267973,-0.14367025472551653,-0.6609146951184671,1
102,20.44,-0.6027163966805862,0.25579150180429855,-0.7558463155808011,-0.752045613385937,-0.03388824566968853,-0.6582393046547742,0
103,20.64,-0.5250790576319893,0.43991093625418287,-0.7285398763281735,-0.7396059884100429,0.1826650755797083,-0.6477780886009216,0
104,20.84,-0.46946354272283985,0.42168159555719753,-0.7757503554768485,-0.7030223034538112,0.29496043507850894,-0.6471151231309573,0
105,21.04,-0.4618209763758655,0.20926363431649767,-0.8619339401206416,-0.6771011519556055,0.3359386624285438,-0.6547360117681883,1
106,21.240000000000002,-0.465211537309703,0.20087095466885882,-0.8621073512761415,-0.6641612660334262,0.34586093782725463,-0.6627744898426069,1
107,21.44,-0.3173222135867356,0.2812456921664003,-0.9056530645905507,-0.6067401353618929,0.40245352687052866,-0.6854907489167923,1
108,21.64,-0.3004693098478362,0.28812424633933115,-0.9092318804963657,-0.5711640041690311,0.4329760423639787,-0.6973545920695048,1
109,21.84,-0.32807326380597285,0.26689454367151394,-0.9061651263064974,-0.5936985989690768,0.40410730500893116,-0.6958586491670377,1
110,22.04,-0.3607510118866877,0.2572202838585556,-0.8964911784253402,-0.6257222819079642,0.3762410217159586,-0.6833112903370043,1
111,22.240000000000002,-0.6997144369148545,0.3748189477182829,-0.6082026497840067,-0.6590626147403857,0.38668006827058166,-0.6450697595251418,1
112,22.44,-0.7084471839630578,0.36220233551869396,-0.6057326602385061,-0.666259469388374,0.39530733855303696,-0.6323214590194113,1
113,22.64,-0.7241380015005886,0.32089984067251437,-0.610448562156623,-0.685105186305944,0.38094285108326165,-0.6208972764517928,1
114,22.84,-0.5719010827947567,0.1254379788802211,-0.8106753141379293,-0.6939281545610467,0.35800052459842946,-0.6247394182335139,1
115,23.04,-0.5151266385666281,0.10721372984139659,-0.850382127265468,-0.6952647584012059,0.3449220922960965,-0.6305835915811608,1
116,23.240000000000002,-0.37807836015424784,0.2701888345040267,-0.8854686596895629,-0.6883398417728207,0.34542502918086854,-0.637863473984492,1
117,23.44,-0.3763234297311162,0.2774714195291171,-0.8839628315601887,-0.6872207767096609,0.3528453943774364,-0.6350021509610831,1
118,23.64,-0.3810653880206871,0.27460944666140746,-0.8828243437156444,-0.6901442661987401,0.3498945376705186,-0.6334624727174741,1
119,23.84,-0.3857943634847567,0.27415762271103045,-0.8809087960809724,-0.6925865997952719,0.34657887602368187,-0.632619067431725,1
120,24.04,-0.3876463689900187,0.27580302378040933,-0.8795811416136873,-0.6928737085926864,0.3464019793420324,-0.6324015280254623,1
121,24.240000000000002,-0.3899693502258328,0.2764354900326361,-0.8783548973705662,-0.692749709393639,0.3447055321516246,-0.6334634450693224,1
122,24.44,-0.39185574915262944,0.27865331414916555,-0.876813208368646,-0.6920965111130899,0.3464407551284976,-0.6332307813831265,1
123,24.64,-0.39441930023696403,0.28051807968594833,-0.8750674388696519,-0.6922269009013421,0.3477546794505106,-0.6323674569337011,1
124,24.84,-0.49691762453121746,0.17623180396105387,-0.8497147907991743,-0.6951844513690454,0.34476251393350055,-0.6307593737400756,1
125,25.04,-0.5384496809899221,0.1432363698045425,-0.8303946552134516,-0.6983075840182548,0.3429383293221471,-0.6282991488012084,1
126,25.240000000000002,-0.5402697553023007,0.14385430927591727,-0.8291046551602163,-0.6990550265165705,0.34365873332607827,-0.6270731575427484,1
127,25.44,-0.5404431347190233,0.1436655847982198,-0.8290243771323383,-0.700854184962455,0.34306757506354874,-0.6253863208934374,1
128,25.64,-0.551323933632365,0.14699055658913893,-0.8212403402644998,-0.7029328813050912,0.3433484744083544,-0.6228942041001648,1
129,25.84,-0.4514561981853802,0.28119366562234926,-0.8468278594459852,-0.7021173241359772,0.3437072084123057,-0.6236157615339397,1
130,26.04,-0.4449928720758841,0.2858065778199482,-0.8487025061094767,-0.7024311316877142,0.34453512830610605,-0.6228049860100774,1
131,26.240000000000002,-0.4445994271854946,0.28344817096721314,-0.8496990547962683,-0.7035096106903911,0.3389341199219598,-0.6246582185635448,1
132,26.44,-0.4467868553438986,0.28324745904323995,-0.848617925121464,-0.7063673792162535,0.3337426253795265,-0.6242283120653395,1
133,26.64,-0.538527439425736,0.1607284086157432,-0.8271363706484023,-0.6998409051794743,0.33514101039676886,-0.630795696392903,1
134,26.84,-0.5475151702647669,0.1615112909217794,-0.8210610459854516,-0.7051902576096465,0.331956958943821,-0.6265072050513153,1
135,27.04,-0.6660902050780189,0.27311288388494176,-0.6940700190580007,-0.7153562810766689,0.32439173536574506,-0.618898532192926,1
136,27.240000000000002,-0.6672955270158092,0.2763669997363342,-0.6916198096363572,-0.7182700413634968,0.32684490102589253,-0.6142154006153339,1
137,27.44,-0.661701922334747,0.27947262643309007,-0.6957338694163818,-0.7175166306063014,0.3295085168191827,-0.6136725691661661,1
138,27.64,-0.6565769684784797,0.2805329158653145,-0.7001485325127189,-0.7169001443027293,0.3292444954617925,-0.6145341693566235,1
139,27.84,-0.6553401664798374,0.28481304241121363,-0.6995790141725573,-0.7182361436129872,0.3321614925705556,-0.6113964220219523,1
140,28.04,-0.6034525661226631,0.5162206903713789,-0.6077509352296133,-0.7259247697854,0.33734418580833025,-0.5993597658446295,1
141,28.240000000000002,-0.4026033190715009,0.6869923635895501,-0.6049397158744453,-0.7302210146248265,0.3802894438649201,-0.5675889434134518,1
142,28.44,-0.4741197346347981,0.6478541868212586,-0.5962343749298546,-0.7060899616063723,0.4916909425708392,-0.5095851088017699,0
143,28.6,-0.24395823674492118,0.8768614516096768,-0.41424434022117873,-0.5621875847429194,0.738426181877327,-0.3723867525557213,1
