,timeStamp,x_gaze,y_gaze,z_gaze,x_head,y_head,z_head,fixations_head
0,0.04,-0.9938936566919632,0.07404395022114084,0.08181010098470573,-0.9937712049144446,0.005654047044007976,0.11129610970252792,1
1,0.24000000000000002,-0.9932395796133207,-0.05989650257179129,-0.09943614267066934,-0.9944057015038956,-0.025746406580620856,0.10244229285178463,1
2,0.44,-0.9867095188098002,-0.0879473301911693,-0.1366367176215026,-0.9962659152254594,-0.06758571588067434,0.053725200501022245,1
3,0.6400000000000001,-0.9649680690818935,-0.22878848774287033,-0.12842294782745342,-0.9928518083296012,-0.11682990368846777,0.02441434620841777,1
4,0.8400000000000001,-0.9627303965705921,-0.2421924585653249,-0.12038686196223332,-0.9883408072956804,-0.14674613705662157,0.04059581127508545,1
5,1.04,-0.9795232138696668,0.07376247300032365,-0.1873322478040452,-0.9946489861249693,-0.093816459153863,0.04326507127467108,1
6,1.2400000000000002,-0.8351275253261004,0.5180971993236828,-0.18476284392609818,-0.9953175929659844,0.08464967655099241,0.046661776565102474,0
7,1.4400000000000002,-0.8434250921596127,0.500995066335702,-0.19400530256370468,-0.9710471315017499,0.2342722018814234,0.04673332673642047,0
8,1.6400000000000001,-0.8270801983651569,0.5364979088740753,-0.16765541818264318,-0.9461827562176763,0.31959182658369767,0.05098290122401136,0
9,1.84,-0.7528546769646817,0.657938568395961,0.018074169122763828,-0.9186810957803362,0.3896294363167675,0.06491491824934549,0
10,2.04,-0.7834910268982218,0.6203946868552318,0.03538704977486599,-0.9260643240551732,0.36388053489869276,0.09997911799008982,0
11,2.24,-0.994304579542052,0.1042752894209593,0.02202423932576558,-0.9678732174671574,0.20773505559445823,0.14166009172289987,0
12,2.4400000000000004,-0.9878599469761322,-0.15147021801153315,-0.034489102856585116,-0.9894203289610634,-0.02854199629659894,0.14224193153211265,0
13,2.64,-0.8222372909582165,-0.5687046657668791,0.022379465871099898,-0.943318824015734,-0.2954637241148593,0.15116475776367685,0
14,2.8400000000000003,-0.7229779993743377,-0.6876350278806092,0.06678982596409683,-0.8112592649112106,-0.5590350262761264,0.171284104610361,0
15,3.04,-0.4717273823162919,-0.8812701486210593,0.028917156195504706,-0.6672800347709846,-0.7218085211484648,0.18365678314045514,0
16,3.24,-0.5010453366804224,-0.8653647148933307,0.00987323697614482,-0.5706416377450803,-0.8040073868097757,0.167153352425038,0
17,3.4400000000000004,-0.5638792755056605,-0.8185290700656667,-0.10977396828322546,-0.4490697546980135,-0.8815694693666225,0.14550472877579407,0
18,3.64,-0.1621185403161064,-0.9846768771298606,-0.06425750175318436,-0.3311936202797602,-0.9324488525703641,0.14439502493575596,0
19,3.8400000000000003,-0.10357745649899142,-0.9907649996005008,-0.08750100611889729,-0.23112933604711955,-0.9655233606959255,0.11976589651843061,0
20,4.04,0.017825827907453073,-0.9668531805453587,-0.25470996668512524,-0.08122311775220725,-0.9925142521633554,0.09120451959868366,0
21,4.24,0.12448363945314994,-0.943953661137743,-0.30570461091247686,0.08212632370977624,-0.995960457192237,0.03630474711862243,0
22,4.44,0.33277841798639307,-0.8737867622221815,-0.3546198227507177,0.2617905406567289,-0.9646012973980608,-0.0317812819224768,0
23,4.640000000000001,0.35663358454452343,-0.8603458712005391,-0.36416681381354626,0.37765689301065647,-0.9164215578178394,-0.13246433304200067,0
24,4.840000000000001,0.542491483394379,-0.6818842878218927,-0.4906493742645518,0.4092146905880598,-0.8810581043139881,-0.237233964325431,1
25,5.04,0.548631336303435,-0.6715797268426988,-0.49798024792133344,0.4041346184082181,-0.8704454166369672,-0.28106936307563074,1
26,5.24,0.5278666854426985,-0.6949954689801794,-0.48819879198617455,0.3723081328548221,-0.8818684801122294,-0.28930025578056867,1
27,5.44,0.5915313950335388,-0.6877366589214329,-0.42084307843335156,0.33858909956030275,-0.8910786049822152,-0.30221902885472485,1
28,5.640000000000001,0.6100019399237941,-0.6683305945384046,-0.4257133421601328,0.34349256554441415,-0.8828902170812698,-0.32018388778622986,1
29,5.840000000000001,0.38136546251972236,-0.7447408076809457,-0.5476509046572017,0.36030173015811506,-0.8742545323624692,-0.32536391300933976,1
30,6.04,0.3408142498599135,-0.7553183892087159,-0.5597676107239284,0.3563647875940127,-0.873302766426584,-0.3321843107594783,1
31,6.24,0.32121883725021194,-0.7819896204271333,-0.5341448231892265,0.31940510147710366,-0.8883567655939193,-0.32985244909491235,1
32,6.44,0.2589757438915922,-0.8144785197462049,-0.5191881209617838,0.23164997371031731,-0.9156760753104609,-0.32844423390286637,0
33,6.640000000000001,-0.1864097700561226,-0.6342849255552516,-0.7502892980984018,0.10712752426423522,-0.9397241708044329,-0.3247186110325937,0
34,6.840000000000001,-0.23998532977689047,-0.6284032451348558,-0.7399435133818386,-0.030619725403898623,-0.9445612592108746,-0.3269043591238223,0
35,7.04,-0.24740650532093145,-0.6727900418408446,-0.6972399735562205,-0.21235007461217942,-0.9159735192769004,-0.3404408286261972,0
36,7.24,-0.3030971230983178,-0.7550321874696083,-0.5814280091760129,-0.3582368711365541,-0.8689032962182017,-0.3415748907332559,0
37,7.44,-0.3588046410900803,-0.7473208852327338,-0.559259084885692,-0.47155409639168216,-0.8169587461300818,-0.33198665831293445,0
38,7.640000000000001,-0.5613488980744817,-0.5644790562951144,-0.6051865907591992,-0.5466306429173629,-0.7712668834115637,-0.3261017245835482,0
39,7.840000000000001,-0.5923634444778478,-0.547609648231558,-0.5909561936472528,-0.6000623844886308,-0.7340666150704737,-0.3179171894704587,0
40,8.04,-0.6555200703859422,-0.6398435722461955,-0.4011154950590135,-0.6696646119539438,-0.6731923048899674,-0.31362625549132034,0
41,8.24,-0.6858444428628484,-0.6231973910732849,-0.3758223143369754,-0.7287072257641055,-0.6199469991349579,-0.29094930380178213,0
42,8.44,-0.698384566716359,-0.6166796486548146,-0.36327015829459225,-0.7549362630153914,-0.5908569395052409,-0.2845335056243043,0
43,8.639999999999999,-0.7738833035942767,-0.6067483675111565,-0.1815517858368663,-0.7656608274208243,-0.5848661817417325,-0.26775930760312583,0
44,8.84,-0.6408172956296657,-0.6671092193845526,-0.3798927256924179,-0.7733236315429501,-0.5875389875804949,-0.23826140889810565,0
45,9.04,-0.8922689905128933,-0.4310107384291486,0.13448342621997253,-0.8286862023860752,-0.5562725012117552,-0.06196839816037664,0
46,9.24,-0.8980099543962583,-0.3095695547877947,0.3126416679742426,-0.8579054176101912,-0.4735943135270702,0.19926545267533688,0
47,9.44,-0.6423252701551947,-0.24422936959643526,0.7264779847638774,-0.8226322741975651,-0.4105940006620156,0.39330485385881353,0
48,9.64,-0.5793302005338867,-0.22404142187519804,0.7836976202806194,-0.7790191000466473,-0.3667226565044979,0.508570285180717,0
49,9.84,-0.578890446090373,-0.40408487275190885,0.7082381428858255,-0.7603028613969901,-0.3657820447396028,0.5367895813982094,0
50,10.04,-0.5805137813105243,-0.39974163935558815,0.7093732243846422,-0.7672238810641125,-0.34652861783582917,0.5397086559855332,0
51,10.24,-0.9293956906143137,-0.01077097650584224,0.3689276844215595,-0.82765256632714,-0.2635162537695505,0.4955304364530612,0
52,10.44,-0.9451462555820856,0.11327716927474141,0.30637695487791633,-0.8934335450818678,-0.13036448571647924,0.42986230514703677,0
53,10.64,-0.9457248878148363,0.3178207197820715,-0.06778220005887309,-0.9303316991244519,0.030500184404165784,0.36544858510537764,0
54,10.84,-0.9472311205429536,0.3195176515862401,-0.02572303636344334,-0.9287092231540979,0.1845764622114563,0.32160644960263984,0
55,11.04,-0.835248858163797,0.5473887255861489,-0.05220084326182459,-0.912433190530783,0.2843959818283167,0.29425260973816975,0
56,11.24,-0.8120946854690398,0.5810393415323637,-0.053809900804394,-0.8999077128692248,0.3474123766151573,0.2635730428042471,0
57,11.44,-0.788193205595112,0.6115598451525486,-0.0688914105726745,-0.8801431432245387,0.4142416065241083,0.23184464380087655,0
58,11.64,-0.7557084181453868,0.6454967341758346,-0.11062889727611479,-0.8598157193095818,0.4752312592896576,0.18674094093720547,0
59,11.84,-0.7869996653322187,0.6058449305435647,-0.11654804546469003,-0.8488545299781209,0.5199043840350527,0.09563168092612385,0
60,12.04,-0.8994423536399985,0.3109184580432772,-0.30713704583871176,-0.8619115988400164,0.5070584796348117,-0.000306619438185597,0
61,12.24,-0.906831616128396,0.2978034995646111,-0.29827754799352874,-0.8639737433241031,0.5023391274067607,-0.034709824585427776,0
62,12.44,-0.9041733317863835,0.2613004523405818,-0.33792404426574624,-0.8808939103993406,0.4620339087099646,-0.10271604462571021,0
63,12.64,-0.8767048321103039,0.22579487695926245,-0.42474146359096604,-0.8901474998572756,0.4259591251081035,-0.16185256326354844,0
64,12.84,-0.8600234132688741,0.22505565464615962,-0.4579406958779095,-0.8821546475330881,0.4286373279182523,-0.19512359916441097,0
65,13.04,-0.8267545642168344,0.2824909841493866,-0.48649330357256076,-0.8357414906064937,0.49636280683784284,-0.23486192724001492,0
66,13.24,-0.6081146870982339,0.6530870676361676,-0.45130234812352704,-0.7547172567616596,0.5972157207991479,-0.27154234508914005,0
67,13.44,-0.5699516604350159,0.678883320915683,-0.46289582127068496,-0.6710780141796401,0.6779974344882537,-0.299956293002926,0
68,13.64,-0.3129757382805621,0.9154165456404645,-0.253098271853873,-0.5568145745066998,0.769864023699739,-0.311876441286883,0
69,13.84,-0.23646510380705532,0.9344008687447105,-0.26641935209486706,-0.4318024462394977,0.8449556256455891,-0.3155893504405009,0
70,14.04,-0.22478149753992782,0.9494148960476729,-0.21928208665208845,-0.27760049675960297,0.9101952741335287,-0.3073801020622716,0
71,14.24,-0.17855138110986102,0.9716838701829121,-0.1547574254442053,-0.10945489884330134,0.953569518586115,-0.2805793975733916,0
72,14.44,0.22273504931656263,0.9640808646694246,-0.14469686998758083,0.027488428458189662,0.9714484123980669,-0.23565306777161749,0
73,14.64,0.26043718076462485,0.9611124002243017,-0.09184459162332892,0.11854539013524168,0.9830899446138865,-0.13957489486562086,0
74,14.84,0.25703755303159914,0.9658151689784472,-0.033656436273940105,0.14125339650204233,0.9894095368312017,-0.03341027393039982,1
75,15.04,0.07770207433283577,0.9928572781473287,-0.09053625171307306,0.1419562647145387,0.9882078484638963,0.05739047954715902,1
76,15.24,0.09550799529611675,0.9909733029060978,-0.09407516017470548,0.1506954462540956,0.9860076169061318,0.07127314979267847,1
77,15.44,0.08479549678642284,0.9935130084480274,-0.07577351627906397,0.14615149899711533,0.9861228713866093,0.07874910710049468,1
78,15.64,-0.026159903055620215,0.9871003727806112,-0.1579509845759091,0.12330945466029186,0.9890158003434222,0.08150168748217163,1
79,15.84,-0.033330888575458406,0.9861558192597192,-0.16243691700768778,0.09430000040050995,0.9915912543495821,0.08862445611616755,1
80,16.04,-0.026600956368309503,0.9839236255516013,-0.17659753169759673,0.06660626872755049,0.9942796452438675,0.08349605990657716,1
81,16.24,-0.03248107334792255,0.9854409803357917,-0.16688635099672208,0.05577026764598325,0.9950439712514683,0.08232358424414538,1
82,16.44,-0.00888735438785615,0.9845663138321995,-0.1747861224435723,0.068073097300757,0.9948413815759726,0.07521089633751069,1
83,16.64,0.01646064805425196,0.9819868690300346,-0.18823080544433646,0.07890291329907351,0.9943766265111146,0.07063607379586112,1
84,16.84,0.028696136023003083,0.9793705641692754,-0.20002457303067694,0.07993117861488697,0.9946219983316518,0.06586415656475739,1
85,17.04,0.03403203173389652,0.9773767852046055,-0.20874970792596065,0.0755114556489564,0.9952324591783436,0.0617282128657773,1
86,17.24,0.04388586886036444,0.9755751123180324,-0.21523761460309337,0.07884620476199317,0.9952003637327606,0.05796129761151775,1
87,17.44,0.047044895460238434,0.9725072255891579,-0.22807120376762624,0.07708721320890538,0.9960223853712687,0.04468746355537034,1
88,17.64,0.14764706607179595,0.8479423036987943,-0.5091111798795743,0.06553712155203473,0.9962743716185376,-0.05605588421175847,1
89,17.84,0.12818897072387964,0.816497147853415,-0.562938713655395,0.04858266954186119,0.9838396933567685,-0.1723345061090393,0
90,18.04,0.13883175904874911,0.883416727712439,-0.44754958147369184,0.03816185702752656,0.961063113166562,-0.2736811377841133,1
91,18.24,0.18272408747601399,0.8456671479383926,-0.5014568603118348,0.04642538576262534,0.9359387670366051,-0.3490892549403254,1
92,18.44,0.19846103887113065,0.8394984888930648,-0.5058216120298268,0.051292723655877615,0.9185133197047322,-0.3920488974923333,1
93,18.64,0.20250227280392102,0.8416908582558138,-0.5005490272069643,0.05918655127976502,0.9119822128841686,-0.40593767444092116,1
94,18.84,0.108872299580065,0.9466720344926973,-0.3032472283362306,0.04814354702678747,0.9123959005445923,-0.4064676119312609,1
95,19.04,0.06413137973484151,0.9624492433525644,-0.2637775959087156,-0.004144073977009055,0.9260677556417525,-0.3773345181818389,1
96,19.240000000000002,-0.2461106982951753,0.8795794333020007,-0.4071480623763215,-0.15333436222841812,0.9216247521187967,-0.35650580590219133,0
97,19.44,-0.26016359165803493,0.8702246180331868,-0.4183587213679016,-0.35012668371278005,0.8770208952685322,-0.3290070738064362,0
98,19.64,-0.7159804231079094,0.6849929469963679,-0.13474678582975683,-0.555056625745101,0.7740066416607779,-0.3046733675290098,0
99,19.84,-0.7465018617545975,0.6552760778883673,-0.11553454956920206,-0.7268126224972278,0.6273643732345484,-0.2795663695345426,0
100,20.04,-0.9255068617844422,0.35237994407492296,-0.13879994165585188,-0.851481218062216,0.4556091794552179,-0.25961512067564163,0
101,20.240000000000002,-0.9335315030365107,0.32343733034895655,-0.15461961769172047,-0.9364805858981053,0.25063682634014267,-0.24532691152436317,0
102,20.44,-0.9840124022843619,0.007797206847633345,-0.17792918736377716,-0.9625625927877854,0.048671241476926544,-0.2666540178185037,0
103,20.64,-0.9888440117751924,0.0076441170924004325,-0.14875848832998073,-0.9710334616900116,0.005570441346808776,-0.23887860193310548,0
104,20.84,-0.9907163164153352,-0.03441112745750688,-0.1315182675354747,-0.97529285797908,-0.018393984032117575,-0.22014881904390052,0
105,21.04,-0.9730438076234766,-0.19010035205201714,-0.1305664757711791,-0.9798111586162931,-0.03347824084298509,-0.19710225985781243,0
106,21.240000000000002,-0.9644989477019602,-0.22945317744838548,-0.13074027398109372,-0.9813486660588161,-0.07434270133624928,-0.1772793230543596,0
107,21.44,-0.8898575946969658,-0.28928000232899254,-0.35280382851192116,-0.9742267628678856,-0.15387319327245844,-0.16494015552344166,0
108,21.64,-0.8691096038884584,-0.2813346803007528,-0.40681604453231757,-0.951836774733581,-0.2645863798971472,-0.15492192174672112,0
109,21.84,-0.7498665790729976,-0.4988125532133479,-0.4346103431191453,-0.9270220122863757,-0.34864528988145377,-0.13811824854086552,0
110,22.04,-0.7241901264962447,-0.5428988963339958,-0.4252169435061151,-0.8969117603801868,-0.42670605648583454,-0.11606565146511748,0
111,22.240000000000002,-0.6247666380244072,-0.7366708610360388,-0.2588101437581232,-0.8626863741910262,-0.4943079160577337,-0.1069200818733386,0
112,22.44,-0.5700493955104847,-0.7882086651038797,-0.23188528830715205,-0.8176795715486858,-0.5695902224583909,-0.08346913652218237,0
113,22.64,-0.4410271943998285,-0.7644097605313209,-0.470290050717921,-0.7561172863287531,-0.6488535397743811,-0.08529790874985396,0
114,22.84,-0.4091834313780957,-0.7869765673453492,-0.4617757052238441,-0.7186663542594911,-0.694022672379937,-0.04302559096610433,0
115,23.04,-0.43652246415828977,-0.8393305479253224,-0.3239943974894517,-0.6459278780394803,-0.7619047285611326,-0.04773217958151351,0
116,23.240000000000002,-0.44967657038652475,-0.829730589780714,-0.33066316763069,-0.525933528679584,-0.8493700108168459,-0.044322772201570354,0
117,23.44,-0.3002442526410615,-0.9408521660508522,-0.15700506486553426,-0.4050117015987753,-0.91360111424759,-0.03603506089389653,0
118,23.64,-0.21904607295588763,-0.964217771508762,-0.14934157836744888,-0.2961278373853138,-0.9547224677276713,-0.028518652518706875,0
119,23.84,-0.1935014463867168,-0.9712250605189506,-0.13884909818291905,-0.2732113692513888,-0.9619062293111615,-0.009589250448521013,0
120,24.04,0.02400932115861243,-0.9676109246782364,-0.2513019119323036,-0.24738105181101555,-0.9687652140633745,-0.017221359575253652,0
121,24.240000000000002,0.06848778180807585,-0.9675226498635646,-0.24332970583961894,-0.19592154765252656,-0.9805521295147118,-0.011500802998166642,0
122,24.44,0.18547759091586924,-0.926972388326236,-0.326067868010327,-0.10996253846142329,-0.9938868617773866,-0.009856273201276768,0
123,24.64,0.2531228856537007,-0.9054427849994849,-0.34073768187671877,-0.012359468888574032,-0.9992228905469219,-0.03742804477723131,0
124,24.84,0.29614181607253215,-0.856089393903413,-0.42356932657989965,0.07656488497026531,-0.9886518061939185,-0.12924946614587188,0
125,25.04,0.2474967332030747,-0.8060736904980343,-0.5375784338500621,0.21688000752525294,-0.9427125499860326,-0.2534878901144561,0
126,25.240000000000002,0.20818523261746014,-0.8152069564998963,-0.5404595516726395,0.30847677735426815,-0.889870297771887,-0.336114461123735,0
127,25.44,0.09564958591717887,-0.7524634452966585,-0.6516516862605012,0.2555701195700149,-0.8823427496724175,-0.3951647581496682,0
128,25.64,0.08459877786945835,-0.7563720321639611,-0.6486481293761313,0.19070400304023427,-0.8875169733232411,-0.41945870510407074,0
129,25.84,0.03342212933690902,-0.7497041684784264,-0.6609286050979022,0.10794344279273765,-0.8969466670362494,-0.4287597108528444,0
130,26.04,0.027141134732728223,-0.763798446577366,-0.6448839366982426,0.08336937070447437,-0.9118439961661032,-0.4019826795823074,0
131,26.240000000000002,0.3769518474970686,-0.8928177259081984,-0.24654373440154628,0.13442026676427382,-0.92813032528538,-0.3471387203535156,0
132,26.44,0.4830091224463684,-0.8504329781571279,-0.20848486107242134,0.2698535461175989,-0.9199336056927954,-0.284431406080287,0
133,26.64,0.670033647748883,-0.703873907584673,-0.23583136582271932,0.440778959023406,-0.8701085737623313,-0.22051072342977876,0
134,26.84,0.6419140298750623,-0.7261876056394537,-0.24616648769724037,0.540661488850676,-0.820466232158613,-0.1857964379669841,0
135,27.04,0.6236277934165475,-0.7463538116673106,-0.23247443534308218,0.5416626992100173,-0.8234611185848303,-0.16885883590602638,0
136,27.240000000000002,0.5314365319404215,-0.8460668310265519,-0.04178671985003749,0.4951808112065761,-0.8509999962244315,-0.174914180782506,0
137,27.44,-0.021766226296977498,-0.9793124412396934,-0.20117995383720735,0.3674241855403749,-0.9133551136111348,-0.17544772532120037,0
138,27.64,-0.0554460813777895,-0.9827393918094639,-0.1764908491843495,0.16729683022176028,-0.9761578786478333,-0.13830244593467428,0
139,27.84,-0.5936671205223629,-0.7969079459277802,-0.1117903203674299,-0.12275534127751964,-0.9877104399243392,-0.09674302585875659,0
140,28.04,-0.6479168910596511,-0.7526256016091053,-0.11729623217362309,-0.4119734794122655,-0.90916633113623,-0.06078186069247131,0
141,28.240000000000002,-0.8426870840552818,-0.5382858060993398,-0.011263628118444844,-0.6578207581375752,-0.7528420580013616,-0.022376010984545495,0
142,28.44,-0.8571571123564619,-0.5147445748266648,-0.0178803641810793,-0.8219422910547631,-0.5695548906895295,-0.004254017781530781,0
143,28.6,-0.9919105807807975,-0.12004533044264962,0.04126158472497757,-0.935909762013981,-0.35200199465461535,0.012942686201312684,1
