,timeStamp,x_gaze,y_gaze,z_gaze,x_head,y_head,z_head,fixations_head
0,0.04,-0.9964358330296613,-0.05586586407650102,0.06320313192770631,-0.9951504804446158,-0.06915472514718668,0.06995102044050372,0
1,0.24000000000000002,-0.9797963561867153,-0.11639479696802403,-0.1626387150773398,-0.9942607515223291,-0.10375976944372155,0.026066611349376163,0
2,0.44,-0.9636569989689625,-0.1253292490158124,-0.2359189854150478,-0.9906235522616709,-0.10502018810859212,-0.08738270878214137,0
3,0.6400000000000001,-0.9146604106807353,-0.36166775955340374,-0.18053466379886757,-0.9670679413506451,-0.22782294332207204,-0.11347380009453023,0
4,0.8400000000000001,-0.8779327966897073,-0.4582084883834929,-0.13884878706673456,-0.8932439834923143,-0.442897284423063,-0.07718277920273936,0
5,1.04,-0.48195410271726363,-0.8755229081164096,0.03434938481810833,-0.6324677270702571,-0.7709051302905109,0.07543112292915727,0
6,1.2400000000000002,-0.44957270933035426,-0.6513416771390141,0.6112596818432421,-0.4631972376828145,-0.8600047969627256,0.21410293833600658,0
7,1.4400000000000002,-0.47694728065341846,-0.586799205091876,0.6543607448348746,-0.40249316749072583,-0.76718742255176,0.4994223751512039,0
8,1.6400000000000001,-0.4758452707494667,-0.4980638427183266,0.7249163309527665,-0.38507453592953533,-0.6998478975992222,0.6016066173211547,0
9,1.84,-0.4591812292069401,-0.5870858853117289,0.6666954042227581,-0.3447824687484376,-0.7704142766364102,0.5362712854503118,0
10,2.04,0.14990331427532955,-0.9609724295434433,0.2325101847804603,-0.08255020383648548,-0.9397439214787238,0.33176320755976724,0
11,2.24,0.312429916954142,-0.9460471829252117,-0.08592016452090268,0.08181510320403407,-0.987602346001107,0.1339697542761917,0
12,2.4400000000000004,0.41735983761002715,-0.8784869988369368,-0.2325324898258382,0.31069093178960117,-0.9486195997211502,-0.05993329565938065,0
13,2.64,0.4538657636616765,-0.8378147039738033,-0.3034343263065196,0.4688370399293515,-0.8699418032232392,-0.15294799441307916,0
14,2.8400000000000003,0.4651499181539109,-0.7963425202201404,-0.38661886158184977,0.5270385244425846,-0.7971446878251541,-0.29460268231216297,0
15,3.04,0.5671989332854203,-0.6078101558414192,-0.5557447116580698,0.5779987582599133,-0.6815123272176137,-0.44884115597885,0
16,3.24,0.39956718440168076,-0.6304039410608977,-0.6655350751419503,0.5148361062683589,-0.6941661030461039,-0.5030677937059984,0
17,3.4400000000000004,0.47383701999558464,-0.6684449770860025,-0.5732885757541293,0.5049535492414226,-0.6903578886327004,-0.5181002786247951,0
18,3.64,0.5225968466841009,-0.6290572853478918,-0.5754819437537336,0.5687608608842991,-0.6377097287965079,-0.5194587422735661,0
19,3.8400000000000003,0.5491829450400882,-0.6685138439054594,-0.5014851277793215,0.640464138943014,-0.558098602224661,-0.5275714519596976,0
20,4.04,0.6036363061242539,-0.6125587739029817,-0.5102890930082105,0.7065379734734278,-0.4577791663671578,-0.5396687195680815,0
21,4.24,0.7832000177204229,-0.41340472583923005,-0.46442896647013804,0.7424831967401183,-0.40491971866047327,-0.5336278890748666,0
22,4.44,0.611414499176892,-0.1664549992507076,-0.7736052245303915,0.7459557045360301,-0.3390683181592844,-0.5732213904686301,0
23,4.640000000000001,0.5722600100780645,-0.049512951992475025,-0.8185761714406576,0.7459432026810544,-0.17899430794381774,-0.6415058659884924,0
24,4.840000000000001,0.37062235177268676,-0.04276999410561196,-0.9277983616986445,0.6479199202993141,-0.02378586365485292,-0.7613369881790345,0
25,5.04,0.2984222300857721,-0.11912952710454344,-0.9469700778601624,0.5335933002947396,-0.1406553012300313,-0.8339629944526658,0
26,5.24,-0.021001587048432566,-0.37333399497994024,-0.9274592506055268,0.3394998178296546,-0.3902090045402053,-0.8558485885186546,0
27,5.44,-0.09463871528022838,-0.4562149509267417,-0.8848228252712624,0.07488643373242437,-0.568759104823627,-0.8190879700759044,0
28,5.640000000000001,-0.08124737046784883,-0.5224233049069572,-0.8488066654322131,-0.09339310693559141,-0.6043185912843283,-0.7912501297346133,0
29,5.840000000000001,-0.11859647007803226,-0.5356552259843915,-0.8360671959601339,-0.16821223938352328,-0.5909472061072654,-0.7889778464035587,0
30,6.04,-0.18459271522178977,-0.5355962799993301,-0.8240522764594045,-0.2706985667649944,-0.5493623368101926,-0.7905209098093625,0
31,6.24,-0.6230540512530129,-0.44041521170576015,-0.646403968517659,-0.4099201323076306,-0.5243393552806426,-0.7463469204282785,0
32,6.44,-0.6028677173793686,-0.4769200782691116,-0.6396075001792698,-0.48402195432812956,-0.47296786708088545,-0.73622289046004,0
33,6.640000000000001,-0.5914629417574861,-0.46174637266979945,-0.6610309189847806,-0.519410887601306,-0.45847650385096805,-0.7211183157137374,0
34,6.840000000000001,-0.43633228670869295,-0.34567085104010886,-0.8307381045292014,-0.5414377551781302,-0.40914370567460534,-0.7344702753512351,0
35,7.04,-0.4083868478320695,-0.07147456316038153,-0.9100063567573684,-0.5350163228680493,-0.3031787010923765,-0.7885684557910563,0
36,7.24,-0.44520180990903324,-0.05896019280232166,-0.8934870139618337,-0.5234286263414047,-0.18016737183502912,-0.8328038131831581,0
37,7.44,-0.46419796698448745,-0.04780721934648447,-0.884440341247405,-0.5443310240719073,-0.0992393303392469,-0.8329797665889891,0
38,7.640000000000001,-0.7333344420922854,0.13837590571296196,-0.6656370668459759,-0.6143339046781799,-0.03207963054735057,-0.7883937790639944,0
39,7.840000000000001,-0.7888241430086942,0.11864052676108384,-0.6030596129873498,-0.6774115633083861,-0.03827928684103405,-0.73460756196423,0
40,8.04,-0.8561815101693768,0.11826745778795286,-0.5029572845406058,-0.7739758333224729,-0.03199313538927815,-0.6324063952244214,0
41,8.24,-0.993780759421545,0.07487129525238717,-0.08242627827803138,-0.9230762062828647,-0.04140043964999736,-0.3823824276705477,0
42,8.44,-0.9991025355962326,0.040817949878733356,0.011314518676290674,-0.9807380180037473,-0.07322311840722535,-0.18108372365511888,0
43,8.639999999999999,-0.9943033644143024,-0.006756033991708287,0.10637281381585252,-0.990760555105878,-0.11442778425210676,-0.07279975712490594,1
44,8.84,-0.9925832872375047,0.003468802546377787,0.12151701652724949,-0.9940386613110626,-0.10473111100967139,-0.030307329238829006,1
45,9.04,-0.9871911212386312,-0.13746558583869906,0.0809747050481676,-0.994060505481114,-0.10722920551690274,-0.018590560154178783,1
46,9.24,-0.9780058769284536,-0.1881750715455451,0.08997025698660538,-0.9878238007028731,-0.15537767813171469,-0.007868665917924253,1
47,9.44,-0.9984019504010115,0.011361154971720631,-0.05535765162255925,-0.9915568698784842,-0.12098435057728132,-0.04666648382057637,1
48,9.64,-0.9866135493011274,0.08816621988897233,-0.13718754318786175,-0.9936175731499198,-0.04169202903728101,-0.1048136109597327,1
49,9.84,-0.9677591299312907,0.1254373570258815,-0.2184210060799856,-0.9827992818895269,-0.0030721272350017078,-0.18465138383365123,0
50,10.04,-0.9032438718725397,0.05928855602535185,-0.42501220576488397,-0.9517353872699419,0.0247828403004042,-0.30591757622728794,0
51,10.24,-0.848044427517328,0.19114990450059585,-0.4942492923274859,-0.920656453427763,0.047954124156810676,-0.3874172127541143,0
52,10.44,-0.8912353471836184,0.18328387986235437,-0.4148572951185715,-0.8904131983816165,0.06433461060012141,-0.45058339297709493,1
53,10.64,-0.8943558305516768,0.1668818831218741,-0.4150639534384043,-0.8754837605174686,0.0555872103477787,-0.4800398390924904,1
54,10.84,-0.7148791962890337,0.2623242976986693,-0.6481772115324981,-0.8586632736859424,0.0445222285333853,-0.5106027355874246,1
55,11.04,-0.6681299190487507,0.27194079585246644,-0.6925681300948212,-0.831946870857746,0.06867290672873214,-0.5505891716619862,1
56,11.24,-0.6607560451370856,0.267539517563295,-0.7013016864066399,-0.8208557962105754,0.09019213894100345,-0.5639690948099457,1
57,11.44,-0.6623669767246723,0.2594614302326483,-0.7028155905827975,-0.8203784141813039,0.10853175130904338,-0.5614268576610503,1
58,11.64,-0.6598944421529702,0.25896455688763925,-0.7053202701550618,-0.8190565332858235,0.1318484232612576,-0.5583568648860054,1
59,11.84,-0.658235341094815,0.25967035953309986,-0.7066098924539221,-0.8190279573758356,0.14883404122235566,-0.5541133757726742,1
60,12.04,-0.6738174828164487,0.13194435686697703,-0.7270217923431626,-0.820702278675543,0.14728367199506118,-0.5520464561433418,1
61,12.24,-0.6789877598693048,0.1320834377215116,-0.7221700543690045,-0.8135362794947616,0.14695390547428405,-0.5626395574536833,1
62,12.44,-0.6722222330604679,0.11818786809690512,-0.7308549084557803,-0.8120194479250351,0.13384396161004244,-0.568075884131734,1
63,12.64,-0.6621986233972675,0.11381851852170259,-0.740633734049624,-0.7992731554060326,0.12768557508735714,-0.5872468109422947,0
64,12.84,-0.5902166567471031,0.08001345458287386,-0.8032696590709666,-0.7480602938970952,0.10238883535777822,-0.6556846216655307,0
65,13.04,-0.5372434626439143,0.041343309877244674,-0.8424133145759101,-0.7021553429150305,0.062127803086747035,-0.7093081209879742,1
66,13.24,-0.49499385640259247,0.005813115377572733,-0.8688770280156431,-0.6640909776906416,0.021257924896223884,-0.7473494992163938,1
67,13.44,-0.47935279833399946,0.0007966383539412004,-0.8776219346032192,-0.6458061993456706,0.009196226629542704,-0.7634459917390872,1
68,13.64,-0.4435411558991355,0.0754480880914188,-0.8930726896658573,-0.6518706736461839,0.010762346305365345,-0.7582537812250421,1
69,13.84,-0.4237602934165598,0.06975370356457705,-0.9030845113069631,-0.6505026874037878,0.014578315700743485,-0.7593640275860979,1
70,14.04,-0.7236551451686022,0.1559135386690892,-0.672320012591245,-0.6696212604341703,0.01714282280966361,-0.7425048762133958,1
71,14.24,-0.7575606920928577,0.1755775917272368,-0.6287084436199776,-0.6916385711260068,0.02623187306276481,-0.7217672587243029,1
72,14.44,-0.8305871960106672,-0.043664070279816614,-0.5551741697789414,-0.7173262811533342,0.020104196155024144,-0.6964472899392229,1
73,14.64,-0.8332908316419138,-0.05665745873435857,-0.5499239240761329,-0.7499377428224714,0.009607817934134419,-0.661438637913512,1
74,14.84,-0.8317154641829362,-0.06503994262228398,-0.5513793544399839,-0.7746197816184255,-0.0016260936931200114,-0.6324251337073221,1
75,15.04,-0.8348990901309358,-0.07056682876747725,-0.5458606342064221,-0.7864623423079136,-0.009324531788413505,-0.6175678401912437,1
76,15.24,-0.8419368654442031,-0.08244177942817464,-0.5332407220108999,-0.7921486372281383,-0.023770852272238636,-0.6098651351896212,1
77,15.44,-0.8407123125071472,-0.07646637095495909,-0.5360556890024242,-0.7933802704258294,-0.024063273222748427,-0.6082505284673785,1
78,15.64,-0.8309705446662187,-0.06359558332221578,-0.5526694814073193,-0.7873834943464372,-0.01833247587151208,-0.6161908415087121,1
79,15.84,-0.8244616710170847,0.1836179523260741,-0.5353012241787757,-0.7873578083603674,-0.009560274844785341,-0.6164221627738989,1
80,16.04,-0.812087334555682,0.20992165645299385,-0.5444695209157987,-0.7847150413708726,-0.002911479525353068,-0.6198498424080493,1
81,16.24,-0.8016391539928991,0.22302573271032428,-0.5546478065714966,-0.7836328458382475,0.0023412312532189597,-0.621219833520847,1
82,16.44,-0.7949491433654459,0.2254282032066084,-0.5632388344757345,-0.7810065277278764,0.0018603263515898755,-0.6245200900149744,1
83,16.64,-0.768275515841666,0.3089270206649176,-0.560639659372506,-0.7806989854522319,0.002672895551186303,-0.6249015520409821,1
84,16.84,-0.7602326855574028,0.3136799603360357,-0.568903459555101,-0.7782777067861317,0.0022117814728491647,-0.6279163313232399,1
85,17.04,-0.7517125704854064,0.3114542078325857,-0.5813127280540138,-0.77477987380469,0.0007229109094149225,-0.6322306735258942,1
86,17.24,-0.5328485473095839,0.18098811086625838,-0.8266291365268523,-0.7548761137982193,0.00824750263369116,-0.6558155468706162,1
87,17.44,-0.440401481135924,0.20265756661428874,-0.8746293192588845,-0.684820694762187,0.061480496778127953,-0.7261134653353774,1
88,17.64,-0.41046783298899603,0.18863411629971896,-0.8921509559761405,-0.6558577460568717,0.06992907621206496,-0.7516385708818618,1
89,17.84,-0.4065129052371328,0.17998746308893204,-0.8957409061812889,-0.6481576035686432,0.07791026956496142,-0.7575102051012044,1
90,18.04,-0.5522045433146603,0.2362348475817083,-0.7995393918567708,-0.6518079506057607,0.08018059914263256,-0.7541335870044822,1
91,18.24,-0.5570632866135797,0.2390736289628812,-0.7953139597931095,-0.6539258059123374,0.08160631018736382,-0.75214456755301,1
92,18.44,-0.5834157322728748,0.23602441240471142,-0.7771219724634715,-0.6561003652359187,0.08276539062182724,-0.7501214574004073,1
93,18.64,-0.6007650747609374,0.23569052993451944,-0.7638922038132544,-0.6509522631887089,0.08870495332734313,-0.7539181535847853,1
94,18.84,-0.49263874540299446,0.3262888327648822,-0.8067482036798684,-0.6517862177733251,0.09611169864189172,-0.7522880217741834,1
95,19.04,-0.3748674724021455,0.21991810199919964,-0.9006166812511837,-0.6444215019014846,0.1079998971494209,-0.7570052510404073,1
96,19.240000000000002,-0.3661485823573343,0.21653656277325942,-0.905012227884274,-0.6358731012993317,0.11185433747171081,-0.7636452096574264,1
97,19.44,-0.36639827302844186,0.21567804937676466,-0.9051161718469124,-0.6331293751600312,0.11137784942193414,-0.7659909718577718,1
98,19.64,-0.5508819935714858,0.21518806495111062,-0.8063641397416567,-0.6362868491957345,0.11262874981583883,-0.7631866156160538,1
99,19.84,-0.5538126629797571,0.21679622011446903,-0.8039222184187652,-0.6361521395751214,0.11563729512378261,-0.7628489177356488,1
100,20.04,-0.47269886570051023,0.3887587357742538,-0.7908365366652297,-0.6303942927678675,0.13630357942483626,-0.7642148715392012,1
101,20.240000000000002,-0.46928965382646537,0.39640178284387295,-0.7890708760115502,-0.6279233021386427,0.14975328217936318,-0.7637318122926471,1
102,20.44,-0.471241004820634,0.39440953122002004,-0.7889062283050146,-0.6300471547551206,0.153215916090273,-0.7612919714811105,1
103,20.64,-0.47380424072485694,0.388872479301976,-0.7901188115167721,-0.6322030926931516,0.15018760524635733,-0.7601071850861423,1
104,20.84,-0.5190192205927949,0.21880928430152147,-0.8262817593041154,-0.6353223836807166,0.14524723657170446,-0.7584647052187308,1
105,21.04,-0.5252933498927426,0.2103950757662163,-0.8245003387820949,-0.6384782538668516,0.1413775206325621,-0.7565433999440652,1
106,21.240000000000002,-0.442220716996739,0.11143900103276984,-0.8899562834812216,-0.640375925841123,0.14069014229891957,-0.7550661940936266,1
107,21.44,-0.4445136038564802,0.10958042520754692,-0.8890443107055227,-0.6447711017733923,0.13890884695179462,-0.7516478953316168,1
108,21.64,-0.722337458048744,0.13869232999156836,-0.6774902466465395,-0.7323018828821201,0.11491667979450397,-0.6712139070611615,1
109,21.84,-0.9543419176332048,0.19831580923697142,-0.22338832569062944,-0.9102804954259107,0.09071116054554879,-0.4039318073631221,0
110,22.04,-0.9534131978553932,0.2131212755936075,-0.2135008104071423,-0.9363057796309776,0.12158242235756934,-0.3294680585478558,0
111,22.240000000000002,-0.8799451239473765,0.02913998780896997,-0.4741808093456859,-0.9391341098955555,0.09537760152897264,-0.3300458100889378,0
112,22.44,-0.8727067509280261,-0.01897767257105662,-0.4878757780710518,-0.94170028734041,0.028536362655268245,-0.3352405775400649,0
113,22.64,-0.8593873627850914,0.004954810490943472,-0.511301095772623,-0.9351114986871274,-0.05187424942584573,-0.3505360855455823,1
114,22.84,-0.8520678682266883,-0.031939061154247016,-0.5224559735596983,-0.9227697211761898,-0.11495045594211184,-0.36780760508602517,1
115,23.04,-0.8338138336468074,-0.05399251372619541,-0.5493990346558146,-0.9014757439270066,-0.15804428874185492,-0.40294352694556557,1
116,23.240000000000002,-0.8219946353616416,-0.037485328968074945,-0.5682602128856438,-0.8844879890715477,-0.1596762220034559,-0.43838852780937737,1
117,23.44,-0.8241348793892361,-0.015257732618854335,-0.5661880448838716,-0.8786500844187355,-0.14607273009505833,-0.45457319176731587,1
118,23.64,-0.8300316086153514,0.006197387712940077,-0.5576819174806981,-0.8776344916317337,-0.12579379878171107,-0.4625295874713044,1
119,23.84,-0.8351610504667346,0.0215256954093452,-0.5495840829394941,-0.8779280084695381,-0.10640626336145277,-0.46681915027359766,1
120,24.04,-0.8408253470098094,0.02179380896419594,-0.5408676046100984,-0.8782659078064043,-0.1013530267081977,-0.4673077777675864,1
121,24.240000000000002,-0.9374460989714185,0.07640646636718838,-0.33964225800178216,-0.878545875076478,-0.10572059134621957,-0.4658114446334604,1
122,24.44,-0.9440976223174005,0.08351132095377731,-0.31891305838298045,-0.8788481305337182,-0.10664049316209824,-0.46503093303083964,1
123,24.64,-0.9476033458834945,0.0901335867603554,-0.3064699584104782,-0.8785001578658787,-0.10459363732218735,-0.4661519534029022,1
124,24.84,-0.9496678438135987,0.09528946760695989,-0.29841398055321194,-0.8787762168214742,-0.1002242708081415,-0.46659131613213045,1
125,25.04,-0.9501376204993739,0.09887995285763913,-0.2957384943402853,-0.8794101992673407,-0.09425544078816178,-0.46664077544338706,1
126,25.240000000000002,-0.9505098314735068,0.09861685282712054,-0.2946282006371416,-0.8802739252999696,-0.09072771934915932,-0.46571052959825143,1
127,25.44,-0.9502269465838427,0.09993223493701218,-0.2950970999627765,-0.8815487050369017,-0.08553883838966475,-0.46427899777473103,1
128,25.64,-0.8726318857768434,0.004979630953758646,-0.488353145992851,-0.8824273066431965,-0.08266608130653322,-0.4631288886388493,1
129,25.84,-0.8632989636085394,-0.004638878096088049,-0.5046715567995007,-0.8794152153356897,-0.09047001544372281,-0.4673799903094861,1
130,26.04,-0.5853577055308472,-0.4653429119443762,-0.6639369931543134,-0.8321551149384977,-0.25264276872297126,-0.4936491629626116,0
131,26.240000000000002,-0.546242875292481,-0.4344858233270252,-0.7161290320326641,-0.7496048824861266,-0.37509974929589396,-0.5453372334905422,1
132,26.44,-0.6645101271906857,-0.4867278572822314,-0.5670293500397197,-0.7049308626849446,-0.42925987423781103,-0.5646312417884776,1
133,26.64,-0.656716270999325,-0.4953638444041501,-0.5686285264229031,-0.680959570017957,-0.4588093076303359,-0.5707784887613855,1
134,26.84,-0.657692244860789,-0.49514176738264437,-0.5676931752656248,-0.6725546447961575,-0.4738406098921169,-0.5684587286515895,1
135,27.04,-0.6436146464765972,-0.49747860541212974,-0.5816143258191014,-0.6645003683982742,-0.4854503827627016,-0.568134831069267,1
136,27.240000000000002,-0.6455368482923914,-0.485063435941785,-0.5899115532086786,-0.6695948164465659,-0.47822056356249054,-0.5682850291657031,1
137,27.44,-0.6491099969749257,-0.47072236027706216,-0.5975589271046027,-0.6766988677513578,-0.46555358378352607,-0.5703845220641472,1
138,27.64,-0.6464085040916779,-0.46169047951102976,-0.6074520120691302,-0.6814439158784389,-0.4587895967480669,-0.5702160076918269,1
139,27.84,-0.6437057338978511,-0.45619451582538706,-0.6144342860533336,-0.6868295762848022,-0.453176205607663,-0.5682397907674899,1
140,28.04,-0.8265555172125896,-0.5380070593784719,-0.16539159901384867,-0.7500223682117334,-0.484903192633725,-0.4498170082996904,1
141,28.240000000000002,-0.8872327874629137,-0.456911574177016,0.06363799363485324,-0.8389598239434858,-0.49879563659579407,-0.21759900441342078,1
142,28.44,-0.9050635463856307,-0.41943887006328673,0.0702211598017212,-0.873426973159559,-0.466332327701634,-0.14021227727166688,1
143,28.6,-0.9022391303729097,-0.42945747813380347,0.03912577282162862,-0.8775438502863228,-0.45970885815114565,-0.13632518682190065,1
