,timeStamp,x_gaze,y_gaze,z_gaze,x_head,y_head,z_head,fixations_head
0,0.04,-0.9960693593313995,-0.08792121671526203,0.010755977521502869,-0.9992327757449336,0.03431532590645357,0.018876394915594785,0
1,0.24000000000000002,-0.97254683809587,-0.20181202095813652,-0.1158643858418911,-0.9997597661518868,-0.0037583443791364872,-0.02159362941824969,0
2,0.44,-0.962367126437673,-0.21769428413004735,-0.16266134331549903,-0.9973772973700815,-0.03254452243706266,-0.06464813029079407,0
3,0.6400000000000001,-0.9602848632418084,-0.21941373168493603,-0.17236761812113233,-0.9951527220040968,-0.031306480530840106,-0.0932253407856975,0
4,0.8400000000000001,-0.9302875279342784,-0.3315882301304624,-0.1568896459581603,-0.9927682996328288,-0.04689278424806441,-0.11050868757526194,0
5,1.04,-0.9052493597649658,-0.3878210926772945,-0.17354652609519147,-0.9815290829988688,-0.13246749736789246,-0.13803268224767443,0
6,1.2400000000000002,-0.8053663208828822,-0.2547445575248523,-0.535247886122905,-0.9423591143586438,-0.2597602046719569,-0.21091215150857406,0
7,1.4400000000000002,-0.7641478347581114,-0.2500990942860009,-0.5945826516741066,-0.8962307774103593,-0.33513095912906016,-0.29061595595503625,0
8,1.6400000000000001,-0.5609233722381717,-0.827231664438414,-0.032446014045007104,-0.7874365127963192,-0.5845980511506743,-0.19541969426341405,0
9,1.84,-0.4491314088944388,-0.8934580052837424,-0.003710840725778366,-0.6350592388794971,-0.762531093233022,-0.12347507832209004,0
10,2.04,-0.1388878587188776,-0.9901352983709697,-0.018500097846115855,-0.46363656675651227,-0.884072352172354,-0.05879804495623725,0
11,2.24,-0.10249655377650124,-0.9946617395606417,-0.011936511975400414,-0.2929782670821509,-0.9560886566944051,-0.007629912045903289,0
12,2.4400000000000004,0.15280557588046007,-0.9841208058780435,-0.09031442530288906,-0.16694798600391325,-0.9859656701078882,0.0002594955502744638,0
13,2.64,0.266206284450306,-0.9560205945787118,-0.12312122830986277,-0.028067673103571278,-0.9991799021888509,-0.029184392891228737,0
14,2.8400000000000003,0.3650423966250058,-0.8744292955089955,-0.31955821976897114,0.07400698545943935,-0.9917069690890142,-0.1050726109102053,0
15,3.04,0.4671334788276147,-0.7711744929401103,-0.4325230796119141,0.22090047221016706,-0.9544611148342053,-0.20051673657520877,0
16,3.24,0.49906200345678886,-0.7215735943375263,-0.47986317285297025,0.3395956149312911,-0.9015032030657464,-0.2682662729111469,0
17,3.4400000000000004,0.47955221208182364,-0.5615878095633102,-0.674276507107665,0.43351570488526847,-0.8223900267253879,-0.3684274386639038,0
18,3.64,0.4624944521559335,-0.5380846854531747,-0.7046727985425161,0.45226893133761475,-0.7655692447817587,-0.45755496412018076,0
19,3.8400000000000003,0.4984642976181816,-0.5193204437888916,-0.6941466852639444,0.5069958228105622,-0.7109275316823265,-0.48737796457032784,0
20,4.04,0.7526388135715745,-0.35503596355741207,-0.5545126516919457,0.6103126232590067,-0.6223096885911911,-0.49015217369327757,0
21,4.24,0.798433817509905,-0.27145902805140426,-0.5374136536653558,0.6979963968491707,-0.5197832314408736,-0.49257123576032996,0
22,4.44,0.5633089427193048,-0.16250173590630218,-0.810108771017755,0.7174704607033932,-0.42536978027916394,-0.551630934632311,0
23,4.640000000000001,0.7032557331596607,0.0328108686479367,-0.7101794285084833,0.7405487417251295,-0.3131466648695523,-0.5945811361037313,0
24,4.840000000000001,0.6976089535005421,0.08703724780833307,-0.7111724583318937,0.7645189986199992,-0.20668267645516591,-0.6105677456289376,0
25,5.04,0.7003329701871245,0.0786775617806818,-0.7094671043403826,0.774452481569236,-0.16993030011697893,-0.6093825127893036,0
26,5.24,0.6961513189066209,0.07876458875639811,-0.7135611261430994,0.7824663837542898,-0.13634233478518826,-0.6075830198744925,0
27,5.44,0.8769587067868552,0.17192695473165873,-0.4487588983267354,0.8351171756837301,-0.09635531627373528,-0.5415671296375164,0
28,5.640000000000001,0.9110610777875429,0.1998348686463403,-0.36060191044100226,0.8852800978177938,-0.08819190451713914,-0.4566194656224783,0
29,5.840000000000001,0.8367690575314769,0.20335548086935157,-0.5083936395729974,0.8992590723835312,-0.11853896617814975,-0.4210482564188177,0
30,6.04,0.8330564838300063,0.18463023811213317,-0.5214677074598614,0.8969069815271475,-0.143589275188387,-0.41825827731048487,0
31,6.24,0.7679920362968037,0.22448294591383294,-0.5998296751399821,0.9004477770632602,-0.14643447731907935,-0.40957385736167534,0
32,6.44,0.8743255562532357,0.21362097675390682,-0.43579915095508964,0.9083339952977947,-0.17437226610119394,-0.3801626833358063,0
33,6.640000000000001,0.9423569672117558,-0.09523683800357859,-0.32076984121725327,0.9002507334365669,-0.24933195091235225,-0.3569064235919045,0
34,6.840000000000001,0.9251353689625201,-0.28756309726397455,-0.2478548248199579,0.8564621706273473,-0.3982848843051218,-0.3283926022588643,0
35,7.04,0.8600887002810674,-0.4996632555502505,-0.10287885449279395,0.7814926991419939,-0.5672106634543499,-0.25988694551946573,0
36,7.24,0.45212539596522094,-0.6924138289714153,-0.5622683663273579,0.6491778255419173,-0.732492210936735,-0.20499588225542933,0
37,7.44,0.3318602047186181,-0.800791441870356,-0.49859991090183087,0.4635748880447022,-0.8558695345722622,-0.2293156404726921,0
38,7.640000000000001,0.5183098708636604,-0.5648307170367609,-0.6421223706249723,0.34662582482035303,-0.8898614271923547,-0.2966431829029547,0
39,7.840000000000001,0.4629242323659032,-0.5666932594554288,-0.6815863149860192,0.26715035871968573,-0.8819352995010905,-0.3883565543799472,0
40,8.04,0.4042018281402094,-0.5924335894229141,-0.6968811406915779,0.16621433814100478,-0.8778359899772653,-0.44919569064827686,0
41,8.24,-0.22035680662915985,-0.7330178722250478,-0.6435275260397672,0.015427900691796337,-0.8662951611553751,-0.4992941754507327,0
42,8.44,-0.22214537321981953,-0.8149209028551411,-0.5353086541863384,-0.14834617732822236,-0.8399635747550652,-0.5219718428773679,0
43,8.639999999999999,-0.2239700486821601,-0.8452902926890901,-0.48509972003589474,-0.29906465336452276,-0.7889889083709938,-0.5367092654086623,0
44,8.84,-0.5269145629723695,-0.5799347406978075,-0.6213185494248532,-0.4362987219168226,-0.7125474991056854,-0.5494720072687784,0
45,9.04,-0.5884194299895438,-0.5193821140986469,-0.619681203495153,-0.534364610404827,-0.64424612876472,-0.5471758298011428,0
46,9.24,-0.5359027343073735,-0.6532353600255643,-0.5348755217563734,-0.5878952846218892,-0.614612428300959,-0.5259569348314997,0
47,9.44,-0.566907239037314,-0.6430992751745264,-0.5148198758761052,-0.6328588652146832,-0.5839963145017459,-0.5083679389650391,0
48,9.64,-0.7847513285852872,-0.44523863648054984,-0.4311935863026808,-0.7055865410691713,-0.5195971367078493,-0.4818365372063925,0
49,9.84,-0.8359851315232261,-0.3849919786170433,-0.3910371290205429,-0.7893492292333364,-0.42944278285993304,-0.4387558439021117,0
50,10.04,-0.8173558808192443,-0.41903115140310665,-0.3954013887734638,-0.8473857834968306,-0.35229622223948487,-0.39727157678753,0
51,10.24,-0.838887088244091,-0.382568630656886,-0.387181735125336,-0.8918873574375883,-0.2888354832831668,-0.34801006485384234,0
52,10.44,-0.8616493820278529,-0.35003349189861255,-0.3674736684448061,-0.9265713191935663,-0.2282950961254888,-0.29890958421059033,0
53,10.64,-0.9522175716854835,-0.30538413350594695,-0.00471457062980212,-0.962778500775404,-0.20145957543925622,-0.18019877332684808,0
54,10.84,-0.9650177043251377,-0.2616887348097034,0.016119442072797422,-0.9833641198049696,-0.14912694240581365,-0.10371192279044236,0
55,11.04,-0.9698923007577973,-0.2301053291306364,0.079752507399003,-0.9935106956122457,-0.10821136576490556,-0.035025676629665825,0
56,11.24,-0.9762781225038104,-0.1723973196166953,0.13099691488510082,-0.999290798234481,-0.031702515473304375,0.02031873708079652,0
57,11.44,-0.9446027594251668,0.315467865146407,0.09058505917825917,-0.9868450858179141,0.15838447472879974,0.032421208520297874,0
58,11.64,-0.9373849843830575,0.3434607881857879,0.057828003873319905,-0.9579427623700963,0.2867164642623056,0.011803946105923722,0
59,11.84,-0.8848422849408271,0.33997279377209993,-0.31854768916990994,-0.9178789207226007,0.3872222968051056,-0.08693204098658196,0
60,12.04,-0.8680924408224533,0.36064393149698476,-0.34110331112628317,-0.8764868095739087,0.45368074629526384,-0.1610734400325624,0
61,12.24,-0.9509630243995457,-0.22508051320410416,0.21215109898524356,-0.9817014642543159,0.18981955131188835,-0.015191215247173737,0
62,12.44,-0.936953697755424,-0.291520195271299,0.19270117802292022,-0.986845089824983,-0.11580123608875738,0.11281330776392227,0
63,12.64,-0.8494730103437633,-0.4946081276724811,0.18373460408379075,-0.958495625822011,-0.2463007864868054,0.14360382256769116,0
64,12.84,-0.8188575656070687,-0.5420021667356207,0.18896015056608528,-0.945391925447634,-0.29998954992703963,0.1274377386529898,0
65,13.04,-0.8520749811814181,-0.5108909390183494,0.11383617559297672,-0.9640884512065837,-0.26287444841472496,0.03782172154655019,0
66,13.24,-0.8612465996741401,-0.1494864496481441,-0.4857037120728278,-0.9777593338836288,-0.15832049589774624,-0.13755473667647503,0
67,13.44,-0.8845680134726169,-0.15373073080030641,-0.4403479214765437,-0.9643220763204458,-0.024121117515673862,-0.2636306219141092,0
68,13.64,-0.8146290233487914,0.3371959444204226,-0.4718881746602833,-0.9202547507306212,0.19893774081790408,-0.3369791819029637,0
69,13.84,-0.8276435128220511,0.3267263653237348,-0.45635084955099725,-0.8598739869042499,0.3575299498477299,-0.364402334799422,0
70,14.04,-0.9165998893904286,0.32455803897024305,-0.2334667473308448,-0.8541138229952892,0.4098332329328104,-0.32019728067585557,0
71,14.24,-0.9144833808963438,0.34057369860318065,-0.21847128388907827,-0.8537141454376714,0.43928016974795325,-0.27965173045385594,1
72,14.44,-0.9134453304737233,0.3585696963093284,-0.19247181903953237,-0.8537405440852537,0.468297073663493,-0.22765090420032288,1
73,14.64,-0.9154283828269605,0.36862781985118714,-0.1615685809387973,-0.858047559842962,0.48589671523794625,-0.1663092516022877,1
74,14.84,-0.9211424830482107,0.36498531894860986,-0.13521184443590284,-0.863573089838464,0.4889597975397539,-0.12312528130619903,1
75,15.04,-0.8724921759552751,0.3536171685719967,-0.33721254571553766,-0.8657435828263488,0.4863807611285756,-0.11799069454403857,1
76,15.24,-0.8577772628852569,0.35991740221492785,-0.3669845103814797,-0.8653734628651074,0.482692918491607,-0.13467114095791902,1
77,15.44,-0.9250573856874733,0.17090542735251996,-0.3392052005593522,-0.8703247131980856,0.46842824016438667,-0.15201933236653026,1
78,15.64,-0.8177111603622886,0.1418522094449849,-0.5578766968556187,-0.8742974374255231,0.4452768385506431,-0.1932162725070239,1
79,15.84,-0.8593426944871191,0.21403518121736423,-0.46445567563855666,-0.8781427331091737,0.40504278067684313,-0.25456960955526753,1
80,16.04,-0.8654242832487952,0.22155414423169784,-0.44939355929638064,-0.8708022693059796,0.39618914626926693,-0.29109717990730566,0
81,16.24,-0.8507389200664761,0.21924873332313383,-0.477674871455813,-0.8718324530624337,0.3787736798194961,-0.3105457667770361,0
82,16.44,-0.8027144608158323,0.3070779729629175,-0.5112265768894783,-0.8836862568460346,0.35386183803442767,-0.3063990846010168,0
83,16.64,-0.8312228532940268,0.28746679015357784,-0.475848098368099,-0.9107092049625606,0.3179021455415678,-0.2637175948937215,0
84,16.84,-0.9946357297155535,0.06657864710522444,-0.07916469492675805,-0.934530106342685,0.2813162122704179,-0.21797859769471772,0
85,17.04,-0.993911898775006,0.07724113792983212,-0.07856808566311894,-0.944114819210244,0.2739903270873495,-0.18323893912096234,0
86,17.24,-0.9730831379009737,0.2304542299481227,-0.00023373449129927978,-0.9504636073383894,0.285762213661627,-0.12230653444727622,0
87,17.44,-0.9682443848178645,0.24773802887230303,0.03359583782466782,-0.9477577394156447,0.30886251575658646,-0.07974467843223053,0
88,17.64,-0.9475583146651725,0.3116920402591535,0.0705784127618657,-0.9304318890930344,0.3637009502827976,-0.04492347406598853,0
89,17.84,-0.9163436759192357,0.3884974822581461,0.09687091349783113,-0.8947869290156975,0.4459929676743316,-0.02113349113847229,0
90,18.04,-0.6821536872934106,0.7255478748930843,0.09081094730335508,-0.8251721185993457,0.5646275492361484,-0.01693237519807379,0
91,18.24,-0.6120331215545787,0.7883479630673847,0.06263343554096361,-0.7484103282157022,0.6611968708614095,-0.051968053486209004,0
92,18.44,-0.554493843088669,0.7608725137920519,-0.33706022567565314,-0.6399559597572068,0.754621166273452,-0.14492503228679066,0
93,18.64,-0.35324541558821443,0.7693180126145032,-0.5323227139929131,-0.5083421778978283,0.8244085874222293,-0.24887489056668063,0
94,18.84,-0.011417470373931815,0.8177447265169404,-0.5754678128479425,-0.31788201448181064,0.8743778844026505,-0.36662561303942137,0
95,19.04,0.05070388492234296,0.8314464688329005,-0.5532864407511559,-0.0876706400301604,0.8910245391764011,-0.4454089463203273,0
96,19.240000000000002,0.42752400704366444,0.7489595851895126,-0.5062437783855545,0.1424359057895317,0.8589289240632181,-0.4918873002523221,0
97,19.44,0.460256384124536,0.7399654919450546,-0.4905253628540738,0.3409898732731565,0.7916932518518955,-0.5069000900545665,0
98,19.64,0.6755601599625782,0.5145087320156133,-0.528109112732418,0.46775290048512286,0.732584256104251,-0.49449725155549246,0
99,19.84,0.7486320166256333,0.43680062365746186,-0.49875376575569835,0.5895495573048666,0.6691304308825596,-0.45243318396041216,0
100,20.04,0.8077763953595001,0.5322767190886464,-0.2533353299803223,0.6951618958745855,0.6225625755807734,-0.3593964078984178,0
101,20.240000000000002,0.8677197057279761,0.466662706480756,-0.17113862997993903,0.7771583353679201,0.5691047558876894,-0.26859765187763135,0
102,20.44,0.8946803429014969,0.425529338353136,-0.13591124392927345,0.827701670676458,0.5172662312957141,-0.21759041872410065,0
103,20.64,0.9136640932232019,0.3168015089819484,-0.2546659157825898,0.8713301835813483,0.4399622797809323,-0.2172945087894735,0
104,20.84,0.9217464492146703,0.2731154248105179,-0.27530246655400276,0.9017090346578067,0.36041372026962065,-0.2387944033219755,0
105,21.04,0.8896922632422137,0.24706791285419535,-0.3839337484056582,0.907620038128489,0.3134376272619496,-0.2792538633645727,0
106,21.240000000000002,0.7662785528980175,0.28115793223319446,-0.5777260566314062,0.903208071932952,0.2676033273627143,-0.3355646554385065,0
107,21.44,0.7227962388604705,0.24384370121345575,-0.6466110472824299,0.8867884480526254,0.23384539164578835,-0.3986509515935515,0
108,21.64,0.7043308248672313,0.22781807528865175,-0.6723221056261793,0.8775550334991042,0.2035765774655879,-0.4341125894140636,0
109,21.84,0.5152871530609128,0.3618331539310373,-0.7768886140282256,0.8473969438627735,0.19867670604545523,-0.4923880441348671,0
110,22.04,0.572038098821048,0.18240871299138967,-0.7996871106389212,0.8228073048018063,0.19312698167876957,-0.5344998672707374,0
111,22.240000000000002,0.5664828614027324,0.1640498322696934,-0.8075796061499189,0.8055894268792508,0.16464110350203282,-0.5691388076190145,0
112,22.44,0.5378114276455678,0.14540073985556942,-0.8304321123025584,0.792375169356732,0.132545469634423,-0.5954605691952077,0
113,22.64,0.48295764160007426,-0.09382280128184234,-0.8706027787571793,0.7477925582040561,0.10842252205352043,-0.655019729936578,0
114,22.84,0.5073212195860444,-0.12112002305920455,-0.8532028599177728,0.7583109110576625,0.07497720953813847,-0.647566969680181,1
115,23.04,0.47711118748272763,-0.18698096137089612,-0.8587217447250519,0.7479287417138311,-0.006185434731580024,-0.6637502073186469,1
116,23.240000000000002,0.4432007416256317,-0.23035753777845552,-0.8663189409283037,0.7319031184967546,-0.06852317453702153,-0.6779545705178885,1
117,23.44,0.4722750982665978,0.015266611121634004,-0.8813189900042644,0.7255291292213915,-0.07519891790397047,-0.6840706143354801,1
118,23.64,0.4916186475347271,0.01671198985624821,-0.8706502252863493,0.7388981646237903,-0.0731385228299458,-0.6698359939521372,1
119,23.84,0.6069793947664596,0.12615525900822563,-0.7846405960396837,0.7934487643584576,-0.01695357841072501,-0.6084008830673312,1
120,24.04,0.8861766782064318,0.21672717663865046,-0.4095365989862853,0.8614722259061116,0.0522676433030683,-0.5051076097782659,0
121,24.240000000000002,0.893120326269099,0.2173670178434676,-0.39381170927083403,0.8943664281716083,0.0849989500646644,-0.4391854627005139,0
122,24.44,0.9305099490606809,0.27053595151484794,-0.24690389554854178,0.9274242463944395,0.10816042996032664,-0.35803015039309644,1
123,24.64,0.9342073158908932,0.2792631754857169,-0.22196569499264282,0.9414209063042518,0.1283086662229601,-0.31187106846478424,1
124,24.84,0.9362390912324783,0.28868040312998205,-0.20029974762064498,0.9507193253528263,0.14885650526687375,-0.2719825458377801,1
125,25.04,0.9404714811314568,0.2926568332707672,-0.17281600365223762,0.9576690764278719,0.15984511531774315,-0.23941486829945355,1
126,25.240000000000002,0.9457992044415022,0.274483660517027,-0.17355859237443422,0.9616701687424443,0.14543220904346194,-0.23246496321729415,1
127,25.44,0.947471571622866,0.2670860907920174,-0.17596204440712415,0.963216015561006,0.13924651170991895,-0.2298375868812578,1
128,25.64,0.9443268753513759,0.263122130951574,-0.19751834520522357,0.959905375724506,0.1387494399732652,-0.24357804203642983,1
129,25.84,0.936798196440554,0.2633925257463139,-0.23029007040405178,0.9524940871200878,0.14283818569905057,-0.26898376662444523,1
130,26.04,0.8499935209783077,0.2770342699094436,-0.4480658741643254,0.9454749401251266,0.12567801171948864,-0.30046992356244945,1
131,26.240000000000002,0.9343575857124437,-0.21847233580912173,-0.2815061997678205,0.9499631417945736,-0.014179631692802624,-0.31204000909633317,0
132,26.44,0.9121067168451239,-0.09899730430834733,-0.3978201488432803,0.9422528342940403,-0.09146807357830242,-0.3221695016303096,0
133,26.64,0.8812962897922911,0.058514747454236286,-0.4689273653016091,0.9342340396918993,-0.10805469153100912,-0.33989843000386627,0
134,26.84,0.871431559597678,0.13284983846939985,-0.47218424090159233,0.9392986423932354,-0.04765142032140581,-0.33977551786374777,0
135,27.04,0.8106634067096423,0.22832283018181684,-0.5391600191405914,0.9430653930159588,0.03347034448480373,-0.3309190241369084,0
136,27.240000000000002,0.7859156098259039,0.12223181219386865,-0.6061320304354331,0.9445384918931625,0.09165628381841369,-0.31535085693365233,0
137,27.44,0.7884239045059498,0.13758566402448227,-0.599548106375573,0.9455817389210885,0.13395131605716754,-0.2965336742185005,0
138,27.64,0.9223403474961196,0.3482041965582336,-0.16745781821095188,0.9484586933809288,0.20332624637138558,-0.24307312580098991,0
139,27.84,0.9156707094294019,0.3728083279585142,-0.150203536901875,0.9458771752956201,0.25673693367030537,-0.1985006703876539,0
140,28.04,0.8285413593396518,0.5482030209135643,-0.11398536627499319,0.9326983075808055,0.3299853024708081,-0.14554575634194966,1
141,28.240000000000002,0.8269977019357465,0.5523672639521036,-0.10471488293008531,0.9272946115554689,0.35776427256752313,-0.11013368537565424,1
142,28.44,0.8152829969371812,0.5675959721212804,-0.11466667927879931,0.9142225235685468,0.392656930569134,-0.1000885221990237,1
143,28.6,0.8074776836851639,0.5764444154172609,-0.1252662216429266,0.9044287462024394,0.41414213435693836,-0.10244479290312025,1
