,timeStamp,x_gaze,y_gaze,z_gaze,x_head,y_head,z_head,fixations_head
0,0.03333333333333333,-0.9943756713866708,-0.10521895119569862,0.012082899634816709,-0.9943138143550188,-0.1058088067012691,-0.01202227130067317,0
1,0.23333333333333334,-0.993499449026675,0.11090614031548293,0.025664622031425555,-0.9984100055559907,-0.05636482867698889,0.0006832963489845922,0
2,0.43333333333333335,-0.9903659486147326,0.13218666111669655,0.041254992997949914,-0.9996015848620856,-0.01500002241272154,0.023909639663214032,0
3,0.6333333333333334,-0.9430813267959686,0.0371356654147932,0.3304823042205988,-0.9941244485072323,0.020589393672941884,0.10626691746904215,0
4,0.8333333333333334,-0.8735052156426659,0.07218898337090893,0.48143264214730475,-0.979894643449398,0.022731507909343286,0.19821646320965475,0
5,1.0333333333333334,-0.8501858723097221,0.07215210930939701,0.5215151538039544,-0.9691663239481104,0.004622537767141219,0.2463640977689279,0
6,1.2333333333333336,-0.8645498713331891,0.028563818974474974,0.5017346193191775,-0.9707287660709828,-0.054438040169893724,0.23392768648616277,0
7,1.4333333333333336,-0.9579714573751906,-0.2233674039372726,0.17999358242108793,-0.9856869402364671,-0.1616258956431965,0.04794085632116112,0
8,1.6333333333333335,-0.8898117167235655,-0.17777989723152227,-0.42027302664079097,-0.963427341635267,-0.238378480544671,-0.12240693363864877,0
9,1.8333333333333335,-0.892848932008242,-0.17425473488219848,-0.4152783066605775,-0.9541309840413039,-0.2639445361108267,-0.14130586381892818,0
10,2.033333333333333,-0.8953319246973832,-0.18374877206759263,-0.405730370296988,-0.9453619928567218,-0.2931053302368236,-0.1427584247907295,0
11,2.2333333333333334,-0.865373910565506,-0.23080738411956883,-0.44481001152002564,-0.905719725379746,-0.3718301240682831,-0.20350463850586573,0
12,2.4333333333333336,-0.7103587423344577,-0.5195753845315724,-0.47479666908886003,-0.809362919558068,-0.4989139090648546,-0.3098654156017842,0
13,2.6333333333333333,-0.6992385987112884,-0.555214247665599,-0.4503360092879503,-0.6892174873246761,-0.6418306998073148,-0.33620322418250664,0
14,2.8333333333333335,-0.39494408898650585,-0.6936638790198706,-0.6023699772712161,-0.5525852121693083,-0.749354669932897,-0.36485224672675326,0
15,3.033333333333333,-0.25417105030561227,-0.5664405069290562,-0.783927438795515,-0.41661883931531846,-0.7632546674968418,-0.49383302367484777,0
16,3.2333333333333334,-0.2149643686985079,-0.585595588698462,-0.7815805311591084,-0.317462524378037,-0.7859195023603082,-0.5306110453291091,0
17,3.4333333333333336,-0.04636701094471524,-0.5419244687330425,-0.8391471685493926,-0.20512169669527172,-0.805225905592828,-0.5563598929713239,0
18,3.6333333333333333,0.021224523265074666,-0.45901324427800066,-0.8881758616341445,-0.08165522795749203,-0.7459355124067307,-0.6609936724944635,0
19,3.8333333333333335,0.067735697450297,-0.371068742522975,-0.9261316664564171,0.010672671088755914,-0.682555033768623,-0.7307562657746733,0
20,4.033333333333333,0.08842580509220718,-0.3628576690729558,-0.9276395792487169,0.07385355189612719,-0.658765916283019,-0.7487143116143303,0
21,4.233333333333333,0.22343905511909287,-0.33173634944350894,-0.9165293138276491,0.11373380039471392,-0.6151336952471553,-0.7801763644326555,1
22,4.433333333333334,0.02047881992898242,-0.28657515905930536,-0.9578388675265012,0.1541643272566284,-0.5450063171584727,-0.8241368056693437,1
23,4.633333333333334,0.009519022273427588,-0.2847968372568537,-0.9585406353950008,0.1794615006214469,-0.5305039596052429,-0.8284679345864012,1
24,4.833333333333334,0.01468427610681014,-0.4144663261955854,-0.909946172300952,0.1650718534016022,-0.5237557316660058,-0.8357219733628924,1
25,5.033333333333333,-0.016133097093251822,-0.43252479342026584,-0.9014776903811522,0.12643320555275167,-0.529384772495108,-0.8389078657301755,1
26,5.233333333333333,-0.07486042486281068,-0.4729520725823129,-0.8779021892155495,0.05821196251300281,-0.5536646588413955,-0.8307026020005153,1
27,5.433333333333334,-0.33428823425064547,-0.4169860180963882,-0.8452065056267046,-0.025934068438235536,-0.5750690749705841,-0.8176936976073117,0
28,5.633333333333334,-0.3869963150964055,-0.3935837445911543,-0.8338619118867395,-0.1311829994840904,-0.584527155919802,-0.8006990849493119,0
29,5.833333333333334,-0.2642505663900302,-0.17391525702030286,-0.9486438328150931,-0.2795766072791172,-0.5586731832124465,-0.7808464605936116,0
30,6.033333333333333,-0.23900848096602087,-0.06360426264861846,-0.9689321151655778,-0.3514217032088307,-0.46649551234639486,-0.8117171449923177,0
31,6.233333333333333,-0.1850323475716603,-0.01164066498156508,-0.9826634852638555,-0.35956153928958573,-0.39309639481872427,-0.8462805231388852,0
32,6.433333333333334,-0.14516937691902737,0.036671640065396055,-0.9887269809304566,-0.36978471083871545,-0.31777225126767805,-0.8730865157326618,0
33,6.633333333333334,-0.11916540487394219,0.05868271257503036,-0.991138711546505,-0.38144797405760333,-0.25448971871121534,-0.8886689069375819,0
34,6.833333333333334,-0.07567624490780231,0.05748597547999886,-0.9954739919152922,-0.3716951860236442,-0.2078989197513322,-0.9047766176538151,0
35,7.033333333333333,-0.07936042146842047,0.06527139992359472,-0.9947067748117376,-0.39811003682198953,-0.1440148707973246,-0.9059625354123777,0
36,7.233333333333333,-0.0487515533520595,0.058817323340528825,-0.9970776341493262,-0.3806717746421768,-0.10161864945876115,-0.9191097051347858,0
37,7.433333333333334,-0.19322057886013347,0.20192662472882664,-0.960151782860699,-0.3794000236122106,-0.06038677660123656,-0.923260017164594,0
38,7.633333333333334,-0.14217843283644516,0.04693953826205196,-0.9887274513150316,-0.37506383490936474,-0.013409317602217594,-0.9269019958682383,0
39,7.833333333333334,-0.1586410057013366,0.06789554370333102,-0.9849990997230901,-0.39625985033079864,0.038055279041388244,-0.9173494027647783,0
40,8.033333333333333,-0.32424073960683747,0.19577742865921602,-0.9254939984715174,-0.4145086223778543,0.10281710736849578,-0.9042185822060888,0
41,8.233333333333334,-0.36265888615125463,0.23542025199273317,-0.9016960891826081,-0.45167722240598895,0.15055342604171548,-0.8793869186352004,0
42,8.433333333333334,-0.3902590307843867,0.270589685015883,-0.8800449484283384,-0.49318353332699727,0.21817012501057742,-0.8421233870448961,0
43,8.633333333333333,-0.4289274315341418,0.3235218918462179,-0.8434185461405084,-0.5193104408606481,0.28821365880928196,-0.8045182116576891,0
44,8.833333333333334,-0.46129614446675704,0.3175151138182521,-0.8284865838365082,-0.550057139766875,0.29932526299104956,-0.7796419241721316,0
45,9.033333333333333,-0.4843020104171414,0.2990931292539126,-0.8221890675136819,-0.5774770201938267,0.2963658083426447,-0.7607151890119386,0
46,9.233333333333334,-0.4938750198456232,0.3029360476089563,-0.8150565721663434,-0.5932058200069468,0.3151278690035247,-0.7408112318851433,0
47,9.433333333333334,-0.7930946579223478,0.5106068981853379,-0.3320865235154572,-0.7645224333279987,0.39116662825903326,-0.5123417978993082,0
48,9.633333333333335,-0.9851783437995953,0.1711719873227097,-0.0111257208431942,-0.8825941122144931,0.37450226999354064,-0.2842106311417575,0
49,9.833333333333334,-0.9709419372410613,0.20159607744182279,0.12896036626283977,-0.9629972720147308,0.2238930959597679,-0.15002711646144895,0
50,10.033333333333333,-0.9529022989943388,0.20530485694794934,0.22321990118465238,-0.9963981052507257,0.07819901859103838,-0.032798313129833334,0
51,10.233333333333334,-0.8684100145401992,-0.4918865752417702,0.0625431350606402,-0.9592461560488685,-0.28211942903284365,-0.01598248627881429,0
52,10.433333333333334,-0.6653845882600637,-0.7450548199743562,-0.046439906750178055,-0.8174287524065116,-0.5758423602960129,-0.014690501279786461,0
53,10.633333333333335,-0.5883348880128529,-0.8066538954700723,-0.05631653815587113,-0.7520571734775942,-0.6589261636577758,-0.015043891389467738,0
54,10.833333333333334,-0.8705778397910177,-0.48954223992778734,-0.04942287113563849,-0.7392044601621143,-0.6728977380880966,0.028024991567534675,0
55,11.033333333333333,-0.9107923899401057,-0.41111521962733616,-0.037967072812608624,-0.7860189270073726,-0.6153712103450583,0.05909754533512598,0
56,11.233333333333334,-0.9122225054062552,-0.40735031753295275,-0.043770074664521805,-0.853660559969781,-0.5140682390661971,0.08365102471254772,0
57,11.433333333333334,-0.9907029143380056,-0.021945280044892886,0.13426146210262255,-0.9319947761372525,-0.33457396826440977,0.1394489046664717,0
58,11.633333333333335,-0.9121973791818319,0.3357006536942987,0.23494895727161347,-0.9756790605575381,0.056673306852586564,0.21175104977296447,0
59,11.833333333333334,-0.7075800867103422,0.6636165920168139,0.24278270055952117,-0.8170409728792636,0.5181881345638951,0.2528341468902038,0
60,12.033333333333333,-0.15540851628560154,0.9712824635729205,0.1801626182692353,-0.5312532108619827,0.8066952175135209,0.2588684067043455,0
61,12.233333333333334,0.15356704090195744,0.9711361065761676,0.18251527731315825,-0.24811775927629987,0.942307180847004,0.22471037905686472,0
62,12.433333333333334,0.4730239113876878,0.8637010856879707,0.17397934888058897,0.07098125839342556,0.9853595020174832,0.1550106858921132,0
63,12.633333333333335,0.557407918935902,0.8151923928271587,0.15734603453623575,0.3447337609873699,0.9328566235710846,0.10458084860555936,0
64,12.833333333333334,0.7716798283347733,0.6207668715227538,0.13841507779525783,0.4850289205046507,0.8687311364514118,0.10026544187272313,0
65,13.033333333333333,0.7293613771164188,0.5250751090754742,0.4385522903830512,0.5648510922422363,0.792755783943802,0.2290884340520065,0
66,13.233333333333334,0.478396838436826,0.49706500953287214,0.7239218474888954,0.4624104228583694,0.7669592746497099,0.4449158031141787,0
67,13.433333333333334,0.21023837808709245,0.496564289412771,0.8421542203535519,0.3424125975639507,0.7478608722747395,0.5687334426161114,0
68,13.633333333333335,0.03965849247121386,0.6052678515851109,0.7950333526415447,0.2007026572570021,0.7265184523537359,0.6571829134719727,0
69,13.833333333333334,0.03934675738128976,0.6105584066214038,0.7909932141222901,0.14486800490999335,0.7097215052956829,0.6894263166388617,0
70,14.033333333333333,0.015400547395234054,0.596380782025422,0.8025539146815456,0.07631485772488705,0.683497609332754,0.7259525194713772,0
71,14.233333333333334,-0.044181201535483994,0.5793836789480901,0.8138566053055402,0.002463064949907501,0.6440069830437137,0.765015646311882,0
72,14.433333333333334,-0.15059034804867322,0.5545829867516163,0.8183888182766408,-0.13606261321828933,0.6061682051654833,0.783611557042561,0
73,14.633333333333335,-0.27691692899180886,0.5604296320620514,0.7805354841034066,-0.36696378384396644,0.5232876018528202,0.7690953563076841,0
74,14.833333333333334,-0.46877272975367235,0.4674509385861253,0.7494943281001141,-0.5508441462803951,0.40438361834554704,0.7300990451455104,0
75,15.033333333333333,-0.9465567088296727,0.315501119188749,0.06700328917437806,-0.7126266748596091,0.22794549804022707,0.6634787654490009,0
76,15.233333333333334,-0.875408213869598,0.0740006874477161,0.4776864634327688,-0.7935776374202939,0.09557275221186379,0.6009162857013235,0
77,15.433333333333334,-0.9352189419113214,-0.17772422072710833,0.30623460297166144,-0.87150371510496,-0.16260363781864207,0.46264601103478276,0
78,15.633333333333335,-0.8584542065472447,-0.5128777308228437,0.003578894710885094,-0.8523995742387522,-0.4784218796587607,0.21101533333237338,0
79,15.833333333333334,-0.6629361446409737,-0.7349442016401805,-0.1427329275396534,-0.725373667101466,-0.6866932843932595,0.047805608927929184,0
80,16.033333333333335,-0.6114545104351008,-0.7724288942020764,-0.17168862824989095,-0.6389480302668799,-0.769015507229211,-0.01898852967117972,0
81,16.233333333333334,-0.3380562415147459,-0.9410386632088541,-0.012814519851189803,-0.4631027788557895,-0.8854377584269708,-0.039189184322557725,0
82,16.433333333333337,-0.03371546439287676,-0.9994314631157166,0.00013414600590568233,-0.29195879560872695,-0.952962688422291,-0.08137675430773457,0
83,16.633333333333336,0.09148011051219673,-0.9947500000798613,-0.045867490903606506,-0.13665534982460203,-0.9724429913819554,-0.18889135468948764,0
84,16.833333333333336,0.49564445919210764,-0.8536231299307694,-0.16020025630241705,0.0755302183222315,-0.9678263968614264,-0.24001510714624788,0
85,17.033333333333335,0.5480289194322716,-0.816997871147523,-0.1793844530786116,0.2828862353212771,-0.9376513988491798,-0.2019535394637372,0
86,17.233333333333334,0.6259296863088816,-0.7615864314996192,-0.16792300364435264,0.44138516227254865,-0.8756504402579564,-0.19599858418285357,0
87,17.433333333333337,0.7931768744676106,-0.5963043640759423,-0.12365901177746129,0.5663578622230168,-0.8081090964885069,-0.16185938363500468,0
88,17.633333333333336,0.8279337601365541,-0.5464911907023736,-0.12598836180714948,0.6377550538794965,-0.7548540242080781,-0.15317928511398266,0
89,17.833333333333336,0.8729614067167301,-0.47421058932354343,-0.11429216664568807,0.7168093084457233,-0.6861267772259985,-0.12415498741101406,0
90,18.033333333333335,0.894254805284769,-0.423880918248471,-0.14364299624392912,0.7324709628715986,-0.668298151078324,-0.12986096340027292,0
91,18.233333333333334,0.8980773474454647,-0.4112417856758094,-0.15600407597075683,0.7574825770989231,-0.6391434959147154,-0.133100477164773,0
92,18.433333333333337,0.922431918826484,-0.35664239204740417,-0.1480728176431999,0.8051643556554273,-0.5811222800608137,-0.11835225388179907,0
93,18.633333333333336,0.9927466686354478,-0.05262669445324218,-0.10809478684999287,0.9144644239223039,-0.3933608200169477,-0.09498464431708487,0
94,18.833333333333336,0.9845158421715107,0.14853345133931004,-0.09309334211722184,0.9610214261354358,-0.2638866981845341,-0.08247198936534544,0
95,19.033333333333335,0.9634005135718128,0.23991027513014523,-0.11959310321479918,0.9861848783945063,-0.1402580426784398,-0.08813096555709707,0
96,19.233333333333338,0.9541707311650857,0.2753674684870725,-0.11717923487933819,0.9938332390073372,-0.08283755787092581,-0.07371181757470012,0
97,19.433333333333337,0.9177261737989276,0.3682891767371932,-0.14880104913145292,0.9957968487248268,0.0023644401425470573,-0.0915589727580912,0
98,19.633333333333336,0.9123988905528362,0.3288886096792516,-0.24364019976433032,0.9820259715300486,0.15198240873271165,-0.111921127032689,0
99,19.833333333333336,0.8768595762338967,0.3808175995198409,-0.29341990297670245,0.9214862745532473,0.3593187315462274,-0.14748930459524046,0
100,20.033333333333335,0.6602825787558317,0.6974006788899184,-0.2786740197352994,0.8597376515815223,0.4725983469446523,-0.19365426129644436,0
101,20.233333333333338,0.7493266523531172,0.5559436177670678,-0.35977251414933725,0.824595269257539,0.5291113045469543,-0.2002095635046113,0
102,20.433333333333337,0.8036460186345674,0.4646389873952694,-0.37183825532764603,0.8308284716984385,0.5235320610594645,-0.18878090914620124,0
103,20.633333333333336,0.9294913756853502,0.21046690589154154,-0.3029017399273178,0.8548049238319865,0.4912262555231307,-0.16734786546985256,0
104,20.833333333333336,0.9348112566200596,0.1721317072678417,-0.31064222161432514,0.8815290892472275,0.4405124964641334,-0.16986819970168307,0
105,21.033333333333335,0.9373892685759544,0.12249459477036749,-0.3260313380806839,0.9082235124095566,0.3761002215998519,-0.18351750548378304,0
106,21.233333333333338,0.9365050820388467,0.15416027376085584,-0.3149489503227329,0.9393047386428297,0.2860619230340215,-0.18940745537914597,0
107,21.433333333333337,0.9457524107285521,0.11244998380956907,-0.30480711727641807,0.9571326154486567,0.2074154144298854,-0.20217814496451658,0
108,21.633333333333336,0.9460845896106714,0.05403043582010701,-0.319381685928134,0.9649498707844026,0.12704217256724049,-0.22963456460768297,0
109,21.833333333333336,0.9451368795517459,0.0565654034660309,-0.32174001001105473,0.964828559032928,0.10296974766760096,-0.24187410514504112,0
110,22.033333333333335,0.9393948275387438,0.19314488516207148,-0.2832532635808175,0.9698721787526857,0.07558442102630725,-0.23159221096495586,0
111,22.233333333333338,0.9118050206507587,0.2839311858414304,-0.296638982641777,0.9791871747314205,0.031793308209121726,-0.20045364150999714,0
112,22.433333333333337,0.9349352097516824,0.2236791273484535,-0.2754338424290158,0.9833224401460917,-0.07642409080864027,-0.1650343511188171,0
113,22.633333333333336,0.9136186063456211,-0.2529594474042941,-0.31829634007949176,0.9278933515930508,-0.34272746068184096,-0.1468053669454631,0
114,22.833333333333336,0.6859756302769334,-0.6953937932183383,-0.21416093719344523,0.7222706623149002,-0.6729774790064803,-0.15945658691091424,0
115,23.033333333333335,-0.12216565224352621,-0.9811825379540189,-0.14952050236012468,0.16379203947618676,-0.9671020144650767,-0.19464290745316648,0
116,23.233333333333338,-0.5479649217961882,-0.8163091875604626,-0.18268485100104748,-0.40108178073779577,-0.8903522705708605,-0.21542107475711866,0
117,23.433333333333337,-0.7697320449088634,-0.6058203338726661,-0.20123196094763632,-0.6956144295909538,-0.6969172356579385,-0.17443317341534983,0
118,23.633333333333336,-0.8799329943015209,-0.4178977374526097,-0.2260075365370574,-0.8360145572968716,-0.5382446100765884,-0.10664145399992135,1
