,timeStamp,x_gaze,y_gaze,z_gaze,x_head,y_head,z_head,fixations_head
0,0.033366700033366704,-0.9987282580122965,0.04850517719098499,0.013751888357435373,-0.9811860138336882,-0.06201570805941904,0.18283341656012106,0
1,0.2333667000333667,-0.9993548550132745,0.03556626929956808,0.004991417584988758,-0.9821559454426586,-0.06794754834171675,0.17536484683649664,0
2,0.43336670003336675,-0.9987996633044756,0.027389536809555706,-0.040608445626800146,-0.9883544486246787,-0.07133262078800104,0.13441406583881996,0
3,0.6333667000333668,-0.9962286482680872,0.03106682459652729,-0.08101439859326547,-0.9936946104690434,-0.06625769136482619,0.09044854592407585,0
4,0.8333667000333668,-0.8814594040949861,-0.46027761340225193,-0.10570637413722468,-0.9857532499466561,-0.1681857633572018,0.0020197087811274633,0
5,1.0333667000333666,-0.787943897995924,-0.19563213727869624,-0.5838428559764682,-0.8864045821518407,-0.38965848519306745,-0.24990634577230159,0
6,1.2333667000333668,-0.820300662379145,-0.14577480120450317,-0.5530429735871559,-0.817041563344804,-0.4412413180630291,-0.3711457705552896,0
7,1.4333667000333667,-0.6647728447640983,-0.7242232299617856,-0.18324240242904147,-0.7389603630256786,-0.622803383319623,-0.2570088084143974,0
8,1.6333667000333667,-0.5158722585165186,-0.8511878366113107,-0.0967216609556659,-0.4789948304033017,-0.8662300295766925,-0.1421600798623681,0
9,1.8333667000333667,0.11599514783002318,-0.9925090921592121,0.038351371047040304,-0.12679691072251692,-0.9908278897729591,-0.0467186930392017,0
10,2.033366700033367,0.1451367155243209,-0.9890791863675965,0.025645601986032482,0.17192007714267343,-0.9851108372061924,0.00035425156642723105,0
11,2.233366700033367,0.19446007263396597,-0.9774111666481248,0.08278098491045104,0.4112586729030823,-0.9106337732765795,0.040155135786782294,0
12,2.433366700033367,0.8181428246419612,-0.554501750058726,0.15221736979951803,0.7168148828799291,-0.6870477868846736,0.11891914151517304,0
13,2.633366700033367,0.9210375278008905,-0.2756807952701918,0.2751181046416581,0.8802565505859137,-0.40830162070491166,0.2417399257059776,0
14,2.833366700033367,0.9831541623462574,0.03008774753469869,0.18028483161241615,0.9328065193186914,-0.22756130812987807,0.27944203076625135,0
15,3.033366700033367,0.8135076037944848,-0.5446421135763468,-0.20388807392205574,0.8207765776043976,-0.45953500636181815,0.3393425814483886,0
16,3.233366700033367,0.16427562787603434,-0.8189020254155744,0.5499208950896526,0.35621252510033163,-0.7610077803856644,0.5421990364747339,0
17,3.433366700033367,-0.42312589035852904,-0.6789655370701991,0.5999752331382343,-0.1432138295881882,-0.7429830382609824,0.6538088435247454,0
18,3.633366700033367,-0.7820163122368475,-0.3111839536833473,0.5400139205293529,-0.5789803517617694,-0.519936920826984,0.6280504363781407,0
19,3.833366700033367,-0.926803796050358,-0.05839226887002693,0.37097852574354917,-0.7951936239561259,-0.20849281374175,0.5693837432150407,0
20,4.033366700033366,-0.951108782802286,-0.006452157757893303,0.30878868654246633,-0.8343415905158655,-0.03794526456784361,0.5499402396918526,0
21,4.233366700033367,-0.9051411974774006,-0.2917321046552206,0.3092115646973974,-0.8544716407856163,-0.08135096133293775,0.5130889164495208,0
22,4.433366700033367,-0.8822671541720013,-0.38241640689161877,0.27452205814714087,-0.8480511080598706,-0.16695280126841508,0.5029275099525331,0
23,4.633366700033367,-0.9298807668819564,-0.24444541658755264,0.27489670367678637,-0.8655013934912494,-0.22306475051397745,0.4484968839834258,0
24,4.833366700033367,-0.9886174237163793,-0.08873342742694135,0.12149884107042701,-0.8934003539474663,-0.1950856348243485,0.4046942088191072,0
25,5.033366700033366,-0.9990941836454739,0.041743345770834404,0.008264701424766667,-0.9399416170590679,-0.06760113747442749,0.33457412143282744,0
26,5.233366700033367,-0.9401509202944368,0.32989503641568946,0.08535521084160463,-0.9372889162086422,0.0877895441263366,0.33731659237950196,0
27,5.433366700033367,-0.9938834147603498,0.02648413038394826,-0.10721170039745123,-0.9330393466461311,0.17118356362636938,0.3164391966149866,0
28,5.633366700033367,-0.9811257933127582,0.02472250612142993,-0.19178366819801618,-0.9532320622838942,0.20094202418615167,0.22576744306911503,0
29,5.833366700033367,-0.7463492677513248,0.6621178149186948,-0.06754827676820617,-0.9244674680518572,0.35321324342407706,0.14352806409769506,0
30,6.033366700033366,-0.6557990456385827,0.7471817394076792,-0.10792154574152221,-0.8204179765303368,0.5654253415310139,0.08490304435298097,0
31,6.233366700033367,-0.6713026032142528,0.7341477545700201,-0.10188174212078101,-0.7386843526814708,0.6718651825572879,0.054245770073054984,0
32,6.433366700033367,-0.6383068668226106,0.7645076103122435,-0.08995808769513403,-0.6617801747053811,0.74763797362288,0.055537921855152925,1
33,6.633366700033367,-0.6751576255876814,0.7332438965253015,-0.08071907345353525,-0.556464526649316,0.8299204717338179,0.03973966756365856,1
34,6.833366700033367,-0.692206158466762,0.6131065851642831,-0.3807242432639139,-0.5457824448408899,0.8378388406560661,-0.012149073693082772,1
35,7.033366700033366,-0.7014473083177033,0.584327778334749,-0.4080842083690887,-0.5812247050100922,0.812222089769224,-0.04973046527880242,1
36,7.233366700033367,-0.7155596899182937,0.5720017608708023,-0.4009841838835256,-0.6065428275638576,0.7928951337026213,-0.058507309641981996,1
37,7.433366700033367,-0.764332515876344,0.6003148804709826,-0.23540996040789836,-0.6270859448900437,0.7763488011252356,-0.06360626315678952,1
38,7.633366700033367,-0.7891589486754825,0.5669978013537492,-0.23609668990780353,-0.6733253120054781,0.7355718769908067,-0.0746125860223808,0
39,7.833366700033367,-0.8301411988976598,0.5048154045860589,-0.23670022641596664,-0.7482065895404548,0.6580099983938523,-0.08491019598354463,0
40,8.033366700033367,-0.8216396206769966,0.5631922571292276,0.08787954963156777,-0.8280115029877613,0.5594356677970906,-0.0377979432822962,0
41,8.233366700033368,-0.8310720717943346,0.5457224368566589,0.10726711236302829,-0.8593821401323414,0.5101986946291897,0.03405332906233651,0
42,8.433366700033368,-0.8271958585882111,0.5558097426092988,0.08259867768371112,-0.8661960322461094,0.4976164358775858,0.04563240587111228,0
43,8.633366700033367,-0.8326764336903982,0.5492302939290047,0.0706826782691426,-0.8768686661542519,0.47781256004555916,0.05288194190432321,0
44,8.833366700033368,-0.9937702545481311,0.05190728511921695,-0.09862208133524383,-0.9149066227375784,0.3987686114499821,0.06268545439870185,0
45,9.033366700033367,-0.9963652228380466,-0.008638851555341333,-0.08474498783228918,-0.9803204233968228,0.18002816463917906,0.08100449004668422,0
46,9.233366700033368,-0.9948896571255222,-0.0882632617511454,-0.04903230332861829,-0.9946197895183205,0.0493228403912366,0.09109737490330098,1
47,9.433366700033368,-0.9904946605337673,-0.1313369142452435,-0.04087716245820821,-0.9960146553563818,-0.02450704591097925,0.08575669662495745,1
48,9.633366700033369,-0.985358818091207,-0.15387987521342783,-0.0734096970038674,-0.9948725798632269,-0.07333731866660657,0.06964328773887862,1
49,9.833366700033368,-0.9848928783818387,-0.1538853851039104,-0.0794059592484002,-0.9926495173787357,-0.09408102671705146,0.0761294690617796,1
50,10.033366700033367,-0.9895303100163387,-0.12589829459887625,-0.0705647573230661,-0.9931109391136721,-0.08258069051521569,0.08313297881581645,1
51,10.233366700033368,-0.9952044740788595,-0.08644875516596004,-0.04576753766237287,-0.9942245622539574,-0.05624409868968102,0.09140088168892396,1
52,10.433366700033368,-0.9990361476168399,0.020202223322216044,0.038969807899752,-0.9944033022631966,-0.030241674233408435,0.10123000339627669,1
53,10.633366700033369,-0.9992693151161658,0.03612456066794947,-0.012484069201067486,-0.9938464497015101,-0.01720916805044198,0.10942156529092267,1
54,10.833366700033368,-0.9980626126432114,0.034135302040715895,-0.05201732786674536,-0.9926624267253852,-0.024779591954747545,0.11835234847786405,1
55,11.033366700033367,-0.9973478042340129,0.02869658671456054,-0.06688694417094278,-0.9913066966554823,-0.040286155630050544,0.12525198134379958,1
56,11.233366700033368,-0.9973829450832081,-0.006845918534636819,-0.07197495575937514,-0.9875971018960851,-0.08334975653958486,0.13305931914467978,1
57,11.433366700033368,-0.9966194560639798,-0.03227704830215062,-0.07555032725036748,-0.9839284304364178,-0.11356284601254754,0.13779812692652227,1
58,11.633366700033369,-0.9960687734192084,-0.04880947950112047,-0.07392315827927898,-0.9803570361330141,-0.13007311766005286,0.14826012871533,1
59,11.833366700033368,-0.9965413327411576,-0.06973448235033382,-0.04519373971921605,-0.9738269199647631,-0.15269402407842378,0.16836170871870013,1
60,12.033366700033367,-0.9952802501465159,-0.09357702823786997,-0.025701429035325577,-0.9684513662666239,-0.17334536062992828,0.17903445792469602,1
61,12.233366700033368,-0.9950290705837715,-0.09831082014091624,-0.01587864403582565,-0.967444961687872,-0.17296921738108811,0.18474819604890944,1
62,12.433366700033368,-0.9952760198798204,-0.09526075017839175,-0.018735894097518132,-0.969686111190678,-0.16583906571409288,0.1794609986793136,1
63,12.633366700033369,-0.9955380865275002,-0.09188020358322288,-0.02149293983310701,-0.9712751531241811,-0.16039868194425946,0.175774969077349,1
64,12.833366700033368,-0.9960137109118223,-0.08246600331314126,-0.034000676070013156,-0.9745326026204614,-0.1476549284561564,0.16877271264158028,1
65,13.033366700033367,-0.996007617449346,-0.07812956181321094,-0.04318098602108591,-0.9762198865129859,-0.14279612008482134,0.1631073305075366,1
66,13.233366700033368,-0.9959977862099478,-0.08021121949211504,-0.03942803739055497,-0.9762676706300111,-0.14219986071056628,0.16334207938111833,1
67,13.433366700033368,-0.9958012144994017,-0.08380821237689542,-0.03682559897281224,-0.9760868515462198,-0.14338949712733434,0.16338271130128176,1
68,13.633366700033369,-0.9958256596858186,-0.0877398209217641,-0.025159080585768084,-0.9741508429252548,-0.14619370228964804,0.1722136366228354,1
69,13.833366700033368,-0.9952976175940441,-0.09049726551277741,-0.03453834602771018,-0.9751680997859036,-0.1474088779769065,0.16528097244855544,1
70,14.033366700033367,-0.9947441989342573,-0.0878847768062863,-0.052538030914305846,-0.9774082104810955,-0.14285909349559844,0.15577056682749388,1
71,14.233366700033368,-0.9589433328873926,-0.07104571904212668,-0.2745545303152113,-0.9801398304222331,-0.13382782496918388,0.14634215415899204,1
72,14.433366700033368,-0.9593386144625937,-0.06823913664311188,-0.27388472580849377,-0.9801952744427538,-0.12967621668788387,0.14967064770893446,1
73,14.633366700033369,-0.9611200333831597,-0.06573771515156393,-0.2681917862951927,-0.979970254992689,-0.12138697302318163,0.15787179010144148,1
74,14.833366700033368,-0.9902748905605291,-0.13888632285666389,0.008138209181821671,-0.9790966097948806,-0.12052814413920304,0.16383770981837764,1
75,15.033366700033367,-0.9891811385735938,-0.146588990092869,0.005687097133094318,-0.9787364117429421,-0.12307451883860838,0.1640966152642866,1
76,15.233366700033368,-0.9871149416069208,-0.16000812909130852,0.0012209345045230832,-0.9781335919436028,-0.13217325994243456,0.16057679056356425,1
77,15.433366700033368,-0.9879496952933662,-0.15473789904276383,-0.0034032586702810183,-0.9790684889978922,-0.1283552199516541,0.15795515617588118,1
78,15.633366700033369,-0.9884753271517474,-0.15130946539598292,-0.004687568007846587,-0.9793263747976108,-0.12876644475287222,0.15600978921681435,1
79,15.833366700033368,-0.9622889373897658,-0.23366095794533728,-0.1392930641106837,-0.9794970700422282,-0.13614740247912702,0.14849031812504523,1
80,16.033366700033366,-0.974151853412718,-0.09616964732051426,-0.20440050251115868,-0.9797782092419771,-0.13538934110941336,0.14732408835130617,1
81,16.233366700033365,-0.9747487711710556,-0.08442787312237274,-0.20672872887083132,-0.9810879409519645,-0.12605855033021396,0.14688667062494107,1
82,16.433366700033368,-0.9993220243443184,0.03472463993630171,-0.01223482904121981,-0.9824733045703193,-0.10566749156843402,0.15355971813047772,1
83,16.633366700033367,-0.9975174254671645,0.06965712069167236,0.010337863720613525,-0.9805912254644751,-0.0708329210686148,0.18282107601413655,1
84,16.833366700033366,-0.9975631527886933,0.06893683384933665,0.010745656662631825,-0.9809657840679891,-0.050371451378546046,0.18753358998828645,1
85,17.033366700033366,-0.9994180130764432,0.03214727043540141,0.011410001835576434,-0.980563607814791,-0.05458998103620221,0.18845409255229165,1
86,17.233366700033365,-0.9908459146048312,-0.08397044214931636,-0.105704012961497,-0.9792868871095235,-0.06082271116848384,0.19312635900222017,1
87,17.433366700033368,-0.9890162638973024,-0.08792662502096069,-0.1188096728345151,-0.9801094872775531,-0.06689736177677819,0.18684254316359278,1
88,17.633366700033367,-0.989754549417451,-0.0742194317995635,-0.12197298000298562,-0.9807509131101045,-0.06203735523095341,0.185145923502639,1
89,17.833366700033366,-0.9927291627737636,-0.10919419473260923,-0.0506501452633671,-0.9821363030246355,-0.05888353453580358,0.1787204846727776,1
90,18.033366700033366,-0.9994875277009596,-0.03200849615887241,-0.00037167710646289097,-0.9829910075240353,-0.05668533671125757,0.1746867245351326,1
91,18.233366700033365,-0.9995060097599413,-0.02931499055533155,0.011329950683984949,-0.981719957688046,-0.05514186528095921,0.18216832702288807,1
92,18.433366700033368,-0.9990301977692974,-0.01958088633225935,0.03943669402323086,-0.9762319701966967,-0.041895214564223376,0.21264038036669825,1
93,18.633366700033367,-0.999104818065948,-0.012689890603852805,0.04035503926242037,-0.9746216937189915,-0.03465124311426702,0.22116022581594583,1
94,18.833366700033366,-0.9884533900443139,0.05436620068628045,-0.14143624688474637,-0.977179705488143,-0.03667520642037927,0.20922416785861164,1
95,19.033366700033366,-0.9847478964829908,0.09654298845295721,-0.14474471234866249,-0.9790043347955477,-0.03190872420870624,0.20132646564945195,1
96,19.23336670003337,-0.9820605489168146,0.1109935717399794,-0.15243852955735138,-0.9810678019673688,-0.03165669172083652,0.19105973362330353,1
97,19.433366700033368,-0.9825145429873627,0.1042700479202352,-0.1542495702588681,-0.9819873733301522,-0.03094462220241357,0.18639535663985474,1
98,19.633366700033367,-0.9925688387190275,-0.028854555114144,-0.11821385305084153,-0.9821239886694932,-0.03003775780054458,0.18582304482017614,1
99,19.833366700033366,-0.9934369036930533,-0.041191923909173936,-0.10670681227278604,-0.9815709342265635,-0.031395418498804,0.18850153521623284,1
100,20.033366700033366,-0.9976887283937791,-0.0304072143786018,-0.06076678821311906,-0.9813377510391241,-0.03130449294026928,0.18972676961153068,1
101,20.23336670003337,-0.998905283558187,-0.026467008815951258,-0.038571128112550784,-0.9805777887914731,-0.034061426114662195,0.19315025078901935,1
102,20.433366700033368,-0.9991631843178234,-0.022544373874489283,-0.034127442190630346,-0.9816241323288872,-0.03591364612246999,0.18741470820549255,1
103,20.633366700033367,-0.9993464273020242,-0.01678064501349828,-0.03201762314119314,-0.9825046706506383,-0.036166386285368335,0.18269254131665752,1
104,20.833366700033366,-0.9994734259622193,-0.014090830906154423,-0.02922874064544369,-0.9830090564509233,-0.036881254876821576,0.17981370352166393,1
105,21.033366700033366,-0.9995787724315363,-0.01113241343491781,-0.026801997600500446,-0.9833956423184718,-0.03656096893307121,0.17775349847391259,1
106,21.23336670003337,-0.9993862345009894,-0.011982416470878292,-0.03291771537413375,-0.9850736972707939,-0.0389092413025782,0.1676779111466574,1
107,21.433366700033368,-0.9808843416132607,0.19229772709977455,-0.029790812848615258,-0.9850722201695672,-0.03848434498701582,0.1677846126470493,1
108,21.633366700033367,-0.9793110204064343,0.19969217374681503,-0.03275608424064927,-0.9852126424482962,-0.03900004401390716,0.16683838205568674,1
109,21.833366700033366,-0.9869244282550614,0.1563468427420487,-0.03918976496501377,-0.9856015368121833,-0.03688620873560459,0.16501217603127308,1
110,22.033366700033366,-0.993717830786107,-0.10966980477187518,-0.022302616417206773,-0.9855319998813908,-0.03722564933100962,0.16535092452620773,1
111,22.23336670003337,-0.9950535728591287,-0.09728352213624646,-0.020107298700956202,-0.9850661187639649,-0.037838982094896376,0.16796711909573417,1
112,22.433366700033368,-0.9971326838105798,-0.07340771052406908,-0.01837713014387389,-0.9846086400184243,-0.03756736444660607,0.17068836846605887,1
113,22.633366700033367,-0.9988296885996859,-0.04565349967506465,-0.015969068203045295,-0.9839152168819264,-0.03726554145403867,0.17470582534171322,1
114,22.833366700033366,-0.9996141608074913,-0.02254563344812013,-0.01622417719201547,-0.9838420816313369,-0.03777879614128849,0.1750072026330149,1
115,23.033366700033366,-0.9997931799386325,-0.005233710752343783,-0.01965211489785916,-0.9843341575008321,-0.03997069971969555,0.17172247826375348,1
116,23.23336670003337,-0.9997644124457905,0.007564476106803535,-0.020344490855098728,-0.9845177943328239,-0.041228554377713715,0.17036701249348513,1
117,23.433366700033368,-0.9995847732272386,0.018271005278693957,-0.022281191582938065,-0.9851355320158942,-0.03973375448357066,0.16712035278325724,1
118,23.633366700033367,-0.9994104263932027,0.02629967151603548,-0.022070951377442895,-0.985223676160141,-0.03835703934104383,0.16692227372788726,1
119,23.833366700033366,-0.9992012939313276,0.03313962260453269,-0.022328000796988382,-0.9853356155910629,-0.037240154575856506,0.16651394997100918,1
120,24.033366700033366,-0.9989960700588205,0.03849892193602935,-0.022906003946472357,-0.985500717609934,-0.03712987919261464,0.16555877403945563,1
121,24.23336670003337,-0.9987503531668269,0.04223847079450926,-0.026714109269825075,-0.9861422529747724,-0.03794052916445622,0.16150533472477352,1
122,24.433366700033368,-0.998554684027541,0.044234644179606326,-0.030526042340299188,-0.9868910780835228,-0.03764120551312963,0.15693673772148004,1
123,24.633366700033367,-0.9517997889129023,0.009520091149115438,-0.306572225894433,-0.9871583087259244,-0.03953027113173014,0.15477671393857798,1
124,24.833366700033366,-0.9660859553769214,0.0010955519495599517,-0.2582183699688825,-0.9860963808927009,-0.041107521641183316,0.16100962472733502,1
125,25.033366700033366,-0.9976152541396024,0.0400518471880595,-0.05621080185160968,-0.9854406876532791,-0.03872510469521854,0.16555064899835573,1
126,25.23336670003337,-0.8804537573832794,0.04830878924575349,0.47166454392001406,-0.9845900230535587,-0.036391015744623646,0.17105022793456745,1
127,25.433366700033368,-0.8902152820690763,0.03908991999669734,0.453859812855607,-0.9838675011725554,-0.031072738784960013,0.17617952503305692,1
128,25.633366700033367,-0.8872006277966744,0.04312917483164834,0.45936360360342854,-0.9832722621308838,-0.022702039931392543,0.18072154245404115,1
129,25.833366700033366,-0.9965121567351087,0.05712552153229432,0.060829238601236214,-0.9801123824573481,-0.009766652931036499,0.19820275034495816,1
130,26.033366700033366,-0.7718794063871238,0.04584364584177391,0.634113981971219,-0.9491275762278388,0.024786690291826566,0.313914740062083,0
131,26.23336670003337,-0.6954777522907323,0.06336337109291715,0.7157484050086125,-0.8944293736320031,0.07596159307297756,0.4407107123296165,0
132,26.433366700033368,-0.6342725661655026,0.07539236201232556,0.7694246574941764,-0.8376631580067989,0.13140727243604514,0.5301439073204519,0
133,26.633366700033367,-0.42240367949969454,0.011617967793139842,0.9063333571978234,-0.7456818677706706,0.15959265837514572,0.6469070531929595,0
134,26.833366700033366,-0.5457270149088318,0.07253474216085905,0.8348177863332534,-0.5994176959705704,0.14927331475485786,0.7863942416240278,0
135,27.033366700033366,-0.4774803661494536,0.04979929769277697,0.8772300324835499,-0.5427497171068517,0.12316085296917892,0.8308153518540309,0
136,27.23336670003337,-0.47746380754152534,0.057888028293901585,0.8767424300603879,-0.5349545843280806,0.12242634529799408,0.835963744837865,0
137,27.433366700033368,-0.1736585629234561,0.029740783339785946,0.9843567388552265,-0.4653190781062417,0.09805191845711929,0.8796953886643014,0
138,27.633366700033367,-0.07453029522800407,-9.420220758283279e-05,0.997218745421069,-0.34588180607736824,0.05547607485631797,0.9366366325012033,0
139,27.833366700033366,-0.13525562579896594,0.03675623797012771,0.9901287263078543,-0.32110113931119383,0.04315434998910507,0.9460611821706201,0
140,28.033366700033366,-0.09698640733925598,0.008786778547583644,0.9952469187664839,-0.37657414541780004,0.05273069805429441,0.9248845260277418,0
141,28.23336670003337,-0.7040307942765772,0.12361771858342376,0.6993277488864008,-0.5739013454416044,0.09175947008827225,0.8137674393519535,0
142,28.433366700033368,-0.7599977421891827,0.11632296738450701,0.639431309153851,-0.7015401132612562,0.09971236894837313,0.7056195242225708,0
143,28.633366700033367,-0.8821622630871275,0.25220000345446564,0.3977246532999497,-0.8734676623375155,0.14045119390523994,0.46618419640870346,0
144,28.833366700033366,-0.9654746959418881,0.24948569881085184,-0.07493662378823894,-0.9638975894215336,0.17263661377302755,0.20272650712804832,1
145,29.033366700033366,-0.9736380160955035,0.2277752153510051,-0.012143512070888575,-0.9731448787761166,0.1775265123146481,0.14653798939938717,1
146,29.23336670003337,-0.9823387781053253,0.156659805404332,-0.10231437045309597,-0.985053906703914,0.12604996088806586,0.11738913172638171,1
147,29.433366700033368,-0.9816477759586919,0.09635474415305237,-0.16457037167896757,-0.9924798784784208,0.08227438163618038,0.09063452400627153,1
148,29.633366700033367,-0.9805378781802424,0.07905883880783293,-0.17970856813225566,-0.9945952041109839,0.06585460219893549,0.08027173430697977,1
149,29.833366700033366,-0.9831343423115606,0.06236624520245839,-0.17192241397491578,-0.9949331763254159,0.05160207748812919,0.08628557379961338,1
150,30.033366700033366,-0.9858787755001746,0.052315993108309505,-0.15907883857813426,-0.9943323547574154,0.051846465760201216,0.09281762909463892,1
151,30.23336670003337,-0.9865983031780463,0.03881679980374731,-0.1584835771277132,-0.994969853527648,0.04482340893404364,0.0895871228620625,1
152,30.433366700033368,-0.9879329568383981,0.029074589277367405,-0.1521286989719321,-0.9945332353112047,0.04319838494272139,0.09506599497069657,1
153,30.633366700033367,-0.9880835262716426,0.031189048815635455,-0.1507255397886252,-0.9940012105757627,0.05365401064213621,0.09530393756782686,1
154,30.833366700033366,-0.9879840533829828,0.03760962692603665,-0.1499100604476432,-0.9931991890827809,0.06639468937218768,0.09564055639987501,1
155,31.033366700033366,-0.9883623769447076,0.04418257116704254,-0.14555999534651484,-0.9921699124580045,0.07616725122506998,0.09898189053504948,1
156,31.23336670003337,-0.9786841025501922,0.16585304976650225,-0.12112057339145532,-0.9912589104978761,0.08331281821341709,0.10229734444207986,1
157,31.433366700033368,-0.9747821953592877,0.18415858848631775,-0.1260368434119733,-0.9909490841752402,0.08935930376697082,0.10017398565762962,1
158,31.633366700033367,-0.9737658032594134,0.18673127389958433,-0.13004457601295064,-0.9908420119015393,0.09341834457730566,0.09749420673735347,1
159,31.833366700033366,-0.9699333444167619,0.07883561645598398,-0.23024824204870825,-0.9911038514995971,0.0925468062251181,0.09564645419562319,1
160,32.03336670003337,-0.9708801814246917,0.0528728708049631,-0.2336581538264815,-0.9920614915442434,0.08553932240789448,0.09217928898081976,1
161,32.23336670003337,-0.9725233083638378,0.04136420777058872,-0.2291013247551553,-0.9935088230212488,0.07512303183410385,0.08542100834680637,1
162,32.43336670003337,-0.984714606165184,-0.040440708919346875,-0.16941574149720387,-0.9943915637491828,0.06346554539313883,0.0846022605632145,1
163,32.63336670003337,-0.9844729906671529,-0.03534291855285205,-0.17194129450204404,-0.9948058953841167,0.05778471557158233,0.08379831236556949,1
164,32.83336670003337,-0.9845803258534246,-0.015283178253965213,-0.17426418566309662,-0.9954068458362235,0.05220362811154204,0.0802495637020677,1
165,33.03336670003337,-0.9814907886221587,0.11977356917603332,-0.14943267372528368,-0.9955138652323523,0.05481857936939252,0.0771172320954514,1
166,33.23336670003337,-0.9795759003104575,0.1368782598538941,-0.14729357593027181,-0.9951464409268561,0.059610578865536064,0.07829521056825468,1
167,33.43336670003337,-0.9772411640263614,0.1552339095680558,-0.1445757263603355,-0.9944493881641676,0.06492224889270562,0.08279804332607409,1
168,33.63336670003337,-0.9728348660473579,0.18042524984127792,-0.1450484492241526,-0.9942985659738179,0.0648272354383816,0.08466280911844208,1
169,33.83336670003337,-0.962276201080847,0.23191704678486474,-0.14226382619626107,-0.9913374809234448,0.09833755410363473,0.0870616124895115,1
170,34.03336670003337,-0.8366113947182753,0.4746789403376183,0.2734250863170715,-0.9597475621751294,0.2632089310709442,0.09800854811386353,0
171,34.23336670003337,-0.8511114962183233,0.5241812220192725,-0.02903906829409938,-0.9159627867265238,0.38917660267417814,0.09774326198345332,1
172,34.43336670003337,-0.8526135561810547,0.5209902153780714,-0.040240766600625706,-0.9084706322179918,0.40897425527153175,0.08614620666366136,1
173,34.63336670003337,-0.8402193647419886,0.5292272558802104,-0.11810982493455872,-0.9043443682013436,0.42368769204140194,0.05147818290444153,1
174,34.83336670003337,-0.8300451182908678,0.5318955682385954,-0.16766694990259953,-0.9035990999672614,0.42726918154365273,0.030817414579629235,1
175,35.03336670003337,-0.8375703081162856,0.514041384494377,-0.18503360232426472,-0.9169775460219174,0.3982455979509721,0.023507951937497863,1
176,35.23336670003337,-0.8205481922643505,0.5343232316503614,-0.20297622592417358,-0.9465948858443541,0.321660350087818,0.02219777634576122,1
177,35.43336670003337,-0.8298792382146181,0.5538367511567198,-0.06756702634047848,-0.9569364611339771,0.28653891721455604,0.046562412672564446,1
178,35.63336670003337,-0.8363684151875199,0.5450434394542372,-0.058442477570784926,-0.9680834844532789,0.2434618404585642,0.059503776093010566,0
179,35.83336670003337,-0.9551280469034722,0.2958833209399746,-0.013545272529221563,-0.9814926978785239,0.1787249480944525,0.06877119265922112,0
180,36.03336670003337,-0.9752434354510197,0.22024208038826104,-0.01984105934529237,-0.9916527601941281,0.09344819009002778,0.08883827423056516,0
181,36.23336670003337,-0.9832264596998912,0.18116782405531,-0.021070084790586294,-0.99528369997115,0.02251097146072302,0.09435895683840707,0
182,36.43336670003337,-0.9982068845340639,-0.011837731407449354,-0.05867609209825982,-0.9947797429853198,-0.03561605984995321,0.09562823446464828,0
183,36.63336670003337,-0.9973148355245218,-0.04519999627949582,-0.057620128245518605,-0.9906722642684299,-0.09374627704193254,0.09889438988152854,0
184,36.83336670003337,-0.7745741601155561,-0.6280899129481846,0.07441728115177748,-0.9455895038585609,-0.30979102881425746,0.09944852265732575,0
185,37.03336670003337,-0.8371965120689812,-0.53952578437395,-0.08952054610650312,-0.9061311937882484,-0.41268503746599083,0.09282951844956513,1
186,37.23336670003337,-0.8392717921181397,-0.5379387070209148,-0.0790240877421069,-0.8926574964098433,-0.4404898958417301,0.09555755210684591,1
187,37.43336670003337,-0.8186064678199702,-0.5717764250764408,-0.05436148057326505,-0.8797292236980253,-0.46441560124410847,0.10195411856684952,1
188,37.63336670003337,-0.8036865697221263,-0.5932197475163091,-0.046671498850678075,-0.866952686611581,-0.4870024073129933,0.10593249949052937,1
189,37.83336670003337,-0.8000808349659582,-0.5982581897189405,-0.04424698808271186,-0.8643030372437409,-0.4915135761397822,0.10674579280481142,1
190,38.03336670003337,-0.9829533082623525,-0.1768543966637509,-0.050252523884848244,-0.8989808853423994,-0.42141155649567374,0.11935521706607259,1
191,38.23336670003337,-0.9939923735394651,-0.08317953065035147,-0.07113597561127476,-0.9644459184806258,-0.22704333984785938,0.1352604604339037,1
192,38.433366700033375,-0.9961934935637946,-0.051048077695081795,-0.0706584541636688,-0.9844486315184602,-0.10770895062441617,0.13877922703639117,1
193,38.63336670003337,-0.994629248612136,-0.06866725487994044,-0.07744330773224832,-0.988180815505808,-0.07712852794521674,0.13247590740689502,1
194,38.83336670003337,-0.9941467392959085,-0.07841772128270504,-0.07431636250611977,-0.9891262368801944,-0.06118354355939267,0.1337380331571453,1
195,39.03336670003337,-0.9596892828112433,-0.09114472536879586,-0.26587425504303447,-0.9901652622465542,-0.06555047581525582,0.12359566562224741,1
