,timeStamp,x_gaze,y_gaze,z_gaze,x_head,y_head,z_head,fixations_head
0,0.03333333333333333,-0.8563254370478641,-0.3338601052413358,-0.3940103754890583,-0.998743537114974,0.023650342086693386,-0.04418153902087602,1
1,0.23333333333333334,-0.9992904553235411,0.020639854550284147,-0.03150527421581451,-0.997051565416464,-0.053363119740705345,-0.05514121282777512,1
2,0.43333333333333335,-0.998702666931067,0.04900964950662721,-0.013821625085793602,-0.9973188311589201,-0.04741923418952944,-0.05573657008360428,1
3,0.6333333333333334,-0.9981751347288973,0.060367238495695835,-0.0014822028712479856,-0.9975919608764847,-0.04088180691798668,-0.05602639964990665,1
4,0.8333333333333334,-0.996811269861579,0.07971504429242393,0.0035782663963800916,-0.9982949294380293,-0.020190076116635074,-0.054768555620212565,1
5,1.0333333333333334,-0.9958859045461431,0.09058259469835402,-0.0024614353585792176,-0.9983069279165736,-0.0025228239433821987,-0.05811121262823761,1
6,1.2333333333333336,-0.9969625568449693,0.07766727834452818,0.005783953984520229,-0.9988847775719358,-0.00901346407832953,-0.04634607427143519,1
7,1.4333333333333336,-0.9984678501351237,0.05319544159463233,0.01523801955952882,-0.9989582538820811,-0.030698032699286705,-0.03376444563822747,1
8,1.6333333333333335,-0.9995287564203987,0.025615732863934627,0.016914470684445976,-0.9976984312722741,-0.06111483506268257,-0.02937374971134017,1
9,1.8333333333333335,-0.9999294145659371,0.0005484834146562628,0.011868658381063447,-0.9954017281559691,-0.09075485684693012,-0.030642381480614402,1
10,2.033333333333333,-0.9997883533677853,-0.01826275656525637,0.009472074364728194,-0.9929962254012726,-0.11465564531935012,-0.02850577722548179,1
11,2.2333333333333334,-0.9081807429255975,-0.4003815552964269,0.12207517502557438,-0.9769954193984817,-0.2132061561309413,0.0048047333176267195,0
12,2.4333333333333336,-0.8848777083340408,-0.4500640310274263,0.1201407893633141,-0.8997124082406548,-0.427524876323946,0.08797762546236716,0
13,2.6333333333333333,-0.904399989859909,-0.4149066696397729,0.09956462137641577,-0.8855649934064919,-0.4564209312070117,0.08633988654778538,0
14,2.8333333333333335,-0.9072619039142256,-0.4100768809050728,0.09334232401810784,-0.8729147442590903,-0.47992465385312694,0.08770505047626026,0
15,3.033333333333333,-0.8802240702881918,-0.46257645033797795,0.10596515313066063,-0.8327309237780872,-0.544808608720734,0.09870556442000517,0
16,3.2333333333333334,-0.8768329857640123,-0.467657489345428,0.11162610687155108,-0.8223092767800491,-0.5597211698886385,0.10256541961093252,0
17,3.4333333333333336,-0.8537381201628554,-0.4959579975222549,0.15860922695262414,-0.7818960336127906,-0.6026698952217939,0.1594603085847315,0
18,3.6333333333333333,-0.8328572616701235,-0.5431741201317049,0.10635157216746587,-0.6468715323806906,-0.7304278644421106,0.21916285141874536,0
19,3.8333333333333335,-0.3296855997759434,-0.9284084354757359,0.17136272126070082,-0.47729739224642453,-0.8361979936342656,0.27011130075728396,0
20,4.033333333333333,-0.3675174525490009,-0.9038656464718653,0.2189927286461588,-0.4039857578188102,-0.8681588814484253,0.2882631853736804,0
21,4.233333333333333,-0.3719398425540241,-0.8972931301871203,0.237751534253488,-0.3896025575337737,-0.8722160498778346,0.295717786916258,0
22,4.433333333333334,-0.2098374531415138,-0.9468371580250394,0.2438598766549131,-0.3774324495611224,-0.879659315530933,0.28938596133527494,0
23,4.633333333333334,-0.16537443417048686,-0.9599625150497646,0.22610454710624964,-0.3231003507462745,-0.9104572594580441,0.25821259080026,0
24,4.833333333333334,0.16379726854093385,-0.9825752981679129,0.08784212115361476,-0.18393584411485037,-0.9601801939064819,0.2102893256431924,0
25,5.033333333333333,0.28862836535630165,-0.9549740811266538,0.06868894443833154,-0.11837205677543416,-0.9774153116163404,0.17506388774583312,0
26,5.233333333333333,0.25630716231761724,-0.9651639956489583,0.05258421861764769,-0.15700464173113682,-0.9762835177357693,0.14906386373749203,0
27,5.433333333333334,-0.7682573528545711,-0.624349733302926,0.14130835187437657,-0.5883024721743906,-0.8021831321240258,0.10199227308570225,0
28,5.633333333333334,0.30114352585747534,-0.951387715634813,0.06460643445741694,-0.09584177248214498,-0.9884332020429039,0.11753365367712004,0
29,5.833333333333334,0.5024656324299572,-0.8643425400429092,0.020982414039738544,0.14261141576420616,-0.9818996916000692,0.12463939878472723,1
30,6.033333333333333,0.36463510898031515,-0.9281954315877589,0.07412474673500083,0.24758300941841915,-0.9627702238552701,0.10851796858120842,1
31,6.233333333333333,0.34713559258377197,-0.9349289244243805,0.07351725400329162,0.2654455951034905,-0.957851914199343,0.10981050270720234,1
32,6.433333333333334,0.29001694547969475,-0.9538221948605552,0.07818818277733243,0.23520260295117484,-0.9652973108238779,0.11349377639845232,1
33,6.633333333333334,0.2604760190906094,-0.9616745962237467,0.08564002835474899,0.21020731662120068,-0.9694686461107025,0.12626728890411715,1
34,6.833333333333334,0.24708491166524282,-0.9654113958004197,0.08324592053707405,0.19153366400011818,-0.9732908892636888,0.12656895524175077,1
35,7.033333333333333,0.24265350757462179,-0.9671207745680315,0.07613594854379784,0.18138747873309258,-0.9757763007507086,0.1223077816498797,1
36,7.233333333333333,0.22296753494919108,-0.9719734651526256,0.07451886605336527,0.15314066501860707,-0.9808678604949606,0.12019225002344146,1
37,7.433333333333334,0.09703145868321655,-0.992850674233534,0.06951571548811321,-0.004492841557340088,-0.993405205681537,0.1145683712879081,0
38,7.633333333333334,-0.8751759398359724,-0.48225905473572667,0.03864296129472943,-0.6353789365856769,-0.7720802797026323,0.013625294035713472,0
39,7.833333333333334,-0.9479243071614778,-0.3177089716699252,0.022372242017091665,-0.9370842432252091,-0.3406223894312759,-0.07648208232759691,0
40,8.033333333333333,-0.9993830969299093,0.01958201944620452,0.029154246434990042,-0.9933249936424151,-0.08193853828918317,-0.08118825622175001,0
41,8.233333333333334,-0.9976612765199226,-0.04557663889848383,0.05093866232397257,-0.9961620779853342,0.03387399502017423,-0.08070729115336678,1
42,8.433333333333334,-0.9927812875955049,-0.07017169258254657,0.09726894962068855,-0.9897566314273389,0.1196155479641807,-0.07793542988163978,1
43,8.633333333333333,-0.9890351813615651,-0.07283784216801452,0.1284681235848157,-0.991348301647775,0.11697948622730951,-0.05953439864537995,1
44,8.833333333333334,-0.9850367306322737,-0.10964123551440186,0.1329715713231853,-0.9961831083113646,0.07329691737114928,-0.047400175305525136,1
45,9.033333333333333,-0.9819806320052484,-0.1258606078806503,0.14097214530000612,-0.9984218976132802,0.04266032890025261,-0.036521373254838264,1
46,9.233333333333334,-0.9848492990979079,-0.09430076072834839,0.14553083725593963,-0.9976305370869756,0.06001660180593115,-0.03363508553907924,1
47,9.433333333333334,-0.9849663519985878,-0.08897915638290446,0.1480675358070772,-0.9978802944554517,0.060398491241456756,-0.024226848603500856,1
48,9.633333333333335,-0.9993154484526349,0.028556599692889782,0.023519249517986642,-0.9939497374028282,0.10043925459962481,-0.04445082285313431,1
49,9.833333333333334,-0.9992819307954532,0.03711962460022527,-0.007599753630845608,-0.9879968769015012,0.14542321197315683,-0.052098566700922944,1
50,10.033333333333333,-0.9999967960246376,-0.0016719518112628235,-0.00190066241103715,-0.9907777331791788,0.1290489127993475,-0.04130207672302338,1
51,10.233333333333334,-0.9990576979813661,-0.024271423099157072,0.03598074658640888,-0.995369641919479,0.09498496358573189,-0.014735421192005087,1
52,10.433333333333334,-0.9866703502589618,0.12315616602958816,0.10636812816229373,-0.9929800623185843,0.1180077748258702,-0.008047416879219218,1
53,10.633333333333335,-0.5100072241372848,0.8437203906652286,-0.16741724434327213,-0.863265561675032,0.5036831105981425,-0.03280082505168776,0
54,10.833333333333334,-0.49127840877455436,0.8645549594130033,-0.10578396488278266,-0.6188860891797691,0.7820239082155772,-0.07361124641660058,1
55,11.033333333333333,-0.3720074150679788,0.9082950889997518,-0.19133874263560363,-0.5133122364391951,0.8516300390067023,-0.10600388947220149,1
56,11.233333333333334,-0.40714465306592407,0.8913744834154561,-0.1992103456039809,-0.5110014136323526,0.8508743036505375,-0.12202653257775502,1
57,11.433333333333334,-0.44336627618050334,0.8743341239025652,-0.19739854337194956,-0.5345271487600107,0.8358567908348792,-0.12499660976886642,1
58,11.633333333333335,-0.46236360778414876,0.8640509584460083,-0.19908750690427726,-0.5577381618597125,0.8194789751929472,-0.13184214812443748,1
59,11.833333333333334,-0.5202846808611058,0.829934913134405,-0.20127565879123352,-0.6271088515060853,0.7669563160416788,-0.13606063959314477,1
60,12.033333333333333,-0.7854086399516114,0.5913646076246003,-0.18281457583672853,-0.897997400192974,0.4225675686518786,-0.12262674736899853,0
61,12.233333333333334,-0.9985052538437476,0.016296370671132935,0.0521697838732572,-0.9930970929217224,0.10126971235714739,-0.05918284708870341,1
62,12.433333333333334,-0.9918561263995154,-0.08035560798177072,0.09881498261715559,-0.9983053334970553,0.04337614422778447,-0.03879395859233873,1
63,12.633333333333335,-0.9886112536626575,-0.08901410561190372,0.12134363656023028,-0.998924707774533,0.0381226927760733,-0.026383489023727977,1
64,12.833333333333334,-0.9896480390713174,-0.08611627556369215,0.11480742939956014,-0.998966225743981,0.04037983156066533,-0.020879392375198952,1
65,13.033333333333333,-0.9906206839138794,-0.08361767852146096,0.10806823974081774,-0.998646769184838,0.04657115552631232,-0.023146443995340556,1
66,13.233333333333334,-0.9946752086416673,-0.06714881830584545,0.07818097923270195,-0.9965661257879963,0.07744047987966213,-0.029307490645076522,1
67,13.433333333333334,-0.9967816119438736,-0.06352271640675462,0.04890074223240381,-0.9944766455267728,0.09413811271491822,-0.04641354582760306,1
68,13.633333333333335,-0.9965891323042546,-0.07111674294655332,0.04186299375016757,-0.9940683426234951,0.09803331774893076,-0.04709138779984124,1
69,13.833333333333334,-0.9963004026476427,-0.07895981378677931,0.03392426109588911,-0.9937101343650411,0.09766513105037834,-0.05478769056206773,1
70,14.033333333333333,-0.9958524710236654,-0.08359172211774714,0.03592046699932125,-0.9937194061743634,0.09875549626471977,-0.052622179259125386,1
71,14.233333333333334,-0.9958340119095566,-0.08157604920043891,0.040742716170684194,-0.9930043512571827,0.10668609361626927,-0.050600749136772774,1
72,14.433333333333334,-0.9948939297518705,-0.09312632065860199,0.03890445917207077,-0.9935724135516888,0.09995275055583672,-0.05313479731207082,1
73,14.633333333333335,-0.9939122844274857,-0.10361482240250705,0.03744782293583878,-0.9941306328514025,0.09342601668102886,-0.05455148241419398,1
74,14.833333333333334,-0.9926198147876757,-0.1151513096222922,0.03802734783220074,-0.994843026760369,0.08436629525477048,-0.056299914131843265,1
75,15.033333333333333,-0.9935646171650312,-0.1130312987104858,0.007299111557299936,-0.991980501268127,0.08834615336842068,-0.09038607353369918,1
76,15.233333333333334,-0.9926606647735202,-0.12076836659984894,-0.006309218667742053,-0.9908149700550115,0.07834340660096026,-0.11021799198426381,1
77,15.433333333333334,-0.9911931351256807,-0.13063349783193504,0.02170387347729542,-0.9943156073907264,0.06547101502692192,-0.08396439180125792,1
78,15.633333333333335,-0.9981513915709219,-0.03977714687643501,0.04595191063930727,-0.9945389132254618,0.047730487965019566,-0.09281244851278501,1
79,15.833333333333334,-0.997240138744477,-0.03673319588240248,0.06451959390108751,-0.9957415579842906,0.048828590616722636,-0.0781953863178787,1
80,16.033333333333335,-0.9962083374685988,-0.04549583701908666,0.07415576290473486,-0.9968037834417751,0.03834721132234491,-0.07008358366951829,1
81,16.233333333333334,-0.956415879377563,-0.22670813113285096,0.18404371478725604,-0.9980819013727062,0.02414355479339576,-0.05700532356001696,1
82,16.433333333333337,-0.9710561610982084,-0.20462116773655406,0.12320758786430151,-0.9990614846480123,-0.015857762143207298,-0.04030733522225561,1
83,16.633333333333336,-0.9644961415899342,-0.2322024848724558,0.12581414418572584,-0.9968374574710314,-0.07946122692335122,0.0009983979794443844,1
84,16.833333333333336,-0.9810842393634804,-0.17478344248816494,0.08321336133438971,-0.994124452263361,-0.10823207655462475,-0.0015462912878951626,1
85,17.033333333333335,-0.9815264540641604,-0.17394866611374446,0.07967233854660374,-0.9935703639836899,-0.11320332486992596,0.0017143662712944118,1
86,17.233333333333334,-0.9846055762021698,-0.16048310733100463,0.06926060621289899,-0.9947154328828967,-0.10258862142185855,-0.004096625361701622,1
87,17.433333333333337,-0.9901727159282828,-0.12515237569800094,0.062408937567906136,-0.9978223523145192,-0.0639226807389835,-0.016261737565889032,1
88,17.633333333333336,-0.992602410343842,-0.1017297205148947,0.06626853660340454,-0.9993887956106239,-0.030605042468221207,-0.016892796792271687,1
89,17.833333333333336,-0.9947337929897747,-0.08077999624053633,0.06308148136779444,-0.9996678950130813,-0.0036669218265157426,-0.025507907880376057,1
90,18.033333333333335,-0.9946610021771578,-0.0847524670846931,0.05887707593784122,-0.9993842288524813,0.00022479952743756547,-0.03508721399746751,1
91,18.233333333333334,-0.9918890977047554,-0.11057052237851514,0.06269112724611557,-0.9990211936156448,-0.023379318301513893,-0.037550794699032414,1
92,18.433333333333337,-0.9894430653668551,-0.12599126488702606,0.07161439498877754,-0.9986957207837708,-0.03815228702514467,-0.03393022668559398,1
93,18.633333333333336,-0.9878799883375079,-0.13646766943069666,0.073957446159527,-0.9983177524284721,-0.04845946183752506,-0.03183309197331142,1
94,18.833333333333336,-0.9889112358661356,-0.12612876289832972,0.07839708379429187,-0.9988433058640105,-0.037915323370749654,-0.02957158406894507,1
95,19.033333333333335,-0.9901795719429802,-0.10200010007182254,0.09560541246265597,-0.9997084385330068,-0.01322050691082455,-0.020205348869019465,1
96,19.233333333333338,-0.9912145600513997,-0.0886602440650412,0.0981481383646036,-0.9997338645951102,0.001255675134810108,-0.023035261267934478,1
97,19.433333333333337,-0.9921207636100954,-0.08140428455357132,0.0952351451410805,-0.9995430946889888,0.011235955846874434,-0.02805984953214167,1
98,19.633333333333336,-0.9921494682255843,-0.08460376903149205,0.09209579233253021,-0.9994500166556006,0.010854311454062276,-0.031334455954716484,1
99,19.833333333333336,-0.9018619505458445,-0.2767891144039035,-0.3317119357291023,-0.9994530816780781,0.007405843437677544,-0.032228729530804565,1
100,20.033333333333335,-0.9036810414634724,-0.2767920782969837,-0.32672116658020645,-0.9996060883551812,0.009056403943675413,-0.026564067287657197,1
101,20.233333333333338,-0.9059370101135389,-0.27237131848482116,-0.32417896071981894,-0.9995794268749614,0.015136636855350464,-0.024735634073814614,1
102,20.433333333333337,-0.9115543760342704,-0.26285958717629204,-0.31618579500395216,-0.999495484503118,0.027026349996943578,-0.01668391032461284,1
103,20.633333333333336,-0.9639558647811028,0.24382202516462181,0.10648901726816147,-0.9990938647192877,0.039883238713036125,-0.014858558141260803,1
104,20.833333333333336,-0.9664221983501284,0.22790604918475174,0.11868853053729712,-0.9986173249255335,0.05072833229507381,-0.013786756729997043,1
105,21.033333333333335,-0.972491901829272,0.2163187166871941,0.08640436150618434,-0.9989793375153098,0.040521820498070925,-0.0199565849031127,1
106,21.233333333333338,-0.9754113039425468,0.20698270184747394,0.075703033473041,-0.9994218542459006,0.028092694790733966,-0.019150920476069647,1
107,21.433333333333337,-0.9726403346516883,0.22059896036720783,0.07284832251712291,-0.999051598343888,0.03947728910801932,-0.018369743906884693,1
108,21.633333333333336,-0.9689464578699019,0.23475905382963694,0.07765918121113731,-0.998232097858037,0.05301557207884096,-0.026870577275081013,1
109,21.833333333333336,-0.9358698909439144,-0.06734175460660749,0.34585059680609137,-0.9978812529559287,0.052432333069280364,-0.03852084433158749,1
110,22.033333333333335,-0.9329295241050004,-0.07578697857772881,0.3519926660191607,-0.9986280585825122,0.04203929531430565,-0.03122015793040324,1
111,22.233333333333338,-0.9325637651165575,-0.08791971840797737,0.35013561245136504,-0.9990034334216324,0.027694601784324226,-0.0350021291323528,1
112,22.433333333333337,-0.9303237576388194,-0.08959604916721481,0.3556265652990698,-0.9992540119399025,0.025677172461987228,-0.028846185820080198,1
113,22.633333333333336,-0.9319096100368167,-0.08322639277891639,0.3530125298994896,-0.998983693856578,0.03104688128797909,-0.03267522870550283,1
114,22.833333333333336,-0.9340133054362354,-0.07384385070352247,0.34952286188653436,-0.9984939172437657,0.041586176123265074,-0.03578389557671508,1
115,23.033333333333335,-0.9345908323031542,-0.0684657702579481,0.3490736519387901,-0.998238892378922,0.04669293644725105,-0.03659075604624824,1
116,23.233333333333338,-0.9977630979302512,-0.043081249683113346,0.05111561732356568,-0.9980674339950505,0.04927707276718366,-0.037857196119544516,1
117,23.433333333333337,-0.9978283427635309,-0.04643308679490602,0.046717949746132234,-0.9981335923174812,0.04430304674253369,-0.04203060714205208,1
118,23.633333333333336,-0.9976515919738425,-0.043112859828798096,0.0532220100093954,-0.9980809257892258,0.045499033451967714,-0.042003613304796183,1
119,23.833333333333336,-0.9968005512029793,-0.048894332829614,0.06322978205389942,-0.9983407244147837,0.03757650610740667,-0.043632604365604226,1
120,24.033333333333335,-0.9964307976773936,-0.044689803231371346,0.07161345493086173,-0.9983542592459429,0.03813924247280746,-0.042827225325545684,1
121,24.233333333333338,-0.9969083344092257,-0.017213269509868748,0.07666469942681793,-0.997294654251885,0.062140549103291094,-0.03926734976739147,1
122,24.433333333333337,-0.9967404271720621,0.0007840908035856512,0.08067159377666638,-0.9961718909846492,0.08008660111586541,-0.03503854925331082,1
123,24.633333333333336,-0.9967352826207303,-0.0006387926807148459,0.08073641262084773,-0.9962306938080315,0.07902798575383622,-0.03576286037860451,1
124,24.833333333333336,-0.9965288819775928,-0.01172559309096345,0.08241782483877194,-0.9969816298235284,0.06916049261449748,-0.03527684872180488,1
125,25.033333333333335,-0.9966413473230367,-0.01996744163027024,0.07941867589468245,-0.9973986473834113,0.061982830934828224,-0.03679764757488929,1
126,25.233333333333338,-0.9969846830712279,-0.017510349574694304,0.0755971519247619,-0.9972077614308188,0.0645420414407765,-0.03756335220387399,1
127,25.433333333333337,-0.9961225434014547,-0.026129690041607957,0.08400665346117972,-0.9980432631249861,0.055806899722075275,-0.028199909117586006,1
128,25.633333333333336,-0.996258146868555,-0.036258259693878456,0.0784540846738057,-0.9984790202647238,0.04480178178411089,-0.032131704594779,1
129,25.833333333333336,-0.9839409434157557,-0.08748309014632648,0.15558576030139404,-0.9991493987755624,0.025659407525597717,-0.03228116682940856,1
130,26.033333333333335,-0.9955700850532028,-0.06071070936916318,0.07179425823178355,-0.999052154602728,0.03202294911538877,-0.02948428587570914,1
131,26.233333333333338,-0.996107021257188,-0.06470523043070177,0.059866813486622775,-0.9993252890667784,0.023008866808141282,-0.028627935304617935,1
132,26.433333333333337,-0.995885771258678,-0.07090932279080374,0.05642161417274021,-0.9995200205634514,0.01051841614684403,-0.029139173196922625,1
133,26.633333333333336,-0.9968536498017543,-0.057653761343583965,0.05439526339543411,-0.9994193233450264,0.02065508069079159,-0.0270995159777212,1
134,26.833333333333336,-0.9978777591330936,-0.03266190496625318,0.05633096654142787,-0.9987318014644457,0.04333683332363817,-0.025626307206907947,1
135,27.033333333333335,-0.997806879099953,-0.033233233381056215,0.05724494929556469,-0.9987495743456707,0.04179044091618787,-0.02743805372784692,1
136,27.233333333333338,-0.9961028226297248,0.07161109672108792,0.05148803332327143,-0.9992887003105806,0.021067585082585532,-0.03127699298812335,1
137,27.433333333333337,-0.9979112237285778,0.06143500271824538,0.01997323202543352,-0.9994330417553549,0.0067356256084267745,-0.03298827663432349,1
138,27.633333333333336,-0.9977574819311217,0.06589787050454529,0.011725097587379354,-0.9994315236783005,0.0076248545979486155,-0.03284038779355221,1
139,27.833333333333336,-0.996990486444748,0.07752135196337495,-0.0006402565390583341,-0.9992717044279866,0.019373192091188002,-0.03287461266365156,1
140,28.033333333333335,-0.9970059374583359,0.07706439626067595,-0.006343461342404052,-0.999219995970287,0.02159877780621637,-0.03305892391499069,1
141,28.233333333333338,-0.9973334759560917,0.07213987127266665,-0.011035248529280199,-0.9992125207051261,0.018899120010160007,-0.034887845002950855,1
142,28.433333333333337,-0.9972962733155908,0.07198159718833215,-0.014791649571670668,-0.9991022812258292,0.020588866281119122,-0.03702337416555524,1
143,28.633333333333336,-0.9971986692143084,0.07313100325796884,-0.015705746709259536,-0.9990391327473933,0.023500325704891224,-0.03699386342491044,1
144,28.833333333333336,-0.9972767978319834,0.07205136738881907,-0.015734959910545417,-0.998988205229983,0.023772322604207162,-0.03817646512420065,1
145,29.033333333333335,-0.9973056223331495,0.07170953494960237,-0.015467328793338252,-0.9989958527900099,0.023771248502548848,-0.03797649079353106,1
146,29.233333333333338,-0.9973273552852795,0.07171487689514323,-0.013968637427613782,-0.9990340371432258,0.023667898238689894,-0.03702462994103704,1
147,29.433333333333337,-0.9972364079900656,0.07387148463946298,-0.007908877052604435,-0.9991469871400349,0.025509207180751604,-0.032474273479180644,1
148,29.633333333333336,-0.9970164451904261,0.07715028422532332,-0.0024579796171142363,-0.9991914178974683,0.02829293151860153,-0.028566071240742157,1
149,29.833333333333336,-0.9967115034362014,0.08103011639059376,-0.0005469512537191518,-0.9990783822543442,0.03265030171839163,-0.02786294869070629,1
150,30.033333333333335,-0.9956230759756655,0.09331825898912544,0.005137423867369439,-0.9986787072673264,0.04574133331811786,-0.023421572900698996,1
151,30.233333333333338,-0.9946554770165994,0.10229759111416231,0.01398874165608807,-0.9982782351976965,0.05640647016298799,-0.016089600813091604,1
152,30.433333333333337,-0.9947571534071242,0.10080877426501768,0.01719874345817961,-0.9982687821624403,0.05721831365704925,-0.013619953823778294,1
153,30.633333333333336,-0.9949950828698421,0.09865499231073903,0.015873800962723044,-0.9983086639036514,0.056059587156558545,-0.015399164352096442,1
154,30.833333333333336,-0.9955616061087479,0.09191117313287624,0.02023424561254468,-0.9986466894239263,0.05076127838976714,-0.011317345928645802,1
155,31.033333333333335,-0.9951979859183098,0.09589496620142778,0.019624583597276535,-0.9983384612623027,0.05628779421778678,-0.012328868014296874,1
156,31.233333333333338,-0.9940742685071704,0.10802627373081243,0.01211085776358913,-0.9974013384545435,0.06904162942009393,-0.020586972970877606,1
157,31.433333333333337,-0.9943400453857323,0.10593859899847456,0.008055270606285556,-0.9973603805055984,0.06776635704631201,-0.02607666102859016,1
158,31.633333333333336,-0.9955330064909225,0.09418572641587113,0.0065636824008739585,-0.9979785470750407,0.056434828401191975,-0.02922207592419365,1
159,31.833333333333336,-0.9907146932510424,-0.11284643333735248,0.07582927574183539,-0.9987063516023623,0.045334501539657894,-0.02303055012911812,1
160,32.03333333333333,-0.9847042960466252,-0.13258608929277618,0.11304148916821746,-0.999473410305843,0.03061014799492435,-0.010766658318021254,1
161,32.233333333333334,-0.9822151699770594,-0.13919873302277144,0.12600425624474682,-0.9998076210588006,0.019602906397323604,0.000668530866885614,1
162,32.43333333333333,-0.9864082406236754,-0.15850254857971374,-0.04330964007517293,-0.999813695417959,0.018710023435274073,-0.00474441542621802,1
163,32.63333333333333,-0.9853785866052638,-0.15597914972908916,-0.0685532341294218,-0.9997625028327244,0.016663105391332096,-0.01404559889659848,1
164,32.833333333333336,-0.9862041223303758,-0.1518569509345164,-0.06588547299249913,-0.9995894379021555,0.020019594394619585,-0.020498084659981125,1
165,33.03333333333333,-0.9877366101379486,-0.14369048161842554,-0.06106909599346952,-0.9993189574170862,0.027576417878965333,-0.024518615862090535,1
166,33.233333333333334,-0.9880381270655463,-0.14341421940116428,-0.05668351734289575,-0.9988807636672885,0.03569636884927998,-0.031032067711173957,1
167,33.43333333333333,-0.9874720262891942,-0.14675221414865616,-0.05798952438828902,-0.9986035003809937,0.03522470990419992,-0.039373453480640815,1
168,33.63333333333333,-0.9865969160514337,-0.1555728493308332,-0.04923021215560757,-0.9985292099303051,0.02898560281495327,-0.045817592095333565,1
169,33.833333333333336,-0.9874074794905554,-0.1541858310433652,-0.03540055015921486,-0.9984550422743936,0.02734979144539197,-0.048368558638154854,1
170,34.03333333333333,-0.9892448761662114,-0.14469766652897165,-0.021381306788124773,-0.998230615195153,0.03328627646246539,-0.049271317075665184,1
171,34.233333333333334,-0.9927744936878115,-0.11982521218210716,-0.006381473844095172,-0.9972623653730829,0.057368087594339076,-0.046654872588532785,1
172,34.43333333333333,-0.9934249433870471,-0.11316589072005095,0.017330984795438358,-0.9972574216552813,0.0635517804410534,-0.037931598387532,1
173,34.63333333333333,-0.9918813690252402,-0.12439273845810093,0.026415836150124907,-0.9978594517540816,0.05399050378432801,-0.03689905210379098,1
174,34.833333333333336,-0.9897664323784059,-0.13697227079295687,0.04001257765682601,-0.998278999314185,0.047310867637372786,-0.034651426113048216,1
175,35.03333333333333,-0.9892339074534677,-0.13686943654539804,0.05179800849539971,-0.9979395191501703,0.05374895513504566,-0.035039491152373314,1
176,35.233333333333334,-0.988678935616678,-0.13746442933883993,0.06014559779750956,-0.9974965823920648,0.05886192945477941,-0.039189812158412246,1
177,35.43333333333333,-0.9876312091339086,-0.14299971180481896,0.06430923081823284,-0.997254403139192,0.05793533439797834,-0.04612106295054975,1
178,35.63333333333333,-0.9866462745923827,-0.15108553013523177,0.06084645771717879,-0.9970494612876922,0.053089718384832715,-0.05544234435647808,1
179,35.833333333333336,-0.9853816648453156,-0.1558774604459047,0.06874003136171387,-0.9968545865145185,0.05408815402395047,-0.057925857259517086,1
180,36.03333333333333,-0.9245153942291492,0.03611893978662418,-0.37942945065191164,-0.996622689480805,0.0578948652357266,-0.058235722639838304,1
181,36.233333333333334,-0.951183269962533,0.2781365149230485,0.13375524666286553,-0.9968104097113593,0.05752495114246244,-0.055316246140979144,1
182,36.43333333333333,-0.9555971836561453,0.2678030134241279,0.12294538864634212,-0.9970617805858232,0.05608823583075863,-0.052171979993299554,1
183,36.63333333333333,-0.9614117415594202,0.24468240001708647,0.12576957626374305,-0.9970488986143103,0.05662045001657643,-0.05184224543662747,1
184,36.833333333333336,-0.9613629782333548,0.25319280598645655,0.10804918823850142,-0.9960578390175125,0.06988251892677474,-0.054637119984606436,1
185,37.03333333333333,-0.9351851841422685,0.31951862338543124,0.1527629558193691,-0.9948712343159796,0.08897219688493269,-0.048116268683973215,1
186,37.233333333333334,-0.937110940140962,0.31493181048279917,0.15046940092307368,-0.9953000463905619,0.08349811897590113,-0.049049788811286445,1
187,37.43333333333333,-0.8412509752060373,0.016732616903796065,-0.540385803150344,-0.9979370952547651,0.053835605088239424,-0.03497544194524068,1
188,37.63333333333333,-0.8618528140083779,-0.09578585323557383,-0.49803092002984456,-0.9981390044876332,-0.05946248102020594,0.013518175592819306,1
189,37.833333333333336,-0.9477741715554011,-0.25190400233461446,0.19562334559115363,-0.9939014380167845,-0.10566387587692579,0.031544838608457144,1
190,38.03333333333333,-0.9494963150613402,-0.23550333866230883,0.20735217665566472,-0.9945060558513081,-0.09996840738156137,0.031048710128908433,1
191,38.233333333333334,-0.9536187635849069,-0.2083671517194135,0.21724268416481185,-0.9961375543764031,-0.08312214611985853,0.02829631752415071,1
192,38.43333333333334,-0.9768662131643933,0.16276606786652198,0.13870691665929727,-0.9983023844739127,-0.05427428630953299,0.02113411931667166,1
193,38.63333333333333,-0.9550631170127264,0.25349438842284744,0.1536067627419506,-0.999044624311578,-0.04139469115399765,0.014011358906360457,1
194,38.833333333333336,-0.9750444661883317,0.1922510496456141,0.11103072937557079,-0.9990485944160863,-0.04209032683693391,0.011415357287548939,1
195,39.03333333333333,-0.9947738314534851,0.040336206113884,0.0937977330839705,-0.9993397488572896,-0.035510958275768396,0.007683631705514979,1
196,39.233333333333334,-0.9953170958014119,0.029213451938968932,0.09214365431896314,-0.9996820926752874,-0.025157697448974402,0.0016744681018711304,1
197,39.43333333333334,-0.9946238875021404,0.022632379857019685,0.1010499767052783,-0.9995964431424947,-0.028403714252616643,0.0004241149955201995,1
198,39.63333333333333,-0.993891777628796,0.01726362921125035,0.10900046545005496,-0.9996972716074017,-0.024601213036946526,-0.0003813893388997908,1
199,39.833333333333336,-0.9939685341459058,0.009681127804055091,0.1092374884931051,-0.999907250816165,-0.013558058850165249,-0.0012918225398558462,1
200,40.03333333333333,-0.9937171074973886,0.007591248738142594,0.1116632581005019,-0.9999999156580633,0.00010367254920554934,-0.00039741146025455454,1
201,40.233333333333334,-0.9935960829145962,0.015559323130830477,0.11191394676483009,-0.9999404677088859,0.010772924951887891,-0.0017335299580025251,1
202,40.43333333333334,-0.9926579221063219,-0.00390878173801257,0.12089239473550088,-0.9999352943951456,0.004575151411761212,-0.010415133818292498,1
203,40.63333333333333,-0.9932456912230581,-0.011970955890373575,0.11541097470301834,-0.9998723470746183,0.00245704503093504,-0.015787732111058283,1
204,40.833333333333336,-0.9931316202904071,-0.012340294374849532,0.11634991153452674,-0.9997958898204754,0.004901808065255733,-0.019599769788848843,1
205,41.03333333333333,-0.9926512122050007,-0.015110951167636404,0.12006344182452926,-0.9997795951668672,0.005097097055805082,-0.020366165313549543,1
206,41.233333333333334,-0.9927470483957456,-0.01738413457329307,0.1189583530764984,-0.9997586513815412,0.004593816773829383,-0.021483385096638764,1
207,41.43333333333334,-0.929874864994307,-0.060207538595274744,-0.3629156758092957,-0.9997642416216399,0.00436078656732056,-0.021270747876418274,1
208,41.63333333333333,-0.930583012889872,-0.057606391737566785,-0.3615200682559497,-0.9997715420168565,0.007962286286631018,-0.019835971625476827,1
209,41.833333333333336,-0.9299309094402597,-0.04948774305948119,-0.36438916964488755,-0.999677932777973,0.014942111926639199,-0.020512532947710715,1
210,42.03333333333333,-0.9294728569532708,-0.04494847986190457,-0.3661418336454181,-0.9995804808667885,0.01879361780084135,-0.022037744895417623,1
211,42.233333333333334,-0.9277062069168942,-0.03886391961219876,-0.3712826273881464,-0.9992624785425818,0.02610273328873482,-0.02816285304783053,1
212,42.43333333333334,-0.9223911143399951,-0.046542387656978434,-0.38344287493420676,-0.9989440780241323,0.01944972204018595,-0.04162255750282511,1
213,42.63333333333333,-0.9191267429286535,-0.05293355068366361,-0.3903896382402909,-0.9985319832105213,0.01896846674008067,-0.05073535035055444,1
214,42.833333333333336,-0.9149846670019771,-0.05226471619006505,-0.4000893132699915,-0.9977295476637121,0.02589143254986476,-0.062172207933128804,1
215,43.03333333333333,-0.9108117744211494,-0.04198583112374519,-0.4106812651687995,-0.9961571116743235,0.04426611710979994,-0.07557459716525657,1
216,43.233333333333334,-0.9876041214167806,-0.024221657389425368,0.15508517232120755,-0.9933629827460553,0.0742027440824767,-0.08788593334823715,1
217,43.43333333333334,-0.9837862252301773,-0.007051142372932821,0.17920642967984085,-0.991892836934404,0.09124752531988996,-0.08844483682621673,1
218,43.63333333333333,-0.9819099503395549,-0.006149860114002619,0.1892485895449461,-0.9921601916714609,0.08580163254132989,-0.09086382071921058,1
219,43.833333333333336,-0.92274446387826,-0.1537744862358563,-0.35340636916292395,-0.9911803998966378,0.09713355144531144,-0.09014703569370747,1
220,44.03333333333333,-0.9943460590429885,0.017415884821904773,-0.10475018769218426,-0.9899722266589888,0.08887077964650154,-0.10980425751703353,1
221,44.233333333333334,-0.9937649277827924,0.027153833535646918,-0.10813851133236345,-0.9898736236601737,0.11600655791453666,-0.08180884855990814,1
222,44.43333333333334,-0.994557730500936,0.01369302823021565,-0.10328321102054461,-0.9923329507368337,0.11061179452247616,-0.05513933073991991,1
223,44.63333333333333,-0.8458470515169733,0.5114821496299147,-0.15142250839952695,-0.993102312231193,0.10059820599576669,-0.060231207787084906,1
224,44.833333333333336,-0.76791220509389,0.6259983933381429,-0.13578238768670844,-0.9587797903261794,0.2780914380125562,-0.05836493610204379,0
225,45.03333333333333,-0.7224794097620009,0.6886737077571136,-0.061253789384989585,-0.9339348634583398,0.3548795226490566,-0.042734005445668244,0
226,45.233333333333334,-0.7372043951647238,0.6720882728617997,-0.06947685392601687,-0.9360681983531791,0.3486900488675502,-0.046814291114775426,0
227,45.43333333333334,-0.8178473541418553,0.16532107720185962,-0.5511756949975061,-0.9749225441811916,0.2205035015623488,-0.03007056111907252,0
228,45.63333333333333,-0.8388073369861963,0.08411624040368935,-0.5378909829309976,-0.9906537914182147,0.1354803292013977,-0.015816002914686614,1
229,45.833333333333336,-0.8343429950610762,0.05992875636390544,-0.547978385297439,-0.9934153710323219,0.11094731159037935,-0.028576120233186193,1
230,46.03333333333333,-0.8333442543982579,0.030049127071008017,-0.5519369562039513,-0.9973588492724915,0.06493317587116548,-0.03254241000811214,1
231,46.233333333333334,-0.999591478157579,0.02545205222904852,0.01300268557168435,-0.9989214250747462,0.02519570628877364,-0.039002088549822796,1
232,46.43333333333334,-0.9997715686813586,0.02132914821598229,-0.0013703622865965826,-0.9987445802876388,0.002993325761483745,-0.050003033377527296,1
233,46.63333333333333,-0.9993700000547309,0.03531713275590607,0.003507581005325312,-0.9989448473396085,0.005290558169109619,-0.04562019254568373,1
234,46.833333333333336,-0.9984884411813344,0.05464935823280219,-0.005854952776221485,-0.998134832485669,0.02035874728538965,-0.05755325870682978,1
235,47.03333333333333,-0.9975426298308905,0.06952942697675162,-0.008623250799787588,-0.9972064995347991,0.03493892582693912,-0.06601869998426771,1
