,timeStamp,x_gaze,y_gaze,z_gaze,x_head,y_head,z_head,fixations_head
0,0.03333333333333333,-0.9950484748848277,0.08650494380675436,0.048943102949941995,-0.9935818203117031,0.009442608041265855,0.1127209097703779,1
1,0.23333333333333334,-0.9970189437314505,0.06341959188459814,0.04394520685824766,-0.9944152280083175,-0.0061225858011769215,0.1053606579719081,1
2,0.43333333333333335,-0.985455313988864,-0.12247632557731587,0.11780226570057775,-0.9945302573780345,-0.035784914834148786,0.0981275039420341,1
3,0.6333333333333334,-0.9849239950135005,-0.1250473201102371,0.11953196969804351,-0.9937357239802859,-0.04662935129217684,0.10156285976402929,1
4,0.8333333333333334,-0.9864676474432165,-0.1088675180185773,0.12259463311385572,-0.9937901515752191,-0.038766579308471424,0.10429902665328795,1
5,1.0333333333333334,-0.991084582553745,0.03621588022927304,-0.12821762844276738,-0.9966965658195545,-0.02838336193009734,0.07609428657298824,1
6,1.2333333333333336,-0.9883222743665071,0.04057657374675838,-0.14687621881703233,-0.999093473381947,-0.016323552522007394,0.03931632076705619,1
7,1.4333333333333336,-0.9912646046377469,0.029745938290059656,-0.12848993247572252,-0.9988760817878389,-0.018287528712613618,0.04372801762897629,1
8,1.6333333333333335,-0.9897428875782427,-0.05608577199050342,0.1313902685457013,-0.9967598989405001,-0.025792318839626845,0.07618700777034804,1
9,1.8333333333333335,-0.9885561946225246,-0.022806281294333645,0.14911915908747927,-0.994038376560611,0.0238538869805727,0.10638936977284534,1
10,2.033333333333333,-0.9894602844954103,0.07018938230774972,0.12665621191839885,-0.9864368592253868,0.13911742921915937,0.08711293617487047,0
11,2.2333333333333334,-0.9213309654713494,0.38859268015496323,-0.012040805355707947,-0.9585034801152615,0.2779133610462145,0.06352355751159458,0
12,2.4333333333333336,-0.8810340215658586,0.47192080604744907,-0.03270788380523017,-0.9180828562952642,0.3931716770774165,0.050397433673366014,0
13,2.6333333333333333,-0.5839181267535899,0.8020452741174307,-0.12555078460318017,-0.8523079632701718,0.5220887596275073,0.03153510451643677,0
14,2.8333333333333335,-0.6345372792592071,0.7728234358814001,-0.01031397996850522,-0.7646380145941156,0.6432719594792904,0.039113843907797596,0
15,3.033333333333333,-0.5052334584441411,0.8588809949981431,-0.08403921048874782,-0.6170899132473279,0.7867527899277063,0.01483531291803825,0
16,3.2333333333333334,-0.041113003596638775,0.9925326651928638,0.11484175834779621,-0.42429878629572626,0.9050158241323369,0.030280323942140287,0
17,3.4333333333333336,0.02036766483035679,0.9889413315943287,0.14690201119723997,-0.30762756616832043,0.9501878599916217,0.050083043616560456,0
18,3.6333333333333333,-0.022512400695477053,0.9727429247917738,0.2307908015551571,-0.26464723484696717,0.9608989627446889,0.0814556596194218,0
19,3.8333333333333335,-0.021766015245865133,0.9580585015946114,0.2857449003964986,-0.24391571110348081,0.9562547546413485,0.16149913344256056,0
20,4.033333333333333,0.30296619600168145,0.9195323256431626,0.2503433365950612,0.0015959453611439356,0.9614018161084927,0.27514360058285336,0
21,4.233333333333333,0.34434158183324826,0.9004892670877344,0.2656086498598484,0.10728831467936267,0.9552711016959815,0.27558363485121523,0
22,4.433333333333334,0.38185238093884155,0.8774189640535822,0.2903871909889912,0.1948126637165753,0.9269186663179552,0.3207332413190067,0
23,4.633333333333334,0.5986194388136666,0.746934671231496,0.28938445774904326,0.27624078318656237,0.8966035294653435,0.34611145698281054,0
24,4.833333333333334,0.5564884377131523,0.7735405647552029,0.3032418397414464,0.23625668954304607,0.9047740266985265,0.35435397169764443,0
25,5.033333333333333,0.27572963148701046,0.9435991428295616,-0.18328619143665542,0.20335379191658615,0.9464978273932398,0.25057752902649233,0
26,5.233333333333333,0.23631790165065847,0.9382921622532964,-0.252510727719564,0.1592084242631262,0.9756653384451379,0.15076413698352564,1
27,5.433333333333334,0.24903486420497245,0.9233643174494759,-0.29219851757234216,0.08524352376961958,0.9865442179617588,0.1395136110261655,1
28,5.633333333333334,0.24271439472948558,0.8930007913635918,-0.3789977694064948,0.07246239270008964,0.9955072904819257,0.06094617495391364,1
29,5.833333333333334,0.27563745379584637,0.8679029988706547,-0.4132413079742479,0.1006776902320119,0.9948969420597403,0.006639078981674023,1
30,6.033333333333333,0.28716939119690327,0.8685366353161869,-0.4039527866882926,0.11356991905597397,0.9935298593918914,0.0005403539101221374,1
31,6.233333333333333,0.4208120004108036,0.8601548328266818,-0.28818557194134614,0.11154712005541983,0.9937591376477709,-0.00012786282065261505,1
32,6.433333333333334,0.380774980792876,0.8765489011185469,-0.2944018307518709,0.07438884615978653,0.9972292350919418,0.00039018579767530665,1
33,6.633333333333334,0.2689409186925453,0.918923379376853,-0.2885318094897588,-0.046751606516378164,0.9985924960081569,0.025046241321546727,0
34,6.833333333333334,-0.3201334884672124,0.944760380514207,0.07030201257762031,-0.21002174253648154,0.9711405517910636,0.11303493410839176,0
35,7.033333333333333,-0.4237140849545071,0.9053058789780669,0.029793282781774382,-0.43941430497226913,0.8803576468986904,0.17856506414396672,0
36,7.233333333333333,-0.8703445805131217,0.4847339481972525,-0.08679464635875772,-0.6679523394086122,0.7226587298048257,0.17777523032030673,0
37,7.433333333333334,-0.882092777470892,0.4687108424021606,-0.047143166507400254,-0.7987055624138086,0.5759268048282002,0.17429211126617952,0
38,7.633333333333334,-0.98878988354928,0.14489002754760008,0.03607556108859935,-0.8852650458946957,0.4271240567370651,0.18404031806518747,0
39,7.833333333333334,-0.9927447316764912,0.1087155855451366,0.05136943826974954,-0.9201523325165659,0.3399797985229171,0.19425092422081305,0
40,8.033333333333333,-0.9941106163821002,0.09424652481343025,0.0534946254963297,-0.9644818324917109,0.17435777408805261,0.19842923526660902,0
41,8.233333333333334,-0.9658179774095185,-0.23290660253886333,0.11379872146202387,-0.9769166660698178,-0.011655669279513014,0.21330253849562897,0
42,8.433333333333334,-0.9106053562355614,-0.402460197983651,0.09393441453518003,-0.9490546776085975,-0.2381263742138139,0.20637598894499298,0
43,8.633333333333333,-0.7887659408745835,-0.603359580321971,0.11749683974442922,-0.8004789102132204,-0.5722753677240862,0.17814156673869563,0
44,8.833333333333334,-0.23262077572614087,-0.9650690580367126,0.12053749591185788,-0.4453433626198533,-0.8859460192677667,0.12949494319872173,0
45,9.033333333333333,0.23840470193184626,-0.9707557757289536,0.028220949411134726,-0.02229870725863603,-0.9889487823027631,0.1465710532010879,0
46,9.233333333333334,0.34077159600244605,-0.935007302059317,0.09816345783285503,0.15136705044458504,-0.9761020611614415,0.15592556633244056,0
47,9.433333333333334,0.3244602687757697,-0.9396224464671902,0.10878966899925702,0.17597481646379604,-0.9646849520362402,0.19599950838043143,0
48,9.633333333333335,0.3723230930717462,-0.9249370787707764,0.07659578761570392,0.26350084267037815,-0.9467741958205025,0.18489436995333738,0
49,9.833333333333334,0.9168191670136998,-0.2508491303729424,-0.31067238175841166,0.7350643169376043,-0.6759456097622235,0.05270657082593334,0
50,10.033333333333333,0.963918112527274,-0.18460850865547568,-0.19178522068673315,0.9216198920701,-0.38808929134036313,-0.0018645341595655237,0
51,10.233333333333334,0.9370047786107581,-0.14387166869954576,-0.318312720145162,0.9491965410383508,-0.3065543870738345,-0.07106570372983226,0
52,10.433333333333334,0.9297933354695684,0.0891829499444749,-0.3571144841021939,0.9661062185597642,-0.23650727900353966,-0.1034556979508388,0
53,10.633333333333335,0.9360095749277153,0.13745216596419613,-0.3240261991188198,0.9798230499625483,-0.16598724343172921,-0.11133295010923626,0
54,10.833333333333334,0.6959626795248126,0.4581962131686977,-0.5528943650884028,0.9845907418251361,-0.0016942302007637374,-0.17486623658172226,1
55,11.033333333333333,0.7606148112000162,0.42803197388917247,-0.48811242384485876,0.9801351943229881,0.06975875501109317,-0.18565752596849017,1
56,11.233333333333334,0.753823743956005,0.4469513849237879,-0.4816474048127526,0.9760654105165127,0.10543015393873258,-0.19021250493510247,1
57,11.433333333333334,0.7595079395803528,0.43136069340742367,-0.4869041403577029,0.9746458629826632,0.0989878549309775,-0.20066600695420217,1
58,11.633333333333335,0.9578843703724947,0.05690130142092356,-0.2814600769073555,0.9771847342697807,0.08520559362129342,-0.19455076953263725,1
59,11.833333333333334,0.9572991315432035,0.06510177259534523,-0.2816738041628514,0.9784602777504929,0.07590611389313794,-0.19197329694014845,1
60,12.033333333333333,0.9647268300103979,0.05144037034155425,-0.2581782945121699,0.9812936973761133,0.05151810184905685,-0.18549545728073094,1
61,12.233333333333334,0.9731807780583491,0.018022619128558088,-0.22933459925945268,0.9866015907483178,0.00214175807825496,-0.16313403693044484,1
62,12.433333333333334,0.9896459277558458,-0.04269175740563066,-0.13703412540637538,0.9883569558024948,-0.04295357670900397,-0.14596409888986056,1
63,12.633333333333335,0.9536562484468865,-0.19716679051026556,-0.22729939841119573,0.9857298402901801,-0.06854991846470794,-0.1537452133888353,1
64,12.833333333333334,0.9531704637763896,-0.20030023640561886,-0.22659629802835657,0.9840834432410793,-0.08622699431414795,-0.15538559196505164,1
65,13.033333333333333,0.8060043343643853,0.22825681144280302,-0.5461280445241657,0.9806483141930892,-0.07459578256182599,-0.18100926245427681,1
66,13.233333333333334,0.8133658919718648,0.23442100669212673,-0.5324309508267367,0.9827118087156553,-0.0579731026875351,-0.1758312269637733,1
67,13.433333333333334,0.8225897189956579,0.23542838284082399,-0.5176095350315709,0.9833300941148436,-0.05152940497850464,-0.17437501664703653,1
68,13.633333333333335,0.9480724796525217,0.29817109158715727,-0.11069134323533064,0.9889839187023155,-0.02531485545811969,-0.14584226630626065,1
69,13.833333333333334,0.9532804901681111,0.28373392421107196,-0.10368880034329404,0.9924431141953817,-0.008017200763451058,-0.12244341377996443,1
70,14.033333333333333,0.9456895572900721,0.31633880351626226,-0.07483998010693976,0.9947065658833903,0.009694566658793124,-0.10229791378992573,1
71,14.233333333333334,0.9378579889435799,0.24193634938512684,-0.24877539150989578,0.994056989574079,0.022753210942067628,-0.1064565304278946,1
72,14.433333333333334,0.9367167744234869,0.2419545851447009,-0.25302107272145197,0.9943106454314905,0.026429761185506367,-0.1031882168917055,1
73,14.633333333333335,0.9514329458280265,0.19761839684656335,-0.2360557536278205,0.9950507205773389,0.00623841520733224,-0.0991723028583059,1
74,14.833333333333334,0.9554599081370244,0.19272406695432226,-0.2235034629695366,0.9958664754479142,0.013932595006174484,-0.08975436410193957,1
75,15.033333333333333,0.8506743373121558,0.4620552023549671,-0.25071530032137146,0.9948707734684272,0.06457910171018887,-0.07785681550537922,1
76,15.233333333333334,0.8602747441366952,0.4458033095240863,-0.247359604256466,0.9951330584146141,0.05586683608797412,-0.08117322634893805,1
77,15.433333333333334,0.9807055344636803,0.049111100223547054,-0.18922144304264366,0.9957223192503601,0.023957521658361222,-0.08923620399071919,1
78,15.633333333333335,0.9831162132270203,0.04113939186340214,-0.17829767729074164,0.9962319735314238,-0.0009337689519225005,-0.08672360110851575,1
79,15.833333333333334,0.9817304022251078,0.0415263118628968,-0.18569055649115096,0.9958254614172313,-0.007518632475862875,-0.09096768964226559,1
80,16.033333333333335,0.9788444279450474,0.03776718087499636,-0.2010900940615627,0.9953280018677132,-0.01564068460554752,-0.09527611286726466,1
81,16.233333333333334,0.9771469412725403,0.020108784661782144,-0.21161165360429748,0.9940526982630643,-0.04034425810810217,-0.1011512427685793,1
82,16.433333333333337,0.9759770405635906,0.019326454726290857,-0.21701452587430198,0.9933008729768964,-0.0503878271062602,-0.10399251234028907,1
83,16.633333333333336,0.9074242185259147,-0.21152242007353483,-0.3630971680402757,0.9914745785956243,-0.06105171516329713,-0.1151123280724053,1
84,16.833333333333336,0.8954397944567221,-0.23344716180058492,-0.3790646345289349,0.9882787762448016,-0.08167169974840444,-0.12897594304475568,1
85,17.033333333333335,0.8986431729215605,-0.23478184606270233,-0.3705643432939277,0.986553231074771,-0.09055322098225226,-0.1360618845440159,1
86,17.233333333333334,0.8978337769447678,-0.2389157020701829,-0.36988349014440336,0.9840790007546613,-0.10459243007030669,-0.14369740375419246,1
87,17.433333333333337,0.8965423277992859,-0.23876930245382863,-0.3730966023296782,0.9821104389421954,-0.11040429542866628,-0.15254500080851063,1
88,17.633333333333336,0.8967672997464317,-0.24022848898867852,-0.3716163117836864,0.9806170490409724,-0.11722191210902463,-0.15700072118203642,1
89,17.833333333333336,0.9537496160458548,0.21366465229358375,-0.21144523227693424,0.9839088691273934,-0.09257186101100107,-0.15281946146160125,1
90,18.033333333333335,0.9530575584004586,0.2205339941604193,-0.20747541491802973,0.9849738283662949,-0.08213824775184922,-0.15192059007817452,1
91,18.233333333333334,0.9590386486187139,0.20243940210923572,-0.1981493349200209,0.9834653854140133,-0.10070511884682462,-0.15051350348229034,1
92,18.433333333333337,0.8649803131720936,-0.49453245072832136,-0.08512762772066114,0.9708317244237632,-0.22057393532591488,-0.09398351933834886,1
93,18.633333333333336,0.7611989194564062,-0.6479578896998918,-0.02695882404821518,0.9010476426321374,-0.43367751650643055,-0.006079258497754528,0
94,18.833333333333336,0.36707949437507476,-0.9284763845916728,0.05642914198280951,0.6274123649613765,-0.7674780618356482,0.13164782145774115,0
95,19.033333333333335,0.45404973886019123,-0.8891662171848345,0.05676506723508532,0.356949058736551,-0.9164467647793761,0.18086651650458963,0
96,19.233333333333338,-0.3653010481303134,-0.9223657370427567,0.1256844913442667,-0.01267979621186921,-0.9732976839627081,0.2291960757972386,0
97,19.433333333333337,-0.4926347222380185,-0.8510716418630488,0.18162623946447004,-0.35445767027986114,-0.8986561341039148,0.2584122919235465,0
98,19.633333333333336,-0.4245753983134805,-0.8834222408119431,0.19824448437662723,-0.4954419868376977,-0.8133747076474755,0.3048914932196351,0
99,19.833333333333336,-0.6943403000318333,-0.6832779108839359,0.22588236816933727,-0.6880114926351,-0.6667286819173973,0.28655374838014613,0
100,20.033333333333335,-0.7626574316849553,-0.5926130293444104,0.259159100451727,-0.7716130725107665,-0.5632086750077019,0.2956505618573452,0
101,20.233333333333338,-0.9405776030890898,-0.32093011595275706,0.11098483338606722,-0.8445620986510498,-0.46134316568111366,0.2718038723077054,0
102,20.433333333333337,-0.9407306810174573,-0.31950489623119843,0.11376470048623283,-0.8709342676720376,-0.41524149346229156,0.26276986794870066,0
103,20.633333333333336,-0.9439164457792294,-0.30679802478071994,0.12205210108046413,-0.8919652600930551,-0.37555892845778216,0.2517011443016716,0
104,20.833333333333336,-0.9215286813697984,-0.34208370973786384,0.18374880936980698,-0.930995934125912,-0.277356529472869,0.23731819609921748,1
105,21.033333333333335,-0.9055016159534143,-0.37947793252622347,0.18990345502749137,-0.930151099927678,-0.2723100512519906,0.24630502895895098,1
106,21.233333333333338,-0.999705603663822,-0.021391211366843365,-0.01145085496424902,-0.9461033068619367,-0.22660119531229783,0.23138805290668324,1
107,21.433333333333337,-0.9860382831052488,-0.1461009732398371,0.07989374111421738,-0.953141729426862,-0.2137140128072011,0.2141195095151631,1
108,21.633333333333336,-0.9851370430384048,-0.1495718442251596,0.08445868723010878,-0.9545971519048007,-0.20804683050666858,0.21321536973532818,1
109,21.833333333333336,-0.9826557751406207,-0.16606046992213122,0.08253210231192919,-0.9532405554477864,-0.21634007612326261,0.21101993960897794,1
110,22.033333333333335,-0.9828934855526228,-0.1643955950823478,0.08303303183514878,-0.9539856764327711,-0.21102430703020797,0.21302598668596515,1
111,22.233333333333338,-0.9729343841482455,-0.21656855441155515,-0.08060239067275582,-0.9547313845641694,-0.204832843407259,0.21571158890954661,1
112,22.433333333333337,-0.9723007231570486,-0.2195855974418719,-0.08008413790743,-0.9565109823455303,-0.20367117529375148,0.20881760703267002,1
113,22.633333333333336,-0.9719587203166029,-0.22077700704576206,-0.08095529112064186,-0.9573162899880334,-0.20487343327392937,0.2038931025368453,1
114,22.833333333333336,-0.9754768528755401,-0.20763336170725133,-0.073029422907332,-0.9597159056234636,-0.19036156942947516,0.20665878490323616,1
115,23.033333333333335,-0.976922142650984,-0.19820965463039372,-0.07959937191656112,-0.9621114671731721,-0.18241700078870302,0.20264639783904462,1
116,23.233333333333338,-0.9677435237860044,-0.21880756021957398,0.12488284013828836,-0.9606723095876541,-0.1867203986011749,0.20553395422105078,1
117,23.433333333333337,-0.9705170442897495,-0.20856277261350575,0.12082316260906034,-0.9605356255211202,-0.18937589811155828,0.2037353217269692,1
118,23.633333333333336,-0.9717143905531654,-0.20695121920750012,0.11376438836657045,-0.9603097733075943,-0.19793821401706185,0.1965339734540906,1
119,23.833333333333336,-0.9722038162473372,-0.20674896517748176,0.10988450788056722,-0.9601438521162878,-0.20416789746966407,0.19089068307833437,1
120,24.033333333333335,-0.9716360087547888,-0.21143035738856703,0.10592766619541336,-0.9592749851622506,-0.21396776112034432,0.18441610570422326,1
121,24.233333333333338,-0.830302712506148,-0.518979516684509,0.20311983376038548,-0.9487556683374572,-0.2545916943303623,0.18720510403175641,1
122,24.433333333333337,-0.7928095942366445,-0.5644749664588719,0.2298281086542348,-0.9421913462942564,-0.2888802647893023,0.16977532089052014,1
123,24.633333333333336,-0.8410290804654661,-0.5358103818392989,-0.07468146038099362,-0.9372643911821071,-0.3165479816014718,0.14605764740700353,1
124,24.833333333333336,-0.8396473645717163,-0.5279076621173983,-0.12769417937210137,-0.9341655984874245,-0.3287889732369019,0.1386810934498843,1
125,25.033333333333335,-0.7923747339997171,-0.5575599591568619,0.24752610541895548,-0.9258074211060172,-0.3444400004903649,0.15569747938622297,1
126,25.233333333333338,-0.8137007493889399,-0.5444898441859106,0.2035237087473606,-0.9212900135932065,-0.35502205516461793,0.15869483671537876,1
127,25.433333333333337,-0.8069441551987886,-0.5543000436434364,0.20394261939917765,-0.9153125769445822,-0.36969180624555925,0.15978377540277441,1
128,25.633333333333336,-0.8006064511811218,-0.5662030058907704,0.1960700549482924,-0.9096545270399172,-0.38374798836218366,0.15895320966800833,1
129,25.833333333333336,-0.7949418819079651,-0.576390782187446,0.18931738060190667,-0.9038493375162033,-0.3979484849858834,0.15714126882827636,1
130,26.033333333333335,-0.7788623147385842,-0.6120036452039385,-0.13720434736970294,-0.8818198835396692,-0.4457714373300615,0.15388800685815446,1
131,26.233333333333338,-0.7776508952413984,-0.6110003851928385,-0.14811351870931616,-0.8708143117357146,-0.4697027317749609,0.14512676610258146,1
132,26.433333333333337,-0.7931996474831314,-0.5909022496163431,-0.1472034328097727,-0.8745515609236727,-0.4624238409008521,0.14602656831026042,1
133,26.633333333333336,-0.8022504558629115,-0.5749979734270795,-0.16053515696725912,-0.8777706859338078,-0.45695609946590066,0.14390881166975975,1
134,26.833333333333336,-0.8052740607670628,-0.5682813371357535,-0.1690858034221841,-0.8789680273809544,-0.4546744966119103,0.1438273582206807,1
135,27.033333333333335,-0.7999130419684649,-0.6000660776678207,0.007734838144037224,-0.8806380852925781,-0.45128518521130806,0.144285288026941,1
136,27.233333333333338,-0.8018489597356574,-0.5974443603246757,0.009923814139884296,-0.8823038352848082,-0.4468558187496668,0.14785066618478082,1
137,27.433333333333337,-0.8045920005421509,-0.593755978729362,0.009249345204778575,-0.8843937962456179,-0.4427193004134954,0.1478080992491598,1
138,27.633333333333336,-0.8138369906379782,-0.5809780396049006,0.011570227576237385,-0.8902317156158152,-0.4303564362342537,0.14926764653961452,1
139,27.833333333333336,-0.8280408006919584,-0.5601605984863135,0.02384399909569707,-0.8952420058065054,-0.4174620077053252,0.15577940544945018,1
140,28.033333333333335,-0.9992797113015018,-0.00786041606870845,-0.03712509178996724,-0.9229562289839144,-0.3427033730173596,0.17523183929388267,1
141,28.233333333333338,-0.9972151510045713,-0.06853643339718778,0.02940578011417522,-0.9398335297402649,-0.29861255329172937,0.1659622830421085,0
142,28.433333333333337,-0.9979987187309665,-0.053471667310516544,0.033754084291873585,-0.9479645652326681,-0.2683924003493558,0.17125624805521714,0
143,28.633333333333336,-0.9805769502621486,0.19335597973978355,0.03289847585302812,-0.9653266067133894,-0.19376762518267607,0.17492469751947273,1
144,28.833333333333336,-0.9766080085171279,0.20771249891997054,0.05560859189577408,-0.9688102305077733,-0.14540200707163747,0.20066139041433692,1
145,29.033333333333335,-0.9734747000494953,0.22285225949531753,0.05180616566951267,-0.9740367174961713,-0.10788280747725754,0.1990320899254913,1
146,29.233333333333338,-0.9696184655655918,0.23877469792200634,0.0531664825475774,-0.9745677558757196,-0.08137097805260302,0.20879763681164298,1
147,29.433333333333337,-0.9737184234844286,0.22359645448528395,0.04332501942999599,-0.9749494242575047,-0.07863876940960669,0.20806144305397672,1
148,29.633333333333336,-0.9757272925030506,0.21283051092141256,0.051569606219138316,-0.9750328232678362,-0.07458394046405993,0.20916077398787392,1
149,29.833333333333336,-0.9859316007899633,-0.16625280279885615,0.017288265536630775,-0.9749608830234049,-0.09055237545790765,0.20310476083330306,1
150,30.033333333333335,-0.9835772353397859,-0.17794001136267767,0.030218776904335592,-0.9716987030951381,-0.11084556601510745,0.20860223128724628,1
151,30.233333333333338,-0.9811541127803538,-0.18838000336220675,0.04300675885778551,-0.9704118988250835,-0.11780354163295603,0.21076781584821833,1
152,30.433333333333337,-0.9754385250598515,-0.21251649686366553,0.05793463894646428,-0.9688482397907683,-0.12953645771403563,0.21107674996841755,1
153,30.633333333333336,-0.997442467272237,0.03297891910540775,0.06341068818828338,-0.9687267863369803,-0.13082398279148652,0.2108399842529869,1
154,30.833333333333336,-0.9940880923123852,0.03060338956055749,-0.10417435994585056,-0.9691791337029516,-0.13123418110698623,0.20849315697157875,1
155,31.033333333333335,-0.9897709540647043,-0.026057049409196988,-0.1402657786701081,-0.9697731093121391,-0.13293695534437378,0.20461642739241076,1
156,31.233333333333338,-0.9878475402338496,-0.04530806648643893,-0.1486755405747493,-0.9704645996816418,-0.13601546016184707,0.19924421035932735,1
157,31.433333333333337,-0.9862967716001361,-0.06198782866817565,-0.15289273177020038,-0.9705294656317509,-0.1414967803493437,0.1950672127532393,1
158,31.633333333333336,-0.9858665339782977,-0.07042753350496424,-0.1520103276294909,-0.9704718720747785,-0.14242011033248075,0.19468142614168077,1
159,31.833333333333336,-0.9904413037423964,-0.07019142526563905,0.11874000025366584,-0.9704112138140193,-0.1396680001655691,0.19696427552668622,1
160,32.03333333333333,-0.9880865818491237,-0.07037459422788062,0.13686607781687884,-0.9698615767317718,-0.14013256839267846,0.19932733193175672,1
161,32.233333333333334,-0.9871191877596422,-0.06692159529359262,0.14531761503721824,-0.9700135303288084,-0.13513574992751026,0.20201999918466393,1
162,32.43333333333333,-0.987189290671207,-0.07151710096726642,0.14262751716733038,-0.9704244452233266,-0.13724912438958387,0.1985927339237055,1
163,32.63333333333333,-0.9869034071220637,-0.07870367249026707,0.14080978995583704,-0.969120212679135,-0.139780538010873,0.20314382730011524,1
164,32.833333333333336,-0.9870980833512804,-0.07762514700801873,0.14004181659851547,-0.9690604067178356,-0.13817304687190912,0.20452417277670767,1
165,33.03333333333333,-0.9872371576569765,-0.07436021050122481,0.14083093990877105,-0.9694180557314585,-0.1349658639948468,0.20497036073043204,1
166,33.233333333333334,-0.9879373191272994,-0.07109457473656193,0.13756967296098446,-0.9706428594227259,-0.1308467726450643,0.2018206172323453,1
167,33.43333333333333,-0.9881835052575054,-0.0780841061534333,0.13189477739171213,-0.9707085006328786,-0.13446043697448673,0.19911152073071836,1
168,33.63333333333333,-0.9885535388745039,-0.0821315546647092,0.12655555502249835,-0.9706148402585387,-0.1350286662194552,0.1991835614926258,1
169,33.833333333333336,-0.9894607729181695,-0.08915765717125407,0.11409772576134881,-0.9706757907594299,-0.13932760392908972,0.19589876981985954,1
170,34.03333333333333,-0.9897663054645884,-0.08816462681574677,0.11220365032127401,-0.9703427437990138,-0.13733582758678772,0.19893172199941783,1
171,34.233333333333334,-0.9900594922645833,-0.08615333258242772,0.11117466016020389,-0.9705929395290152,-0.13375396244106252,0.20014800340682937,1
172,34.43333333333333,-0.9901913687406307,-0.08024390788602037,0.11437643340625886,-0.9708897476206838,-0.12743696185740225,0.20281252110656364,1
173,34.63333333333333,-0.9893768847414064,-0.08852406908815348,0.1153120511111735,-0.970271138395536,-0.1349162226146954,0.20092668033890587,1
174,34.833333333333336,-0.988330720925527,-0.09635526108177565,0.11797478432568095,-0.9697370878272578,-0.1406072597672795,0.19959854456645418,1
175,35.03333333333333,-0.9873176601847578,-0.1015284978044798,0.12204835935341916,-0.9692802313202227,-0.14337334889053016,0.19984973354931057,1
176,35.233333333333334,-0.9866361349498618,-0.10632047343937877,0.12347102550325105,-0.9690599853415148,-0.14590958247701738,0.19908073375212812,1
177,35.43333333333333,-0.9864922310445794,-0.11100508679300111,0.12046139960487978,-0.9694335287780771,-0.14861306952762302,0.1952249698334288,1
178,35.63333333333333,-0.9855192329431539,-0.11305070686659319,0.12637792202794512,-0.9687474172095467,-0.14821634493595248,0.19889785505042434,1
179,35.833333333333336,-0.9853664842244084,-0.11165716903685051,0.12878496950306287,-0.969244427071422,-0.1436661567811557,0.19981310264025048,1
180,36.03333333333333,-0.9851653892307246,-0.11438816893368882,0.12792381588223725,-0.9699006178854104,-0.1428953560481329,0.19716416673771234,1
181,36.233333333333334,-0.9741083515589002,-0.22420215759489798,-0.029091441232685204,-0.97147648119147,-0.1454670167977575,0.1872773171417206,1
182,36.43333333333333,-0.9730139643795864,-0.22922500463863701,-0.026452265890424945,-0.9710169431093278,-0.1505122601080708,0.18566678688386,1
183,36.63333333333333,-0.9727654480121917,-0.22977941637744023,-0.03047626884779827,-0.970955964703831,-0.15345851428086002,0.18356197591212545,1
184,36.833333333333336,-0.9738215261559354,-0.2251704568734326,-0.03114322633791823,-0.9715340032488924,-0.15140889070859656,0.18220051686417754,1
185,37.03333333333333,-0.9734990098103888,-0.22592211972409648,-0.03548061044519616,-0.972077212541169,-0.1540232632455058,0.17703877325997436,1
186,37.233333333333334,-0.9727864046902446,-0.22853150872166253,-0.03820942777939707,-0.971706683973308,-0.15679225874209846,0.1766417502181986,1
187,37.43333333333333,-0.9716542101212811,-0.23080258674471288,-0.05116895450894642,-0.9717790703032948,-0.16110589294358418,0.17230882095619707,1
188,37.63333333333333,-0.9707686126459206,-0.23116256621177242,-0.06459232681907846,-0.972053267328527,-0.16412362533845293,0.16785672784162775,1
189,37.833333333333336,-0.9699367198324779,-0.23211816083418338,-0.07310211304449347,-0.9713864990108304,-0.16730538549716625,0.16857395268287115,1
190,38.03333333333333,-0.9547594364407996,-0.19393350898040773,-0.22544226006184584,-0.9716371798723491,-0.16796340464109738,0.16646166342758803,1
191,38.233333333333334,-0.954772671637486,-0.1980017102774907,-0.221820802048425,-0.9719283624576841,-0.16641984170985014,0.1663120396591689,1
192,38.43333333333334,-0.9547556465592271,-0.1954598405307189,-0.22413635604912094,-0.9728537020307151,-0.1644398400908733,0.16283492695371243,1
193,38.63333333333333,-0.9571152393643403,-0.18446366364600938,-0.2233910816725533,-0.9734446862216306,-0.1603188863403767,0.1634114364096111,1
194,38.833333333333336,-0.9618024336341414,-0.16732278956113547,-0.21665447779568964,-0.9726928842478001,-0.1600525771704989,0.1680824960392288,1
195,39.03333333333333,-0.9618040599464359,-0.1550617065131975,-0.22558549918770904,-0.9729920038512473,-0.16168326476566883,0.16475764727699108,1
196,39.233333333333334,-0.9863440448438654,-0.1340545186441907,0.09568077775664827,-0.9721276325856418,-0.164355437700498,0.1671979547174949,1
197,39.43333333333334,-0.984713521432848,-0.14698039194382803,0.09346681278057463,-0.970176478389208,-0.17248801124165744,0.1703099725741644,1
198,39.63333333333333,-0.8733126929958344,-0.4738378888169833,0.11314855444868874,-0.9609509030338799,-0.21337203607898206,0.1761980027635979,1
199,39.833333333333336,-0.868607388901871,-0.478843720130218,0.1273966076350838,-0.957898026535126,-0.22813657645428984,0.1743131470768261,1
200,40.03333333333333,-0.8683308670947286,-0.4766892274999364,0.13699958261261527,-0.957955920725958,-0.23075910885612372,0.17050128335590284,1
201,40.233333333333334,-0.8681192392837814,-0.475252176619155,0.1431934181591597,-0.9588812967647846,-0.23006748774004657,0.16617945059383565,1
202,40.43333333333334,-0.9988310802312694,-0.04724205447814609,-0.010230418012941177,-0.9602625172918977,-0.22654516164502442,0.1630128449523453,1
203,40.63333333333333,-0.9985327363573507,-0.053115218313508614,-0.010542675476853327,-0.9613963523499478,-0.22291418298820828,0.16132675138027958,1
204,40.833333333333336,-0.9995276532222288,-0.030623124251946358,0.002587412822493863,-0.9621082387834559,-0.22115059075151317,0.15949969616037965,1
205,41.03333333333333,-0.9997982619020045,-0.017699895651844544,0.0094946928146777,-0.9629047034595077,-0.21778599752682343,0.15932291529094106,1
206,41.233333333333334,-0.999871786246816,-0.009842922235737704,0.012630437421683226,-0.9635955930531357,-0.21673466613426567,0.1565554775287161,1
207,41.43333333333334,-0.9997280147482731,-0.008257816639383124,0.021810662342698028,-0.9624960885386695,-0.21837577885703294,0.16097608131752458,1
208,41.63333333333333,-0.9992073261307168,0.0350838309367072,0.018810747287337212,-0.9625573614908699,-0.2161193076010766,0.16363303676753815,1
209,41.833333333333336,-0.9992074876146921,0.03536167812560369,0.01827425552180662,-0.9623128215839633,-0.21554747360158372,0.16581109745456196,1
210,42.03333333333333,-0.9991472158500554,0.03913085128203931,0.013176400761452267,-0.9628324248713749,-0.21513279625617,0.16331442554566183,1
211,42.233333333333334,-0.9853609635538837,-0.14481574985342235,0.08995649003019637,-0.9624779144124178,-0.21469805021889576,0.16595484777651787,1
212,42.43333333333334,-0.9890437520280206,-0.1372313793004684,0.05440592899332106,-0.9635712411183166,-0.20811545465603426,0.16798339448593988,1
213,42.63333333333333,-0.9904355059345592,-0.13616817582479815,0.022265140392568505,-0.9636658074270454,-0.2065292803836784,0.16939264429183776,1
214,42.833333333333336,-0.9905800369303941,-0.13680577433449165,0.0059473139919979,-0.9631344501738408,-0.20919824174392823,0.16913937016431752,1
215,43.03333333333333,-0.9909529808782453,-0.13412799668925035,-0.004676557777762428,-0.9638969685792985,-0.2074658222369146,0.1669148482526339,1
216,43.233333333333334,-0.9910101365204109,-0.132869694354822,-0.01563821076253111,-0.9647351756170681,-0.20826914389610487,0.1609658492596763,1
217,43.43333333333334,-0.9910924449527674,-0.13116130742903953,-0.023075462965039217,-0.9656714901206052,-0.2078122122855862,0.15586102012119776,1
218,43.63333333333333,-0.9919474521493201,-0.1261188908053819,-0.011587819315682524,-0.9664398334048672,-0.2075785913714017,0.1513445632080564,1
219,43.833333333333336,-0.9953850431907737,0.03007866402494334,0.0911256811364208,-0.9658425673760545,-0.2087883233015853,0.1534782430748571,1
220,44.03333333333333,-0.9955324090036148,0.029693698321685006,0.08962983266435658,-0.9654896146928872,-0.20936043272614638,0.15491292111667412,1
221,44.233333333333334,-0.9790423075045431,-0.019259767894312864,-0.20274422669175282,-0.9664360468113633,-0.20584039232912954,0.15372410451654653,1
222,44.43333333333334,-0.977638413945746,-0.00836469597946251,-0.21012654149063964,-0.9719800825534686,-0.1805876590779347,0.15047530198708403,1
223,44.63333333333333,-0.9660840730526743,-0.13259390730653067,-0.22158614473640362,-0.9733170625243757,-0.17726069448609483,0.1457139045843876,1
224,44.833333333333336,-0.9988389599972154,-0.03254509741660593,0.03551828579513369,-0.9733027160173591,-0.17487585144632922,0.14866156051297694,1
225,45.03333333333333,-0.9989367126981854,-0.03081548088114898,0.034290671644147806,-0.9725602626784566,-0.17647644359305917,0.15160013296681876,1
226,45.233333333333334,-0.9990575558430532,-0.02594788006006234,0.03479522428858872,-0.9715603419501826,-0.1788227727886122,0.155218935319879,1
227,45.43333333333334,-0.9901356929670249,0.06001652739445912,0.12660697434272572,-0.9729907851781598,-0.17370679531991792,0.15203578926710754,1
228,45.63333333333333,-0.9938971554736586,0.05828168793879179,0.09365729652501772,-0.9737761475103337,-0.16982505107541207,0.15139176518941264,1
229,45.833333333333336,-0.9807556481215417,-0.19021846686664584,0.04399197131974517,-0.9733764183187669,-0.17337934945605005,0.1499264801265145,1
230,46.03333333333333,-0.9466375752555842,-0.31345034156298923,0.07500789617282759,-0.9729422101426246,-0.17729600960118808,0.1481539088322704,1
231,46.233333333333334,-0.9918548960613234,-0.1212952190177514,0.038875892306378376,-0.9735816642395552,-0.1744385206632157,0.14734295220799368,1
232,46.43333333333334,-0.9907107917098327,-0.13146487754011915,0.03477230454023197,-0.9732379863333216,-0.17580493361823998,0.14798799705836885,1
233,46.63333333333333,-0.991059570203964,-0.12986461696141544,0.030595907710000033,-0.973646031539132,-0.17363756061364796,0.14786278372951533,1
234,46.833333333333336,-0.9912719567560229,-0.1291120186748623,0.026645719783627533,-0.9737385882693663,-0.17554979867215126,0.14496699590371737,1
235,47.03333333333333,-0.997718223715786,0.04394668680051118,-0.0512546074482579,-0.9738390845896794,-0.17933771776753563,0.1395543632835154,1
