,timeStamp,x_gaze,y_gaze,z_gaze,x_head,y_head,z_head,fixations_head
0,0.033366700033366704,-0.999304887813175,-0.013396660215698339,0.03478894490729721,-0.9647650319794995,-0.03362263227936846,0.2609558423722337,0
1,0.2333667000333667,-0.9992948554135423,-0.019307583106489147,0.03220262688996019,-0.965268520953507,-0.037818640246315705,0.2585080906009506,0
2,0.43336670003336675,-0.8778469298849081,-0.47836831917788936,-0.023420480323044637,-0.9572496632576479,-0.13266493816989075,0.2570468758290964,0
3,0.6333667000333668,-0.8392856671602192,-0.543650971467366,-0.006571919203328708,-0.9390256678434705,-0.2246654352186935,0.2603002830369561,0
4,0.8333667000333668,-0.8952014087509645,-0.4446944516565771,0.02934761380666416,-0.958712845126577,-0.09915333980156044,0.26653010298182245,0
5,1.0333667000333666,-0.9977184302622404,-0.05794656208369321,0.034642890435583044,-0.9195382443833908,0.3127185554683644,0.23802630565147856,0
6,1.2333667000333668,-0.6000118828258794,0.7998509205728298,0.01497482308875406,-0.7875329544819091,0.5925598303897762,0.16930650611667408,0
7,1.4333667000333667,-0.6481320183859252,0.7279675161181415,0.22358037082841253,-0.6521389664485986,0.7426847794773628,0.15209893744538486,0
8,1.6333667000333667,-0.006653198429947715,0.9855984369695708,-0.16897176093593555,-0.43034807045856094,0.8984938696020228,0.08665624351526542,0
9,1.8333667000333667,0.026025493629037666,0.9861931614293185,-0.1635411936834612,-0.2800006309738516,0.9577878489934452,0.06513127493573598,0
10,2.033366700033367,0.36890671388001495,0.9245566678677246,-0.09540861782658344,-0.10504131776586428,0.9893231257908479,0.10102511735918276,0
11,2.233366700033367,0.4066272045339528,0.9087278650154623,-0.09416997333196284,0.03590238011552521,0.994892409552161,0.09434040766042653,0
12,2.433366700033367,0.4399082109181334,0.8955008603858855,-0.06752018227867995,0.11770036808454054,0.9871742372053498,0.10785939342866492,0
13,2.633366700033367,0.4869225788628354,0.8728941122569106,0.031020492916557254,0.20749861473829234,0.9684064820747903,0.13832284828335017,0
14,2.833366700033367,0.4470756816718868,0.8921502357571606,-0.06474018609844231,0.23082951564702714,0.9654477254495865,0.12094802243269105,0
15,3.033366700033367,0.4764543966391324,0.8759908463660464,-0.0750416218250775,0.29451085106858876,0.9466027108067889,0.13117418380189858,0
16,3.233366700033367,0.46335711205324437,0.8812891272485781,-0.09289596817471045,0.43399871682650826,0.8948985914917651,0.10393086518931424,1
17,3.433366700033367,0.47786032537589485,0.8754770614062833,-0.07203765947796187,0.4598166386617033,0.8794297218892786,0.1231747663590179,1
18,3.633366700033367,0.536755607087762,0.8123642415752109,0.22794244288806884,0.5017891797762688,0.8560262169816428,0.12420440772998646,1
19,3.833366700033367,0.5030432522198305,0.7739150593529855,0.3847115377822202,0.526100041942217,0.8400303909180945,0.13254315599981292,1
20,4.033366700033366,0.4887707586503733,0.7740619757582036,0.40240676332989894,0.5232759678866798,0.8402689427532192,0.14188151844636368,1
21,4.233366700033367,0.48574503964501103,0.7634467025322618,0.4256769771233621,0.5198151115930754,0.8363921585917249,0.17389769062800653,1
22,4.433366700033367,0.6990311858877889,0.7147640483975247,0.021627673816032717,0.5224500425518941,0.8289608828127126,0.19967425423396976,1
23,4.633366700033367,0.7110974154599488,0.702633515112169,0.025428510913896092,0.5464878139252569,0.8102349442124827,0.2118263543759115,0
24,4.833366700033367,0.5376568147616761,0.6483417950393889,0.5390529346413317,0.5832682722117094,0.7847471764262804,0.20969022800824003,0
25,5.033366700033366,0.6908530856117429,0.7225361555912894,0.025758842444765957,0.6154115168715764,0.7587198980825107,0.21357148956611763,0
26,5.233366700033367,0.5971478797804106,0.6440594145036088,0.47812328981448815,0.6675754436976633,0.7152837893248333,0.20666912614363928,0
27,5.433366700033367,0.9121922910009903,0.3876196036902326,0.1328768869043516,0.775881955114449,0.594593630720385,0.21086869382279122,0
28,5.633366700033367,0.9621200174065072,0.2312139484678602,0.14444785266525895,0.8591905692851409,0.45446222779599493,0.23506520192954303,0
29,5.833366700033367,0.9986658901895136,-0.05137775545829059,-0.005173588315189287,0.8987590269503918,0.36110214809551827,0.2486713697151065,0
30,6.033366700033366,0.9995019795931437,0.012160058899698423,0.02911916477069582,0.9002060753812546,0.361429679847298,0.24289423289192943,0
31,6.233366700033367,0.6786890742372604,0.7325442012338222,-0.052536975071580026,0.7842657596198526,0.58354327902163,0.21072365742028054,0
32,6.433366700033367,0.3299385289423108,0.9440024117546258,-0.00011713596371582574,0.6365950927676521,0.7450853076214689,0.19898384917064452,0
33,6.633366700033367,0.33965308382810283,0.9404456905802522,-0.014060075216469696,0.5515603715085564,0.8150156043370895,0.1775689197703031,1
34,6.833366700033367,0.3543307418317554,0.9247941386947061,0.13858400495322357,0.493417192439438,0.8558783543096065,0.15495714513846173,1
35,7.033366700033366,0.4904482536790665,0.8594241326351887,-0.1443976132330719,0.4736748042990764,0.8666145771406429,0.15688006393285414,1
36,7.233366700033367,0.4510940632286927,0.767284214430123,0.4558388754880142,0.47869642234135323,0.8641806553075622,0.1550533141528469,1
37,7.433366700033367,0.42987102443609404,0.7794480691759391,0.4557100062629336,0.47823982525509146,0.8624783179182465,0.16558327409763257,1
38,7.633366700033367,0.4912846444763755,0.8708842000471404,-0.014145960906698602,0.47193985602387784,0.8647497763145183,0.17169914577583692,1
39,7.833366700033367,0.40215358845886634,0.9099131140395749,-0.10163963886427684,0.46637204019771894,0.8723013413307319,0.14692681863575385,1
40,8.033366700033367,0.4143478800385394,0.9047322118909045,-0.09887092127900769,0.46073954156184654,0.8750404517705392,0.1484024346383508,1
41,8.233366700033368,0.41446739579921354,0.9047957485459097,-0.097782571211157,0.45552271266737804,0.8763798371709007,0.1563887439826133,1
42,8.433366700033368,0.4070887747056306,0.9104781388824297,-0.07285799973822692,0.4461158976854014,0.8814506326328749,0.15500125181253635,1
43,8.633366700033367,0.4125997169804527,0.9030911392144947,-0.11911283650353148,0.4090665533606241,0.8867542346686365,0.21524749062161133,1
44,8.833366700033368,0.41171162242209547,0.8986292199212196,-0.15152249029878845,0.40001149859927054,0.8945759504868386,0.199310485923183,1
45,9.033366700033367,0.3814516659761913,0.7508798158546518,0.5391420301424039,0.4147412783828834,0.8818130325395949,0.2244893040851958,1
46,9.233366700033368,0.3936181014086008,0.739513102057747,0.5460633316094543,0.4494635764125127,0.8643157659933101,0.22570057628165588,1
47,9.433366700033368,0.6759096113265257,0.7364027651971107,0.029277375676012424,0.47198947085981957,0.8506022059297439,0.23173654581209427,1
48,9.633366700033369,0.6943678483527198,0.7181661401917381,0.04572402274641646,0.5185549304974904,0.8156095755155681,0.2566745105850171,1
49,9.833366700033368,0.7292781220125815,0.6799448689411133,0.07634393200808372,0.5730163141689482,0.7660628890326634,0.2912043161478937,0
50,10.033366700033367,0.6781089603612285,0.7348938109786688,0.009966165915873921,0.6687402857062343,0.6855087144529878,0.28786148176259396,0
51,10.233366700033368,0.8300970779033645,0.5565817730858623,0.033993692428056985,0.8304986218449637,0.47188224101372067,0.29597160291062535,0
52,10.433366700033368,0.9900175309829212,-0.12535297613365157,0.06443539183490077,0.9289548224683087,0.18737453206812787,0.31927061021196973,0
53,10.633366700033369,0.965183864576735,-0.21842943780384977,0.14390513632741875,0.9391560753704002,0.024450688250189243,0.3426193659718606,0
54,10.833366700033368,0.7574803409981363,-0.6467519936713327,0.08908081546272298,0.8781836606412632,-0.2743684259413412,0.3918104452783025,0
55,11.033366700033367,0.8082986559021019,-0.5886050017251779,0.014051149809126216,0.8407225930197925,-0.3876362592827969,0.37805244619671086,0
56,11.233366700033368,0.8796853108031875,-0.47453459668234466,0.031155585512455723,0.866497895096641,-0.3276384118584407,0.3766091725754562,0
57,11.433366700033368,0.9701248928992378,0.20191328134920747,-0.13449430840016507,0.9259228901928789,-0.03693989867626757,0.3759019091500514,0
58,11.633366700033369,0.599189981531443,0.7965308286962902,0.0806846018069758,0.8158724044619805,0.5071480170719858,0.2777644837220541,0
59,11.833366700033368,0.07533597507296641,0.9969060166649988,0.022425093019445393,0.4173152553444051,0.8789396594299321,0.23089619472401263,0
60,12.033366700033367,0.404006637965501,0.9134189883283724,-0.04944075485857175,0.23221403560415377,0.9586212194586954,0.16468758080667983,0
61,12.233366700033368,-0.23270925610924487,0.9630771972034208,-0.13538358226862438,0.07961169242259786,0.9873779343309913,0.13691892939208442,0
62,12.433366700033368,-0.4302558053552058,0.8987767036009392,-0.08414498810013982,-0.2438848779274892,0.9517635257528181,0.1861890366398039,0
63,12.633366700033369,-0.7289585771756877,0.6843583811735631,0.016522677733870617,-0.568215319413662,0.7957055552354659,0.20972367570460249,0
64,12.833366700033368,-0.7915028408193068,0.6106998255414983,0.02385321903959406,-0.6415927325600255,0.7476211921027024,0.17152643716084667,1
65,13.033366700033367,-0.8070769692804602,0.5893200052438611,0.03645129732181302,-0.6651728298097708,0.7216520126626951,0.19173804813532228,1
66,13.233366700033368,-0.8472991742540057,0.5190923077378238,0.11237119451131852,-0.6977384697415228,0.6894452890221947,0.19448964313777833,1
67,13.433366700033368,-0.7046856260101655,0.5346516022415136,0.4664395273936844,-0.6990069085067472,0.6893264558395247,0.19031126908189042,1
68,13.633366700033369,-0.7196323655875585,0.5160145829108569,0.46460543326804626,-0.7214699037599547,0.6624941471341663,0.20145144075328872,1
69,13.833366700033368,-0.905448509501095,0.39818172309912403,-0.14701806702598796,-0.7543194361295598,0.6229598989575642,0.20717903505896712,1
70,14.033366700033367,-0.8095674834655276,0.4937486117409056,0.31751031183131834,-0.8119704796039728,0.5424012243787676,0.21564983664289705,0
71,14.233366700033368,-0.836886538145066,0.5460229617791855,0.038468785806848926,-0.8438079444512965,0.4949670943281324,0.20735411356721073,0
72,14.433366700033368,-0.9858808144696155,0.134184665624974,0.10016733585277085,-0.8833631693883817,0.42022244914582224,0.20756349438665792,0
73,14.633366700033369,-0.9991529218737758,-0.028464510858049717,0.029718854835081198,-0.9242518668237334,0.31911989495138643,0.20957332683111254,0
74,14.833366700033368,-0.9965029424232142,0.04682963727544864,0.06920166771492114,-0.934263768572924,0.28345361925581275,0.2163452251904328,0
75,15.033366700033367,-0.690598783368377,0.72246324636054,0.033469061359815644,-0.9038651265872295,0.36846480538056475,0.21739714840658414,0
76,15.233366700033368,-0.6368553720235445,0.7709830811103596,-0.0005690046834755028,-0.7867974124957274,0.5831226477619845,0.20228151017104984,0
77,15.433366700033368,-0.3116981040866482,0.9487241585309278,-0.052600027838134465,-0.35893524736587407,0.9193619403318483,0.16105623510953576,0
78,15.633366700033369,0.22614640618872367,0.9151015482702539,0.33383672554305577,0.08517227384027753,0.9877041611659643,0.1310960479355341,0
79,15.833366700033368,0.28783457673678164,0.9546426199282122,-0.07621498967628963,0.30938236693076343,0.9405926342715321,0.13988583697593865,0
80,16.033366700033366,0.4578206422068133,0.8885657528724639,-0.02917468751388366,0.38567132653186315,0.9079970730182197,0.1637038279378305,0
81,16.233366700033365,0.456550205408857,0.8893568087842614,-0.024624715434004702,0.41533701757640407,0.8893218535949916,0.19131597567664452,0
82,16.433366700033368,0.33527524554307936,0.8415576211814328,0.4235224668863222,0.40816580749498865,0.8414034679368604,0.35417633706360035,1
83,16.633366700033367,0.4137320908747757,0.7646863246058838,0.49404512136153256,0.41640461948440066,0.8071019796309905,0.41856133044965793,1
84,16.833366700033366,0.4167312536358015,0.764686749646854,0.4915172806297489,0.40301945666765804,0.806284774626237,0.4329898148377444,1
85,17.033366700033366,0.3809330273541994,0.9240096337588249,-0.033109294641343726,0.3903049543733931,0.8379893220825867,0.3813606412139966,1
86,17.233366700033365,0.37027383133567443,0.9163121424930585,-0.15254293607958827,0.3956712379934203,0.8556284938282086,0.3336827115300188,1
87,17.433366700033368,0.37719835351547903,0.9083291359094635,-0.18071962528507834,0.41802411394616323,0.857525892970763,0.299841930096878,1
88,17.633366700033367,0.3021061754473005,0.9504118900909406,-0.0738180054618866,0.4092764336124164,0.8687024848586844,0.27901396683651647,1
89,17.833366700033366,0.27942883947870095,0.9598816182322238,0.02338381165408206,0.3815194611995828,0.8913655641723011,0.2447658712602223,1
90,18.033366700033366,0.2856533796879215,0.9583078921001248,-0.006937622898632785,0.3543176083811682,0.9101944471213453,0.21448799691478782,1
91,18.233366700033365,0.3008608539055851,0.9536559708401653,-0.0047995695748538885,0.34828642417266187,0.9134938467640911,0.21029873670843643,1
92,18.433366700033368,0.3608108343928141,0.9326265922599382,0.004814685283217541,0.3562621114147795,0.9121187173003432,0.20277266462879173,1
93,18.633366700033367,0.39736780775429364,0.9176518849903594,0.0037206631380899786,0.361282051685163,0.9098478772948936,0.20408850852543328,1
94,18.833366700033366,0.4766519034435753,0.7762686387993195,0.41256510196606316,0.372626012232712,0.9054558807949733,0.20322279139246693,1
95,19.033366700033366,0.4166620634155093,0.7555819218506071,0.5054588848589698,0.38795858227016894,0.8983954297343928,0.20584895014373158,1
96,19.23336670003337,0.42120376155827033,0.748047577964082,0.5128471627602464,0.40591759069669525,0.8908315028195204,0.20408366702728964,1
97,19.433366700033368,0.42969772658561906,0.7453465453671029,0.5097238380500523,0.4171337510706536,0.886316274108315,0.2011041918222497,1
98,19.633366700033367,0.44317592246987125,0.7393858751458776,0.5068566161921372,0.4356878711502043,0.8777914767979822,0.1991436722404719,1
99,19.833366700033366,0.5604951632831423,0.8272832084295645,0.03804819294907019,0.4870933704835675,0.8445963955308403,0.22225430724121087,1
100,20.033366700033366,0.4573984695652606,0.8848869266535594,-0.08810089146527493,0.5000010439556719,0.8314984878709638,0.24209341319321165,0
101,20.23336670003337,0.3893970119374131,0.9140653725535718,-0.11337751890350253,0.4451031556037498,0.8675658391076181,0.22183934656656146,0
102,20.433366700033368,0.36347166715804374,0.9306940878669896,-0.04119298463069647,0.4360136180466539,0.8746514184654363,0.21184197189005588,0
103,20.633366700033367,0.34603611811885654,0.9373940302747614,0.039388284584029286,0.46204343672573933,0.8612402352875596,0.21161549966979548,0
104,20.833366700033366,0.8792353621015283,0.4646947730506721,0.1048996946114657,0.7220032446474842,0.6609950046231924,0.20444294700891763,0
105,21.033366700033366,0.9738211012907508,0.16495218065025258,-0.15640729132491138,0.9129722627661531,0.3562981468977377,0.19882977125392717,0
106,21.23336670003337,0.987473128399883,-0.15692800417652075,0.016444518640637965,0.9560132783429885,0.19618723902785185,0.21805774206507858,0
107,21.433366700033368,0.9792529502593,-0.1947779390070516,0.0559036124469818,0.9648963923338916,0.11312458381816126,0.2370185237423623,0
108,21.633366700033367,0.9699334044026611,-0.2356322414575074,0.0608821633122168,0.9655709812631539,0.0805788385481678,0.24734536769613982,0
109,21.833366700033366,0.9954225483493165,0.01099116616923484,0.0949375821473934,0.958529874998492,0.15603942329205364,0.23847888190374145,0
110,22.033366700033366,0.8748420242495677,0.48233966605499634,0.044720008462360586,0.8586373645372533,0.4650807536576521,0.21550352386388155,0
111,22.23336670003337,0.3017416374608959,0.9522044737238106,-0.04752498756210487,0.6160999919096428,0.7660058756997843,0.18345516717264973,0
112,22.433366700033368,0.13252596868865418,0.8459791869625198,0.5164843490846239,0.19551450891784428,0.9654390405190967,0.17234133527445084,0
113,22.633366700033367,-0.4841521539039611,0.7285331940489003,0.48459888262259043,-0.5203080454917566,0.8431679537842452,0.13545235142970885,0
114,22.833366700033366,-0.7937533633292315,0.27124134494523056,0.5444113619275738,-0.9025102241193248,0.37450623291237284,0.2126508332216689,0
115,23.033366700033366,-0.9878165568930914,-0.15496759311531974,0.014265167784605206,-0.9633367739209582,0.09618769847380869,0.25045995023929923,0
116,23.23336670003337,-0.9674768475627669,-0.252176107453313,-0.019893724128627756,-0.9656186031505254,-0.1397109013026454,0.2192295082940049,0
117,23.433366700033368,-0.7237701457967657,-0.6886454154025153,0.04386647807182863,-0.901424438617103,-0.3823145649089382,0.20314909530276137,0
118,23.633366700033367,-0.522901151773442,-0.8522860347384082,0.013524069797540691,-0.8186562676011192,-0.5374833377353908,0.20227104877917865,0
119,23.833366700033366,-0.44205465084586926,-0.8969429805737001,0.008998625734145973,-0.7427073223643386,-0.6418974076586139,0.19066607288016835,1
120,24.033366700033366,-0.3716311987150284,-0.9282962852746569,0.012500355471118527,-0.6582782546598617,-0.7270840262274331,0.19498348198468485,1
