,timeStamp,x_gaze,y_gaze,z_gaze,x_head,y_head,z_head,fixations_head
0,0.033366700033366704,-0.999377630822418,0.033809202284336384,-0.010064236318137213,-0.9960921263680771,-0.04074574040232942,0.07835981384988676,0
1,0.2333667000333667,-0.9907386018585382,0.1322787627807034,-0.030648845077673122,-0.9956822681979418,-0.0661633674377711,0.06510936649589562,0
2,0.43336670003336675,-0.9044781942237581,0.42554388364363754,0.028837462912337738,-0.9974678444721475,-0.03256907485687542,0.06322305439517448,0
3,0.6333667000333668,-0.8368954642748605,0.5471703115212229,0.014513168707549038,-0.9885999839132094,0.13500812781218002,0.06665491153285355,0
4,0.8333667000333668,-0.8278021225159884,0.5604803203507278,0.02460602482259855,-0.9560971799399046,0.28470249869619807,0.06944544439416771,0
5,1.0333667000333666,-0.8333770591531446,0.552256916602283,0.022248041311440397,-0.942698034344165,0.3276545235463293,0.06295180095339287,0
6,1.2333667000333668,-0.9193653785822707,0.39339388727223035,0.0029240590147758547,-0.9862743441437329,0.15897655561402071,0.04460238613517974,0
7,1.4333667000333667,-0.6032947070362794,-0.7879064913634789,-0.12344576675326804,-0.9175587629440835,-0.395171726256553,-0.04387736673889387,0
8,1.6333667000333667,-0.5402291378805804,-0.83000203177447,-0.13874114687091516,-0.6423069307136864,-0.7647737587399176,-0.0506251390119779,0
9,1.8333667000333667,-0.35085719327653186,-0.8811163076996155,-0.317069838098661,-0.47260697009536035,-0.8788661676138491,-0.06509156044395553,0
10,2.033366700033367,-0.34572022496016697,-0.8678187612775907,-0.35688670979474646,-0.4094200252967217,-0.9061801547862413,-0.10589036763377299,0
11,2.233366700033367,-0.39533032788203565,-0.8935280941648412,-0.21288841395160246,-0.3920534929666603,-0.9108403693123696,-0.1290886528070809,0
12,2.433366700033367,-0.6071553044784547,-0.7798299907044954,-0.15240610828146606,-0.4613914840636946,-0.883679701146767,-0.07891821218617359,1
13,2.633366700033367,-0.6248814606999393,-0.7546825475382039,-0.19994352331285073,-0.5212060386994354,-0.8461148708760838,-0.11150735628464527,1
14,2.833366700033367,-0.5179241308778149,-0.775581051789291,-0.36087203654464234,-0.5568671842934776,-0.8244445955193888,-0.10094576749881935,1
15,3.033366700033367,-0.520031144970376,-0.7650205305437792,-0.37988313480242103,-0.5725879559118711,-0.8125340776723058,-0.10923097255760814,1
16,3.233366700033367,-0.5069018937202714,-0.7665215552551141,-0.3943287657172428,-0.5693108433435023,-0.8130069172528559,-0.12208569183372246,1
17,3.433366700033367,-0.49505794803791725,-0.7701660523011185,-0.4021963201813231,-0.5646688131254576,-0.8151280762250047,-0.12928786034740491,1
18,3.633366700033367,-0.4287255491352504,-0.8643608394123216,-0.26282074272991623,-0.5598304009112662,-0.8178933402064054,-0.13281719113706705,1
19,3.833366700033367,-0.4997185975267983,-0.866139981299757,0.009102531510888547,-0.5669658861635462,-0.8160833013984192,-0.11206127388817988,1
20,4.033366700033366,-0.4925994034816313,-0.8692735407799764,0.04134415302535775,-0.5789567897943119,-0.8065832100972196,-0.11930029648047634,1
21,4.233366700033367,-0.5108539329257082,-0.8588299487188139,0.0379391407121366,-0.5874661782962316,-0.8006067520818433,-0.11795048910022451,1
22,4.433366700033367,-0.5221604537888727,-0.8522842138331669,0.03098514724476448,-0.5943085863582063,-0.7954241161518714,-0.11873407103660243,1
23,4.633366700033367,-0.5148899766502829,-0.8572440412516449,0.004578829939979172,-0.5885667089010748,-0.7999051781938817,-0.11722173463983657,1
24,4.833366700033367,-0.5206210444408464,-0.8536680363130343,-0.014304260301414856,-0.593634862405653,-0.7960684717553432,-0.11778216509189063,1
25,5.033366700033366,-0.5213073050356806,-0.8527974020935265,-0.031229548491266163,-0.5938336814561664,-0.7955040386339312,-0.12056070373600691,1
26,5.233366700033367,-0.5196961056525172,-0.8533332706643566,-0.04169276852020421,-0.5945572403112187,-0.795121138675315,-0.11951595217868861,1
27,5.433366700033367,-0.5465274427399134,-0.8353619075269494,-0.058976586753619775,-0.6191354362993885,-0.7740674235513786,-0.13225329982611683,1
28,5.633366700033367,-0.5164403429709691,-0.8249201539220957,-0.229774045107741,-0.6512974532412276,-0.7492622538694528,-0.12007373704503049,1
29,5.833366700033367,-0.5067607206078688,-0.8284700849058075,-0.2383923037037016,-0.6635535573011451,-0.7359176801155061,-0.13461740112781734,1
30,6.033366700033366,-0.4929947206646085,-0.8355531622155966,-0.24250179073223607,-0.6592555385906238,-0.7381302520953796,-0.14333829139207033,1
31,6.233366700033367,-0.493090863563419,-0.836896725738952,-0.23762422165617594,-0.6583636898580199,-0.7394861013500422,-0.14041922157115275,1
32,6.433366700033367,-0.5072862048675111,-0.8286811991758535,-0.2365336688160637,-0.6696041047148643,-0.7289314415259436,-0.14244050162757524,1
33,6.633366700033367,-0.6188562881266221,-0.7636177140384216,-0.18413278212440873,-0.6881195135503152,-0.7080755994530448,-0.15849441797895847,1
34,6.833366700033367,-0.7009427299370852,-0.7086077574181321,-0.08095885050562669,-0.7500127144259539,-0.6478922836412475,-0.13310340715977956,0
35,7.033366700033366,-0.7597866441237232,-0.6496780351722526,-0.025351647400757894,-0.82922467548404,-0.548927286478344,-0.1051915953292421,0
36,7.233366700033367,-0.9809910819601618,0.18941308925264527,-0.04218031216575616,-0.9678927587792894,-0.24091773455375273,-0.07170950202102805,0
37,7.433366700033367,-0.8776459166801983,0.47349019141024024,-0.07446263205708223,-0.9482076916055556,0.3168995775807804,-0.021836467415466947,0
38,7.633366700033367,-0.8396714408578771,0.5305793069106162,-0.1159201038901667,-0.8577659554885404,0.5134669994191918,-0.024273568181939348,0
39,7.833366700033367,-0.8408856692238493,0.5319354950860227,-0.09977935839414495,-0.8279111315956327,0.5605815568506297,-0.017648691140229503,0
40,8.033366700033367,-0.8794271124631957,0.4741919320172202,-0.04183258866507829,-0.8564477656443141,0.5162289336173804,0.002216488015846529,0
41,8.233366700033368,-0.8973552603631777,0.43980902197571786,0.0363532789070844,-0.9185556560858653,0.39498116722072524,-0.01566474428833492,0
42,8.433366700033368,-0.9405899518331338,-0.25732416508135675,0.22152836517188082,-0.9934439446554512,-0.05401303300452014,-0.10075574967747412,0
43,8.633366700033367,-0.48669176166194145,-0.8735545338242512,0.005797030747861412,-0.7950573218451935,-0.6040479794390733,-0.054862496442666685,0
44,8.833366700033368,-0.4748651458363508,-0.8789178977692597,0.044793104945809605,-0.625015753219964,-0.7795222992904283,-0.04123461089721935,0
45,9.033366700033367,-0.5857756139114855,-0.809344450240208,0.04276085841044339,-0.6915629357756184,-0.721159738617129,-0.04085752389808268,0
46,9.233366700033368,-0.8460335326423877,-0.22134388760394932,-0.4850094278104419,-0.9222460182101753,-0.3819786033918915,-0.059620704845360244,0
47,9.433366700033368,-0.7303815880665567,0.6635746212160942,-0.16189953023802087,-0.9426413683359028,0.32447348794642067,-0.07838498785929089,0
48,9.633366700033369,-0.7889250802382762,0.585278630834228,-0.18720614856313217,-0.7983671564095334,0.5984177507718276,-0.06712733517534422,1
49,9.833366700033368,-0.8066511570242997,0.5621829470818221,-0.18238488117647295,-0.7699400306323902,0.6353943743677654,-0.05887561678309667,1
50,10.033366700033367,-0.8519726175903933,0.49006206685016585,-0.18434161090409612,-0.8139740938437661,0.577316012561699,-0.06443908899945933,1
51,10.233366700033368,-0.8700711018751985,0.45459264157900864,-0.19058281114491124,-0.8423721918419864,0.5338941538636923,-0.07325382502982083,1
52,10.433366700033368,-0.8408433391514883,0.5080947299096253,-0.18660713931315767,-0.8537421687600086,0.5146197386440534,-0.07931477717855154,1
53,10.633366700033369,-0.8540410197291752,0.5098910559400249,-0.1030778719819018,-0.8446847775283106,0.5302249438015055,-0.07327438558349582,1
54,10.833366700033368,-0.8592917031538864,0.5053650205268855,-0.07889210935672955,-0.8367181911032738,0.5433484900431089,-0.06837460818709791,1
55,11.033366700033367,-0.8636432374379609,0.4986320362891266,-0.07407057994802896,-0.8336803615581323,0.5485347580917899,-0.06392709845975711,1
56,11.233366700033368,-0.866873062409695,0.4920159289778011,-0.08032072771426106,-0.8339423175495837,0.5476273941718063,-0.0681501882068332,1
57,11.433366700033368,-0.8706104987538554,0.48444088725864787,-0.08575771808774468,-0.8362516601416612,0.5429187613076476,-0.07695699793056902,1
58,11.633366700033369,-0.8702579288403697,0.4846312753889125,-0.08822507696446952,-0.8358893718145681,0.543350427215954,-0.07784132149242612,1
59,11.833366700033368,-0.8687973281157713,0.48686454611862334,-0.09030014613279584,-0.8342001793205169,0.5458529400655512,-0.07845144130869447,1
60,12.033366700033367,-0.6025761184820937,0.7936834846802868,-0.0834778268812199,-0.8289701161933432,0.5539432202118046,-0.07717159606857768,1
61,12.233366700033368,-0.5890134048658516,0.8040803985473536,-0.08073364577588146,-0.818030958262565,0.5707829740945557,-0.07093763322668376,1
62,12.433366700033368,-0.5788398726593611,0.8113948751693334,-0.08113419974731398,-0.8085098531017378,0.5840370419167932,-0.07219799932469576,1
63,12.633366700033369,-0.5842447667656028,0.8071696682508479,-0.08446998971719087,-0.811479588962937,0.5797837971857532,-0.07315480310555403,1
64,12.833366700033368,-0.9836186435665034,0.13432612667256344,-0.12021171208138735,-0.8937525371512176,0.4415861029062592,-0.07879159889115128,0
65,13.033366700033367,-0.9896345500981641,0.062259191151197026,-0.12941116786894152,-0.9241723448596771,0.3709740808217944,-0.0910148798548405,0
66,13.233366700033368,-0.8571567876254461,0.5111389931454545,-0.06339693300055688,-0.9193801370444982,0.3835096088718474,-0.08752453090992499,0
67,13.433366700033368,-0.8334215524533231,0.549381963411404,-0.05989970103868276,-0.8918411844591387,0.4445094187654874,-0.08384914031335879,0
68,13.633366700033369,-0.8457767133394867,0.4920034257141021,-0.20638406008760438,-0.845201951063461,0.5268230166923221,-0.08995093663614896,0
69,13.833366700033368,-0.8160091365961343,0.5347487367225061,-0.2194832056566407,-0.7879152441299769,0.6076421236318025,-0.09980289402533679,0
70,14.033366700033367,-0.7320902264598341,0.5740705476626632,-0.3667245650734067,-0.6805519487753036,0.7244961546107265,-0.10933602778776662,0
71,14.233366700033368,0.18034955166603184,0.9655695028450241,-0.18748219752679002,-0.29715268437057163,0.9494344971653803,-0.10136280266293494,0
72,14.433366700033368,0.43043357832521356,0.8853721990955316,-0.17562176322681433,0.14530474122051495,0.9875834009850075,-0.059712295867144036,0
73,14.633366700033369,0.28820332006331445,0.9492216850660564,-0.1261627476905888,0.28813873344830754,0.9566068600288684,-0.04335188153372572,0
74,14.833366700033368,0.26154275966049984,0.9579434809360302,-0.11806638895694012,0.30111015100166494,0.9530409696272258,-0.032335540443172106,0
75,15.033366700033367,0.16817135406251998,0.9840863459169609,0.05737995688898886,0.26645775134310695,0.9634598385085233,-0.027302130508541293,0
76,15.233366700033368,0.5542857726956683,0.776550174694467,-0.29956152685076065,0.3415057883234989,0.938802972575785,-0.04497527347794376,0
77,15.433366700033368,0.759464603826876,0.4787874419349492,-0.440427180109804,0.626738383652357,0.7589343351469506,-0.17668523818329385,0
78,15.633366700033369,0.8312944975371772,0.270840078817875,-0.48538140680328873,0.8238393921827591,0.5151602345189812,-0.2364288236621966,0
79,15.833366700033368,0.9026014657331244,0.10559457573985863,-0.4173252683827508,0.8948868894190354,0.3710505512313507,-0.24798980538891963,0
80,16.033366700033366,0.9316395842460976,-0.22612788878271348,-0.2844536218444603,0.9572025470350428,0.17348785123907404,-0.23165761248462238,0
81,16.233366700033365,0.8561463280230992,-0.4302667671695131,-0.2861537595106171,0.9711521380765776,-0.07996640930089277,-0.22465283904908526,0
82,16.433366700033368,0.8363780385550644,-0.49744776999210805,-0.23025527736115414,0.9596119146720985,-0.1972058959953744,-0.20063600824381086,0
83,16.633366700033367,0.8531651905848447,-0.47623303909912157,-0.21286439355782552,0.959753902160638,-0.2107539137067025,-0.1856212141559703,0
84,16.833366700033366,0.8744225807378379,-0.4355995680626639,-0.21363091208764748,0.9657443942394225,-0.19442760487577668,-0.17185945262742966,0
85,17.033366700033366,0.8984583902363356,-0.398795244370972,-0.18367055855805908,0.9786531382863547,-0.1449619224260206,-0.14568485154202407,0
86,17.233366700033365,0.7420941326448658,0.67023789860321,0.008800998239845164,0.8975292726530237,0.4381905752721499,-0.049297306960895224,0
87,17.433366700033368,0.3458162330923029,0.9371363520694744,-0.04676099399893024,0.5441903957772947,0.8387241961603725,-0.019963364418068306,0
88,17.633366700033367,0.2698243887772747,0.9624042288633056,-0.031191336729878186,0.30726409992555037,0.9516239978687192,-0.0007345592536377661,0
89,17.833366700033366,-0.40633696350748677,0.9112609090457747,-0.06703601817369337,-0.02921470273102822,0.9995723430234125,-0.0012775785780712288,0
90,18.033366700033366,-0.657588913076921,0.7257581170792167,-0.20211871979592516,-0.37831284829505823,0.9249935826430368,-0.035584559630267534,0
91,18.233366700033365,-0.6795333097979348,0.6852912031591509,-0.26193596115796625,-0.49534947544986674,0.8664136146205037,-0.0628994878498667,0
92,18.433366700033368,-0.8056836472183315,0.4527277962375013,-0.3819835115798888,-0.5555797291265591,0.8262482252425305,-0.09297867963801075,0
93,18.633366700033367,-0.7410747761826864,0.5434647127850255,-0.39427691038567136,-0.5447651937044127,0.8320889100714767,-0.10420618726474765,0
94,18.833366700033366,-0.7300348476579817,0.5450969220418058,-0.4122116771581528,-0.5546130778057049,0.8232069308218803,-0.12138650243623944,0
95,19.033366700033366,-0.7263084274117176,0.5462472880107593,-0.41724089997459346,-0.5592313689093209,0.8194754026345938,-0.12538078203886568,0
96,19.23336670003337,-0.41494054805571823,0.8459744787677805,-0.3348903146595952,-0.3476584135520341,0.9329552242359661,-0.0934247133113129,0
97,19.433366700033368,0.6520435181997986,0.7578667102340801,-0.021847194158552078,0.19141114340156523,0.9815011205365244,0.004162279093575948,0
98,19.633366700033367,0.6952327010769362,0.7180097984594356,-0.033367958725526,0.41963744241242473,0.9071242222410985,0.03209458441919873,0
99,19.833366700033366,0.7391300789503491,0.6725284866129081,-0.03731167491553737,0.5159158242955957,0.855708121885948,0.03993084496751894,0
100,20.033366700033366,0.7576970307363704,0.6504632421245891,-0.05284676203946707,0.577332582210522,0.8156983558379883,0.03637694051639895,1
101,20.23336670003337,0.6830641474292316,0.7244459971891156,-0.09274355855500119,0.625277682478236,0.7795559887492103,0.03633566016859622,1
102,20.433366700033368,0.6908808697355118,0.7159573105976205,-0.10044278587994898,0.6527094530318285,0.7569064825610806,0.032602861529390945,1
103,20.633366700033367,0.6669814685475499,0.7059977915093941,-0.23812357925667882,0.6664585303074869,0.7452798305499981,0.019773759272100146,1
104,20.833366700033366,0.664237981043845,0.7014589388049008,-0.2583471728304756,0.6700406079206849,0.742316024803845,-0.003535966161701155,1
105,21.033366700033366,0.6733967022318914,0.6897505165372925,-0.2660471882199687,0.6830920213772345,0.7301172381862336,-0.017723115811572876,1
106,21.23336670003337,0.6747682678660877,0.6837990377504927,-0.27768086115629265,0.6932310681780602,0.7198407649558312,-0.03549590427794548,1
107,21.35468802135469,0.6828389634093504,0.6682262894131302,-0.2953042095656669,0.7052403360827899,0.7074442882189046,-0.04646124652095675,1
