,timeStamp,x_gaze,y_gaze,z_gaze,x_head,y_head,z_head,fixations_head
0,0.04,-0.9968165883501388,-0.03914809373446421,0.06945585610261855,-0.9851408146812457,-0.11669513120744346,0.12601516417340056,1
1,0.24000000000000002,-0.9982613043154434,-0.02237313567234586,0.054532660916338925,-0.988511437146508,-0.09920584606003101,0.1140321829049095,1
2,0.44,-0.9983669821565244,-0.02041431427567982,0.053353769429425144,-0.9891878767407039,-0.09447094728635409,0.11217212054711628,1
3,0.6400000000000001,-0.9551985406585769,-0.1287965890537981,0.26647173690999987,-0.9864960212469356,-0.11423109840885053,0.11737485344090158,1
4,0.8400000000000001,-0.9532984907765716,-0.15029697426098318,0.26197863846333747,-0.981789165168242,-0.1485460823837151,0.11842337846345044,1
5,1.04,-0.9307641246112757,-0.17644323112131127,0.32022793527123394,-0.9640727474559413,-0.18787547162217122,0.18779388907922406,1
6,1.2400000000000002,-0.9949818468676425,0.006930071983083209,0.09981532200100841,-0.8401371048668467,-0.1634800189211067,0.51714981237501,0
7,1.4400000000000002,-0.5185192902913676,0.010666738538116314,0.8549993954879129,-0.6843546972773361,-0.08869040679147251,0.7237352140511121,0
8,1.6400000000000001,-0.45703409452498256,0.06605550431621265,0.8869929575770378,-0.6250949304949176,-0.029156745239002066,0.7800039820902341,0
9,1.84,-0.3439466127685852,0.18947029166409662,0.9196747991228963,-0.5582588619759876,0.02986199626342222,0.8291292445719419,0
10,2.04,-0.22564450142117748,0.3020080950518472,0.9262157791257623,-0.457669929036518,0.1719250124241531,0.8723416911730539,0
11,2.24,-0.12269533014948639,0.4427518910262775,0.8882097831887265,-0.36436163401377364,0.34875792629612473,0.8634862526435725,0
12,2.4400000000000004,-0.1288571546309759,0.6057336646632739,0.7851640345774945,-0.26229921648224463,0.47058862674141005,0.8424639252896438,0
13,2.64,-0.1374401612050159,0.6176201861127205,0.7743742685510853,-0.23844898760244723,0.502700167611257,0.8309239566861593,0
14,2.8400000000000003,-0.3767500059859539,0.28312295825689954,0.8819868612952496,-0.28115003074092304,0.47663025635730144,0.832933526122674,0
15,3.04,-0.5014789763017249,0.074247305456923,0.8619780588621504,-0.44589050025486676,0.3349610824760589,0.8300498388704932,0
16,3.24,-0.543559169724327,-0.0006530024216015379,0.8393705990779269,-0.6204199746560326,0.09886236194168684,0.7780136813958474,0
17,3.4400000000000004,-0.5230086317778098,-0.26468026925328364,0.8101890681525598,-0.6134936031351782,-0.16521306206913797,0.7722242181089349,0
18,3.64,-0.4739310584652672,-0.4640233933816876,0.74837934379333,-0.5034899977655969,-0.4288117493480605,0.7500788663674346,0
19,3.8400000000000003,-0.2793665172164217,-0.7530524346571043,0.5957066221852622,-0.3009935609913248,-0.643447039965175,0.7038315018538291,0
20,4.04,-0.00627437406958925,-0.955765029779186,0.2940643468379446,-0.1041895699124255,-0.7952993249054094,0.5971963808718734,0
21,4.24,-0.051039876261694817,-0.9984110581503268,-0.023880745263402642,0.008624101524356664,-0.9390597982553559,0.34364563168110807,0
22,4.44,-0.09229559083019945,-0.9928693720672707,-0.07544490654807785,0.06048024502682742,-0.9967386037638534,0.0534256092934753,0
23,4.640000000000001,-0.1683738318480914,-0.9853721049947477,-0.026307174820006787,0.010503469776646734,-0.9998311161280585,-0.01508032973021233,0
24,4.840000000000001,-0.20626352070422238,-0.9778482505846648,-0.0356112181090411,-0.05181069176989944,-0.9982958240132542,-0.02685330475047564,0
25,5.04,-0.0574189748263102,-0.9976659150934628,-0.03695650403676061,-0.04546048646902717,-0.9984488826051342,-0.03214300848642244,0
26,5.24,-0.04781055511607246,-0.9981982003374366,-0.036256084490691495,-0.026040649539609217,-0.9991705101682028,-0.03130776551862314,0
27,5.44,0.5429044468217137,-0.8363051230636238,-0.07647550430527338,0.24945174938307213,-0.9683872231274469,0.00010398671664641416,0
28,5.640000000000001,0.9440306869515147,-0.32714623193228815,-0.042206694094146575,0.812974663912853,-0.5811749770787059,0.03616409619152136,0
29,5.840000000000001,0.9351706974853208,-0.35403218493571526,0.01081566430981003,0.966567762036519,-0.253574803103649,0.03803394040407819,0
30,6.04,0.8502280809031462,-0.5130335601142096,-0.11793547659755667,0.9781378705686707,-0.2067808728297247,0.022090196720797744,0
31,6.24,0.8133364074063449,-0.5421448424081458,-0.21109916683300023,0.9282761751010442,-0.3672737774668096,-0.05842358363740061,0
32,6.44,0.8065755977338479,-0.5171730252885184,-0.28630030921081384,0.8392875575614369,-0.4795126550716393,-0.2562498962901341,0
33,6.640000000000001,0.8163572006758281,-0.4985317295609096,-0.291593956600157,0.8071176220175675,-0.46308182874232406,-0.366219011135921,0
34,6.840000000000001,0.8383126666976397,-0.4856947568291589,-0.24765394412961889,0.81945849382315,-0.4477586519110547,-0.3577708296380372,0
35,7.04,0.8495231571028047,-0.5212816647424301,0.0810915010925594,0.8215113965174932,-0.4635161378256956,-0.33207200328698155,0
36,7.24,0.846778918982017,-0.5230907255434681,0.0966517212368957,0.8262967464193276,-0.4721905043860565,-0.3070338978426899,0
37,7.44,0.9108464277301563,-0.3446442877736833,0.22711032560450417,0.9394305350405977,-0.3026004832510875,-0.16094476496470717,0
38,7.640000000000001,0.9614335548149451,0.10787032575045226,0.2530010128406403,0.9819377068867465,-0.18552306678751163,0.03714204469000373,1
39,7.840000000000001,0.9401526017232263,0.20573549299670357,0.27163577156636115,0.9899045474237542,-0.1078917222202335,0.09191497846447037,1
40,8.04,0.9305313354166211,0.2319585288031856,0.2833843233547359,0.9917680912611203,-0.0757784649810078,0.10321665273296039,1
41,8.24,0.9770069561377192,0.21160531480731165,-0.02608828096689561,0.994690761201871,-0.057745250355427366,0.08518084080960939,1
42,8.44,0.9787731330037205,0.19553411456977837,-0.06139677637705831,0.9958991230591294,-0.07601908310543905,0.049051357716839494,1
43,8.639999999999999,0.9848595536784439,0.15194069166860355,-0.08346068381916442,0.991537454723778,-0.12908172240825752,0.013834190254936731,1
44,8.84,0.8164060119642215,-0.5632033487205031,-0.12760568803422084,0.9701076144741927,-0.24212913241466258,-0.016269590508482677,0
45,9.04,0.8118572781730277,-0.5645021904459363,-0.1490806387805719,0.9108714647038673,-0.40739381170989786,-0.0659049085327645,0
46,9.24,0.7326116071397797,-0.6198874218035929,-0.28110463776637207,0.84458627311543,-0.5184549666351179,-0.1337104140909274,0
47,9.44,0.46014801015975815,-0.8631749469487905,-0.20782882308757694,0.7905531573984905,-0.586493595931396,-0.17621284646341215,0
48,9.64,0.8293243784996275,-0.5453513743143739,-0.1217084785856366,0.8013363613026185,-0.5713663253830921,-0.17720202671668753,0
49,9.84,0.8918952198855291,-0.43460109102412425,0.1250792086079244,0.88529237080634,-0.43784244560735547,-0.1566888988303268,0
50,10.04,0.879859881358686,0.46422237692651247,-0.10170631217470227,0.9944045952157136,-0.01581465548119706,-0.1044480621451836,0
51,10.24,0.8120962746050951,0.5834129176051586,-0.011358184008123587,0.9018264645402411,0.4275949061528993,-0.06222237609528113,0
52,10.44,0.5135518990977164,0.85389902509432,-0.08438543639810658,0.7364377115151328,0.676227953555656,-0.019371419366783674,0
53,10.64,0.42404716950089666,0.9032444032782462,-0.06582967404448005,0.6124302882234259,0.7896960900730972,-0.03618324736441198,0
54,10.84,0.22041335502702958,0.9742963671175116,-0.04652463806789083,0.5116031609144418,0.858711132387665,-0.02962088546694419,0
55,11.04,0.15707220822410828,0.9851118871756689,-0.06987768705956574,0.418991849351035,0.905303416643343,-0.06979651847541693,0
56,11.24,0.14173335633324086,0.8209644740432717,-0.5531084776618135,0.34583897722322515,0.9147148117847649,-0.2090268282655495,0
57,11.44,0.15144288989233967,0.782221825759047,-0.604312887838113,0.30848730921058226,0.8486742922474213,-0.4296365041920353,0
58,11.64,0.128602265261123,0.7928135272984278,-0.5957416959575119,0.2651245777541495,0.8373753957756543,-0.4780286652704525,0
59,11.84,0.1267958284886399,0.7685067542743507,-0.627152442802053,0.24216912344035874,0.8000851257069809,-0.5488332235520844,0
60,12.04,0.21619158108498085,0.6427404786426879,-0.734946173118919,0.22243548396762766,0.7732732593468636,-0.5937768283211845,0
61,12.24,0.18518072655488452,0.6675488368482781,-0.7211703328168155,0.18383253636251357,0.7927659432207588,-0.5811434916127219,0
62,12.44,0.12436360438470428,0.5599343204075684,-0.8191503224281608,0.05932340348525339,0.8718931897330839,-0.4860894974137937,0
63,12.64,0.08427001411808871,0.723665968089994,-0.6849862271235161,-0.013352055795972206,0.9548857230812268,-0.2966731846016153,0
64,12.84,0.10527719940595348,0.8420977427867583,-0.5289500003579601,-0.018576480826897168,0.9932780445576916,-0.11425252977390181,0
65,13.04,0.11974523192374797,0.8684858966754224,-0.48103360247223415,-0.024170955489026758,0.9971155472231825,-0.07194685814238949,0
66,13.24,-0.5160671039695738,0.85142968013555,0.09349996783278848,-0.1557326072811095,0.9872149650433352,-0.033970101912042555,0
67,13.44,-0.5358443032059323,0.818630511627215,0.20667599801310543,-0.28119810664499356,0.9595335922149801,-0.014930178508215325,0
68,13.64,-0.7365287014327896,0.6723252456654558,-0.07419053852489134,-0.4069104101176439,0.9125507239973772,-0.040927915531497494,0
69,13.84,-0.7529361411951817,0.6549470223197064,-0.06427725287113253,-0.4566144820209016,0.8888967888518108,-0.03695556220277825,0
70,14.04,-0.728007928951419,0.6825173234950151,-0.06461082349782175,-0.42431815491576663,0.9040490053594281,-0.05147328741695748,0
71,14.24,-0.5589438115261044,0.824422669588448,-0.08893299401980957,-0.18939351872966526,0.9779946902839759,-0.08750131907317904,0
72,14.44,0.8618454219344945,0.4393163586863796,-0.25342376700122954,0.5815497752489049,0.8016563087085085,-0.1383727632729692,0
73,14.64,0.7346596222313166,-0.6312314119961496,-0.24864059196415728,0.959453510666357,-0.24192609615999208,-0.14463998363796,0
74,14.84,0.1323320321810182,-0.9906908599434929,-0.03193514182314525,0.14898631998359863,-0.9745869060988789,-0.16728251229091393,0
75,15.04,-0.76107081444049,-0.6297599471403716,-0.15547869431097452,-0.4847834811759334,-0.8530240712353299,-0.19322243728937624,0
76,15.24,-0.9804007911018023,-0.09015740934764697,-0.17517400020174545,-0.8536782355578215,-0.47689833407508936,-0.20928795734893377,0
77,15.44,-0.9750634467080436,0.21734856038672282,-0.04484281649996794,-0.9836828643972731,0.03989144093943458,-0.17543287956067938,0
78,15.64,-0.8260888181147743,0.563277923046761,-0.017182723703260853,-0.9267246000223299,0.34540977497323205,-0.1478972720045709,0
79,15.84,-0.8429197623118412,0.5380392848332508,-4.7752208316429325e-05,-0.8891119224663641,0.44150360004675226,-0.12064228310971345,0
80,16.04,-0.8745743528852966,0.4841198182716208,0.027344155352064005,-0.9109356624604386,0.40285182157363986,-0.08891922577577048,0
81,16.24,-0.7891606179011926,0.6112602087207603,0.05988719719990858,-0.9007285920395618,0.4285010943712993,-0.07123774003313184,0
82,16.44,-0.9338755550622332,0.35756840881342716,0.004613098290733287,-0.8715506762303713,0.48759775063636296,-0.05145728652719686,0
83,16.64,-0.9813942854240764,0.19199615834283318,-0.0016527911425591568,-0.9451349799883022,0.32525820998563937,-0.030446123553740254,0
84,16.84,-0.9911226354033601,0.13107405871213723,0.022260115090117667,-0.9701925088136816,0.24227375066085474,0.00547042800303747,0
85,17.04,-0.5979536443190767,0.8013958019447034,0.014704008669099555,-0.8758714084842361,0.48153373130598914,0.03121764588132249,0
86,17.24,-0.4758254693803025,0.8648216930861617,0.16022971589751925,-0.6397195296873871,0.7658313336699961,0.06527857003476066,0
87,17.44,-0.3919424628014845,0.8880149131082222,0.240438391174337,-0.5310714906508696,0.8413427929855797,0.10052550178481066,0
88,17.64,-0.3855639454282152,0.8885950692219916,0.24847383552437197,-0.48752602053461636,0.8657275495634453,0.113288080699399,0
89,17.84,-0.36427701003778806,0.9005876232708594,0.23715858147930005,-0.42764958034737227,0.8981500962381639,0.10218728421918959,0
90,18.04,-0.11603704234409157,0.9928857822990094,0.026706330944551875,-0.36875197939885673,0.924577251634578,0.09580648959895995,0
91,18.24,-0.05585953334412669,0.9983656134937199,0.012075360362518744,-0.27728337532799435,0.9571941230213611,0.0830261441961642,0
92,18.44,0.11896864292413056,0.9914213617914939,-0.05413081732516602,-0.09496859079206177,0.9952575822629487,0.021054968797891854,0
93,18.64,0.3448244782590572,0.9380604334398216,-0.033744664882948985,-0.007117916418778791,0.9997638710022235,-0.020531378533962398,0
94,18.84,0.35107804907297885,0.9361441809673354,-0.019449316186130015,0.07263329867769103,0.9972148750836962,-0.016938029253880875,0
95,19.04,0.5695223508114413,0.8171387073099765,-0.08904282644879484,0.17292747581712492,0.9848187595242448,-0.015102946621293963,0
96,19.240000000000002,0.4994889014232975,0.8643878529349426,-0.05783145384190247,0.14680558406618593,0.9890491758697836,-0.015160745307812404,0
97,19.44,-0.39451050037586416,0.9164191014611885,0.06736093504586574,-0.060152176663065215,0.9978654042657848,0.02542342644446525,0
98,19.64,-0.5432512653263026,0.8159563959142371,0.19772006142023166,-0.30470953651879307,0.9484170813977739,0.0875050745238842,0
99,19.84,-0.5101686972630379,0.8315260073834024,0.21975531706412146,-0.4270044689279983,0.8948259013532686,0.13020671942272669,0
100,20.04,-0.13753554383095223,0.9903491136729642,-0.01710576599566298,-0.44258695725931735,0.8916916179525671,0.09488331643167,0
101,20.240000000000002,-0.09411687114909567,0.9955122963375213,-0.009863184369158418,-0.4135431884411882,0.907196849399069,0.07730399559077919,0
102,20.44,-0.48316496868613124,0.8616365467793973,0.1553514540923445,-0.41939887792639,0.9043114153277497,0.07953266814339674,0
103,20.64,-0.5266737980882468,0.8310703858534414,0.1787084893470726,-0.4880411145254041,0.8679338411966573,0.09223186997137728,0
104,20.84,-0.7126519346415903,0.6998907281511147,0.047751321444555274,-0.5877014105703238,0.8018335746360089,0.1080276381306758,0
105,21.04,-0.7491077809986622,0.6621827190976529,0.018750439346839735,-0.7157299057810355,0.6901768666410534,0.10670798809933575,0
106,21.240000000000002,-0.8779721783764469,0.47730897332062067,0.03661963932825401,-0.8168663255671863,0.567646564187238,0.10250260640972751,0
107,21.44,-0.8503862949410261,0.5241133862975421,0.04634984013130855,-0.8559292677388447,0.5089792900964585,0.09124237437150957,0
108,21.64,-0.8498042481250854,0.5249843849912019,0.04716073985815052,-0.8688240150171114,0.48727716473680394,0.08778266147484909,0
109,21.84,-0.8543668302834502,0.5184942611464,0.03494310332037986,-0.8817654798002404,0.46717585206013595,0.06508734043220622,1
110,22.04,-0.8645374978198672,0.502563704461695,-0.002153560099394081,-0.8978299665486719,0.4402390541546436,0.009535531670323661,1
111,22.240000000000002,-0.8527178153714755,0.513118773442355,-0.0978848899938665,-0.8889901292171849,0.4479131188593428,-0.09523858518536212,1
112,22.44,-0.857917383677532,0.5102082246259435,-0.060541971457337904,-0.8926755093535007,0.44307041371422706,-0.08257749991112498,1
113,22.64,-0.8452918976641791,0.5341065884806707,-0.014551971853697866,-0.881135306800889,0.46967837937675266,-0.05479772855630589,1
114,22.84,-0.8722224845292702,0.4793378165631821,0.09727895504181917,-0.8396461774716704,0.542396392033439,-0.02829223508881242,1
115,23.04,-0.49353050400036286,0.8685525140071136,0.04521252075555039,-0.7399804610400388,0.6725531566589922,-0.010058267594221952,0
116,23.240000000000002,-0.436979923725933,0.8963449890687544,0.07492801099597224,-0.6461410910987151,0.7631773747018675,-0.00787306401140052,0
117,23.44,-0.4750757826960782,0.874938356422782,0.09373298862145672,-0.5539758291901276,0.8325293913738703,-0.002364988744985403,0
118,23.64,-0.09135472248783483,0.9953822598181419,0.029469840829226775,-0.36304750756445725,0.9317631441498412,-0.003735030821568453,0
119,23.84,-0.07448303424813507,0.9967948813690616,0.029193185602632947,-0.2523596791222045,0.967603755127748,-0.007587187622530315,0
120,24.04,-0.11191152111365066,0.9933512102149454,0.027003418423094675,-0.23641229385033286,0.9716501225267283,-0.002294931418985927,0
121,24.240000000000002,-0.0992879626416926,0.9950491947960179,0.004358946003110989,-0.1857082478007771,0.9823906550644019,-0.020519442996849168,0
122,24.44,0.20669458431091364,0.9761525997758264,-0.06635850184742277,-0.05694065570263285,0.9974615416945986,-0.04275785972647633,0
123,24.64,0.2791153067368024,0.9584684503411672,-0.0585907436872267,0.05932411222539219,0.9969771019611526,-0.0501727802081037,0
124,24.84,0.3694316981975997,0.929016663751886,-0.021172124082221074,0.15424071563969005,0.9865796267478861,-0.053576503478279955,0
125,25.04,0.5922537157078716,0.8037924000738629,-0.0561543748404264,0.27007030072051513,0.9616385647493898,-0.048096813360807636,0
126,25.240000000000002,0.6542891999140399,0.7551126478734295,-0.041358577072035135,0.37523120164019497,0.9259432457024589,-0.04278610818538242,0
127,25.44,0.6683553124921622,0.7433901788610424,-0.025927171778873263,0.4132982572334482,0.9099492777881539,-0.0343054284423283,0
128,25.64,0.10372632701851209,0.9925568790367088,0.0638098030098575,0.32594841682890396,0.9452755715925084,-0.01455071534968478,0
129,25.84,-0.10035529047604613,0.9940616684573397,0.042073922770270916,0.14950956256051412,0.9887030899803387,0.010634404839654417,0
130,26.04,-0.15674885872503647,0.9860001862048041,0.05686324025669466,-0.0714500432882062,0.9961203005011708,0.05137351694764951,0
131,26.240000000000002,-0.4767221170621442,0.871520491483482,0.11483926170163981,-0.32594745246793916,0.9403447377722629,0.09751939485904854,0
132,26.44,-0.7554715556504584,0.6530095385557229,0.0533035754740566,-0.5772013251318007,0.8091452339957217,0.11010277275392383,0
133,26.64,-0.8358033838846484,0.5490232122720531,0.002493165347014866,-0.7866009629286771,0.6127270589168022,0.07631825725764586,0
134,26.84,-0.8861431123357832,0.4606984684335661,-0.05007300313360236,-0.8862069839146943,0.46245820945922356,0.027741416052351003,0
135,27.04,-0.900770494623946,0.4331771004037023,-0.03114668041337675,-0.914120371787895,0.4044023790474583,0.029028635915532827,0
136,27.240000000000002,-0.9765755782287496,0.20397066266186734,0.0685281604923288,-0.92962824178375,0.36636289606605854,0.03961767868192506,0
137,27.44,-0.9841678330877158,0.1616276373774445,0.07273364524905204,-0.951116228016712,0.3051363779580469,0.04764149084470162,1
138,27.64,-0.9918458246389408,0.10975059852030339,0.06478168159854064,-0.9746287844483519,0.22021885529693483,0.04002984257320454,1
139,27.84,-0.9849628715734808,0.16636378083892192,0.046596502515768655,-0.9828470182185645,0.17839087330703118,0.04678071290213278,1
140,28.04,-0.9885985857988977,0.15042151226104436,0.006797411677969835,-0.9852966488279474,0.1672391185710751,0.03495126647185654,1
141,28.240000000000002,-0.9704215841703436,0.22590330798748207,0.08514484374660491,-0.9850871740316711,0.16763596862030902,0.03874843974958201,1
142,28.44,-0.9879772544209059,0.1398044709077466,0.06599738374461213,-0.979425957001853,0.1946804762291712,0.05314420877374893,1
143,28.64,-0.991176868899464,0.11600524822422585,-0.06411861619756765,-0.9790334354647602,0.19562449842077217,0.05678545464897752,1
144,28.84,-0.9910412244946476,0.1173258723445758,-0.06381168412394388,-0.9788505236816043,0.19483462982154864,0.06237883704069346,1
145,29.04,-0.9886414979658229,0.13652918664070493,-0.06283127959163162,-0.9763899793424607,0.20796816774319754,0.05841103872699716,1
146,29.240000000000002,-0.9848386834632775,0.16795344611758223,-0.04340976262946999,-0.9689181435748276,0.2421456737628246,0.05062710469163375,1
147,29.44,-0.9680042818214681,0.25028662019878123,-0.018008834631228172,-0.9405138311958287,0.3345360965121309,0.05932397036418523,0
148,29.64,-0.9775451500278656,0.20657106510970236,0.04163982128253468,-0.8993461341873866,0.4332528434744931,0.05889401110019238,0
149,29.84,-0.7881691913099023,0.6154284096927806,-0.00609905016454868,-0.8276640909402402,0.5583645098775306,0.05657938385393528,0
150,30.04,-0.665565692954458,0.7463348257013962,0.0025761031266330345,-0.7216535059544548,0.6901001103675948,0.054571558657208884,0
151,30.240000000000002,-0.2268086512096001,0.9718851690998433,0.06322225731695445,-0.5886046043172786,0.8062466915541818,0.05925278165990419,0
152,30.44,-0.15147559064502564,0.984426514875656,0.08921649090000501,-0.4407643351845866,0.8961774750918567,0.050918895974617434,0
153,30.64,-0.13677969218480812,0.9808172509364932,0.1388842542234702,-0.28642131913363056,0.9570836285236708,0.04420131171939593,0
154,30.84,0.031271340886163845,0.9995109319843272,9.110618695352363e-06,-0.158383272615291,0.9865840371874982,0.039581264791408756,0
155,31.04,0.05534583181641656,0.9983612149835156,-0.014550715349684783,-0.0821731613206701,0.9961387262947842,0.03090646428131455,0
156,31.240000000000002,-0.14785466174478978,0.9864908449174628,0.07053234644022857,-0.07418359748989406,0.9963849993303401,0.04139718556780719,0
157,31.44,-0.14348419148826586,0.98866876750395,0.04411751302124323,-0.07483851970906408,0.9965300734596475,0.03642813004075539,0
158,31.64,-0.11651943515810614,0.9921415056517683,0.045590064635599496,-0.07053319562169241,0.9968360292259921,0.03664695283852825,0
159,31.84,0.3725695161272467,0.9278001495545389,-0.019463764776752223,0.02803019027053333,0.9992323638503724,0.02736770847905996,0
160,32.04,0.40800667208052704,0.9124740006092803,-0.030360397722502507,0.15505222752518316,0.9878451883337557,0.01098592851450393,1
161,32.24,0.6083230623832944,0.7933151564664515,-0.024374459854942715,0.24648431379110125,0.9691389238556998,0.0039024764888761013,1
162,32.44,0.6101271248721247,0.791291222903678,-0.04003863198058842,0.28734794594988244,0.9577781545036426,-0.009600245516674781,1
163,32.64,0.591844947209889,0.8052583872683832,-0.03575595329517217,0.3038196093405696,0.9526449571361855,-0.012697662113123795,1
164,32.84,0.27370496819248563,0.9617377950001296,0.012083213771147553,0.28513484631914643,0.9583550404905697,-0.015929086002519053,1
165,33.04,0.2865080697583332,0.9579739306102294,0.014109366907889455,0.2868207157811957,0.9578879176106997,-0.013587284283489317,1
166,33.24,0.30958773049680205,0.9507292288100331,0.01641251388786263,0.3035844079155185,0.9527594058954418,-0.0092747910137557,1
167,33.44,0.31130323898692636,0.9501076725696037,0.01963934623706152,0.3018125398493586,0.9533555539690223,-0.0047305925736653405,1
168,33.64,0.07597511751897823,0.9961330288409053,0.044122220821509454,0.27468500361543197,0.9615339707876485,-0.0007561812796535219,1
169,33.84,0.06648983882755316,0.9965223454070843,0.05022266855763497,0.2321797709470239,0.9726616174301135,0.004683155050090846,1
170,33.96,-0.1424869834611614,0.9897945842950955,-0.0020348081575592264,0.17551396702201205,0.9844002967885375,0.01228426077692107,1
