,timeStamp,x_gaze,y_gaze,z_gaze,x_head,y_head,z_head,fixations_head
0,0.04,-0.9991266924521612,0.006255807958580908,0.04131243513023377,-0.9982153001142695,-0.05326186694363494,0.027007186959355663,1
1,0.24000000000000002,-0.9992550207348084,0.0052118338155702874,0.03823925109827179,-0.9985362225559467,-0.04874048733455217,0.02344732688584238,1
2,0.44,-0.9991252441065641,-0.0051766287142333695,0.04149637459048008,-0.9979243040847022,-0.05764144855882068,0.028714921645440608,1
3,0.6400000000000001,-0.9254450519859134,-0.29172834550182675,0.24175613370824156,-0.9904179091759928,-0.10629679544383015,0.08816664030021687,1
4,0.8400000000000001,-0.9170268132552485,-0.30737186738932654,0.2541345291543872,-0.9870821590321674,-0.12961849336024486,0.09416930231989222,1
5,1.04,-0.9159499835276195,-0.30668640308082884,0.2588031642795302,-0.9853204077192863,-0.13904458554742166,0.09904694524237186,1
6,1.2400000000000002,-0.9029429462976706,-0.3341694156700783,0.27023108141366786,-0.9794449929048609,-0.1689113156637591,0.1102563980653049,1
7,1.4400000000000002,-0.979374719236486,-0.1281256777170547,0.15623370324612976,-0.9803065002374383,-0.1660721205045048,0.10686073358985947,1
8,1.6400000000000001,-0.9823400713165893,-0.10727948309224265,0.15329415120342865,-0.9851327217217907,-0.13680228032894687,0.10391658524902148,1
9,1.84,-0.9861255224244767,0.165950981507011,-0.0040897139157619776,-0.9950564300312933,-0.08221166400247518,0.05571304475006096,1
10,2.04,-0.9931447525535805,0.056035029028745915,0.1025844822428556,-0.999537866423051,0.0012924826811136732,0.03037076019749746,1
11,2.24,-0.9920949635481309,0.021831427558717264,0.12357577462100638,-0.9992310483453621,0.008763550973331676,0.03821664816498661,1
12,2.4400000000000004,-0.9923654469233978,0.0021754703457447944,0.12331296396283624,-0.9988326022330628,-0.002494655693533552,0.048241158871847836,1
13,2.64,-0.9929223808591794,0.009116890881723363,0.11841464389842196,-0.9986542055086974,0.006389644169824067,0.051467953788503724,1
14,2.8400000000000003,-0.9435328383820498,0.3263733387174649,-0.056799882650654984,-0.9973139819618417,0.053352655940987065,0.05018282064071645,1
15,3.04,-0.9215493962295823,0.38430950360754174,-0.05525319670225037,-0.9930371188168614,0.10474671783242585,0.05390181588073919,1
16,3.24,-0.9688457947544471,0.2467247723921768,0.02155719542641526,-0.9917065024343172,0.11661806332840641,0.05402259096920036,1
17,3.4400000000000004,-0.9681886614577583,0.24924037917579697,0.022134796428681693,-0.9883628529732205,0.14165656462192378,0.055428228928510584,1
18,3.64,-0.902009755128687,0.4285651203628813,-0.05206091874943916,-0.9818573265010856,0.18055154233167642,0.05794247973459249,0
19,3.8400000000000003,-0.7393447943745532,0.6713606591099417,0.05142120604103311,-0.9446835606306961,0.3142081743487151,0.09405420483188125,0
20,4.04,-0.7117234750802366,0.7009054273979554,0.046704141827053354,-0.9001398583641482,0.42310746160655033,0.10357756184151651,0
21,4.24,-0.6809775958460154,0.7301444955445267,0.05620079698553969,-0.8699473568176379,0.4788777747502673,0.11776108532209636,0
22,4.44,-0.4586370218030842,0.867309354677686,0.1934594673831528,-0.7860452841489131,0.5968414464167676,0.16097546119329925,0
23,4.640000000000001,-0.43661148000275646,0.8720981122387034,0.22094184338755957,-0.664075357848793,0.7153848990894448,0.21732088084853343,0
24,4.840000000000001,-0.3811031692273356,0.8984189689605305,0.21818279175218747,-0.5579091143053079,0.7941297985540111,0.2410296314224303,0
25,5.04,-0.4179012885237818,0.8888478306660943,0.18790435591103588,-0.45567964404091427,0.8607820962192545,0.2267382738646742,0
26,5.24,-0.33975625005662063,0.9399828398082392,-0.03159036899913441,-0.3414612267062469,0.9304904310786154,0.13263403909780347,0
27,5.44,-0.16593249809316912,0.9861179127744865,-0.0061537128508700936,-0.3364133034692491,0.9342489220607587,0.11834289533900079,0
28,5.640000000000001,-0.16028090356484198,0.9870245379360616,-0.009622549794220682,-0.32814463203902616,0.938058155176705,0.11121150107092999,0
29,5.840000000000001,-0.1543686205114449,0.9876010585228618,-0.028539064559244362,-0.3210635077231927,0.9434913659039299,0.08211130539222963,0
30,6.04,0.024456152064993186,0.8215802663091601,-0.5695680491719524,-0.29169155666001834,0.925437851903303,-0.241828075371442,0
31,6.24,0.1034614165493205,0.8465011177666991,-0.5222371041063028,-0.16428261291865282,0.9224503977361711,-0.34942307709852244,0
32,6.44,0.26730060829394586,0.8025201612136901,-0.5333964526046641,-0.02427793976284126,0.9183754260562637,-0.3949647559679828,0
33,6.640000000000001,0.2486348027532907,0.8219457580590278,-0.5124313667883753,0.10377004072894208,0.8948113542218504,-0.43421701832467596,0
34,6.840000000000001,0.19215946767366773,0.4995671238124962,-0.8446936887352023,0.12919329375674715,0.8236101543778754,-0.5522457844600855,0
35,7.04,0.20507747390884248,0.4757938207922543,-0.8553148366485155,0.14078971592183398,0.7785947122632554,-0.6115296639790646,0
36,7.24,0.2501118357006733,0.4240401936170819,-0.8704217275778604,0.20985516386848915,0.7130474471910592,-0.6689724570204991,0
37,7.44,0.1600760280897025,0.7680408595115508,-0.6200716921064716,0.21269811275585443,0.7373240934861508,-0.6411807030743549,0
38,7.640000000000001,-0.2312831893224026,0.9478288274154762,-0.21938231527874177,-0.008569807685576858,0.9550386168759164,-0.29635755207513875,0
39,7.840000000000001,-0.4630290327765875,0.8759838017117486,0.13511659389064684,-0.24832246035380046,0.966937736357339,0.05802904179788232,0
40,8.04,-0.4906903914680313,0.850432875924624,0.1897020381216909,-0.3843859196290876,0.9060754321403583,0.17684675869962635,0
41,8.24,-0.5167242240719075,0.8259899877032035,0.2252479000375961,-0.4348375724461442,0.875263817461476,0.21172986428916668,0
42,8.44,-0.5128871268691199,0.8256589075291298,0.23501949602052902,-0.4556526205876696,0.8595826069608774,0.23129727876032474,0
43,8.639999999999999,-0.5191799062603291,0.8098608175200014,0.27308914511813054,-0.4774671446716945,0.8395914088457321,0.2590586650770399,0
44,8.84,-0.7985809836046025,0.5604481687496641,0.21946813611605165,-0.6673524976764706,0.6997593556690288,0.25490682218929006,0
45,9.04,-0.9886380426731884,0.13489080424994515,0.0663271551337023,-0.9201088738037189,0.3320232014472403,0.20775046100641434,0
46,9.24,-0.8816102533203908,-0.47194079095931907,0.005937261072999363,-0.977756205767055,-0.10930917200464783,0.17900923719090917,0
47,9.44,-0.6742637913004111,-0.736806568962469,0.049843953243598194,-0.8720452661282221,-0.4672745703285304,0.14557310791367334,0
48,9.64,-0.6341447217618048,-0.7683325989234837,0.08674957805735102,-0.7511396420418652,-0.6452247929170267,0.13955000809171944,0
49,9.84,-0.3300650209458487,-0.9434927594641717,-0.02963941272527727,-0.5795715217593175,-0.803468511262373,0.13614405082637765,0
50,10.04,-0.3207294422694768,-0.9468401086480086,-0.025028653917820696,-0.42179980861915334,-0.8959142983765138,0.13936459885266692,0
51,10.24,-0.28680266239264157,-0.9578188648799822,0.01809018862574451,-0.3331725724255265,-0.9321057263877126,0.1420385575067287,0
52,10.44,-0.48066090745811424,-0.8768908542405173,0.005246121508155211,-0.5654232383966239,-0.8149337168697031,0.12719905105780285,0
53,10.64,-0.9389847306688343,0.34395861019063706,-0.00038735836450079047,-0.988108511097787,-0.10859051862345745,0.1088561875191448,0
54,10.84,-0.8862024753053992,0.46289872762471934,0.019233843245681777,-0.9017515364484173,0.4202229750335304,0.10127594861016063,0
55,11.04,-0.7966785896520348,0.6038064614374427,0.026851106428587096,-0.7698507114765594,0.627505388535844,0.11647690499629067,0
56,11.24,-0.7875325866079079,0.61528505703375,0.03488156564194663,-0.7176480429349672,0.6861705138411834,0.11895928886193734,0
57,11.44,-0.45344517900624554,0.8851298716859907,0.10455897802262273,-0.6443624076541361,0.7529068934809177,0.13389659200696327,1
58,11.64,-0.7807748701749964,0.6241143498611335,0.029527620978201528,-0.643244102766486,0.7542948829714079,0.13143916379560833,1
59,11.84,-0.7773968408200348,0.6282876531328995,0.030145925160510678,-0.6411726957417498,0.755982727506061,0.13186239019430246,1
60,12.04,-0.4650861870737869,0.8643742418008279,0.19118579629357932,-0.6070606558042824,0.778999432184757,0.15696255868932896,1
61,12.24,-0.44843658313398904,0.87383575695162,0.18792472104516428,-0.5844959559947887,0.798145747364478,0.14604055392163187,1
62,12.44,-0.4314264850545515,0.8809746491512331,0.19430608726011903,-0.5611662269260691,0.8143136882163622,0.14827569909133867,1
63,12.64,-0.4247287061673181,0.8844342977511572,0.193342957251753,-0.5454044809249954,0.8255769694352364,0.14476401391598387,1
64,12.84,-0.42489364802660023,0.8843121216241827,0.1935392968241441,-0.5392119985478213,0.8291836413022698,0.14732586201605488,1
65,13.04,-0.41372210501696605,0.8914532172767571,0.1847841476622106,-0.5250612381285621,0.838887684958066,0.14345085653490533,1
66,13.24,-0.4036718291889206,0.8974853575881473,0.17767691812429348,-0.5103759884519499,0.8485121093943521,0.13979824971308677,1
67,13.44,-0.4102708729542616,0.8935646048404332,0.18226384112519126,-0.5128382715855135,0.8474498162794093,0.13720683687476598,1
68,13.64,-0.7735747140763213,0.6328968431280108,-0.0319960575749006,-0.5866578215250244,0.8018585821299191,0.11338172122572734,1
69,13.84,-0.7874305784324862,0.6160782790598436,-0.02001594914415587,-0.6487867831571456,0.7556157383099527,0.09011418322832626,1
70,14.04,-0.7847880107952171,0.6194641172703133,-0.019286926312869192,-0.6720937425548068,0.7365873346244324,0.07569081641485743,0
71,14.24,-0.8045615591341353,0.5936210837349729,-0.01716701805690135,-0.7165698420060326,0.693964606221288,0.07029073082265254,1
72,14.44,-0.9147964375198028,0.4038481643269251,-0.0073578577623173045,-0.7930052656406541,0.6072518944276641,0.048864970891313364,1
73,14.64,-0.8607143494912963,0.5067232934886327,-0.04901339016848453,-0.8150308159203542,0.5770651004502331,0.05215974446413873,1
74,14.84,-0.7306610138086331,0.6827025334644494,0.00719261436218969,-0.8065622446099163,0.5879466897528253,0.06144945547772362,1
75,15.04,-0.7134978532656283,0.7006563306547167,0.0012327606450307953,-0.785563711837826,0.615229007424199,0.066203648444873,1
76,15.24,-0.720024751078259,0.6938784776269548,-0.009849676176951115,-0.7835782242755376,0.6185227697261064,0.05860673827762257,1
77,15.44,-0.7290107407671197,0.6845021840448936,-0.0003160442156895314,-0.7857584641649282,0.6147326251261237,0.06846484936606617,1
78,15.64,-0.7379520741083756,0.6748521446326153,0.0011485660216201657,-0.7889042348325976,0.610190501034798,0.07278503081057108,1
79,15.84,-0.7457178462083491,0.6661898349049583,0.009797842399495278,-0.7926572019809236,0.6037838550477415,0.0844962515823151,1
80,16.04,-0.74552597998786,0.6664337850877752,0.0075513744922645915,-0.7908093600274783,0.6059527453624783,0.08626602158791229,1
81,16.24,-0.756320165102551,0.654042005723804,0.014452079713108006,-0.7986318231527045,0.5937443517545106,0.09825912582250815,1
82,16.44,-0.7790279663144978,0.6266368601775005,0.021016021668748535,-0.8181470271419137,0.5651281178198365,0.10613977778504151,1
83,16.64,-0.7860686685310625,0.6177100920672329,0.023028037521540652,-0.8233555655868102,0.5563028807636676,0.11230635543578388,0
84,16.84,-0.7950889976870238,0.6061052596604611,0.021677176222205028,-0.8312529078462959,0.5437252815457655,0.11567809388581714,0
85,17.04,-0.7940979322390871,0.6074477311209017,0.020389408271815148,-0.831196219848736,0.5433571696444385,0.11779571429027755,0
86,17.24,-0.9164680739898755,0.3995974091352939,0.020203464298203216,-0.8754048453564187,0.4685630286586202,0.11880675444084057,0
87,17.44,-0.9986080670169915,0.04305550102777047,-0.030465592392654034,-0.9511728617880945,0.28770061771717004,0.11179687635620672,0
88,17.64,-0.9998795265955567,0.003033793960210907,-0.01522262754102196,-0.9869037845514674,0.1224019693708869,0.10506511282113959,1
89,17.84,-0.9979560513433614,-0.06381539884899805,-0.0033636969110991855,-0.9944497048608665,0.027907284256579193,0.10144440836023785,1
90,18.04,-0.9995880744001142,0.02685789726829933,0.010116069958090727,-0.9950600110767296,0.008953940576974503,0.09887062912777868,1
91,18.24,-0.999256506351541,0.0367024754529897,0.011805202655426998,-0.9948711852590104,0.017073047517580556,0.09969872511619621,1
92,18.44,-0.9990878978869695,0.040950027947393226,0.012102376085073044,-0.9946244997482068,0.026142300123105398,0.10019323652274696,1
93,18.64,-0.9988926221136383,0.04459834543492581,0.014983893733181578,-0.9941629051634366,0.034939860282642496,0.10207509079312588,1
94,18.84,-0.9612094760700374,-0.05444584521882897,0.27039229473409876,-0.9917732719517408,0.013935786737264156,0.12724610363446212,1
95,19.04,-0.8505376911881555,0.5259086757181826,-0.0023876081482273356,-0.982968004067972,0.13542156553035015,0.12423728332483831,1
96,19.240000000000002,-0.8426743232285984,0.5347677319292469,0.06263751159228138,-0.9479740563474528,0.2541169873021739,0.19175438784190513,0
97,19.44,-0.7574929150823676,0.05545613547259345,0.6504837435620219,-0.8757216134945283,0.19777809998624385,0.4404491784807539,0
98,19.64,-0.5379344673415726,0.04142266558201736,0.8419683317215791,-0.724348523174121,0.17078358979168187,0.667946242173228,0
99,19.84,-0.3767666171842229,0.024637847174152627,0.9259805033920423,-0.6063370939581011,0.135417600452152,0.7835926250152094,1
100,20.04,-0.26762690786182575,0.10632373258651849,0.9576382939696955,-0.5633867022020277,0.10378620018126447,0.8196486127810245,1
101,20.240000000000002,-0.2764057974470247,0.119592500217889,0.9535709040387658,-0.5641178999335679,0.10622624736018305,0.8188326931347542,1
102,20.44,-0.2889769332684261,0.13751092939074325,0.9474086110738439,-0.5697371037966694,0.1212935613409378,0.812826860121278,1
103,20.64,-0.2961751553941874,0.1505100391211273,0.9432004057733362,-0.5764765190615017,0.13095337579877891,0.8065519427399813,1
104,20.84,-0.6565702529490052,0.08232388859292844,0.749758814759399,-0.6190704832655268,0.14812016498123406,0.7712406585984165,1
105,21.04,-0.9323599117846241,0.19725525865960705,0.30297748732884294,-0.7241580494218683,0.17476956019569512,0.6671212185851372,0
106,21.240000000000002,-0.9511391573716108,0.17656593726360162,0.2532958213485724,-0.8537723455851646,0.16405584946766155,0.49412393199424226,0
107,21.44,-0.9964779083613636,-0.07441212928705561,-0.03866022714273507,-0.9394161120327277,0.0822472088229566,0.3327653303668318,0
108,21.64,-0.996360367585469,-0.07995998765799678,-0.02953672762312023,-0.9669112792864965,-0.02587837541274044,0.2537969418148065,0
109,21.84,-0.8329838933141587,-0.5532971401405387,0.00032892474490005074,-0.953765863366673,-0.22429646162110597,0.20005443054498143,0
110,22.04,-0.7814010711878482,-0.6240268997118198,-0.0016716406724402457,-0.8698035853063598,-0.4615166621958984,0.17448235871789164,0
111,22.240000000000002,-0.7781928950352067,-0.6280205566846153,-0.0024491831841604236,-0.6606824738613664,-0.7277791478339521,0.1839461353508454,0
112,22.44,-0.2487192991354516,-0.9685713879975604,0.0028594737364922734,-0.4430304283583796,-0.8770394615144864,0.185811255027704,0
113,22.64,-0.2634922092472101,-0.9643626670897999,-0.02401045583641634,-0.22598629988164687,-0.9560307622470273,0.1869100690256415,0
114,22.84,0.2605189833705742,-0.9647921898445628,-0.03613709615472239,0.07873354672307736,-0.9838689048920407,0.16063314292804454,0
115,23.04,0.544339291891862,-0.8376059022570228,-0.045946575572781194,0.3629949627206497,-0.918232874816746,0.15837627551249076,0
116,23.240000000000002,0.6524304123591942,-0.7550009800971272,-0.06563594351565029,0.5459571018943212,-0.8265196076624107,0.13709916498917288,0
117,23.44,0.8789347311975693,-0.4722394007359131,-0.06681082761979841,0.699104526548961,-0.7072499983255818,0.10512041108755972,0
118,23.64,0.8795806871272114,-0.4707292675475335,-0.06893309442484989,0.8069588777535179,-0.5860997057452523,0.07283202963059551,0
119,23.84,0.802719754825461,-0.48737613268884306,-0.3436648083499665,0.8340819887521342,-0.5507928632707714,-0.030568902650738805,0
120,24.04,0.7983226284066667,-0.4813217404416177,-0.36195353728361757,0.8441849889375697,-0.49401946847685246,-0.20807803636694439,0
121,24.240000000000002,0.7033141022139233,-0.2810706451448386,-0.6529537242905408,0.8363764038872794,-0.4097595100896524,-0.36410390675145293,0
122,24.44,0.6751089400562394,-0.27431858370987694,-0.684819124796868,0.8107979499173235,-0.3815741835195468,-0.4438556374332278,0
123,24.64,0.6842732724173568,-0.30786893400581034,-0.6610497773461297,0.8068852385180412,-0.4035932746699313,-0.4313336069713155,0
124,24.84,0.7975126618653012,-0.56115214767866,-0.22154417464728984,0.8121907306030149,-0.42858492942020127,-0.39580446611480025,0
125,25.04,0.802656980516836,-0.5591894050603711,-0.2074824833469665,0.821710357869082,-0.4401869511665723,-0.36197725866875013,0
126,25.240000000000002,0.8535541917928221,-0.5078535218233846,0.11631870891858913,0.8613253005031671,-0.463162445514993,-0.20880439597312092,0
127,25.44,0.8605365249607616,-0.47881826480962425,0.17381012195254222,0.8981848314767915,-0.4250326616438384,-0.11229979982601138,0
128,25.64,0.9886078435414319,0.1505131689969107,0.0005636016922161785,0.9583759640692093,-0.28321223123482236,-0.0361433752354026,0
129,25.84,0.9870575694005428,0.16024298300372097,0.006288170414505321,0.9899149755639268,-0.14166086195601077,0.0007357609330876553,0
130,26.04,0.8553993073769675,0.26324167502882984,0.44608950387452595,0.9903627187844344,-0.09820329109810749,0.09766165501057056,1
131,26.240000000000002,0.9175136842519398,0.20620566550916294,0.34007037907226656,0.9852309826273695,-0.07670333256773555,0.15308987440099273,1
132,26.44,0.930244170996887,0.19433277798961,0.3112564115406396,0.980962556021446,-0.05660556963887125,0.18576402549936927,1
133,26.64,0.920675275744115,0.1909468489254421,0.3404355115421164,0.9793289765252373,-0.04736553409686639,0.19665010022308654,1
134,26.84,0.9146252520083471,0.1869299224629643,0.3584938667211172,0.9786473015004277,-0.0434561825480554,0.20090052131411096,1
135,27.04,0.913355405943722,0.17464466059838296,0.3678058522615626,0.977577587696857,-0.05080804009366881,0.20435411200813716,1
136,27.240000000000002,0.9120068735690506,0.16552006673561043,0.37529531048315107,0.9750427196508068,-0.062141158030308785,0.21314354631236307,1
137,27.44,0.9161582120587659,0.1524798891238517,0.37068047411492155,0.9729581129231504,-0.07282047523154282,0.2192023925144847,1
138,27.64,0.9198006638804979,0.15110721327586926,0.3621233889449789,0.9719781928573921,-0.07329336642063804,0.22335280398599935,1
139,27.84,0.9218492141333072,0.15630184231368274,0.35463186615299075,0.9712670200077047,-0.06868089118501791,0.22786687128976238,1
140,28.04,0.9237962289614856,0.15086780996047627,0.3519082711080662,0.970047245875626,-0.07653964342814687,0.23054288918334748,1
141,28.240000000000002,0.9262731683681928,0.13740440356813555,0.35091031253189797,0.9688208746828536,-0.09111164049820299,0.23040134926791808,1
142,28.44,0.9269476462049088,0.1309153611160673,0.3516094842563681,0.9676011831949412,-0.0961431763055728,0.2334618596893842,1
143,28.64,0.9750357104991568,0.2189126576734539,0.037183485067299106,0.9744723019296665,-0.08831973676459101,0.20640580628880206,1
144,28.84,0.9801804448414561,0.19775142049560807,-0.01186049081509576,0.979534537568987,-0.0943731871180611,0.17778017679901834,1
145,29.04,0.9850780311110722,0.16959979759868343,-0.02927765832199651,0.9798833669990973,-0.11464828081254176,0.16335347803227582,1
146,29.240000000000002,0.990693065467309,0.1315493064421088,-0.03495754581755915,0.9771843799949315,-0.14709907667704827,0.15320753615498628,1
147,29.44,0.9734820325355122,0.09307035941761417,0.2089752151055336,0.9722829869782179,-0.16885637513787707,0.1617198744991199,1
148,29.64,0.9696489673525618,0.049213412986276836,0.23949722356293182,0.9582848393372978,-0.23526648183052526,0.1622955613175439,0
149,29.84,0.765588437352192,-0.6097226680103482,-0.20521357827144854,0.8249412948658521,-0.5525740953475964,0.11888536148675645,0
150,30.04,0.7621956390133021,-0.631061112863039,-0.14429026197622397,0.5808938542701509,-0.8102098624176537,0.07824518459519313,0
151,30.240000000000002,-0.1366153102141166,-0.9905970710809575,-0.007328013436725525,0.06952556338837063,-0.9934376264993312,0.09081783024772665,0
152,30.44,-0.7320620695819932,-0.6774187023784297,0.07203490783817225,-0.5164266133688518,-0.847853069166517,0.12020285399812933,0
153,30.64,-0.887040697224535,-0.4616813610260794,0.003020322585069832,-0.8263445240335848,-0.5591750592259396,0.06691771618469344,0
154,30.84,-0.911887897727695,-0.4093571896371839,0.029785118265869274,-0.900474107415882,-0.4287970964146266,0.07265969983392828,0
155,31.04,-0.9928148984953169,0.11664089154141218,0.026711041652431874,-0.9329456072421833,-0.34877168083867177,0.08927938492441238,0
156,31.240000000000002,-0.9821120911136791,0.18221924924981042,0.04745509130907301,-0.9818387465982205,-0.16631646519933777,0.09127710053476214,0
157,31.44,-0.9323803038874847,0.357876794940774,0.05090352213355375,-0.9972882413710028,0.006018707095335735,0.07334806601426526,0
158,31.64,-0.8894130122591696,0.45443084298326747,0.049367019047002816,-0.983761256336201,0.16632294414955556,0.06745716256442609,1
159,31.84,-0.9518223128812974,0.30638494594063825,-0.012749494195858864,-0.9696859657229009,0.23849601894992287,0.05318624657826311,1
160,32.04,-0.9578879999190465,0.28601033450513696,-0.025468964787534295,-0.971236583887113,0.23566798675122227,0.03406021344497209,1
161,32.24,-0.9571455315026449,0.28305873681380306,-0.06123873804948884,-0.968719486822668,0.2481151195527767,-0.004630691021682463,1
162,32.44,-0.9500082819935722,0.26385048666156785,-0.1669346723484231,-0.9700531910970261,0.24272529810365578,-0.009013107287069172,1
163,32.64,-0.9468250938872077,0.27511101990216374,-0.16684174631629808,-0.9661048723683214,0.2564069149791794,-0.029947780168976045,1
164,32.84,-0.9456561569584762,0.288441690879809,-0.15011936506967638,-0.9608306890615332,0.27666634583243566,-0.016128237388709055,1
165,33.04,-0.9560339537213275,0.2866347887794925,-0.06196432193853643,-0.9523947826662406,0.3022400028411505,0.03993943706045912,1
166,33.24,-0.9810615454141814,0.18671694844219203,-0.05152693736264424,-0.977231110090737,0.2083193530976675,0.040279083849994915,1
167,33.44,-0.9865382391235462,0.16071348602609095,-0.030223801156617356,-0.982135263993648,0.17890747129764517,0.05833043745772532,1
168,33.64,-0.9863502311205621,0.161588923987052,-0.03165819345952102,-0.983345507709967,0.17283056109331302,0.056224635337173104,1
169,33.84,-0.9871859695361028,0.15734185358322927,-0.026597042355471154,-0.9849918367022297,0.1618500373717218,0.05996371430073851,1
170,33.96,-0.9607932123294982,0.2765437690241417,0.019998673843186283,-0.9876715151300705,0.14304546364079782,0.06358438119900331,1
