,timeStamp,x_gaze,y_gaze,z_gaze,x_head,y_head,z_head,fixations_head
0,0.03342245989304812,-0.9984751243724148,0.05443280268594589,-0.009192170649203819,-0.9961046682704331,0.07228755102640023,0.05049752287445203,0
1,0.23342245989304813,-0.9980153956791752,0.05891929666650526,-0.022221306614692692,-0.9954464983371009,0.08320608047871693,0.04650824786823821,0
2,0.4334224598930482,-0.9968258718143829,-0.03700315471539306,0.07049076409434821,-0.9976356028029685,0.049622673024307326,0.047547811115559044,0
3,0.6334224598930482,-0.9950936125901626,-0.06022284879927687,0.07849783859928323,-0.9985064291600424,0.00467424029211101,0.05443401880950401,0
4,0.8334224598930482,-0.9556729048717806,-0.2771577535684084,0.0993623597286529,-0.9971247939528013,-0.03240414706165968,0.06849902581635708,0
5,1.0334224598930482,-0.9534623883052378,-0.29100844089430883,0.07888955200491354,-0.9778224130633721,-0.17481953905286213,0.11533194386755598,0
6,1.2334224598930483,-0.9381227851136722,-0.3330329818010871,0.09494563224942873,-0.9401421797438112,-0.3036769687370528,0.15463822465752178,1
7,1.4334224598930483,-0.9784024595605428,-0.19692829917492957,0.06283209458509358,-0.928866759911005,-0.3348468822109318,0.1583796319166376,1
8,1.6334224598930482,-0.9780319725498078,-0.20077327216977447,0.056067404546435266,-0.9272891096322796,-0.34259057395071085,0.15088606893115492,1
9,1.8334224598930482,-0.9701903904744055,-0.23673085870514662,0.05185659811291533,-0.9161070350489613,-0.37181119153076564,0.15001445992394793,1
10,2.033422459893048,-0.9592403401502045,-0.2781413881244446,0.04995335865312052,-0.8987225350336009,-0.4123470497536644,0.14922370985278238,1
11,2.233422459893048,-0.9514946642192122,-0.302785915463968,0.05457649090052753,-0.8934611967296546,-0.42209146174030676,0.15351184926364644,1
12,2.4334224598930483,-0.9479353824821305,-0.315317629453858,0.04464642420235637,-0.8940961283715761,-0.4241868058538702,0.14372775295832607,1
13,2.633422459893048,-0.9472132389729108,-0.3185330777520918,0.03638348928054636,-0.8977264274584951,-0.4195697632697652,0.1343446135591642,1
14,2.833422459893048,-0.9654230825655152,-0.2594448176331422,0.02542947606625728,-0.9249922606495444,-0.3593892066704301,0.12340468332783963,1
15,3.033422459893048,-0.9843634883727637,-0.17515059041866474,0.018729480361116886,-0.955719877183489,-0.27121711628145345,0.11419628799724434,1
16,3.233422459893048,-0.9655887886594898,-0.2560864917610356,0.045365184366693324,-0.9662632508691859,-0.23427748216725663,0.10700182881186525,0
17,3.4334224598930483,-0.9653846891553175,-0.25653619542622574,0.04713366504664082,-0.970254183666229,-0.21987473160926196,0.10130114253025475,0
18,3.633422459893048,-0.980125845074206,-0.1826436721254928,0.07742491104347186,-0.9799813781422873,-0.1625129878352268,0.11500446634461967,0
19,3.833422459893048,-0.994299165040007,-0.044064977015269825,0.09709504725467975,-0.9914385306893407,-0.028451676888239973,0.1274368155079561,0
20,4.033422459893048,-0.9802993295036229,0.17968391675467482,0.08201777023576538,-0.9878804789764183,0.08380000593464712,0.13065113188440375,1
21,4.233422459893048,-0.9812309757837014,0.17732188236565372,0.07578075083335245,-0.9833251840567083,0.12835228693239384,0.12883040339557014,1
22,4.433422459893048,-0.9813672414732615,0.17643839662005797,0.0760777862539667,-0.9783447098473919,0.1585209645891947,0.13308919001682218,1
23,4.6334224598930485,-0.9862012357067054,0.14686575007006486,0.07640401918043484,-0.9781076359319959,0.15277736689681912,0.14129589058283792,1
24,4.833422459893049,-0.9918285752223284,0.1042929672921635,0.07347825764021952,-0.9818415239500111,0.12321191490245063,0.14424300979108448,1
25,5.033422459893048,-0.9951175895223101,0.07363388299680447,0.06571936014691986,-0.9854318571729026,0.09728302955447161,0.13949934419010085,1
26,5.233422459893048,-0.9948897335229061,0.08046904622436049,0.06098484016919985,-0.9858703804728088,0.09696329008168797,0.13659324025343922,1
27,5.433422459893048,-0.9928984157841596,0.10168843952091608,0.061742993133693205,-0.9845039759765948,0.10920793073013327,0.1372062285463729,1
28,5.6334224598930485,-0.9914120296218196,0.1168446968891085,0.05873248104785887,-0.9836234940089801,0.11809403800159803,0.13615660183054873,1
29,5.833422459893049,-0.9914278218059991,0.11165228356211236,0.06785751044930804,-0.9831708539847457,0.1084786807087155,0.14699471999566113,1
30,6.033422459893048,-0.9926251394722361,0.08935884045054752,0.08191660467241908,-0.9830777799847853,0.0824449563599554,0.16358761466257504,1
31,6.233422459893048,-0.9925846541392205,0.03272457994888486,0.1170675285230411,-0.9791109903305251,0.023084803042137194,0.20201178302882317,1
32,6.433422459893048,-0.9893351592949431,-0.010509275157134707,0.14527731315839076,-0.9717907748592624,-0.024504601068266928,0.23456814452290797,0
33,6.6334224598930485,-0.9962999015136,0.07788546950851682,0.03633675664432392,-0.969557502321412,-0.03886068529093918,0.24176041204255153,0
34,6.833422459893049,-0.9961036703631189,0.08434445818661594,0.025758304725458314,-0.9736357141572144,-0.03215628139231825,0.22583062167161824,0
35,7.033422459893048,-0.9903835919282806,0.13637731843548023,0.023271610506892675,-0.9806685111384336,0.01695171420532623,0.19494078754080518,0
36,7.233422459893048,-0.9595455965201352,0.26572654208330043,0.09306800218802323,-0.974461082547848,0.14255299510949215,0.17350574107212968,0
37,7.433422459893048,-0.9335875139805416,0.3154603644515935,0.16999738880259185,-0.9432492774001304,0.28949580286620286,0.1627051960048746,0
38,7.6334224598930485,-0.940169098010962,0.2737055538395474,0.20289735568173634,-0.9164058177656655,0.3708145132882156,0.15065514893313828,0
39,7.833422459893049,-0.9750720233896661,0.2170688306139834,0.045996434412465925,-0.9004979395197317,0.40859720550645445,0.1488347559309792,0
40,8.033422459893048,-0.966368796152208,0.25452435758593667,0.0367246677152946,-0.883371321457702,0.4465520033427036,0.14228990384665835,1
41,8.233422459893049,-0.9083592666503771,0.41166129759565523,0.07360990933461914,-0.8586311986708353,0.4886692584319628,0.15477344905583867,1
42,8.433422459893048,-0.8994057551984111,0.4326046479846246,0.06262991344457643,-0.8387866811453499,0.5246647033121243,0.14547801425497223,1
43,8.633422459893048,-0.8900468572542157,0.4526971322575084,0.05368331526388531,-0.8206243714461056,0.5550319576106206,0.1360704487374334,1
44,8.833422459893049,-0.8805208666844225,0.4712861836424394,0.050718206209000805,-0.8026651203627557,0.5817794818517246,0.13138241529741282,1
45,9.033422459893048,-0.8801943783864752,0.4720254608451839,0.04949566214062337,-0.7948843533266163,0.5941649672357538,0.12299128646478551,1
46,9.233422459893049,-0.8899058988219102,0.45095706638461186,0.06859457354451041,-0.8028510821176749,0.5836261616290822,0.12169898686752931,1
47,9.433422459893048,-0.8891294874522079,0.4527715186770383,0.06668362930931952,-0.8129747040435318,0.5697068812838514,0.12044168714842857,1
48,9.63342245989305,-0.8802985360697599,0.4690347659171759,0.07128026202573602,-0.8116267047551886,0.571654056850073,0.12030682198066442,1
49,9.833422459893049,-0.8768427883576569,0.47601466686876603,0.06750378827137883,-0.8160494028252447,0.5649606663794143,0.12199515397215571,1
50,10.033422459893048,-0.8838207040277739,0.4627147095006155,0.0689641989992703,-0.8308668218198036,0.5419539109333701,0.12627859210129008,1
51,10.233422459893049,-0.8922356087139469,0.44573912758515766,0.07233428428121207,-0.847981263852525,0.5131704613932682,0.13260412402521665,1
52,10.433422459893048,-0.8971533249917824,0.43367777488303816,0.08390172244171724,-0.869819810978863,0.4704024124599877,0.14877858307067937,1
53,10.63342245989305,-0.8727084198019579,0.480993448424906,0.08381716160242571,-0.8997725313370344,0.402610770064363,0.16826752413798174,1
54,10.833422459893049,-0.8764819992191054,0.4766991415337945,0.06735898979218362,-0.9148911324120508,0.3703384225290665,0.16069744438689187,1
55,11.033422459893048,-0.8730164197304527,0.4828256563270496,0.06871474713171587,-0.9198601522605282,0.36278664468122185,0.14914137830990737,1
56,11.233422459893049,-0.8758576003225387,0.4768216050570803,0.07426049358867763,-0.9251231050415701,0.3519271198846886,0.14245891621064818,1
57,11.433422459893048,-0.8868780026331424,0.4566585111612526,0.0700743364537707,-0.9287378448275797,0.34075465438751,0.14605574654313147,1
58,11.63342245989305,-0.9086862717432757,0.4106273902478906,0.07532865273926478,-0.9411966968962905,0.2990169273815113,0.1572820869992278,1
59,11.833422459893049,-0.921908871873983,0.3814716416791318,0.0675530795350457,-0.9507294651722774,0.26853985130540975,0.1549187926434488,1
60,12.033422459893048,-0.9336300353426839,0.3524144382714713,0.06433522210906457,-0.9599441198119629,0.23426034842730162,0.15371849593707096,1
61,12.233422459893049,-0.9402637603495548,0.33189002180483007,0.07584902372281883,-0.9637569094754812,0.20608153743302082,0.16941965460805297,1
62,12.433422459893048,-0.942643079364748,0.32629973332301715,0.07037406453426799,-0.966685217873923,0.19328287681731457,0.16781364388293676,1
63,12.63342245989305,-0.9462847422965823,0.31614669649402266,0.06779714442811972,-0.9699360673757511,0.17507496013972923,0.1690348589366551,1
64,12.833422459893049,-0.9478966451892749,0.31354780833636614,0.05638902310183803,-0.9729653426981182,0.16630151535583815,0.16025681857158408,1
65,13.033422459893048,-0.9467511663764006,0.3179699481143238,0.05057015978914138,-0.9738409585977206,0.16506518558201227,0.15616424644024274,1
66,13.233422459893049,-0.9423572067856476,0.3319797908637268,0.04186064114688921,-0.9734516453125517,0.17433114348554654,0.14832581248490764,1
67,13.433422459893048,-0.9372349201859818,0.3476187919931105,0.027420427371338676,-0.9733012491684077,0.18631414141197375,0.13405864044192162,1
68,13.63342245989305,-0.9309471279553654,0.36487601894794597,0.014245551879624993,-0.9721495191939693,0.20104919462870102,0.1204347693570476,1
69,13.833422459893049,-0.9285060947100422,0.371097944384578,0.012757263023348436,-0.9718798319547849,0.20458742884881417,0.11659149281388666,1
70,14.033422459893048,-0.9253641418866875,0.37861400684678825,0.018778677528905302,-0.9706044272706831,0.2087648020808732,0.11976770505726228,1
71,14.233422459893049,-0.9183724520900955,0.39504198257115375,0.023105654032664916,-0.9674641924541236,0.22222335358553072,0.12095378224880335,1
72,14.433422459893048,-0.9055019966195786,0.4237280529988535,0.022818221222464994,-0.9605377623640845,0.2512602262368583,0.11931263882757999,1
73,14.63342245989305,-0.8863338291740882,0.4626977645199724,0.017975593726452133,-0.9495223175295138,0.2920820430154144,0.1144353470800129,1
74,14.833422459893049,-0.8809231329884669,0.47293124004411524,0.017620327923160498,-0.946436079546777,0.30242144309514857,0.11313716492989766,1
75,15.033422459893048,-0.8802576922441957,0.47383638857410454,0.02500944037704768,-0.9454847693872578,0.3031442927916666,0.11900457388085582,1
76,15.233422459893049,-0.8830684863799679,0.4688304350345328,0.019699531667622262,-0.9488450394225147,0.2955572785545356,0.11108098962794513,1
77,15.433422459893048,-0.8888769687074143,0.4580138774013073,0.011001027649233192,-0.9540935706665119,0.28274666376214236,0.0987916117097208,1
78,15.63342245989305,-0.8924206570788367,0.4506865460705778,0.02161036811232538,-0.9560357165745331,0.27288490645599917,0.10737567910062112,1
79,15.833422459893049,-0.891201090680773,0.4527225172270071,0.028336167084537255,-0.9550797313850338,0.2735853947148587,0.11390231997728033,1
80,16.03342245989305,-0.8937126749386927,0.4467282735808684,0.04137033039973938,-0.955823274622267,0.2654730069992029,0.12619805959351138,1
81,16.23342245989305,-0.8995724108021838,0.43372830565571785,0.051470715912716396,-0.9590135154624932,0.2483247771273717,0.13648399988610965,1
82,16.433422459893052,-0.9847666512156507,0.16779754440630718,0.04559195921132138,-0.9847645354572441,0.06725818688421059,0.16035942754551893,0
83,16.63342245989305,-0.9993343111465752,0.01009831034956483,0.035056507146094304,-0.9858835288826675,-0.0708644432300083,0.15169673089278976,1
84,16.83342245989305,-0.9994716928505486,-0.008598875543142155,0.03134317357658399,-0.982276401707256,-0.11904468845788313,0.14478063682347256,1
85,17.03342245989305,-0.9975414429008235,-0.06086487346180272,0.03473523965402179,-0.970476971039155,-0.1929255138334383,0.1447556382140992,1
86,17.23342245989305,-0.9995244066008113,0.022301403067123287,0.021298075747207126,-0.9614212729708209,-0.2375910781773937,0.13863482769372895,1
87,17.433422459893052,-0.9986163363767036,0.035979329895000745,0.038352321205861704,-0.9610163565305201,-0.2392772175028891,0.13854232445313983,1
88,17.63342245989305,-0.9968252410729513,0.06239191733356345,0.049464001165440835,-0.9642221556317612,-0.2228124542753364,0.14363232508262486,1
89,17.83342245989305,-0.9957896016682455,0.0760329036385763,0.051206120470939157,-0.9661769434923814,-0.20932907316459032,0.1506102685469137,1
90,18.03342245989305,-0.9948789156275408,0.08926975218407988,0.04740099771905677,-0.9672720816978757,-0.20080765230727246,0.15511610729611516,1
91,18.23342245989305,-0.9678505101522449,0.1652647059018197,0.18961267621449918,-0.9696781908576932,-0.18698911539907476,0.15735080837804102,1
92,18.433422459893052,-0.9882827203492249,0.14937922851149946,0.03135459692685544,-0.9721088880565956,-0.17075605135046407,0.16076902900921944,1
93,18.63342245989305,-0.9873033279936994,0.1544039861584813,0.03730345280181572,-0.9739391133502888,-0.15645011438082285,0.16421316998548272,1
94,18.83342245989305,-0.9973324575093241,-0.06194295455757617,0.03861398165290099,-0.9704457850608101,-0.16958584366878246,0.17168465244411169,1
95,19.03342245989305,-0.8672252332839375,-0.47964112761704436,0.13365920639398818,-0.9096957075277657,-0.36050566944497703,0.20612952724824898,0
96,19.233422459893053,-0.703903539531724,-0.703771709372173,0.09604784288093336,-0.8082279663267656,-0.5485636798933652,0.2141154911470678,0
97,19.433422459893052,-0.48359508678539515,-0.8746272356939788,0.03410264827451423,-0.6881775724800167,-0.6967609901135444,0.20232585448109272,0
98,19.63342245989305,-0.54872804354962,-0.834568994518061,0.04890938162887204,-0.6264845420557614,-0.7558717877136769,0.1901971585058872,0
99,19.83342245989305,-0.23403465449918082,-0.9679696964931975,-0.09089800418224814,-0.5580143590180939,-0.8115791997644696,0.17308719663594144,1
100,20.03342245989305,-0.2191417496203022,-0.9756810936661731,0.004826700294542842,-0.4668963665225674,-0.8688886989398342,0.16443908228479792,1
101,20.233422459893053,-0.2335354996342986,-0.9717665732237808,0.03362882060775938,-0.4647820650197652,-0.8686499470345059,0.1715368810282866,1
102,20.433422459893052,-0.4396915817732092,-0.8979056669003128,0.020897996700112238,-0.500725078807438,-0.8483948887838454,0.17175711961584542,1
103,20.63342245989305,-0.7724129757853666,-0.634360738016471,0.031058797491101763,-0.5432819869382755,-0.8251663551031105,0.15474226660562726,1
104,20.83342245989305,-0.7865516627145726,-0.6170924592747428,0.02309499052157141,-0.5797409807600671,-0.8018016375962301,0.1449638892116217,1
105,21.03342245989305,-0.7990882495067788,-0.6008157195039796,0.021873287295409886,-0.6074505661321926,-0.7814773163101466,0.14246758858901928,1
106,21.233422459893053,-0.37824585357728335,-0.9234409392710253,0.0647063051783874,-0.6217890424950331,-0.7716155907960945,0.13411847998506451,0
107,21.433422459893052,-0.23038834445540024,-0.9722063113505801,0.04166652024346145,-0.5009799879567869,-0.8583530182118079,0.1106758681623828,0
108,21.63342245989305,0.0949643987134558,-0.9954282054393468,-0.010220117063608331,-0.23650709008387139,-0.9697909637528236,0.05974849758302894,0
109,21.83342245989305,0.11809004718862787,-0.9926778408573075,0.025405610125753802,-0.016955589709532315,-0.9979929671999807,0.0610126658734096,0
110,22.03342245989305,0.46024246032901817,-0.8742428371468421,0.15451970556447678,0.2239278526889515,-0.966700670632388,0.12387949866304372,0
111,22.233422459893053,0.7244115332009979,-0.672933270040089,0.14962868922279757,0.5425631797400585,-0.8236347982717032,0.1650785118247934,0
112,22.433422459893052,0.8141540945532215,-0.5410255141678536,-0.21081865036479602,0.6029799095146984,-0.7939529529704586,0.07780705103739087,0
113,22.63342245989305,0.6960883828739661,-0.6205880836048545,-0.3610143954409032,0.4539929451961293,-0.8779919895202009,-0.15172498822047614,0
114,22.83342245989305,-0.2838626620813111,-0.8785122618024457,-0.3842371597579586,0.0007783887095551556,-0.9689365611477717,-0.24730817734589286,0
115,23.03342245989305,-0.5018857654559823,-0.8406964506763069,-0.20332278832664613,-0.4242757602654701,-0.8887052993843909,-0.17376124452034028,0
116,23.233422459893053,-0.7129665112466459,-0.6754244077853808,0.1883630091301214,-0.6218442701204219,-0.7820053889036563,0.04215774476939391,0
117,23.433422459893052,-0.78781600198783,-0.5990119086830362,0.14328531071891903,-0.7184238758563676,-0.6915523538273377,0.07498317488198851,0
118,23.63342245989305,-0.8052290667535997,-0.5799579731591302,0.12351072594831745,-0.7593198077582035,-0.6454984570300107,0.08225066272025046,0
119,23.83342245989305,-0.9417321056755955,-0.22573910590392154,0.24936418589185422,-0.8656034966386499,-0.46080958114477205,0.19592119980268305,0
120,24.03342245989305,-0.9643937507878011,0.2067574699107657,0.1649122253731843,-0.9803383507737438,0.06253991957623,0.18715094566048768,0
121,24.233422459893053,-0.3532334643028475,0.8972541507799331,0.2648794227658888,-0.6152740462788822,0.7456889104301331,0.25570666169877765,0
122,24.433422459893052,-5.231151817863822e-05,0.9636960144099865,0.2670018521917259,0.05867262433434911,0.9315495679180064,0.3588494470742521,0
123,24.63342245989305,0.6956142869200866,0.7085770666252534,0.11848757101658525,0.5588527860079766,0.7889777230011039,0.25533843459047806,0
124,24.83342245989305,0.13631621168914115,0.969583717965007,-0.20328626192607163,0.5638421227090326,0.8213463995165591,0.08644161416908697,0
125,25.03342245989305,0.06810926434481118,0.9933538121741284,-0.09278648581304966,0.17053145352123938,0.984105581096208,0.04955026352329614,0
126,25.233422459893053,0.07101482088825639,0.995186959218935,-0.06752637569704627,-0.24386659668985555,0.9675736747915115,0.06580476327256427,0
127,25.433422459893052,-0.29675976913939967,0.9436453988087931,0.14651621318927285,-0.5981433609098508,0.7940853586155249,0.1079488908322892,0
128,25.63342245989305,-0.9695513338931898,0.21258081389027,0.12157141321744527,-0.9319564741072199,0.33299778151724363,0.1434210858773326,0
129,25.83342245989305,-0.9900079874428055,-0.10396630258026938,0.09526380596655842,-0.9894835083300975,0.004606154926397638,0.1445723696961369,0
130,26.03342245989305,-0.9248569823758834,-0.37724599989860363,0.04821843745993654,-0.9619364508550918,-0.2465095140990709,0.11794627579940714,0
131,26.233422459893053,-0.920593704356584,-0.3853614664477439,0.06327536389675367,-0.9035806645050356,-0.4115637040337336,0.11898445383608658,0
132,26.433422459893052,-0.6543454345123756,-0.7491691991615932,0.10284728173553134,-0.8347819105810167,-0.5348507906274111,0.13066672695043977,0
133,26.63342245989305,-0.6863767271343975,-0.723115060910798,0.07740540764214072,-0.761398619176323,-0.6364435702020773,0.12333582068816108,0
134,26.83342245989305,-0.6683566679529154,-0.7401007025745825,0.07450043255905169,-0.7144893666711933,-0.6902153310590855,0.1144890461345295,0
135,27.03342245989305,-0.6532008240530638,-0.7539189818980027,0.07024850311770023,-0.6754867802733291,-0.7295899342796772,0.10684632644011419,0
136,27.233422459893053,-0.6883964629954054,-0.7209869375428031,0.0792978286466017,-0.6942511618318143,-0.7111441829110967,0.11085700432036116,0
137,27.433422459893052,-0.738172002475169,-0.6691029851223348,0.08604237364333722,-0.7411656350334714,-0.6613872756654141,0.11506681986268967,0
138,27.63342245989305,-0.9595289812638031,-0.2698404223353598,0.08056227770316975,-0.8216008611930541,-0.560665058120771,0.10308597135044313,0
139,27.83342245989305,-0.9607788911260842,-0.26955745849410473,0.06513600338316132,-0.8972109297492866,-0.42778443495608265,0.10960394494599997,0
140,28.03342245989305,-0.9529897838704826,-0.2958506095707184,0.06544378240234476,-0.9301926529080171,-0.3499351457864241,0.11084684126929165,0
141,28.233422459893053,-0.9906744294469213,-0.12379386215498982,0.05691444924418162,-0.9528330903366715,-0.28196925716206606,0.11226058958931823,1
142,28.433422459893052,-0.9936998205791229,-0.10235079701007213,0.04566159143549526,-0.9690874316435223,-0.2245203917943487,0.10227484294328489,1
143,28.63342245989305,-0.9942791224255914,-0.08581908011709971,0.06359333452847776,-0.9786004000590713,-0.17356462599848974,0.11052862799397095,1
144,28.83342245989305,-0.8922161652649065,-0.4449973832253036,0.07699119016236736,-0.9791449999982414,-0.16679326738627462,0.1159960125739438,1
145,29.03342245989305,-0.827893201887797,-0.5224678090501553,0.2040103790847472,-0.9770601202025315,-0.17805818476910987,0.11682809741900502,1
146,29.233422459893053,-0.8729447041601075,-0.4756808121239517,0.10814484941928741,-0.9743060258462963,-0.1910284385428966,0.11931430621455084,1
147,29.433422459893052,-0.9904543219819204,-0.1181186405562984,0.07105084672589658,-0.972962362294854,-0.1983876821137142,0.11826482631435972,1
148,29.63342245989305,-0.9915043879753156,-0.10626390660384337,0.07501353730483949,-0.9765525321482602,-0.1772739363302481,0.12214378188348649,1
149,29.83342245989305,-0.888319857801357,-0.4560875569105436,0.053590770354124385,-0.9768077670394204,-0.1746938546877359,0.12380889865353817,1
150,30.03342245989305,-0.9634437248375799,-0.2606875013574684,0.06179171228481707,-0.973299864654141,-0.18984018909640996,0.12902742370546716,1
151,30.233422459893053,-0.9567151274344164,-0.2857497047848034,0.05516585133528455,-0.9687470849486477,-0.2137135678809139,0.12591900693345587,1
152,30.433422459893052,-0.9357619358414963,-0.3485514403163277,0.05349292367770567,-0.9572779996547256,-0.2600035793153461,0.1265581689194968,1
153,30.63342245989305,-0.9246136076442352,-0.3773504851228875,0.05192579259514619,-0.9476269440149657,-0.29385573585603675,0.12510787937361925,1
154,30.83342245989305,-0.9270654637376068,-0.3711958822818192,0.05256655706814192,-0.9466713271928859,-0.2968179129237172,0.1253496104440247,1
155,31.03342245989305,-0.9258014220411793,-0.37321650123720795,0.06000975046430142,-0.9430296963144907,-0.3062050619600144,0.1301285975451325,1
156,31.233422459893053,-0.9628253129780259,-0.2687090284295329,-0.02762018698747301,-0.9372413700240481,-0.3159968621002249,0.14739266419417485,1
157,31.433422459893052,-0.9544249692151779,-0.2913940004055709,0.06451755316380928,-0.9338062944668418,-0.32239955128335773,0.1551268311621036,1
158,31.63342245989305,-0.9574882971036366,-0.2816701910378853,0.06227410690053516,-0.9315261218102908,-0.3307321436400802,0.15124593729524324,1
159,31.83342245989305,-0.9582245411696775,-0.2754355213451974,0.07707789748988042,-0.9278622560510038,-0.3363331794958673,0.16109508423953375,1
160,32.033422459893046,-0.9634911766641355,-0.2522720549008977,0.08968591197305348,-0.9303730496447867,-0.3180599437139781,0.18232899028766833,1
161,32.23342245989305,-0.9787229086340243,-0.1785791681587801,0.1010492395551473,-0.9482910864870997,-0.24510468782866252,0.20166235963493528,1
162,32.433422459893045,-0.983757596254885,-0.15225000834309987,0.09508378815727217,-0.9559824460453807,-0.2123655179479027,0.202480738935362,1
163,32.63342245989305,-0.9881114048807318,-0.13281429216502794,0.07743523320381178,-0.964032285644094,-0.1866492612219551,0.18921893541906,1
164,32.83342245989305,-0.9946854833216793,-0.08943986154329893,0.05100294536821516,-0.977148996297394,-0.1352834465642943,0.16394580848768567,1
165,33.033422459893046,-0.9962889347294922,-0.08105382158623829,0.028959222051707766,-0.9824744105475157,-0.12190143467093659,0.1410108961906113,1
166,33.23342245989305,-0.9951784390254542,-0.0975938241421965,0.009763195591723868,-0.9843426829719419,-0.13122673800128706,0.1176818835383787,1
167,33.433422459893045,-0.9947943178201074,-0.10181617951778868,0.004210798170025531,-0.9848605001742705,-0.13534134783224305,0.10831673353382669,1
168,33.63342245989305,-0.993294817077466,-0.11500107999190971,0.011838833039524672,-0.9824171320433113,-0.15024374399068072,0.1108304834396116,1
169,33.83342245989305,-0.999610516028045,-0.027904232861319926,-0.0004123524795923118,-0.9814476645941603,-0.15020476708104227,0.11915959721650014,1
170,34.033422459893046,-0.972432305413497,0.2132465425554847,0.0943468254703007,-0.9896073752025063,-0.07026128424994262,0.1254615274909208,1
171,34.23342245989305,-0.8891226044204688,0.4496881362152225,0.08509744094767041,-0.9658361601612518,0.23006582994403205,0.11929050933386506,0
172,34.433422459893045,-0.8124784553800184,0.5747256755680081,0.09782207003634762,-0.9018230436011208,0.41525032739957685,0.11950884329017344,1
173,34.63342245989305,-0.8208012806274344,0.5671247122355295,0.06822623023538346,-0.8868323920205045,0.44786521147947317,0.11377636314119503,1
174,34.83342245989305,-0.8002295726108763,0.596818586348497,0.05865327022422536,-0.8628389280809775,0.4937252324075139,0.10837148643539349,1
175,35.033422459893046,-0.7818188067549849,0.621144865258494,0.05420710070847496,-0.84638844744429,0.5222758170377702,0.10418525313293807,1
176,35.23342245989305,-0.7745523041889552,0.63045502077133,0.05094305506938819,-0.8377986391790659,0.5363330302976644,0.10217788802588397,1
177,35.433422459893045,-0.769718951554363,0.6365363482873859,0.04852023214095808,-0.8333802947811264,0.5437416880691931,0.09910732024521428,1
178,35.63342245989305,-0.7771700196122246,0.6270687372184138,0.05283521003307098,-0.8393643914971163,0.5349712933074577,0.09629711119042925,1
179,35.83342245989305,-0.7806829471925835,0.6216460195008212,0.06395594109609264,-0.8424054908022928,0.5290417187627147,0.10231250595475172,1
180,36.033422459893046,-0.7814684687623885,0.6202569643665561,0.0677372163950738,-0.8452204927896366,0.5238518852396207,0.10574271085677436,1
181,36.23342245989305,-0.7829946780595928,0.6174236794003225,0.07554690096968132,-0.8492813575750807,0.5153255519625404,0.1147203171627912,1
182,36.433422459893045,-0.7812130403137575,0.6194867226825949,0.0770868734851371,-0.8519827075485195,0.5108029606060833,0.11491649783366258,1
183,36.63342245989305,-0.7873453523975953,0.6114778531223767,0.07862652986591724,-0.8624261639168066,0.4921821185741799,0.11822805905356594,1
184,36.83342245989305,-0.9493343888645718,0.287498689924475,0.12692013792476353,-0.9545626753806735,0.2530243072345933,0.15744458935938507,0
185,37.033422459893046,-0.9615945695658994,-0.2671476292309801,0.06299228506443985,-0.9792098032260479,-0.12861617678530105,0.15686312611680525,0
186,37.23342245989305,-0.9151341158386286,-0.40108450826958764,0.04075251224642176,-0.9322794175000096,-0.3346981779911149,0.13723052632439822,0
187,37.433422459893045,-0.8603215858710865,-0.5093413524801126,0.02044885175232569,-0.8846990177456292,-0.44921915481844416,0.12453834326873645,0
188,37.63342245989305,-0.7856507314279755,-0.6181659188071854,0.02497648958432341,-0.8133272304745428,-0.5664560108295749,0.13276446800125025,0
189,37.83342245989305,-0.7237108075206972,-0.689444825333882,0.03014133205539542,-0.7511697077703293,-0.6442995377851594,0.14360423300887867,0
190,38.033422459893046,-0.6808354494461155,-0.729399181606293,0.06663275958247604,-0.7015132280261812,-0.6884415710119125,0.18419390382674664,1
191,38.23342245989305,-0.5469235419864324,-0.7993959817196231,0.24867791142667897,-0.6506984221635187,-0.7221999864140721,0.2345607448347259,1
192,38.43342245989305,-0.5652760727224497,-0.7919715049714772,0.23074682429168333,-0.6566746678924479,-0.7184199410944584,0.2294584249622977,1
193,38.63342245989305,-0.6518043516412781,-0.7571514050770182,0.04327628647874817,-0.649772022596995,-0.7298704592820493,0.21233330242244333,1
194,38.83342245989305,-0.615533597267909,-0.7869687193340854,0.04241020424493797,-0.6101920135672319,-0.7658048816421879,0.202998989730891,1
195,39.033422459893046,-0.5900163885163074,-0.8062903940149867,0.0421480936856131,-0.5834085671693761,-0.7874272633964161,0.19897926679281724,1
196,39.23342245989305,-0.5539865154553559,-0.8311438274730568,0.047946623938191095,-0.560867250521752,-0.8028068074318974,0.20230955793826225,1
197,39.43342245989305,-0.5350712900400061,-0.8436494372114984,0.044207936704234264,-0.5508902975493777,-0.811112297822059,0.19651137470329186,1
198,39.63342245989305,-0.4432230190787415,-0.893862140541823,0.06755611789257751,-0.5465490480702868,-0.8136150534099026,0.19827930532020932,1
199,39.83342245989305,-0.44621513567224114,-0.8923115688421093,0.06835288441271188,-0.5520164242194289,-0.8103791277813518,0.19637600833179975,1
200,40.033422459893046,-0.45280051464470805,-0.8887873533680472,0.07091357014359224,-0.5617400912319213,-0.804244263340269,0.194008336900817,1
201,40.23342245989305,-0.45853897674373195,-0.8859081747328511,0.07006220627642089,-0.5728823411595916,-0.7973687079386801,0.18976028769925912,1
202,40.43342245989305,-0.46601846215228543,-0.8821285836200414,0.06838095417379449,-0.5842354766341777,-0.7904730805089922,0.1839054562340656,1
203,40.63342245989305,-0.4616397164217797,-0.8847885057422249,0.06354582856852266,-0.5851040467358521,-0.7919950045169735,0.17434783426670059,1
204,40.83342245989305,-0.3821832300942942,-0.920997571902787,0.0754947096415564,-0.5932023813278897,-0.7872848951569117,0.1682065059523316,1
205,41.033422459893046,-0.43097470739046884,-0.8991228011147218,0.07641328487453367,-0.5988340229013881,-0.7849144462593388,0.1590821330921085,1
206,41.23342245989305,-0.44747632265501114,-0.8911313537820956,0.07516549055010704,-0.6035302166736219,-0.7820754753152019,0.15527146702595432,1
207,41.43342245989305,-0.315456102603386,-0.9486677888109637,0.022734858759160828,-0.6062489029318661,-0.7809215745198278,0.15041197473400073,1
208,41.63342245989305,-0.23737111671509464,-0.9679744938623062,0.08173329909798938,-0.5945528665974475,-0.7899279729071147,0.15006893895678267,1
209,41.83342245989305,-0.21258046493607125,-0.964809407755602,0.15476547623371517,-0.5759400867783059,-0.801735846491708,0.15972679453373623,1
210,42.033422459893046,-0.22659359715059046,-0.9624597235343522,0.14942095671134736,-0.48422712292019116,-0.8556550634307252,0.18269785399340657,1
211,42.23342245989305,0.07794958598915364,-0.9968768243249726,-0.012667247841493853,-0.2374073972509756,-0.9463566466183488,0.21919586020678272,0
212,42.43342245989305,0.5175810257502017,-0.8537825087858966,0.05626108312705858,0.10983774488780407,-0.9626119722310584,0.24761635793176842,0
213,42.63342245989305,0.64240577986509,-0.7618560342092395,0.08300721134272568,0.4293653602908935,-0.8687509103653887,0.24681418743982342,0
214,42.83342245989305,0.7393918896158644,-0.6246668836223113,0.25117905580655253,0.5925208403097602,-0.7600246477334367,0.26698612068098476,0
215,43.033422459893046,0.7007677188257964,-0.6777924526645512,0.22253538002453047,0.6443140613798228,-0.7129494258520933,0.2766993069839683,0
216,43.23342245989305,0.24998346754536144,-0.9432358002501319,0.21866524890912717,0.5367597685473899,-0.7965805163075835,0.27811586058349186,0
217,43.43342245989305,0.007376442651019222,-0.9708555379075742,0.23955189961261303,0.1910963186178874,-0.9488587903725407,0.25129503167283257,0
218,43.63342245989305,-0.1874717720645907,-0.9800646805179466,0.06578416739776928,-0.13567793519593735,-0.9738883761908154,0.18202452752688075,0
219,43.83342245989305,-0.24550679692599792,-0.9684437548716823,0.04293141405980163,-0.24058726602169045,-0.9593882414505982,0.14728193913218784,0
220,44.033422459893046,-0.38475970894088257,-0.9229082115152916,-0.014156252801264209,-0.296119485849252,-0.9472637550500311,0.12249338132686945,0
221,44.23342245989305,-0.3929344766567125,-0.9195621579834083,-0.002816852749636515,-0.32662180070699864,-0.9369061743898484,0.1245994369694233,0
222,44.43342245989305,-0.40282891014538663,-0.9078101104324732,0.11666050123182485,-0.370358847067095,-0.9175072083213789,0.14496498569462288,1
223,44.63342245989305,-0.5196371601942686,-0.8298313521358893,0.20336457104805075,-0.4226692931124275,-0.8876292612256917,0.18293431410146496,1
224,44.83342245989305,-0.4501934093820485,-0.870123870400667,0.20052517125770253,-0.46685967338133816,-0.860557743747465,0.20367232273075966,1
225,45.033422459893046,-0.4101367181551466,-0.9040384199414077,0.12042594276470887,-0.46094697989232974,-0.8647616319057528,0.19928673240293635,1
226,45.23342245989305,-0.3538245245687021,-0.9291676688989465,0.10703106505417082,-0.4270394976317017,-0.8840691043729128,0.18989230146517203,1
227,45.43342245989305,-0.3266536255443681,-0.941943554638047,0.0777158207481583,-0.38374368379585877,-0.9071836042222488,0.17250708210712482,1
228,45.63342245989305,-0.33564390807354544,-0.9390993420264111,0.0737264727128554,-0.377323486106455,-0.9110261101997216,0.1663081879127926,1
