,timeStamp,x_gaze,y_gaze,z_gaze,x_head,y_head,z_head,fixations_head
0,0.04,-0.9721561832212899,-0.10248858683766188,-0.21073311318497767,-0.9953011313840991,-0.09668635539934185,-0.005235126084860652,0
1,0.24000000000000002,-0.9714491947652233,-0.10402759931477427,-0.21322457778315346,-0.9949045672323072,-0.10065193815553612,-0.005838616773652731,0
2,0.44,-0.9443153194095721,-0.20496088630824344,-0.25740942603591066,-0.9932183130607558,-0.11515496497857118,-0.016022379396658966,0
3,0.6400000000000001,-0.9364714353838941,-0.21488170656877126,-0.27721310014521655,-0.9878589173681341,-0.15059856703356592,-0.0381422467048635,0
4,0.8400000000000001,-0.9226762917001736,-0.264640651081367,-0.2804171651836708,-0.9739569856378031,-0.2225473084927099,-0.04336456629524662,0
5,1.04,-0.47108140273923826,-0.8442096467448581,-0.25571934681629727,-0.920075899275688,-0.3876541467693865,-0.05643227856939115,0
6,1.2400000000000002,-0.28652590973383096,-0.9112292055589034,-0.2959125512506874,-0.8118505780169414,-0.5735866716374002,-0.10907322812444746,0
7,1.4400000000000002,-0.284167285380098,-0.8906816986396011,-0.35487330926427924,-0.6993158471260946,-0.7011531642188217,-0.13907403159557358,0
8,1.6400000000000001,-0.02693008605460301,-0.9470861210433531,-0.31984785413090866,-0.5253979961333679,-0.8429370085124365,-0.11581945147144518,0
9,1.84,0.13483259025059585,-0.9502978996895098,-0.28063156353486274,-0.34805286044825917,-0.9338589539810673,-0.08225971312356856,0
10,2.04,0.10985253883217105,-0.9641771238058483,-0.24144335493363395,-0.32354860577297606,-0.9448028065311396,-0.05161352994366543,0
11,2.24,-0.36739893664935946,-0.9089728204457612,-0.1969427151224387,-0.42356618144988983,-0.9049217448346418,-0.041331896368138166,0
12,2.4400000000000004,-0.33916060937504844,-0.9281989758923854,-0.15302529921772084,-0.5724226550417808,-0.8194206909991916,-0.029699076708305953,0
13,2.64,-0.7397306752341801,-0.6336971790205547,-0.22633252841554793,-0.776204135558267,-0.6296523839853034,-0.03232669614834869,0
14,2.8400000000000003,-0.9656934481484742,-0.15287742304522367,-0.20991583486283688,-0.9765253528227961,-0.2100394674503417,-0.04776669768249437,0
15,3.04,-0.963158910921808,0.03367208598831783,-0.266816609185246,-0.9798607641860788,0.17708963814655765,-0.09226127502801582,0
16,3.24,-0.8185188967939367,0.4809459643848985,-0.31419388111978996,-0.845566474746112,0.5237768303315108,-0.10332070844370188,0
17,3.4400000000000004,-0.8313221430629211,0.4832371394521453,-0.2745639479381448,-0.7111582583993753,0.6928888612815696,-0.11899141743124707,0
18,3.64,-0.3820011748550183,0.8865708399646398,-0.26089700675511523,-0.46212986283384644,0.8808386912008805,-0.10275791921156456,0
19,3.8400000000000003,0.09545790500342849,0.9822384627554601,-0.16154067802305255,-0.20460827180917168,0.9759998060471544,-0.07456429241387114,0
20,4.04,0.19023694753909481,0.9748267870934875,-0.11628688213206226,-0.06682794974228401,0.9964435018272643,-0.051326141482309,0
21,4.24,0.1704793498376458,0.9837130510751559,-0.056968626658374495,-0.06546752982732296,0.9977432246395429,-0.014915100542578457,0
22,4.44,0.04114254047442456,0.9990292069264438,-0.015745954122606206,-0.19596995378905946,0.980598782181013,0.00466964634939161,0
23,4.640000000000001,0.049981061158217766,0.9985049170851543,0.022131969687940067,-0.34943248793466314,0.9369615186657636,-0.00022116812100983756,0
24,4.840000000000001,-0.8203741580699525,0.5558860540757614,-0.1340780953589981,-0.5464444404053846,0.8373702626091896,-0.014474696814210701,0
25,5.04,-0.8550400559295276,0.4947123492300775,-0.15545479817390012,-0.6868452750422029,0.7267268511400912,-0.010566550251085749,0
26,5.24,-0.9070100384107391,0.33718773292082693,-0.2522641928412802,-0.7933512869495598,0.6075453323143857,-0.03850200875902444,0
27,5.44,-0.9277348521345501,0.2633960264487687,-0.26444390215296004,-0.8723762825492244,0.4867348280565947,-0.045263990128060344,0
28,5.640000000000001,-0.9503007272468542,0.16784824239799268,-0.2622126909934088,-0.9230664110276122,0.38149143040983974,-0.049119134321139214,0
29,5.840000000000001,-0.9437626943318156,0.08850472059390362,-0.3185575163453955,-0.9497369551672826,0.29566378166843177,-0.10287197965967645,0
30,6.04,-0.9062256003613816,-0.14423428823816806,-0.3974312913524589,-0.9510999805292274,0.20825136569890487,-0.2281232029449102,0
31,6.24,-0.8827005905126408,-0.14727108410712264,-0.4462632578361654,-0.9593742338553267,0.11957092401032954,-0.25554622584929915,1
32,6.44,-0.8834620898777686,-0.07271285194209434,-0.4628256441806706,-0.9705862354521503,0.03766781086571355,-0.2377887625086772,1
33,6.640000000000001,-0.9122836713038198,0.019848051919845518,-0.40907769177432707,-0.9771394382351952,0.0054476775242118195,-0.2125296239468727,1
34,6.840000000000001,-0.909276759810546,0.04670204799582663,-0.4135634084169319,-0.9760154992508286,0.03636467212718844,-0.21464239060175835,1
35,7.04,-0.910894509501391,0.07826929579093679,-0.4051482566871188,-0.9770584580226566,0.06547113027354025,-0.20265808818572645,1
36,7.24,-0.918293355830204,0.22659459495026274,-0.32464165194476935,-0.9774462353667684,0.0986642339266532,-0.186719645219775,1
37,7.44,-0.9184241922992936,0.23070223192337583,-0.3213619193136659,-0.9768813314125611,0.12101620404263716,-0.1762326380008334,1
38,7.640000000000001,-0.9134961205260759,0.03667491094899509,-0.4051910520861642,-0.9784450234846149,0.111438281284035,-0.17385869400939247,1
39,7.840000000000001,-0.9296233585880931,-0.07767130696315468,-0.36023267375687856,-0.9801533831902277,0.09462245275897943,-0.17420085204907967,1
40,8.04,-0.915132493695264,0.047158468229162864,-0.4003855614996214,-0.981002256446184,0.09449537143347685,-0.16942608307207216,1
41,8.24,-0.9430591818060354,0.06648752254338806,-0.32591224118982337,-0.9813332430402397,0.09619407424106437,-0.16652857468023619,1
42,8.44,-0.9446392705746898,0.0500817905061802,-0.3242660369940289,-0.9840819382183903,0.0793224932444398,-0.15903044028682634,1
43,8.639999999999999,-0.9474771512619465,-0.0038302933491062494,-0.31980052640576817,-0.9867071017059972,0.06487227455685925,-0.14899893770349792,1
44,8.84,-0.9402045835158603,-0.0343690626571098,-0.3388718174588142,-0.9840349723628758,0.06077499057869225,-0.16727693710417663,1
45,9.04,-0.9421727840071739,-0.05062187341751889,-0.3312821622240963,-0.9849727318273291,0.06534377087832163,-0.1598715395685228,1
46,9.24,-0.9410608184661867,-0.04321372292013413,-0.33546551253315543,-0.9838477339742917,0.0730630657926455,-0.16341794506917193,1
47,9.44,-0.8247990003552559,-0.46291770074655514,-0.32467493181410534,-0.9852016312108616,0.05594269882144485,-0.1620128399480458,1
48,9.64,-0.824451782925861,-0.46229785346450825,-0.3264352191668011,-0.986656674543979,0.02933899195351512,-0.16014939940245948,1
49,9.84,-0.9057350364505594,-0.27962441928629994,-0.31851880303163155,-0.9870031923021085,-0.00857134172047442,-0.1604718993673273,1
50,10.04,-0.9076355850331033,-0.2754484420092184,-0.3167424830620468,-0.9875531136454231,-0.011937099834715496,-0.15683224597246057,1
51,10.24,-0.957457549643275,0.2523604601668346,-0.13996156177850833,-0.9904268951416848,0.07440520903954044,-0.11626878449431106,1
52,10.44,-0.9174640001836187,0.39726237625534827,-0.021033610698766365,-0.9830818823286347,0.16925294287641043,-0.07002466683150164,1
53,10.64,-0.9195557618580924,0.3923537542063218,-0.02181129051176359,-0.978225249102365,0.1989994891557881,-0.05894544371155286,1
54,10.84,-0.9530167901812343,0.14572624988774577,-0.26556140104750053,-0.9749825742870342,0.21448299085802006,-0.058361172616959,1
55,11.04,-0.9479580082710055,0.12301616204971469,-0.29367096967427136,-0.975176676284613,0.20697581503262302,-0.07868584384802957,1
56,11.24,-0.947258872952754,0.12109030571748221,-0.29671158634863665,-0.9743611552712702,0.20817802416206752,-0.08533609643294701,1
57,11.44,-0.947696871594729,-0.27353398768440573,-0.16446822535380803,-0.9776248235238028,0.18842600717911306,-0.0935165453200147,1
58,11.64,-0.9116161922928456,-0.33433090429223217,-0.23912081545660457,-0.9856442640221454,0.13704438698582236,-0.09861146381594396,1
59,11.84,-0.8824374762250009,-0.39906340320512507,-0.24910339374644172,-0.9925929298628275,0.07318074335584832,-0.09697347260057038,1
60,12.04,-0.8690095012303691,-0.4196789418975014,-0.2620917253541958,-0.9929256890950028,0.04571540634336519,-0.10958411179580406,1
61,12.24,-0.9549491479685719,-0.1224185436551563,-0.27034390128769126,-0.9938939589521324,0.026706152143719096,-0.10705876795542604,1
62,12.44,-0.957063337089675,-0.09435298092742535,-0.27409356758027814,-0.9936231465543816,0.03802540299831094,-0.10614665024477557,1
63,12.64,-0.9506997338634678,-0.11485902155409358,-0.2880580170721991,-0.9918710965539007,0.017312689523432127,-0.12606347053142736,1
64,12.84,-0.9538487389622359,-0.11150400322783273,-0.27881793422289064,-0.9919831555455435,0.021537755691800886,-0.12452126000674102,1
65,13.04,-0.9553578915053558,-0.09839728632128636,-0.2785844094400254,-0.9919163427014767,0.03102250240209409,-0.12304297390115079,1
66,13.24,-0.9604130354551154,-0.09333621259346346,-0.26247886152335986,-0.992757640277306,0.043353206297936826,-0.11203913233653662,1
67,13.44,-0.9628299370360115,-0.06719685839485057,-0.26161631174124567,-0.9913137825469134,0.07346532561423295,-0.10908634408085027,1
68,13.64,-0.9594473261480234,-0.07147470674118155,-0.27267598838854645,-0.9898567486211374,0.07549142079847074,-0.12035224383042738,1
69,13.84,-0.9576561095576577,-0.08764895804684798,-0.274248857755495,-0.9904789318541185,0.06462025357479594,-0.12155537166680037,1
70,14.04,-0.9566648296987834,-0.10724520700325794,-0.27072286418443914,-0.9922233658177606,0.04511768308546955,-0.11600511625904057,1
71,14.24,-0.9547116405559422,0.14928677987272082,-0.25736965777304693,-0.9914945072598458,0.06687339094836427,-0.11165389225917437,1
72,14.44,-0.8085896601160991,0.5542915004032043,-0.19734156717249446,-0.9589959400349823,0.2681531647409533,-0.09176419364780483,0
73,14.64,-0.7289949947795418,0.6597070693767763,-0.18262770929046254,-0.892743516904155,0.44595668756327,-0.06427787989033805,0
74,14.84,-0.6605614957151164,0.7350882288880629,-0.1526558421051075,-0.8359708772925842,0.5472569222964092,-0.04077441988955412,1
75,15.04,-0.6474735197912503,0.7470588863756366,-0.15060232885424946,-0.8145112571500015,0.5788936016975567,-0.03812623623641787,1
76,15.24,-0.6331679911262933,0.7594408861176695,-0.1494919245508055,-0.7935007486348475,0.6074486315868357,-0.036915063310491825,1
77,15.44,-0.6365747224131997,0.7551589537494531,-0.15654896153149403,-0.788024399786045,0.6138692669892425,-0.046712614869364774,1
78,15.64,-0.6508948652270657,0.744201983132796,-0.14999760905512452,-0.7934514219787242,0.6072377248655346,-0.04119692294419736,1
79,15.84,-0.7543538618621696,0.6077635159323646,-0.24814060488997217,-0.8015255417466285,0.5967132511494767,-0.0386018371375693,1
80,16.04,-0.7478145537287055,0.6221203917874565,-0.23181805657402568,-0.7910825982442297,0.6113155215086397,-0.02194666074323389,1
81,16.24,-0.7335085910532212,0.6395462916474437,-0.23009929963196685,-0.7755906782136195,0.6309043651126437,-0.02046416257632094,1
82,16.44,-0.7265213325328848,0.6481406935084357,-0.22821129418380137,-0.7698345125230683,0.6379770318943051,-0.0184426165091314,1
83,16.64,-0.7328710728789515,0.6417253725475971,-0.22602773450597227,-0.7770572231676871,0.6291989517234517,-0.01705142436963636,1
84,16.84,-0.7360904643089443,0.6393055919494955,-0.22239421857491765,-0.7814190804432586,0.6237679316381051,-0.017256540184295312,1
85,17.04,-0.7355246005689307,0.6398363753809359,-0.22273970166385013,-0.7806073276651316,0.6247726213685,-0.017645724236628472,1
86,17.24,-0.7341067604947459,0.6400946289544712,-0.22664097197891614,-0.7816643143207126,0.6232355180464092,-0.02404971440484082,1
87,17.44,-0.7312880137138973,0.6407646911660698,-0.2337486931583451,-0.7811862239247092,0.6234647376386089,-0.03224599930960972,1
88,17.64,-0.7297805863613183,0.6392153157648499,-0.24253675156927038,-0.7769565111412794,0.6284242294542046,-0.037703681916499095,1
89,17.84,-0.7919940856565518,0.5461536881243602,-0.27287637719891045,-0.7789030653412896,0.6251600301974122,-0.049849287311992986,1
90,18.04,-0.7928960765507059,0.5457677358648928,-0.2710228593299942,-0.7837927913258372,0.6192734569383679,-0.04657516287954762,1
91,18.24,-0.7727220858319727,0.5784818478944291,-0.26126486507782115,-0.7843705584369391,0.6186987787996259,-0.04443701350423674,1
92,18.44,-0.764967986818783,0.5928913007357863,-0.2516026324469716,-0.7861700306348032,0.6168586502970285,-0.03771058850510421,1
93,18.64,-0.7087686823563799,0.6879266141814954,-0.15621756755110922,-0.7844340747383741,0.6189839758099102,-0.039013075755540506,1
94,18.84,-0.7100381420357069,0.6866635437695758,-0.15600966159917612,-0.7838630214931056,0.6197234280884872,-0.038750951136106465,1
95,19.04,-0.7134873530207051,0.6835434371098846,-0.1539615752826437,-0.7825980278752822,0.6213669964799842,-0.03799187348844947,1
96,19.240000000000002,-0.7259064441319858,0.6720003068129567,-0.14654494877323063,-0.7867301677802457,0.6165294231958538,-0.03077520817564781,1
97,19.44,-0.7353403991513152,0.6613712433342164,-0.14785998737500788,-0.7895822083494155,0.6128951224042158,-0.030323343997347787,1
98,19.64,-0.8250171822595731,0.5071240472646635,-0.2493428355946524,-0.7936990665168879,0.6077887174428406,-0.02519259334423571,1
99,19.84,-0.8307277918403088,0.4938844047064206,-0.2568453438392618,-0.7968001633332223,0.6037378205873482,-0.02470108711351692,1
100,20.04,-0.8282279525623518,0.4914949831697934,-0.2692046435582035,-0.8043319694904006,0.5932636104165786,-0.032990474552207355,1
101,20.240000000000002,-0.8375817352472884,0.4693946678259682,-0.27950936048134517,-0.8161968920831382,0.5757376294562246,-0.04846457863175425,1
102,20.44,-0.8412247168715155,0.44236885176350843,-0.3108870771097984,-0.8220734994057914,0.5601156408576381,-0.10230166392270272,1
103,20.64,-0.8289518401855002,0.43530416566255176,-0.351210948021133,-0.8131302708591998,0.5625485145710873,-0.14952702553822173,1
104,20.84,-0.8273891332481449,0.4351761882005334,-0.3550336708062176,-0.809731234400578,0.565058300576817,-0.15825436798191603,1
105,21.04,-0.8439180525058814,0.40591663124201044,-0.35076204061417326,-0.8316399924223328,0.5333808583060409,-0.15453084804172043,0
106,21.240000000000002,-0.9005629669365672,-0.34307840931395167,-0.2669897894021726,-0.8817130881287574,0.4446752919936098,-0.1576258700621462,1
107,21.44,-0.8733415140885964,-0.40346260003801226,-0.2729331972113423,-0.9068763929103656,0.3876478022740816,-0.16524039873456808,1
108,21.64,-0.8630062996365515,-0.42288328530250385,-0.27638714477954346,-0.9145691569883438,0.3677396645472022,-0.16831754574120053,1
109,21.84,-0.8620656142902078,-0.425420265612998,-0.27542780227169034,-0.9156209481738927,0.3661177800155802,-0.16612058999896842,1
110,22.04,-0.8805876401871424,0.27172137187005274,-0.38824335669615356,-0.9129672858520744,0.373975250944967,-0.1631969566031963,1
111,22.240000000000002,-0.8775014231009397,0.2973789538905212,-0.37624062810760456,-0.9094048304232593,0.38483591945072915,-0.1577471695573499,1
112,22.44,-0.875530638304423,0.30831813079272946,-0.3720027306549339,-0.906707038365897,0.39276630364110643,-0.15367816143436377,1
113,22.64,-0.8708134867250507,0.3184005588839261,-0.37457303085001153,-0.90365705189863,0.39843606284930416,-0.1570115803850866,1
114,22.84,-0.8696694984775974,0.32214295239758933,-0.37403058917458726,-0.9045419787592753,0.3964323099847308,-0.15698800037717908,1
115,23.04,-0.8354992945641306,0.41634626489071425,-0.35860384339043483,-0.9035674147737265,0.39809143441619727,-0.15839550752334822,1
116,23.240000000000002,-0.9191944199428796,0.08924591255093871,-0.38355806006238913,-0.9070752746805681,0.3890661569126666,-0.16075438285900723,1
117,23.44,-0.9205935918885211,0.07892089843900595,-0.38246428638942365,-0.9069927271995107,0.3892358833675055,-0.16080926561088427,1
118,23.64,-0.8864467154563455,0.4170573715469723,-0.20068724298018498,-0.9074057213047241,0.3914712961698828,-0.15285640718833374,1
119,23.84,-0.8851398509853344,0.42389232797580845,-0.19194462347486999,-0.904881838246576,0.40567185186326543,-0.12891550495315388,1
120,24.04,-0.7924856939041902,0.6000675246443937,-0.10902013953552006,-0.8947676415608852,0.4347979259703651,-0.10169381095937274,1
121,24.240000000000002,-0.755919858097684,0.6487599968590323,-0.08772476622394411,-0.8636292987351092,0.49996083542049174,-0.06468073447285219,1
122,24.44,-0.704946132876934,0.7057713526931433,-0.07026910743383137,-0.8220642020982493,0.568403990158225,-0.03357605695696403,1
123,24.64,-0.7027664023854535,0.706602539180056,-0.0826573366526202,-0.8094441832066839,0.5865530142801018,-0.02748955641314426,1
124,24.84,-0.7148708347739555,0.6932250286118947,-0.09164469049337136,-0.8107690939427653,0.5848555151544007,-0.02444386836627964,1
125,25.04,-0.878112113374854,0.4440280443159992,-0.17820833932579278,-0.8212989140095971,0.5702050718036853,-0.018283050511624894,1
126,25.240000000000002,-0.7272076476814726,0.6857718595068949,-0.029765649027614742,-0.8235063711712654,0.567259275996414,-0.007360056817628472,1
127,25.44,-0.7317791360803951,0.6810137393578275,-0.026825040602012604,-0.8253949015864057,0.5645553970915911,-0.000678269801903884,1
128,25.64,-0.7364049340927661,0.676172271552352,-0.0223345523250672,-0.8274020863060555,0.5615710787803228,0.0066114335730773155,1
129,25.84,-0.8473167629201017,0.5269754024898341,-0.06596384195358433,-0.8329733085452933,0.5532048787427368,0.010946660967699638,1
130,26.04,-0.8563888898822832,0.5114109317635261,-0.07111208166656953,-0.8439906516890672,0.5362638652296999,0.010042246280887896,1
131,26.240000000000002,-0.8789739992031483,0.4632933443220927,-0.11297781123599011,-0.8516023016585142,0.5241875080590914,0.0009880307288004833,1
132,26.44,-0.9486782011777627,0.2831792832549682,-0.1407805531503809,-0.8652008183762894,0.5014114718020674,-0.0037523094600810086,1
133,26.64,-0.9527070087162757,0.2645593967950858,-0.1495248511462457,-0.8836845963425438,0.46794022724630596,-0.011553264109808606,1
134,26.84,-0.955740394388543,0.2554291936108468,-0.1460007725505086,-0.8965123480719784,0.44294344188901913,-0.008168050071916372,1
135,27.04,-0.9567765127178194,0.2577219087164423,-0.13475207782844226,-0.9035695100746876,0.42843457132779167,-0.0024410150676793087,0
136,27.240000000000002,-0.9630949654679435,0.24109803822576373,-0.11966546475065028,-0.9164387343434005,0.4001734150537348,0.0011331722276359786,0
137,27.44,-0.9948973975446543,9.001619607538274e-05,-0.10089182452487862,-0.9504875459663531,0.3107341273749075,0.004210350034729411,0
138,27.64,-0.9590484835791195,-0.23673875915417325,-0.15550165934398802,-0.990707927045592,0.13598301552309608,0.0025343200807471824,0
139,27.84,-0.918583138918672,-0.3683737737184421,-0.14319839290562497,-0.999340436575368,-0.03627738532389691,-0.0016257734820407507,0
140,28.04,-0.9308450688305475,-0.34243907196261325,-0.12752623191813559,-0.9907333057121936,-0.13581906767456045,0.0008353493894372843,0
141,28.240000000000002,-0.9176093880499651,-0.38536162129944307,-0.09741371459929853,-0.98117680416851,-0.1929017526611685,0.008999598986551038,0
142,28.44,-0.8851485025697783,-0.4560141261801763,-0.09253780374857536,-0.965305768322435,-0.260701913971066,0.01480829818908495,1
143,28.64,-0.8351731772055068,-0.5467901937094369,-0.05921358070287556,-0.9362118989772814,-0.3502549185642182,0.02878840452206622,1
144,28.84,-0.8002680509015674,-0.5976407125901514,-0.04895534047417734,-0.9145146951187854,-0.4035919672158224,0.027863890802576455,1
145,29.04,-0.7928598961908795,-0.6067494763645896,-0.05681776081019021,-0.9112420961126342,-0.41167802711494705,0.012611275232814296,1
146,29.240000000000002,-0.9003203095857765,-0.43425893691471346,-0.029026123700461332,-0.9146600688863871,-0.40403039160909227,0.012506040178779963,1
147,29.44,-0.8997868916807947,-0.4348451860207574,-0.03596128131737343,-0.9179752170290395,-0.3963637005234732,0.014741703694842049,1
148,29.64,-0.9019988756214432,-0.4285856547032975,-0.052080370200280904,-0.9247162585804355,-0.3805145123543591,0.010418589382713147,1
149,29.84,-0.9023765030738127,-0.4256210415018678,-0.0675527625722485,-0.9295065656569963,-0.3686332744358727,0.011271795740809597,1
150,30.04,-0.9598397770790126,-0.26408237963314235,-0.09470004806867192,-0.9412182689145442,-0.33654982099144787,0.029023925512123447,1
151,30.240000000000002,-0.9977239186768361,-0.05321050136552221,-0.041420099523877665,-0.9687037663917557,-0.2457121124465768,0.03519333424766372,0
152,30.44,-0.999049284314036,0.0016565577080721676,-0.043563555045159116,-0.9980070229448887,-0.03558854495120919,0.052109861071932106,0
153,30.64,-0.9359691272590178,0.34908448955666377,-0.04584552288889674,-0.9750364950952629,0.21401576021062485,0.05916998913143489,0
154,30.84,-0.9013604715412367,0.43054693223642293,-0.046675898328415594,-0.9306381736354059,0.36253644262374707,0.04979877048959398,1
155,31.04,-0.927840957163323,0.37062813152359103,-0.04178452265588769,-0.9029840622115604,0.4259159299962121,0.05670453215899886,1
156,31.240000000000002,-0.9418497425934952,0.3319810743961689,0.0520348788730409,-0.9065523888477389,0.4156886650673157,0.07325093862204977,1
157,31.44,-0.9537340856765292,0.2723103046011571,0.12742994870429744,-0.9251527253002803,0.3710731145898471,0.0799823636688377,1
158,31.64,-0.9539073490889318,0.2472569500493672,0.17007283735626774,-0.934990659102197,0.3452733555778046,0.08110966230777918,1
159,31.84,-0.8380673364632735,0.5442550279419017,0.037810105968040957,-0.9249100989894585,0.37129763563571255,0.08172744067104942,1
160,32.04,-0.8189111200128256,0.5727468296364566,0.03668305686182056,-0.9026881570274522,0.4228194463568378,0.07986117294956015,1
161,32.24,-0.8278123436546587,0.5603086072517902,0.02794616847692747,-0.899161853367703,0.4315968820279568,0.07233320725713274,1
162,32.44,-0.8453881678939581,0.5328691300754442,0.03700453752631692,-0.908192499290843,0.4107504255248629,0.08043924516675065,1
163,32.64,-0.8555919944780908,0.517274324322113,0.019738601320879758,-0.9109615181254023,0.4072225507513535,0.06571838901117313,1
164,32.84,-0.8588356940396402,0.5113703318526476,0.030027226717812185,-0.9093285566017456,0.4090522566385712,0.07614346647926293,1
165,33.04,-0.8657685449556086,0.500266420947454,0.01335419925990692,-0.9101449710733709,0.40882971142189306,0.0670402766144712,1
166,33.24,-0.8747893360551412,0.48448227546029954,0.004532360203681772,-0.9153904628857091,0.39672793823871516,0.06831722680807295,1
167,33.44,-0.8747432384347706,0.48441078164697005,-0.013056088113273615,-0.914552026029254,0.39951925465309834,0.06307897309895925,1
168,33.64,-0.875716869618518,0.4824165477500055,-0.019855445663851827,-0.9148790472734019,0.39868224460356483,0.06363015557089452,1
169,33.84,-0.8694888647240386,0.4935177834690029,-0.02071983399415412,-0.909086985188422,0.41061774101511095,0.07038411841227722,1
170,34.04,-0.8725309125710522,0.48795397975580407,-0.02430473715964968,-0.910889017125017,0.4061269086544959,0.07308989360892362,1
