,timeStamp,x_gaze,y_gaze,z_gaze,x_head,y_head,z_head,fixations_head
0,0.04,-0.9975052956519469,0.016636142105053542,0.06860338127368729,-0.9945209846935444,0.05748875562461741,0.0873101023989549,0
1,0.24000000000000002,-0.9992319042385672,-0.00520543471660412,0.03883947735459638,-0.9967628876309844,0.024271444554800077,0.07664621856794235,0
2,0.44,-0.9429709584575927,0.2661116221233844,-0.19997593874371586,-0.997935990063416,0.00679890121305098,0.06385557672157555,0
3,0.6400000000000001,-0.9351252497884119,0.2892476467869094,-0.20463764569696194,-0.998270034296084,0.034730014199976136,0.047442225286816436,0
4,0.8400000000000001,-0.8559206280647077,0.4646255561250952,-0.22698671998326855,-0.9899912678706944,0.13932055192252904,0.02251828927287728,0
5,1.04,-0.8360703949838494,0.49299112720694427,-0.24071984364978508,-0.9435775234852942,0.3306630532594589,0.01798339185168632,0
6,1.2400000000000002,-0.4995865817716419,0.8660900152347234,-0.017358940763860763,-0.8057139361053892,0.5889260600147801,0.06317554116134251,0
7,1.4400000000000002,-0.5368324607752135,0.8412272029193612,-0.06440265620684585,-0.7427580415249834,0.6665617693760676,0.06329217452590222,0
8,1.6400000000000001,-0.46114016393190294,0.8854560541489651,-0.057596227131672305,-0.7627205774134693,0.6437223583997744,0.0622803828367827,0
9,1.84,-0.5551649113856025,0.827828405834718,-0.08057326888842228,-0.8407442751180279,0.5400919416491959,0.03807569332085004,0
10,2.04,-0.9493811454690556,-0.2712752003621701,-0.1583830997812857,-0.9961886056407823,0.08469979725921234,-0.0208376182833541,0
11,2.24,-0.8735105473695104,0.1447287808249524,-0.4647933988721674,-0.9946756641985282,-0.016979044514606554,-0.10164661872678475,0
12,2.4400000000000004,-0.846688584575423,0.2035549805925133,-0.4916134768551905,-0.984115836166827,0.08401400990152269,-0.15638947261863345,0
13,2.64,-0.6330013100937835,0.5289859057219589,-0.5652284962447244,-0.9334314926590392,0.25613791296536087,-0.2511951792014873,0
14,2.8400000000000003,-0.5530350089308483,0.5835356093193007,-0.5946750974718961,-0.8772888643756366,0.3817098789128543,-0.2909670372788651,0
15,3.04,-0.4922205630443733,0.6126077126670512,-0.6184098217987198,-0.8154945123882381,0.4538324309475583,-0.3591724166537565,0
16,3.24,-0.4705928458123798,0.6064414847320899,-0.6409142681093504,-0.8026175732883584,0.45426865364142494,-0.38658119634497756,0
17,3.4400000000000004,-0.44828040546820436,0.5946780903493845,-0.6673849316036976,-0.7869336801070126,0.44265400019580997,-0.4298753531244632,0
18,3.64,-0.4778713017773589,0.3252954568733994,-0.8159790957341612,-0.7800638382423724,0.3937744441209247,-0.4862531186777466,0
19,3.8400000000000003,-0.49037978794901693,0.34031053695668084,-0.8023193890261738,-0.7686237006291832,0.31802644982670697,-0.5550466503292503,1
20,4.04,-0.5186682958244727,0.33014701099781274,-0.7886609854910711,-0.7954054916635301,0.27955953002433637,-0.5377514044649908,1
21,4.24,-0.5505591492492268,0.1767173381473225,-0.8158772000589871,-0.8036910557547885,0.2405201924006699,-0.5442708185704044,1
22,4.44,-0.562806977417018,0.16857389687601534,-0.8092163786421744,-0.8157478056861154,0.21427899170758488,-0.5372522975577383,1
23,4.640000000000001,-0.5669287582257739,0.18070216539386388,-0.8037029989483373,-0.8178097151885034,0.22700537065049878,-0.5288249534951324,1
24,4.840000000000001,-0.5486902178162709,0.37248342054750067,-0.7484618535970734,-0.8165131410920813,0.2681110849483555,-0.511295156002635,1
25,5.04,-0.5514815563369286,0.4023719411302431,-0.7307290291286362,-0.8125398154142913,0.30805814195761005,-0.4948527352052674,1
26,5.24,-0.5878522388986415,0.39817062247411894,-0.7041945048212372,-0.8370221404390927,0.31238015284662896,-0.44923554681511596,1
27,5.44,-0.6527367165545002,0.330603102840878,-0.6816424042367332,-0.8481320925464739,0.31884284877432256,-0.4230971417750465,1
28,5.640000000000001,-0.9238113336668035,0.14966555771382842,-0.352381668965585,-0.9294316199666375,0.2666616329907002,-0.2550459513439202,0
29,5.840000000000001,-0.9388218056466222,0.11828975486971334,-0.32345193017708057,-0.9631822323294856,0.20490191391795776,-0.17405514355383633,0
30,6.04,-0.9378300168758904,0.0625666741042638,0.34140924231499364,-0.9856870247384915,0.1562685883872008,-0.06325517801455148,0
31,6.24,-0.9152975238493873,0.046308418180311096,0.4001074521185753,-0.9914920565175641,0.13014814869281185,-0.0022273873496185914,0
32,6.44,-0.9243495762774536,-0.37872658664679093,0.04630370830250331,-0.9918581114777767,-0.08928634707582284,0.09080437721604512,0
33,6.640000000000001,-0.9344669146892269,-0.3547262929880777,0.030673154616600445,-0.9839289428766631,-0.13801917448276593,0.11328964138308653,0
34,6.840000000000001,-0.8710384959792525,-0.4880875770550048,0.05533945831661566,-0.9631754787449609,-0.22955079898487682,0.13999795652015912,0
35,7.04,-0.8799160079212607,-0.475058915926338,0.008175903791296861,-0.9451297051559304,-0.295551046122859,0.13920998372080845,0
36,7.24,-0.5664125742818383,-0.8183429420550041,-0.09742497053723714,-0.8321315115147606,-0.5414764649517946,0.11983482568714271,0
37,7.44,-0.4244041657180368,-0.9018679893997208,-0.08071699831685022,-0.6945158963742819,-0.7041362614932168,0.1477829318080553,1
38,7.640000000000001,-0.4175583078576058,-0.9030975543721642,-0.10029888746197135,-0.678280131743043,-0.7267275426173629,0.10864226472220254,1
39,7.840000000000001,-0.3176100622191165,-0.9419315903282284,0.10903544157246808,-0.6435679159791592,-0.7539230368483041,0.1319863327457543,1
40,8.04,-0.33226192770482976,-0.9363051932792271,0.1137303672561539,-0.6262612574288784,-0.7595787556633989,0.1756045312298134,1
41,8.24,-0.43976683792155485,-0.8669036887618918,0.23469793922295598,-0.6250546474094913,-0.7433362644089756,0.23823913567318475,1
42,8.44,-0.6183433074209806,-0.7522065149405575,0.22767721240533423,-0.6425649213703194,-0.7208281491144857,0.25984053045770283,1
43,8.639999999999999,-0.6492676286834927,-0.7193773991831945,0.24687588761994766,-0.6805281613478676,-0.6760634226255696,0.2825237515684149,0
44,8.84,-0.6868022508559815,-0.634895878335287,0.35385009805286516,-0.7274545266801713,-0.5902994955469579,0.34979482153047264,0
45,9.04,-0.4906175119016873,-0.8268428220846822,0.27500073560344507,-0.6608055569906752,-0.6657724875512946,0.34652995638184736,0
46,9.24,0.08468788242836234,-0.9962264360903418,0.018996068133590702,-0.37490321393983217,-0.8865039478975272,0.27121639061768243,0
47,9.44,0.03604196701832324,-0.9990888263150755,-0.02285812209730671,-0.22391365708248184,-0.9555807347051022,0.19164585472273132,0
48,9.64,0.21098695892336,-0.9594295413117218,-0.18702796160641721,-0.14964688197973897,-0.9794970826232249,0.13487503789187177,0
49,9.84,0.3177505175592954,-0.9396154526013054,-0.12711180048934848,-0.11060969124423292,-0.9877759461591885,0.10983704471705069,0
50,10.04,0.30766092265650424,-0.943012572975138,-0.12677556499956494,-0.11798517891257482,-0.9878110346102764,0.10153254384256861,0
51,10.24,0.24108449226825962,-0.9611487265500184,-0.13442988149601778,-0.19207852742813014,-0.9773496499076263,0.08884537763148932,0
52,10.44,-0.6070758394693714,-0.7615234047236822,-0.2270264944683974,-0.31878818004754556,-0.9467849758063979,0.04441065017822064,0
53,10.64,-0.5640893587821731,-0.7798665761189116,-0.2713140592768505,-0.5662732306765681,-0.8236669200203348,0.030123629982749697,0
54,10.84,-0.7382053294661598,-0.6118803223879575,-0.28399887785371286,-0.6732280449557526,-0.7382589164165142,0.041686590368726205,0
55,11.04,-0.7293119827984393,-0.6228413520378636,-0.2831478093474413,-0.7033321821118343,-0.708740772419392,0.05486673961672324,0
56,11.24,-0.8604735035317301,-0.4378653351164807,-0.26049817278277015,-0.8594191912581824,-0.5054105063188467,0.07719374197212328,0
57,11.44,-0.9958669462517092,0.058900764873802455,-0.06913555713651338,-0.9769247614208607,-0.1865905723274066,0.10393252061470126,0
58,11.64,-0.9968398371946858,0.043464328467782955,-0.06649203811372244,-0.9855966265620709,-0.09920856664432413,0.1369560148874253,0
59,11.84,-0.9972101824810327,0.06480709181342975,-0.03703907135487386,-0.9823960369451135,-0.03656531325667256,0.18319662786464339,0
60,12.04,-0.9753667004424696,0.21247388768677686,0.05928445596644241,-0.9766660455454397,0.023165613110472782,0.21351063169746112,0
61,12.24,-0.9615449769549105,0.2702343550050949,0.04903723756250352,-0.9716388376023284,0.11644119739595553,0.20581403453553024,0
62,12.44,-0.7434089333327402,0.6679440539041702,0.03455283917626148,-0.9246678452604397,0.32027592214871853,0.20594346222496118,0
63,12.64,-0.6758395396901844,0.7316602856445842,-0.08896146919788048,-0.8903985205363867,0.40932060846576773,0.19911583089204005,0
64,12.84,-0.6431356655739224,0.7569627728819168,-0.11568870358728905,-0.8691343339731717,0.4599585270817094,0.181779159624628,0
65,13.04,-0.6406400217662938,0.758202023643084,-0.12128501084146882,-0.8608205615987155,0.47906116869155524,0.1717217440534351,0
66,13.24,-0.6111108977085311,0.7818485861418878,-0.12351622990443097,-0.848693229139544,0.5051247210515231,0.15674443848288397,0
67,13.44,-0.621276206819405,0.774197630997581,-0.12097066998998424,-0.8621581286579171,0.4831370766892479,0.1525186097407352,0
68,13.64,-0.9969717092907814,0.07467388520022902,0.02170764250029781,-0.9426486529381186,0.30518147927984784,0.13519534688188928,0
69,13.84,-0.9852760907000067,-0.1447703896734931,-0.09095361108112891,-0.9851446348164321,0.1346537607965357,0.10657585653302695,0
70,14.04,-0.9784786237914831,-0.1858711784354384,-0.08961856844508903,-0.9950743845642424,-0.032399278710384886,0.09368701042909591,0
71,14.24,-0.9411341376751636,-0.3260422464796731,-0.08923557817885275,-0.9863654533779902,-0.1360411920825158,0.09260662200512537,0
72,14.44,-0.9585849906551456,-0.266948253889891,-0.09926452254361764,-0.96724106768311,-0.23405120582545455,0.09830946057672979,0
73,14.64,-0.9036971268637691,-0.4225410485676746,-0.06921390881534406,-0.961417049120075,-0.2542680289446982,0.10500012913242435,0
74,14.84,-0.8281786287741988,-0.5594047259822512,-0.03444577463797912,-0.8977499549882816,-0.41571994492726466,0.1456775401639212,0
75,15.04,-0.7466383638329077,-0.663247683262031,0.05131923908698755,-0.817849803172725,-0.5505098650173033,0.1675129486605914,0
76,15.24,-0.6480505205848786,-0.7590709396709705,0.06198250815107344,-0.8025511251075861,-0.5710211386227383,0.17276154327436255,0
77,15.44,-0.6026828340818624,-0.7949750093757794,0.06919635807637584,-0.7489726637711778,-0.6362036475011197,0.1851617342481355,0
78,15.64,-0.19633087018840073,-0.9596025539700656,0.2015369142990759,-0.5532370213133955,-0.7917339929756012,0.25900981181258786,1
79,15.84,-0.283524070236426,-0.9403189041413337,0.1881873006103545,-0.528370831181171,-0.8045957473546317,0.27101650889892365,1
80,16.04,-0.30342359996872453,-0.9330278975966149,0.19337285561438217,-0.5371256429358924,-0.797751638418828,0.2740225667728481,1
81,16.24,-0.31901358485529335,-0.9271502767976173,0.19652658067517523,-0.5486825908836316,-0.7878934323512156,0.2795914049448702,1
82,16.44,-0.5960988141885877,-0.7608533915030934,0.25645334928832675,-0.5646194361765613,-0.7730734897574316,0.2890713955512173,1
83,16.64,-0.6081570620815121,-0.7463574973808378,0.27036174645056,-0.5812539336830128,-0.7548554828225137,0.30387014435579857,1
84,16.84,-0.35225870548530064,-0.6616072382835021,0.6619589614626409,-0.5896721271562113,-0.7401383789622196,0.32323669723941745,1
85,17.04,-0.3518458300052125,-0.6466009527487859,0.6768395081644583,-0.59311515501321,-0.72818699038986,0.3434503165242593,1
86,17.24,-0.3631032788878197,-0.6181774678499126,0.6971460586588614,-0.5938437125458522,-0.7136141177043408,0.37162418662247293,1
87,17.44,-0.3533102643881952,-0.6113943628039747,0.70807400051793,-0.5863343046184855,-0.7133465567551651,0.383860356370786,1
88,17.64,-0.3527041287169063,-0.6108060418858821,0.7088834719343868,-0.5881177244538698,-0.710595795290385,0.3862268218273141,1
89,17.84,-0.5102084623072247,-0.7650223076058726,0.39297352818667364,-0.5909104406347336,-0.7096003394096716,0.38378667180941023,1
90,18.04,-0.33022353554170336,-0.9004394295191809,0.2831276220037702,-0.5720626986922601,-0.728061869983154,0.37771706638906566,1
91,18.24,-0.3282628502682687,-0.9032941066237473,0.27623044378300926,-0.5608227441221703,-0.7393372637804725,0.3726369010992915,1
92,18.44,-0.33575766251965594,-0.9026405554727334,0.26927090387788344,-0.5647511630292011,-0.7432612742116268,0.35863463596601125,1
93,18.64,-0.3537168373170838,-0.8953585159544504,0.2705873738854862,-0.5770735512881049,-0.7343926190883899,0.35728643611566097,1
94,18.84,-0.3681947220393481,-0.8914121587706041,0.26422908594304834,-0.5902908682616038,-0.727605525456887,0.3494951933454446,1
95,19.04,-0.5990844138497537,-0.7676960100448718,0.22746582434177068,-0.6159115010167973,-0.7051437030513895,0.3513194855999448,1
96,19.240000000000002,-0.6061577523128702,-0.7642969127820748,0.2200522856568388,-0.6355421692659176,-0.6916407113921164,0.3431024299386111,1
97,19.44,-0.5980999381464454,-0.7714100202465934,0.21726261678523734,-0.6381746389806935,-0.691917345347799,0.3376144507699822,1
98,19.64,-0.5909560110796757,-0.7757528954375525,0.22131072768632873,-0.6369969981980782,-0.6925808324410774,0.3384769044142627,1
99,19.84,-0.5879552112569262,-0.7778757909645406,0.2218511288840194,-0.6376816933006699,-0.6918397994992531,0.33870304081602787,1
100,20.04,-0.586177588182575,-0.7791999920471488,0.2219081059947629,-0.6387332054024603,-0.6907268917861354,0.33899299886540896,1
101,20.240000000000002,-0.5874103951417864,-0.7793923286691481,0.21793720584391552,-0.6426005485739679,-0.6889749098587765,0.3352284423457029,1
102,20.44,-0.5890810723266124,-0.7790060780082628,0.21478598802694945,-0.6460440097747268,-0.6872942802548293,0.3320447406046198,1
103,20.64,-0.5858918222208183,-0.7811940286962681,0.21556127245881507,-0.6449352194030895,-0.6879677122640045,0.33280473202122723,1
104,20.84,-0.5853626965127171,-0.7811785332864539,0.2170497930516994,-0.6462926570949746,-0.6860223372530393,0.3341843116829317,1
105,21.04,-0.5778417664067759,-0.7761970846014503,0.2522240647759568,-0.6350550069180303,-0.6772218484705284,0.37158539549140135,1
106,21.240000000000002,-0.3431645697357274,-0.8379683329942746,0.42431963303256404,-0.6006841550880289,-0.6845058262603869,0.4130742301835907,1
107,21.44,-0.3365920636665322,-0.8469254771286278,0.4116102754635158,-0.6065973947924685,-0.6794899001977448,0.4127142790845125,1
108,21.64,-0.5751270138970817,-0.6671603612744713,0.4734194442879832,-0.628857297198306,-0.6390129070150509,0.4429458256137153,1
109,21.84,-0.8480224913361484,-0.02721288119627928,0.5292611012392933,-0.7452335632234841,-0.4302162642760154,0.5094515700217437,0
110,22.04,-0.8665511849489478,0.03744744164369835,0.4976813568719612,-0.8224845768537852,-0.17584379753673168,0.54092335843954,0
111,22.240000000000002,-0.8940536313726055,0.25087737909826313,0.37111810099514614,-0.8990494828869801,0.2098139796828956,0.3843021223598427,0
112,22.44,-0.9036503156889276,0.4251735496048007,-0.051415558654514165,-0.9231729070950628,0.32464034623274857,0.20581649400262356,0
113,22.64,-0.7914800168835272,0.5503056211878794,-0.26593816229167644,-0.9413571820888781,0.3314165139588912,0.06332258684721535,0
114,22.84,-0.7766128308028268,0.5652209801903751,-0.2782045193469214,-0.930798953251364,0.3655269224073682,0.001837830667765929,0
115,23.04,-0.9031684695785858,0.35198642113516854,-0.24574839754417738,-0.9453621266854643,0.3243169627675321,-0.03330100734181434,0
116,23.240000000000002,-0.9765021732837216,0.09039910785348347,-0.1956310478207981,-0.978979334501968,0.20001652437210518,-0.03991055745272592,0
117,23.44,-0.970687365052802,0.12055544037791395,-0.20792408499771187,-0.9747291534432703,0.21787199209006583,-0.049344427147063864,0
118,23.64,-0.9631310168326306,0.17446668353248673,-0.2047926286566932,-0.953203434335004,0.2994195531901216,-0.04184667178381155,0
119,23.84,-0.5039089602829002,0.8575760350498035,-0.1031460316971282,-0.8563584005233289,0.5159568428492447,-0.02094817820636853,0
120,24.04,-0.5618934324723528,0.8156848088986307,-0.137601101290803,-0.8421551167076116,0.5386249866415133,-0.025649233294957923,0
121,24.240000000000002,-0.5643322919281091,0.7785612605445513,-0.27453857263861353,-0.84078612315553,0.54029944448781,-0.033988312627397585,0
122,24.44,-0.5325173481832897,0.79907754349849,-0.27910634776059057,-0.8123574260246171,0.5817507069542682,-0.04051576657139987,0
123,24.64,-0.2556339769148746,0.9163923273770787,-0.3080200840385361,-0.6754225679418389,0.7357972202924886,-0.04905920224279001,0
124,24.84,-0.2182043876979416,0.9174787346839911,-0.33259527445835624,-0.5374865040692451,0.8399761929510237,-0.07448659757920362,0
125,25.04,-0.22588125600413878,0.909117929342963,-0.34997464012861884,-0.5027180626524348,0.8588484239042786,-0.09825443623633039,0
126,25.240000000000002,0.22205636720408384,0.9716678585492619,-0.08094777604367671,-0.2705904276958719,0.9612813245605566,-0.052144371608708884,0
127,25.44,0.24811950885537537,0.9640277564930775,-0.09532677502303163,-0.06496742733936578,0.9976915566145947,-0.01976844062771117,0
128,25.64,0.22450892053589128,0.9744663287364949,-0.003334480263275699,0.09231335684434355,0.9957214708390425,-0.004122700360528119,0
129,25.84,0.2532733699251523,0.9673279280722871,0.011370121289318596,0.18903010085502836,0.9818877788543535,0.012806666514046001,0
130,26.04,0.2657179587948744,0.9639183037907912,0.015983428636222655,0.24864007403189464,0.9685306276281782,0.011248863568419538,0
131,26.240000000000002,0.23146970360985564,0.9728396086819466,-0.0022072812060625843,0.35435079295984395,0.9350799252955153,-0.007813375586976057,0
132,26.44,0.7395433278357506,0.5987831878849585,-0.30746440470394265,0.5155519048406827,0.8541012120160167,-0.06868298950915838,0
133,26.64,0.7872499175852106,0.4674724097781989,-0.402128229994169,0.7118654810288056,0.6859464856763278,-0.1507479874091936,0
134,26.84,0.9207732524910271,-0.028144275137243442,-0.38908163317496053,0.8814497134725614,0.4424284516224002,-0.16523761016834196,0
135,27.04,0.9049212322319591,-0.26653536667686706,-0.331777729460886,0.9566428774555017,0.22677400076841273,-0.18277843852365727,0
136,27.240000000000002,0.941814937432565,-0.31473100285201916,-0.11802126703546513,0.9909306593689435,-0.026108047465374647,-0.13181349771619286,0
137,27.44,0.9639272302295989,-0.25026183887989356,-0.0906272962321399,0.999534397233019,0.015482706644589329,-0.02629210039124872,0
138,27.64,0.8546304729236862,-0.4968048740929805,-0.15096910885242307,0.9990278368919384,-0.04130556981904765,-0.015402305572162735,0
139,27.84,0.723314408769496,-0.656527394955115,-0.21398141447304556,0.9548583739043436,-0.2830213876640265,-0.09024621825584636,0
140,28.04,0.6562068724360411,-0.6977229381780786,-0.28735908217395634,0.889729554624801,-0.42787547007109494,-0.15907200174321395,0
141,28.240000000000002,0.8948468709778611,-0.34280453298336827,-0.2858918146208217,0.9886254382067625,0.045778866319934025,-0.14326213152451853,0
142,28.44,0.24787706299772938,0.9659692139024696,-0.07389478623194225,0.5970234320253037,0.7976346814672425,-0.0856851009999888,0
143,28.64,-0.4636827849946186,0.8859393842198205,-0.010472935970384652,-0.26422730138634254,0.96445937843029,-0.0014284816937697557,0
144,28.84,-0.9984363439370474,-0.006969816800441855,0.0554643016668465,-0.8793772172948594,0.4607671656373102,0.11995552831491153,0
145,29.04,-0.913937175926463,-0.4035504881336631,0.04319539311829208,-0.9433193932911788,-0.28760066804036677,0.16563326351762053,0
146,29.240000000000002,-0.38227144845536465,-0.9230883270044412,0.042148312468941726,-0.6507274342702357,-0.7382400290204371,0.17763858207039473,0
147,29.44,-0.07632405165331874,-0.9957081015406747,-0.05234515894987074,-0.38291622082435556,-0.9123259526652584,0.14503973222197553,0
148,29.64,0.19294705187698818,-0.9717556935207528,-0.1358760732505179,-0.21355719916152566,-0.9725592125884058,0.09231414136363439,0
149,29.84,0.4509519928893514,-0.8844001172755134,-0.12032760561143441,0.05858845997479056,-0.9960336714827726,0.06696504782594302,0
150,30.04,0.39021432327291344,-0.9100156940731148,-0.14001506509404496,0.10749151615620889,-0.9924976292183338,0.05825830370364595,0
151,30.240000000000002,0.376925097071501,-0.9131893250817218,-0.15496040705428452,0.09585853310494152,-0.9948591676196802,0.03265544723389436,0
152,30.44,0.32749205675056325,-0.9317405394063939,-0.1568710298046391,0.06340279563153889,-0.9978930237943142,0.013769479610550552,0
153,30.64,0.27700133840767927,-0.943293217702931,-0.1829430620603182,0.006129405319502401,-0.9997058118440573,-0.02346742754636179,0
154,30.84,0.0230093833027179,-0.9764459799974758,-0.21453162104174264,-0.05081396708696856,-0.9977172408775854,-0.044477499980358715,0
155,31.04,-0.00861257592888226,-0.9790704835037702,-0.20333915478225859,-0.10847214748991252,-0.9934866767874457,-0.034900089752950086,0
156,31.240000000000002,-0.14914740972670243,-0.9796827027153853,-0.13407778403633316,-0.25498730025754696,-0.9661600825264302,0.03893804874270673,0
157,31.44,-0.4711911800395666,-0.8811344811180387,-0.03976050851995795,-0.46396473510681074,-0.8782788729862187,0.11559820865102031,0
158,31.64,-0.537130309272015,-0.840315915355488,-0.07321334073526355,-0.49706275406962336,-0.8603689828849566,0.11266690643763484,0
159,31.84,-0.5740417246213367,-0.8166325952486232,-0.05989409629721085,-0.5320665254750785,-0.8386530851560262,0.11647409680764398,0
160,32.04,-0.710665053307028,-0.7006260961327943,-0.06386122004659808,-0.6829728584485151,-0.7231263668912975,0.10313259489248498,0
161,32.24,-0.862279205630275,-0.4777612778072892,-0.1679843235708872,-0.8007204847732445,-0.5977247115205996,0.03964687253890928,0
162,32.44,-0.8619571685827034,-0.42470626916266535,-0.27686535439238136,-0.8504113304345947,-0.5253882150404271,-0.027709070087188054,0
163,32.64,-0.7948184002993466,-0.22920793732417222,-0.561896282256064,-0.9173631193313203,-0.3319316745408901,-0.2196958596041136,0
164,32.84,-0.7470752592112069,-0.05371621005361409,-0.6625655634365433,-0.9116491245587661,-0.23801154851721998,-0.33503190365048835,0
165,33.04,-0.7178054678561221,-0.06161663916372065,-0.69351186009615,-0.8880193684650988,-0.23074604650836678,-0.3977158071432486,0
166,33.24,-0.6425791183046917,-0.6783271438039244,-0.3563205897749599,-0.8549021935619014,-0.38105271216952147,-0.35205265229976773,0
167,33.44,-0.6185613898082805,-0.6927671372982753,-0.370749916409972,-0.7686391435671025,-0.5613119118369587,-0.30679440119788637,1
168,33.64,-0.5943419839034021,-0.7166409635748695,-0.36494292087427993,-0.7538565359633616,-0.5892415848790495,-0.2906796825279453,1
169,33.84,-0.5944145452482752,-0.7218493666156106,-0.35440773173553697,-0.7467076054442754,-0.6071864858667156,-0.271573789885006,1
170,34.04,-0.6426037317808502,-0.6503548359776453,-0.40509138625971225,-0.7433259453688408,-0.6150160941526043,-0.26310025251754204,1
171,34.24,-0.6477813528878564,-0.6474371113502515,-0.40150280907762137,-0.7383657597344112,-0.6247466517953646,-0.25398351506014594,1
172,34.44,-0.6070098168370931,-0.6902300553076667,-0.3938547359285834,-0.6788302745333716,-0.6942514065153431,-0.23917450309014013,1
173,34.64,-0.6038187052824102,-0.6937488885742839,-0.39257540772827265,-0.6560058927419355,-0.7177936232596804,-0.23329934225281523,0
174,34.84,-0.6272677783495476,-0.6750338478064032,-0.3884127167847423,-0.6657650220947462,-0.7111458516935234,-0.22589491577783583,0
175,35.04,-0.5644007333958803,-0.7389037178697596,-0.36806671658877177,-0.5892085296407563,-0.7830528245706077,-0.19915215924154925,0
176,35.24,-0.10039383335296276,-0.9760605776325395,-0.19294254848615244,-0.3983165805556831,-0.9071494140227185,-0.13573445506821982,1
177,35.44,-0.08136479093068583,-0.980623888786862,-0.17820370236708874,-0.3161988687264881,-0.9427935079550671,-0.10563463813478882,1
178,35.64,-0.04303812000813051,-0.9833310480062178,-0.17665721115527439,-0.2966008646317632,-0.9494690072838301,-0.10264760741073807,1
179,35.84,-0.047636579418341596,-0.9843668083091132,-0.16956633805284127,-0.306580678479006,-0.9471796986119725,-0.09412176220559003,1
