,timeStamp,x_gaze,y_gaze,z_gaze,x_head,y_head,z_head,fixations_head
0,0.04,-0.9945582327260183,-0.0444805883482815,0.09420933593381152,-0.9964457757701495,0.01681574409230295,-0.08254118184547125,0
1,0.24000000000000002,-0.9997799626454388,0.010788786832600318,0.017989674020558885,-0.9842584778792427,0.06425851771306611,-0.16463927728265865,0
2,0.44,-0.942454695450463,0.2846455109717875,-0.17537411470050285,-0.9687754383927811,0.07154226152256796,-0.23739388109871692,0
3,0.6400000000000001,-0.913098240174296,0.3454907493964019,-0.21653578427621722,-0.9395625202462385,0.14026882040922395,-0.31232503673183426,0
4,0.8400000000000001,-0.8057864727166657,0.5583336849828671,-0.19741240234667848,-0.8861295734918939,0.3404852849994764,-0.31439489449082936,0
5,1.04,-0.5461584751974535,0.8187463138755257,-0.17710277661638105,-0.7600039657668032,0.5731925256424932,-0.30634017132317415,0
6,1.2400000000000002,-0.44505068883786303,0.8946063954038458,-0.04011585306934908,-0.6098092129354638,0.7405501420063472,-0.2823441357517619,0
7,1.4400000000000002,-0.3306060365030255,0.9428529453809871,0.041568882762921415,-0.5193558340412456,0.817868293313155,-0.24771147014288528,0
8,1.6400000000000001,0.060980908335839634,0.9976485486899463,0.03128421511529245,-0.47315632440648947,0.8351955051648436,-0.2803061912027319,0
9,1.84,0.13793749916201486,0.9904388778858296,0.0020187860679346426,-0.38684028986130314,0.8766786990870836,-0.28598784713166,0
10,2.04,0.11655261790203308,0.9930596124542203,0.015750980047485805,-0.1915687054364919,0.9332119251910168,-0.3040015358162903,0
11,2.24,0.027842184035581696,0.9991823683111353,0.029315655276317815,-0.09180524810507346,0.9569301514828222,-0.2754205540685537,1
12,2.4400000000000004,0.19616358763774766,0.9794060039112096,0.04778834991672614,-0.010764489346937633,0.9718906443166958,-0.23518652439877918,1
13,2.64,-0.033405461275965775,0.9988091036400824,0.035559100700600456,-0.02714518367563723,0.9674663962137476,-0.25153908483653187,1
14,2.8400000000000003,-0.06456473247210742,0.9977626100699906,0.01735422908473967,-0.06167606688097543,0.961181734505085,-0.268934445595743,1
15,3.04,-0.0806919852141546,0.9959226221457906,0.040335272658696485,-0.08768743197476192,0.9634049314379517,-0.25330189962711935,1
16,3.24,-0.10416910780069355,0.9926667690324612,0.061330927260737585,-0.11621990305624519,0.9620349549481764,-0.246944689336413,1
17,3.4400000000000004,-0.11936933196189942,0.9894625437447792,0.08194410969118623,-0.14069337992779646,0.960469929888081,-0.24021425150327289,1
18,3.64,-0.052061020690856386,0.9969109509895641,0.058806512579044824,-0.16264246679339783,0.9568887213753103,-0.24064788156159225,1
19,3.8400000000000003,-0.020865074576638,0.9992768782565535,0.03178630593114734,-0.1494588814038718,0.9628502367564507,-0.22490323329723572,1
20,4.04,0.00829278899663416,0.9978889903970567,0.06441112089538774,-0.11887216644585408,0.974801244425909,-0.1887642495552821,1
21,4.24,0.028607104819146245,0.9990163529422355,0.03388155999745761,-0.09899738419852894,0.9728667907354426,-0.2091165354675943,1
22,4.44,0.0801831983288655,0.9961901880030468,0.034289415746084684,-0.05038556470482897,0.9770510995664248,-0.20696000508652931,1
23,4.640000000000001,0.0823884825236732,0.9955804789907187,0.04507380392264964,-0.04357742975969536,0.9799648263854439,-0.1943449167405352,1
24,4.840000000000001,0.040596286167962514,0.9965938393461596,0.07178203763233532,-0.07856201463308038,0.9824007687837215,-0.16946014088848402,1
25,5.04,0.06405068062224167,0.9921209283273016,0.10767345952833912,-0.05546300752053829,0.989984937896374,-0.12982171442054458,1
26,5.24,0.0956406194497294,0.9891665914872713,0.11136573169842776,-0.022533109368076176,0.9920976313158458,-0.12342831490259766,1
27,5.44,0.09611467094337173,0.9871538452642382,0.12762936891435409,-0.02107306374749679,0.9944781764332342,-0.10280604351069647,1
28,5.640000000000001,-0.023035982162157298,0.9828978853015556,0.1827049276717931,-0.038697810421884804,0.9960603001488235,-0.07978946005574927,1
29,5.840000000000001,-0.06063764659035292,0.9713554162761275,0.22976451224463387,-0.09833284376577262,0.9936663235889598,-0.054386479957218715,1
30,6.04,0.24449877349207766,0.9696446577923036,-0.0030963487717131986,-0.13313690828059355,0.9894815268086964,-0.056576247293508505,1
31,6.24,0.22824889642953694,0.9735999744983793,-0.0023517940925349796,-0.163657793998774,0.9838881530655502,-0.07197380579568881,1
32,6.44,-0.05567142103771677,0.9920977509240714,0.11243996394094452,-0.18707163951933636,0.9791930589717193,-0.0786457560784731,1
33,6.640000000000001,-0.03627901376234133,0.9935992327184223,0.10697849270668582,-0.16035210926226318,0.9829538623842424,-0.08993834265230381,1
34,6.840000000000001,-0.3732424284216572,0.9217143821200519,0.10551155111624239,-0.16873860109336353,0.9816398887859514,-0.08894050396394108,1
35,7.04,-0.392377624030674,0.9132557042195416,0.10956194079383916,-0.19520199257569576,0.9773503914313502,-0.08174591404752284,0
36,7.24,0.17845490093659638,0.9782075374278874,0.10613134339571094,-0.10101148789395953,0.9929881078278981,-0.06141088686722695,0
37,7.44,0.17019421007525354,0.9776639730547159,0.12331701686194325,0.024294802678125227,0.9992442906970838,-0.0303415568505158,0
38,7.640000000000001,0.16179578441060727,0.9800004931487706,0.11584971978871063,0.15834556517396647,0.9873837495689842,0.00011435397234200393,0
39,7.840000000000001,0.2495042334301476,0.9604477012985262,0.12364404785840588,0.40881106719417587,0.9111202589265324,0.052281785673477785,0
40,8.04,0.8372941096743162,0.5375463898986709,-0.09991222453534239,0.6401364867842191,0.7644190985559147,0.07673799613307794,0
41,8.24,0.7602255459707873,0.5370833216186898,0.36551145658166956,0.734344058063379,0.6636225990159061,0.1426318704300787,0
42,8.44,0.6883543026614238,0.4635627823180615,0.5579228448961763,0.7482854505306542,0.5931375831416176,0.2970802786942562,0
43,8.639999999999999,0.49468757999599045,0.4868807512080924,0.7198828601243081,0.7216465697573826,0.5282604602086501,0.44740039621970434,0
44,8.84,0.18713741713191406,0.5458896511778376,0.8166909304297034,0.6422239285948219,0.49637142789615024,0.5840923138584946,0
45,9.04,0.06818914311599429,0.5081313476053234,0.85857601547091,0.5436251739200724,0.487071395514963,0.6835445310669069,0
46,9.24,0.2134478631747827,0.2852111274880436,0.9343953245083786,0.43470196785618453,0.4663272660812328,0.7704369409959287,0
47,9.44,0.16446939195072688,0.23635344243014073,0.9576465263147881,0.4073350950903619,0.4336706129878242,0.8037461786773802,0
48,9.64,-0.04278587842690612,0.36499286878271203,0.9300266524917467,0.4043916196845685,0.4219496385138974,0.8114344831758646,0
49,9.84,-0.3046722615925565,0.3882826711738061,0.8697191387351498,0.30512685524393945,0.5040441963926435,0.8079833230282899,0
50,10.04,-0.32379217145319417,0.4556412690631845,0.8291861453450099,0.1765947732352095,0.5584716995045789,0.8105082645590189,0
51,10.24,-0.37336381037058786,0.44855168846129045,0.8120350041002429,0.10341596232048372,0.6025334705263011,0.7913649952031362,0
52,10.44,-0.4073613863119432,0.42443667352773534,0.8086471487037611,0.049013790246475675,0.609384217089788,0.7913586572013608,0
53,10.64,-0.41112707714714486,0.4249805604915945,0.8064527572280323,0.026262989254328073,0.6347339787018623,0.7722842945941156,0
54,10.84,-0.38270900280890596,0.468423102912231,0.7963125114093653,0.037703783536148866,0.6861374766151742,0.7264941760889904,0
55,11.04,-0.14247709272442757,0.5490288693173199,0.8235700205234162,0.031134042718025612,0.7606980869310517,0.648358767908224,0
56,11.24,-0.5198080368708371,0.5374581323822764,0.6640318973819269,-0.17021936701345247,0.7908794100754918,0.5878223590611212,0
57,11.44,-0.5483844087738992,0.5001067453392042,0.6701998086242117,-0.3733228523052463,0.752835753565054,0.5420962793644806,0
58,11.64,-0.7531089504669631,0.44936735614825685,0.480516272310184,-0.45019317003375187,0.7729237322709959,0.447118567884667,0
59,11.84,-0.838264411365791,0.5131408166685335,0.18438893379569843,-0.5307566793624443,0.811684628898617,0.24385530652800247,0
60,12.04,-0.9326961758798183,0.3377262364745666,-0.1265655272808845,-0.703464727784942,0.7105064368788777,-0.01783199136773217,0
61,12.24,-0.9470442199288414,0.31507265251136857,-0.06193923747369419,-0.8148637465972659,0.5370849228132335,-0.21802949380340672,0
62,12.44,-0.9945018777400363,-0.05268775130437638,-0.09049870736110409,-0.888192438321193,0.35480273782232985,-0.29194042156377226,0
63,12.64,-0.9702916907889563,-0.23249254018695076,0.06694216566057241,-0.9534743223962994,0.12169974750581057,-0.2758185780326265,0
64,12.84,-0.9201277114341583,-0.3829994623383846,0.08170928037528309,-0.9724846027184358,-0.04869451753487031,-0.2278212927660903,0
65,13.04,-0.8992434546612904,-0.43114535127445675,0.07399253559145752,-0.9576833092576544,-0.19101618195297956,-0.21530326844108497,0
66,13.24,-0.7379927835091181,-0.6606388721126734,0.13756064895950054,-0.9263859646812831,-0.3408554910793961,-0.1600830367108025,0
67,13.44,-0.6159706132762681,-0.7612326233586274,0.20274391905702288,-0.8625209769659801,-0.49073290324103686,-0.12344546152157546,0
68,13.64,-0.598470257766355,-0.7756549375367193,0.2004813418849272,-0.7790908854303599,-0.6204057622168347,-0.09007820184421167,0
69,13.84,-0.33184380688622245,-0.9188467760903704,0.21354224382916046,-0.6662072750212387,-0.7433029720473957,-0.06056862598973539,0
70,14.04,-0.33717171165079507,-0.9189942111938777,0.20436456800192965,-0.5673965391596476,-0.8224086295537372,-0.041294229441877765,0
71,14.24,-0.14118280799270777,-0.9732888021182657,-0.18104232211967913,-0.4532232951172597,-0.8625354371915936,-0.22499169840631925,0
72,14.44,0.13470419517352006,-0.9173608425509157,-0.37457157441125727,-0.2311907203173803,-0.9152706858526514,-0.3298945626377439,0
73,14.64,0.09921822706056616,-0.940155016544118,-0.32598203675338805,-0.06585099599126659,-0.9112332177385409,-0.4065927559817362,0
74,14.84,0.409265461062602,-0.8307129437055473,-0.37738281299137133,0.05656202825722345,-0.8813527546389962,-0.4690608263857501,0
75,15.04,0.42698841650571934,-0.8736694688041302,-0.23320066777230228,0.1763719804246261,-0.8525825603263433,-0.4919307902017036,0
76,15.24,0.4163022325274041,-0.8795907644241933,-0.23024451857180603,0.198469789594431,-0.8399244205170389,-0.5051105922839663,0
77,15.44,0.518973176876152,-0.8206686152062935,-0.23910220764028728,0.30949203825150096,-0.8015051919181183,-0.51166796419869,0
78,15.64,0.626616541838215,-0.5197545228338352,-0.5806952259907854,0.40557203081896187,-0.7849273067848102,-0.46840201844241447,0
79,15.84,0.7637507831697419,-0.6415042951996685,-0.07181211908851363,0.4640210467606499,-0.8026901158649209,-0.3746639107999472,0
80,16.04,0.7821541761737572,-0.6187158913255261,0.07365792907224043,0.5943608049689773,-0.7762224255974641,-0.2102712046767669,0
81,16.24,0.8169401964032585,-0.5163261557797748,0.2569358214774379,0.7175936343671248,-0.695369507292974,-0.03899518230381626,0
82,16.44,0.8411447466036113,-0.3976434599810107,0.3665449413038969,0.7918407318225245,-0.60473348396094,0.085356129265755,0
83,16.64,0.7563295278943176,-0.37572963252750435,0.5355304739003239,0.8041680126360766,-0.5292967298176008,0.2704787963174503,0
84,16.84,0.7218194795490569,-0.32001564996279563,0.6136502446201891,0.8043353381550689,-0.4586310032844216,0.377759535447216,0
85,17.04,0.5983571596893293,-0.3513622811948413,0.7200786462616953,0.7888982682801178,-0.4245735547930148,0.444271109656091,1
86,17.24,0.5351898630846476,-0.3255235503275539,0.7794910061274477,0.7576947811740133,-0.39307690793235545,0.5209502500546506,1
87,17.44,0.7030853493055749,-0.15268501095882694,0.6945201789871629,0.7402791016667092,-0.38806139574023957,0.5489947219888979,1
88,17.64,0.7322475638606247,-0.13278069942662724,0.6679691542877977,0.7579951055982244,-0.3943367126615071,0.5195594065517949,1
89,17.84,0.731119184949935,-0.489014669401417,0.4757408858910128,0.7773780707053595,-0.4312246810195749,0.4579613626344246,1
90,18.04,0.7399135066565403,-0.4966300939275199,0.4537472341213389,0.7912171088063612,-0.45863318062522596,0.40451340195559893,1
91,18.24,0.8913887690983933,-0.4383259346726637,-0.11531017872931858,0.7935042094468254,-0.4936292256530816,0.35592310570024555,0
92,18.44,0.9038806341890112,-0.4238653660597791,-0.057774999723761655,0.8320920094227346,-0.5093115162179384,0.2196011550575743,0
93,18.64,0.9218976506898845,-0.38514026960506065,0.04209150010409718,0.8500582294486793,-0.5262628128496226,0.021176835414662632,0
94,18.84,0.9064664629632232,-0.41212344034417064,0.09204793013332149,0.8292500169964576,-0.5277451382552169,-0.18392791620457355,0
95,19.04,0.5126332526590041,-0.730349122217102,-0.4514391519850254,0.7517041077149875,-0.5506143811876949,-0.36299412897966654,0
96,19.240000000000002,0.5319396467112932,-0.7565562326350107,-0.38034573629499835,0.6728579293914099,-0.5849280821874344,-0.4529032407961269,0
97,19.44,0.7259228972723353,-0.4602321442907852,-0.5110991298928659,0.6436254118596036,-0.600578047222652,-0.4743968153379426,0
98,19.64,0.43166330961287597,-0.8766699070683958,-0.21240682939761896,0.6311795768369872,-0.6340454280978337,-0.44676474445967307,0
99,19.84,0.41318588907199305,-0.8955160891001136,-0.1653129009927067,0.5991456541227821,-0.6759636950813677,-0.4290659250951161,0
100,20.04,0.4008912383077909,-0.9065885933671153,-0.1318458851260891,0.5770090885966366,-0.7218595475076084,-0.3820723823426523,0
101,20.240000000000002,0.38274306559531995,-0.9180269839294584,-0.10360599652567909,0.5502897291169091,-0.764399191208279,-0.33596888324451635,0
102,20.44,0.43372914458228606,-0.8831115088252282,-0.17886612904725066,0.5095849353150044,-0.8069468852829388,-0.2985965807442651,0
103,20.64,0.42334321486415516,-0.8806288121553122,-0.21277550994041994,0.4642254288908396,-0.8421203058767637,-0.27445972673808056,0
104,20.84,0.41555042271042014,-0.8855493642265452,-0.20765396625914273,0.43312467734221927,-0.8668784841107273,-0.24682930876029768,0
105,21.04,0.3947081488835514,-0.8983394307982963,-0.19285161206978124,0.39029376834134744,-0.8962214416324801,-0.21085042554405775,0
106,21.240000000000002,0.29362836494673594,-0.95371186422286,-0.06493122006603333,0.3472125642509147,-0.9190495169054426,-0.18652458471251893,0
107,21.44,0.2733359160121035,-0.9607574450838811,-0.04725048924315765,0.3078413422258311,-0.9383242502921636,-0.15742080335917422,0
108,21.64,0.2437861040415637,-0.9685507917690056,-0.0497764928441974,0.2562021699463255,-0.9548650851929781,-0.15031007016896963,0
109,21.84,0.2336219024139285,-0.9713869598804008,-0.042757231982556515,0.22270833801213152,-0.9652703656690442,-0.136580076662097,0
110,22.04,0.3055578809553719,-0.9353167470891002,0.1783731033556536,0.20209726716754478,-0.9759062301070286,-0.08224186672065215,0
111,22.240000000000002,0.27822936574645724,-0.9274945183547505,0.24968447780792072,0.1888198481232704,-0.9812506510220658,-0.03865520435177788,0
112,22.44,0.26087761101894524,-0.9210866380802007,0.28903680945367755,0.1715198664999455,-0.9851801595320966,0.0009943139110211805,0
113,22.64,-0.17368684895741704,-0.8883774106905508,0.42499229954670537,0.1525335361394926,-0.9872861355217374,0.044716965005865916,0
114,22.84,-0.29554933541026607,-0.8259657905770976,0.48003239800548947,0.09871043605852603,-0.9897081924913375,0.10360474665123165,1
115,23.04,-0.34512617837987125,-0.7883075678177768,0.5093712786545064,0.028640644023954165,-0.9871375211223921,0.1572870875254312,1
116,23.240000000000002,0.2561625416643315,-0.8453820407788943,0.46873228753370644,-4.1349025431514086e-05,-0.9822241470839108,0.1877118088334946,1
117,23.44,0.26629349346112474,-0.8332122757086055,0.4846081705344605,0.010733892010591717,-0.9779501803358741,0.20856228888113165,1
118,23.64,0.2786997932318599,-0.8158148463237003,0.5067273051359638,0.03285999193971756,-0.9698949002935627,0.2412967121911567,1
119,23.84,0.2822483143426854,-0.8176749118459742,0.5017405979073162,0.05106841825978542,-0.9687985352444641,0.24253126554039217,1
120,24.04,0.27258495694316276,-0.8215849864874399,0.5006950681070539,0.05070200643786349,-0.9684920355827821,0.24382879968513582,1
121,24.240000000000002,0.25947830102745123,-0.8181235107225047,0.5131714455218561,0.04693095709609579,-0.9650883806071839,0.25768566681724503,1
122,24.44,0.24999863067917155,-0.8129458462364005,0.5259465141490357,0.03763464897470753,-0.9614692028846699,0.272324448224665,0
123,24.64,-0.42592497115066896,-0.65370641229741,0.6255044727830095,-0.09337332946628096,-0.95773212803474,0.27208563408315034,0
124,24.84,-0.43355465810902666,-0.6439875853552391,0.6303255891523788,-0.27450633284156745,-0.8983001695685243,0.34307882269681894,0
125,25.04,-0.4577772360201575,-0.6079634936288913,0.6487067076856058,-0.47816324631297447,-0.800767326432163,0.360737576077297,0
126,25.240000000000002,-0.5141280430039296,-0.5755266029440064,0.6359571406161596,-0.6921733135853662,-0.6338460229924806,0.3451598515135707,0
127,25.44,-0.9159546061416994,0.22530693793680973,0.3320601499809078,-0.9546082306614903,-0.17189282065982087,0.24326114395634543,0
128,25.64,-0.6886867951900146,0.7185152372413807,-0.09719234528948052,-0.9201058737267235,0.3818445768651543,0.08717740677637836,0
129,25.84,-0.6192825572339387,0.7844009040390975,0.03470354518547918,-0.7039665831997786,0.7095967099957629,0.030059256498103037,0
130,26.04,-0.37885093968565964,0.9239894276904633,0.052110488536792614,-0.5264723474685908,0.8366549900315225,0.15111351695419029,0
131,26.240000000000002,-0.03141663001236289,0.9991934506771224,0.025008868079370757,-0.4137089382725631,0.9040874052645325,0.10710218501708477,0
132,26.44,0.02603015164408956,0.9896237527211539,0.14130555281193477,-0.41477063430244643,0.9054300607771179,0.09034227117740257,0
133,26.64,0.09872326190010461,0.985578821327512,0.13743400056199967,-0.3354289391752325,0.9378456157271795,0.08906754641891974,0
134,26.84,-0.1544612038107689,0.9564882124720596,0.24753188869180628,-0.24641319152809477,0.9677799131853433,0.05179361616944588,0
135,27.04,-0.13574849161870972,0.9612122950903716,0.24009013055589298,-0.1814986278343273,0.9827130166317608,0.03651540821025001,0
136,27.240000000000002,-0.11813706957169784,0.9723218392704082,0.20157845537364072,-0.14783745687571614,0.9889787053917173,-0.00807506199629021,0
137,27.44,-0.06991490762861269,0.8303065797871969,-0.5529040506754946,-0.14801630129072446,0.9651560475001978,-0.21578919928024654,0
138,27.64,-0.06978160422210561,0.8415087623866792,-0.5357177713485239,-0.13901443092558996,0.9454992237157513,-0.2944591753492258,0
139,27.84,-0.072297791236348,0.8376528378153234,-0.5413970379326813,-0.14241452231725715,0.9186225556337732,-0.3685793050539097,0
140,28.04,-0.17070108345309473,0.5867051684729805,-0.79160481642991,-0.14898669565177391,0.8506318521362326,-0.5042106867669985,0
141,28.240000000000002,-0.1698926676256311,0.6562062940248571,-0.7352073048938033,-0.17703331322967836,0.7919664545935828,-0.5843358116745824,1
142,28.44,-0.16656030980355724,0.6632466619931457,-0.7296310907253699,-0.18516460538771207,0.772454794534534,-0.6074764681139704,1
143,28.64,-0.2107889580623057,0.498041635341085,-0.8411435933452652,-0.21101484268522983,0.7523713771783869,-0.6240272806290007,1
144,28.84,-0.20326736579318294,0.4646108067100018,-0.8618695819506464,-0.22504313406579268,0.7138662338723982,-0.6631369300127122,1
145,29.04,-0.5032660067647095,0.48495613636357116,-0.7152208555673004,-0.24683731927351915,0.707720912084891,-0.6619686158811403,1
146,29.240000000000002,-0.5045044222397946,0.7642658666539225,-0.4017125502249335,-0.25260579050756465,0.7855646874902111,-0.5648702827822113,1
147,29.44,-0.49501297325480187,0.8570049790828416,-0.14319435092439717,-0.28741900330835596,0.8745631291227647,-0.3905504445218693,0
148,29.64,-0.21611556027039813,0.9731247131650702,0.0795132519546995,-0.29962097950630645,0.924551402809607,-0.23543995455841796,0
149,29.84,-0.05319871876373783,0.9891932471565675,0.13662582516399518,-0.2525734891988452,0.9618574018170847,-0.10505698988457872,1
150,30.04,0.005491676826057668,0.9837011062082542,0.1797275024315846,-0.22784810957079726,0.9726576565241645,-0.04497023648964598,1
151,30.240000000000002,0.001990906679355975,0.9831281604468451,0.1829072344851244,-0.226420934775379,0.9737922100810659,-0.021500973951822967,1
152,30.44,0.20868878169673283,0.965570101100004,0.15531700568727827,-0.1750772121385819,0.9836566449074994,-0.04204253464176594,1
153,30.64,0.21509880958501526,0.9625808472796494,0.16483511326626235,-0.14903445114550107,0.988657746013151,-0.018563233014627135,1
154,30.84,0.2067352613786927,0.9623986129561515,0.17620851705510576,-0.14720861093559257,0.989021526712221,0.012885828116223338,1
155,31.04,0.20881411900005903,0.9661059200768456,0.15177620004039133,-0.13815780729542204,0.990408268858296,-0.0019700914786575053,1
156,31.240000000000002,-0.12391872927427755,0.9824666112605902,0.13929646906214305,-0.14879626710630134,0.9888649321944772,0.002411798342007859,1
157,31.44,-0.15162124745845995,0.9785411060076881,0.1395288542645967,-0.16989697826040767,0.9854340121735451,0.007404352067013692,1
158,31.64,-0.4087554228768278,0.9110222976779612,0.05438177454215822,-0.1999012454248838,0.9796641711151648,0.017251200271797225,1
159,31.84,-0.43394241650633303,0.8982689153524108,0.06933206233949636,-0.2392638590077179,0.970344303526542,0.03442002885422473,1
160,32.04,-0.465611481646819,0.8818052594438183,0.07500288378372302,-0.2878654109225518,0.9565695631177009,0.04591487897404962,1
161,32.24,-0.15059180903270775,0.9831578519098032,0.10355068942483199,-0.3116099765115547,0.9488109189604337,0.05154670309463059,1
162,32.44,-0.15055253663369683,0.983438190015382,0.10091214065923441,-0.32591503396055393,0.9440007135023695,0.051400812693074345,1
163,32.64,-0.1483045892925961,0.9840509323563003,0.09823192619230726,-0.3331039385428341,0.9414735767006597,0.05166498332254944,1
164,32.84,-0.14198408958242942,0.9844503109236505,0.10343163746057778,-0.33295100474096667,0.9408834035677189,0.06230609386573821,1
165,33.04,-0.13371599139065582,0.9853982026514377,0.10540595741100321,-0.32847415967726923,0.9417445420082979,0.0722630197396508,1
166,33.24,-0.11968010526516265,0.9885439028840112,0.09196534387782457,-0.31531301643679,0.946900620914039,0.06290402036547736,1
167,33.44,0.11059895727899449,0.9886630536423751,0.1015541087860729,-0.32165110074037395,0.9445194555200894,0.0665099055520285,1
168,33.64,-0.1713477715502767,0.9747077925173564,0.1434735529311809,-0.3199685396307898,0.9447071083865062,0.07175383620786928,1
169,33.84,-0.15609030975481974,0.9777683708274092,0.14001724254590484,-0.31898356688813906,0.9447323925955544,0.07569802134798168,1
170,34.04,-0.061449608023499136,0.9961482229780534,0.06255128720837425,-0.3114450642675689,0.9473208224586128,0.0747344049264292,1
171,34.24,-0.05666958452612869,0.9976704946364403,0.03797554899559097,-0.3110212473928026,0.9473476020650533,0.07614659895109593,1
172,34.44,-0.05571395135731144,0.9976967560477776,0.038692875260140355,-0.3127496680176997,0.945680257422871,0.08874962464952312,1
173,34.64,-0.035678082412708034,0.9988262393543961,0.03276000629589663,-0.29712848344246484,0.9509732532058727,0.08581687488029423,1
174,34.84,0.09889384562161019,0.9885406470757052,0.1140499731578879,-0.30038637586369865,0.9492651852001199,0.0930786407424115,1
175,35.04,0.10538402149205961,0.9869390812731054,0.12184193805894734,-0.30196369534518863,0.9468461767597911,0.1109064662174583,1
176,35.24,0.11547382254130406,0.9860674156382557,0.11973657805445595,-0.2946222931044661,0.9472554126273094,0.12611458144929866,1
177,35.44,-0.09481009766583953,0.9758146850433994,0.19696889560091874,-0.27320675198327227,0.9543226059753708,0.12093979657304066,1
178,35.64,-0.058673539554122134,0.9810640678189441,0.18458253056759538,-0.21288163968154883,0.9711019961302836,0.10789958571873388,1
179,35.84,-0.03723206325289169,0.9824720367638136,0.18265396366653658,-0.16120052367615945,0.9817213824966371,0.10118062223283616,1
