,timeStamp,x_gaze,y_gaze,z_gaze,x_head,y_head,z_head,fixations_head
0,0.04,-0.9951851057810542,-0.05273021855283296,0.0826203926577597,-0.9961129320494675,-0.08051085241368637,0.03573554599323484,0
1,0.24000000000000002,-0.9731816800445386,0.2249136490573212,0.048283207157449694,-0.9988501472064514,-0.03379512726441549,0.03400401151088788,0
2,0.44,-0.963982907236102,0.2580227783197944,0.0645073672131087,-0.9974054069409516,0.030384349048972192,0.06526289556727644,0
3,0.6400000000000001,-0.9456211940945358,0.3085133085786589,0.10305384858933417,-0.9900895952652224,0.09958290128975637,0.09902443697523888,1
4,0.8400000000000001,-0.9446989438358587,0.3040094459325932,0.12297220132684779,-0.9882681681208751,0.10414134390168556,0.11171664320664548,1
5,1.04,-0.947783253482668,0.28124417374963767,0.15036162791647414,-0.9857008102342493,0.08887879615692382,0.14315890575594928,1
6,1.2400000000000002,-0.9409675055695849,0.2660339736022531,0.20929901660435266,-0.9761895877135784,0.07712032607864573,0.20274699540342764,1
7,1.4400000000000002,-0.9597520828421093,0.25298716587682907,0.12195668649911266,-0.9692784330222785,0.10417338259126328,0.22281657397368534,1
8,1.6400000000000001,-0.9635058776922644,0.24408698399263068,0.10989980845224649,-0.969730666207421,0.10972864400639258,0.21813312380615105,1
9,1.84,-0.969712326581208,0.2232192328661127,0.09915229576325921,-0.9713065729536778,0.10680950245539977,0.21249769768684895,1
10,2.04,-0.9735340225774166,0.21070648534574266,0.08851149031328276,-0.9735284724585418,0.10264191783836586,0.20422279504257088,1
11,2.24,-0.9798456367231648,0.18448119145680086,0.07661082295116536,-0.978549585504799,0.07757156906356616,0.19084905129814644,1
12,2.4400000000000004,-0.9815800485608572,0.17529495659284428,0.0759755648901546,-0.9788759120827618,0.07149727578285128,0.19154656953276986,1
13,2.64,-0.9788793382833227,0.18850067712384252,0.07913744882075362,-0.9768026175436968,0.0862378954580282,0.1960093664770966,1
14,2.8400000000000003,-0.9792883424512734,0.1877474581880008,0.07579732371913185,-0.977035373157916,0.08749654991051764,0.19428389884889644,1
15,3.04,-0.9888324686577422,-0.1448708820611146,0.034968220702087216,-0.976887932879154,0.07218825725033762,0.20119349420459126,1
16,3.24,-0.9899869907192683,-0.13848714992063496,0.027332535803819977,-0.9782696808375029,0.0656461415686761,0.19666981377739673,1
17,3.4400000000000004,-0.9910351438878909,-0.1305347555992649,0.028460870677966047,-0.9782519222235058,0.0713899064420641,0.19474767758361047,1
18,3.64,-0.8837551116843507,0.46643868616580325,-0.03757465395316113,-0.9735378432273096,0.13047167765949738,0.1876198527156304,1
19,3.8400000000000003,-0.9636788017016218,0.2140978301115074,-0.1596411171737107,-0.9679256682748739,0.18693319558853297,0.1678567278416278,1
20,4.04,-0.9688932336461276,0.1750314164683196,-0.17495686623806425,-0.9718603264393895,0.1866741229405292,0.14366724650214502,1
21,4.24,-0.9714818538610208,0.15603708034321212,-0.17853693504908244,-0.9760094745626032,0.17253959663699237,0.13279907061563095,1
22,4.44,-0.6846761066247188,0.7120364180998714,-0.15563665479803349,-0.8864764523796639,0.44723900673633044,0.11889815065788915,0
23,4.640000000000001,-0.548762029825832,0.8157587420031992,-0.1827509492910791,-0.6423646469992331,0.7645516881765382,0.05318248200259553,0
24,4.840000000000001,-0.16892119509562248,0.9734060917574414,-0.15474563120479504,-0.3566525490853657,0.9342212124348188,0.005448437182192853,0
25,5.04,0.11794711481413461,0.9911463748586027,-0.060970006656319665,-0.14156687692094122,0.9898937820991949,0.008313815020996998,0
26,5.24,0.20043691902736532,0.9796872814538574,-0.006154027004186902,-0.05933641249198335,0.997585515361783,0.036087805321847986,0
27,5.44,0.21076435637175556,0.9775111636350219,0.007093028415641342,-0.06708406050312637,0.9968662005431708,0.04192263160914086,0
28,5.640000000000001,0.19528618936417758,0.9806975453853867,0.009778993746612962,-0.09859436478755662,0.9942372825025916,0.04208773353365992,0
29,5.840000000000001,-0.5364877996574979,0.8403703670840743,-0.07719123619708715,-0.23778370751470146,0.970781255860256,0.03229027269855811,0
30,6.04,-0.5306648033766218,0.8413038412475516,-0.10296947683350613,-0.3819981962923261,0.9233835553092795,0.03794980650549257,0
31,6.24,-0.5646742974885028,0.8209698974230419,-0.0845657453172739,-0.47764770715549604,0.8771985443008268,0.04873788798878728,0
32,6.44,-0.5933627049316977,0.8018677506203554,-0.07020549060572318,-0.5406485691507579,0.8396800542997729,0.05134716239841015,0
33,6.640000000000001,-0.5298752531813438,0.8456748812632113,-0.0637668508432117,-0.5884120241795358,0.8067894679736256,0.05349807629976765,0
34,6.840000000000001,-0.5344132357034915,0.8431352752808992,-0.05937508805827048,-0.6169009352674529,0.785097864118094,0.055268253304667496,0
35,7.04,-0.5513140055403547,0.8324882924054636,-0.054919125110342595,-0.6511374823667306,0.7568560810797033,0.056469917564921535,0
36,7.24,-0.9258217479778517,0.32786005926579187,0.18804752726230445,-0.7697173447136547,0.6359302188393752,0.05592822198019091,0
37,7.44,-0.9722524951501852,0.20171207399641292,-0.11847921707331291,-0.8965213547278615,0.43775701972898573,0.06795772358545174,0
38,7.640000000000001,-0.9628956298598089,-0.04612573692665146,0.26590303193054243,-0.9613242104423596,0.26560868072792626,0.07285458900676511,0
39,7.840000000000001,-0.9924126319451342,-0.04277276390507978,0.1152721068760884,-0.9823713599348858,0.16410649879478337,0.08952970586906348,1
40,8.04,-0.9935980434318153,-0.032881808074313054,0.10808198178342522,-0.9883768469782641,0.11157688648272218,0.10325602529696304,1
41,8.24,-0.8853246411266971,0.04643396912235069,-0.4626490747050402,-0.9907447850736251,0.08220893426692814,0.10801139743616195,1
42,8.44,-0.992181729553946,0.041575576073024874,0.11767279640399744,-0.9899132827765756,0.0826240598616447,0.11508673822158128,1
43,8.639999999999999,-0.9957681577145723,0.04094494362364593,0.08227568093539786,-0.9903875952071001,0.0670900398604106,0.12096006701149772,1
44,8.84,-0.9869829945918461,0.008421701574720485,0.1606039953709079,-0.9907903633065682,0.03933852444897502,0.1295644105185376,1
45,9.04,-0.9752749769708814,-0.012305342405144826,0.22065198354589763,-0.9908287490054053,0.01913352560716172,0.1337620960594753,1
46,9.24,-0.9723363488878051,-0.01432689713103684,0.23314537235409466,-0.9901973872338935,0.015346167131360994,0.13882949783654588,1
47,9.44,-0.9756429759834808,-0.013506799600282659,0.21894828105891784,-0.990581075650772,0.0072622985129340905,0.1367347489955246,1
48,9.64,-0.976721908308079,0.005037846196935136,0.21445030645051752,-0.9900875363682949,0.01706625021382786,0.13941095162073708,1
49,9.84,-0.9777576510090444,0.0170460658178649,0.2090440325228368,-0.9905405592262482,0.028350694690513916,0.1342595942132892,1
50,10.04,-0.9879415495664428,0.10734664028519782,-0.11157147242793097,-0.9905551000896017,0.037560196259541094,0.13187048700685222,1
51,10.24,-0.9866615671082768,0.10916564999070415,-0.1207551773364064,-0.9904295840620008,0.04326837559887588,0.13106138518956353,1
52,10.44,-0.9861380617672174,0.0473875500965988,0.1590161728562172,-0.9898028823308592,0.04283848274915004,0.13584961731736392,1
53,10.64,-0.9821978082846183,0.04817124495124593,0.18156815954549907,-0.9893674395079264,0.03849942214705851,0.14024929281772525,1
54,10.84,-0.9832686059066431,0.05698583694989508,0.17301867825621334,-0.9887941353177999,0.03466595492353458,0.1452047848053367,1
55,11.04,-0.9826394392655838,0.06830516386879877,0.17249387522076243,-0.988366368634997,0.03587839025298462,0.14779939940379871,1
56,11.24,-0.9811651864315635,0.07760893709165323,0.1768946856698051,-0.9878952038159241,0.03663262835473191,0.1507352540626044,1
57,11.44,-0.9809511449752507,0.08201381093943186,0.17609254949297545,-0.9882382465833147,0.03625798418311544,0.1485615245375209,1
58,11.64,-0.981037968299187,0.08207196861355612,0.17558102609137277,-0.9884267408923492,0.034270044616726426,0.14777733903036927,1
59,11.84,-0.981936158855883,0.08883044121430683,0.1670644565580185,-0.9885721531518179,0.03724117223343924,0.14607598400646915,1
60,12.04,-0.9860807743360585,0.1028453648812599,0.13064278551546452,-0.9879508078178567,0.04340575261359589,0.14855686443948488,1
61,12.24,-0.9886536693724811,0.11065011173330411,0.10158973771861288,-0.9875163337621524,0.04453246518323744,0.1510905360956163,1
62,12.44,-0.9598734090387442,-0.01853696520779852,0.2798203343955279,-0.9872677626536052,0.045122961886618074,0.1525328919791524,1
63,12.64,-0.9595468564667113,-0.01811450543373796,0.28096564725557427,-0.9871352123332628,0.04585779411558514,0.15317028200867558,1
64,12.84,-0.9736658401348839,0.04973193750130247,-0.22248947423821575,-0.9875663147818685,0.04935327405006067,0.14925491030012644,1
65,13.04,-0.9723356677612324,0.053886515902982275,-0.2272874668853441,-0.9877405441762958,0.05262703405049224,0.14696602558878546,1
66,13.24,-0.9732213045179943,0.05811796663490116,-0.22240187586105956,-0.9870603608672769,0.0555268650582486,0.15042809332489834,1
67,13.44,-0.98213205169246,0.18489505492253952,-0.0350777950212187,-0.986015250565726,0.06400551584620527,0.15387403807357844,1
68,13.64,-0.9797380184579333,0.19272694162166149,-0.05449533155494355,-0.9843147372551002,0.07991521295838448,0.15728336453751066,1
69,13.84,-0.9631708432038638,0.2611164486264076,0.06418821588648879,-0.9803293412950005,0.10820692213401073,0.16506254753394237,1
70,14.04,-0.9612838689530656,0.2679315528437483,0.06438948890434833,-0.9781843842962898,0.12377636702063823,0.1668374097319322,1
71,14.24,-0.96773666299862,0.2466430511505226,0.05150685786821284,-0.9827372212147035,0.10295669138265841,0.15371230835147567,1
72,14.44,-0.9736947096336921,0.22450961433933606,0.03891073759983054,-0.9861983870601965,0.08304220267310018,0.14323663614825102,1
73,14.64,-0.9730380085405539,0.22753739002185897,0.03773287793785843,-0.9863514524732018,0.08877814634510552,0.13866958186831246,1
74,14.84,-0.9901001987372412,0.07442696141797626,0.11900514221899385,-0.9820641320278145,0.11537658625163094,0.14912506137257797,1
75,15.04,-0.9461473393215871,0.018650718076038846,-0.32319864326746406,-0.9729787105209672,0.09500913571617631,0.21044166175788942,1
76,15.24,-0.956197636383365,-0.002874220040420086,-0.2927077365462442,-0.968560938669201,0.06770384908758674,0.23938650108759682,1
77,15.44,-0.9556111741965254,-0.052851241750826415,0.2898517379560348,-0.9696550552100827,0.014138700103345832,0.24406796402829972,1
78,15.64,-0.9744206473875137,-0.0627395091451529,0.21579656145806517,-0.9685394395335362,-0.03381327391078323,0.2465522593193953,1
79,15.84,-0.9765615506176151,-0.05329355132212294,0.208536172504425,-0.9663595529616439,-0.05139286139631313,0.25200791296558794,1
80,16.04,-0.9811016440473628,-0.02723595632657296,0.1915666117321569,-0.966221520696629,-0.04562426112024214,0.2536422672582901,1
81,16.24,-0.9837308871200269,-0.0022597642143659677,0.17963417044577243,-0.9672304562315535,-0.029407938362401985,0.2521912323998877,1
82,16.44,-0.9845956194194592,0.014595397464794425,0.1742367372079038,-0.9673887441748159,-0.01573988622126287,0.2528067910986856,1
83,16.64,-0.9854620498145309,0.022443729039761773,0.16840673205704462,-0.9678056733733196,-0.008440506500717808,0.2515570242239862,1
84,16.84,-0.9859497255462993,0.015906798055486154,0.16628322967394868,-0.9676608234872902,-0.015625722084626346,0.2517704658954928,1
85,17.04,-0.987637105745607,0.015605045646434454,0.15597894058113512,-0.9696803241526871,-0.01831982510094215,0.2436892549116821,1
86,17.24,-0.9880092752523302,0.0201944493608783,0.15306814244112474,-0.9694223907250962,-0.016214696738538197,0.24486182219879973,1
87,17.44,-0.9334185823168004,-0.053767814076020326,0.3547376105731976,-0.9696447955557218,-0.01892557704974498,0.2437843165280263,1
88,17.64,-0.9769822414367934,0.01889316059967402,-0.21248234844262806,-0.9699710062802863,-0.018286298113942407,0.24253217987907716,1
89,17.84,-0.9906455550249588,0.0006380020717937135,0.13645870167434465,-0.9706161473813444,-0.01835763771891254,0.23993184778177742,1
90,18.04,-0.9913992495779937,0.00818465981326023,0.13061599932601098,-0.9707464490655413,-0.018236850914361134,0.23941334318573418,1
91,18.24,-0.9885553227299491,0.013695498053476376,0.1502358387181758,-0.9704275320107542,-0.01575273486144117,0.24087809460368645,1
92,18.44,-0.9869684333122147,0.016876016950226096,0.16002659684292544,-0.9702627018541251,-0.015873237989004474,0.24153328902343418,1
93,18.64,-0.9846370287600139,0.021172146080882807,0.17332530636055807,-0.9701528460571859,-0.014191075905503468,0.24207864146137945,1
94,18.84,-0.9821908349678983,0.031562179262796176,0.1852160698893219,-0.9688718189009453,-0.012882731994395023,0.24722749393207633,1
95,19.04,-0.981965453196759,0.03967100300799974,0.1848514545477624,-0.970060320501976,-0.01346731001711481,0.24249042485942982,1
96,19.240000000000002,-0.9808052730160769,0.04547233140006037,0.18961351086065045,-0.9696653543738042,-0.012435651993465021,0.24411975562543542,1
97,19.44,-0.9801918813148964,0.05045861062716424,0.1915145018476165,-0.970023377720606,-0.013007770469353766,0.24266323286176547,1
98,19.64,-0.9805918031272711,0.057844599659726874,0.18733317359670573,-0.9713723233739586,-0.009530017588657841,0.23737099264197722,1
99,19.84,-0.9795796097204849,0.05112322775722226,0.19444846053272266,-0.9707254771098416,-0.015062081810102903,0.23971896416724384,1
100,20.04,-0.9784851540482111,0.04952258164000526,0.2002855891345103,-0.9699095933292395,-0.015771758064179853,0.24295397180427936,1
101,20.240000000000002,-0.9764807733221125,0.05562969800816942,0.20830419110466583,-0.9683629877339198,-0.012052609942351562,0.2492546059366086,1
102,20.44,-0.9757664585623804,0.06196186020205477,0.20985839565033282,-0.9683187979057482,-0.007762903231596514,0.2495965603845212,1
103,20.64,-0.9755602094191608,0.06359153367529276,0.2103292529413534,-0.9685349719423233,-0.007709863416981325,0.24875804736887266,1
104,20.84,-0.9755894560574078,0.06190138436044114,0.21069748893584891,-0.9685654631491903,-0.010065462332506084,0.2485550845640205,1
105,21.04,-0.9754162523685005,0.0689695518027429,0.2092996310066469,-0.9690520335897113,-0.0026145085084668413,0.24684270404633166,1
106,21.240000000000002,-0.9752241430743797,0.07430335670260567,0.20836718059130158,-0.969457042212082,0.0011695259901147155,0.24525838520703022,1
107,21.44,-0.9748672333634043,0.07612406352496336,0.20937765942628514,-0.9694260051478034,0.0017231692611324075,0.24537777248738027,1
108,21.64,-0.9741039137507359,0.0752424464979492,0.21321383505884947,-0.9684380586805839,0.00013995214394219675,0.2492543016928282,1
109,21.84,-0.9356978261007277,-0.34587058625756567,0.06959249810303395,-0.9683596166791468,-0.007687170844337292,0.24944049428556223,1
110,22.04,-0.9397723034371787,-0.33567720329301554,0.06441143440228184,-0.9693619168591789,-0.012189921484356275,0.24533422092587007,1
111,22.240000000000002,-0.980716038158912,-0.15734895872527904,0.11591961734736031,-0.9693771783825401,-0.007772606382801376,0.24545360584257703,1
112,22.44,-0.9806445582805132,0.021966594473752345,0.1945603223734048,-0.9693591628597179,-0.004853690105452179,0.24559978638481636,1
113,22.64,-0.9812546844791687,0.01896221335912754,0.1917802874442783,-0.9693037127277929,-0.004372266681287594,0.2458275732626103,1
114,22.84,-0.9820078682330698,0.01614315040552176,0.18814873218633799,-0.9689288728021986,6.51411684315499e-05,0.2473395140427209,1
115,23.04,-0.9820950134778443,0.011235456233025907,0.18805092136224322,-0.9680792042003543,-0.0014677375796340777,0.25064018061995946,1
116,23.240000000000002,-0.9824672771841635,0.011897233267268506,0.18605511307921832,-0.9676918485200815,0.0022770343106248937,0.2521255667768264,1
117,23.44,-0.982699613479931,0.010254337363109536,0.18492246545954885,-0.9674817143405784,0.0029458279997054463,0.2529238116785603,1
118,23.64,-0.982700743264597,0.008577820563395412,0.1850018112927306,-0.9674884762031296,0.0036643840954961576,0.25288855391920634,1
119,23.84,-0.9423950052426978,-0.0143998057926944,-0.3341920102078274,-0.9683523605884597,-0.0008542411819124049,0.24958560858903917,1
120,24.04,-0.9400816422469078,-0.017507731719872088,-0.3404996112191349,-0.9699361110711969,-0.004785274014985579,0.2433126416622952,1
121,24.240000000000002,-0.9396500336060369,-0.017674513081724436,-0.34168029783921927,-0.9702626557771779,-0.003557840006848689,0.2420283466429161,1
122,24.44,-0.9385387653963675,-0.018767385821242596,-0.34466327201734004,-0.9710550291728389,-0.0029695210638024353,0.23883741805418462,1
123,24.64,-0.9454877066625841,-0.018002418663056977,-0.3251598214297204,-0.9722411188761485,-0.0020788179777622663,0.2339719754207124,1
124,24.84,-0.9503811455865742,-0.014353401172691028,-0.3107565896136825,-0.972847858678169,0.0005495213035669328,0.23144490033621137,1
125,25.04,-0.956311362584904,-0.012966327426416591,-0.2920624113850932,-0.9730592132139968,0.0013921385645652463,0.23055114298041313,1
126,25.240000000000002,-0.9585311823508283,-0.005225284715635033,-0.2849397635655015,-0.9728934098183605,0.0034336130980201786,0.23122850912700385,1
127,25.44,-0.9781219377202812,-0.013075186415509945,0.20762108382946567,-0.972915455160027,0.001545369745554099,0.23115607053051196,1
128,25.64,-0.9783932034348326,-0.011624714414184658,0.2064257868758533,-0.9725611386954982,0.002449817627834954,0.23263454148708604,1
129,25.84,-0.9797075151951986,0.16539445959699783,0.11321597680834045,-0.9723683978934654,0.006236735426182562,0.23336838241141353,1
130,26.04,-0.9695546442915599,-0.0445600152033973,0.2407866208445555,-0.9719787799100651,0.004637784241632759,0.23502285497770203,1
131,26.240000000000002,-0.9603534146597648,-0.03980726442576086,0.27592879634113526,-0.9713379204328008,0.0030814635834067955,0.23768287467014995,1
132,26.44,-0.9610866891587742,-0.028481340338195875,0.27477479719647824,-0.9705185304428101,0.005696158417324667,0.24095919954717004,1
133,26.56,-0.9501823495282942,-0.036399419390054734,0.3095619241976599,-0.9700284578785109,0.005312950044850808,0.24293324899580776,1
