,timeStamp,x_gaze,y_gaze,z_gaze,x_head,y_head,z_head,fixations_head
0,0.033366700033366704,-0.9642367022266046,-0.036781880666407966,0.2624779520908466,-0.9709158833788901,-0.0050646348876016295,0.23936728447314007,0
1,0.2333667000333667,-0.9995772762220099,0.005303888423808862,-0.02858561925472061,-0.9702967421135716,-0.04285146125268167,0.2380923865063712,0
2,0.43336670003336675,-0.9415295247228034,-0.20058942707957056,0.27071393724583503,-0.9691454202090286,-0.10063451979162762,0.2250107728847087,0
3,0.6333667000333668,-0.8100930460655094,-0.239237115901976,0.5352708277976757,-0.9600089574330839,-0.11477101942073947,0.255363299534932,0
4,0.8333667000333668,-0.7321051591988001,-0.19153780964831293,0.6537088827219852,-0.9283742885356602,-0.10325517034395497,0.35701477586109504,0
5,1.0333667000333666,-0.7809237313691143,0.19621629478310063,0.5930069910600813,-0.9122919485112612,0.03077006992123538,0.4083829128141492,0
6,1.2333667000333668,-0.6408726505411603,0.3252321413019392,0.695346172817902,-0.8730731477565603,0.21859989646433228,0.43584098468619803,0
7,1.4333667000333667,-0.0673091748828358,0.3106286101517362,0.9481452112054317,-0.7884835497269902,0.30979943876292254,0.5313360514327099,0
8,1.6333667000333667,-0.38344864069208934,0.13707154634769766,0.9133337457541137,-0.6734512119700065,0.29192165365697326,0.6791503612767261,0
9,1.8333667000333667,-0.3770522097945604,0.06018058531846655,0.9242347798258655,-0.5731705516169606,0.2271875449976589,0.7873127321192296,0
10,2.033366700033367,-0.3635530191662944,-0.17306460870489135,0.91535667554724,-0.4730329590344671,0.17307534643041017,0.8638777367921284,0
11,2.233366700033367,-0.10684234057621356,0.057432373651464155,0.9926158555639516,-0.4791943936548233,0.09286648839846434,0.8727820738433646,0
12,2.433366700033367,0.007252842230953125,0.03861309071582506,0.9992279146946129,-0.36058943658119785,0.0906808193894829,0.9283061171945957,0
13,2.633366700033367,-0.4733862617280162,-0.1525351076284683,0.8675473982140376,-0.2921275588655861,0.09006494952051604,0.9521290848509465,0
14,2.833366700033367,-0.5433892170543301,-0.16046293547931367,0.8240023089327141,-0.42083458535005885,0.029540643920491636,0.9066562756248957,0
15,3.033366700033367,-0.5542131467583105,-0.2538953377993062,0.7927073516777978,-0.5237483632594209,-0.0799866305506995,0.8481095394559733,0
16,3.233366700033367,-0.6667214177999153,-0.5889304688149184,0.4567750583693376,-0.620923718006378,-0.2639914677009391,0.7380801050009684,0
17,3.433366700033367,-0.8597569945501777,-0.5049883460097511,-0.07618845526969191,-0.7403836362732804,-0.47183627541785217,0.4787510839032783,0
18,3.633366700033367,-0.8599846182904358,-0.50784931824461,-0.050155022304235033,-0.7522107779451022,-0.6177727912488045,0.2292067275100924,0
19,3.833366700033367,-0.5160800413723717,-0.8538163317488675,-0.06825732587788011,-0.6142373219743363,-0.7844504163434256,0.08573247105048461,0
20,4.033366700033366,-0.010593350240798105,-0.9995413579363952,-0.02836996132078936,-0.3711245166935,-0.9279734271987956,0.033643892788110884,0
21,4.233366700033367,0.3069624170666028,-0.94974590011403,-0.06129273794846803,-0.1558878198904587,-0.9871448808887212,-0.03526998362620136,0
22,4.433366700033367,0.32658325258067294,-0.9451133320382618,-0.010206308704089001,0.0549454095745992,-0.9960299884028859,-0.07003759111239388,0
23,4.633366700033367,0.35070997465988757,-0.9363343955770765,0.016745546672831402,0.13146729690134995,-0.9879789169090196,-0.08132656139745023,0
24,4.833366700033367,0.29177244044308653,-0.9564540415323102,-0.00803177654043855,0.09035951916672202,-0.9885524313254002,-0.12082734713879627,0
25,5.033366700033366,0.22821801619714477,-0.9617196227900912,-0.1516967508667377,0.03308331384904606,-0.9559161048194672,-0.291770277601306,0
26,5.233366700033367,-0.0943447485507555,-0.350439646027578,-0.931821400759266,-0.1259824346731246,-0.7559103164543104,-0.6424391174514333,0
27,5.433366700033367,-0.1595214205538353,-0.25407689974199993,-0.9539380721000604,-0.26595680468917016,-0.6032647188082029,-0.751890056511447,0
28,5.633366700033367,-0.677415411366739,-0.1962115019075659,-0.7089495094588959,-0.5127026528556277,-0.4992316794949443,-0.6985010522135663,0
29,5.833366700033367,-0.8889616704233756,0.09136295562541838,-0.44877606760774313,-0.8314028316275703,-0.08282977354900907,-0.5494620643643001,0
30,6.033366700033366,-0.589273370959276,0.7394201995212004,0.32559892938755214,-0.8157205140623127,0.49921957956949514,-0.2921983133291041,0
31,6.233366700033367,-0.35900692613560353,0.9273317555230887,0.10568747411652979,-0.5240780803666372,0.8433539826085369,-0.11872752712636095,0
32,6.433366700033367,-0.16281251207562447,0.9728703189117176,0.1643637079535432,-0.3680698754790717,0.9294859538836266,-0.024092079567067128,0
33,6.633366700033367,0.14654473993981781,0.984865547536272,0.09254454317813966,-0.16087842168616046,0.9868074206762681,0.018145190382596568,0
34,6.833366700033367,0.5362821634944566,0.8358321436119613,0.11741409124435738,0.092703095649453,0.9944096037930215,0.05055369364561653,0
35,7.033366700033366,0.6799410900040971,0.7327452390765686,-0.02765011274231851,0.3525679557391812,0.9357316218300606,-0.010107843151715803,0
36,7.233366700033367,0.840426104152438,0.5327155911530637,-0.09948900643587433,0.5654499930615318,0.8233071931545908,-0.04931096274281199,0
37,7.433366700033367,0.9029977910731315,0.41406119331658225,-0.11466611315594963,0.7295250223515648,0.6810823470616895,-0.06261052853865318,0
38,7.633366700033367,0.8606724805336483,0.485971025618555,0.15190471852877724,0.8042039227400233,0.5941049693009807,-0.01718534554322903,0
39,7.833366700033367,0.8138494498698976,0.5340769475810008,0.22893424167001739,0.7646968163397745,0.6428828736746048,0.044049856023548786,0
40,8.033366700033367,0.2818193296872099,0.8966491504214997,0.3414647367782719,0.609847242935433,0.7859793087762832,0.10160150815616521,0
41,8.233366700033368,-0.01922324921702029,0.8643821675023443,0.5024678449348671,0.3143530995958322,0.9308888686165671,0.18608611732276226,0
42,8.433366700033368,-0.23042137129154142,0.7534226622884724,0.615841118797922,0.04748311483006773,0.9575573469544741,0.2843049086800008,0
43,8.633366700033367,-0.27682540890860474,0.8392920685152218,0.46792789691364206,-0.20150932349684736,0.9334940776466759,0.2966189467016988,0
44,8.833366700033368,-0.7489495392190768,0.6561364289241532,0.09251796767219045,-0.5258772902146603,0.8074675644255046,0.2672998466838879,0
45,9.033366700033367,-0.9757340436817984,0.2189583380058041,-0.0005676425834627881,-0.820761805016794,0.5077211620928109,0.2618573676425781,0
46,9.233366700033368,-0.9768820002497008,0.17950601028415536,0.1160997409988871,-0.9347484494804517,0.25011016861570967,0.25236925278035105,0
47,9.433366700033368,-0.9690680809416128,0.18756459798068728,0.16039506253149852,-0.9616790201819243,0.11070233735809551,0.2508355131264092,1
48,9.633366700033369,-0.9610251708279309,0.1966720926528366,0.19429541684430057,-0.9663859302102534,0.07006020981826484,0.2473657229526442,1
49,9.833366700033368,-0.9856334179783233,0.14400860425567588,-0.08825127344520431,-0.9759472469289202,0.0663411299194185,0.2076675845982606,1
50,10.033366700033367,-0.9838594790159667,0.15344724972535345,-0.0920568688483162,-0.9807419996375699,0.08317746096615088,0.17671061126634505,1
51,10.233366700033368,-0.9796215516985765,0.17248334975394153,0.102913116293955,-0.9845199124025559,0.07124095526447571,0.16014140119241105,1
52,10.433366700033368,-0.97485861113929,0.10850323649885713,0.19462203358522334,-0.985752849655486,0.04437397777165352,0.16224139266170554,1
53,10.633366700033369,-0.9671822196260567,0.10324778571298487,0.2321603945219337,-0.9812268836911373,0.02762657687432602,0.19086795166288784,1
54,10.833366700033368,-0.9706165983337788,0.021563144789321007,0.2396632008168104,-0.9773711514872799,-0.07479929881281175,0.19786535102827013,0
55,11.033366700033367,-0.9815223666440821,-0.00024257250413650783,0.1913472888127259,-0.9550926879485051,-0.2300650931266506,0.18672977896394968,0
56,11.233366700033368,-0.7174995893510047,-0.6767931998838607,0.16475831958388185,-0.8606299895564978,-0.4832087172043394,0.16070269659753442,0
57,11.433366700033368,-0.23797735944225185,-0.9553126566978904,0.1753411085447791,-0.6478886319568709,-0.7517501675585494,0.12293089992653553,0
58,11.633366700033369,-0.1778178394467762,-0.9738146902789543,0.14165367969588685,-0.5088015537914343,-0.8565630665336336,0.08614343799686935,0
59,11.833366700033368,-0.2536688047895247,-0.9573231181744889,0.13850842893242307,-0.551790816576696,-0.8297347631711692,0.08406614970906373,0
60,12.033366700033367,-0.289462958840358,-0.9512546587289353,0.10642259960122147,-0.5918472322910991,-0.802822794638701,0.07205840712832833,0
61,12.233366700033368,-0.3799101620013409,-0.9146301415373722,0.13827499050602643,-0.6791027490163982,-0.7262377878034657,0.10676203372313214,0
62,12.433366700033368,-0.6170963199768352,-0.7532646735890939,0.2275619990107386,-0.8543081879739192,-0.48984218944617447,0.17381642442328898,0
63,12.633366700033369,-0.7868123370031672,-0.5467250594817323,0.2863879461051228,-0.9474648619338868,-0.2416625234247877,0.20954608126272697,0
64,12.833366700033368,-0.9317268847382216,0.2220012449815397,0.28740295663520155,-0.9671167961412498,-0.08945928038455453,0.23808011209372784,1
65,13.033366700033367,-0.9781308666285282,0.15441486104889246,0.13934151727240526,-0.9723126604994344,-0.0449227956793142,0.22932516796214614,1
66,13.233366700033368,-0.9791463710023962,0.14232859048779653,0.14496536304440252,-0.9701605348428434,-0.058649619025150125,0.23526316928421503,1
67,13.433366700033368,-0.9820701866871155,0.10267378297022352,0.15810200097063049,-0.9641006803201847,-0.10016444995434086,0.24592063998676802,1
68,13.633366700033369,-0.9652181322273422,0.04391902078143451,0.2577306284343424,-0.9560432023522837,-0.12271189088985422,0.26631407598966156,1
69,13.833366700033368,-0.8847494035931502,0.24371754985810878,0.3972659672470388,-0.9599158653932731,-0.10726183732532893,0.2589525624895001,1
70,14.033366700033367,-0.9556776398568351,0.18697387266032267,0.2274225574125642,-0.9630022885187832,-0.08350323608478495,0.2562299784782316,1
71,14.233366700033368,-0.9616718428634179,0.19149871684371278,0.19625368299955342,-0.9664299023448797,-0.04881922435836988,0.25224973178719934,1
72,14.433366700033368,-0.9950484137103762,0.08834454750833376,-0.04554004060178224,-0.9726358236038186,-0.01753572604178923,0.23167229647652926,1
73,14.633366700033369,-0.9957710960336824,0.07600017003126536,-0.051612967935372664,-0.9730937323406548,-0.01518718972060971,0.22990854126744517,1
74,14.833366700033368,-0.9738933674571759,0.11140289065228243,0.1977905578566332,-0.9706938155425728,-0.015405636932805562,0.23982531730010553,1
75,15.033366700033367,-0.9649330518229392,0.11131231260054814,0.23772625972573413,-0.9664813712626154,-0.019937228125339573,0.2559614540062881,1
76,15.233366700033368,-0.9930631107284931,0.037572615487162966,0.11141793695676841,-0.9696910827316445,-0.0414660716136929,0.24078988553437874,1
77,15.433366700033368,-0.9624767929003116,-0.15590495349609085,0.22210823623565282,-0.9716209228820805,-0.06667631100163907,0.22695165072981374,1
78,15.633366700033369,-0.9360789355223609,-0.23255044993902887,0.2639630934514889,-0.9650049952401542,-0.13059527841508817,0.22739883996457796,1
79,15.833366700033368,-0.721689351916669,-0.6872476356191712,0.082795933873333,-0.9446340554761032,-0.2369142740999126,0.2270201047539221,1
80,16.033366700033366,-0.6790175456887788,-0.7274770850363467,0.09855081630208655,-0.9164216305405636,-0.3494315686741114,0.19511272098795757,1
81,16.233366700033365,-0.7364969797095112,-0.6600796352177603,0.14787519754697473,-0.9111904002844947,-0.38071979817699786,0.15743090454370362,1
82,16.433366700033368,-0.7451928714200549,-0.6476873677572604,0.15870935080329984,-0.9146098602490448,-0.37777915184464006,0.14412396041868714,1
83,16.633366700033367,-0.7507774561017713,-0.6326715851415419,0.1898943831813931,-0.9181196562955838,-0.36013152215105393,0.16541337151767413,1
84,16.833366700033366,-0.96958153456298,-0.1003854706279521,0.22323620925222148,-0.9386120711365706,-0.3013582105537185,0.16790059216267803,1
85,17.033366700033366,-0.9753014553400394,-0.09654146900793513,0.19866256812341745,-0.9567664487928963,-0.23961545826528766,0.16487084225097712,1
86,17.233366700033365,-0.9748764389298543,-0.11776507915634928,0.1890696034553006,-0.9588682672438432,-0.24140642478944785,0.14931371049962489,1
87,17.433366700033368,-0.7171200810618069,-0.6547821904928173,0.2387447849720191,-0.942776676096641,-0.29913931105642677,0.1472678226526618,1
88,17.633366700033367,-0.7125836687110061,-0.6686125310930825,0.21256010526828606,-0.9257100960107655,-0.35046572145518434,0.14224836107539776,1
89,17.833366700033366,-0.7140417381289701,-0.673831860933286,0.18998689270827127,-0.9163632230045413,-0.38110634488649875,0.12262298892125721,1
90,18.033366700033366,-0.772528381894105,-0.6105295324710486,0.17450956749920332,-0.8975931669046432,-0.4254260643889208,0.11549532659223523,1
91,18.233366700033365,-0.7896081220715168,-0.592160714370975,0.1608250661879215,-0.8963504075628141,-0.4261235753715821,0.12237093353618324,1
92,18.433366700033368,-0.8688993170201316,-0.36174134891622767,0.33787153382049995,-0.9168130481902599,-0.37872891822312493,0.12656319042132938,1
93,18.633366700033367,-0.9755293333660903,-0.07441121527247693,0.2068948785832676,-0.941865485774434,-0.3134443617296919,0.12100429251376126,1
94,18.833366700033366,-0.9798313223517007,-0.06857829793814119,0.18769016167723077,-0.9486203575757602,-0.29162935190216827,0.12276700819828644,1
95,19.033366700033366,-0.9770441553220118,0.06880579670026307,0.20161964411122768,-0.952700429478624,-0.27243872495884214,0.1346812266577855,1
96,19.23336670003337,-0.9818871906459009,0.03624209924360238,0.18596788724916308,-0.944321782868247,-0.30560282298584834,0.12191507283193556,1
97,19.433366700033368,-0.7665132035090411,-0.6162772783735955,0.18072029494979744,-0.9049938469982072,-0.4101768474270167,0.11287644010252722,1
98,19.633366700033367,-0.6950361952244661,-0.7021344288086803,0.1546994867780957,-0.8423712454848891,-0.5312008242267059,0.09075444408460416,0
99,19.833366700033366,-0.7215650507831312,-0.6806852312897592,0.12653652987317424,-0.7550625649133517,-0.6513014329336994,0.07541197865711063,0
100,20.033366700033366,-0.05496570388946914,-0.9827419331390284,0.17662690691426555,-0.574692416485541,-0.8155700812323755,0.06763186403335342,0
101,20.23336670003337,0.015696502277177116,-0.995302402274618,0.0955340140611563,-0.306713356930563,-0.9514341119884379,0.026458405567188245,0
102,20.433366700033368,0.30739395515392065,-0.9442438945296442,0.11795093886154316,-0.10269103461424423,-0.9947130525220254,-0.0007032440333943251,0
103,20.633366700033367,0.264013740525894,-0.9620824742457105,0.06851319261848936,0.10111387313142545,-0.9947134220194013,-0.017921850206224815,0
104,20.833366700033366,0.8005645228482391,-0.597500080834383,0.04571759135910058,0.39600081753432226,-0.9162597854854498,-0.06042646782913941,0
105,21.033366700033366,0.8541649664042678,-0.5182920587982867,-0.04213729884827758,0.6579300345968393,-0.7417750867623553,-0.12999150062255005,0
106,21.23336670003337,0.9962720428393231,-0.04266476846160519,-0.07497822476479142,0.8497514650985422,-0.49326992942582504,-0.18603017036793418,0
107,21.433366700033368,0.9877361971217008,0.12234402175393017,-0.09700074863955824,0.9229609433896444,-0.3456869989807095,-0.1692441895989599,0
108,21.633366700033367,0.915903105227255,-0.043389091103500595,0.39904747663440243,0.9228842217481856,-0.3801693790004275,-0.061285859043303276,0
109,21.833366700033366,0.8176067274853226,-0.3878707722324436,0.4255296737227024,0.6682768105946496,-0.7400161666120841,0.07604063107444294,0
110,22.033366700033366,0.06802062309470136,-0.9740344619681977,0.21593994936586572,-0.017526528138335384,-0.9894945152911641,0.14350409408835807,0
111,22.23336670003337,-0.5165800524299898,-0.8150546811292924,0.2623564678079367,-0.5881783412752741,-0.7945650339529887,0.1507071520331842,0
112,22.433366700033368,-0.8839133664258341,-0.4547143164347747,0.10923392825951347,-0.8725744049489513,-0.4639177899454969,0.15295160018799925,0
113,22.633366700033367,-0.9706244904131063,-0.1825803268587052,0.15669244670521418,-0.9483150246178029,-0.2701875161838805,0.1664251188448469,0
114,22.833366700033366,-0.815667587149188,-0.5728333104800734,0.0809220963560758,-0.9485072525200409,-0.283899236478132,0.1404820822881593,0
115,23.033366700033366,-0.8177516675962078,-0.5688393538660357,0.08777243096150733,-0.9114455856573027,-0.39601765411431344,0.11152112811307283,0
116,23.23336670003337,-0.6578168187778,-0.7449856120836009,0.11078569727847508,-0.8623840648379245,-0.4899811885692221,0.12732697892399233,0
117,23.433366700033368,-0.5672476510586895,-0.8118066362287357,0.1385643812218157,-0.8038083687117136,-0.581459994239351,0.12568365640841364,0
118,23.633366700033367,-0.4111249734058718,-0.9046685754804267,0.1120313562367121,-0.6972572373354062,-0.7084939441054587,0.10894345390746613,0
119,23.833366700033366,-0.447904272643132,-0.8888638038990722,0.0964515456905638,-0.6329928722677526,-0.7722187329479279,0.05475629774298144,0
120,24.033366700033366,-0.7088030091138534,-0.7046846374999344,0.03190385466887517,-0.6841291441223583,-0.7263536497966128,0.06616411103876102,0
121,24.23336670003337,-0.6905096949469969,-0.7197910196550081,0.07139502229293616,-0.7761701941903785,-0.6267509952098372,0.06886958438925314,0
122,24.433366700033368,-0.7993563932848076,-0.5901839223464774,0.11274881071847659,-0.8958667237182782,-0.41827979025773604,0.149882722140421,0
123,24.633366700033367,-0.9580066870544681,0.2013903209796222,0.20412037177765247,-0.9689429988550442,-0.1783010140337156,0.17134238636234303,0
124,24.833366700033366,-0.8876256390283991,-0.01281526968969794,0.4603873301929649,-0.9647095008260334,-0.09166893399811926,0.24684486131097402,1
125,25.033366700033366,-0.8894950307507122,0.0008668902781680916,0.4569440214851656,-0.9476333104888475,-0.03557588331267633,0.3173727546253317,1
126,25.23336670003337,-0.898031800241687,-0.0048229015725431024,0.43990410929553314,-0.9395896737896946,-0.01128964899073168,0.3421166303082051,1
127,25.433366700033368,-0.9745305114407377,-0.09161180611243483,0.2046889329003205,-0.93820298101537,-0.03843362977075703,0.3439447957398366,1
128,25.625625625625627,-0.9838611433193865,-0.09050554602915616,0.1543567193361984,-0.9578312642872377,-0.047501063496219874,0.28337769517137323,1
