,timeStamp,x_gaze,y_gaze,z_gaze,x_head,y_head,z_head,fixations_head
0,0.033366700033366704,-0.9936331555106556,-0.10292374151370257,-0.04582418251052755,-0.9801391226257526,-0.011332568946679215,0.19798705306026707,0
1,0.2333667000333667,-0.9996830529643612,0.016059974908055448,-0.01938738821518184,-0.9836377144282441,-0.010098456981475734,0.17987458942544785,0
2,0.43336670003336675,-0.9841852518867007,-0.17677636142486172,0.011380158614827926,-0.9850756525700921,-0.0503426387424192,0.16459519263349737,0
3,0.6333667000333668,-0.7659350579815687,-0.6402871421589682,0.05810217328699821,-0.9422279259264221,-0.28148244274838025,0.18158791267261587,0
4,0.8333667000333668,-0.7281467046948265,-0.682651049294317,0.06156233702056376,-0.8373773605145857,-0.5154990759076935,0.18182370262410794,0
5,1.0333667000333666,-0.6945428930382298,-0.6666837603732146,0.2704495024671269,-0.7371498519435973,-0.6339650924757965,0.23387679940876485,0
6,1.2333667000333668,-0.27830212924705805,-0.9444851672010198,0.17463016289809516,-0.5467540842907042,-0.7874843693178663,0.2844790667017109,0
7,1.4333667000333667,-0.03168851662507738,-0.9976061202381165,0.06146435371461233,-0.2945631780753034,-0.9177417886830628,0.2664254932002378,0
8,1.6333667000333667,0.3043305621077997,-0.9509168976966051,0.05603536956436368,-0.034176861285872606,-0.9703000964502074,0.23947790082043965,0
9,1.8333667000333667,0.405742718252667,-0.9107448965518211,0.0769193083025974,0.210534120699521,-0.9514600566658483,0.22449753805042247,0
10,2.033366700033367,0.37820719337684006,-0.9238258066873395,0.05920471076274416,0.2034209098832418,-0.9583217086885187,0.20059769709194647,0
11,2.233366700033367,0.338252333660115,-0.9339357697373902,0.11553933000721052,0.15330963525733887,-0.9564201329733923,0.2485089233416392,0
12,2.433366700033367,-0.659379358550555,-0.7401306436553642,0.13200565078721,-0.32997590098168095,-0.9189222946821956,0.2160965550566135,0
13,2.633366700033367,-0.9992372417662309,-0.03622444466888855,0.0145850703065271,-0.8891705054587833,-0.41841285311392284,0.18522013003785154,0
14,2.833366700033367,-0.9999363244589411,0.0020900700047321824,-0.011089573252329048,-0.9867677053670291,-0.058744206062109984,0.15112449801015257,0
15,3.033366700033367,-0.9992853353463602,-0.03246084157564224,-0.019367816756500778,-0.9905423297780935,-0.023609859121028764,0.1351608947516699,1
16,3.233366700033367,-0.9929746768242864,-0.09980161839585149,-0.06356829517355711,-0.9950345392985407,-0.06851790285221183,0.07219115313994946,1
17,3.433366700033367,-0.938858553886257,-0.18387543046985264,-0.2910918100258627,-0.9950668603999078,-0.09778201227178689,-0.016751758413701513,1
18,3.633366700033367,-0.9300570155004162,-0.26037968110291415,-0.2592226255310366,-0.9992855929106601,-0.03451195518037836,-0.015402232007670866,1
19,3.833366700033367,-0.9228079267698478,-0.29250059182298677,-0.2507367824511151,-0.9995435126784913,0.009930683586899802,-0.028533275063334407,1
20,4.033366700033366,-0.9718516869438157,-0.050797306428365684,-0.23005202073462072,-0.9987828171973342,0.04653617104731529,-0.016348359416522528,1
21,4.233366700033367,-0.9738139024090786,-0.03435359863952913,-0.22473609798008826,-0.9959853453251006,0.08944680272777006,-0.0035300679058259832,0
22,4.433366700033367,-0.9752747918236515,-0.0029308778897699137,-0.22097622131833292,-0.9918400450985869,0.12728206297221434,0.007252681184952385,0
23,4.633366700033367,-0.9401089228825108,-0.23358015840678084,-0.2482650251552731,-0.9922886685299832,0.11268673884263303,0.051622642280353216,0
24,4.833366700033367,-0.930322426920754,-0.2827352303948577,-0.2335829006195556,-0.9970448731505062,-0.05306137566929109,0.05555187968353184,0
25,5.033366700033366,-0.9476208333179956,-0.2286943668161056,-0.22296556426562414,-0.9980350069110591,-0.01808250564560238,0.05999289932666091,0
26,5.233366700033367,-0.9423227401875899,-0.24219857358332073,-0.23101451097183728,-0.9985362214036341,-0.005518575501599054,0.05380483128294529,0
27,5.433366700033367,-0.977858496581836,-0.06874842504605337,-0.19765225704858322,-0.9735779336602932,0.20278553441134908,0.10499540048619786,0
28,5.633366700033367,-0.8686881061508599,0.47559310384252057,0.13853582139457704,-0.8739336910028962,0.4273932902314178,0.23146247902244932,0
29,5.833366700033367,-0.890888891955989,0.35241525628990256,0.2865666926276554,-0.8279482548780506,0.4704977538329487,0.30517790038359743,0
30,6.033366700033366,-0.8642712119847451,0.35699897324852536,0.3543825690322795,-0.7825998613028322,0.48803595645933207,0.3864690961663212,0
31,6.233366700033367,-0.8423417190729967,0.3701627616319847,0.39171412817274176,-0.7504228961775755,0.5081515383045573,0.42266711607501695,0
32,6.433366700033367,-0.8035422948450344,0.44438820404341184,0.3960289187701411,-0.7016261679108619,0.5705474754047849,0.4268445839084122,0
33,6.633366700033367,-0.5327794563355284,0.7308082787335991,0.4266911185403949,-0.587203753196733,0.6725688715333404,0.450380800296859,0
34,6.833366700033367,-0.2274567657256517,0.8678941803957831,0.44161421100408244,-0.4564989113982841,0.7721718712609275,0.44199473427358743,0
35,7.033366700033366,-0.0747731929307699,0.9007481530636869,0.42785714248016765,-0.2902452198537682,0.8541404401380355,0.431511090092527,0
36,7.233366700033367,-0.08974297204096315,0.9072298211362825,0.4109504235431371,-0.1795319953146925,0.8891036271159065,0.42102613090836083,0
37,7.433366700033367,-0.4504953779628545,0.7669525658574171,0.45698761050911374,-0.24132765851355817,0.8370056744266361,0.4911033111413281,0
38,7.633366700033367,-0.5583732171012484,0.6981374347762473,0.44813332010467954,-0.34297028656060813,0.715447777697201,0.608691925299384,1
39,7.833366700033367,-0.585133232195777,0.6828226916682055,0.43746116664580625,-0.4005400222211255,0.6708176497331564,0.6241565279684129,1
40,8.033366700033367,-0.45223615244328974,0.7964883707534129,0.4013586148045958,-0.40530633883151623,0.6905412377336485,0.5990655812949641,1
41,8.233366700033368,-0.43263581474507123,0.8099913931007142,0.3959042749234122,-0.40596977755612873,0.7001868754375328,0.5873047583461697,1
42,8.433366700033368,-0.4304535450483101,0.8144528897670427,0.38907099083002306,-0.40860213705107157,0.7087485268931034,0.57508244558859,1
43,8.633366700033367,-0.4324346571775671,0.8298297602359689,0.3526795093260091,-0.4260730380480143,0.7297857977658906,0.5346722880678764,1
44,8.833366700033368,-0.44584909937232103,0.8281684341164307,0.3396404353460142,-0.4397463933267446,0.7366813090853352,0.513735105283294,1
45,9.033366700033367,-0.46325232548878076,0.8088716858022179,0.36211031307698854,-0.4517115405810683,0.7203955373712014,0.5262955004952407,1
46,9.233366700033368,-0.47351330738696673,0.7902427853425072,0.38897491942485457,-0.45584187527766723,0.7019277749551569,0.5472710329350925,1
47,9.433366700033368,-0.48681494300903894,0.7841524770253966,0.38485855068848546,-0.46738275228651804,0.6986161612002648,0.5417460864416882,1
48,9.633366700033369,-0.49074492231440703,0.7827947515761998,0.38262487912756243,-0.4691231013829653,0.6992360477114044,0.539437174590112,1
49,9.833366700033368,-0.4971869731571863,0.7768991288607828,0.3863066881354143,-0.47180170867802107,0.696536214349748,0.5405926838090038,1
50,10.033366700033367,-0.5193039550774967,0.767041832615846,0.3767893698848124,-0.49184109881477517,0.690047583540663,0.5309676694172317,1
51,10.233366700033368,-0.5311136158378856,0.7696737375959458,0.35428895654069414,-0.5029918313675061,0.6997386150107814,0.5073116283314977,0
52,10.433366700033368,-0.5595121932716204,0.8247241311632536,0.08231775663486952,-0.5071553177494659,0.7555605295924365,0.41463450145933956,0
53,10.633366700033369,-0.5380038309671329,0.8415565250831413,0.04831659088425933,-0.4823232506609637,0.7995321712373928,0.3579281897647372,0
54,10.833366700033368,-0.5623090873500364,0.8259702945307043,0.039768867678512294,-0.5127241223342089,0.7857999552308107,0.34587917649935374,0
55,11.033366700033367,-0.8996362924668403,0.4034616998919195,0.16695268190969675,-0.6547439847132578,0.6659607225947602,0.3575005320875347,0
56,11.233366700033368,-0.8861911211648146,0.42488068904892845,0.18477471916351745,-0.7185687475889936,0.5851716839236917,0.37580986591931864,0
57,11.433366700033368,-0.8698090907966716,0.4443477958318633,0.2144462214794948,-0.7024496765279902,0.5879210390612669,0.40114000520372234,0
58,11.633366700033369,-0.3465640070695769,0.8202558639281647,0.4550535206932683,-0.5295229336856011,0.7175630033310452,0.4524475648641787,0
59,11.833366700033368,-0.1565741819365573,0.8632947737530006,0.47979856102499246,-0.3219078230232024,0.7701875319807293,0.5506237545347057,1
60,12.033366700033367,-0.3951248075016093,0.822405925389726,0.40929803368778184,-0.23203706286515885,0.7573773762752918,0.6103591658714285,1
61,12.233366700033368,-0.43615665053486635,0.8187244947721007,0.37344019314258964,-0.23372301256595876,0.7740629526242662,0.5883877112684254,1
62,12.433366700033368,-0.46110087479574424,0.8104151801346571,0.36140450892304987,-0.2431690961294827,0.783720958287203,0.5715332450776236,1
63,12.633366700033369,-0.3649582087934605,0.8448582292925967,0.3911778089703548,-0.2247966407239198,0.7948286530053809,0.5636611417162732,1
64,12.833366700033368,-0.3431682835010418,0.858357922119698,0.38138852464816425,-0.1948444873698042,0.8118512451276297,0.5503936605070191,1
65,13.033366700033367,-0.3191245725543426,0.871113201705223,0.37325768177879937,-0.16324351627585412,0.8270448689916263,0.5379110884416854,1
66,13.233366700033368,-0.2714120849205409,0.8946084228594247,0.35498063314504624,-0.1152604179161742,0.8480539687207327,0.5172228747830121,0
67,13.433366700033368,-0.2906032045018473,0.8926942802048192,0.3444513022516497,-0.12470031954736838,0.8589864534961889,0.49658040941505577,0
68,13.633366700033369,-0.34471923306314817,0.8877415151245479,0.30509613678433734,-0.18591764431303842,0.8722424975181189,0.4523578838225828,0
69,13.833366700033368,-0.26691616186451794,0.8671197658246637,0.42054616185586013,-0.15060191541204954,0.852787676833617,0.500072236096891,0
70,14.033366700033367,-0.21794279408240003,0.8808491249929048,0.42024487802564714,-0.021655811557668492,0.827686117275437,0.5607733205986982,0
71,14.233366700033368,-0.25315841002699974,0.8940888215923543,0.36948071470131877,0.01051960568743282,0.8452349888662871,0.534291260917104,0
72,14.433366700033368,-0.2511274547297231,0.8841827454638018,0.393898304267821,0.10386055932081034,0.8470829917497954,0.5212133817408995,0
73,14.633366700033369,-0.12218196800351311,0.9163329673782553,0.3813206781575713,0.24060532108450056,0.8253928201985244,0.5107208355163817,0
74,14.833366700033368,0.5180002327816343,0.8080781500574626,0.280509290822749,0.40131268120817243,0.7870521325169787,0.4685051468255012,0
75,15.033366700033367,0.5566815460206123,0.7827753087119722,0.27815188726840845,0.4798859318553714,0.7618053852519716,0.4351574972448448,0
76,15.233366700033368,0.5809795911259883,0.7593359996635178,0.29303848605615856,0.548975508338531,0.7193283534206627,0.42566725409593076,0
77,15.433366700033368,0.9144447452898635,0.3461540565836562,0.20968590062862003,0.6946820208894542,0.5934148425707076,0.40654115962559795,0
78,15.633366700033369,0.9442468209540716,0.2287252106254537,0.2368179029179835,0.8054318668722743,0.4458416382137491,0.3905185545675432,0
79,15.833366700033368,0.9294936497613597,0.27767879606631896,0.2427674633645664,0.831224841421905,0.39182837645833735,0.39438025610462907,0
80,16.033366700033366,0.9240053600477235,0.29558116735425505,0.2425816730682117,0.8316950711373273,0.38427455159254936,0.400769731447151,0
81,16.233366700033365,0.9786641463105229,-0.010072630923596495,0.20521946991592363,0.8993600945769887,0.2575294208070811,0.35331291754086713,0
82,16.433366700033368,0.9057481622386292,-0.3514785874971231,0.2368186418599119,0.9429745695418622,-0.021099593741617555,0.332195376760843,0
83,16.633366700033367,0.8344454615250151,-0.4412805544573037,0.3301094424553155,0.9035666951667566,-0.17477357788395761,0.3911795289366077,0
84,16.833366700033366,0.7618337831785095,-0.48884148673170735,0.42502151434704316,0.8468807031645158,-0.24817172667676535,0.47032315346562326,0
85,17.033366700033366,0.7644564891558969,-0.4700100754159967,0.44124460925306436,0.8228170381288459,-0.2505954558560683,0.5100725823538873,0
86,17.233366700033365,0.7966580347296641,-0.41812734583506567,0.4364693555859254,0.8271879196679653,-0.2066494431009013,0.5225477520968503,0
87,17.433366700033368,0.8511932850307227,0.03478799894653122,0.5236981827807914,0.8182518162167386,-0.05613299656917978,0.5721127965306958,0
88,17.633366700033367,0.8248988032792224,0.1778746580324534,0.5365655322310078,0.7906576124953127,0.1359472277847355,0.5969747826004521,0
89,17.833366700033366,0.7454790134604665,0.3548162576463389,0.5642397219266441,0.7330255869962558,0.31154266181866785,0.6046607798391871,0
90,18.033366700033366,0.44584601683490843,0.8487805857740228,0.2842408248045198,0.5997724338925698,0.5791318978764237,0.5521587384119125,0
91,18.233366700033365,0.43888418689079894,0.8495086385212062,0.2927725116452179,0.4654251881996583,0.7482227364869819,0.47280242257548244,0
92,18.433366700033368,0.3891341838456295,0.8709421595723389,0.3000572306115399,0.3796681260869468,0.8005399133177936,0.4636679428413892,0
93,18.633366700033367,0.008734106974703615,0.9928608616260806,0.11895808012266933,0.23484199741071005,0.8813161837726735,0.4100378280994564,0
94,18.833366700033366,-0.10612282758069608,0.9893315394758478,0.09980506231963857,0.07719143443897086,0.9335637706157023,0.35000024091855486,1
95,19.033366700033366,-0.0016132780182504525,0.9975821780948133,0.0694780201333079,-0.01510546066538998,0.953478950686897,0.3010809121400767,1
96,19.23336670003337,0.03473218406892947,0.9976718194973077,0.05869085082645687,-0.009425925154674053,0.9596118865805003,0.2811693067679888,1
97,19.433366700033368,0.10096924313143729,0.9919657679755166,0.07621762989104452,0.039476272964260484,0.9557314534412498,0.2915801995608202,1
98,19.633366700033367,-0.15560020841806887,0.9830935850875256,0.09651724250106718,0.0725670600781197,0.9452323152326588,0.31822930731082244,1
99,19.833366700033366,-0.1328879411458911,0.9871641578582144,0.08858736105161334,0.11010288838551657,0.9412094220395621,0.31937779796523136,1
100,20.033366700033366,0.4971910578703304,0.7784620515241484,0.38314212286121213,0.20325403251788293,0.9143821202150381,0.35013302685732345,0
101,20.23336670003337,0.5331275021781496,0.7484788878206674,0.39440388044240143,0.3150806766927861,0.8548528587034726,0.41225084249922,0
102,20.433366700033368,0.5479070514214068,0.7568406080922692,0.3563567832176407,0.4023314750132596,0.808471538487102,0.42953830524174824,0
103,20.633366700033367,0.7755342221711625,0.6189625415654348,0.12422577180370879,0.4877656786196078,0.7735198123368229,0.4046625046667408,0
104,20.833366700033366,0.837348991573817,0.543130315718789,0.062097717007315235,0.6079110646324153,0.7228393399199581,0.32855353621831945,0
105,21.033366700033366,0.7597207877031684,0.6424668591510406,0.10030283956237011,0.7022273733213719,0.630960923855013,0.32979543466548394,1
106,21.23336670003337,0.7644835847949711,0.6392099135987429,0.08351966795981693,0.7385887946687877,0.598108928789755,0.3110503201922153,1
107,21.433366700033368,0.7732032935487996,0.6243828182707903,0.11091782135218116,0.7595580622284849,0.5574255206646631,0.33518403753078496,1
108,21.633366700033367,0.4425697058453084,0.8123105603761525,0.3798468230344682,0.6907474788150084,0.5761904231142008,0.43688959340111055,1
109,21.833366700033366,0.4593057554460162,0.8221717052969673,0.33626166897706505,0.6830189129889047,0.5972386948697379,0.42046534440991384,1
110,22.033366700033366,0.47537957596678604,0.8266549982314765,0.3010909707257204,0.6841437805777559,0.6097142406462779,0.40024471545531737,1
111,22.23336670003337,0.464653646994748,0.8383202654003451,0.2851598165127321,0.6703273617116223,0.6315993340528099,0.38954269260863245,1
112,22.433366700033368,0.45122936983811,0.8553297598881475,0.2545644469386607,0.6557491063622436,0.6634186048980976,0.36037322900040875,1
113,22.622622622622625,0.9406406381672243,0.2702358460946251,0.20534794207364043,0.8548638661460914,0.45971070501523287,0.24056981949561984,1
