,timeStamp,x_gaze,y_gaze,z_gaze,x_head,y_head,z_head,fixations_head
0,0.03333333333333333,-0.9937759441689336,-0.07257741625178482,0.08450971211263261,-0.991207566058736,-0.1233695831571994,0.047827888721286245,0
1,0.23333333333333334,-0.9960540767221442,0.06614240316889969,0.059173125219478276,-0.9956099539696297,-0.08232226907555835,0.04454058341382182,0
2,0.43333333333333335,-0.8963531594510299,0.038704280902107424,-0.4416480410711767,-0.9996949148553721,-0.0244170032556864,0.003726548580435574,0
3,0.6333333333333334,-0.8424818593399072,0.11558434585085837,-0.5261792239127295,-0.9902267460289567,0.06522427824644014,-0.12327524072633413,0
4,0.8333333333333334,-0.8148449299394412,0.1664078786376949,-0.5552802518362138,-0.9684208655241688,0.14549911931794246,-0.20246242489687535,0
5,1.0333333333333334,-0.7000685163831527,0.23868937177721625,-0.673001824789272,-0.8949581827259503,0.25312320525156057,-0.36739419447650645,0
6,1.2333333333333336,-0.3509357728520608,0.2104941920563356,-0.9124342597926042,-0.6192584491829068,0.30438833046371655,-0.7237863755232564,0
7,1.4333333333333336,-0.2759931588163489,0.4512315992419585,-0.8486564794615771,-0.49051356098055554,0.36797724209549315,-0.7899298676426725,0
8,1.6333333333333335,-0.411807992252665,0.49934005085407196,-0.7622818974171448,-0.46739854866917296,0.425144300924954,-0.7751070378296039,0
9,1.8333333333333335,-0.42720452934318787,0.4645142615856446,-0.7757079288573816,-0.48731481064143245,0.38141073188150754,-0.7855253840170399,0
10,2.033333333333333,-0.33053668032954153,-0.02216333930170362,-0.9435328766649965,-0.5246145228641318,0.28274837590758223,-0.8030149178699384,0
11,2.2333333333333334,-0.3048972656721209,-0.09073945833282306,-0.9480527454140566,-0.5531588110788801,0.13814138914023347,-0.8215426259983148,0
12,2.4333333333333336,-0.26566480296883666,-0.20490275086976334,-0.9420387864358521,-0.550186766992366,-0.05936397804416848,-0.8329288322163303,0
13,2.6333333333333333,-0.17773456897043446,-0.30742955371808994,-0.9348248458901754,-0.4737254766033423,-0.26388694276691566,-0.8402070305907152,0
14,2.8333333333333335,-0.06924043988540558,-0.23606995119099503,-0.9692660829871006,-0.44141015542038314,-0.3903172349729143,-0.807966293093253,0
15,3.033333333333333,-0.0701756196543659,-0.23514044595514128,-0.9694247536978533,-0.431156627349652,-0.4614410263270818,-0.7753554938959824,0
16,3.2333333333333334,-0.1651427128833215,-0.6683354893919076,-0.7252968757693751,-0.38255054515104053,-0.5290130518855641,-0.7574960536790695,0
17,3.4333333333333336,-0.07693830031407128,-0.6896982780968217,-0.7199977660625494,-0.26978313431887,-0.6021538110185041,-0.7514172265213105,0
18,3.6333333333333333,-0.026269360539733333,-0.7184673154131576,-0.6950644843320968,-0.1865429195589126,-0.6547463815390735,-0.7324676887234871,0
19,3.8333333333333335,0.04529834049896958,-0.737944536059933,-0.6733393810310889,-0.0968937437763091,-0.6987284793314512,-0.7087948325066774,0
20,4.033333333333333,0.04434193820016702,-0.7558853555580646,-0.653200674961004,0.01511472607654113,-0.7239229210917316,-0.6897152668845642,0
21,4.233333333333333,0.13520894225156402,-0.7255719180144768,-0.674732490490866,0.12730054052681644,-0.7216543799909594,-0.6804480349162928,0
22,4.433333333333334,0.20279082651025124,-0.2654300953221283,-0.9425617991307389,0.15238013729923383,-0.735834477449135,-0.6597938432221275,0
23,4.633333333333334,0.22190942847072548,-0.25555275700201907,-0.9409829934406165,0.1834087882163685,-0.7530486606321869,-0.6318852198976275,0
24,4.833333333333334,0.22278276603957667,-0.19665510589763147,-0.9548270044778513,0.16155459443479797,-0.7671870532289226,-0.6207448254918685,0
25,5.033333333333333,0.22443982458398973,-0.13874319730521256,-0.9645605685192794,0.06362196018412997,-0.7772788926033634,-0.6259311218461808,0
26,5.233333333333333,-0.09510502685217026,-0.6969561953032936,-0.7107792172649713,-0.0380810532994586,-0.7738183334949721,-0.6322618287756013,0
27,5.433333333333334,-0.09861611496782552,-0.6686186721472568,-0.7370372671206604,-0.08548301234448799,-0.7589974513869103,-0.6454576077394139,0
28,5.633333333333334,0.029503089018874384,-0.7168036641340955,-0.6966506117289205,-0.06954199345287873,-0.7514376995060822,-0.6561290230645241,0
29,5.833333333333334,0.12154662742774938,-0.7144483393169822,-0.6890500619027229,0.052129590354696775,-0.7483128937775703,-0.6612944267235968,0
30,6.033333333333333,0.22554047444343983,-0.5714832141412793,-0.7890110457671559,0.2461735585984916,-0.7188372630230374,-0.650131962248053,0
31,6.233333333333333,0.42479434394640764,-0.4701627350074301,-0.7736257286062006,0.40730233820335116,-0.6497522486817513,-0.6418152542804595,0
32,6.433333333333334,0.5265841450275001,-0.36143690912653986,-0.769462474021125,0.5592264193016081,-0.5234748569006049,-0.64283737146186,0
33,6.633333333333334,0.6037229654974626,-0.2721796116427971,-0.7492908914012806,0.6670571258969089,-0.4078266304486569,-0.6234679063809544,0
34,6.833333333333334,0.8040032560100331,-0.17361339272780507,-0.5687153542773453,0.7789204055665744,-0.3096931283327301,-0.5453193266843662,0
35,7.033333333333333,0.2739858930269384,-0.22115761621479327,-0.9359599559876594,0.6630703029513868,-0.30688271278971474,-0.6827596750942325,0
36,7.233333333333333,0.09634797592023056,-0.19930557389132564,-0.975189394811041,0.4659757784596835,-0.3678021235948117,-0.8047286323774241,0
37,7.433333333333334,0.0862525713550461,-0.20716548562258658,-0.9744962573049732,0.39792073534682454,-0.41437979199831304,-0.8185038035125295,0
38,7.633333333333334,0.07767211403538639,-0.2550057099003291,-0.9638148839997768,0.34174729720809677,-0.49349534992712807,-0.7997944263692155,0
39,7.833333333333334,0.06470774530765164,-0.25738553725381347,-0.964139820207508,0.30243264035777967,-0.516294840282703,-0.8012328849614703,0
40,8.033333333333333,0.3463637389070018,-0.538339413787017,-0.7682596149309253,0.4254281821594579,-0.634827142747175,-0.6449847755226146,0
41,8.233333333333334,0.6805060451111506,-0.7327424631483159,-7.257079023249055e-05,0.6086405369798118,-0.7336321912673914,-0.3022259166271689,0
42,8.433333333333334,0.6601761644865047,-0.7302508151777632,0.17578731119196342,0.6866232585856556,-0.7268678608495609,-0.01454694583750701,0
43,8.633333333333333,0.40838110456113963,-0.8038052231841383,0.4325760472094145,0.6066557219624614,-0.7568665351413473,0.24314991876070335,0
44,8.833333333333334,0.2886102007309099,-0.8679877642831919,0.40410567069608155,0.346780810888157,-0.8346297930839089,0.42794412917630237,0
45,9.033333333333333,0.3889507611696861,-0.8811182858393483,0.2689755969322325,0.23958269205529464,-0.8457968031306412,0.47668427861796037,0
46,9.233333333333334,0.766037633455375,-0.5095106926305778,0.3918994746426664,0.43071763452089407,-0.6947898203657916,0.5759769308130288,0
47,9.433333333333334,0.8463915433789772,-0.34583339768655164,0.40499458803930793,0.6330869447599001,-0.40937653301945354,0.6569716695471336,0
48,9.633333333333335,0.8488295335979699,-0.3728555927285876,0.3747894473739445,0.6868097196006229,-0.3229482227411908,0.6511504085005402,0
49,9.833333333333334,0.9197228219484189,-0.188601009984888,0.3442957882692117,0.7474810583304189,-0.25397557566943624,0.6138146906034552,0
50,10.033333333333333,0.9273735852273994,-0.15975500199224651,0.33831431060618267,0.7894860886970352,-0.2036303556002806,0.5790046580399507,0
51,10.233333333333334,0.9140966401374062,-0.17179355710111954,0.36730682845279367,0.8365560008776904,-0.11443077709475666,0.5357981472989765,0
52,10.433333333333334,0.9127103630819766,-0.14393805367996712,0.38241551985450306,0.8428475720174546,-0.06192261422970553,0.5345779271455571,0
53,10.633333333333335,0.8480203908977201,-0.3489502557188098,0.39886731585259716,0.8306326564166309,-0.1402485402533111,0.5388689423700967,0
54,10.833333333333334,0.7274610204914467,-0.5790088313334574,0.36817011951461637,0.7833218043761865,-0.36690184364658956,0.501786795280196,0
55,11.033333333333333,0.21706678079697117,-0.8955224445555733,0.3884862468243247,0.5858969260560132,-0.6953774984503868,0.4161429161802432,0
56,11.233333333333334,-0.27401299647858046,-0.9363476106500602,0.21947671810639166,0.18277614247537377,-0.9317396697986724,0.31377391457111764,0
57,11.433333333333334,-0.6579863934574319,-0.7221198128322699,0.21353426408885592,-0.29655001581728696,-0.9272417038118207,0.22865019315740456,0
58,11.633333333333335,-0.7662280256072329,-0.5917499406217116,0.250452830984684,-0.5999946176477089,-0.7644013078564451,0.236002329101083,0
59,11.833333333333334,-0.9056597392055926,-0.23020615975574066,0.35606960105093594,-0.8121419550898332,-0.4963016211284295,0.3067737694917161,0
60,12.033333333333333,-0.8800491408326503,0.27109078184666097,0.38990165133977067,-0.9511429432063596,-0.07737784493256308,0.29889759233278546,0
61,12.233333333333334,-0.48769538655673317,0.7607938350962204,0.42818915260765733,-0.8753593917742986,0.3806545193920697,0.2980739373023454,0
62,12.433333333333334,-0.3816650030878598,0.8250236324331297,0.41673472538869183,-0.6326673462214218,0.7226593445393219,0.2783801371778185,0
63,12.633333333333335,0.03096164910853727,0.8615069074921985,0.5068009714155138,-0.39387124555388575,0.8779980501330973,0.2720015917017948,0
64,12.833333333333334,0.4050916095486745,0.7617623315912311,0.5055877154776963,-0.04827255572060718,0.9579238022314688,0.2829341787105385,0
65,13.033333333333333,0.5103643893281602,0.7068411655973021,0.48979971082345647,0.2267517985397255,0.9053211509583992,0.3591340076995755,0
66,13.233333333333334,0.6715337609316807,0.5312010224606688,0.5165925683415243,0.4103406711234766,0.8247635360066468,0.38908308019720916,0
67,13.433333333333334,0.6680914497312914,0.5848435709718359,0.46001283926522313,0.5526073304343027,0.7394137966542518,0.3845677777292556,0
68,13.633333333333335,0.9079682001751794,0.1908649461103556,0.3730473425946585,0.7308086016592076,0.5939973541458878,0.33628251665615744,0
69,13.833333333333334,0.9333068228738918,0.015157201447131166,0.35875985508600805,0.8523513725330925,0.4135385107809297,0.3201297203354361,0
70,14.033333333333333,0.9461668006408257,-0.01686715697638939,0.3232396701839644,0.9159670694847146,0.2608350489065271,0.304908846840353,0
71,14.233333333333334,0.9500474570854096,-0.06923015066731483,0.3043304380506946,0.9423098319677432,0.16834788937691506,0.2893288245565269,1
72,14.433333333333334,0.9514293431714318,-0.08694463208948268,0.29533512473663304,0.9541579563853415,0.11053390847507084,0.27814537447847915,1
73,14.633333333333335,0.9594701253905066,-0.0014872379896887326,0.28180643464315636,0.96250425704937,0.05975909138949045,0.26460235478570965,1
74,14.833333333333334,0.9555316684328701,0.001886390924612867,0.2948824717598098,0.95772099731096,0.05573042333052052,0.2822492005747788,1
75,15.033333333333333,0.9572082186672287,0.02153608908855264,0.2885976836058824,0.9546861241425479,0.09622138150445868,0.28163069809779745,1
76,15.233333333333334,0.9542619627775933,0.04620254950899127,0.2953801462771737,0.9478638410595446,0.1346439863854112,0.28883409726362236,1
77,15.433333333333334,0.9481231855181909,0.0605665730463636,0.3120803026662496,0.9380633534273028,0.15708528407570568,0.30880634462973355,1
78,15.633333333333335,0.9492941760448944,0.07078011717694722,0.3063180411592877,0.9364299418605613,0.16867905365537103,0.30764645430258813,1
79,15.833333333333334,0.9547287483220318,0.05005606628162201,0.29323609490623187,0.9433846485949002,0.15212071891083806,0.29476209334567877,1
80,16.033333333333335,0.9537062788908378,0.010527723552044599,0.3005553204336987,0.9459602402815067,0.11430873101271626,0.3034678530269999,1
81,16.233333333333334,0.9439570024909977,0.01033112714382374,0.3299067220596585,0.9374734000467394,0.10971214530751726,0.3303132897369232,1
82,16.433333333333337,0.9328121589475202,0.015700841849674584,0.36002077674056265,0.9269720264691282,0.1079654168420411,0.3592580283164771,1
83,16.633333333333336,0.9141661454573581,-0.015599524171476422,0.4050393972754507,0.9120172576198826,0.07164354824446444,0.4038461635306834,1
84,16.833333333333336,0.8670983744330708,-0.04448701043231894,0.49614646522808253,0.8670860884023399,0.03593690804966224,0.49686039683090005,1
85,17.033333333333335,0.8322225496431637,-0.05914382132877491,0.5512781840995181,0.8373244491107127,0.01353211017084715,0.5465387899461167,1
86,17.233333333333334,0.8114670223928651,-0.07231734893000026,0.5799064343604009,0.8193792849473701,1.698942922103152e-05,0.5732517659026405,1
87,17.433333333333337,0.8071816058633556,-0.07515215670672197,0.5854997937644241,0.818272832264283,0.0016632321978038607,0.5748276312398742,1
88,17.633333333333336,0.8287789700258376,0.04824653334319728,0.5574923235913442,0.8180599989347016,-0.012617956882753736,0.5749944567620293,1
89,17.833333333333336,0.8698710699431267,0.1059505422134352,0.4817663378451004,0.8260426920231112,-0.005370660421956565,0.5635819611749858,1
90,18.033333333333335,0.8667055521947195,0.04876561852202794,0.4964306600573848,0.8319539900526278,-0.00551792081924455,0.5548171869952702,1
91,18.233333333333334,0.846310108311384,0.20757245019903103,0.49058422160557136,0.8377093750835836,0.00031159822201321186,0.546116201740637,1
92,18.433333333333337,0.8739671067973042,0.1567054411760122,0.4600270654452638,0.854882113832401,0.01582428909296273,0.5185809129963697,1
93,18.633333333333336,0.9188485514069202,0.2236336280074043,0.32512357650845625,0.8910105698817816,-0.0028799410715818433,0.4539734246609233,1
94,18.833333333333336,0.9343676582534038,0.25010656055782415,0.25377901326939156,0.9318402581173038,0.09435765018353702,0.3503860259823701,0
95,19.033333333333335,0.6664466314011777,0.6943443921644336,0.27154143802341923,0.6256077251386782,0.7302857945830472,0.2744041407796449,0
96,19.233333333333338,-0.4798628191041706,0.8521821850874246,0.20860776174682474,-0.5357341903669245,0.8172716619472172,0.2122637695178566,0
97,19.433333333333337,-0.7711092302481626,-0.2448423024467727,0.587743823411739,-0.9662852988218945,0.03746927582627887,0.2547327514273272,0
98,19.633333333333336,-0.7860635826075476,-0.36958944568370267,0.49548732146988467,-0.8788662986454088,-0.35740790314688964,0.31599623395455717,0
99,19.833333333333336,-0.6152978950423762,-0.6557465083070013,0.4374985910829854,-0.7058079117287019,-0.6069366243512421,0.3653260540425339,0
100,20.033333333333335,-0.28303217187970037,-0.8812555756695112,0.37852529642344734,-0.46641757007966644,-0.7966440053338758,0.3844645355381682,0
101,20.233333333333338,-0.34297338594355997,-0.9338127865233747,0.1017985081416252,-0.3785092494631512,-0.8797850736319657,0.28759167631424615,0
102,20.433333333333337,-0.3842135512571694,-0.9225297733933392,0.03631479358593012,-0.4291407775830106,-0.8857093893363857,0.17707927788653344,0
103,20.633333333333336,-0.12144853590340726,-0.9876898041542249,0.09858551565371101,-0.40340153342249485,-0.9059469307926531,0.12855878585204364,0
104,20.833333333333336,-0.06841581022925008,-0.9876579041321685,0.14089407835650108,-0.2931573291273419,-0.9458217369007867,0.13957085077086154,1
105,21.033333333333335,0.18675729670638058,-0.952265660195092,0.24147841423226787,-0.2114182719959104,-0.9645163703766705,0.15814703772653244,1
106,21.233333333333338,0.08011590761293058,-0.9710657632999244,0.22497271988863868,-0.16407008937767253,-0.9717213137000514,0.16981959331198854,1
107,21.433333333333337,-0.27677417203353943,-0.9342173101469609,0.22502016602279423,-0.2164200061659473,-0.9584463802333183,0.18585724938452328,1
108,21.633333333333336,-0.3031762111366783,-0.9347608357801942,0.18521977457151134,-0.27723646188544665,-0.94721479255542,0.16100956793132623,1
109,21.833333333333336,-0.3005713430884423,-0.9406077480524527,0.1578414774946813,-0.2827807969830305,-0.9498053626321964,0.13380879632058562,1
110,22.033333333333335,-0.11326389758789929,-0.9854581456201849,0.126663067758618,-0.27986154134592467,-0.9527874714301277,0.11778604315141601,1
111,22.233333333333338,-0.16661666050937357,-0.9786920781802478,0.1200029355804738,-0.32793892947167586,-0.9392970330952934,0.10088182272020393,1
112,22.433333333333337,-0.46735961458400693,-0.8806658952299206,0.07747626497690102,-0.34831418661344415,-0.9318664242876293,0.10149972753265499,1
113,22.633333333333336,-0.4925203608010723,-0.8664034107710565,0.08227286308778625,-0.40630700488614996,-0.9065259390476343,0.11456587456241464,1
114,22.833333333333336,-0.5171004446331204,-0.8524456439555685,0.07709445026333159,-0.4571829227282997,-0.8819411668943803,0.11473252940029059,1
115,23.033333333333335,-0.14213379807455778,-0.9584081271913045,0.24749110121084555,-0.40865243390344697,-0.9005320355426097,0.1484763995599068,1
116,23.233333333333338,-0.15969332207380899,-0.9506817949656432,0.26589879203549155,-0.3815803115561917,-0.8964837702398766,0.22519617121340332,1
117,23.433333333333337,-0.040601387972078795,-0.9691078668619567,0.24327241866066382,-0.3879332007757408,-0.8818079151217634,0.2681839528467318,0
118,23.633333333333336,-0.160610391223927,-0.9478820366740567,0.27517984443185484,-0.5175142865223705,-0.8035461424150726,0.29409617517930775,0
119,23.833333333333336,-0.9009150924355785,-0.38867917812264235,0.19308157010885493,-0.6979301916292743,-0.6484164855227602,0.304055108351491,0
120,24.033333333333335,-0.9022523087482176,-0.3955504681925582,0.1716991510496175,-0.808625235135705,-0.5120601978199236,0.28968876904420504,0
121,24.233333333333338,-0.9490739483501446,-0.22485066058898695,0.22068262504276046,-0.8690077117217927,-0.3517631945100085,0.34797737276462104,0
122,24.433333333333337,-0.9481062097731878,-0.07956231066721,0.30783835646458185,-0.8854058857277394,-0.3042570235857851,0.35140301808236707,0
123,24.633333333333336,-0.971457996136246,-0.21524395987244022,-0.09969653695781681,-0.9546149481127972,-0.27134914734003024,0.12280041155240502,0
124,24.833333333333336,-0.9299220909994104,-0.2577527046944239,-0.2623136441247262,-0.9609147133070328,-0.2674792868561863,-0.0713984933522333,0
125,25.033333333333335,-0.771915745686805,-0.21923451895596374,-0.596726325260526,-0.9202767564860195,-0.30718820850558093,-0.2423346777221612,0
126,25.233333333333338,-0.7995893901469837,-0.22783765056029495,-0.5556499007032574,-0.9161574725433776,-0.32800184831291646,-0.23036986132356863,0
127,25.433333333333337,-0.6487391578446838,-0.7586218423558433,0.060252845406642525,-0.8685631160238341,-0.47083572501777504,-0.1546345159721923,0
128,25.633333333333336,-0.6256464325671182,-0.7778807384171171,0.0588905613462738,-0.8055987142354097,-0.5853806130892921,-0.09132496614540452,1
129,25.833333333333336,-0.6687136030718366,-0.7434569670247844,0.009687891875489307,-0.732046428499286,-0.6800729729370907,-0.04010957494099283,1
130,26.033333333333335,-0.6859386862185936,-0.7272875042940263,0.023259510882142943,-0.7178301820668356,-0.6959696330333154,-0.018603752561406593,1
131,26.233333333333338,-0.7392776857084411,-0.6729210766772682,0.025411178191451764,-0.754625959285032,-0.6561537693364502,0.0013757029890738332,1
132,26.433333333333337,-0.8155799779800741,-0.5783029155331394,-0.01987554788910947,-0.7798013232072442,-0.6257529070469052,0.01852554038559782,1
133,26.633333333333336,-0.8251143592907232,-0.5641717662888179,-0.02994181381971981,-0.8006642941908427,-0.5984288991250887,0.02862762127411498,1
