,timeStamp,x_gaze,y_gaze,z_gaze,x_head,y_head,z_head,fixations_head
0,0.033366700033366704,-0.9912000866844032,0.12576377306361872,0.041302076723023384,-0.9821151317292935,0.07591339914999852,0.1722992276762897,0
1,0.2333667000333667,-0.9936270302067444,0.10952638651204218,0.026632602203698903,-0.982087680224791,0.07985619450742887,0.1706656865028254,0
2,0.43336670003336675,-0.9612309151826954,-0.04919830382868236,0.27132020676208074,-0.9852191417072038,0.046796580196891084,0.16478265350332394,0
3,0.6333667000333668,-0.966363565921411,-0.0819684802860136,0.24376756695519625,-0.990381268062514,-0.0001807498625291797,0.13836513722890617,0
4,0.8333667000333668,-0.9719428883150253,-0.11221559425659589,0.20672368577278438,-0.9945581210232031,-0.05477490700120695,0.08862196945343144,1
5,1.0333667000333666,-0.9543872251190139,-0.034016727011119366,0.29662752200879766,-0.9916482451515254,-0.0865536710416816,0.09561495655549238,1
6,1.2333667000333668,-0.9829743850302928,0.01703540392470991,0.18295123226543067,-0.9899473974086945,-0.11510576745300392,0.08218766734010415,1
7,1.4333667000333667,-0.9927640112929873,0.03771088411297144,0.11400660989993644,-0.9869784717772857,-0.14398944763765448,0.07169752587905048,1
8,1.6333667000333667,-0.9936271156638304,0.020762027466431424,0.1107885067733125,-0.9841176714831243,-0.16612253548034742,0.06257564925922915,1
9,1.8333667000333667,-0.9501331447644537,0.03800882777882966,0.30951952479753075,-0.9817003906033126,-0.17928887432042398,0.06418600029772152,1
10,2.033366700033367,-0.9505216522309451,0.07614561348302387,0.3011817295047099,-0.9856901886650267,-0.15599068117530113,0.06388864809940764,1
11,2.233366700033367,-0.9494013346836798,0.10742389860052536,0.29512236735007347,-0.9897505285664064,-0.13408866323967972,0.04913371137126636,1
12,2.433366700033367,-0.9036974610764672,0.17908304216532528,-0.3889217952914952,-0.9915751375140551,-0.062177306744276656,-0.11363419023344702,0
13,2.633366700033367,-0.7622190607249256,0.24755523003710797,-0.5981124572761268,-0.9507261992053175,0.05196037437472067,-0.3056465501841132,0
14,2.833366700033367,-0.6675706381234208,0.2217454292302316,-0.7107590363343893,-0.8875567407785023,0.1329213376157582,-0.44110650630554143,0
15,3.033366700033367,-0.7415737666806704,0.19984890023551374,-0.6404129649263033,-0.8427315213207014,0.1412277481510981,-0.5194788793826621,0
16,3.233366700033367,-0.6079032609693742,0.0911410291050165,-0.7887629162913781,-0.81857076471412,0.08839191588681165,-0.5675638927567538,0
17,3.433366700033367,-0.5852329195395002,0.053801925767275514,-0.8090783538514708,-0.8126756042270766,0.025007197895023484,-0.582179527592301,0
18,3.633366700033367,-0.8403872194987152,0.0745859943102258,-0.5368298154498997,-0.8380448877793343,-0.04280761790479624,-0.5439193634319709,0
19,3.833366700033367,-0.8743144371700279,0.04997582438768454,-0.4827801590090762,-0.8739966082709809,-0.09736588977176971,-0.47607752755173566,0
20,4.033366700033366,-0.9027153181947736,0.017551252544459925,-0.4298802249820635,-0.8993553358106838,-0.12790742108128486,-0.41809050644709317,0
21,4.233366700033367,-0.8532546477891398,-0.2189824352016087,-0.47328976230149344,-0.912483234086723,-0.18018405029589768,-0.36729831953005193,0
22,4.433366700033367,-0.8354794556442726,-0.282950222380013,-0.4710766931736824,-0.8938842627663274,-0.2765508187919985,-0.3528322114039118,0
23,4.633366700033367,-0.7440762585360925,-0.4479261071369263,-0.4956941839764604,-0.8383978196629894,-0.40101985785149125,-0.3691506055705662,0
24,4.833366700033367,-0.7986540548673622,-0.34370526752623104,-0.4939821755070142,-0.8001717057531978,-0.46823423602068576,-0.3748092068374828,0
25,5.033366700033366,-0.8302843481675388,-0.2551800116218982,-0.4954907293347208,-0.7795184196949783,-0.5264822843635683,-0.3393632826449603,0
26,5.233366700033367,-0.7055622636689767,-0.4143847834803337,-0.574862716921411,-0.712872533408768,-0.621303217674317,-0.3252615298785048,0
27,5.433366700033367,-0.7006989200385165,-0.4361462644128047,-0.5646215188031822,-0.6526091713851165,-0.6940813531220976,-0.3038952857025426,0
28,5.633366700033367,-0.7127746320712093,-0.359018802310093,-0.6025427980347777,-0.6390956839546367,-0.713570390620559,-0.287008718299947,0
29,5.833366700033367,-0.9653628014185021,-0.12142132495620951,-0.23093618920234316,-0.7787272697889044,-0.5696287022056796,-0.262882066544282,0
30,6.033366700033366,-0.9754876445353025,-0.026165520797501646,-0.2184930682661651,-0.8939467135382959,-0.40745573070446967,-0.1866523529724899,0
31,6.233366700033367,-0.9010368245495348,0.347576233304368,0.2594675371749595,-0.992253149359267,-0.1179724645985826,-0.03893822265014679,0
32,6.433366700033367,-0.8007012073945154,0.40767967674433425,0.4389474429206768,-0.9834077397835714,0.1407733326968849,0.11442065432071107,0
33,6.633366700033367,-0.7527840231183893,0.4297465305037421,0.49863226335415617,-0.9576697157608784,0.23101457768369238,0.17175849443944216,0
34,6.833366700033367,-0.7888195697889628,0.3930334524496242,0.4725340110230002,-0.9667917884131002,0.20542566475542315,0.15203267450384483,0
35,7.033366700033366,-0.9005924440799231,0.266477747367545,-0.34339898052275736,-0.9941928334785798,0.08674571203575407,-0.06368509482793573,0
36,7.233366700033367,-0.867608502576851,-0.1438770798180565,-0.4759778063727166,-0.9753191881901436,-0.12544435456793102,-0.18170359120048948,0
37,7.433366700033367,-0.8558433690837657,-0.17782795017520253,-0.48570500072763845,-0.9132904526616319,-0.31581924898529135,-0.2572134348114006,0
38,7.633366700033367,-0.7574139677732653,-0.18530143544717767,-0.626089018785008,-0.7929678190589478,-0.4959587374411615,-0.35387422722298434,0
39,7.833366700033367,-0.7103466987637141,-0.29222722510303867,-0.6403208699270011,-0.6711018042008683,-0.628937322777521,-0.39250504763096244,0
40,8.033366700033367,-0.6784523151563603,-0.38711216639020335,-0.6243769908409968,-0.5788751050072852,-0.7181211592048513,-0.38627142465510605,0
41,8.233366700033368,-0.6546580915791376,-0.4462920595063418,-0.6101198085225146,-0.5213719655032842,-0.7671716842625376,-0.3736560991781395,0
42,8.433366700033368,-0.6448980311299468,-0.494627366610255,-0.5826236329268858,-0.47766611274278287,-0.8078641200151877,-0.3452399865735224,0
43,8.633366700033367,-0.5284364154754018,-0.614942563082194,-0.5853209366744121,-0.2968964000889062,-0.8874740165365569,-0.3524803506391802,0
44,8.833366700033368,0.07066526178268534,-0.9973969568601015,-0.014343333761483602,0.09458733938428282,-0.9470889350378715,-0.3067177600939234,0
45,9.033366700033367,0.658941775231807,-0.7451944167555525,0.10237684352775608,0.5279447285904855,-0.807059446967348,-0.26444169984001636,0
46,9.233366700033368,0.8406929485958194,-0.5348984350068055,0.08437434686287938,0.7491056801115915,-0.6311308677201727,-0.20128215975424227,0
47,9.433366700033368,0.9610010167696331,-0.2514873565756912,0.11502675884463831,0.8576414118977393,-0.49977390685521805,-0.12114970336209858,0
48,9.633366700033369,0.9591068014065166,-0.2460902780654573,0.13983461137153033,0.9192228333276116,-0.38994942094862944,-0.05448698735465954,0
49,9.833366700033368,0.9661286545093026,-0.2248211691549117,0.12669200778211492,0.9474220847380629,-0.31723655413168816,-0.04186122398157717,0
50,10.033366700033367,0.9934144565009855,0.10806308918494634,0.03807999961473297,0.9907644397517331,-0.1286764556124794,-0.04275739344773669,0
51,10.233366700033368,0.9390944722291374,0.3436069016193602,0.005989105794804716,0.9938958001137813,0.09395509450569456,-0.057823686605170066,0
52,10.433366700033368,0.8183589539093439,0.5745276934799,0.014371916402175023,0.9325871014080527,0.3518387930881838,-0.080565265254805,0
53,10.633366700033369,0.5330469486741649,0.8399671014723398,0.10156878926775911,0.790422904492408,0.6089158095048732,-0.06673206866874996,0
54,10.833366700033368,0.36383389102897484,0.8574851272927076,0.3637913635733056,0.5351103619983014,0.8447762947313349,-0.003148387213182301,0
55,11.033366700033367,-0.041425294362380155,0.4401966301098251,0.896945300353898,0.1774962687307241,0.9772691817273719,0.11593110468111564,0
56,11.233366700033368,-0.5621355835608853,0.6894702402777378,0.4567651184865381,-0.24061480189595086,0.932542319997439,0.26920129740097226,0
57,11.433366700033368,-0.7487919503016528,0.5200062142523034,0.41097950350648277,-0.520991015025704,0.7919133708370594,0.3184989408961554,0
58,11.633366700033369,-0.7425135800613877,0.4036061605624713,0.5345798823192301,-0.6991000358179097,0.643239270084475,0.31225371309335753,0
59,11.833366700033368,-0.39031074370466573,-0.1029605797905495,0.9149079966630005,-0.7780170311161183,0.5127921521683114,0.3629513851300926,0
60,12.033366700033367,-0.7246796946846975,0.15750674680800644,0.6708434726682915,-0.7770243542433656,0.4959260009088458,0.3876732574414188,0
61,12.233366700033368,-0.4211988548772034,0.7081556360574799,0.5666631448842941,-0.6817390639498909,0.6166404184190585,0.39368317598888497,0
62,12.433366700033368,-0.16494741291456833,0.8285497323589348,0.5350679321177162,-0.3936577136811677,0.8215362011581766,0.41244620818466476,0
63,12.633366700033369,0.3561337888004765,0.7529726140478233,0.5533542870246921,0.02661280601881255,0.8989056581371178,0.43733325545272683,0
64,12.833366700033368,0.4969323425670423,0.7179586998929984,0.48743569028004835,0.3937318182871751,0.8014184019811557,0.4502263877586987,0
65,13.033366700033367,0.643486876943308,0.717203880554818,0.2674756679005741,0.5973751258026727,0.6594566218803114,0.4563550404350206,0
66,13.233366700033368,0.5435677558937111,0.7767295128729734,0.31815932892937226,0.6662776899471967,0.583761321598115,0.4640008181939442,0
67,13.433366700033368,0.5422044612053469,0.7770169729420251,0.3197795271887056,0.6403508710576467,0.6099664235010845,0.46678873608626087,0
68,13.633366700033369,0.5843951386960355,0.7435233327111298,0.32504672830621767,0.6231448209423474,0.643127791335776,0.44505862102008115,0
69,13.833366700033368,0.7994648658929189,0.5387226473736282,0.2657702718694602,0.6861688775219623,0.6001288985181288,0.41111747309457375,0
70,14.033366700033367,0.943216340610067,0.2685855905604872,0.19546026539792938,0.793092086224653,0.46796669357420273,0.3898873125315263,0
71,14.233366700033368,0.983334302080919,-0.04400947416036064,0.1763995933531614,0.886406199505353,0.28817460263310635,0.3622698550469357,0
72,14.433366700033368,0.9540770310586083,-0.26000471482811094,0.1487769036965891,0.9436807861947577,0.052274708707470405,0.3267015895222939,0
73,14.633366700033369,0.9579209890060106,-0.23476083078717527,0.16515063169682984,0.9497265957992881,-0.03339450135409136,0.31129439524477104,0
74,14.833366700033368,0.9675782763919624,0.24687182283604825,0.05335337050240004,0.957879346491645,0.027552975707514072,0.285846096867528,0
75,15.033366700033367,0.9136488812433514,0.39317015953748063,0.10326154875869584,0.9320007170495673,0.23122593665266167,0.2791222485546288,0
76,15.233366700033368,0.6468457812370784,0.6395983574010751,0.4153365821904453,0.8073951681301001,0.5013820820485824,0.31101294230433,0
77,15.433366700033368,0.5537462551966905,0.6719286867727037,0.4918098461270901,0.6427984640201325,0.6750881584288798,0.3620305415327027,0
78,15.633366700033369,0.4245740870024648,0.7120801636984958,0.5591767923592205,0.5373293733267668,0.7472878298279206,0.39094506513235494,0
79,15.833366700033368,0.3640816395601271,0.7418071978966713,0.5631754974107973,0.4106103800118681,0.8214655838050628,0.39571885278606167,0
80,16.033366700033366,0.43901456734175826,0.7463155730283316,0.5002791971660641,0.33918766776289333,0.8543113361777767,0.3938322827241454,0
81,16.233366700033365,0.5759880816345007,0.709778258383279,0.40552750059818005,0.337653563837052,0.8513413251466913,0.40150718415193254,0
82,16.433366700033368,0.7383834310567129,0.48781144634547374,0.46564997751020437,0.43676201750920735,0.8056731841938792,0.40016204259297566,0
83,16.633366700033367,0.8006965153114488,0.3351384352017261,0.4965554547265002,0.5863992928970135,0.7018602498206588,0.4043860272209775,0
84,16.833366700033366,0.8198066373925719,0.32187700099724914,0.47361616686521746,0.7227468443511249,0.5515816205835491,0.4164069101430916,0
85,17.033366700033366,0.8274969299671824,0.2984543018548523,0.47557739706510593,0.8376908597733144,0.3683925654103999,0.4031884685883135,0
86,17.233366700033365,0.8021068275455634,0.37118480679593535,0.46781029959659487,0.9002455771065776,0.21427226788500753,0.3790056676561197,0
87,17.433366700033368,0.8211037197321731,0.3520513941757577,0.44927552492974093,0.9228768958761746,0.11422304658625836,0.3677653201248185,0
88,17.633366700033367,0.8179665407082999,0.37385975408898514,0.43721804920911145,0.9302174890238684,0.052009165526670974,0.3633049267699918,0
89,17.833366700033366,0.7871534217390279,0.43984002769000674,0.4323542999510866,0.9314335900621367,-0.011511865857974538,0.36372921830453475,0
90,18.033366700033366,0.7876515426906726,0.42998741376050825,0.4412662136449529,0.9350044462849683,-0.012973838959934498,0.3543985961173975,0
91,18.233366700033365,0.7367632026436061,0.5062503511157775,0.4482081717522437,0.9301548849483505,0.09039787504211795,0.35586530344301665,0
92,18.433366700033368,0.6572075368393004,0.6084802329242455,0.44478091198035463,0.8922044372360483,0.2798532314170876,0.3544762489105872,0
93,18.633366700033367,0.5579318210624922,0.7097579200083138,0.4300648532853657,0.7920897483470795,0.4954708345471766,0.35651435129119924,0
94,18.833366700033366,0.506983016820155,0.7652746122796956,0.39663962038114137,0.6486079264141902,0.6737641556753659,0.3540474831427923,0
95,19.033366700033366,0.5924498380617463,0.7132930882613676,0.3744544827067391,0.5523622763852964,0.7554703972290706,0.35236400857210626,0
96,19.23336670003337,0.6821211807611204,0.6185256257000041,0.39004710626983713,0.527556006059357,0.7634925179496534,0.37251018174755696,0
97,19.433366700033368,0.7462822400798045,0.43142142050198967,0.5068908916852962,0.5946338823486532,0.7118930701602401,0.37365599502857605,0
98,19.633366700033367,0.7958380230787175,0.3590283383080037,0.48758639574331114,0.6969355494285407,0.6120480758739784,0.37373519069215205,0
99,19.833366700033366,0.9010004684393359,0.12440084976713128,0.415599066949522,0.8594375764399502,0.39617434753391007,0.32312990972533867,0
100,20.033366700033366,0.8651905882485532,-0.36300758896346125,0.34593458393323057,0.9787994089834687,-0.0806111695260148,0.1882911477506597,0
101,20.23336670003337,0.5427269995423144,-0.7619187503380451,0.3534504517624897,0.820695177592823,-0.5466801662580139,0.16613314327970669,0
102,20.433366700033368,0.23434263201143912,-0.8882058974408072,0.395188327982143,0.4606586813780274,-0.8669535242345303,0.19022398925578513,0
103,20.633366700033367,-0.5303858066775373,-0.7242200052806518,0.4406770700028662,0.04794031818592165,-0.9767040268393408,0.20916732500094107,0
104,20.833366700033366,-0.7462866237112973,-0.5756020813229684,0.3342731207355141,-0.3004739658483455,-0.9314287878396509,0.20531879853273508,0
105,21.033366700033366,-0.9412462087378793,-0.26697534423661096,0.20683263791363218,-0.571538048072991,-0.8072203293577038,0.14744354674435922,0
106,21.23336670003337,-0.920526531788253,-0.034531539092837245,0.3891509695243869,-0.7516160252070208,-0.6386649602376104,0.16486485136829807,0
107,21.433366700033368,-0.8827857743380533,-0.014800984147974297,0.46954255131416506,-0.8638206482070723,-0.4470439601897921,0.23230494051772027,0
108,21.633366700033367,-0.8714750342540916,-0.13660553997765834,0.4710309874299593,-0.8680107406514003,-0.42320239084279687,0.25972502863364644,0
109,21.833366700033366,-0.7873807720151516,-0.36032606937488365,0.50019660493617,-0.7672986631269479,-0.5687597679238453,0.2962517307203659,0
110,22.033366700033366,-0.7306247892489317,-0.4545580735377983,0.5094746069398942,-0.5398518231967008,-0.7788928291913643,0.3191958170550965,0
111,22.23336670003337,-0.46623926526190096,-0.635203468156541,0.6157414242764123,-0.24685270010137306,-0.9117408266455332,0.32831754366829313,0
112,22.433366700033368,-0.13631674923509698,-0.7523925788696324,0.6444557014565703,0.03651184382735678,-0.9434918200087324,0.32937830960300984,0
113,22.633366700033367,0.4264715997596208,-0.703698284697882,0.5682699171271772,0.3649454019787004,-0.8665814641450281,0.3403695338523476,0
114,22.833366700033366,0.6624638218093312,-0.5595050507734717,0.498092143034549,0.6956429442074332,-0.6282753980658897,0.3483545871085404,0
115,23.033366700033366,0.9010343127881133,-0.07892024839127326,0.4265076336624144,0.8853823572587243,-0.31813713395762616,0.33894962081733016,0
116,23.23336670003337,0.9367168228196784,0.10402573343859518,0.33427569554062664,0.9479640733745112,-0.012727031198603803,0.3181228351880361,0
117,23.433366700033368,0.9270260273117211,0.2925356184400349,0.2346181080619195,0.9434047675609989,0.1729002412348548,0.2830069806985451,1
118,23.633366700033367,0.9410085218534767,0.309626163643543,0.13650860993548028,0.9308280854730512,0.286588154625741,0.22677368657493457,1
119,23.833366700033366,0.929921646917378,0.3426222267170698,0.13362537316658252,0.9448274835144108,0.2628785360787993,0.19543771812240718,1
120,24.033366700033366,0.9162414912581816,0.3406496072482539,0.21085391810112056,0.9611598496564664,0.21097985706147473,0.17793044518204007,1
121,24.23336670003337,0.986970826928775,0.13236885742936083,0.09147170258815422,0.9692115151923556,0.18208966018760012,0.16574798481822592,1
122,24.433366700033368,0.9955232776917392,-0.019123085838921024,0.09256193149396723,0.9673420553106387,0.17094201733876724,0.18715815433889477,1
123,24.633366700033367,0.9951829629273691,-0.04187021892578848,0.0886439793003989,0.9682914268354943,0.14505206525432604,0.2034001255710957,1
124,24.833366700033366,0.9851389158040647,-0.12157461956522901,0.12132983328910338,0.9756677755789299,0.09857194360453393,0.19584678611324613,0
125,25.033366700033366,0.9637858417948914,-0.2231776476287414,0.14597461681612275,0.9814931349678006,0.015380031887332302,0.1908787065919707,0
126,25.23336670003337,0.9413852127692081,-0.3092530077336399,0.13474590304410042,0.9847175109968146,-0.057437862525230456,0.16441507073492706,0
127,25.433366700033368,0.9161324239798662,-0.3314331802992864,0.22550704807051117,0.9784342220454173,-0.13267462649073702,0.15831587607035078,0
128,25.633366700033367,0.8708421419535176,-0.46696617369157717,0.153546593663479,0.9619111143467561,-0.22762898724168024,0.1513672760655652,0
129,25.833366700033366,0.7974402743162671,-0.5755575111444742,0.18116997616485905,0.9239819299815487,-0.3404442219300619,0.1742272218168199,0
130,26.033366700033366,0.6606618267945409,-0.6781976285575304,0.32182903417100533,0.8571703299886088,-0.4727201190546327,0.2044375563055716,0
131,26.23336670003337,0.5764104094140424,-0.759274218985617,0.30208227406274196,0.7911770120960713,-0.5753702641214511,0.2073354641530116,0
132,26.433366700033368,0.33666005025530776,-0.467441341589719,0.8174096908741036,0.7163516054018344,-0.6647341381322891,0.21205872545061,0
133,26.633366700033367,0.2857241965456582,-0.4970679643527683,0.8193199145160169,0.6391015728019009,-0.7388450446792322,0.21367540709000626,0
134,26.833366700033366,0.3937751156666986,-0.907105603736158,0.14866264477715468,0.5475049444666776,-0.8048933980531021,0.22887759513563333,0
135,27.033366700033366,0.4135530881119605,-0.8979404959257817,0.15058787829577178,0.4551246996200291,-0.8593508653403628,0.23319004703149,0
136,27.23336670003337,0.3303019455985347,-0.920318621127363,0.2095572960792623,0.36804847892274345,-0.8978993448273546,0.24148930353384598,0
137,27.433366700033368,0.09803556107815942,-0.9951828661871086,0.00030267425095758865,0.24136113842294038,-0.9347605803290273,0.2607056929223504,0
138,27.633366700033367,-0.37005828113957484,-0.8977289729494488,0.23903882464393017,-0.1903877385255171,-0.9356892182117319,0.2970491473501606,0
139,27.833366700033366,-0.9052159900389988,-0.01604006167588391,0.42464894654190477,-0.6938209540452838,-0.6439705206372934,0.3223576465322726,0
140,28.033366700033366,-0.8683336105241326,0.34098151405662996,0.3601782168673898,-0.9414274433049314,-0.1800512305523328,0.2851243998133641,0
141,28.23336670003337,-0.9628398296853564,0.06449127644804749,0.26226005725915535,-0.9691059762395585,-0.006689509137491969,0.24655396424367618,0
142,28.433366700033368,-0.9667604942292107,-0.023711711739459365,0.254581816954938,-0.9650504249820804,-0.09253784554161995,0.2451824308232979,0
143,28.633366700033367,-0.9829663601417065,-0.025149390810448008,0.18205670262758292,-0.910814163839736,-0.3389925203906034,0.235587839389365,0
144,28.833366700033366,-0.5744675833768779,-0.7522148874830308,0.32273791022751197,-0.6872672005861041,-0.6998979460459451,0.19443934817625622,0
145,29.033366700033366,-0.08277831462472734,-0.9878589835631099,0.1314624631655331,-0.4123175992608249,-0.8895155526441904,0.19686614473771485,0
146,29.23336670003337,-0.08265171201887556,-0.9819968080146959,0.1698557139141849,-0.22911508522585683,-0.9482394884736228,0.21988212801687831,0
147,29.433366700033368,0.2273289713441734,-0.9375624259916864,0.2632455814561452,-0.010709114242439755,-0.970768438449509,0.23977896859909112,0
148,29.633366700033367,0.27882049578875334,-0.9256030361388561,0.2559651355529593,0.2088518399305037,-0.9411196484359271,0.26584716715714796,0
149,29.833366700033366,0.5715233544306033,-0.817297519437654,0.07338814660044735,0.48339056386626844,-0.8335648972126322,0.26740068231017144,0
150,30.033366700033366,0.8267717412358897,-0.539486564062825,0.1593823550129136,0.6523517831484367,-0.6845660384815352,0.3252790955176075,0
151,30.23336670003337,0.8665886755783709,-0.4825230172276705,0.1272619550566084,0.788404614389,-0.4922232475595175,0.36896400714987654,0
152,30.433366700033368,0.996563616126066,-0.029637850737023994,0.07734698971148662,0.8835017866199397,-0.30958204888810265,0.35154451787166163,0
153,30.633366700033367,0.9970253686255504,0.03717438315841933,0.06751651319400923,0.9469148622084796,-0.11036483591522205,0.3019467614035661,0
154,30.833366700033366,0.9347488110143634,0.32335308977373456,0.14726655981930684,0.938799226916983,0.2066450702062398,0.2755972178733552,0
155,31.033366700033366,0.4618459827983444,0.8584398715299765,0.22311269605432435,0.7228356442402231,0.6401415017045666,0.2602450560745474,0
156,31.23336670003337,-0.20518852878677207,0.9502817164929657,0.2342270841587355,0.27012660825838986,0.9334853118605703,0.23587451759652314,0
157,31.433366700033368,-0.4463383280110971,0.852908431781587,0.27079384029946574,-0.1169959263085748,0.9808729328237572,0.15556427250792468,0
158,31.633366700033367,-0.4040206407681085,0.9120846428545052,0.06977769057726754,-0.14653041717619136,0.982696264394463,0.11329999464845286,0
159,31.833366700033366,-0.3171857076901498,0.9447629156211321,0.08256064500812095,-0.0492453064466396,0.9907984246552471,0.126068955312787,0
160,32.03336670003337,-0.21189619966225676,0.9707007996200411,0.11331353928681984,0.08673864672091391,0.9843921636069154,0.15312895021621764,0
161,32.23336670003337,-0.012227584776418665,0.8515542373507914,0.5241239042635317,0.19688577941314261,0.9585135069844016,0.20612580331764113,0
162,32.43336670003337,0.2097108257445165,0.8750053000039013,0.4363336963043721,0.2838754418978727,0.9390364633468995,0.19397230212644984,0
163,32.63336670003337,0.7787151538816159,0.6272085763893088,-0.01456402481555173,0.46445216328571004,0.8789251900891443,0.10851128165304345,0
164,32.83336670003337,0.8358216846966485,0.5488039169298473,-0.014709593920757349,0.6544694388306008,0.7552499181334769,0.03559936510859976,0
165,33.03336670003337,0.9207155853567838,0.39015094709596726,-0.00806531842119173,0.806023456194307,0.5918819045027813,-0.0014139260038651302,0
166,33.23336670003337,0.9969116984465362,0.014444577483587937,0.07719080049956158,0.9305578784300852,0.3650327847382921,-0.028514925177999487,0
167,33.43336670003337,0.9917263395273974,-0.09555272257631277,0.08572365307103964,0.9915302616018049,0.1298413289955407,-0.0029949311391226576,0
168,33.63336670003337,0.8665052136715438,-0.48444048772120224,0.12035833388875058,0.9907806061109223,-0.13472039405928793,0.01429006574455832,0
169,33.83336670003337,0.703629093013417,-0.6973366415488071,0.13648336095856783,0.9164718284243234,-0.39779920263112256,0.04283902532295594,0
170,34.03336670003337,0.42428975794934115,-0.8933998952443124,0.14769843762457785,0.7158067407815802,-0.6945149283772893,0.07259286543965875,0
171,34.23336670003337,-0.042607073937049766,-0.9876507751972822,0.15076665248897267,0.4296353528578605,-0.8985525709946612,0.08953625373884155,0
172,34.43336670003337,-0.26348408792297584,-0.9533443307813386,0.14734558825590782,0.16722912376139332,-0.9780262865081752,0.12449499212829983,0
173,34.63336670003337,-0.4306880982223653,-0.8893687079400819,0.15339838130368863,-0.02247988344286267,-0.9897601116120354,0.1409594846121638,0
174,34.83336670003337,-0.4936401463952793,-0.8572897513763986,0.14619742833524674,-0.12769542697451458,-0.9802676137282569,0.15089494161603206,0
175,35.03336670003337,-0.25558861477761824,-0.9667715528619902,-0.0052177172091225415,-0.10668850562974147,-0.9762536802358752,0.1885373029201434,0
176,35.23336670003337,-0.15167766587870907,-0.9206617230320171,0.35968858394075287,-0.028261515010833516,-0.9711471231167677,0.2368006588489959,0
177,35.43336670003337,0.04849319205845304,-0.9535416735943854,0.29733262021312207,0.08806024779281019,-0.9565297842277108,0.27802187799516437,0
178,35.63336670003337,0.22512617034315657,-0.907605703070938,0.35435870975571115,0.26545442117742635,-0.9060206753047295,0.32963690054015454,0
179,35.83336670003337,0.6202152514377134,-0.7229298061065764,0.3044758403006095,0.43391490914858155,-0.8368274937862985,0.33382270333505015,0
180,36.03336670003337,0.7169196109460807,-0.6728424069484088,0.18250853912294643,0.5965042118258246,-0.7418926043514473,0.3062320833659972,0
181,36.23336670003337,0.8056442716186476,-0.5740668495506327,0.14623460553189915,0.7588990562185747,-0.5866715157815583,0.28264598889976417,0
182,36.43336670003337,0.9692814747573273,-0.21215345484038275,0.12443606507580543,0.8765744698588113,-0.4042021845812098,0.26122364512333485,0
183,36.63336670003337,0.9913170020178373,-0.06128635024562557,0.11633823440269854,0.9616570492660672,-0.18723545276190018,0.200396119787604,0
184,36.83336670003337,0.9994006264950386,0.01732130839629698,0.029972654816763523,0.9927238053755782,0.021088920007403533,0.11855253558466332,0
185,37.03336670003337,0.998200474747316,0.04553355079181781,0.03901932811469542,0.9855657541418292,0.13400867126381433,0.10344960265247449,0
186,37.23336670003337,0.9909612889625758,0.13195655530098485,0.024149353836669243,0.958378102731627,0.27648497386132725,0.0711861744542278,0
187,37.43336670003337,0.9654138713329585,0.26069816779027144,0.003538693078743364,0.9164066293369437,0.3971327278654635,0.04984462022563179,1
188,37.63336670003337,0.9630936976517627,0.23017201632268722,0.13953985970110533,0.8919396672485563,0.4488397717237945,0.05464878139050104,1
189,37.83336670003337,0.9692460375626212,0.22167911220855302,0.10686669209620935,0.8939362940397512,0.44557151032547154,0.04841416512503399,1
190,38.03336670003337,0.9748460498563498,0.1996031215461881,0.09916538180478722,0.9058271950161976,0.42277376689772217,0.027192550306982383,1
191,38.23336670003337,0.9870658401643618,0.12158554494656992,0.10448914987054135,0.9319910197706771,0.3609969354102646,0.03277120216304263,1
