,timeStamp,x_gaze,y_gaze,z_gaze,x_head,y_head,z_head,fixations_head
0,0.033366700033366704,-0.9951231714667539,-0.08380000529953652,0.052032996470964515,-0.9931859151957584,-0.07020593683539664,0.09302077343168219,0
1,0.2333667000333667,-0.9941846656079931,-0.06230784952936275,0.08783269640031377,-0.9919492129208862,-0.05820441307461951,0.11246779665430304,0
2,0.43336670003336675,-0.9655700474544,-0.07130824258433195,0.2501791717918224,-0.991852111734235,-0.06479058737240888,0.10968850548839149,0
3,0.6333667000333668,-0.9558601871828545,-0.2267134968977175,-0.1869018268588263,-0.9938988616708552,-0.09056390278343468,-0.06295420781815415,0
4,0.8333667000333668,-0.7338829722755003,-0.2645819599200574,-0.6256294186568745,-0.9213888922839744,-0.14623711331944828,-0.3600794577085809,0
5,1.0333667000333666,-0.7633046516574025,-0.25767491496610456,-0.5924269127541241,-0.9077045441798064,-0.1334496709628583,-0.39782363654669295,0
6,1.2333667000333668,-0.7793579157734087,-0.24550970364590538,-0.5764774276040893,-0.9088299571757734,-0.10819026356883497,-0.4028932560974284,0
7,1.4333667000333667,-0.7093434959993133,0.12359428681319647,-0.6939425458570828,-0.9050081973029549,-0.07186574998083334,-0.4192797118799674,0
8,1.6333667000333667,-0.7020296547728033,0.16583381071760672,-0.6925702210191074,-0.9034861111944941,0.002201971414642842,-0.42861171029329026,0
9,1.8333667000333667,-0.9675871142571737,0.15727557968236175,-0.19758433227119154,-0.940175010108995,0.0714767902585685,-0.33310961982639303,0
10,2.033366700033367,-0.9958171265802399,0.09135941452063143,0.0013068236001484521,-0.9728216220112065,0.128433544728657,-0.192673081503144,0
11,2.233366700033367,-0.9491665960353167,0.08362968415115013,0.3034614454910362,-0.9827485232704495,0.1729709304173412,-0.06547058301489717,1
12,2.433366700033367,-0.9359229562446075,0.10000818068712418,0.33770783788654657,-0.9825228986911055,0.18511224202237034,0.019550227647767537,1
13,2.633366700033367,-0.9244713722424296,0.13504779265820327,0.3565315913104283,-0.9741022628281631,0.21885948463868538,0.05679179110347957,1
14,2.833366700033367,-0.915259333599735,0.14699512599677989,0.3750903693668499,-0.9707144969400875,0.23109638393520832,0.06563403661533941,1
15,3.033366700033367,-0.9240905593192938,0.13562614240120946,0.35729845741945393,-0.9755548159085171,0.21417333219756546,0.04921976161147476,1
16,3.233366700033367,-0.9178665363799938,0.12771019742911668,0.3757806898530177,-0.9784399140602593,0.19647458785476493,0.06366373301223258,1
17,3.433366700033367,-0.9344933329823484,0.1502660774266008,0.32271088699696066,-0.9791962643166604,0.20291248731094744,-0.0010947335664996411,1
18,3.633366700033367,-0.9251942258634077,0.16702355564133534,0.3407620523032688,-0.9756903022135572,0.2184739273093602,0.017250427601705778,1
19,3.833366700033367,-0.9301948225180193,0.1803562744949161,0.319701746024299,-0.9729377788571736,0.23063198674312782,-0.014176218232919018,1
20,4.033366700033366,-0.6596186310891711,0.17019067073328473,-0.7320781359359142,-0.9394040346800328,0.24240391543035048,-0.2424054483936185,0
21,4.233366700033367,-0.6579413073103564,0.15438621401549443,-0.7370740349901775,-0.9258750169533874,0.23776473686864733,-0.2936381836262906,0
22,4.433366700033367,-0.6439208769412614,0.11810695997287157,-0.7559210608556712,-0.913943181224525,0.18984249548332582,-0.35870278560649443,0
23,4.633366700033367,-0.6024759407036759,-0.10915705735646139,-0.7906373869875488,-0.8754754057151803,0.1401066557549388,-0.46250723129590876,0
24,4.833366700033367,-0.4629390775220062,-0.3023311507919741,-0.8332366325143624,-0.8088279825735887,0.027311916987879437,-0.5874107198514389,0
25,5.033366700033366,-0.3944804205183071,-0.3904507462266406,-0.8318253498173518,-0.7441307898446341,-0.11240373065562481,-0.6585095055805182,0
26,5.233366700033367,-0.2010018150019476,-0.14739211439410618,-0.9684388648646636,-0.6517782224984761,-0.18447317498871918,-0.7356322426228399,0
27,5.433366700033367,-0.05562953027100299,-0.022654286928455347,-0.9981944392980713,-0.5751525333333748,-0.14147681714527516,-0.8057194757548335,0
28,5.633366700033367,-0.018662149519662916,-0.09769783398236014,-0.9950411335268815,-0.5175211031471745,-0.04800208720149099,-0.8543229526482549,0
29,5.833366700033367,-0.019698170061108255,-0.10858602086047246,-0.993891874486321,-0.4650448340450294,0.006289685205799887,-0.8852647864837065,0
30,6.033366700033366,-0.3325034709762841,0.21415339546603235,-0.9184659846717749,-0.4297828315422267,0.09761441800162612,-0.8976403194541507,0
31,6.233366700033367,-0.40843536496342014,0.37990923843647323,-0.8299695917308159,-0.4302649970793527,0.20394390377209207,-0.8793627899806227,0
32,6.433366700033367,0.0007903858372249606,0.666142163496394,-0.745824371620137,-0.3690319066550619,0.39458562698864336,-0.841497257775989,0
33,6.633366700033367,-0.13714953428751947,0.7166430608758619,-0.6838221468650987,-0.16708744313517496,0.5674668386784866,-0.806264952324479,0
34,6.833366700033367,-0.09354048538257617,0.7389969845603993,-0.6671833589089503,-0.0590861129755359,0.6254826416619933,-0.7779976196833616,0
35,7.033366700033366,-0.2429233417961948,0.6719482392780948,-0.6996240517175187,-0.06562259464566861,0.6355565287116632,-0.7692604070689921,0
36,7.233366700033367,-0.2722386610873813,0.6808554431017733,-0.6799426277326918,-0.29924382038571345,0.6849183400077865,-0.6643342558395895,0
37,7.433366700033367,-0.9772480296328628,0.1284545293037089,-0.1687771384994131,-0.7739798460814135,0.5385422221921268,-0.33305776192149816,0
38,7.633366700033367,-0.9772270875898676,0.19883870266773035,0.07409716325230634,-0.9721968072729565,0.22165425483919649,-0.07551661565476908,0
39,7.833366700033367,-0.8129811383723475,0.3985498943281378,0.4245228502469945,-0.9603372378189301,0.2507502556447491,0.12197007400342615,0
40,8.033366700033367,-0.6697704952291035,0.5213766992561003,0.5287474077415184,-0.8764647353275812,0.4171966512075659,0.24032586616580787,0
41,8.233366700033368,-0.6516981419468639,0.4787155874072663,0.5883204213320502,-0.8105544163254126,0.5004327101357195,0.30425095037088834,0
42,8.433366700033368,-0.6318651509144773,0.4221116640980081,0.6500524394941036,-0.7780408531038712,0.4910265993248473,0.3918485800113055,0
43,8.633366700033367,-0.6581069002472024,0.3512947505397476,0.6659484259987669,-0.7933573542192762,0.4468009231762444,0.41346468235515105,0
44,8.833366700033368,-0.9516911477295722,0.2778574793082188,0.1306873388115794,-0.8702863619560647,0.3803083872708651,0.3129970906649319,0
45,9.033366700033367,-0.9536327616654336,0.24104704796845777,0.18022451704485196,-0.8819435626480064,0.32125957590822535,0.3449171454001804,0
46,9.233366700033368,-0.9418215958610219,0.09387011118062906,0.322739033580902,-0.8891773578495377,0.2491656360017688,0.3837709109918958,0
47,9.433366700033368,-0.8682023000547482,0.02753157258881789,0.4954460401400255,-0.8443768419993284,0.16714327341620352,0.5090097001501619,0
48,9.633366700033369,-0.4556549662068518,0.19046012832273918,0.8695421158807195,-0.7655333510864164,0.13121520571202547,0.6298740018165159,0
49,9.833366700033368,-0.41243797593443626,0.20520296303710975,0.8875734673636295,-0.721904922897107,0.1463756553233364,0.6763338301649461,0
50,10.033366700033367,-0.35948022317098116,0.24162286520790724,0.9013281090466798,-0.6776167355471545,0.21176123760352433,0.70426751874202,0
51,10.233366700033368,-0.36375221078291353,0.8091817109134093,0.46142094433802044,-0.568514464813683,0.5478661116186491,0.6137051629548781,0
52,10.433366700033368,-0.42252064753034,0.8036421162649602,0.4190890733194058,-0.4461137297707688,0.7273321721893166,0.5215078632277601,0
53,10.633366700033369,0.04238085229305205,0.9170886376702431,0.3964243862517194,-0.27545797407008643,0.8355480578837718,0.475376006428449,0
54,10.833366700033368,0.38726523907781746,0.8895602051577076,0.2422979075472544,-0.004350019685637696,0.9048234221342739,0.42576478492937436,0
55,11.033366700033367,0.46862972579106876,0.8383009721268593,0.2786353535288569,0.29250340308996536,0.8804054955702962,0.3732665569675515,0
56,11.233366700033368,0.7386075868330415,0.6699024805025701,0.07542876963848066,0.5560202759417832,0.7855315115674986,0.27162786505825287,0
57,11.433366700033368,0.9358461727107981,0.35097744501559097,0.031729703951958725,0.7626784533601669,0.619790643575582,0.18488140770858968,0
58,11.633366700033369,0.9553497169537173,0.28756685422077544,0.06791334677380698,0.882320139173267,0.45979297306455114,0.10050668599515078,0
59,11.833366700033368,0.9910358757998294,-0.09800462373463195,-0.09079089494160983,0.9629151135968604,0.2684298978898914,0.027200623624623377,0
60,12.033366700033367,0.9611195738193457,0.10105122839409178,-0.25697823655197877,0.9939420223305373,0.10765547229558523,-0.022125901796217394,0
61,12.233366700033368,0.8804381590844736,-0.29790270445428463,-0.3688937878397602,0.9932029661990943,-0.021491766933178166,-0.11439393291346765,0
62,12.433366700033368,0.8535640874383645,-0.299851765371614,-0.4260484332080552,0.9741541373018148,-0.10148987194778501,-0.2018007003698938,0
63,12.633366700033369,0.8241008556039529,-0.2689469654706569,-0.4985231284072568,0.9465658354449589,-0.11567020496603701,-0.3010540198228582,0
64,12.833366700033368,0.7073718115926055,-0.35877056648461636,-0.6090228245217933,0.9133407400161526,-0.13632707628023497,-0.38369730374297645,0
65,13.033366700033367,0.5726841213101574,-0.30286397403103626,-0.761778386693493,0.8670306393399534,-0.15168159417128907,-0.4746056936398972,0
66,13.233366700033368,0.4574333258186137,-0.13827116375735687,-0.8784280492468963,0.8158970007054283,-0.13539604859479445,-0.5621209783176597,0
67,13.433366700033368,0.4020260264826091,0.18092297856829892,-0.8975755956222179,0.7836312977125928,-0.022575389890586973,-0.6208158672396883,0
68,13.633366700033369,0.3835454047165673,0.2878876315045323,-0.8775042074813749,0.762115728489047,0.1309704314954032,-0.634055488473617,0
69,13.833366700033368,0.5279493207587248,0.392260005975844,-0.7532606470686174,0.7230040528942993,0.280185781839222,-0.6314753100110577,0
70,14.033366700033367,0.5361134017812442,0.40496797455428524,-0.7406641344198747,0.6268928932128571,0.40310152144486383,-0.6667191791511998,0
71,14.233366700033368,0.30094458819865944,0.39189013787231775,-0.8693989157299169,0.4873737950134744,0.513451435836427,-0.7062821015512679,0
72,14.433366700033368,0.3827951613277356,0.27461827481371504,-0.8820729378018646,0.5278428648142885,0.4403449590716663,-0.7262769630690604,0
73,14.633366700033369,0.44834334799900954,0.11873498466184672,-0.8859403172462522,0.6301647163198433,0.25140992157638153,-0.7346328890258655,0
74,14.833366700033368,0.40192304231412757,-0.14912745198511845,-0.9034483223302717,0.6820539063345763,0.09081151153253549,-0.7256416045314116,0
75,15.033366700033367,0.5775714613192161,-0.2246537240650583,-0.7848196680341836,0.7136439550226611,0.013927291869204139,-0.7003701421397148,0
76,15.233366700033368,0.5904103875868204,-0.2238688760197592,-0.775434265801577,0.7566740467582102,-0.01671023451528517,-0.653578729018164,0
77,15.433366700033368,0.5224035633344223,-0.16402863829419934,-0.8367730414125739,0.7829065409237902,-0.008327847115784404,-0.622083591763327,0
78,15.633366700033369,0.2784089843688201,-0.09384280885724232,-0.955867127088543,0.7255507830879564,0.018510309801967977,-0.6879196389052201,0
79,15.833366700033368,0.09772902443770794,-0.09600279454115837,-0.9905718051826138,0.6168700509222413,0.025574607239461783,-0.7866494007750457,0
80,16.033366700033366,0.005060122511548287,-0.08321209505548548,-0.9965190125615492,0.5180772457109472,0.025328072665731866,-0.854958745327281,0
81,16.233366700033365,0.00014790193066838717,0.07719689382215626,-0.9970158562977973,0.44293771099783114,-0.003585913571486648,-0.8965452165952701,0
82,16.433366700033368,0.44039857845628033,-0.02516124446145019,-0.8974497221966468,0.4496947936496906,-0.02781258742988588,-0.892749154323216,0
83,16.633366700033367,0.08781113385329549,-0.3967618334449581,-0.9137117993616992,0.5079833134631405,-0.11297214176371016,-0.8539263717840837,0
84,16.833366700033366,0.12006019427012489,-0.4747226541872716,-0.8719082241573434,0.5196352375287987,-0.2906771031811821,-0.80342145951212,0
85,17.033366700033366,0.05956360792337721,-0.49020893803393656,-0.8695673485606453,0.49100538753277295,-0.42461372803660136,-0.7606687132889394,0
86,17.233366700033365,0.08009204442632302,-0.5078152772101855,-0.8577347542518926,0.4946470527157824,-0.5143551783401712,-0.7005448192330314,0
87,17.433366700033368,0.14445937127996178,-0.5391870424158656,-0.8297040576857692,0.5267919806829673,-0.574527519006782,-0.6264250465874014,0
88,17.633366700033367,0.23925894141639814,-0.5515219554086113,-0.7991111885429754,0.5970576325730922,-0.5622438973131847,-0.5721922608007695,0
89,17.833366700033366,0.20576105672140252,-0.558978448485701,-0.8032468373205155,0.5591343035031666,-0.5820097927497302,-0.5904518877854869,1
90,18.033366700033366,0.00991150940901761,-0.5681132213321359,-0.822890715544208,0.48302830900916066,-0.5953203309268454,-0.6420882776385991,1
91,18.233366700033365,-0.02379430932217999,-0.6040017251522801,-0.7966277341750977,0.4365222640121672,-0.6337043969564882,-0.6386446980126789,1
92,18.433366700033368,0.01596849316522414,-0.6400295660582483,-0.7681843280081433,0.4589656321874978,-0.6621528172069328,-0.5923716697611836,1
93,18.633366700033367,0.2690441169192543,-0.5374612405762528,-0.7992187923399791,0.5215865639132723,-0.6189513520404517,-0.5872364771984474,1
94,18.833366700033366,0.2846138058891927,-0.5774928871113197,-0.7651777223842194,0.5467432069275185,-0.6258949546868906,-0.5561720699352926,1
95,19.033366700033366,0.4556659367205469,-0.8440146280472633,-0.28285660988357103,0.49883702027426385,-0.6975455371042013,-0.5143849248081688,1
96,19.23336670003337,0.45809577314691335,-0.8489529311611439,-0.26349038558898785,0.39297195202306434,-0.7736620313395074,-0.4970111731005751,1
97,19.433366700033368,-0.0006203999480389466,-0.625293757341693,-0.7803892183605644,0.3123533804883697,-0.7984014786732785,-0.514772225892006,1
98,19.633366700033367,-0.03636269533476191,-0.606559449975657,-0.7942061369904038,0.25012236243500197,-0.7990378092244061,-0.546788243509126,1
99,19.833366700033366,-0.030647812130184665,-0.5917348437748089,-0.8055498657900921,0.24182045509998254,-0.7859902426447404,-0.5689834847888818,1
100,20.033366700033366,-0.15942416439139528,-0.5554534754777548,-0.8161221553099688,0.26569365927749855,-0.7815579488309342,-0.5644236458892516,1
101,20.23336670003337,-0.13979108791444644,-0.5591451892935111,-0.8171995527590673,0.3013186076461745,-0.763679306884888,-0.5709649839718611,1
102,20.433366700033368,-0.18887884810710553,-0.5455557375916523,-0.8165131462006975,0.2249053724054953,-0.7888495836149811,-0.5719562115176446,0
103,20.633366700033367,-0.24215584124005723,-0.5791508400889828,-0.7784245968477268,0.04764347925158352,-0.819830667639917,-0.570620517754043,0
104,20.833366700033366,-0.277017686063968,-0.6303946406101439,-0.725164670056238,-0.08467458312117915,-0.8181197007587934,-0.5687797202815844,0
105,21.033366700033366,-0.2554107892865299,-0.6528148385012036,-0.7131606518510955,-0.07658395842530913,-0.8330365732516944,-0.5478913806011053,0
106,21.23336670003337,-0.09884271969768271,-0.7078887151581494,-0.6993737796875932,0.06643937728443089,-0.8534654351857475,-0.5168970497974045,0
107,21.433366700033368,0.4830180608343556,-0.7374706133620975,-0.4720494119635684,0.27567339650071454,-0.8390318303419195,-0.4690733057154797,0
108,21.633366700033367,0.7408298915968463,-0.570821497297055,-0.3540252673753011,0.49674887309474935,-0.7599473614923388,-0.41919036825758504,0
109,21.833366700033366,0.8566902560170637,-0.503472854130613,-0.11223586948472626,0.6680177519117361,-0.6746767819936329,-0.31394828072392195,0
110,22.033366700033366,0.9274393346894332,-0.3641679492717691,0.08507634920479262,0.782176072934765,-0.6021061178559292,-0.16021489871048614,0
111,22.23336670003337,0.9681594979509637,-0.07138202207862024,0.23994122916103044,0.8880436094091395,-0.4592038514726114,0.02259138287727289,0
112,22.433366700033368,0.9894292636178539,0.09086234075580317,-0.11302109240760126,0.941389992088386,-0.3066811497727219,0.14046905413616875,0
113,22.633366700033367,0.9881751718934717,0.13580575400969638,-0.07118024185942018,0.9837298470958152,-0.10934232705697182,0.1425476883243296,0
114,22.833366700033366,0.9225473864218664,0.3232989309482014,0.210675392616067,0.9753881939335403,0.07261998549559459,0.20819272043394332,0
115,23.033366700033366,0.8178248162370235,0.5422397881511467,0.19271373093964664,0.9382810374898048,0.22975685598284856,0.2585352622292218,1
116,23.23336670003337,0.7457580271459918,0.551587485489915,0.37362576302796763,0.885181602651509,0.35158721740949295,0.30469650290339056,1
117,23.433366700033368,0.9102858691731023,0.4085855856578,0.06661422953425726,0.8733837850795299,0.3801007322251807,0.3045064815763955,1
118,23.633366700033367,0.9647711387741839,0.26304293970080644,-0.005006162394788922,0.8908842525225732,0.3470801301645427,0.2930198489049171,1
119,23.833366700033366,0.9571275628437521,0.274793896767263,0.09162501156475927,0.9088509355000798,0.2777194279656969,0.3112264390617159,1
120,24.033366700033366,0.8369495881150737,0.4366353433112849,0.3299469107681495,0.8963979813217366,0.25776760251662145,0.3605919053100732,1
121,24.23336670003337,0.9750804040293938,0.18045140477843505,0.1290561745572988,0.9005360330224603,0.26266868334062354,0.3464679148496631,1
122,24.433366700033368,0.9996032293878669,-0.01846993618019623,0.021266058752084784,0.9277116325588117,0.2331593445023391,0.291526751579172,1
123,24.633366700033367,0.9976233387330063,-0.00678444487081374,0.06856854470531387,0.9584813922246582,0.16028662148015993,0.23584236204201553,0
124,24.833366700033366,0.9889430950638378,0.14179129558802953,0.04343711801012468,0.9781734377456103,0.10607970904497166,0.17867238459781434,0
125,25.033366700033366,0.9960469064119137,-0.06404235970295061,0.061555961457311466,0.9879911060828419,0.05279826351326763,0.14520990899792655,1
126,25.23336670003337,0.9912531949215886,-0.10857692471065271,0.07502103023899476,0.9910467062845141,-0.012091515680915769,0.13296699293867859,1
127,25.433366700033368,0.9782738119236053,-0.1462522249636782,-0.14693752276948213,0.9909587553903448,-0.05076307789760716,0.12419281395306399,1
128,25.633366700033367,0.9743380398307037,-0.14743150827927934,-0.1700862560742612,0.9918569111012286,-0.07614223466937052,0.10208931383981397,1
129,25.833366700033366,0.9348812854301423,-0.35289366175380404,-0.0382497796918729,0.9919830600024244,-0.09791056023207263,0.07989449832916311,1
130,26.033366700033366,0.9961220778585421,0.08510559860044925,-0.022312397666764804,0.9973209278048818,-0.032282267579363484,0.06564161913256181,1
131,26.23336670003337,0.8657415676716022,0.49999780384678744,0.022220129475462067,0.9795890823172438,0.19029177704769093,0.06476317929882826,0
132,26.433366700033368,0.8567189729200031,0.5152866972379604,0.02263230188226362,0.8490068408033652,0.5256560343095726,0.053601472582601,0
133,26.633366700033367,0.3107741917803915,0.9488147208033684,-0.056302995569246186,0.5625729451997636,0.8255327788491073,0.04480303979569753,0
134,26.833366700033366,-0.10268835859489556,0.9777439628832132,-0.18295311982722892,0.15667603255008067,0.9864648579650379,0.04837049539113457,0
135,27.033366700033366,-0.444994176940704,0.859166841171862,-0.2526114041757225,-0.21398784461253417,0.9764988181576606,0.025676068522545992,0
136,27.23336670003337,-0.6408932064620015,0.5947366143734023,-0.48532901977371784,-0.49724174350281236,0.8675355400288771,0.011521080899304658,0
137,27.433366700033368,-0.5419502663906399,0.4125954679907271,-0.7321576937741129,-0.6151132021429193,0.7884386358165787,-0.0005158499550618028,0
138,27.633366700033367,-0.841402882209797,0.34123950650631746,-0.4190427054709005,-0.6483135708255832,0.7613656127603289,0.0034521861871546857,0
139,27.833366700033366,-0.8502181360381098,0.2848912233385148,-0.44268059819306205,-0.7124247942019697,0.7013662436399016,-0.023158257463272096,0
140,28.033366700033366,-0.8633509036999842,0.30389942585981355,-0.4028279484376623,-0.7798052516942581,0.6257205121271758,-0.01943219322052534,0
141,28.23336670003337,-0.8980213601562548,0.23273368830104607,-0.3733532737674898,-0.8536603353254696,0.5201473855367628,-0.026659505083133146,1
142,28.433366700033368,-0.8908802492826524,0.27657936133891065,-0.36032795939177364,-0.8852560724156837,0.46440987960130026,-0.025399802752454424,1
143,28.633366700033367,-0.8991198650304604,0.1209662828847374,-0.4206549972514965,-0.896383072363397,0.4428431689751639,-0.019680327039751252,1
144,28.833366700033366,-0.9819608162614342,0.15501389730076653,0.10827579124996428,-0.9040494019872568,0.42732799606243993,0.009244595596518126,1
145,29.033366700033366,-0.9692355361878683,0.19025363837259882,0.156160265357753,-0.9088037008249147,0.415969723710032,0.0323268050314055,1
146,29.23336670003337,-0.9282669121587722,0.37155998014558045,-0.01623948722817804,-0.8918264736733869,0.451881392835707,0.021183665031191595,1
147,29.433366700033368,-0.8914340684060117,0.4486244714373523,-0.06388572072585956,-0.8653017443673986,0.5007939576969211,0.02140801553137929,1
148,29.633366700033367,-0.7700204739707048,0.6247894096284694,-0.12925425827430134,-0.827484291536825,0.5611313302136848,0.020034408212358638,1
149,29.833366700033366,-0.7464027175509084,0.6531839847875414,-0.1274114015686515,-0.792356923104153,0.6098263947851358,0.016801030691107076,1
150,30.033366700033366,-0.7228969972312198,0.6790625943567586,-0.12764765700769556,-0.766462918319254,0.6421310125942004,0.014225241870696598,1
151,30.23336670003337,-0.6915231937336008,0.7084406197568561,-0.14109415582157392,-0.7473042121294682,0.6644156209247047,0.009396659235823064,1
152,30.433366700033368,-0.7016928270591272,0.5999134920277234,-0.38435787820320877,-0.7346566247342199,0.6784221739566554,0.004795583181357327,1
153,30.633366700033367,-0.6291928828310552,0.29508926340059244,-0.7190539915892558,-0.7279745027286476,0.68560243832916,-0.0015556137339070976,1
154,30.833366700033366,-0.6202919684116122,0.30028657319212543,-0.7246142752420613,-0.7054034821928785,0.7087931283071588,-0.004269493496055422,1
155,31.033366700033366,-0.6201751213867308,0.2723227586954383,-0.735678689313113,-0.681934427916884,0.731411695813046,-0.0015385868700540954,1
156,31.23336670003337,-0.6915270072784264,0.22287141105996006,-0.6871089668580127,-0.6508719282378878,0.7591815460021348,0.003018814618789328,0
157,31.433366700033368,-0.6346271281705965,0.5017640162719769,0.5877765563243882,-0.6010359425252787,0.7991188154408919,0.01284190800059045,0
158,31.633366700033367,-0.5487376899584209,0.5887695827611638,0.5934958517414771,-0.5127108199237778,0.8575201476380897,0.04227069348657808,0
159,31.833366700033366,-0.3558090575319718,0.9317598304950613,0.07227401230058447,-0.438223053455644,0.8974268291148045,0.050849206532249155,0
160,32.03336670003337,-0.3234899349350286,0.9441791270675023,0.06228995108186373,-0.3625876790930935,0.9310169297610481,0.0416851468534784,0
161,32.23336670003337,-0.2873546554843805,0.955791874163438,0.062363412788232986,-0.2893986999502747,0.9567383845420795,0.030000933500519886,1
162,32.43336670003337,-0.2655627744838633,0.9620147384859645,0.06327760855321976,-0.2322295039887809,0.9723729174335556,0.02367207043925273,1
163,32.63336670003337,-0.3678580794984516,0.9298818945216295,-0.00030917402253980087,-0.19136100670856332,0.9811928290671145,0.025329770996941742,1
164,32.83336670003337,-0.30345728882435113,0.9284104166270302,-0.2144009611867406,-0.1573280113009483,0.9871749714317387,0.027082699991592935,1
165,33.03336670003337,-0.30960790356215423,0.9294278359016662,-0.20076564422976728,-0.14789603895655334,0.9886168653305463,0.027630693892238305,1
166,33.23336670003337,-0.30489938554920964,0.9326228087100704,-0.19300534025112875,-0.13379667471458562,0.9906489583020569,0.02670376846755188,1
167,33.43336670003337,-0.0429994558187215,0.9983136779807591,0.038998040410034865,-0.10415494149484689,0.9938367550032204,0.03795065963687663,0
168,33.63336670003337,0.020758863439041708,0.9985888117528251,0.04888204814449101,-0.023563441967551002,0.9976375241970201,0.06453010550651403,0
169,33.83336670003337,-0.47164210003979473,0.8817890265118382,0.0013572742380810634,-0.13972258329148568,0.9860650322243535,0.090295913211721,0
170,34.03336670003337,-0.5301658597850185,0.8437271318912918,0.08395646508106001,-0.3508788821777463,0.9335700396979834,0.07301363584975691,0
171,34.23336670003337,-0.8168208420076567,0.5660380989907422,-0.11137586162562298,-0.48846414383424813,0.8689809777211227,0.07921389112470743,0
172,34.43336670003337,-0.7972610412517582,0.5854908568019958,-0.1468852909702925,-0.5966542643472303,0.7997222209854453,0.06669376356430995,0
173,34.63336670003337,-0.68272619178901,0.6979938812206519,-0.21607750651978339,-0.636144261323883,0.7698359576185468,0.05170180985445406,1
174,34.83336670003337,-0.6667313988216528,0.37933431634489884,-0.6415408936836925,-0.6679557008488589,0.7441552775309412,0.008252552717679695,1
175,35.03336670003337,-0.6228279793372994,0.23223472073534998,-0.747095939381008,-0.731747263540113,0.6815592471521961,-0.004789041959361258,1
176,35.23336670003337,-0.6174154386312218,0.24334923923908552,-0.748050348507087,-0.7298467164067305,0.6836107870964352,0.0002496311396965039,1
177,35.43336670003337,-0.6283791625092185,0.27703329105211993,-0.7269058974675093,-0.6918316123605704,0.7217597929937212,0.020780311745362056,1
178,35.63336670003337,-0.622503501896174,0.3513237940863984,-0.6993289510922155,-0.6247944366257809,0.7786202249317654,0.05815889690047668,1
179,35.83336670003337,-0.4771486404949994,0.8787223375507822,-0.013275103128161313,-0.5337127390279539,0.8433566136963209,0.06245265674055844,0
180,36.03336670003337,-0.4224105205402741,0.9063212037164006,0.012297472543169595,-0.4150828645582608,0.9077578789961,0.060678238855545075,0
181,36.23336670003337,-0.47542733815308796,0.8725313606854378,0.11250720313423411,-0.29493384215876695,0.954315917185983,0.047907817263402826,0
182,36.43336670003337,-0.07522617455390035,0.9969240662504011,0.021987014184566125,-0.16023085555621386,0.9863853019873461,0.03701498279150954,0
183,36.63336670003337,-0.1408207845129888,0.9900279192705022,0.003771699095428413,-0.040832949307451794,0.998811915952399,0.026597496166989264,0
184,36.83336670003337,-0.09857825406096038,0.9950397337543995,-0.013351257478860408,0.056913063509893835,0.9982800678377687,0.014064471541393547,0
185,37.03336670003337,0.35125827821573935,0.9359164345827647,0.02603938291895313,0.1483123942236158,0.9889352642087497,0.0032368076911213706,0
186,37.23336670003337,0.2529263377273328,0.9663453440701747,0.04695682780740956,0.23339306790123926,0.9723136235550364,0.011571227459637217,0
187,37.43336670003337,-0.32748450217188935,0.9443736609101423,-0.030204129128408162,0.2004752988853345,0.9793775362531438,0.025085773250153407,0
188,37.63336670003337,-0.4912233149069121,0.8700658014568514,-0.04105065196938763,0.009566470760452084,0.998920306088514,0.04546102419896562,0
189,37.83336670003337,-0.5362515176607074,0.835726550710269,-0.11830233406194698,-0.19138489523265584,0.9790894006143378,0.06896207277513282,0
190,38.03336670003337,-0.6095128980436311,0.788885544731098,-0.0784450408424462,-0.3190613004044554,0.9446735556070909,0.07610361306058211,1
191,38.23336670003337,-0.6926543159417584,0.7024143091678872,0.16384180444396554,-0.41913951571104024,0.904120635541543,0.08299363082472816,1
