,timeStamp,x_gaze,y_gaze,z_gaze,x_head,y_head,z_head,fixations_head
0,0.033366700033366704,-0.9952235137148095,-0.040574289120029805,0.08879124287649402,-0.9793376531975017,0.0013605087609034907,0.20222737214710013,0
1,0.2333667000333667,-0.9974155249615358,-0.027794587674792377,0.06625504857512685,-0.9787241041770874,0.007399654867567972,0.20504724580105674,0
2,0.43336670003336675,-0.9405642451791192,-0.32899398332878743,-0.08427253184811412,-0.9824075453511829,-0.027862692030720174,0.1846593762305756,0
3,0.6333667000333668,-0.8227577186943635,-0.22471979596283392,-0.5220830869040569,-0.9944617381408433,-0.10458828416050672,-0.010350951176296058,0
4,0.8333667000333668,-0.7503240216856158,-0.5960815418833697,-0.2858332694202473,-0.9138912015542281,-0.40545779808252486,0.020170416352672235,0
5,1.0333667000333666,-0.6602346660055743,-0.7126971480983495,-0.23696615981398544,-0.7990823662252835,-0.5960644372563396,0.07857835978235576,0
6,1.2333667000333668,-0.1550342919099129,-0.9844158125053875,0.08300527947877613,-0.47971082018447214,-0.8486787876852159,0.22275961108579245,0
7,1.4333667000333667,-0.23530531370158875,-0.9633344755451072,0.12891120032809583,-0.4307700627936349,-0.8723027794521211,0.23135473619719185,0
8,1.6333667000333667,-0.5029068614568508,-0.8562091755968796,-0.11828159756839615,-0.44058266121833556,-0.8786452886796705,0.18403634237505348,0
9,1.8333667000333667,-0.9871406211438263,0.14935002283296153,-0.05699091829033064,-0.9174485795839816,-0.3967607735488561,0.029478676908035278,0
10,2.033366700033367,-0.6160681022596425,0.7783645550565962,-0.12086650822188091,-0.8997431340575377,0.4332488887138274,0.052513742435228376,0
11,2.233366700033367,-0.7005953080212817,0.7073954700285382,-0.09358345666659931,-0.6970732493716093,0.7076466580387079,0.11543436393533191,0
12,2.433366700033367,-0.72488686919232,0.6790455751915347,-0.11591433770398951,-0.6788445968850643,0.7182237811793832,0.1527239779089846,0
13,2.633366700033367,-0.6314542313583613,0.7751689109127612,-0.019460556362677742,-0.5556390930491069,0.7907593535772666,0.2568362182513013,0
14,2.833366700033367,-0.3254157451944447,0.8913948195274061,0.3154676980282574,-0.4792701187657087,0.8311677620728627,0.2818870421801843,0
15,3.033366700033367,-0.3286450328258894,0.901784845196318,0.2806715792044549,-0.4479758600088174,0.8571920862839352,0.25404597233877874,0
16,3.233366700033367,-0.3243368167408766,0.9111633125685349,-0.25413981808352937,-0.4218333968835073,0.8973249269989707,0.1298636233131265,0
17,3.433366700033367,-0.38719982864227664,0.8245432649461601,-0.41255871937376176,-0.39590234586324763,0.9180229634706588,0.022252439878065938,0
18,3.633366700033367,-0.46449495537518226,0.7373362412106426,-0.4904892494523899,-0.42283555620252733,0.9012351909467538,-0.09479041623533269,0
19,3.833366700033367,-0.29932850356270024,0.6004084231479362,-0.7415606329680156,-0.4430216145896059,0.865216104585503,-0.2348040488839716,0
20,4.033366700033366,-0.295317709534008,0.6161397117704996,-0.7301775852591977,-0.41973676755130956,0.8669356709595438,-0.26878167419581156,0
21,4.233366700033367,-0.13213124051597291,0.6909840029572739,-0.7106915244582929,-0.4451292077621061,0.8464949588313747,-0.29207237642431916,0
22,4.433366700033367,-0.11399854196830639,0.6964629267617898,-0.7084798685040404,-0.3021699315330161,0.8536684335699483,-0.42419752239206127,0
23,4.633366700033367,-0.19361585873041137,0.7386315686304918,-0.6457060515982058,-0.18147675119649692,0.8464762992238769,-0.5005437679438379,0
24,4.833366700033367,-0.42031817861490456,0.7243755211342322,-0.5464546944691382,-0.1812240838459105,0.8399844041511619,-0.5114528641204658,0
25,5.033366700033366,-0.4361353760100618,0.7019082260765487,-0.5631258970768751,-0.2911268656920216,0.8130717507840531,-0.5041423173562146,0
26,5.233366700033367,-0.4805351246115982,0.7214082796118749,-0.4986542771519668,-0.40501959099310497,0.8142694034657344,-0.4158418803960652,0
27,5.433366700033367,-0.9521433372466681,0.27740537532503173,-0.12833286047445525,-0.7996908546042417,0.5882556176308683,-0.12020759288856545,0
28,5.633366700033367,-0.8915409253220979,0.41055538560357835,-0.1913087918202262,-0.9120399427464829,0.40832890259578425,0.03808740132793098,0
29,5.833366700033367,-0.8935226150254667,-0.11349192891105556,0.434438624560593,-0.9183191101033866,0.2031356383342826,0.3397439101109065,0
30,6.033366700033366,-0.8607494346177427,-0.14344588127780716,0.48839910928427177,-0.9081852305592835,0.12141431926943612,0.40057227820996366,1
31,6.233366700033367,-0.8008365189047211,-0.17867231999070068,0.5716091952179471,-0.874370490733005,0.07181407548740101,0.47991560038949954,1
32,6.433366700033367,-0.8144538268809364,-0.06773468311516077,0.57626120516853,-0.865253894205297,0.07791159540574129,0.4952428514011087,1
33,6.633366700033367,-0.8226937835463017,-0.04058690704617072,0.5670340743647566,-0.8480356364317876,0.09250134798405682,0.5218036603578647,1
34,6.833366700033367,-0.9164835323407035,0.03209165560770067,0.39878322505925917,-0.8398177323930225,0.12195998180830077,0.5289914358433044,1
35,7.033366700033366,-0.9283624554670815,0.023200019513107236,0.37095135850097977,-0.8520072477093436,0.12399905537133032,0.5086333493959743,1
36,7.233366700033367,-0.8399241042478229,-0.0020451796038025044,0.5427000242711262,-0.8542746400813748,0.2189486734067852,0.47146189424729434,1
37,7.433366700033367,-0.9210590051575546,-0.0948399187357484,0.3776978936033034,-0.8528425157016548,0.23301133057490725,0.46729579843540625,1
38,7.633366700033367,-0.9516768397616087,-0.14043037908380288,0.27311261650047747,-0.8580841746762073,0.200579160020899,0.47271508304216736,1
39,7.833366700033367,-0.950510902407165,-0.15631044435048627,0.2685071123677566,-0.868031214539688,0.18430336767620667,0.46103587631329007,1
40,8.033366700033367,-0.9492542153308652,-0.16120956552057292,0.27005168146347824,-0.8691905659506654,0.17949640938274597,0.46074808635637765,1
41,8.233366700033368,-0.9540269262267417,-0.15405980300214187,0.2570957042295665,-0.8717686575776514,0.18317235894071926,0.45438672360155075,1
42,8.433366700033368,-0.9220783249826743,-0.2466049953035285,0.2982575043288809,-0.8554611011280044,0.08063943526606876,0.5115501792950833,1
43,8.633366700033367,-0.38667997469818816,-0.5928833311279091,0.7063766366734413,-0.646243355559014,-0.4014206592686105,0.6490230964366215,0
44,8.833366700033368,-0.3150950623421578,-0.7784829471554908,0.5428438105714141,-0.545127366135616,-0.5706606898317138,0.6141518800515378,0
45,9.033366700033367,-0.23269625817853182,-0.7669375572509166,0.5980461810827884,-0.3546010852817612,-0.6933773308389549,0.6272845824628912,0
46,9.233366700033368,-0.054118480854196294,-0.7895277428590077,0.6113240820432276,-0.17903198178100246,-0.7565005225147573,0.6290107383300114,0
47,9.433366700033368,0.19115662760944419,-0.891405394565701,0.4109203891998441,-0.021596678379524115,-0.8206835330449357,0.5709747122875527,0
48,9.633366700033369,0.17858019600397546,-0.8842778959250309,0.43146461775397277,0.022947681360971584,-0.8244173044416341,0.5655170307403179,0
49,9.833366700033368,-0.5597506930602083,-0.7805647367021438,0.2782046970051548,-0.10067362378472822,-0.8580332512999126,0.5036305800264239,0
50,10.033366700033367,-0.6566742302853932,-0.7241913389396606,0.21053707484399986,-0.4714942085491404,-0.7789186559291167,0.41349599605098736,0
51,10.233366700033368,-0.9311355599946034,0.3602763483950873,-0.0564581411369349,-0.9263271362669383,-0.3185949831662024,0.20103550262781886,0
52,10.433366700033368,-0.7123899831718956,0.6195411694387047,-0.329650195278068,-0.9897660745926109,0.142100868003913,0.013056067481013005,0
53,10.633366700033369,-0.7917791121507644,0.6107990999044517,0.003208912223647169,-0.8942985819338459,0.4330320027470544,-0.11275340770011105,0
54,10.833366700033368,-0.6703558091394421,0.7062978945679773,-0.22752224788324824,-0.8315249852118598,0.5448121415484989,-0.10837863899198467,0
55,11.033366700033367,-0.9143560899789712,0.4048996870489743,0.0030305355979348752,-0.8414304022886355,0.5385429127733999,-0.044344212767026575,0
56,11.233366700033368,-0.8903656830836084,0.4406464923980735,0.11436616249719175,-0.8365252335037887,0.5472839982187453,0.026566125143427138,0
57,11.433366700033368,-0.8785045394301455,0.44284558395013685,0.1792137354571086,-0.8316877199470595,0.5505812297260178,0.07180421967160523,0
58,11.633366700033369,-0.8709464213452741,0.45302462429004126,0.19031820967192656,-0.8583452155455172,0.42576974744454643,0.28629287995185443,0
59,11.833366700033368,-0.9502907595905072,0.21764692633825478,0.22265957803877992,-0.8771487976040611,0.19739070879199047,0.43777493640493587,0
60,12.033366700033367,-0.8908878619557886,-0.09923530039940323,0.443250688182753,-0.8638930635455276,0.043581564426107555,0.501786231377562,0
61,12.233366700033368,-0.7809019846711717,-0.10854897741414783,0.6151497458659707,-0.7627701971177626,-0.05782233115591941,0.6440793463608537,0
62,12.433366700033368,-0.3604363581998,-0.43442458239541293,0.8254458879286012,-0.5578719291523875,-0.320153976037191,0.765689455517948,0
63,12.633366700033369,-0.4165842163101493,-0.5426166318472698,0.729400288979915,-0.4321116843207816,-0.50429711993745,0.7476388881647678,0
64,12.833366700033368,0.08440380205812781,-0.8540442053076284,0.5133074065105568,-0.22041145109459886,-0.6301019553898893,0.7445739171097865,0
65,13.033366700033367,0.2849703542508306,-0.8370149987728444,0.46711646195296025,-2.2675733575672208e-05,-0.7042443584512933,0.7099576628752858,0
66,13.233366700033368,0.17906779714182192,-0.9708195566868565,0.15951210731825713,0.0671408191116335,-0.7656040646520983,0.6397988172833745,0
67,13.433366700033368,0.17749827012113195,-0.9605664918382971,0.21402424830255243,0.11006388300706682,-0.7918420749603535,0.600726285407829,0
68,13.633366700033369,0.5603842116042854,-0.6910777218808705,0.45648780674251266,0.24623143728414973,-0.7823945112020867,0.5720392540148185,0
69,13.833366700033368,0.675968972077994,-0.6640600112641886,0.3195156494252288,0.3842707944696707,-0.7596871722276681,0.5246059062480879,0
70,14.033366700033367,0.5781058161599173,-0.8138655923517184,0.058450516747609246,0.4365702567299574,-0.7327447251884608,0.5220072591901636,0
71,14.233366700033368,0.583175032608914,-0.811986495095083,0.02418290976692305,0.47376638818278116,-0.7274182079901077,0.49639516527933913,0
72,14.433366700033368,0.7135579136645545,-0.6674007642122527,-0.21309932842594714,0.5619976276822611,-0.7059835957926303,0.4309823998160698,0
73,14.633366700033369,0.7874036725427591,-0.5968276875708804,-0.15424709985918988,0.6174971641585028,-0.672023547318301,0.40875616705553774,0
74,14.833366700033368,0.681915963687486,-0.7285549849101136,0.0647939227921233,0.5299333213702594,-0.7290368161144878,0.4332158764993917,0
75,15.033366700033367,0.10188363042090193,-0.9709441719767088,0.21653438700751526,-0.06294981867762489,-0.8276300601636715,0.5577327351356849,0
76,15.233366700033368,-0.6154813295761683,-0.599310311500927,0.5118690100717316,-0.38854722831193644,-0.6966773361017022,0.6030520215813456,0
77,15.433366700033368,-0.5701851571027996,-0.6071818616695894,0.5533706474679586,-0.44398538305124124,-0.6029207378712842,0.6628450523927815,0
78,15.633366700033369,-0.616838714159762,-0.6133678123574955,0.49324428783059615,-0.4708225134613944,-0.522754391881904,0.7106715180630752,0
79,15.833366700033368,-0.6597382159473137,-0.5541560572652008,0.5075988087209656,-0.5214081877272865,-0.4450143577061876,0.7280767289278628,0
80,16.033366700033366,-0.9001433593261616,0.2050087529354265,0.38433493710678185,-0.6819060877509739,-0.25366718207150346,0.686044494350085,0
81,16.233366700033365,-0.8966451737892063,0.19673393858652016,0.39663987410339846,-0.7609545804897834,-0.027954835344706632,0.6482026331421897,0
82,16.433366700033368,-0.911444653763728,0.18226651922358436,0.3688462540078684,-0.7651887933356519,0.04751048816342057,0.6420505151995463,0
83,16.633366700033367,-0.9332154467847302,0.11385986144421095,0.3408003254609383,-0.7464762185922591,0.12259976424861255,0.6540203000537418,0
84,16.833366700033366,-0.5650200362488658,0.6053695254969037,0.5606068999191716,-0.7119695622123182,0.23956688896069614,0.6600810921370898,0
85,17.033366700033366,-0.4825546539618584,0.700163870247028,0.5262238694134415,-0.6801524251549932,0.39088895742816687,0.6201600612071875,0
86,17.233366700033365,-0.38957765140761524,0.8789616729064522,0.2750556872439062,-0.6446579943753685,0.5617211038224783,0.5185416779858527,0
87,17.433366700033368,-0.3657565494405661,0.8935723434035807,0.2602894804742681,-0.5989354960375681,0.6561752683201585,0.45903190393609977,0
88,17.633366700033367,-0.48896697448943854,0.8393950390217909,0.2373336603270834,-0.6079335122842573,0.657666377890169,0.44485028946214333,0
89,17.833366700033366,-0.6686600975146388,0.3747850260448668,0.6422070213289968,-0.7561668259205565,0.5016511651040171,0.4201878626602786,0
90,18.033366700033366,-0.7905678279802916,0.08844278738293576,0.6059541094195676,-0.89915982459876,0.20086027238051574,0.3888016985646438,0
91,18.233366700033365,-0.9786428637196938,-0.11036812797959243,0.17342728048607875,-0.9422408718976943,0.030912137965843266,0.33350649026945994,0
92,18.433366700033368,-0.976320708406975,-0.16421811889634794,0.14082004034173418,-0.9480988477238045,-0.040930681253336966,0.31533038907934685,0
93,18.633366700033367,-0.7667480934740686,-0.10043589210876214,0.634042579587679,-0.9404105465591692,-0.0918348306644913,0.327405509723201,0
94,18.833366700033366,-0.8857171228457758,0.015464545945243368,0.463967699432308,-0.9104673790886086,-0.18583809295187156,0.3694771370782392,0
95,19.033366700033366,-0.9193014938611257,-0.030551501925290128,0.39236637102943955,-0.8595478333873756,-0.2841462311212198,0.4247804626612144,0
96,19.23336670003337,-0.8204515822293351,-0.18450734207164823,0.5411249781141474,-0.7493576419952374,-0.4674622498609237,0.46897992423802204,0
97,19.433366700033368,-0.4160669887445653,-0.5440848203350998,0.7286013787785143,-0.4541229167647827,-0.7537431247595059,0.4750196610108077,0
98,19.633366700033367,-0.1591017458710352,-0.9364206691485322,0.3127346556622785,-0.22785665871476943,-0.8398536605786378,0.4926734942048373,0
99,19.833366700033366,0.333902452773945,-0.7387535436563154,0.5854505562101551,-0.0034334845684888537,-0.8622529662851336,0.5064662212983274,0
100,20.033366700033366,0.4662296752475318,-0.8413489475000457,0.273426111516707,0.20985686775424273,-0.8363387569555863,0.5064559000252276,0
101,20.23336670003337,0.6617665551026355,-0.7465622572096051,0.06862814770697075,0.4115008847767515,-0.7992762561040221,0.43797772575359184,0
102,20.433366700033368,0.7008305515666277,-0.6591308675345358,-0.2727325383117805,0.5648894685315896,-0.7700308032158018,0.2965677838891572,0
103,20.633366700033367,0.7297191490719421,-0.6050983274691979,-0.3183802405484673,0.6497379134028065,-0.743570232322922,0.15793654893723444,0
104,20.833366700033366,0.7036934486333806,-0.5260115436843965,-0.4776268274094521,0.718284325165461,-0.6954806577651768,0.01934639232816907,0
105,21.033366700033366,0.5917815327360697,-0.5388674029655174,-0.5995135857791274,0.7555261354742694,-0.6442671415615083,-0.11874387950323716,0
106,21.23336670003337,0.8744031571259302,-0.15188509635532205,-0.46081453570101355,0.8185732111029926,-0.5380180111094227,-0.2011827969444624,0
107,21.433366700033368,0.9192770773251295,-0.017019599699788914,-0.3932429126260598,0.8973456796574061,-0.3532289691845464,-0.26457518124157325,0
108,21.633366700033367,0.841056228215172,0.10411423219623435,-0.5308339171856461,0.9299582833424731,-0.22014298618240916,-0.29447352491762624,0
109,21.833366700033366,0.8439931866566533,0.16101474792114373,-0.5116148471546136,0.9580171619498377,-0.10486881557987623,-0.2668438661997931,1
110,22.033366700033366,0.9973867903906325,-0.0025758290547384737,0.0722007995728134,0.9668137101221868,-0.0007192988516981179,-0.25548137413309496,1
111,22.23336670003337,0.9974782800263544,-0.06783813530118965,0.0208582903068119,0.9711926768252968,0.024631270703627056,-0.23701916585888025,1
112,22.433366700033368,0.9888483155724699,-0.015493336935320292,0.14811807891036788,0.9748614547604353,0.02417612859042985,-0.2214964081621795,1
113,22.633366700033367,0.8977025693337094,-0.258801621672457,-0.3565835352780091,0.9739257707160439,-0.010294473496980113,-0.22663322119799514,1
114,22.833366700033366,0.8781624337596324,-0.28025424428543383,-0.38767034770970016,0.9690279709875627,-0.11857533109003503,-0.21662105691879613,1
115,23.033366700033366,0.8314438385249511,-0.40776521215647005,-0.3773972378461245,0.947471515668376,-0.2469740163526128,-0.20322785794208956,0
116,23.23336670003337,0.5729142814940607,-0.7172447210927393,-0.39664749605253147,0.8949905045337598,-0.387866112503139,-0.2203449013844185,0
117,23.433366700033368,0.5817828603175612,-0.7104109044605422,-0.39603667792803166,0.8268168716010348,-0.5173974422248813,-0.22062127643323265,0
118,23.633366700033367,0.6024700814013253,-0.7252661685434296,-0.33319481656024363,0.8242831671487125,-0.5289828386499478,-0.20182769078877963,0
119,23.833366700033366,0.6539463862400647,-0.7111504300217505,-0.2581069348224473,0.8242303563755059,-0.5530042407964556,-0.12178107114918038,1
120,24.033366700033366,0.6408214553501657,-0.7676065841063918,-0.011313460982936702,0.7961216401027704,-0.5981619394020001,-0.09161128975684689,1
121,24.23336670003337,0.7024424569571794,-0.6609431053004057,-0.26406212568223036,0.7638949817958374,-0.6400786581756923,-0.08224213114422034,1
122,24.433366700033368,0.6550799179188062,-0.6739990399357986,-0.34146097186224994,0.7427522670451645,-0.663054517029135,-0.09315458789844655,1
123,24.633366700033367,0.6695006574399143,-0.6713121676657318,-0.3179761677098759,0.7436760749460384,-0.6626328944718897,-0.0886766187710163,1
124,24.833366700033366,0.6664697458457841,-0.6699188097258517,-0.3271496083564126,0.7546432109312708,-0.6519765101867481,-0.07375807996450823,1
125,25.033366700033366,0.6729388926491219,-0.6741354466542204,-0.304457954937112,0.7554964704315983,-0.6518489155135759,-0.06571205756306789,1
126,25.23336670003337,0.7165404598576648,-0.6962573671157967,-0.04237272854023917,0.7566082357849937,-0.6507939376786375,-0.06333425789454666,1
127,25.433366700033368,0.7502655368582494,-0.46214077118860014,-0.47278698354333787,0.7588932856590193,-0.6481200386981532,-0.06341448115030944,1
128,25.633366700033367,0.6131157495552493,-0.6141498958355474,-0.49689936918101596,0.7475719268987255,-0.6608052581056695,-0.06687768665875458,1
129,25.833366700033366,0.6031246999539979,-0.6241352355215167,-0.4966848136252013,0.7287462381113219,-0.6822966902090031,-0.05831077917878018,1
130,26.033366700033366,0.6020730321587386,-0.6219278318458161,-0.5007133270872121,0.7230398294377363,-0.688372752085839,-0.05793409386895609,0
131,26.23336670003337,0.6191438491217345,-0.6301152763351685,-0.4686316598606811,0.7153343450161047,-0.6986618779536022,-0.012975173784040197,0
132,26.433366700033368,0.7123740411497786,-0.6337676705255119,-0.30143285370476836,0.7026818352887612,-0.7114788249657904,-0.006009990059636794,0
133,26.633366700033367,0.7232959431521802,-0.6341938955611522,-0.27320520026633505,0.6971791791774078,-0.7168945924888904,0.0018263027416451666,0
134,26.833366700033366,0.697018867725379,-0.6574576360830728,-0.28620648977772767,0.655918020405747,-0.7546810989014778,-0.015099320112643373,0
135,27.033366700033366,0.7215256442412172,-0.6513081336777468,-0.23494352450643768,0.5380820108517954,-0.8426832906486164,-0.018778212356552623,0
136,27.23336670003337,-0.2878094047685585,-0.9526399667143608,-0.09819796507682899,0.16791407523238722,-0.9856947800083498,-0.01451426894965325,0
137,27.433366700033368,-0.8448154701342658,-0.5105530783752963,-0.16006990842543822,-0.4001750167383767,-0.9164303979731756,-0.003909174998336382,0
138,27.633366700033367,-0.7835272481322701,-0.6079751338225786,-0.12826257477413278,-0.6716986643962064,-0.74002793820254,0.03434464919096635,0
139,27.833366700033366,-0.9535238133980524,-0.18912275552073043,-0.23457391292955396,-0.8383305154640069,-0.5423121448463748,0.055673013156979784,0
140,28.033366700033366,-0.9706113751342096,-0.09683635360467338,-0.22030950746762973,-0.9341149269155649,-0.34562752125268775,0.08928000821153469,0
141,28.23336670003337,-0.95994052082419,0.2601446393638418,0.10411034093710114,-0.9726498448773166,-0.048858428472101006,0.22707957465912446,0
142,28.433366700033368,-0.8849737839324808,0.15778096816515866,0.438094245382306,-0.9657005438141688,0.13472410218873648,0.22197269193857586,0
143,28.633366700033367,-0.7732829463199553,0.617193954091383,-0.1452759717357718,-0.9241544266856402,0.3532903481937728,0.1453427862346764,0
144,28.833366700033366,-0.8235470795005693,0.5371181712074717,-0.18241238446120914,-0.8805314504769383,0.46795592871995634,0.07537647840555267,0
145,29.033366700033366,-0.3974707677318425,0.8960781519893236,-0.19763839284425078,-0.8210169800963243,0.5704340624898512,-0.023153806271033393,0
146,29.23336670003337,-0.6729529748072394,0.7391648090169292,0.027743085788239346,-0.7312348888556844,0.67750074460833,-0.07929866565947556,0
147,29.433366700033368,-0.6995772754405564,0.6716821166622349,-0.24379247290125355,-0.7274942792964283,0.6845223523241778,-0.04670356260013812,0
148,29.633366700033367,-0.6866184945467322,0.6822688202525781,-0.2511260636762628,-0.737716376728214,0.6746026332820911,-0.0261884454648334,0
149,29.833366700033366,-0.2583898600258091,0.7712647379859655,-0.5817090201941887,-0.6656697696876022,0.7377095164712574,-0.11255410712985163,0
150,30.033366700033366,-0.33238891711885565,0.8280410099528605,-0.4515148874763731,-0.6070401997873133,0.7727384669101771,-0.18541158971188337,0
151,30.23336670003337,-0.3445358679077607,0.7766484754412677,-0.5273634243288028,-0.5622127099965083,0.8063848823489926,-0.1834674091967931,0
152,30.433366700033368,-0.35745903228297865,0.9316058512431138,-0.06582991849387426,-0.5126854262231079,0.8372905887911732,-0.1899950621994175,0
153,30.633366700033367,-0.27292740935101745,0.9208628156645701,-0.2784282743387645,-0.4527489389394588,0.8741941040375965,-0.17550802475983293,0
154,30.833366700033366,-0.32230407628588303,0.9064714159268529,-0.2728179878913243,-0.5040492410677714,0.8531635412636503,-0.13433664592162275,0
155,31.033366700033366,-0.7224283104742703,0.6881681049719803,-0.06724578443713393,-0.8442898132480692,0.5268912593003136,0.0977768485811969,0
156,31.23336670003337,-0.9359402129254603,-0.08290504430921233,0.34226111590002756,-0.9472112769357799,0.24716756942227774,0.20420330426213168,0
157,31.433366700033368,-0.9579888588015842,-0.2867335099900705,-0.006421889193451368,-0.9685469573672643,0.08517945475807795,0.23379745905747476,0
158,31.633366700033367,-0.8941201671799797,-0.318511943254752,-0.31480036316072946,-0.9769009591311637,-0.11163424953649112,0.18221501139872437,0
159,31.833366700033366,-0.8631220495675642,-0.37785025856454735,-0.33503657957451816,-0.9635921496092243,-0.23713585859935998,0.1235182325724361,1
160,32.03336670003337,-0.8720538837125653,-0.374952353052258,-0.3145357799081155,-0.9523354117913472,-0.2787624281506139,0.12389016143253279,1
161,32.23336670003337,-0.8746444512600149,-0.3676212202598575,-0.3159932314064988,-0.9497549075796297,-0.2860201707853729,0.12711442653104102,1
162,32.43336670003337,-0.8706581164551472,-0.3586598499403484,-0.33662673139776345,-0.9533314019604425,-0.28126016493393174,0.10978140852382297,1
163,32.63336670003337,-0.8787829273191372,-0.3513564142917118,-0.32293844117490794,-0.9551065472129627,-0.271235744032874,0.11917489093708329,1
164,32.83336670003337,-0.8838350154407009,-0.3507852077161791,-0.3094921703831187,-0.954878367447868,-0.2694638767486107,0.12488603808154095,1
165,33.03336670003337,-0.894395983126439,-0.35873207348004976,-0.26714626110802137,-0.9493472418840619,-0.27044335232313665,0.1600006484716507,1
166,33.23336670003337,-0.9524807539539041,-0.2906079318506368,-0.09125482613483182,-0.9454386065830032,-0.20243656374788846,0.25527490836417316,1
167,33.43336670003337,-0.9498172537344451,-0.2517777904855112,0.18562092750169956,-0.9203976214318694,-0.10207579306877004,0.37742383461029516,1
168,33.63336670003337,-0.8543452228930685,-0.14105059378464024,0.5001989305394343,-0.8955007861385216,-0.08974768752262473,0.43591707308802646,1
169,33.83336670003337,-0.9596495870141282,-0.18944235485174563,0.20780823932615955,-0.8796945969958958,-0.09277147355669459,0.4664020472836155,1
170,34.03336670003337,-0.9720083957933408,-0.15123927014044602,0.17979533273875836,-0.8770911276286139,-0.08422766910447296,0.4728814371408484,1
171,34.23336670003337,-0.6750050452768761,-0.18052254645984772,0.7153878661749963,-0.8727648897973386,-0.0848971840298722,0.4807014825032656,1
172,34.43336670003337,-0.6600407461561848,-0.19210211644185707,0.7262527041410217,-0.8681447275666783,-0.09797075846334403,0.48654543722482446,1
173,34.63336670003337,-0.678567824263976,-0.21060664382006386,0.7036977685430748,-0.8828673152590814,-0.11720420747525713,0.45476200082825635,1
174,34.83336670003337,-0.8496900444705021,-0.13887800066961078,0.5086646530453321,-0.9084836395796643,-0.14051043824206766,0.3935915311094853,1
175,35.03336670003337,-0.8795527189887694,-0.24159131702783,-0.4099032203535631,-0.9741687239753447,-0.150086550249278,0.16872855319275215,0
176,35.23336670003337,-0.8921309870052161,-0.331400403552527,-0.3070440921925084,-0.982227808881507,-0.18729935994840277,0.012144184729860175,0
177,35.43336670003337,-0.9999194350001633,-0.012528723670817343,0.0020382816622812666,-0.9843918813602426,-0.175818906746466,-0.007767621419707909,0
178,35.63336670003337,-0.9096338529496064,-0.3432631758458309,-0.2339586409523878,-0.9902778488451955,-0.13814778198667899,-0.016277973420952767,0
179,35.83336670003337,-0.9919666128849562,0.10024751930757614,-0.0771535727897585,-0.9946997591794307,0.09802549047838405,-0.031038561578387216,0
180,36.03336670003337,-0.8251318019155173,0.560518041705292,-0.07054809983632969,-0.963898357748496,0.2619841829824169,-0.047584070830357275,0
181,36.23336670003337,-0.8418641618444086,0.5363841263876516,-0.05963892991467461,-0.9695663213566083,0.23973440008490557,-0.0496846647059735,0
182,36.43336670003337,-0.8769444402682856,-0.08727026539079616,0.4726016816105965,-0.9675790678759395,-0.07057082686157812,0.24250877469568347,1
183,36.63336670003337,-0.9362476881548087,-0.17626384959927457,0.30392650715135183,-0.9473652685414488,-0.09125697198248985,0.30687328496624877,1
184,36.83336670003337,-0.7941975814699345,-0.1797769745737203,0.5804570966061378,-0.9419988444970886,-0.07938385290179961,0.3260925955378551,1
185,37.03336670003337,-0.7790866461697509,-0.1893917787747179,0.5976242564459027,-0.9360378376983519,-0.08885763738534588,0.3404959422302834,1
186,37.23336670003337,-0.9597431271524508,-0.16350716892950398,0.2283824327576309,-0.9367304903894833,-0.07492839615347248,0.3419381871399368,1
187,37.43336670003337,-0.9657571527155504,-0.14146944836385106,0.2174845216524185,-0.9346704115411648,-0.06836818924397026,0.348879653303214,1
188,37.63336670003337,-0.9729741122046502,-0.11945243218109407,0.19761703728574198,-0.9334010503091386,-0.057818002094036355,0.3541462380368474,1
189,37.83336670003337,-0.972944620273235,-0.11773704971407649,0.19878821143618,-0.9323917278141096,-0.05635882011065128,0.3570284992819971,1
190,38.03336670003337,-0.7624138551677088,-0.0951044525042178,0.6400626973681446,-0.9330985740050792,-0.04480615148602694,0.3568185252739822,1
191,38.23336670003337,-0.7295311313059109,-0.10207838435300054,0.6762871667445711,-0.9303723568807281,-0.05208128388414155,0.3628978057541526,1
192,38.433366700033375,-0.7130845214289845,-0.0862898137261718,0.6957474637722358,-0.9239358987457643,-0.05340326161492168,0.3788014607386635,1
193,38.63336670003337,-0.7104815650998403,-0.07087770382956096,0.7001373413503459,-0.9233645346268882,-0.047423269116544785,0.3809842119295363,1
194,38.83336670003337,-0.7118217265848309,-0.06824130019540493,0.6990371624666539,-0.9241064802904136,-0.044402768499906556,0.3795465811133165,1
195,39.03336670003337,-0.7009798323331398,-0.07692757709871742,0.7090200438238149,-0.9163121895712244,-0.04299871806755697,0.3981495717538016,1
196,39.23336670003337,-0.945726205700339,-0.1400912861053826,0.29321728361230637,-0.9141159249107915,-0.041428907348614326,0.4033307841714893,1
197,39.433366700033375,-0.9345748837127174,-0.1652623264045644,0.3150526149783754,-0.9149118869979997,-0.049132426497794424,0.40065227279549837,1
198,39.63336670003337,-0.7830468510622446,-0.012003032562174932,0.6218468913251993,-0.9157145529206666,-0.07007190458820355,0.3956725739253172,1
