,timeStamp,x_gaze,y_gaze,z_gaze,x_head,y_head,z_head,fixations_head
0,0.04,-0.9985787599452416,0.026595325080642718,-0.046186024618697974,-0.9972492567495458,-0.04928064564750845,0.055365493559108234,0
1,0.24000000000000002,-0.998954709371533,0.029483552595782874,-0.03493148652387415,-0.9965823224905397,-0.04365009351528393,0.0701309049953665,0
2,0.44,-0.9647475157571729,0.2357012605725121,0.11707752390998144,-0.9960027308814339,-0.03732870057114086,0.08114880276625383,0
3,0.6400000000000001,-0.9588077814751543,0.25450571505841596,0.12615260276862125,-0.9943054685418726,0.0005347779632896831,0.10656617305813837,0
4,0.8400000000000001,-0.9475559817817228,0.2897124158309633,0.13492359876264154,-0.989775849572047,0.059927304586223126,0.12943139406250187,0
5,1.04,-0.8464363776640955,0.5324365874232274,0.007532525472441485,-0.9814402199218613,0.1337611166269406,0.1374156410254773,1
6,1.2400000000000002,-0.8291700851747082,0.5572391704518772,-0.044288562467881355,-0.9683779301683182,0.20493772918918188,0.14228391166152837,1
7,1.4400000000000002,-0.8177259254415123,0.5736035635914435,-0.047992319135662306,-0.9610334139685145,0.2406602422165803,0.1360052390618798,1
8,1.6400000000000001,-0.9673458865042629,0.24191160932293812,0.07563536962339863,-0.9563203152225812,0.2571505257343014,0.13901461004928742,1
9,1.84,-0.9674464144679749,0.23859702581035258,0.08437354092079774,-0.9465988615752559,0.2897027116213951,0.14150241744804484,1
10,2.04,-0.9707941172287237,0.22487595350791786,0.08360375283447403,-0.9428291714106337,0.30267440697387676,0.1395039673276351,1
11,2.24,-0.9719151960779487,0.22088143166361743,0.08119263993117536,-0.9395049882613812,0.3148549550579622,0.1348952716274017,0
12,2.4400000000000004,-0.9656820511711323,0.24774129106646023,0.07798992721267675,-0.9241744003777362,0.3584550155926264,0.1319533231220119,0
13,2.64,-0.6188624641644938,0.7845425921734954,0.038757857447786884,-0.8553790122019349,0.5041034752963954,0.1191907365466742,0
14,2.8400000000000003,-0.6342796066669212,0.7730947808590626,0.0037202654386831752,-0.783444533907153,0.6108150643634286,0.11454090726768554,0
15,3.04,-0.3633846273403289,0.9270535722065354,0.09232164898783189,-0.7191370930115404,0.6861426404254102,0.1097730315011732,1
16,3.24,-0.3135232574004368,0.9439133755924108,0.10358912320682931,-0.6682815780843636,0.7349530571213092,0.11508143299904693,1
17,3.4400000000000004,-0.30811099883376797,0.9470127153446226,0.0907443076631391,-0.6404894632173062,0.7600965526055433,0.10966530091499131,1
18,3.64,-0.14577077119741916,0.983993105761944,0.10251073152345132,-0.6114975053386387,0.7836514799468526,0.10936708344711969,1
19,3.8400000000000003,-0.1821585919339524,0.9798457075292073,0.08197949024742339,-0.6061337425941061,0.7882382359984547,0.10621849838378696,1
20,4.04,-0.5801614579985727,0.8126715229638123,0.05456810805451039,-0.658696778254719,0.7437984661858553,0.11350064324232999,1
21,4.24,-0.6594909597064663,0.7514996993535541,0.01788507581650839,-0.7349704158711092,0.6678832670102742,0.1172622251278391,0
22,4.44,-0.9957593983701687,0.0919742337335021,0.0019901976322220876,-0.9043134727580344,0.40890844597912707,0.12251949149110627,0
23,4.640000000000001,-0.9997284526901022,-0.009379779843057065,0.02133168094524685,-0.9834736486528091,0.1336952398743445,0.12208671197338924,0
24,4.840000000000001,-0.9969318301648245,-0.06824886340552423,0.038327779065161084,-0.9918208612299302,-0.004552980869443763,0.1275564564979855,0
25,5.04,-0.9984484567327696,0.0010991065491285394,0.05567289477604898,-0.9875081703236834,-0.09637654069926024,0.12465623107897456,0
26,5.24,-0.9960917036884547,-0.045725701085509884,0.07556770542547162,-0.9746572244069767,-0.1886391927198631,0.12024371036061225,1
27,5.44,-0.991924708472618,0.01866401745356776,0.12544730835695475,-0.9633409633654684,-0.23897641756865057,0.12191989233978678,1
28,5.640000000000001,-0.9897471693398883,0.0012879069319508924,0.14282465501240685,-0.9526450473636543,-0.2754453261264324,0.12883045466272453,1
29,5.840000000000001,-0.9877498430970232,-0.014904736517774627,0.1553322126641537,-0.9434347362300479,-0.30159034709306587,0.13774672778263752,1
30,6.04,-0.987478874558646,0.0012241509938016007,0.15774654910562916,-0.9463536141810888,-0.2897213012105191,0.14309578802772288,1
31,6.24,-0.9893042577947568,-0.007290235618634419,0.14568437793322273,-0.9439184350850007,-0.3016894098198697,0.13416962364567564,1
32,6.44,-0.9326791357234072,-0.3591948602002142,-0.03299518437570855,-0.9060770457461779,-0.4049666663418341,0.12258216152385411,0
33,6.640000000000001,-0.5530439622999199,-0.8327230658206742,0.02673333899501307,-0.7307251473625836,-0.6802385207843774,0.0575874452724937,0
34,6.840000000000001,-0.48920143765351287,-0.8675077374973327,0.09006818961206756,-0.5061174849383053,-0.8600115956152057,0.06500112958335631,0
35,7.04,-0.5183996250752869,-0.8491504078423991,0.10102184705740423,-0.33582813001501804,-0.9365485575510796,0.10048017933706428,0
36,7.24,-0.21488955864607123,-0.9712974061949337,0.10199914854493186,-0.18113276114604537,-0.9748457838077479,0.1298715543599436,0
37,7.44,0.0863712770393476,-0.9961804356286147,0.012827399322394888,0.018254436083327386,-0.9922992555339869,0.1225110730912726,0
38,7.640000000000001,0.29349401289773447,-0.952035260876668,-0.0865455165833526,0.1592601736138345,-0.983030231266378,0.09103714361107108,0
39,7.840000000000001,0.331131673863464,-0.9380692511796893,-0.10187195176081575,0.2586124984227546,-0.9638217609967541,0.06455376587509515,0
40,8.04,0.3024189583880503,-0.9503381222873295,-0.07348623636355167,0.3500951672251708,-0.9342088379309981,0.06846328225548279,0
41,8.24,0.3064848165661552,-0.9496606921709134,-0.06489704893038037,0.3825395361945288,-0.9205728565259031,0.07879796365270715,0
42,8.44,0.31359441656835463,-0.9469969171540882,-0.06968056255374068,0.4058975555356565,-0.9106607448924829,0.07709852217810262,0
43,8.639999999999999,0.35260866751480663,-0.9323579630282341,-0.07984833355352389,0.4560532586219153,-0.88741734584695,0.06712584889807416,0
44,8.84,0.5161294451153486,-0.8543686703847962,-0.06053569979638126,0.5303847966654328,-0.8470262077944813,0.035193334247663285,0
45,9.04,0.8430723630805079,-0.5359355491761199,-0.044744583349711535,0.7298721333705506,-0.6829616440837895,0.02915581656357388,0
46,9.24,0.9011685527622241,-0.43325698391115064,-0.013550845163750028,0.9105594311369302,-0.41131602026194997,0.04123898451054992,0
47,9.44,0.9905859525562106,-0.13319185568059907,0.03161329117101742,0.98438814114181,-0.16316584054584193,0.06600678797170348,0
48,9.64,0.996549027855342,-0.062475666515397245,0.05465186340857525,0.9945442381000538,-0.026148269724445325,0.10098527839443337,0
49,9.84,0.9800890216893534,0.15866991716805603,0.11937071227855002,0.9829979051271338,0.11802989595521653,0.1406558288037423,0
50,10.04,0.7917665329288471,0.606194419925507,0.07506052614398002,0.8818246304890434,0.44006624181944726,0.16949048313628098,0
51,10.24,0.7641638246478002,0.640695834274069,0.07458214963046708,0.7443953082538989,0.6457951182197299,0.16977717848152588,0
52,10.44,0.6650452523866519,0.7442775416872321,0.06136573325549872,0.6917933516068131,0.7024469233016032,0.16730295459651578,0
53,10.64,0.6771122228219797,0.7332580487391054,0.06206183742363328,0.6868245048984778,0.7077960048877919,0.16521778032597437,0
54,10.84,0.982983812329051,0.1540202386728651,-0.10010290094796849,0.8251227680506417,0.5487437330418972,0.13436045955447798,0
55,11.04,0.9965767581617326,0.02100101365471111,-0.07996075610776751,0.9487513523395418,0.2977813786693888,0.10581645406858489,0
56,11.24,0.9961285143012548,0.006404779741307109,-0.08767532031558321,0.9906625047533533,0.11002103502811254,0.08051815650618908,0
57,11.44,0.987090870633972,-0.1331749866281853,-0.08897210825674491,0.9972923990050326,-0.0342648445552596,0.06506759035334472,0
58,11.64,0.9963523869982076,-0.04424569585093052,-0.07296738532825169,0.996969933129337,-0.046633084531090004,0.062260002113730444,0
59,11.84,0.9915022248383163,-0.12266583182019972,-0.04331780055043866,0.992219593289873,-0.10347642481410411,0.06923083272191756,0
60,12.04,0.9839449300345391,-0.17817624047560088,-0.01027628285457615,0.9886888112873852,-0.13183844223615998,0.0715056612016169,0
61,12.24,0.9893297374679569,-0.14550482888012337,0.007417232243189976,0.9940966740507357,-0.07866071342430567,0.07472813931073702,0
62,12.44,0.9864452487007234,0.1575174306214965,-0.04597858595227481,0.9770688780159836,0.2113076757287756,0.026181554397887333,0
63,12.64,0.8572793982822987,0.46006363057558547,-0.23111358485028824,0.8773026845911945,0.4739370761012807,-0.07565479168996592,0
64,12.84,0.7154591766950332,0.6402347943504239,-0.2796740506123794,0.775495226479674,0.6251823641691928,-0.08805773809869323,0
65,13.04,0.9719689021411491,0.2343873105925864,0.018413090552763824,0.8129768577126482,0.5811208192535184,-0.0369759685983799,0
66,13.24,0.980219734016812,0.19063988429482,-0.05315738481216632,0.9142679144246,0.40503651826104725,-0.007720073099421884,0
67,13.44,0.9983566135265005,-0.04199022103687472,-0.03899863542705173,0.9798679252722424,0.19921376555530057,0.013142474498696004,0
68,13.64,0.9843235956633398,-0.17504087543005623,-0.021627550695215172,0.9991770535154023,0.030768852768297827,0.026429026232562013,1
69,13.84,0.9817243374727606,-0.18450401454789014,-0.04664326135018593,0.9989120898143043,-0.03751812652810174,0.027695252384484385,1
70,14.04,0.9841056621756639,-0.16850288082047832,-0.0560609028557164,0.998473911185341,-0.0485578402587813,0.026305604567290353,1
71,14.24,0.9886424355784216,-0.14356555292614995,-0.044441721237769516,0.9984316609041192,-0.037467917377962456,0.04159776041568371,1
72,14.44,0.9911061786460195,-0.12771129172937734,-0.03739476720744339,0.9983445665279441,-0.023881183996005036,0.05232413912412253,1
73,14.64,0.9914483938363993,0.08902276359258035,-0.09542028045213401,0.9981658942755345,-0.0064424590870903135,0.060194204256173264,1
74,14.84,0.9914215555496516,0.10039837254728404,-0.08368671329049687,0.9967128070496409,0.012043433694930118,0.08011576603928118,1
75,15.04,0.9899586305329567,0.10602666839175698,-0.09348933320469197,0.9964583765460777,0.03209774829579256,0.07772025711161382,1
76,15.24,0.9857033069413998,0.14206428383036418,-0.09059100366236264,0.9924518679707506,0.08725502222914176,0.08617337673063312,1
77,15.44,0.9737148329427447,0.203487451157247,-0.10233416501252023,0.9810766934026823,0.17826822064895725,0.07555768107025225,0
78,15.64,0.7527195438088754,0.3488929321462345,-0.5582893606961908,0.9297806748788364,0.3567482800261622,-0.09076652092170705,0
79,15.84,0.6096202124024059,0.4219550924988019,-0.6710567014379434,0.8148931143726237,0.4776219342127284,-0.32836945672059387,0
80,16.04,0.5316356306733914,0.43912630927896074,-0.724245566570859,0.70768921134171,0.561140959412398,-0.4292980361244178,0
81,16.24,0.34705749152739906,0.4582734453451656,-0.8182521291546886,0.5848533230943819,0.6146892062667361,-0.5292483067187166,0
82,16.44,0.3162110791719556,0.4432709975644987,-0.8387618113189715,0.5287879328880911,0.617742596110693,-0.582045880478817,0
83,16.64,0.21000337381429585,0.5758518640302096,-0.7901222776757695,0.5031341677523247,0.6433185374422962,-0.5770591552200528,0
84,16.84,0.21355763350842424,0.5812045771442758,-0.7852352365226776,0.48985321132778004,0.666574569081941,-0.5618916044977772,0
85,17.04,0.2152401941310544,0.6304963608691817,-0.7457519679901252,0.46281150962828876,0.7370537984305686,-0.49250096931341725,0
86,17.24,0.32343243769179175,0.8961714801097244,-0.3037567060769049,0.4600925289210316,0.8362703225675947,-0.2982730501130487,0
87,17.44,0.3326982185873474,0.9329289915587402,-0.13767858242296832,0.43095356947726254,0.8930444501015162,-0.12942422917555665,0
88,17.64,0.2947436661351405,0.9539317626399044,-0.05603894627794563,0.38149166862858136,0.9238529283387208,-0.030981826397924336,0
89,17.84,0.09705419275238603,0.9940769055679944,-0.04890388006634965,0.32971394008392496,0.942198584119084,0.059586456500850066,0
90,18.04,0.06958200850449014,0.9975289628771209,-0.009711452711966955,0.2858296805051056,0.9506815073649604,0.12044112792827913,0
91,18.24,0.38907176388282794,0.8836984265023249,0.2601927238537242,0.31585672559059125,0.9294042890963182,0.19089839262958005,0
92,18.44,0.4554068693940195,0.8577184831101607,0.23858664472250568,0.37647908625698495,0.90065157026474,0.21700287230993998,0
93,18.64,0.4696100141798253,0.8317836309427866,0.2959770698511265,0.4141406356717362,0.8754389421382687,0.24918706321404369,0
94,18.84,0.5156593064188055,0.7915408946355683,0.3279611132789998,0.48932984412861896,0.82597299864109,0.2798658770927733,0
95,19.04,0.8657292709591187,0.4242513021150578,0.26556291544240657,0.6513721542273888,0.6970428163959174,0.299742604259085,0
96,19.240000000000002,0.9234633938832694,0.29868951979053854,0.2408317481664148,0.8383187638892982,0.4532031442519091,0.3030322757583796,0
97,19.44,0.9547260522774546,-0.13508773092578366,0.2650461658957369,0.9434582991545746,0.15807646269150932,0.29137307648322164,0
98,19.64,0.9542791569721407,-0.13717921516410622,0.26558078525281176,0.9435274716358459,-0.031415316762308645,0.3298014374456118,0
99,19.84,0.9121967062735035,-0.3386887490799859,0.23062328657446154,0.9203973126877659,-0.18699086815127594,0.34337035694009893,0
100,20.04,0.5550726100457588,-0.30876984418787345,0.7723701061649042,0.788383214294945,-0.34965609880362913,0.506154640389079,0
101,20.240000000000002,0.4867779772825675,-0.42324153025477096,0.764142531142124,0.6771250446833765,-0.46341603577087437,0.5716180994798391,0
102,20.44,0.36025496721456807,-0.6331526613537768,0.6850796056064291,0.6006424161983792,-0.5785227346351632,0.5518515501234239,0
103,20.64,0.06371295071130534,-0.7953329107387562,0.6028152461637618,0.5167558706155031,-0.6809849109528969,0.5188669590934544,0
104,20.84,0.022057716891653478,-0.8149104223638081,0.5791670403677749,0.4088507880199137,-0.764562801410825,0.4982818036355798,0
105,21.04,-0.08105891116400171,-0.7866089555810393,0.6121076734698017,0.3216820051417441,-0.8017988221474692,0.5036261871377602,0
106,21.240000000000002,0.16522856843559508,-0.9418108259754172,0.2927317684301218,0.2698627990121097,-0.8333521328092125,0.4823881139204059,0
107,21.44,0.11528192026525447,-0.9814765341367958,0.15301598543544026,0.19900977862162006,-0.9206916245706508,0.33574103183618986,0
108,21.64,-0.046141624740593745,-0.9984144577672315,0.03224160336682706,0.0946455631281568,-0.9756497680016608,0.19786295150547978,0
109,21.84,-0.1069490848331845,-0.9936534416110567,0.03485299453198927,-0.030011053202794846,-0.9887644997651073,0.1464380438612728,0
110,22.04,-0.18984788828993798,-0.9817685870201925,0.009392595606421899,-0.11837802949721216,-0.9852487658991544,0.12357795687965617,0
111,22.240000000000002,-0.29703613873688733,-0.8809669918105247,-0.3683295964548546,-0.204914413693789,-0.9673405313888764,0.1492058289505382,0
112,22.44,-0.589162730071715,-0.8003869163485142,0.11076128219084518,-0.3588193178559666,-0.9173672290995382,0.17229644252744886,0
113,22.64,-0.5647854484927315,-0.8241300687681046,0.04274373548420394,-0.49097435928362154,-0.8541764983050525,0.17125036720940595,0
114,22.84,-0.6973855336385454,-0.7164837761655716,0.017447520259471286,-0.656415268238785,-0.7409398142576905,0.14187031849820758,0
115,23.04,-0.971640488898484,-0.23473193382130628,-0.02856010465011151,-0.8145231613663582,-0.5652407399284348,0.13059450801204772,0
116,23.240000000000002,-0.9724847668720158,0.005575711668759111,0.23289974160841892,-0.9116417757297006,-0.38678856898194747,0.13893838796133803,0
117,23.44,-0.9707778733047064,0.08545581337411903,0.22424902377169614,-0.9594333553226281,-0.2254791511495188,0.1692536235690576,0
118,23.64,-0.9755273418818156,0.01342672724851109,0.21946782961608255,-0.9715906529505153,-0.13822613206357365,0.19210710427762676,0
119,23.84,-0.9724954728917694,0.03153138214217575,0.2307776573787383,-0.9734844943755472,-0.10183706538879947,0.20483444857587618,0
120,24.04,-0.9720547112991685,0.057500352771127076,0.22760348782979242,-0.9780659599665885,-0.06039955267486811,0.1993461110513864,0
121,24.240000000000002,-0.9738521044069145,-0.031136188956989552,0.22503914432706795,-0.9842620076017001,-0.04587244294153075,0.17065760859231233,0
122,24.44,-0.9722632709385944,0.024805112034490366,0.23257007202291072,-0.9845595017738444,0.02307740096404101,0.1735223934585506,0
123,24.64,-0.9733908487003877,0.028055106512143713,0.22742727775034166,-0.98382337593159,0.048796269063391635,0.172367308663977,0
124,24.84,-0.8753653680154262,0.47220293827089427,-0.10372973328584144,-0.9774265379441203,0.16650800851320482,0.13004786051119083,0
125,25.04,-0.8329448118897109,0.5367325191071671,-0.13461479591370548,-0.9587625696275538,0.2703112184555541,0.08778485210014379,0
126,25.240000000000002,-0.8051318313922328,0.5796215388744862,-0.12570443807504145,-0.9379573867543466,0.3416852256820367,0.0590520717974666,0
127,25.44,-0.5652436876903049,0.8246731568981436,-0.020341037778720518,-0.8559290020395189,0.5155390775184144,0.04006248892786829,0
128,25.6,-0.3847789524635171,0.9224646264760816,0.03168865161885603,-0.7467000061582486,0.663241168411713,0.050500032941945674,1
