,timeStamp,x_gaze,y_gaze,z_gaze,x_head,y_head,z_head,fixations_head
0,0.03333333333333333,-0.9988949992048731,0.04594306854198309,0.009900253352473442,-0.9988251359052442,-0.031660729236683394,-0.036687138183180326,0
1,0.23333333333333334,-0.9965998855555327,-0.0714781490864198,-0.040982219484538826,-0.9989047808392222,0.0117070978990652,-0.045301022894934984,0
2,0.43333333333333335,-0.9967544931966459,-0.0802071877566095,-0.006876577962460211,-0.9994981215202652,-0.0020648774301891327,-0.03161077915299291,0
3,0.6333333333333334,-0.9970381222794567,-0.07608132514809729,0.011252319101624055,-0.9999569405414996,-0.003495199713171287,-0.008596548252016577,0
4,0.8333333333333334,-0.9944125223173949,-0.09834422596462541,0.038368589728781745,-0.998876417961464,-0.03634160978185941,0.0304169202737118,0
5,1.0333333333333334,-0.9799663846318052,-0.18657678650488033,0.0696777419925594,-0.9865957916790091,-0.14526955280262258,0.07433371287508476,0
6,1.2333333333333336,-0.8652488552106636,-0.4893731834930191,0.10889584856432379,-0.9526668662364797,-0.2905689574917225,0.0894176879444934,0
7,1.4333333333333336,-0.8760066358448699,-0.47282531109702297,0.09512412491979491,-0.897791430236594,-0.4263175382117302,0.11056176738285682,0
8,1.6333333333333335,-0.5800677204070617,-0.8129127959180651,0.05190593390383326,-0.7911797927540133,-0.6079204273948738,0.06683778492552449,0
9,1.8333333333333335,-0.5804077506675319,-0.8067144918941506,0.11107912284951911,-0.6936385921293066,-0.7170008652283842,0.06910327612076214,0
10,2.033333333333333,-0.6368773567289476,-0.7638646401401927,0.10439369726876575,-0.7092702115347483,-0.7011605081860234,0.07286774862565068,0
11,2.2333333333333334,-0.9004391996956307,-0.42021962975563215,0.11235973664766101,-0.7991958831784864,-0.5967782251924202,0.07170558030407595,0
12,2.4333333333333336,-0.9073782090120966,-0.409052657717228,0.0966473435976008,-0.8924454354268043,-0.44601870533279364,0.06788563381983442,0
13,2.6333333333333333,-0.973809843751738,-0.20035856017122256,0.10747481369293126,-0.9515201887615065,-0.29903401257364454,0.07202770094465584,0
14,2.8333333333333335,-0.9925406965713564,-0.08479543041528724,0.08759395316077985,-0.9922249955576543,-0.10148441041968491,0.07204493481419955,0
15,3.033333333333333,-0.9964083504135894,0.006459796469649712,0.08443145299969701,-0.9932784735251752,0.10087771465860282,0.05675879417989421,0
16,3.2333333333333334,-0.9496335930968215,0.31336221479840193,-0.00040149553034207633,-0.9735775489104888,0.22554004736305533,0.03575532537841185,0
17,3.4333333333333336,-0.9280396362096677,0.37237928890115957,-0.008723463835813157,-0.9533353306501079,0.30061042693816653,0.028019966993248813,0
18,3.6333333333333333,-0.9994967411575588,0.03068755085939248,0.008033594318377758,-0.9626299686050908,0.2695912820834611,0.02576983057681599,0
19,3.8333333333333335,-0.9989596945186561,-0.020112472230343136,0.040926973843383764,-0.9764667571547337,0.2138024207439108,0.02830542449358878,0
20,4.033333333333333,-0.9959589667596579,-0.08108610245085426,0.03861062703925181,-0.9876256804936551,0.1537419115818755,0.030966753988678836,0
21,4.233333333333333,-0.9926755878999229,-0.11201416081522914,0.04525488884532134,-0.9916195165379228,0.12337973052750739,0.038316791567880114,1
22,4.433333333333334,-0.993954434609065,-0.05296374814078225,0.09617392216112318,-0.9937396651344252,0.10449127925897113,0.039535433440703815,1
23,4.633333333333334,-0.9945393701377951,-0.06774794872115478,0.07938297481194652,-0.9964947008062992,0.07396385850701331,0.039085277275705356,1
24,4.833333333333334,-0.9904016276653154,-0.11645263182134888,0.07445401573975367,-0.9993814589539495,0.01701666046109611,0.030775522186103882,1
25,5.033333333333333,-0.9838692124574024,-0.17803688428216433,-0.017442494476144307,-0.9994682079846511,-0.021983625997387297,0.024083633778096733,1
26,5.233333333333333,-0.9833249774153416,-0.17915547055384676,-0.03122989211872883,-0.9988060174325433,-0.04299990497449408,0.023185075215034143,1
27,5.433333333333334,-0.9817314027355198,-0.1860091543177984,-0.040050560457082246,-0.997875160270169,-0.06262550727776237,0.01797805200758724,1
28,5.633333333333334,-0.9814239984456736,-0.18829116141982838,-0.036788229178346475,-0.9969735813073829,-0.07555598749868724,0.01830221102025897,1
29,5.833333333333334,-0.9833288666376606,-0.1782658190055693,-0.03585579188035669,-0.9971502902576098,-0.07354949977695939,0.01678599778756747,1
30,6.033333333333333,-0.9852434966866436,-0.16771352896980124,-0.034167593376935146,-0.9975752485119566,-0.06758512582059223,0.016609464895753972,1
31,6.233333333333333,-0.9865508065733782,-0.15956591788118601,-0.03544324900670982,-0.9980306429860059,-0.060877750451735026,0.015123992887998487,1
32,6.433333333333334,-0.9854454312810539,-0.16122453354385405,-0.053888326666029183,-0.9979139447696417,-0.06343874960139849,0.011970124615217632,1
33,6.633333333333334,-0.9840984611101414,-0.16346148650707312,-0.06950223931320226,-0.9977282802289732,-0.066968270627349,0.007316389855517518,1
34,6.833333333333334,-0.9831217635003829,-0.16171467917652976,-0.08555676870200951,-0.9977498764610833,-0.06703269335476562,-0.0013424021377008264,1
35,7.033333333333333,-0.9825350474008719,-0.16245142294699336,-0.09074368193689193,-0.997589972116152,-0.06937022745725467,-0.0014209418790534815,1
36,7.233333333333333,-0.984981370742259,-0.15623729013985882,0.07349563565582884,-0.9976741020287875,-0.06813341454089025,-0.0020552284671073173,1
37,7.433333333333334,-0.9850166967713998,-0.156702287322025,0.07201736061260666,-0.9976834144574421,-0.06796652919298124,-0.002890575375221154,1
38,7.633333333333334,-0.984675239845987,-0.15923653169893676,0.07112242267204741,-0.9976618845091089,-0.06810675953256388,-0.005677455742409828,1
39,7.833333333333334,-0.9839648156526567,-0.16164572505982053,0.0753916515770708,-0.9977078910660212,-0.06743541553478212,-0.005606142724159007,1
40,8.033333333333333,-0.9827362035491198,-0.16876876259347973,0.07580672138094881,-0.9972248473152068,-0.07419950307997228,-0.006085855720285884,1
41,8.233333333333334,-0.9811845852710627,-0.1766541415037917,0.07791099996798319,-0.9966500653370121,-0.08157985684329226,-0.005777042596154213,1
42,8.433333333333334,-0.9799480562741657,-0.18413901056217513,0.07612247889859951,-0.9958590882113277,-0.09068993210719524,-0.00632555462355215,1
43,8.633333333333333,-0.979311413018521,-0.18986110288795421,0.07001369824425617,-0.9951495132191195,-0.09766834279666839,-0.011761851686797987,1
44,8.833333333333334,-0.9808114790064837,-0.18379088451991282,0.06503655446364022,-0.9955230253965457,-0.09317574191452653,-0.01588039747570596,1
45,9.033333333333333,-0.9807349010622627,-0.1852701579050027,0.06191948343009307,-0.9952468439797513,-0.095628291718116,-0.018410577704671492,1
46,9.233333333333334,-0.980861587225299,-0.18509367545764255,0.06042249590548007,-0.9949892403624696,-0.09793981334892947,-0.02010483832545727,1
47,9.433333333333334,-0.9455870405819634,-0.3129640481086794,-0.08898681517434226,-0.9940255971397722,-0.10632263910523376,-0.024669994824026008,1
48,9.633333333333335,-0.9476437090007739,-0.303860128788231,-0.09818565538843572,-0.9934122138668946,-0.10953789726673874,-0.03366930950371438,1
49,9.833333333333334,-0.9498005560853986,-0.29637237687311846,-0.10021136605418571,-0.9939374614423038,-0.10245852564817479,-0.03988199172097433,1
50,10.033333333333333,-0.9528523246804742,-0.28584140902941574,-0.10181913491625603,-0.994813226199426,-0.09035772215831861,-0.046713242501994955,1
51,10.233333333333334,-0.9527517722057024,-0.2854256584263407,-0.10390502428075216,-0.9947538757452379,-0.08784226514043116,-0.05242578702152415,1
52,10.433333333333334,-0.95538686996695,-0.2755129606043114,-0.1064356013456095,-0.9954908057820271,-0.07472965006862906,-0.05842546537316509,1
53,10.633333333333335,-0.9816941311504829,0.18216084330788174,-0.05562427554638628,-0.9987212101726722,0.016214530584467896,-0.047885627793301314,1
54,10.833333333333334,-0.9802781188258873,0.18788677017135177,-0.061264764308344336,-0.9728685296677296,0.22942818796019507,-0.029824998767004184,0
55,11.033333333333333,-0.7742238116610428,0.6119951489329679,-0.16136736702183938,-0.929364412982025,0.36837823308439055,-0.02406793036799602,0
56,11.233333333333334,-0.792852522923806,0.5859102893530372,-0.16761267769353175,-0.8700558172967372,0.49166126524639747,-0.035666161055236324,0
57,11.433333333333334,-0.5489388506872726,0.8194980681500816,-0.16458752839878482,-0.7883416467759272,0.6138402663231282,-0.041443641236875446,0
58,11.633333333333335,-0.48346025647285384,0.8613256810536775,-0.15615457588114875,-0.7025357603048582,0.7103354631791683,-0.04320920322004599,0
59,11.833333333333334,-0.5477168064078937,0.8212690652046594,-0.1597605161365058,-0.6476335352585119,0.7604693112871416,-0.04751032097368587,0
60,12.033333333333333,-0.5789436614310801,0.7977442492735494,-0.16860708656446183,-0.6693442121725537,0.7404453140116793,-0.06098411751636235,0
61,12.233333333333334,-0.9231687103415555,0.3815826068872346,-0.04641385964829895,-0.7954928175634772,0.6013927328221708,-0.07428295977948988,0
62,12.433333333333334,-0.998129178233564,0.05364595762963494,0.0293301003883373,-0.9375618282124295,0.3403058826489111,-0.07190079633433956,0
63,12.633333333333335,-0.9960674682781105,0.08424825381031047,0.027419525304950676,-0.9861840250931493,0.15863814678644064,-0.04769703382012964,0
64,12.833333333333334,-0.9855570496490949,-0.12824737848097995,0.11058893163299677,-0.9998593282154744,0.015094375744530915,-0.007313248346910329,0
65,13.033333333333333,-0.8336382431087428,-0.49424323654429153,0.24651755060602218,-0.9741669093949125,-0.2143240903670711,0.07116190644082018,0
66,13.233333333333334,-0.8601353581007245,-0.4636650463758774,0.21256032205986644,-0.8809484081215125,-0.4562315782705412,0.12562901423215836,0
67,13.433333333333334,-0.6833528771048787,-0.6953815409495973,0.22242607279509471,-0.7618388941661474,-0.6345946378086702,0.12996593784597907,0
68,13.633333333333335,-0.09352255201603826,-0.9906674116770596,0.09915448404123316,-0.4569697334070498,-0.8788158141883478,0.13733691230824058,0
69,13.833333333333334,-0.10759219046359847,-0.9837544118725792,0.14370517622020695,-0.1499117048707313,-0.9795154760025458,0.13444669209116547,0
70,14.033333333333333,0.2745563117939171,-0.9615157837819892,-0.010306754689469306,-0.046907487787461954,-0.989859586294342,0.1340808972623002,0
71,14.233333333333334,0.2124441553340412,-0.9771548535545762,-0.005989410583760177,-0.10431928357405434,-0.987017124166885,0.12212568802642788,0
72,14.433333333333334,-0.5415095376016927,-0.8396037192073685,0.04281372886768449,-0.6233953269485697,-0.775676486937492,0.09851017181487888,0
73,14.633333333333335,-0.9777681250459523,-0.20253409720105783,0.05430868360654238,-0.9016120206645022,-0.42099050740556837,0.09931141358210437,0
74,14.833333333333334,-0.9641493821016218,-0.2625578655708462,0.038462140085316336,-0.9591914115754955,-0.26942269615527553,0.08580936287043865,0
75,15.033333333333333,-0.9687204890830514,-0.24530114031770486,0.03752285422948873,-0.9791467547013335,-0.19046951337056836,0.07066114373703421,0
76,15.233333333333334,-0.9958937924232957,-0.0713356794966186,-0.05573845210895149,-0.9930967497256598,-0.10539659351671772,0.051482072213560895,1
77,15.433333333333334,-0.9982495384248422,-0.04567202248057784,-0.03757559576538325,-0.9966041946743112,0.05848064124771643,0.057966315708552395,1
78,15.633333333333335,-0.9955644330751199,-0.08033682002225363,-0.0489638126020351,-0.9964823793544294,0.06477802690460041,0.053166482547577915,1
79,15.833333333333334,-0.9937961921945397,-0.10092777090662991,-0.04671951882728162,-0.9969633177910084,0.057413733282426056,0.052609944019348105,1
80,16.033333333333335,-0.9919103284812776,-0.11863979117594538,-0.04514975306568497,-0.9978483577818359,0.042532813038683594,0.04989603879177017,1
81,16.233333333333334,-0.9932697848422712,-0.0019328085867527142,-0.11580759375082263,-0.9974267310388428,0.046832065367774865,0.054283274243143734,1
82,16.433333333333337,-0.992574493876965,-0.003844839652261164,-0.12157751154278336,-0.9973387785299954,0.04723930200605881,0.055532055483997034,1
83,16.633333333333336,-0.991766075720092,-0.008402688273760343,-0.12778672028244176,-0.9976671986063548,0.04406377302196646,0.05213966563008782,1
84,16.833333333333336,-0.9912281997610844,-0.006511541330531854,-0.1320009690415213,-0.9979306326753541,0.04215943150106201,0.04854930178359888,1
85,17.033333333333335,-0.9912719279231317,-0.02336871905668311,-0.12974539637770352,-0.9984977923922403,0.020025346691180848,0.05100141250711122,1
86,17.233333333333334,-0.9911960102473095,-0.022743182431856402,-0.13043472284130098,-0.998586197530845,0.016583249863689427,0.05050348428422873,1
87,17.433333333333337,-0.9916812743865897,-0.020247686001369333,-0.12711522820881663,-0.998412100881237,0.015858121838834678,0.05405364729284952,1
88,17.633333333333336,-0.9916033322831566,-0.018144406423703092,-0.12803754105914372,-0.998454300249455,0.01577156894734731,0.05329416409242775,1
89,17.833333333333336,-0.9911360440993754,-0.020344957508766914,-0.13128375676757215,-0.9986647774245092,0.011008947758090441,0.050472422181973134,1
90,18.033333333333335,-0.9904936752466519,-0.023407659842662926,-0.1355520592136863,-0.998874545416942,0.0053159186319710365,0.04713155553550558,1
91,18.233333333333334,-0.9899348055003984,-0.028448520755501853,-0.1386353581367782,-0.9990029957966536,-0.0025151675369467358,0.044572281987490095,1
92,18.433333333333337,-0.9892385496431192,-0.031605106280425295,-0.14285730347791573,-0.9991439383936114,-0.008698120649259285,0.040444196969086375,1
93,18.633333333333336,-0.9891305049640082,-0.03271467357266003,-0.1433547846522059,-0.999106026032206,-0.013506383116308822,0.04005903595006818,1
94,18.833333333333336,-0.9893726676831116,-0.026221367038926625,-0.1430180560356396,-0.9991196942466323,-0.009860631559774964,0.04077504768554969,1
95,19.033333333333335,-0.9891232109548167,-0.021979306413876236,-0.14543790303768325,-0.999224831266964,-0.007633951459155815,0.038619416937946294,1
96,19.233333333333338,-0.9885293233593969,-0.01653179687025816,-0.15012153926353689,-0.9994014649095034,-0.004267522895470688,0.0343292904831344,1
97,19.433333333333337,-0.9881060067976043,-0.015730444745143922,-0.15296755354849903,-0.9994837860926737,-0.0050202277238745084,0.03173261179692941,1
98,19.633333333333336,-0.9881854065695996,-0.017237798934912545,-0.15229071058588778,-0.9994588223253885,-0.008039554132645689,0.03189714791789651,1
99,19.833333333333336,-0.9876680626862123,-0.017691243693684005,-0.15555969222853092,-0.9995478190945215,-0.01031960014071141,0.028242931794021705,1
100,20.033333333333335,-0.988022158520787,-0.017654737904514786,-0.15329880789310849,-0.9994880918383546,-0.011018651775075659,0.030035705192068513,1
101,20.233333333333338,-0.9879388511330586,-0.017666909954252626,-0.15383337321453,-0.9994899968669639,-0.011639214620332548,0.029736759169396897,1
102,20.433333333333337,-0.988143672569334,-0.010844532964373517,-0.15314855032279362,-0.9995283508904267,-0.006006476475856834,0.03011640759800634,1
103,20.633333333333336,-0.9878643187524214,-0.007175963274942462,-0.15515345077339074,-0.9996077816171105,-0.0038877858564409173,0.027733879131023615,1
104,20.833333333333336,-0.9873029106113971,-0.005926806375095584,-0.15873826150130227,-0.9997102297298307,-0.0035847901570548843,0.02380348405293991,1
105,21.033333333333335,-0.987284887393078,-0.006499905255022996,-0.1588279016952418,-0.9997277965943525,-0.004856874682357954,0.022819804664382763,1
106,21.233333333333338,-0.9872322492329133,-0.005967943554293038,-0.15917559399686737,-0.9997550579311524,-0.004958144065619989,0.021569444788935334,1
107,21.433333333333337,-0.9872222591277438,-0.00792747709009105,-0.15915202226079403,-0.9997648590015844,-0.007366692139603911,0.020395061962699433,1
108,21.633333333333336,-0.9871443637914831,-0.009734999578889299,-0.15953443144947485,-0.9997679343276723,-0.009816142327447836,0.019176048602009395,1
109,21.833333333333336,-0.9870796090438029,-0.009561928795031325,-0.1599450372085744,-0.9997940230526536,-0.009074440886892033,0.0181539524836933,1
110,22.033333333333335,-0.9872930877835973,-0.005476989856929159,-0.15881549482603216,-0.9998227028782007,-0.004929581306521232,0.018173113037432395,1
111,22.233333333333338,-0.9869602355052549,-0.0014436529725528901,-0.16095778762615565,-0.9998691347377279,-0.0010805668663910178,0.016141430360231548,1
112,22.433333333333337,-0.9868610893627284,-0.0005320141996538999,-0.16157013109699625,-0.9998899803021724,-0.00036941066594875884,0.014828716299169622,1
113,22.633333333333336,-0.9870662745816609,-0.000516620009301757,-0.16031189190839057,-0.9998688705569743,-9.926131039156322e-05,0.016193573982081003,1
114,22.833333333333336,-0.9875962522485479,0.0007204296831552795,-0.15701313169825765,-0.9998193427067534,0.0005691538099544425,0.01899889505671688,1
115,23.033333333333335,-0.9878029607214088,-0.0008962259286215104,-0.15570647889251032,-0.99979428326913,-0.0009341177238573423,0.02026125777055391,1
116,23.233333333333338,-0.9880103748639107,0.0026296524312525633,-0.1543650999720004,-0.9997555362329318,0.0027589073740794524,0.02193755231797873,1
117,23.433333333333337,-0.9879488524363297,0.0052503239273963154,-0.1546916257216173,-0.9997427054595568,0.00526149050057428,0.02206444193987807,1
118,23.633333333333336,-0.988087953813003,0.004626488563883557,-0.1538206459913662,-0.999722232018008,0.004892652708073536,0.02305473396962794,1
119,23.833333333333336,-0.9881977725529151,0.004254453453209156,-0.15312433492842342,-0.9996855816165185,0.005112949325183263,0.024547823879951997,1
120,24.033333333333335,-0.895471527246314,-0.2914814297328362,-0.33640648033600073,-0.9996155192619399,0.004010920955337021,0.02743585544087678,1
121,24.233333333333338,-0.8965322872874434,-0.29020032405221896,-0.3346843733596367,-0.9995449116263075,0.005566938439334377,0.029647577276565574,1
122,24.433333333333337,-0.8967363815983759,-0.2938136139636358,-0.3309643820224158,-0.99943504545274,0.0010179292816200813,0.03359395393307271,1
123,24.633333333333336,-0.897441469838508,-0.2942313455549785,-0.3286741905093945,-0.9993523042992583,0.0016382227574995825,0.035948409115842794,1
124,24.833333333333336,-0.897065742112465,-0.2983664082181217,-0.3259609497704137,-0.9992498185774261,-0.0031335955365861244,0.03860026751195276,1
125,25.033333333333335,-0.8980586219895643,-0.29895423380821284,-0.32267177992249263,-0.9991137852371981,-0.0031250079608769617,0.04197473614262467,1
126,25.233333333333338,-0.9904905796740656,-0.0495019087359563,0.1283665556460517,-0.998975186151105,6.590583531965962e-05,0.045261165592438354,1
127,25.433333333333337,-0.9922547744194666,-0.05133775934094982,0.11311453093048755,-0.998943870121896,0.0026185824272966446,0.04587251216098809,1
128,25.633333333333336,-0.9925287304037476,-0.0576820720094083,0.10751510541234023,-0.9990832148852627,-0.0008418028885449178,0.04280211563024608,1
129,25.833333333333336,-0.9923168811297808,-0.07112396117342548,0.10123531780888344,-0.9991390308417533,-0.007380287312256942,0.04082558521063439,1
130,26.033333333333335,-0.9922894021847968,-0.0763567591039711,0.09762882592184238,-0.9991139881605113,-0.008006645808187591,0.041317457386679454,1
131,26.233333333333338,-0.9921868493251123,-0.07684555053616057,0.09828538746477716,-0.9990119005760196,-0.00496826817139742,0.04416490483252708,1
132,26.433333333333337,-0.9916027061180297,-0.07096819112361039,0.10810915348869966,-0.9984356645518854,-0.00010852906437710711,0.055912538596252795,1
133,26.633333333333336,-0.9905953444724338,-0.08247103274792378,0.10917596927451996,-0.9979618561968431,-0.012465535205474795,0.06258389575755902,1
134,26.833333333333336,-0.9904967187931095,-0.08708877258985141,0.10645090769400388,-0.9977376889575378,-0.018389600186739262,0.06466317838339872,1
135,27.033333333333335,-0.9910407244060555,-0.09081183975562428,0.09793616456100143,-0.9979102610905259,-0.024121209031258826,0.0599439578699046,1
136,27.233333333333338,-0.9924440779036601,-0.08412831274289932,0.08931505600394046,-0.9982340881429088,-0.019318566064084542,0.05617382197005262,1
137,27.433333333333337,-0.9933302868000949,-0.08221169566950753,0.08084663518530252,-0.9984552966253509,-0.01964479911445781,0.051972132037615304,1
138,27.633333333333336,-0.993908628120298,-0.08088459933248886,0.07485533073101683,-0.9985593445937874,-0.020173455357645115,0.04972189681980091,1
139,27.833333333333336,-0.9940720977699558,-0.08590027173187989,0.06664688853674165,-0.9986382642968301,-0.0263419809479204,0.045030180123493906,1
140,28.033333333333335,-0.9947189084305996,-0.08409579380539742,0.05884038302795841,-0.9988485050269209,-0.02592235393992268,0.04036948812777728,1
141,28.233333333333338,-0.9950717565604656,-0.08347518945942385,0.05351721256177972,-0.9990201686108846,-0.02623773371254304,0.035641044293199545,1
142,28.433333333333337,-0.9952592557842537,-0.0801573604396018,0.05508004487225615,-0.9990520814167427,-0.023253172044036957,0.03679984520027838,1
143,28.633333333333336,-0.9958363996223788,-0.0759631924201416,0.05039304103224916,-0.9992911449747175,-0.01939869336902969,0.032262955083071095,1
144,28.833333333333336,-0.9964099034312088,-0.0720069865186551,0.044523007947708776,-0.9994652797401868,-0.016095956246527886,0.028461812773959375,1
145,29.033333333333335,-0.9969490534905969,-0.06304785611385447,0.04601687281475818,-0.9995087150741668,-0.00792251013555796,0.030324286041722454,1
146,29.233333333333338,-0.9969306454879964,-0.06392467857845513,0.045198711879084884,-0.9995119007000949,-0.008720165758451697,0.029998651103488115,1
147,29.433333333333337,-0.9970704850942512,-0.06403995609636125,0.0418250137727523,-0.9995961639196698,-0.00897089027135585,0.026963534724149613,1
148,29.633333333333336,-0.9972609609810683,-0.06440391092128046,0.036369107236229,-0.9997134623274724,-0.008769666446679623,0.02227299242652178,1
149,29.833333333333336,-0.9972419757303099,-0.06563853059656688,0.03464137905210292,-0.9997296874233699,-0.010550148836175655,0.020718263535015866,1
150,30.033333333333335,-0.9974366953774516,-0.06464118979504854,0.03068477303793386,-0.9998113465497266,-0.00948861760121427,0.016948080907308597,1
151,30.233333333333338,-0.9974641252632324,-0.06427983673006457,0.03055194597421603,-0.9998194513098237,-0.009396340133940289,0.016515858276519052,1
152,30.433333333333337,-0.997407613554077,-0.06705817188085227,0.02610084305839614,-0.9998388427062432,-0.012644174810804218,0.012744153922250824,1
153,30.633333333333336,-0.9970222274736219,-0.07240703743900458,0.026531092190935412,-0.9997542315567762,-0.01733843924420065,0.013815028371118202,1
154,30.833333333333336,-0.9970577759669136,-0.07216149259997579,0.025855567478897796,-0.9997748204107784,-0.01651879018020506,0.013320587208469577,1
155,31.033333333333335,-0.9971879502125216,-0.07134273206244568,0.02294355100711916,-0.9998316969362546,-0.014976456253209394,0.010596393710403076,1
156,31.233333333333338,-0.9971905189599519,-0.0723915456327978,0.019249234199743507,-0.9998657724332263,-0.014944291177493565,0.006716046285630108,1
157,31.433333333333337,-0.9968216110577978,-0.07774892681288925,0.01737181935149072,-0.999806643392257,-0.01886259724362465,0.0055568204877868834,1
158,31.633333333333336,-0.9963148340589204,-0.08387387750508829,0.017942243628034753,-0.999715635033108,-0.02295060779944529,0.006474463065447963,1
159,31.833333333333336,-0.9960577695902995,-0.08658259811694428,0.019296977538408734,-0.9996984727841882,-0.023366886870833478,0.007546662237559798,1
160,32.03333333333333,-0.995808219011354,-0.08959588796504106,0.01840021220506184,-0.9996990008279729,-0.023801178200584427,0.00595076968276373,1
161,32.233333333333334,-0.9948229813468046,-0.10016821527906995,0.017133722072615966,-0.9994875762165937,-0.03172321672282053,0.004268783132934474,1
162,32.43333333333333,-0.9922891704351375,-0.1226558956015991,0.017825080962415883,-0.9984914652075357,-0.054795510919805765,0.0034994129145563,1
163,32.63333333333333,-0.9911043106863174,-0.13194930086791237,0.017367421785306755,-0.9979047560539911,-0.06461989361410078,0.0032198127472343662,1
164,32.833333333333336,-0.9899202571635821,-0.14071962426159607,0.01599599340030698,-0.9972031452599643,-0.07472965468219982,0.0011686722011077487,1
165,33.03333333333333,-0.9884902657322827,-0.15082637128061757,0.011764364787033183,-0.9963121215258032,-0.08572679608981852,-0.0036156511071095696,1
166,33.233333333333334,-0.9877260434159533,-0.15603585493954103,0.00707637839245084,-0.9957648396206972,-0.09157533096215721,-0.008145117208443645,1
167,33.43333333333333,-0.9879850225927148,-0.1543675873913991,0.007499539681316095,-0.9958502496030677,-0.09058755318583059,-0.008727861898090803,1
168,33.63333333333333,-0.9885481573056522,-0.15069728571639476,0.007928982615153582,-0.9961506892157964,-0.08719611106906924,-0.008980121899192284,1
169,33.833333333333336,-0.9891350191900403,-0.14651662663143314,0.01203295194306228,-0.9964882393743686,-0.08348115455093583,-0.0064873433248195935,1
170,34.03333333333333,-0.9883473320099597,-0.15162694260042545,0.013372418870268578,-0.9960133924209517,-0.08898098066009866,-0.00630136484223414,1
171,34.233333333333334,-0.98847648077576,-0.15083824979517,0.012730646169730245,-0.9960611357203529,-0.0882983045530697,-0.008100822213454546,1
172,34.43333333333333,-0.9889033510160052,-0.14815081103556513,0.011022682922963966,-0.9962684643832533,-0.08563034095236519,-0.010797758277353875,1
173,34.63333333333333,-0.9891315366807865,-0.1469156284285227,0.005882284161639251,-0.996280938917472,-0.08450462801537535,-0.01683028798635969,1
174,34.833333333333336,-0.9889239749730702,-0.14836991141076453,0.0039675069533166,-0.9961286201709219,-0.08573938034129508,-0.019404399889355783,1
175,35.03333333333333,-0.9884585905814969,-0.15148255143049094,0.0016282867528370512,-0.9957818000478116,-0.08891929800106488,-0.02262664660390586,1
176,35.233333333333334,-0.9883861534276706,-0.15195836096281995,0.0012117119899743053,-0.9957091287792251,-0.08938767898073428,-0.023941046596878037,1
177,35.43333333333333,-0.9883622854796337,-0.15211806656103843,0.0002940530681382468,-0.9956839713962182,-0.0892069498342146,-0.025603695161655816,1
178,35.63333333333333,-0.9886726378756762,-0.15008704050846994,0.0005434955023141766,-0.9958515533116616,-0.08732503341808447,-0.02557385980412775,1
179,35.833333333333336,-0.9887163063583173,-0.14979243488332586,0.0015139329214440209,-0.9959397762702459,-0.08662341189397718,-0.02450197042319198,1
180,36.03333333333333,-0.9882375736827431,-0.15283947241708032,0.005156901483803228,-0.9957456873118393,-0.08981921428836805,-0.020567813313358118,1
181,36.233333333333334,-0.988392782857206,-0.15163582235196182,0.009288927571704617,-0.9959081879761742,-0.08873001309977113,-0.01714251724012441,1
182,36.43333333333333,-0.9883813247549165,-0.15076208839301114,0.01931707998363606,-0.9961211344914157,-0.08770187220739765,-0.00714611998586811,1
183,36.63333333333333,-0.9884339535984833,-0.15123597123785346,0.011224988971700694,-0.9958869854616467,-0.08925667654323208,-0.015567847653777984,1
184,36.833333333333336,-0.9887013657188521,-0.14947880157420568,0.011211480973353352,-0.9960681335557567,-0.08722230891436342,-0.015509421085229912,1
185,37.03333333333333,-0.9894145745695574,-0.14485710433357532,0.008672886107515425,-0.996323584620432,-0.08356822572540958,-0.01885911923182668,1
186,37.233333333333334,-0.9897751190291328,-0.1423559577386457,0.00894399503459351,-0.9965067126682923,-0.08137713924767384,-0.018765202234421192,1
187,37.43333333333333,-0.9895226130454898,-0.14412362962008585,0.008566075925320663,-0.9963036441198071,-0.08350099193295393,-0.020165144676042638,1
188,37.63333333333333,-0.9893897190643812,-0.14508904982335247,0.007559856550309864,-0.9961897032706628,-0.08467845534688213,-0.020871854195905454,1
189,37.833333333333336,-0.9895671648541596,-0.14370536075433307,0.010275968711899293,-0.996355251520568,-0.08336599469815437,-0.018064431775546844,1
190,38.03333333333333,-0.9894311993051214,-0.14435093785116357,0.01373712426671438,-0.9963192544534479,-0.08459551942814583,-0.013839844580337811,1
191,38.233333333333334,-0.9891008282103942,-0.14620989991295583,0.01738438382444948,-0.9961510463132766,-0.08704982276007255,-0.010267486859223232,1
192,38.43333333333334,-0.988516289977033,-0.15015671341094497,0.016985460478472963,-0.9957458146516451,-0.09159755699155898,-0.010008004641791024,1
193,38.63333333333333,-0.9883596809986306,-0.15101615561855888,0.018419058566516832,-0.9956288649612909,-0.09303545965319783,-0.008219884610493373,1
194,38.833333333333336,-0.9881531293014966,-0.151986090600666,0.021298387628784485,-0.9955237961712147,-0.09436409183093492,-0.005271568056773118,1
195,39.03333333333333,-0.988061196500235,-0.15296666481189974,0.018337705059473148,-0.9953058322418752,-0.096439991160028,-0.008101136362411446,1
196,39.233333333333334,-0.9885701923914063,-0.14995838020867935,0.015538948497471887,-0.9954740873752947,-0.09437831288650139,-0.011138914714716123,1
197,39.43333333333334,-0.989466631385028,-0.1438634341853813,0.01609651142185448,-0.9964798782287695,-0.0833461588882331,-0.009014992166079164,1
198,39.63333333333333,-0.9847790458657274,0.15884254179952628,0.07056399746650988,-0.999932755148446,0.010947523269155195,-0.0038258222004409043,1
199,39.833333333333336,-0.9856717278945628,0.14961691004622824,0.07788469077787993,-0.9995841909821034,0.028508965237857932,0.004322503871655457,1
200,40.03333333333333,-0.9862303931190173,0.14746210244180052,0.07486347595291568,-0.998944789429157,0.04544407041097538,0.006644105419056088,1
201,40.233333333333334,-0.989566860077767,0.1265605631394985,0.06884659246209955,-0.9993457786532522,0.035997795041837456,0.0034890457220897344,1
202,40.43333333333334,-0.9909035069760607,0.11395915326076504,0.07157898609671642,-0.999509870729156,0.030569777119129497,0.006745890739750133,1
203,40.63333333333333,-0.9914635224725848,0.10805016565141921,0.07297427840654105,-0.9995547068424075,0.02830510397257554,0.00944505787649795,1
204,40.833333333333336,-0.9923610606214752,0.10168797328239042,0.0698504219882785,-0.999655740029592,0.02503196315702654,0.007861440478309974,1
205,41.03333333333333,-0.9929758008792886,0.0972540662677493,0.06738475690038424,-0.9997338669562224,0.022177378138845922,0.006352885930456209,1
206,41.233333333333334,-0.9935397500694891,0.09289377022213413,0.06518828488137027,-0.9998080604101205,0.018729398947237873,0.00574908288586148,1
207,41.43333333333334,-0.9938497291345361,0.09015814013929815,0.06429794449150118,-0.9998424254051741,0.016583374744451467,0.006333722600824269,1
208,41.63333333333333,-0.9939714932046495,0.08778198805479892,0.06568860837060408,-0.9998885672221834,0.013497482616544442,0.0063773898567517666,1
209,41.833333333333336,-0.9948573681904724,0.07932980797001181,0.06297299837682842,-0.9999800900498954,0.005150269992082271,0.00364612435497584,1
210,42.03333333333333,-0.9954459999202956,0.07602589026554879,0.0575093492574368,-0.9999972459322273,0.0019785721859633945,-0.0012622915929831001,1
211,42.233333333333334,-0.9959535002671344,0.07319131180949938,0.05215033251330258,-0.9999797854402276,-0.000912300317595412,-0.0062925685572059135,1
212,42.43333333333334,-0.9960876170215991,0.07416271522021459,0.048055706085731356,-0.9999531335146865,-0.0004379175192912854,-0.00967155635903822,1
213,42.63333333333333,-0.9960966437287833,0.07406458236157126,0.04801993327629797,-0.9999426501268708,-0.0014375113428053835,-0.010612729073607887,1
214,42.833333333333336,-0.9963739706724993,0.06917809964221354,0.049530809565458044,-0.9999205526120731,-0.007667540426178057,-0.010004863206421516,1
215,43.03333333333333,-0.9946348222459171,0.09696229576663401,0.03605389820112408,-0.9999399034106513,-0.009082048267943154,-0.0061405184110200585,1
216,43.233333333333334,-0.9962633679405557,0.08225465967126275,0.026333869106256107,-0.9999360543361346,-0.010794241352445102,-0.0033721791631537226,1
217,43.43333333333334,-0.9970774268191224,0.07406191523302323,0.018746670098290424,-0.9999181678294438,-0.011857841058180166,-0.004800963449924067,1
218,43.63333333333333,-0.9977438081930257,0.06562308089943784,0.0141740772449162,-0.9998627930532671,-0.015323785906287052,-0.006290997791967531,1
219,43.833333333333336,-0.9979469346856515,0.06285474578775886,0.012296197927350231,-0.9998766256147129,-0.01427397710318694,-0.006556456893258543,1
220,44.03333333333333,-0.9982798223981746,0.05765569047244457,0.010640373527976914,-0.9998532992192315,-0.01602177140725921,-0.006056639447078182,1
221,44.233333333333334,-0.9985749641257318,0.05201831856809321,0.011922061677499296,-0.9997682380655889,-0.02070816799242634,-0.005885739853735675,1
222,44.43333333333334,-0.9987450672411534,0.04904632755750697,0.01013648926334565,-0.9997443291073138,-0.02188223265860236,-0.005695990839355538,1
223,44.63333333333333,-0.998802634122006,0.0484553205995267,0.006736466175939121,-0.9997326007493741,-0.021642537197382815,-0.008144174761907198,1
224,44.833333333333336,-0.9988702867855059,0.04751501679489725,0.0006880087368572775,-0.9996774096452651,-0.021595468502726114,-0.013368335164882204,1
225,45.03333333333333,-0.9989370193435254,0.045914810290538184,-0.004081859999683573,-0.9995867348467901,-0.022526631448413215,-0.017858062434664534,1
226,45.233333333333334,-0.9990460258015816,0.0425631107215038,-0.009768312841770769,-0.9993794993225058,-0.025540276980516537,-0.024255114628807077,1
227,45.43333333333334,-0.9991689137897738,0.037743475107567044,-0.015391939545367644,-0.999074146570996,-0.030204592927645112,-0.030635473221605116,1
228,45.63333333333333,-0.9993073196826645,0.03316692065477681,-0.016877091068342617,-0.9988149542953975,-0.03416086385330779,-0.034665868757021705,1
229,45.833333333333336,-0.9470874551797607,-0.3200585148701291,0.02424663482324968,-0.9985548349745933,-0.03902344944450839,-0.0369514809218095,1
230,46.03333333333333,-0.9594132574222181,-0.28109083840173865,0.022674700639621858,-0.9985987052521987,-0.038422545938124594,-0.036391397778389935,1
231,46.233333333333334,-0.9629620128660835,-0.26957857111941813,-0.005617452279625497,-0.9985546371581806,-0.040456203289690025,-0.035382654299498155,1
232,46.43333333333334,-0.9632299721744403,-0.26850202201547146,-0.009730615521661804,-0.9984964696671046,-0.04086482949022963,-0.0365358149363486,1
233,46.63333333333333,-0.963622162132394,-0.2662690081160874,-0.02308991044082415,-0.9983848473853403,-0.042711535657521886,-0.03746226412174623,1
234,46.833333333333336,-0.9640466362314005,-0.2641852060917523,-0.028640182492086715,-0.998406281299711,-0.043732496605518416,-0.035670242526939504,1
235,47.03333333333333,-0.965126116479825,-0.2601121412841991,-0.029550858619002546,-0.9986773281464659,-0.04071132657388263,-0.031403536979632656,1
