,timeStamp,x_gaze,y_gaze,z_gaze,x_head,y_head,z_head,fixations_head
0,0.04,-0.9956647366184488,0.09176864304077857,0.015173938479163226,-0.9976345339288799,-0.021345014272287806,0.0653431486708672,1
1,0.24000000000000002,-0.9951151779520508,0.07367851729885154,0.06570584980122414,-0.9931248685258937,-0.04071624460691702,0.10975054870266628,1
2,0.44,-0.9807526646664206,-0.04184609674045312,-0.19071736925960497,-0.9980014553475987,-0.04721538474579685,0.04199764954591681,1
3,0.6400000000000001,-0.9787086726292203,-0.01821111320122519,-0.20444483235416355,-0.9998091232279527,-0.016026090405417547,-0.011175040781567726,1
4,0.8400000000000001,-0.9826721224862,0.0021258186078714943,-0.18534017530938468,-0.9995985205943261,0.01753552463663376,-0.022255403868559058,1
5,1.04,-0.9802559125987738,0.19692389441607525,-0.017869684472637523,-0.9992333447900059,0.027724223270214347,-0.027642179795386492,1
6,1.2400000000000002,-0.9863966183612561,0.1643801462187384,0.0009374511105237132,-0.9996885851088361,0.0037354640512742665,-0.02467344952403427,1
7,1.4400000000000002,-0.9855303933238673,0.16549235311377192,0.03663502280292398,-0.9998122845911176,0.018977077120663006,0.003907188841928177,1
8,1.6400000000000001,-0.9356126898520752,0.35247417103696554,-0.019770011117056847,-0.9981217402711388,0.05805305275572092,0.019566161193636505,1
9,1.84,-0.9247070861559185,0.3803667149205312,-0.015426178839692668,-0.994330035602168,0.10071625893002571,0.03411767117684989,1
10,2.04,-0.9864646122337383,0.1638971843641569,-0.0050280978552954035,-0.9902426571836142,0.13461669887589497,0.03602532828014585,0
11,2.24,-0.9905930455595467,0.13682152508825382,0.0022996437955315036,-0.9937604941971914,0.0998877866678028,0.0496236863560333,0
12,2.4400000000000004,-0.991883340558121,0.12666554319178516,0.011103102773226094,-0.9953312139413943,0.0749811879872305,0.06077496196604384,0
13,2.64,-0.9940538672337165,0.10873064014864374,0.005878514315635756,-0.9972706972474203,0.04419066172148627,0.05914678206176097,0
14,2.8400000000000003,-0.9986535976319765,0.05109190930793936,0.00897823701958987,-0.9977772609000599,-0.024858835017943778,0.06182698401446467,0
15,3.04,-0.9997533084824899,-0.020166783928599295,0.009307148021431056,-0.9927539774739615,-0.10219216992869128,0.06321630023098927,0
16,3.24,-0.8554547996816084,-0.5164430264285059,0.03851864684882765,-0.9666708458693656,-0.24475174903146568,0.07512693985677704,0
17,3.4400000000000004,-0.8007344529934194,-0.5987291720698827,0.018647099019482468,-0.8477998278890033,-0.526448079471182,0.06393646418500819,0
18,3.64,-0.8995484669321849,-0.4368200059211995,-0.0009154599713866795,-0.8010879799525351,-0.5975555176068748,0.034430389965068815,0
19,3.8400000000000003,-0.8861397128492754,-0.46341815396102554,-0.0001545663579424242,-0.7590075097594089,-0.6502348388504512,0.033200217980442405,0
20,4.04,-0.33010163201576803,-0.8603356724545387,-0.3884011370255289,-0.6154464677891492,-0.7881770041521167,-0.0016295433882312837,0
21,4.24,-0.3395651827609297,-0.8590737853712879,-0.3829983262944929,-0.5221347238546681,-0.8524130599651185,-0.027700277004262235,1
22,4.44,-0.29695354198777413,-0.954864971062238,-0.0071750218972964986,-0.4533296243032289,-0.891291311290781,-0.009594276765535259,1
23,4.640000000000001,-0.271284329486062,-0.9623506738754064,0.01691132954114475,-0.4077777161333819,-0.9130070467140442,0.011639023822565675,1
24,4.840000000000001,-0.27274013450178636,-0.9616815530043965,0.027953705353669814,-0.3974651728110942,-0.9171831280278607,0.028223147650037524,1
25,5.04,-0.28495673300937946,-0.9578070315242772,0.03748800708591709,-0.4053246133559253,-0.9129441848865192,0.04738009170272705,1
26,5.24,-0.6904859397130136,-0.7203977429499527,0.06524001081583476,-0.4534466940440847,-0.8867138915449284,0.09013639776327398,1
27,5.44,-0.7171032494197729,-0.6945973260962179,0.057423725511216994,-0.513759190697,-0.8515266699370807,0.10466051958704307,1
28,5.640000000000001,-0.7198693240780506,-0.6920130591913924,0.05390808993074161,-0.5413426457237036,-0.8338591288025594,0.1078289999652112,0
29,5.840000000000001,-0.8794440937430372,-0.4759308544195765,-0.00824061841974738,-0.6062984663181854,-0.7883899155963193,0.10413217911022918,0
30,6.04,-0.8751136713755885,-0.4839170825168267,-0.0005651724882928808,-0.6925231883190869,-0.7152343282768622,0.09408235379024442,0
31,6.24,-0.9017531551088409,-0.4314305741317424,-0.026625306676279697,-0.7456076337246527,-0.6586824096430951,0.10102841064913343,0
32,6.44,-0.8697438093252537,-0.4929893133056464,-0.02252205822796946,-0.789673811963272,-0.6069771483096208,0.08940923961937992,0
33,6.640000000000001,-0.8769495462884835,-0.4795572378716099,-0.031374334564658615,-0.8196908347116515,-0.5671840344751581,0.08005752011022202,1
34,6.840000000000001,-0.9527220910878006,-0.30336350471866086,-0.017064617138972022,-0.8459195785176042,-0.5295734778461094,0.06302379108380547,1
35,7.04,-0.9595498742544559,-0.2812074609899938,-0.013652937479512673,-0.8663679658054876,-0.49510445168588796,0.06540741354676578,1
36,7.24,-0.9676389500089698,-0.25219938739219494,-0.00838638328126606,-0.8888779185365198,-0.45343437185691304,0.06552340312370197,1
37,7.44,-0.9700886650316808,-0.2427354697136006,-0.002733810521853432,-0.9005677076224339,-0.42919504537078584,0.06906096594201143,1
38,7.640000000000001,-0.9685336563778465,-0.24876864041223545,-0.007531268871024744,-0.9044995951037964,-0.4215333357548234,0.06473120811849735,1
39,7.840000000000001,-0.9688367948730408,-0.2473656122819929,-0.012865409456704011,-0.9101213666522847,-0.4100622541772037,0.05939735399904695,1
40,8.04,-0.9694230356723825,-0.244703984646697,-0.0184102635986514,-0.9158725158920704,-0.3977683313580819,0.0543864799572189,1
41,8.24,-0.9705627295331622,-0.23957519962224028,-0.02473280750544551,-0.9220520050716496,-0.3841233487823852,0.04763772521391506,1
42,8.44,-0.9708107281899991,-0.2384764074435376,-0.025603381105380227,-0.9260951505288431,-0.37443133473786117,0.046356744206029414,1
43,8.639999999999999,-0.9722221921302002,-0.23387899867766285,-0.00919908186081916,-0.9302891255190674,-0.3613075914839164,0.06339532535653324,1
44,8.84,-0.9766168809419663,-0.2137877063058423,0.022677841424447266,-0.9384982242845148,-0.33289144400665355,0.09167534849662533,1
45,9.04,-0.9551400417484834,-0.295989625645043,0.00988140471858685,-0.9529220566124904,-0.28689312114872556,0.09814219815636999,1
46,9.24,-0.9658656164410782,-0.2587146705499001,0.013051061993297539,-0.972010192399119,-0.21464497752986517,0.09551816315985032,0
47,9.44,-0.9991525693700998,0.01157563750188916,0.0394987055174293,-0.9817100873356808,-0.16659164412705552,0.09215491593189588,1
48,9.64,-0.9970785591623899,0.06915399715150952,0.032435652245975874,-0.9905713219600132,-0.10851095782109815,0.08362911062028339,1
49,9.84,-0.9962040495095466,0.0825560472070395,0.02760418102987276,-0.9943576066005323,-0.07010667365135698,0.07961158524488267,1
50,10.04,-0.9962553454353181,0.08043037564092761,0.03172130775699827,-0.9949446430015285,-0.051825444844338306,0.08601907131123805,1
51,10.24,-0.9960636653205838,0.08253937233815845,0.032317590289924154,-0.9954145576614568,-0.03524999134226522,0.08892298075310313,1
52,10.44,-0.9965787918680238,0.0789207573820899,0.02454028632896191,-0.9960389967175386,-0.02780657836659725,0.08445774811976604,1
53,10.64,-0.9151024297856893,0.40304168497664167,0.012039234673238362,-0.993022680605244,0.08598371198684233,0.0807016547323475,0
54,10.84,-0.9032201289640516,0.4289753458147517,0.013173887705472077,-0.9631114267120441,0.2650170148411482,0.04671575303233128,0
55,11.04,-0.8873487506018651,0.4609981154728441,0.00964014189707716,-0.9299534068961097,0.3666861477307767,0.02698017910767252,0
56,11.24,-0.6387792236339158,0.751886036149441,-0.16318238905327276,-0.8754992750746401,0.48314886039310323,0.008258210739973498,0
57,11.44,-0.5876902442760377,0.7818128502900622,-0.20829988935210778,-0.7874210365321116,0.6139933192861808,-0.05459226225971175,1
58,11.64,-0.5673688845206414,0.7876465101884562,-0.24021974079111222,-0.7497773981791898,0.657756906509649,-0.0720396079840918,1
59,11.84,-0.5701320556063886,0.7838832952471771,-0.24591953684581586,-0.7417162059833133,0.6666682948785213,-0.07355579097177906,1
60,12.04,-0.5774052628990447,0.7770286446577751,-0.25065842845949965,-0.7464644662607786,0.6613900506342848,-0.0731710429882563,1
61,12.24,-0.5789413528633138,0.7752307911512095,-0.252673960660503,-0.7506342012061796,0.6568603242405485,-0.07129383155759024,1
62,12.44,-0.5712581047625664,0.7849192336200472,-0.23992910293751035,-0.7469948564626275,0.6624005766950568,-0.05678169082050213,1
63,12.64,-0.5525186784941463,0.8328810994247862,-0.032127622632898124,-0.7497070672225785,0.6608150556574225,-0.035535553646988204,1
64,12.84,-0.718235152850965,0.6949637192434869,0.034112961530936396,-0.7659705474325436,0.6428592057839609,0.004600217897524848,1
65,13.04,-0.6937561660317657,0.6973012277774204,0.18020371758930878,-0.7805182295393618,0.6208799027779578,0.07279725051933031,1
66,13.24,-0.7211741648244175,0.6655994159694096,0.19205530831243633,-0.7984183482317095,0.591862074643874,0.11057769126364707,1
67,13.44,-0.747791205030512,0.6280855958825848,0.21521337766001786,-0.8187491218635234,0.5529904872518265,0.15443897324411746,1
68,13.64,-0.7264539411463923,0.6688706450500453,0.1577235923481669,-0.8384215432486594,0.520928985826756,0.16025700465827966,1
69,13.84,-0.7285694758568547,0.6657600707166851,0.16109018309314313,-0.8532576775316315,0.49809256177966577,0.15445107844588254,1
70,14.04,-0.7465993408024593,0.6453160445547566,0.16173010527893947,-0.870304377876811,0.4683954331701328,0.15223668425783768,1
71,14.24,-0.6713159717482364,0.723795803837845,0.15954466591662936,-0.8762177142240641,0.458260166615053,0.14913127429852022,1
72,14.44,-0.661131456044605,0.7325611826517048,0.16204725082603663,-0.8788827566158661,0.4569989301507803,0.13681037228345963,1
73,14.64,-0.8731822917111692,0.4873881518005818,0.0023398560732983712,-0.8802926733345011,0.45609963120797703,0.1306060323474565,1
74,14.84,-0.8932815641491234,0.4493218775974519,-0.012565725748891013,-0.8996226785871687,0.41924123137208785,0.12213036514013827,0
75,15.04,-0.9887872817486109,0.13990768761137357,0.052206804148805554,-0.9513871089591882,0.28392018241598604,0.11938131731201285,0
76,15.24,-0.9862041007990026,-0.1520942002514843,0.06533625193637026,-0.9908640942053443,-0.03311418388234734,0.13073560203872897,0
77,15.44,-0.902584735760977,-0.4290127975671175,0.03590005981782231,-0.948567613319791,-0.29213525497551834,0.12196915905746068,0
78,15.64,-0.689612637318238,-0.7230167680397481,-0.041001994882464685,-0.898214286835903,-0.42756384146031956,0.10198164736640153,0
79,15.84,-0.5525272295208161,-0.8325305689024647,0.04008132334380029,-0.6922432192758476,-0.7167696374735655,0.08390835573782028,0
80,16.04,0.3729687231820872,-0.8992848465075738,-0.22843181995898315,-0.3845523074256529,-0.9180500794823627,0.09645503831336937,0
81,16.24,0.07105986029417427,-0.997469190791227,-0.0023894930984421628,-0.16633569554235816,-0.981255846043604,0.0973108472560534,0
82,16.44,0.3548704423042605,-0.9348289488787633,-0.012720279753430456,-0.013134907566833443,-0.9959332384855243,0.08913169292090557,0
83,16.64,0.35514343666099296,-0.9339047728323172,0.04117055595492379,0.10516461117384063,-0.9926997970059545,0.05905520790744777,0
84,16.84,0.36872413893197015,-0.9289929621865899,0.03185255997031266,0.15817917602827875,-0.9863660287034564,0.045402705765045896,0
85,17.04,0.32073947213855847,-0.9465585097221492,0.03395848472566506,0.147882860339124,-0.9879493547719845,0.045680762072655104,0
86,17.24,0.1283972280979871,-0.9914646243805454,0.02262853107688047,0.07971347432290055,-0.995878181508065,0.043271348575727814,0
87,17.44,-0.05980341548152607,-0.9752151852124765,0.21302322415112254,-0.08057737142079363,-0.9961798421360922,0.03366020404908665,0
88,17.64,-0.4220950732858427,-0.8499393620814483,0.31533922986586976,-0.23561954364886395,-0.9715297341624333,0.02476704037572681,0
89,17.84,-0.4486508150222838,-0.8425078618146602,0.2981492058690252,-0.40821928712060723,-0.9113616494593224,0.05269684542291436,0
90,18.04,-0.7189900336297176,-0.6878420190492064,0.09963276755891758,-0.6149631927924992,-0.7835839904478168,0.08841041468249883,0
91,18.24,-0.8668340167898183,-0.47574913791827056,0.1492030331663925,-0.6872654057928853,-0.712201792014264,0.14295058395127816,0
92,18.44,-0.9290167089796447,-0.3442445077760259,0.13573383256459098,-0.8048139398964483,-0.5738583306407866,0.15152933215231276,0
93,18.64,-0.9610774550565008,-0.06805521612472792,0.267765966732773,-0.9054425809212476,-0.39464317184245196,0.156302589782765,0
94,18.84,-0.9527866498890362,-0.038553953390882224,0.30118298834954305,-0.952576818709643,-0.2586055248668206,0.16037639154617717,0
95,19.04,-0.9984223062372595,0.04751508432859977,-0.02992014654239829,-0.9677143141448792,-0.21377158438446406,0.13353170375930384,0
96,19.240000000000002,-0.9966843513707511,0.06981697401644782,-0.041783894886093506,-0.9786306157698499,-0.1732781798399664,0.11071038916593581,0
97,19.44,-0.9953944751111876,0.08121390818247466,-0.05093270104610661,-0.9864397127063966,-0.137403916567093,0.0897599961438548,0
98,19.64,-0.9934934812278449,0.10037612332929134,-0.05380833228377371,-0.9922246540454343,-0.10006277241480978,0.07401133346374027,0
99,19.84,-0.9916031692815818,0.11894053064861682,-0.050757313165181665,-0.9955472392879893,-0.06759477458196995,0.06570114759481875,0
100,20.04,-0.9452712212626088,0.3260917954362252,0.01124540803508035,-0.999286677104376,-0.0015307490782527162,0.03773319187339479,0
101,20.240000000000002,-0.9188309971737728,0.39324682581507125,0.03326458505710415,-0.9938579918842885,0.10488129168123689,0.03530165184527681,0
102,20.44,-0.8549628970683109,0.5169130564883307,0.04288748848385854,-0.9668283314280163,0.2504317425571967,0.05026847787514689,0
103,20.64,-0.6664696547028377,0.7454181026852967,0.013040381487253602,-0.9146883587412277,0.4002599669891988,0.05601040268632931,0
104,20.84,-0.6807754351488073,0.7324425577836392,0.008526807451349417,-0.8661342804256286,0.49898711557702047,0.028692625528240038,0
105,21.04,-0.6380742638837035,0.7698366436283856,-0.014586839830890999,-0.8164791644222114,0.5771522285531532,-0.01603368767739574,0
106,21.240000000000002,-0.5576298016463328,0.8300892779659681,-0.0008915838769664667,-0.7296673268518856,0.6837052970251541,-0.011517766474861729,0
107,21.44,-0.21366260970227324,0.9769004377099607,-0.0037180663390345326,-0.6012175827019182,0.7990785834948595,-0.003291754837685213,0
108,21.64,-0.16420001052941047,0.9864011967429521,0.007143920927145044,-0.5059422979470514,0.8625594672129148,0.0036819382708201784,0
109,21.84,-0.17265223673439417,0.9848859755615252,0.013813771853971351,-0.33012586996251453,0.943685720057551,0.021775484861522903,0
110,22.04,0.060416194422560965,0.993463103645149,0.0968552793978911,-0.06141857811113377,0.9963481023095717,0.05931456218267537,0
111,22.240000000000002,0.4404173905983424,0.8936947562367442,0.08568666601924335,0.07558781122580821,0.9929307693778995,0.09151486227222691,0
112,22.44,0.4698371333517047,0.8799128610494747,0.070756095734432,0.1558005335487172,0.9832620095413933,0.09445641502066625,0
113,22.64,0.46625022441175784,0.8829786732983909,0.05440028250109624,0.1828349519778113,0.9777528784798063,0.10281385587421944,0
114,22.84,0.49259269373830267,0.870115537475054,0.015855267898740255,0.24217228195145146,0.9666667891847549,0.08311380475987924,0
115,23.04,0.47483487009986053,0.8799519713904292,-0.014709662924294743,0.41443589262182373,0.9085092908049965,0.0534205899233079,0
116,23.240000000000002,0.7965999164808384,0.6041354227780489,-0.02118877078807759,0.6051365838239624,0.7960464264352018,0.010945404405922081,0
117,23.44,0.8572176785044946,0.5142358637350755,-0.027190588592487124,0.7027960202810883,0.7113911671451402,-0.0006009866384537553,0
118,23.64,0.886295957507259,0.45928706619798426,-0.05945474354111337,0.7445388927712606,0.666680882757908,-0.034618459181218746,0
119,23.84,0.9937096585384394,0.1000857581889336,-0.05023898421708691,0.8476422574202132,0.5265723838213979,-0.06499329220939347,0
120,24.04,0.9980768586938972,-0.04746195087694733,0.039874143986762874,0.9129558676338394,0.4050462269982245,-0.04948876385046122,0
121,24.240000000000002,0.9950387060722462,-0.07752029623327994,0.06235845644317331,0.9419735380762001,0.33564215443426626,0.0054952462119557495,0
122,24.44,0.9685505984165768,-0.24746912548919126,0.0258605923463864,0.9609179391642149,0.2766718545088667,0.009455110524089198,0
123,24.64,0.9365358780184445,-0.35032735872319964,0.013087815488003762,0.9696573487896498,0.24362413439129255,-0.02029549408910378,1
124,24.84,0.9949604040455965,-0.02911609953898614,-0.09594814812730602,0.9885827216695651,0.1453933122581002,-0.03955991869321545,1
125,25.04,0.9970254000622787,0.01874871179041584,-0.07475852751929411,0.9919037214036934,0.1255946868743087,-0.018787817713846258,1
126,25.240000000000002,0.9783802014350825,-0.1840042146463888,-0.09441732061551575,0.9937360699466331,0.10530091029607731,-0.037421138115215684,1
127,25.44,0.9874675675975123,-0.1150240998016988,-0.10806136871177086,0.9802806787487224,0.19027270361541354,-0.05334875003995288,1
128,25.64,0.9768271294531145,-0.15913904376524787,-0.14312066207878904,0.9835025711634985,0.16095108533484997,-0.08256779423190176,1
129,25.84,0.9986863739025698,-0.03200655756209621,-0.040013833287509876,0.9860533067350626,0.13995313251919853,-0.0900666251999727,1
130,26.04,0.9961275750142761,0.08295808256189255,-0.029117191379535067,0.9829414205185213,0.16477757858511155,-0.08169769534484507,1
131,26.240000000000002,0.9981449812504068,-0.06002738364790927,0.010164133854491973,0.9743689208473468,0.213657476459336,-0.07039665361226505,1
132,26.44,0.9956118946230612,-0.09182969958072314,0.018007264089618523,0.9788777036215034,0.2000040894229743,-0.04238874339702532,1
133,26.64,0.9943196256199532,-0.10290991866847031,0.027166721308341198,0.9824756245167475,0.1855523259102732,-0.017663000303321342,1
134,26.84,0.9965138106369213,-0.08109163074300876,0.019605423569048427,0.979056263159252,0.203413039304791,-0.008483455040815241,1
135,27.04,0.9980956697568729,-0.05757423699847473,0.02214139215639311,0.97370674114514,0.22771183509659823,0.006519386892242398,1
136,27.240000000000002,0.9989720605409967,-0.03889672291544949,0.023278041260254286,0.9682149257404642,0.24974083338277497,0.013761312243562649,1
