,timeStamp,x_gaze,y_gaze,z_gaze,x_head,y_head,z_head,fixations_head
0,0.03333333333333333,-0.999515579748984,0.030093478602798457,0.007936522200283121,-0.9996824928175101,-0.019349110082305193,-0.016140802123560567,0
1,0.23333333333333334,-0.9922890900365622,0.03535093532545443,0.1187967725404471,-0.9995066270549008,0.019413556575546415,-0.024690408956182477,0
2,0.43333333333333335,-0.9114864886683083,-0.27505110622268053,0.3058419035070205,-0.9960729377820514,-0.004273337424324716,0.08843325848057051,0
3,0.6333333333333334,-0.8288015682517613,-0.3633531398096353,0.4255143431823435,-0.9724686284517012,-0.05279931862869388,0.22697356372408845,0
4,0.8333333333333334,-0.8535388662469476,0.08705525186408579,0.5137049609734716,-0.9477097728836794,-0.008422459058624104,0.31902233239096406,0
5,1.0333333333333334,-0.8025905312197845,0.23145143178621352,0.5497987576563409,-0.9225514615333972,0.1306598689126948,0.36307960487792523,0
6,1.2333333333333336,-0.8028474648443074,0.2545988871620498,0.5390875205835457,-0.8946986065872776,0.2662413428879245,0.3586501787369116,0
7,1.4333333333333336,-0.6515774980841517,0.7139284709231872,0.2564232875455684,-0.8356313555744981,0.4491327246042549,0.31622781862177396,0
8,1.6333333333333335,-0.5372700987034622,0.7868540185202276,0.30364715473348625,-0.738352158587162,0.6160033956902561,0.27454672900574234,0
9,1.8333333333333335,-0.5206429917909483,0.7705082983830291,0.36776057051002553,-0.6215483373027032,0.7476408166204916,0.23390355644857017,0
10,2.033333333333333,-0.13949078015699157,0.9743502827996229,0.17658949192828335,-0.46403232338469713,0.8619547829976341,0.2042252553473777,0
11,2.2333333333333334,-0.12069009197062075,0.9554714953930722,0.26927332432205353,-0.33754048395120567,0.9241019023997443,0.17917057703529227,0
12,2.4333333333333336,0.06309169190873709,0.9949030932894412,0.07865922307774723,-0.21150760403555602,0.9669076900065043,0.14266762926965715,0
13,2.6333333333333333,0.03848296724150413,0.9949134965411064,0.09309240373220172,-0.19231287371056766,0.9701379787120711,0.14781089562559666,0
14,2.8333333333333335,-0.39144544634564177,0.86824396283518,0.30483254999347453,-0.2725136143050229,0.9437076264993092,0.18748932157713355,0
15,3.033333333333333,-0.5676041357574098,0.7279750457845378,0.38454892768812204,-0.42341413475766193,0.8701098912317022,0.2522483848673293,0
16,3.2333333333333334,-0.5907247473684403,0.7020674728892833,0.39767516437080647,-0.5916380135383349,0.740629238567828,0.31848515179652,0
17,3.4333333333333336,-0.8499216672443228,0.08168358565189812,0.5205390968829141,-0.7362474892222948,0.5561926136205686,0.3854729707356769,0
18,3.6333333333333333,-0.8235708677726532,0.09835976476403686,0.5586200698433258,-0.8126951184920099,0.39295112885902495,0.43025115305792777,0
19,3.8333333333333335,-0.8576688371885633,0.023074334543086182,0.513684475919812,-0.8721689915563812,0.2147440168528241,0.4395523374905873,0
20,4.033333333333333,-0.8212504116891786,-0.4120916560442838,0.3946241608404567,-0.9048865405789629,0.0015714930771527056,0.4256499490056888,0
21,4.233333333333333,-0.7297476666108036,-0.619357994595116,0.28959284799042295,-0.8900265708072883,-0.20933113226077527,0.4050100990388278,0
22,4.433333333333334,-0.6291139031322633,-0.7171763083249991,0.2997896590328207,-0.8273167009357915,-0.408745324401859,0.3853236770980177,0
23,4.633333333333334,-0.5616814250398138,-0.774313168502384,0.2914671402560552,-0.780292308980745,-0.5194068977710306,0.34836817749813476,0
24,4.833333333333334,-0.5889811512337629,-0.7549438016264988,0.2883765938440236,-0.7236676732579155,-0.620890428204641,0.30133067358855586,0
25,5.033333333333333,-0.6108810613733332,-0.7324378816790376,0.3005978681509808,-0.6742987163260483,-0.689540628368932,0.26430089479534846,0
26,5.233333333333333,-0.5417257596085484,-0.7782361797561997,0.3176187177970112,-0.5932057286767667,-0.7688367721919962,0.2387404054416818,0
27,5.433333333333334,-0.32208329636442523,-0.9379927605828685,0.12818709489318977,-0.4868894834170796,-0.8487661781336332,0.2062391955819141,0
28,5.633333333333334,-0.07853407960660813,-0.9968691076600631,-0.00918588772917296,-0.38083297553334944,-0.9087958580590855,0.17045918315264205,0
29,5.833333333333334,-0.021389325091340672,-0.9997643027593048,0.0037196371244995778,-0.30596712179554997,-0.9395443420213971,0.15375483652791821,0
30,6.033333333333333,-0.03658999775907501,-0.9986403973394727,0.03712854515936074,-0.21901086382726986,-0.962970400655116,0.15723310398182377,0
31,6.233333333333333,0.21565539204932443,-0.9747154058328876,-0.058503243603081526,-0.13559974709658168,-0.9833793201467672,0.12073864872121522,1
32,6.433333333333334,0.24709068550890073,-0.9679477686826558,-0.04498122093729083,-0.08339769767800365,-0.990420199453876,0.11005749649956947,1
33,6.633333333333334,0.2689368885070559,-0.9618989786609168,-0.04922707437202361,-0.04976018514865649,-0.9917709925172538,0.11795856211107689,1
34,6.833333333333334,0.2815010795518256,-0.9566684560442515,-0.07444868985458936,-0.027945075462726343,-0.995305714943943,0.09265854821498756,1
35,7.033333333333333,0.13948142691482995,-0.9763663799097075,0.1650867157823908,-0.021359864089795177,-0.9975665678436276,0.06636790584876943,1
36,7.233333333333333,0.1734021069267182,-0.9670586525529066,0.1863579132635161,0.001443413938049587,-0.9975089137212442,0.07052576552485605,1
37,7.433333333333334,0.7322819498289104,-0.6188611921906582,0.2842076191011194,0.047212380467135884,-0.9855927625911675,0.16241273798116168,0
38,7.633333333333334,0.7859405795250048,-0.5382837651863746,0.3042170172634656,0.19480486008461467,-0.9611107431135849,0.19574781214375292,0
39,7.833333333333334,0.8473381093141314,-0.42416224462406293,0.31953797699088865,0.3073813715181446,-0.9180351564069006,0.25045587244978296,0
40,8.033333333333333,0.7432384509864058,-0.6127253851298218,0.26863396544897267,0.4157487497380931,-0.8744423149704038,0.2500072296562922,0
41,8.233333333333334,0.8268148953452343,-0.5620117327654248,-0.022802216323287716,0.5233333688463998,-0.8216041453165683,0.2260283465641192,0
42,8.433333333333334,0.8204717019846489,-0.5674389795213884,-0.0695642922923751,0.6169465392214026,-0.7707507911362577,0.15912317777610954,0
43,8.633333333333333,0.8825845812055932,-0.46504132247917823,-0.06914495936050011,0.7079565429438537,-0.6933264200921534,0.13452140537916757,0
44,8.833333333333334,0.8751872488428833,-0.4827218190043894,-0.032045669284917436,0.7768416311362342,-0.616618293193528,0.12766738280663137,0
45,9.033333333333333,0.875884254549016,-0.4739877897290574,-0.09034571279743879,0.820930584150082,-0.5657662070803203,0.07734064218089966,0
46,9.233333333333334,0.8926277359120605,-0.4376416677085219,-0.10809947162596538,0.858022867782572,-0.5117375327057846,0.04383441550160391,0
47,9.433333333333334,0.8662235248092267,-0.49464227449596804,-0.07061037705985422,0.9037287825548084,-0.4257830512776399,0.044531795682488204,0
48,9.633333333333335,0.985059269184512,0.13420203404152795,-0.10792613331715326,0.9575660254081665,-0.2875655385172159,-0.019322733794950357,0
49,9.833333333333334,0.9620505800576218,0.2655322295270212,-0.06285949803492534,0.9859261418219516,-0.1563456165231087,-0.059208876581894436,0
50,10.033333333333333,0.895991127348711,0.4378035290384633,-0.07435031724110977,0.9993909550365901,-0.02955894971594353,-0.018546899545282474,0
51,10.233333333333334,0.9918445548751229,-0.014434161758999956,-0.12663346295069267,0.9988293904148959,-0.030758768659449612,-0.03733292104780879,0
52,10.433333333333334,0.9850689100050386,-0.08446022702951522,-0.15001904076352482,0.9866807560356151,-0.14446274360428482,-0.07477701103487522,0
53,10.633333333333335,0.8379653658763835,-0.3585477019943705,-0.41140927430748914,0.9378707338437119,-0.3200536230550313,-0.13403046283888445,0
54,10.833333333333334,0.9724259749967701,-0.22392019564010865,-0.06517261032118653,0.848038490299321,-0.4989651371439512,-0.1785063329010119,0
55,11.033333333333333,0.9168693441091162,-0.3933220423872269,-0.06817900560479932,0.7280729169263552,-0.6745769859881825,-0.12188403346397772,0
56,11.233333333333334,0.188789598818276,-0.9813892059734364,-0.03512426194047425,0.5069097565158542,-0.861906604339821,-0.012629495019059822,0
57,11.433333333333334,0.13127252677983525,-0.990334877901186,0.04477000474961678,0.21903231795112377,-0.9664760460642481,0.13397349020226224,0
58,11.633333333333335,0.1656917618354738,-0.985091968470022,0.04626071460443841,0.024836413318973627,-0.9858808696808904,0.16559608501018577,0
59,11.833333333333334,-0.04782107224108417,-0.9966356253301943,-0.06656256735136937,-0.07995487957307412,-0.9845808833621364,0.15558824296935225,0
60,12.033333333333333,-0.35599910994222084,-0.9318242357931924,0.07048565321240774,-0.20942030536315065,-0.9607192908371612,0.18210321225872775,0
61,12.233333333333334,-0.6503508397258988,-0.7217246129611898,0.23697545930715974,-0.40170454192480864,-0.8867754678482607,0.22861043418767768,0
62,12.433333333333334,-0.6724461513286698,-0.6941409578115615,0.256874491243697,-0.5869692145358268,-0.7742952924144468,0.2365035757277703,0
63,12.633333333333335,-0.7628523276334527,-0.5602959688333894,0.32268367410403215,-0.6963947869455922,-0.6662641916075821,0.2666951962381369,0
64,12.833333333333334,-0.7989006292152923,-0.4784169567442194,0.3645202328252989,-0.7546711527427669,-0.5847384238075103,0.2975775981840913,0
65,13.033333333333333,-0.8246793085199328,-0.3567321941671319,0.43891477503473236,-0.8098369194888848,-0.46785993775412055,0.35393677751466307,1
66,13.233333333333334,-0.8067336881140943,-0.4560349598946901,0.37578301161132893,-0.8528836862343532,-0.39895661761473766,0.3367833651128113,1
67,13.433333333333334,-0.5825733065095022,-0.7305365992934142,0.3562648167240195,-0.8312467869493203,-0.4310522816691929,0.3510309240711053,1
68,13.633333333333335,-0.5583981892833529,-0.7510835877468038,0.3522284861030721,-0.7994083490573776,-0.4795464098836561,0.3619137082579973,1
69,13.833333333333334,-0.5517488435325413,-0.7684882985689384,0.32403541260658797,-0.7900810536129308,-0.5192726766015532,0.32577264473393164,1
70,14.033333333333333,-0.546423050629649,-0.7774896657077194,0.3113385126486717,-0.7887070376817673,-0.5399497768307377,0.2939310245817675,1
71,14.233333333333334,-0.554609187954813,-0.7532064552747788,0.353678786992528,-0.7890463468837139,-0.5150212999985462,0.334901363116476,1
72,14.433333333333334,-0.5537153173508701,-0.7429590694696234,0.3760467636130593,-0.7840122501358203,-0.5117410963153423,0.3513486046349691,1
73,14.633333333333335,-0.539548981373785,-0.7561706219150055,0.37026056669754226,-0.77384228314616,-0.5314567606457867,0.3445603464982953,1
74,14.833333333333334,-0.5338736589072186,-0.7552986278683728,0.3801353693951304,-0.7725924248869133,-0.5290574430892128,0.3509973887641672,1
75,15.033333333333333,-0.5431207810062098,-0.7644367386231635,0.34735614271578136,-0.7767362803891806,-0.5422307006897408,0.3204163197415096,1
76,15.233333333333334,-0.5415257959656893,-0.7789964879114419,0.3160922082642435,-0.7803140173959952,-0.5586500495646947,0.28110524074923715,1
77,15.433333333333334,-0.5611783362314688,-0.7695561883838895,0.30473291234216937,-0.793487898513632,-0.5463507294820598,0.26810042019146724,1
78,15.633333333333335,-0.575468873630604,-0.7643770058013575,0.2907978137546356,-0.8008975746846932,-0.5394727406903893,0.25986965370388326,1
79,15.833333333333334,-0.5809154848693574,-0.7598315284258289,0.29187882391339776,-0.8060907970237899,-0.5341084946583611,0.2548445465128311,1
80,16.033333333333335,-0.5921415080619492,-0.7548610626953378,0.28205178683459214,-0.8157543761421948,-0.5258831534293811,0.24081467302477405,1
81,16.233333333333334,-0.5675435705745391,-0.7922777164399165,0.22403195203420165,-0.8219990557052506,-0.5107131784850933,0.2519714304069605,1
82,16.433333333333337,-0.6057583000923443,-0.7548261276271993,0.25158378111587515,-0.8430341412422636,-0.4516700080149066,0.2920404776049608,1
83,16.633333333333336,-0.7690684261737674,-0.23995774803307102,0.5924137363545023,-0.8830208740364016,-0.2990026804772457,0.3617617075968815,0
84,16.833333333333336,-0.8599521549137716,0.05543168172651948,0.5073555163000898,-0.8966110311105268,-0.1525784931365528,0.4157023722846639,0
85,17.033333333333335,-0.8458893546616914,0.16940628305954145,0.505739766016059,-0.9023915927513543,-0.022407487285333632,0.43033396083185405,0
86,17.233333333333334,-0.8224076210489422,0.24480405259440513,0.5135335243915196,-0.8982373106117626,0.08411642385804625,0.43138632461203663,0
87,17.433333333333337,-0.832982025728196,0.21930350246637909,0.5079831873396307,-0.8962270311706011,0.17669352695031412,0.40688635530451167,0
88,17.633333333333336,-0.8213520379418724,0.2937983044429658,0.48894108650753776,-0.8784292915898974,0.29107348263070004,0.3789963157948992,0
89,17.833333333333336,-0.5352948840227592,0.8173069244964494,0.21323409274601474,-0.8298030274858716,0.448962678102231,0.33145052307479417,0
90,18.033333333333335,-0.5769439348947247,0.6915772241704833,0.4345763902892573,-0.749520224965219,0.5905649005619207,0.299086159145448,0
91,18.233333333333334,-0.5409936016973123,0.7494344352100084,0.3816725694152324,-0.6913526981515336,0.6670691292744,0.2775792202735797,0
92,18.433333333333337,-0.4970767623450213,0.7836300058995479,0.37261066301230034,-0.623964788221562,0.7344138485241939,0.26702854183682967,0
93,18.633333333333336,-0.4797034115374217,0.7984493064573465,0.36381773180693366,-0.5376687769543658,0.799298499689814,0.26839186776429913,1
94,18.833333333333336,-0.1966843334899041,0.9440221632170888,0.2648347188617094,-0.45822763530660426,0.852541279430099,0.2513976951147481,1
95,19.033333333333335,-0.26788304407211505,0.9233803175029999,0.2749681144182302,-0.41764294413554864,0.8738557353677536,0.24889862389871492,1
96,19.233333333333338,-0.2301048639933979,0.9274291121036355,0.294833840644595,-0.39272553172831814,0.8798072227323972,0.2677795876399393,1
97,19.433333333333337,-0.23544119020928828,0.9250571954876655,0.29805474502065643,-0.40211187834202067,0.8735816865063358,0.274155201112432,1
98,19.633333333333336,-0.2294213762181801,0.9260583983220737,0.29963590410915747,-0.39573939652145007,0.8752307341577762,0.27813933922852246,1
99,19.833333333333336,-0.24642045945030333,0.9438818101784572,0.21991836116736668,-0.3917254373973635,0.876946415688181,0.27841725109535953,1
100,20.033333333333335,-0.2442830947538065,0.9443836095681574,0.22014851259211485,-0.3858892328469012,0.8813954388277234,0.2724547308939864,1
101,20.233333333333338,-0.25835168543635983,0.9513202827965886,0.1680598886469069,-0.3964155743695851,0.8822221286881731,0.2540448937690747,1
102,20.433333333333337,-0.2654448857715613,0.9528691586021856,0.14689921443794804,-0.4032952230076108,0.8821957308273021,0.24307129737861655,1
103,20.633333333333336,-0.27775732236930134,0.9509044504759936,0.13649760413715864,-0.4176536542045332,0.8775671526020205,0.23545980082294793,1
104,20.833333333333336,-0.2899196863905595,0.9476801826103806,0.13359957683599039,-0.4322490816348403,0.8705463242548389,0.23518041745057372,1
105,21.033333333333335,-0.3186124221120366,0.9383662513787073,0.13399590571869935,-0.4615288454883669,0.8543762293349919,0.23881453793581345,1
106,21.233333333333338,-0.34207572847196516,0.9290718426156975,0.1407469617755467,-0.4874072888823109,0.8370937135122888,0.2484114521164477,1
107,21.433333333333337,-0.6217640188089796,0.7395238647425372,0.2579030019033678,-0.5282350811733325,0.8079535885582022,0.26111050870029384,1
108,21.633333333333336,-0.6157811496949152,0.7386762224887828,0.27417332840761627,-0.5767173488944765,0.7689552809696476,0.2758711209115896,0
109,21.833333333333336,-0.6236743646016206,0.7206827584109957,0.30273197496776444,-0.6363008806802279,0.7153397758861219,0.2888082309782038,1
110,22.033333333333335,-0.6508059104206889,0.6978840651406324,0.29901421134167505,-0.6843857706875773,0.6628308285561654,0.3037620937442953,1
111,22.233333333333338,-0.624843043268176,0.7577587172603512,0.18807683986953772,-0.7159050416629028,0.6207916730528986,0.3195272601669855,1
112,22.433333333333337,-0.6270924624663652,0.7595051381650549,0.17293637159010664,-0.7310886167374695,0.605788515840718,0.31389442262071826,1
113,22.633333333333336,-0.5966218054765606,0.7846222873816598,0.16855351486653009,-0.7118723737512512,0.6296609608471729,0.3110704066200668,1
114,22.833333333333336,-0.5779100560784378,0.797844962056242,0.17164901282818565,-0.6963778952568728,0.6482488416195245,0.30794685635114494,1
115,23.033333333333335,-0.5668529705486967,0.7293563241720513,0.3830366329352223,-0.7062434182513246,0.6325835615429637,0.3178966370415145,1
116,23.233333333333338,-0.5765028364948888,0.7739679873625575,0.261950441975767,-0.7026965755927105,0.636187737098755,0.3185634721926595,1
117,23.433333333333337,-0.5945758090463817,0.8035652084542317,-0.027614544333516598,-0.6972742687979288,0.6534810535594211,0.2945693580656061,1
118,23.633333333333336,-0.5988398559581297,0.7999189643746145,-0.03899329878185417,-0.7165441462040278,0.6551689261985835,0.2394121230943338,1
119,23.833333333333336,-0.6228538671648456,0.7799402499120986,-0.06120675391531878,-0.7435774436945835,0.6287219785787146,0.22759889912013032,1
120,24.033333333333335,-0.6732743478437271,0.736161732740423,-0.06904748934046884,-0.7930137175909926,0.5596859504424504,0.24058445625153133,0
121,24.233333333333338,-0.9089811607083033,0.3310221924850982,0.2533328986921055,-0.8356423868311788,0.4835760765292143,0.26049180321020143,0
122,24.433333333333337,-0.9460018839784312,0.24640325608720925,0.21063207471532022,-0.8734969733782741,0.4115272874887059,0.26009292406980844,0
123,24.633333333333336,-0.9623526423365889,0.22315693994662816,0.15517207204082406,-0.8945472908086107,0.357766948548151,0.26793274348895824,0
124,24.833333333333336,-0.9802602823410701,0.1482196293132428,0.1308461705624222,-0.9169052376056737,0.2689045138391195,0.2949154924520418,0
125,25.033333333333335,-0.9787327093390044,0.20090354831838864,-0.04147346070697656,-0.9301475468780549,0.16085143184761824,0.33007932063264417,0
126,25.233333333333338,-0.8877118690689625,0.20861897289127135,0.41042144396203345,-0.9188339092868821,0.13291001795320406,0.3715900621279643,0
127,25.433333333333337,-0.8811001332532817,0.21511310158887884,0.42117562691336,-0.9135870579873608,0.13627353999964817,0.383129494784679,0
128,25.633333333333336,-0.8460281007321501,0.1867278728590521,0.4993687557998448,-0.8966116445670452,0.11487189779614447,0.42765874938260173,0
129,25.833333333333336,-0.8457770233199041,0.14681179862032825,0.5129400770167866,-0.8952037484328783,0.06940261090613863,0.4402198614228298,0
130,26.033333333333335,-0.9078188627129067,-0.19012906341501998,0.3737858367402013,-0.9100367020200024,-0.02387268217480745,0.4138396984610564,0
131,26.233333333333338,-0.9731162481447859,-0.2129746227385924,0.08767312966907272,-0.9300267542493008,-0.13040926540292763,0.3435748242778852,0
132,26.433333333333337,-0.9681053470227284,-0.2505048481494451,0.004399786315963216,-0.9362164119975943,-0.22762830027859124,0.26773902744768174,0
133,26.633333333333336,-0.9799066066292181,-0.19930818544366746,0.007699967504049716,-0.9222757572768663,-0.2951451423648381,0.24959321400595566,0
134,26.833333333333336,-0.8340413573300645,-0.5429736208174681,0.09774794810834828,-0.894504929399303,-0.36794672046375465,0.2539215276031468,1
135,27.033333333333335,-0.8709223827283286,-0.4871657774955808,-0.06452680450740647,-0.867033934162283,-0.4393665499844293,0.23496636305193608,1
136,27.233333333333338,-0.8626627360735051,-0.49958222175294564,-0.07893419726940325,-0.8539031885102065,-0.4721454544502153,0.2189246776727165,1
137,27.433333333333337,-0.8690523744908542,-0.4843562872653435,-0.10073210698848871,-0.852611089295896,-0.4762501711961525,0.2150351246780422,1
138,27.633333333333336,-0.8633788517135191,-0.49688755120817946,-0.08763401091005825,-0.8369478916795582,-0.498647739223835,0.22554081400070558,1
139,27.833333333333336,-0.8639320417933852,-0.500994560927438,-0.05124331257672863,-0.8295443974109491,-0.501567733767489,0.2455318740356343,1
140,28.033333333333335,-0.8679763191938333,-0.49594110723431634,-0.025681266984431284,-0.8269747397645627,-0.49506379759983177,0.26650443917009536,1
141,28.233333333333338,-0.87014553032068,-0.4926125612023047,-0.013402261325921346,-0.8215120617374112,-0.49268518939097034,0.28701783319984076,1
142,28.433333333333337,-0.873513708733707,-0.48674853233453097,-0.007047476460747078,-0.8199866347786808,-0.48310674255577196,0.30696871840870993,1
143,28.633333333333336,-0.8765100150006219,-0.480838256344816,-0.02290774626380581,-0.8265920821400642,-0.4750900204450727,0.30172007261177247,1
144,28.833333333333336,-0.8767586435017309,-0.4791580491772287,-0.04125342353886888,-0.831143713692534,-0.4726955087695419,0.2928465181259409,1
145,29.033333333333335,-0.8293330980265247,-0.5288983412980863,0.18020309955675018,-0.825215563384724,-0.4755557763629544,0.30473919589619713,1
146,29.233333333333338,-0.7560366962729316,-0.5261275663469553,0.3893562607927873,-0.8135476986866635,-0.4932019044816801,0.30804548913638985,1
147,29.433333333333337,-0.7518191250870843,-0.5374669969306028,0.3819649596019126,-0.7967933339418153,-0.5158012248817949,0.3147530450946057,1
148,29.633333333333336,-0.5910611554257318,-0.7421401430468487,0.3160296166899586,-0.7674327794893013,-0.5563718481109988,0.3185864020872159,1
149,29.833333333333336,-0.580357170809179,-0.7642745300300817,0.28119387802308826,-0.7408952128060116,-0.5904653746755343,0.32003894286542056,1
150,30.033333333333335,-0.6531004613496696,-0.749349704664504,0.10924654458640524,-0.7298443225504061,-0.604315208488264,0.31957846240121546,1
151,30.233333333333338,-0.6479958312585099,-0.7538488893811338,0.1086887972627536,-0.7175052253552667,-0.6214916611390104,0.31453833903446793,1
152,30.433333333333337,-0.5563945091897735,-0.7895436306367913,0.25893243416834666,-0.6952652909854475,-0.6501850654861759,0.3063748615171585,1
153,30.633333333333336,-0.5230697961550279,-0.8093229642448109,0.26719717044970787,-0.663245916119169,-0.6874715612254704,0.29578320989782125,1
154,30.833333333333336,-0.537626871970375,-0.8063296648233675,0.2465559128497756,-0.6253403471528256,-0.7260332215161486,0.28605106445819656,1
155,31.033333333333335,-0.5562573475465881,-0.6796717589723553,0.4781464873402909,-0.599040797137593,-0.7451320123499,0.293135476420282,1
156,31.233333333333338,-0.563825233145906,-0.7444110003172154,0.35770570176429645,-0.5775029633916396,-0.7614243034308209,0.2944882975922202,1
157,31.433333333333337,-0.6201971883349715,-0.7040247443269126,0.34598353567304513,-0.5731185917316847,-0.763674006277374,0.29721556478044037,1
158,31.633333333333336,-0.59022494771011,-0.7815981996890041,0.20183846348876527,-0.5846661161901723,-0.7575326077095411,0.2903616380238313,1
159,31.833333333333336,-0.5529080655288747,-0.7853337610483678,0.27846643393907045,-0.6098958949293323,-0.743353620519486,0.27468598837385383,1
160,32.03333333333333,-0.5909854056757393,-0.7592504066842907,0.2725345303406912,-0.6377640482692748,-0.72343796628724,0.2643757319977914,1
161,32.233333333333334,-0.6178122752206265,-0.7201193558177005,0.3158102372682261,-0.6703689759464578,-0.6883023856244254,0.2772097798278813,1
162,32.43333333333333,-0.6740267379450375,-0.6236327665966032,0.3959420777869396,-0.7006941208154588,-0.6525815648286475,0.2883835125322619,1
163,32.63333333333333,-0.862104405423268,-0.2967398529511798,0.4107571713559068,-0.7391897356567938,-0.5988853001030066,0.30811512786647044,0
164,32.833333333333336,-0.8592915207948297,-0.35154761367882786,0.37152706174225136,-0.8042922980808533,-0.5020683926199354,0.31786982930101215,0
165,33.03333333333333,-0.8610678198572808,-0.3146715991149071,0.3994295861809646,-0.8408427064218668,-0.4302331010494717,0.3284555096485758,1
166,33.233333333333334,-0.8641418896622697,-0.28065606940548493,0.4177211572769398,-0.8671387518967498,-0.36782210091765627,0.33582329733874755,1
167,33.43333333333333,-0.7803549358637136,-0.5002513376793551,0.3752262960176906,-0.8802187958249785,-0.33356483051341573,0.33756388331837417,1
168,33.63333333333333,-0.7857741336419213,-0.48699124527133203,0.3813116021423495,-0.8847305381728701,-0.30410388725582094,0.3532317944073591,1
169,33.833333333333336,-0.6392354517636195,-0.7148059320492255,0.2836027445491309,-0.8544864720926646,-0.35696605004540116,0.37739648663655584,1
170,34.03333333333333,-0.6445024215333965,-0.7033230736290947,0.2999221277907164,-0.8326841671974409,-0.4132036856519608,0.3686458895231849,1
171,34.233333333333334,-0.6529278480775772,-0.7026036505124686,0.2829016357169699,-0.83724667508263,-0.42398439765612644,0.34533351358831715,1
172,34.43333333333333,-0.6350731349989371,-0.7160723208327265,0.28969388074285285,-0.840034169947806,-0.4308715340757703,0.32968517473992237,1
173,34.63333333333333,-0.6208832399680703,-0.7382973168286963,0.26347879286633147,-0.831412432745966,-0.46063987087868535,0.3107479300531266,1
174,34.833333333333336,-0.6205449212428819,-0.7504737520742832,0.22740525096666708,-0.8240303141815228,-0.48382085985578654,0.2947735009771204,1
175,35.03333333333333,-0.6781063021857306,-0.7305892352390672,0.08007004613955031,-0.8042369893815668,-0.5244552104630702,0.2795524944059887,1
176,35.233333333333334,-0.6883205422467081,-0.7210776570523971,0.07913181168799152,-0.8093976828847274,-0.5195915212025926,0.27367872046472685,1
177,35.43333333333333,-0.6910377919581863,-0.7174621671123639,0.08783398458447295,-0.8156776005411422,-0.5101817142545451,0.272735532000762,1
178,35.63333333333333,-0.5894480085691327,-0.7605924502794159,0.27212160842505284,-0.7960204177439827,-0.5436426632297322,0.26609049071919016,1
179,35.833333333333336,-0.5878844672380195,-0.7640848881991735,0.2656428745626851,-0.7803036229762208,-0.5727098110443233,0.25125630002799915,1
180,36.03333333333333,-0.5784274897237209,-0.7684073145432735,0.27380985754408044,-0.7611601953403583,-0.5932357221736839,0.26211931437132757,1
181,36.233333333333334,-0.6191348442729845,-0.7342399629362899,0.27850264170090616,-0.7849199612973389,-0.5519221685457025,0.28157161473556525,1
182,36.43333333333333,-0.6141485756255751,-0.7354795514102324,0.2861666586352803,-0.8102743396738235,-0.4799552343364289,0.3363011559587827,1
183,36.63333333333333,-0.6580605661229908,-0.6884182822419895,0.30501895021273273,-0.8373405246244181,-0.40994666475360936,0.36166915527743887,0
184,36.833333333333336,-0.8587561384287266,-0.3610454079648025,0.3635713246372861,-0.8900798849668127,-0.26206043751832303,0.37293716020955986,0
185,37.03333333333333,-0.9225455406563675,-0.010852753925871136,0.385735587089492,-0.9283117842679725,-0.01846485387412441,0.3713438842375358,0
186,37.233333333333334,-0.923196507301107,0.13105063803411293,0.36129480923186424,-0.9118496384819214,0.1875351829336328,0.3651859690109117,0
187,37.43333333333333,-0.6552370305612296,0.6390923451321456,0.40277215417006773,-0.8055554640018103,0.4830302116556058,0.34316498808119805,0
188,37.63333333333333,-0.5678319775811413,0.7581486653829721,0.32058921755777803,-0.6534003500752465,0.6951378309761158,0.29975219510016327,0
189,37.833333333333336,-0.3603206527200793,0.8915251005760103,0.27450322815280526,-0.48755270534916273,0.8339995691767496,0.25833520495609785,0
190,38.03333333333333,-0.2937664330731297,0.9257480118820216,0.23810061170852678,-0.3874281557539195,0.8947969147476321,0.22189615924399364,0
191,38.233333333333334,-0.2669675319447373,0.9396784380944567,0.21385221501704912,-0.33332297214973255,0.9211340954911473,0.20101685093786173,0
192,38.43333333333334,-0.5775240800375764,0.7024748775979075,0.4159266561793751,-0.3919737517559103,0.8821450781844097,0.26110656630850576,0
193,38.63333333333333,-0.5816012245374407,0.6894136311874217,0.4317972449536046,-0.5442804634556493,0.748193271789847,0.37942799731821036,0
194,38.833333333333336,-0.7784759900200622,0.46427994309110443,0.4223970494754964,-0.6687374283546064,0.6232751811622015,0.4053619376124169,0
195,39.03333333333333,-0.8019794891717382,0.4431091910670758,0.4006034744478881,-0.7802975915858263,0.5000146826759012,0.3756607321425504,0
196,39.233333333333334,-0.9147190151765652,0.08188348348374017,0.39570723825447435,-0.8566910265338938,0.3438735182362436,0.3844886064789585,0
197,39.43333333333334,-0.9030581209475007,-0.21083744163950366,0.3742106404068148,-0.8961653121317106,0.1912308102092254,0.40039794025269043,0
198,39.63333333333333,-0.8774441327825568,-0.3159055536551979,0.36096464510429493,-0.9190297833374673,0.023088157017066284,0.3935113649492772,0
199,39.833333333333336,-0.8797903734506975,-0.2838097783565911,0.3813409347193995,-0.9201389621535991,-0.12170542881206525,0.3721989775974255,0
200,40.03333333333333,-0.6555482265600656,-0.7098961319710034,0.2574956397039782,-0.8753068139172853,-0.33474222506126483,0.34897797103972716,0
201,40.233333333333334,-0.6116854683352798,-0.7368387853533225,0.2879400844385683,-0.8134726043907101,-0.48284101349544334,0.32423275218967135,0
202,40.43333333333334,-0.5667988431086872,-0.7698339825740577,0.29341900198320386,-0.7558020888087239,-0.578160731946908,0.3073977400485987,0
203,40.63333333333333,-0.6378175516332243,-0.708990228387507,0.30086812207282754,-0.7154096774576393,-0.6333083062282056,0.2951433256272585,0
204,40.833333333333336,-0.6224935498894476,-0.748731846717101,0.22782098686827176,-0.7248674703432167,-0.6265211690696305,0.28642341933900844,0
205,41.03333333333333,-0.6534020587204661,-0.7233759730651363,0.22314334238763192,-0.762099644036144,-0.5870815461896562,0.27301902989268967,0
206,41.233333333333334,-0.677542407087462,-0.6941355658701396,0.24312980646615345,-0.7922211024245556,-0.5368393049353755,0.2901538997665291,0
207,41.43333333333334,-0.7627942302975242,-0.5412920022954999,0.3537625340192719,-0.8257059050113478,-0.47219697245229136,0.308609425708744,0
208,41.63333333333333,-0.8887041971682017,-0.2783863003672347,0.3642882343741921,-0.8586767274348022,-0.40554367166711075,0.3133825268463728,0
209,41.833333333333336,-0.9147568180620462,-0.24358022049012873,0.32231760733006903,-0.8865881616904364,-0.3486912944019403,0.30393389537639914,0
210,42.03333333333333,-0.8993370461469319,-0.22603081656824991,0.37430328263214757,-0.9134790642126858,-0.29657003649158925,0.2785717370813011,0
211,42.233333333333334,-0.9015895372164913,-0.3098411049459955,0.30188540221017274,-0.9376850892277848,-0.2435865802265036,0.24781495389390587,0
212,42.43333333333334,-0.7162827341258742,-0.5822386396478679,0.3846260668417607,-0.9442194036430156,-0.22395995810442207,0.24143664790146058,0
213,42.63333333333333,-0.7819274707962695,-0.5263777098840904,0.3339400199906108,-0.9384467236843226,-0.23839766504758117,0.2499685982399033,0
214,42.833333333333336,-0.9043834538719084,-0.2708240039316986,0.32976495759422586,-0.9424522800789039,-0.17112573086807292,0.28722758225655,0
215,43.03333333333333,-0.8354392798713657,0.15972819408549668,0.5258594048433479,-0.942003331990996,0.0008126489008434299,0.33560253592549893,0
216,43.233333333333334,-0.8306007376339289,0.3067538976491215,0.4647628007048818,-0.9174328197260313,0.16260528406609218,0.3631481004815107,0
217,43.43333333333334,-0.7770550259052946,0.4380939753772916,0.45195039047825053,-0.866908135225434,0.33384063512597795,0.37016309299907857,0
218,43.63333333333333,-0.541177280500081,0.7673895810610392,0.34386099218943106,-0.7629707280820175,0.551360278036734,0.33745742234132553,0
219,43.833333333333336,-0.33426440602566826,0.9042310176207987,0.26576977562688037,-0.6067857251892039,0.7409517514411855,0.28775264680425044,0
220,44.03333333333333,-0.15891149714587444,0.964430493749207,0.2112367363919388,-0.4646480434853503,0.8496044637716447,0.2495484939336091,0
221,44.233333333333334,-0.07495292577861434,0.9779335552755579,0.19500774441886454,-0.3823150062874887,0.8922762805646794,0.24016301777971305,0
222,44.43333333333334,-0.05277783823637866,0.9828643602144154,0.1766129927593173,-0.35177511756120816,0.9093663407824593,0.22205207703761443,0
223,44.63333333333333,-0.10605460991368643,0.97227320027037,0.20841603525657212,-0.3455457478162387,0.9106530599325325,0.22651521053040144,0
224,44.833333333333336,-0.5952169705475515,0.7043133489505711,0.3868584553324725,-0.4459158117058746,0.8590352858236067,0.25143083856330267,0
225,45.03333333333333,-0.6032930722430246,0.6969586998776255,0.3876674343409089,-0.5617062648745805,0.7833936505639606,0.26604597395322344,0
226,45.233333333333334,-0.651796675720234,0.6585503912896494,0.3761282702115083,-0.6529672983683289,0.7084861325412765,0.267733276337236,0
227,45.43333333333334,-0.6242497352862396,0.6850066816959929,0.3756036661521083,-0.7137008434145168,0.6406190137082729,0.28326380881582347,1
228,45.63333333333333,-0.6544349429174098,0.6410437913249821,0.4009710252529223,-0.7662183895210077,0.5630966483979168,0.3095667038343523,1
229,45.833333333333336,-0.5963905186583672,0.6928637060197372,0.40528784108951404,-0.7688085946776221,0.543694710571767,0.3366443322649333,1
230,46.03333333333333,-0.5774588549522267,0.7028761447119118,0.41533889299243665,-0.7604712147551733,0.5476803752192761,0.34889789069076405,1
231,46.233333333333334,-0.579905951532727,0.7841150217669342,0.22107175309469784,-0.731152437068989,0.580140590478919,0.3589610132686415,1
232,46.43333333333334,-0.5871338780526274,0.7918174690313794,0.16822278377087674,-0.7112216386768532,0.6083338572942223,0.3522693553906506,1
233,46.63333333333333,-0.5510090064004455,0.8146913989827824,0.18074014299283453,-0.681913284249714,0.6331679672164857,0.36618656181612175,1
