,timeStamp,x_gaze,y_gaze,z_gaze,x_head,y_head,z_head,fixations_head
0,0.033366700033366704,-0.9757917539317462,-0.14372571173766624,-0.16484347953227538,-0.9763892205969433,0.006889533374396814,0.21590883314949522,0
1,0.2333667000333667,-0.9813777914147171,-0.05743518496338579,-0.183299836459812,-0.9810917020042089,-0.04338091000691004,0.18861911065811224,0
2,0.43336670003336675,-0.9560284237651762,-0.2698952989207933,-0.11474397837589663,-0.9805657822100016,-0.07556211069697959,0.18105555552345054,0
3,0.6333667000333668,-0.8473632870881452,-0.5048344167260845,-0.16467444059114889,-0.9710010451855233,-0.14225997118500222,0.19214336014305478,0
4,0.8333667000333668,-0.7477597998592762,-0.6191982610240354,-0.23968478311988414,-0.9489160546653407,-0.26381048972686266,0.17309635093911555,0
5,1.0333667000333666,-0.6350089338212632,-0.7310684616401665,-0.2496048043653468,-0.8881845130645133,-0.4377074496339203,0.1397871928587274,0
6,1.2333667000333668,-0.6417188362184987,-0.6796763831914878,-0.3552983948375135,-0.81213262672739,-0.5772165770420139,0.08521513828405619,1
7,1.4333667000333667,-0.6146729447339403,-0.6811977956668207,-0.39767667041300153,-0.772895108845213,-0.6344054403418816,0.012762757843430991,1
8,1.6333667000333667,-0.597177631499848,-0.6909182476044367,-0.4074442925891176,-0.7497031177693649,-0.6617739017784181,-0.0007335747149074377,1
9,1.8333667000333667,-0.5921342771035472,-0.7240174642593588,-0.35380179384297583,-0.738180669780296,-0.6729592409680859,0.04706547310260297,1
10,2.033366700033367,-0.5932302502203701,-0.492733366222553,0.6366252430075866,-0.7473413299898781,-0.6539277312591864,0.11772620260236692,1
11,2.233366700033367,-0.9083822353277107,-0.41681382151835805,-0.03328592393631215,-0.7958518147598523,-0.5933311546379416,0.12073951250297765,1
12,2.433366700033367,-0.9366538393527702,-0.3494053413397695,-0.024402718474671594,-0.8575499368071715,-0.4976940308884828,0.1300336783298483,1
13,2.633366700033367,-0.9524688564569915,-0.3045860821821709,-0.005513258603300953,-0.8916141877931993,-0.4315515932721893,0.13706699993108593,1
14,2.833366700033367,-0.9628291263186248,-0.2698976310588971,0.010739751454717813,-0.9138083159938455,-0.37905045240389434,0.14585991962460246,1
15,3.033366700033367,-0.9627190684784362,-0.26693078130561154,0.043817270334742246,-0.9183749828200082,-0.36015417100568725,0.16394012333030597,1
16,3.233366700033367,-0.7014154777725523,-0.3464794863169834,0.6228710083979041,-0.9162779731891164,-0.36187463698590344,0.17170155198706152,1
17,3.433366700033367,-0.6811284412666337,-0.3930190680997913,0.6177378558965428,-0.9029742019984925,-0.3955808097789181,0.16778978949817247,1
18,3.633366700033367,-0.6703885232555233,-0.41851915355929203,0.6127160402595093,-0.8937428729479645,-0.4184151594308234,0.16171713395060466,1
19,3.833366700033367,-0.7493010935744755,-0.6563094822839672,0.0883500686601103,-0.8931694678536976,-0.41901849790699836,0.16331503331201802,1
20,4.033366700033366,-0.764759898509148,-0.6392463842043761,0.08066199795386399,-0.9008250826220044,-0.4032095850790097,0.16104720121589103,1
21,4.233366700033367,-0.7699205773675897,-0.6347212536843363,0.06596388911625903,-0.9048779160514536,-0.39964868174155266,0.1465499512951745,1
22,4.433366700033367,-0.8172557861581476,-0.5252637448916487,-0.2370463631727542,-0.9156475654100831,-0.37952472193826553,0.13247838086370867,1
23,4.633366700033367,-0.8551065902796614,-0.45022948806408497,-0.2570722220268911,-0.9497548570922624,-0.2931918419366072,0.10956393225635949,0
24,4.833366700033367,-0.9916858667202314,-0.1177537651505217,-0.0518959780736383,-0.9773814347442256,-0.18413473258611202,0.10401889863270256,1
25,5.033366700033366,-0.9945699065060376,-0.081051626288014,-0.065278901251784,-0.9887811582141042,-0.10567589644171543,0.10556716379639451,1
26,5.233366700033367,-0.9957797266996494,-0.059974388731661464,-0.06946804006329191,-0.9931486625289542,-0.050074505717134225,0.1055854061607678,1
27,5.433366700033367,-0.9715930768957052,-0.14545277846144541,-0.18668257060095975,-0.9937505884636265,-0.033496506361404256,0.10647888048705512,1
28,5.633366700033367,-0.9609614055105771,-0.1656678777059663,-0.22160174055168613,-0.9935465061434441,-0.04316815655058281,0.10488970583513076,1
29,5.833366700033367,-0.9515487982254228,-0.19079301629775158,-0.24114914374253849,-0.9933408920458328,-0.04612081410771085,0.105578135499883,1
30,6.033366700033366,-0.9500271106224516,-0.19275159014643814,-0.24555104067866682,-0.9930403640429837,-0.0456001344341497,0.1085885036316744,1
31,6.233366700033367,-0.9570177394582081,-0.17327710169688287,-0.23257706763528893,-0.9932505147726847,-0.04828147357485879,0.10546238292982368,1
32,6.433366700033367,-0.9425353109861656,0.15240641593133575,-0.2973204868944912,-0.9940833880689048,-0.031153678777208597,0.10405607077001273,1
33,6.633366700033367,-0.8533774081182144,0.3084013401601981,-0.42028039771185205,-0.9906824782423167,0.12382683741002787,0.05670221901030124,0
34,6.833366700033367,-0.7849851975093975,0.43782657763061616,-0.4382991302882019,-0.9519002661120266,0.30497182535696066,-0.0296322310043722,0
35,7.033366700033366,-0.736599069694235,0.4870923435476417,-0.4692151525503559,-0.9185658624571189,0.3866250436876574,-0.08220603336693878,1
36,7.233366700033367,-0.7139004882879284,0.514622618626157,-0.4748785668153645,-0.8937837118361031,0.4378247310845875,-0.09726346337236089,1
37,7.433366700033367,-0.7007912601555178,0.5325142840202294,-0.47467899364103316,-0.8723461261774808,0.47757060746811075,-0.10458752805991212,1
38,7.633366700033367,-0.7484449960764612,0.49543331595695855,-0.44088084250509124,-0.8615458324768978,0.4993543059443918,-0.09156448916738269,1
39,7.833366700033367,-0.7551953364248064,0.4860158664009424,-0.43985063538520114,-0.8640936532806088,0.49624152599708915,-0.08418138889476491,1
40,8.033366700033367,-0.8086077598501322,0.35172677938674646,-0.47163732186117135,-0.8662826944889331,0.49125087564832365,-0.0907020970195796,1
41,8.233366700033368,-0.8110146109077667,0.3326989165008963,-0.48121381095439614,-0.874708493491873,0.4735468092161335,-0.1031429633780091,1
42,8.433366700033368,-0.7747686274351877,0.17253593740881698,-0.6082474202531867,-0.8840720490826409,0.4396610535291314,-0.1584764021565196,1
43,8.633366700033367,-0.7102189522800663,0.08156209281926292,-0.699240062379972,-0.8978015881372551,0.3369987165283346,-0.28352102813808755,0
44,8.833366700033368,-0.6353091629608092,-0.004924532161844497,-0.7722422006346342,-0.8915740697004233,0.2362753268178828,-0.38635430394254433,0
45,9.033366700033367,-0.6260158809966391,-0.036764191092147035,-0.7789432013910528,-0.9006856777048983,0.16660779183957566,-0.40125696713653325,0
46,9.233366700033368,-0.6511117492433265,-0.053504235410315196,-0.7570936446638905,-0.9126109314320259,0.1335711114885602,-0.3863936412604137,0
47,9.433366700033368,-0.6821683544876409,-0.06246369290482065,-0.7285222187444367,-0.9263243168977813,0.11033598753156759,-0.3602072039525203,0
48,9.633366700033369,-0.7876512735349654,-0.09646764941191971,-0.6085223610646415,-0.9485570401666711,0.04853035487230099,-0.31286474107226114,0
49,9.833366700033368,-0.8320932133550029,-0.14339994167482584,-0.5357773240966832,-0.9684282019689187,-0.05152934176394032,-0.24390888579267184,0
50,10.033366700033367,-0.8929667644259283,-0.18413320841769423,-0.4107375307766443,-0.9901701933215705,-0.10185372545732232,-0.09585826447410833,1
51,10.233366700033368,-0.9587108623536547,-0.1545141024233811,-0.2387443707344926,-0.9904021943606548,-0.13246805487588675,-0.039442462435793066,1
52,10.433366700033368,-0.9423543799287374,-0.23404598996277154,-0.23914576561476292,-0.9890350493786191,-0.1365652148147571,-0.056210436782074186,1
53,10.633366700033369,-0.9454984992423863,-0.23523455610437846,-0.22516059056764645,-0.9889597148488954,-0.13981359484126868,-0.049100316735775494,1
54,10.833366700033368,-0.9453902679786388,-0.24740688329315683,-0.2121958418783075,-0.9872519749796242,-0.1542747238152306,-0.03915159627097983,1
55,11.033366700033367,-0.9659118505221286,-0.24982510711219624,0.06783592615492981,-0.9856340507918016,-0.16886728448064442,-0.003059109654429875,1
56,11.233366700033368,-0.9872289182766545,-0.11340192985154803,0.11188862866373482,-0.9817153613844708,-0.18148780881390075,0.057420592766770945,1
57,11.433366700033368,-0.9897664636671075,-0.07277163443716948,0.12274622854186493,-0.9844990515966723,-0.16115094821412865,0.06922419587788707,1
58,11.633366700033369,-0.9986573278685993,0.05144171201438594,0.006106697911142954,-0.9872091319986152,-0.14523071730256942,0.06577361515320623,1
59,11.833366700033368,-0.9906970042668732,-0.12299112506872326,-0.0582462779151832,-0.9883269775263347,-0.14040344897190435,0.05913253766289796,1
60,12.033366700033367,-0.9744821795537202,-0.1631462690650495,-0.15416801426491097,-0.9884033082384345,-0.139426081842124,0.06016035210561979,1
61,12.233366700033368,-0.9699982142488308,-0.1718402829923065,-0.17197203695718644,-0.9890175769995566,-0.13614403438343659,0.05752420610254603,1
62,12.433366700033368,-0.9622930903353715,-0.18456810536586615,-0.19981647273049208,-0.9899756211023683,-0.13109688671627304,0.05255355284165626,1
63,12.633366700033369,-0.9578151039492397,-0.19091629328085308,-0.2148050176476486,-0.9906454381220464,-0.1274574807391244,0.0487463489054756,1
64,12.833366700033368,-0.9537413186621111,-0.19912890662765234,-0.22522250247684725,-0.9907548679239649,-0.12741103890450067,0.0465963394511066,1
65,13.033366700033367,-0.9510904850175694,-0.2043247368464199,-0.23168575964371646,-0.9908351006034756,-0.12696535071515672,0.04610426368437181,1
66,13.233366700033368,-0.949602720178701,-0.2062145436826856,-0.23607252233784842,-0.9912861130095671,-0.1235683919395379,0.04563654969276876,1
67,13.433366700033368,-0.9488240328803624,-0.20751443378208284,-0.2380561160750687,-0.991454943249273,-0.12089168471307167,0.04901322345873937,1
68,13.633366700033369,-0.9481385997640437,-0.20599054725934696,-0.24207662026158897,-0.9918051278647171,-0.1176323651154629,0.04985193094148479,1
69,13.833366700033368,-0.9472841837532855,-0.20406409138131307,-0.24700308058724862,-0.9916750453657678,-0.11885743818074257,0.049532956583611634,1
70,14.033366700033367,-0.9454005398293852,-0.2036886214732836,-0.2544184835514521,-0.991534470136161,-0.12131438224430939,0.04628407061272747,1
71,14.233366700033368,-0.9430734682646695,-0.20422661666759245,-0.26249556662876466,-0.9916777185914593,-0.12134144472794559,0.043029713461439585,1
72,14.433366700033368,-0.9414719854901514,-0.20477118436272918,-0.26776717982590376,-0.9917845169703727,-0.12081977729348295,0.04202443708841461,1
73,14.633366700033369,-0.9312617735492071,-0.12536494795998768,-0.3421039885019982,-0.9921668799272505,-0.11796107618658629,0.04111042301323992,1
74,14.833366700033368,-0.9305460872806094,-0.12818392095832826,-0.34300562947931024,-0.9922982608416318,-0.11687497945948214,0.04104145108324965,1
75,15.033366700033367,-0.933712430025676,-0.11457578702487355,-0.3391953523313337,-0.9922586392000279,-0.1168413848984164,0.042081869111640705,1
76,15.233366700033368,-0.9465957780973564,-0.09381020521870592,-0.3084737886516213,-0.9922896436127313,-0.11624282801964433,0.042998466401887536,1
77,15.433366700033368,-0.9596067358576631,-0.07294118957795886,-0.2717250363134646,-0.9922412777348975,-0.11614227718364732,0.0443646053697693,1
78,15.633366700033369,-0.9935696497028685,0.08984507390646362,-0.06890002818621288,-0.9924798484105696,-0.11380717825047479,0.04507412425768994,1
79,15.833366700033368,-0.9922588450567648,0.1235623510919884,0.012439043340857771,-0.9927682273056764,-0.11123459660780387,0.04514544683403262,1
80,16.033366700033366,-0.9870806971359742,0.005855673641740449,0.16011685866191847,-0.9923566344932396,-0.11344232584164737,0.04857106839352743,1
81,16.233366700033365,-0.9932758466205394,0.023362830524367665,0.11338990550371046,-0.9916414818055579,-0.1164877481218568,0.05547770813557884,1
82,16.433366700033368,-0.992150447720941,-0.04827346016263748,-0.11535667354367937,-0.9918821243655591,-0.11646464419023121,0.05104740951026214,1
83,16.633366700033367,-0.9481197076146025,-0.08602255034296519,-0.30605414695000127,-0.9922065081911701,-0.11545060160530153,0.04687647269217115,1
84,16.833366700033366,-0.9462736164940102,-0.08485544350702624,-0.3120349282285122,-0.99249322602735,-0.11384369570113542,0.044685671517063624,1
85,17.033366700033366,-0.9270840751561698,-0.2106433149187407,-0.3100717843852832,-0.992619996757336,-0.11362725456020767,0.04236022968040267,1
86,17.233366700033365,-0.9229624002412993,-0.21754574131793855,-0.31751261104914946,-0.9928722014568516,-0.11355203139096728,0.036203974107959475,1
87,17.433366700033368,-0.9238923809400854,-0.18721418098368048,-0.3337270125109295,-0.9925157066104748,-0.11724212488972291,0.03415927813717635,1
88,17.633366700033367,-0.8485834445659599,-0.36680698492048186,-0.38125945682975027,-0.9919027158549355,-0.12448778040556915,0.02513552882471773,1
89,17.833366700033366,-0.8731345264652266,-0.3008760373406647,-0.38354883502433357,-0.9916349842793339,-0.1262279771228658,0.02695469800970456,1
90,18.033366700033366,-0.9028210198519646,-0.22084443123898745,-0.36897417701539287,-0.9915388999428525,-0.1267641649432114,0.027954541426549216,1
91,18.233366700033365,-0.9164932654290486,-0.17576334695998683,-0.3593707560286768,-0.9917241537537057,-0.12520689547383645,0.028397820115284376,1
92,18.433366700033368,-0.9226758591322939,-0.1522114530209594,-0.3542611078621692,-0.9918689428659715,-0.12388977694897085,0.029108819032629463,1
93,18.633366700033367,-0.9259670123803152,-0.1350413738075502,-0.352631421378814,-0.9919209397823269,-0.1235034768435354,0.02897827511954768,1
94,18.833366700033366,-0.9273551828292872,-0.12085305654151345,-0.35412837164541533,-0.9920035938323571,-0.1230612398526759,0.028014301162262476,1
95,19.033366700033366,-0.9285067397991525,-0.12108444676371584,-0.3510182201816224,-0.9921852268269751,-0.12188466577608507,0.0266946420645815,1
96,19.23336670003337,-0.9288987108674353,-0.11575024206848937,-0.35177985503707154,-0.9922436172400791,-0.121332701170339,0.027036635756554538,1
97,19.433366700033368,-0.9287615977370309,-0.1065489316699219,-0.35503411065551965,-0.9922806683075545,-0.12087068844093708,0.027737194864061402,1
98,19.633366700033367,-0.9264959276712381,-0.11105951266405094,-0.35954287735322454,-0.9919606518323625,-0.1234870602847283,0.027658835090267446,1
99,19.833366700033366,-0.928199360417217,-0.11357730806485086,-0.3543249108005407,-0.9916717236334669,-0.1253757397028011,0.029463815771291296,1
100,20.033366700033366,-0.8965028530619095,-0.2704614826348497,-0.35090343523940537,-0.9916060739633663,-0.12578734417114415,0.029915516464362916,1
101,20.23336670003337,-0.7778921107762223,-0.4486438906175537,-0.44000286749481304,-0.9854376190699539,-0.1698941270714429,0.00697742849286966,1
102,20.433366700033368,-0.7207413503671587,-0.5062026290493745,-0.4735935010263821,-0.9568867755808839,-0.2866160945382158,-0.04710534014397784,0
103,20.633366700033367,-0.6421772023293703,-0.5863702769316348,-0.49373914078138575,-0.8854564342777718,-0.45461939462580286,-0.09637483606296277,0
104,20.833366700033366,-0.5167186054226989,-0.6793891967403527,-0.5209915567094343,-0.7540868760623758,-0.6425501462609279,-0.13594959687526798,0
105,21.033366700033366,-0.47382655600487356,-0.7085017503593928,-0.5229853387641351,-0.6154376597307051,-0.7751636755429214,-0.14268063324775868,0
106,21.23336670003337,-0.3177225028640127,-0.7906055439790749,-0.5234455893437049,-0.5508736397627281,-0.8207362298358166,-0.15142745474138364,0
107,21.433366700033368,-0.33129689540819446,-0.7836676597423735,-0.52545919552978,-0.5581031222189882,-0.8150985011943851,-0.15535552233533337,0
108,21.633366700033367,-0.6560912821639054,-0.5299931972922125,-0.5372629154264242,-0.662483377832046,-0.7332791661479883,-0.15302757460521313,0
109,21.833366700033366,-0.761307672939441,-0.37710805782106444,-0.5274468123422097,-0.8118305008636185,-0.5647933614771682,-0.14812054786169138,0
110,22.033366700033366,-0.8404829704190147,-0.17626463235115697,-0.5123662321208741,-0.9274985572087494,-0.34756021856442393,-0.13765289988640905,1
111,22.23336670003337,-0.9409532856937155,0.06116283531890274,-0.3329654962874591,-0.9721051842507669,-0.19864722876714522,-0.12470280372115161,1
112,22.433366700033368,-0.8976386438081,-0.1575189573929681,-0.411621966377145,-0.9759729868043692,-0.18118200696911263,-0.12103639691763472,1
113,22.633366700033367,-0.8933785062205319,-0.19671182018725591,-0.40395458212748137,-0.9696697653106494,-0.2204911633355672,-0.10547129056439204,1
114,22.833366700033366,-0.867702241318506,-0.26885375699051955,-0.41810342950390156,-0.9583411165523601,-0.26908991535076343,-0.09577537147772004,1
115,23.033366700033366,-0.78166045482202,-0.42531193451208366,-0.4561980838725895,-0.9330609821316713,-0.33912063357546834,-0.11997666234253236,1
116,23.23336670003337,-0.7118760908422515,-0.4982057466310592,-0.4949984498066065,-0.911034385516644,-0.39183651816531045,-0.12837636635454852,1
117,23.433366700033368,-0.7009038225420665,-0.5086876380528171,-0.4999707175807056,-0.8957861293602364,-0.42346123531359803,-0.13508439078030995,1
118,23.633366700033367,-0.6469684253794126,-0.5456820111381145,-0.5326002246360271,-0.8628135273148807,-0.4821762579957418,-0.15185148437759058,1
119,23.833366700033366,-0.6130062651764058,-0.5627541978153214,-0.5545548049523221,-0.8321835826880264,-0.527748063729926,-0.1701542415981299,1
120,24.033366700033366,-0.65352771126476,-0.45839335684031524,-0.6023097716405676,-0.8274223549041014,-0.5319486257247142,-0.18000807258159088,1
121,24.23336670003337,-0.6507826292388516,-0.45781529853495023,-0.6057120783906509,-0.8300992745190753,-0.5254171866460927,-0.18674039311249757,1
122,24.433366700033368,-0.6403205849270466,-0.4349940509382134,-0.6330637599539626,-0.8308409175734892,-0.5205534829054284,-0.19679288889761912,1
123,24.633366700033367,-0.636771580742773,-0.4220929065768155,-0.6452592751568058,-0.8354745272457537,-0.5109785385272217,-0.20219606199940968,1
124,24.833366700033366,-0.6455541473503884,-0.5400199089224308,-0.5400354995795393,-0.8363167836734865,-0.507206417131926,-0.20812469283155666,1
125,25.033366700033366,-0.6427293927248561,-0.5806745075955398,-0.4997159632793565,-0.8321479356250527,-0.5159244737858226,-0.20335129845610778,1
126,25.23336670003337,-0.6405317678589311,-0.6315116246371686,-0.4369349177070156,-0.826382100071908,-0.5301561538861861,-0.18980800082543922,1
127,25.433366700033368,-0.6562459452831737,-0.6097559771288711,-0.4444534932419919,-0.8249597464148497,-0.536715862505045,-0.1771369519061802,1
128,25.633366700033367,-0.6965971280727897,-0.540225665403143,-0.47213204890207683,-0.8268231900186075,-0.5356183659166395,-0.17168686187429347,1
129,25.833366700033366,-0.7117195229974094,-0.5135655058024887,-0.4792763209612741,-0.832326838937894,-0.5277627702672298,-0.16940629121585854,1
130,26.033366700033366,-0.7351845675028043,-0.48681643481930176,-0.47171327148548586,-0.8396162536376514,-0.5177672987638964,-0.16419978976299926,1
131,26.23336670003337,-0.7476118431850994,-0.471267079627737,-0.4679571258016303,-0.8431304511297706,-0.5125109724563495,-0.1626761982883688,1
132,26.433366700033368,-0.7442285474820429,-0.5538034215305573,-0.3733974282367474,-0.8430182582846721,-0.5153400077596778,-0.15409377859256101,1
133,26.633366700033367,-0.7603428211438744,-0.5785674574503892,-0.29519229582488565,-0.8414669825151692,-0.5253321555043644,-0.126330691955497,1
134,26.833366700033366,-0.8351978014230909,-0.39782679767888474,-0.3797084033131199,-0.8512986949206202,-0.5089091347293461,-0.12767938210798643,1
135,27.033366700033366,-0.8424698197575353,-0.35298459648323044,-0.40699690102416897,-0.8624621975544804,-0.4880236628843788,-0.13413374763425712,1
136,27.23336670003337,-0.8541352432874878,-0.21261530935769082,-0.4746026932087063,-0.8794820572085679,-0.45318017873125277,-0.1453926980741996,1
137,27.433366700033368,-0.855516423475825,-0.20150270465014242,-0.47695734524358746,-0.8948590264399615,-0.42090976736961927,-0.14853380265709779,1
138,27.633366700033367,-0.8672643034987205,-0.48041923839557416,-0.13057558445703416,-0.9003061346930312,-0.41723089398178914,-0.12396469231701022,1
139,27.833366700033366,-0.7222471402254081,-0.6828598510862225,-0.10982482511127291,-0.8424878644853059,-0.5357891148671342,-0.056073367875327955,1
140,28.033366700033366,-0.5672091625766084,-0.6907166795932325,0.4485356556850776,-0.7592828188790457,-0.6505737051913739,-0.015603046774850677,0
141,28.23336670003337,-0.47208844702253827,-0.7415620317412658,0.47667415628248005,-0.6652813789657063,-0.7463601637322347,0.01863311018268716,1
142,28.433366700033368,-0.41877157126546755,-0.7839885074105053,0.4582492677005605,-0.6206356084504449,-0.7837002966311999,0.025005731013423058,1
143,28.633366700033367,-0.4037780695252888,-0.6816093023155686,0.6102229343177089,-0.6158211511790502,-0.7870439851361067,0.036415315755669954,1
144,28.833366700033366,-0.7643844364925914,-0.6428322158074037,0.04983147166246581,-0.6406316979051192,-0.766797433665609,0.0401587271093169,1
145,29.033366700033366,-0.7852382101723011,-0.6170851785238637,0.05105718099907818,-0.6847954510390732,-0.7275382513698829,0.041752640992464105,1
146,29.23336670003337,-0.8246348515191415,-0.5633587252082355,0.05103242490569549,-0.7216933904794575,-0.690984472234817,0.041220253136499824,1
147,29.433366700033368,-0.9366703634517775,-0.2862299895774566,-0.20179450760019382,-0.8641129901127926,-0.5027805713561873,0.02281309678835803,0
148,29.633366700033367,-0.9668702445311412,-0.01918405205981463,-0.25454646410205234,-0.9582441885936828,-0.28542794658624243,-0.017290527290851895,0
149,29.833366700033366,-0.9734883418020067,0.06487414895827513,-0.21934400646591445,-0.995141182426155,-0.08876308488709775,-0.04260448099437792,0
150,30.033366700033366,-0.953657999181772,0.18259645697167892,-0.23915466647759434,-0.998282040682113,0.03373969484862553,-0.04790198579472485,0
151,30.23336670003337,-0.9218465047624885,0.30125598303365775,-0.24381110381524473,-0.9864849570005298,0.1571933339872043,-0.04623510962083054,0
152,30.433366700033368,-0.8895300556258571,0.388166380162324,-0.24096294621775002,-0.9644019652900555,0.2617352527238379,-0.03772938942346773,0
153,30.633366700033367,-0.8348159244619142,0.4947292956515458,-0.24150630693405323,-0.9244920451953778,0.37953996049950894,-0.0355510443517369,0
154,30.833366700033366,-0.7758842366828191,0.5969107903533244,-0.20420861790553513,-0.8732209975388745,0.4868311144852006,-0.02192157444871616,0
155,31.033366700033366,-0.4631893629859585,0.8759630712678591,-0.1347008232775212,-0.7410152077662548,0.6714793097066223,-0.0034638843877999206,0
156,31.23336670003337,-0.20611047775848318,0.9596946329968259,-0.19106198563622728,-0.4996278386898849,0.8662059770148269,0.00769598530819192,0
157,31.433366700033368,-0.11566553200292834,0.9789626484613236,-0.16808812457776554,-0.2827518828925064,0.9591563095532899,0.00839920025098646,0
158,31.633366700033367,0.07380933504983617,0.9702854444187157,-0.23043076706177268,-0.1641609161947854,0.9864180787973454,-0.005528780683189899,0
159,31.833366700033366,-0.2966833814252655,0.9388055270520994,-0.17499472438476724,-0.14379297117181267,0.9894733761612612,-0.016310098393866625,0
160,32.03336670003337,-0.4108983208743924,0.8964138372889703,-0.1661469296119206,-0.2801637838546314,0.9598808506994541,-0.01170498512378138,0
161,32.23336670003337,-0.584631539437009,0.8021238914548677,-0.1216685080569857,-0.4373167883524462,0.8992943865142802,-0.004861379331662175,0
162,32.43336670003337,-0.678978693215004,0.7309527230131018,-0.0685277380319638,-0.5739003471484607,0.8187539902503803,0.01674201278092833,0
163,32.63336670003337,-0.8190198972682563,0.5648075958137561,-0.10098904688024307,-0.6670045815829923,0.7445644124280826,0.026994886421725768,0
164,32.83336670003337,-0.942314819350383,0.28821234474046187,-0.1702246326824067,-0.7736147775969368,0.6328248265840809,0.0324486477756819,0
165,33.03336670003337,-0.9777804519044215,0.12306650405570418,-0.16970569658409543,-0.905634051402195,0.421302573809619,0.048281531067656806,0
166,33.23336670003337,-0.9501121259211294,-0.1579997741719438,-0.2689293950821416,-0.9784639158203605,0.19592890413790667,0.06496329702844218,0
167,33.43336670003337,-0.9583257710372535,-0.1697094626877507,-0.22980516713096086,-0.9974651366512348,0.04020409657139277,0.05871057642547818,1
168,33.63336670003337,-0.9475471695199988,-0.2386848477607493,-0.21256506059102712,-0.9963264886783545,-0.06700851499632637,0.0533234177059957,1
169,33.83336670003337,-0.9462019653049341,-0.26999846655948323,-0.17833302809240828,-0.9907649166433234,-0.11992056489409168,0.06327667867571876,1
170,34.03336670003337,-0.9895717101665009,-0.06280121934534333,-0.12962961577851406,-0.9907190687023399,-0.11813318198370663,0.06723301439005154,1
171,34.23336670003337,-0.99065050311036,-0.021437340655842713,-0.13472943669739137,-0.9951062931094796,-0.07381402476687919,0.06568831830413378,1
172,34.43336670003337,-0.990158079742447,0.006469781867751957,-0.13980385918612379,-0.9967774911777094,-0.05275555026846539,0.060427518543649486,1
173,34.63336670003337,-0.9861299324394894,0.004633075639475152,-0.1659104907985247,-0.9968467396550011,-0.061326179268398395,0.05035550988258355,1
174,34.83336670003337,-0.9824178858435798,-0.0023558894708893842,-0.186680334688558,-0.9971449512189597,-0.06439667233896476,0.039433676600169616,1
175,35.03336670003337,-0.9642894459191114,-0.1716161609523993,-0.20172693867942723,-0.9974477161870964,-0.06306812196694632,0.03347335454818337,1
176,35.23336670003337,-0.9612911351624625,-0.18261168341820125,-0.2063306243320054,-0.996893345406015,-0.07234312711705566,0.03114690745691563,1
177,35.43336670003337,-0.9444912545539011,-0.056079536588904175,-0.32371492960191334,-0.9965904491611111,-0.07845240795095021,0.02554792217681102,1
178,35.63336670003337,-0.8785651254591648,-0.010764750625144523,-0.477501246564761,-0.9974424328962753,-0.07140103676389271,0.0032380560527475494,1
179,35.83336670003337,-0.848709626513295,0.005044922533714447,-0.5288350580476795,-0.9975824337373931,-0.05167786626828845,-0.046461662007903796,1
180,36.03336670003337,-0.8788999079615953,-0.09359650970798186,-0.4677335193842572,-0.9974824694275422,-0.04520727563560056,-0.054635386100398434,1
181,36.23336670003337,-0.9320318307931466,-0.14288004397120435,-0.3330194580248462,-0.9960646520384684,-0.07417148323799475,-0.04851597709786812,1
182,36.43336670003337,-0.9252553406536645,-0.2889164125917104,-0.2458248586433197,-0.9927624032755602,-0.11460996537659764,-0.03587988961673666,1
183,36.63336670003337,-0.9069452260387956,-0.365783581126729,-0.20893235446800487,-0.9836798309736499,-0.17922306832424886,-0.015908548522510106,1
184,36.83336670003337,-0.8686686460946769,-0.4576229942540035,-0.18972606152566707,-0.9672487909329094,-0.2538291443986645,0.0007361335933943414,1
185,37.03336670003337,-0.9589471643564673,-0.20773776121565993,-0.19304237497968146,-0.9606879987108846,-0.2776020786087643,0.003956650726212372,1
186,37.23336670003337,-0.9600284495134239,-0.196264621781222,-0.1995634594857623,-0.9630397807185533,-0.2693431655044268,0.0029393791208711666,1
187,37.37070403737071,-0.9663630735234348,-0.17182443137082604,-0.1913603274308263,-0.9650900045306818,-0.26187825283671273,0.004589536595261267,1
