,timeStamp,x_gaze,y_gaze,z_gaze,x_head,y_head,z_head,fixations_head
0,0.033366700033366704,-0.8858053040589989,0.0682232637114605,0.45901475966411076,-0.9901509751583115,-0.031122352671056983,0.1365007163250916,0
1,0.2333667000333667,-0.8917877923722006,0.039480403225423885,0.45072811221075926,-0.9929409302498516,0.014579832778556507,0.11771039678256545,0
2,0.43336670003336675,-0.8893107436819162,-0.4566416803561491,0.024592212861603784,-0.9829395346231127,-0.15397572661863657,0.10060490488620087,0
3,0.6333667000333668,-0.6140203791347583,-0.7826361618388851,0.10227224544961266,-0.8080868634188108,-0.5845348613472685,0.07290142001139946,0
4,0.8333667000333668,-0.6180647661237825,-0.7792092491208814,0.1040619573178695,-0.48721547301684565,-0.8707320963195972,0.06668357587780699,0
5,1.0333667000333666,-0.13026902279658764,-0.9902947888380688,0.048437721868262076,-0.08291385608776919,-0.9952833148665858,0.05036283964231247,0
6,1.2333667000333668,0.5097641389322066,-0.8141465123714987,0.2780395278589561,0.4334799213328869,-0.8817227490270148,0.18617237080049895,0
7,1.4333667000333667,0.8853220333287464,-0.44958523034074926,0.11865082368913289,0.7466294260444213,-0.624325295847537,0.22970072949266726,0
8,1.6333667000333667,0.9663994599507791,-0.19069100113248597,0.17236306418120217,0.8998488682307308,-0.3939355975875866,0.187314599797196,0
9,1.8333667000333667,0.9838547300033688,-0.06027025986414554,0.16851518040196584,0.9717598838261614,-0.13266850984418527,0.19514557305224353,0
10,2.033366700033367,0.9674381731187982,0.1294618024636857,0.21749258124224854,0.9711167780399493,-0.05577032893380226,0.23199541767009801,0
11,2.233366700033367,0.9428667874964634,-0.20864830141812918,0.2597462364528666,0.9464551529765213,-0.14016541000494928,0.2908200495879447,0
12,2.433366700033367,0.7508571387584775,-0.6005917985082947,0.2747781809751362,0.8779374161008698,-0.34368416487725845,0.3333272989461705,0
13,2.633366700033367,0.49071014289351667,-0.7801225780603589,0.38808802978433116,0.713735240329883,-0.5820182368530775,0.38966239064307884,0
14,2.833366700033367,0.24628891369000694,-0.5053314344021523,0.8270319899486717,0.44745194497650154,-0.7629089207860644,0.4666441208477705,0
15,3.033366700033367,0.13845160905443427,-0.35556289245375555,0.92434094438154,0.2719367594080558,-0.7491748893475624,0.6039763108381927,0
16,3.233366700033367,0.14242063529357307,-0.6837679596358571,0.7156659416361741,0.18589383926249808,-0.7201352234418161,0.668467456562138,0
17,3.433366700033367,-0.07758799020921309,-0.9427701638291659,0.3242907984646231,0.07145648307636993,-0.862298322868932,0.5013337943962921,0
18,3.633366700033367,0.01931691395641827,-0.9472243237403767,-0.3199889644187532,0.06140134845757661,-0.9974220106943881,0.037137676151795904,0
19,3.833366700033367,0.18095542937235465,-0.834691229262885,-0.5201400622642723,0.15075267020247451,-0.9375477448073722,-0.31349299614733767,0
20,4.033366700033366,0.2316965834053627,-0.7470639163073767,-0.623066768645036,0.2178407832965355,-0.8558456091049337,-0.46912011948813004,0
21,4.233366700033367,-0.03287330419907117,-0.6788035840839378,-0.733583696728489,0.15367754684680696,-0.8349069777279003,-0.5285012300235552,0
22,4.433366700033367,-0.0984712542060979,-0.6411137222304941,-0.7611022318078164,-0.12781834609673015,-0.8224798421694445,-0.5542466775958357,0
23,4.633366700033367,-0.4782602490365544,-0.5060817672182791,-0.7177383778792357,-0.49488548721250836,-0.656224552255572,-0.5696118780041479,0
24,4.833366700033367,-0.4994797231925232,-0.16098613805952836,-0.8512364357052624,-0.6835466775283301,-0.36753145029709666,-0.6306223693166088,0
25,5.033366700033366,-0.44999986798698094,0.007061604461128208,-0.893000701317829,-0.7273268288895363,-0.02928507838626488,-0.6856661492019285,0
26,5.233366700033367,-0.45769415541772795,0.2669777957847772,-0.8480795461832307,-0.6722870818403515,0.25065706061752707,-0.696563792881288,0
27,5.433366700033367,-0.2975316931636102,0.44276769712138847,-0.8458319324481773,-0.5621879880620619,0.4359123395752663,-0.7027980494315196,0
28,5.633366700033367,-0.19465292226727882,0.507565456796992,-0.839337564344209,-0.41783457486043873,0.5766667507316767,-0.702046812293715,0
29,5.833366700033367,-0.21378228922234646,0.5515126613960818,-0.806306962102315,-0.30161779029232916,0.6712054492601127,-0.677133630432504,0
30,6.033366700033366,-0.1932490994199802,0.5842675713946727,-0.7882170961035658,-0.2731222228955586,0.7149696851633789,-0.6436012745931816,0
31,6.233366700033367,-0.1776133548062734,0.6096787511720843,-0.7724929233097922,-0.2700939727173058,0.7428053184735378,-0.6126087697292696,0
32,6.433366700033367,-0.2321382284872743,0.6069499205134982,-0.7600813356894435,-0.31623424082841195,0.7386429770470082,-0.5953171065800238,0
33,6.633366700033367,-0.7051205715026527,0.5490069250009322,-0.4487720757186143,-0.420571372514627,0.7281334102886604,-0.541240664993465,0
34,6.833366700033367,-0.7643425319925379,0.49703063533517544,-0.41078101383285537,-0.5475363767660439,0.6856052953686779,-0.47973877796186254,0
35,7.033366700033366,-0.7594746112637982,0.5155355610806346,-0.3967636577447309,-0.5473675665150075,0.7099176856251502,-0.44317674438543025,0
36,7.233366700033367,0.016919583296660656,0.6323330481964973,-0.7745118745762352,-0.23720426195026112,0.8136588759691642,-0.5307479360951192,0
37,7.433366700033367,0.0003256684488208428,0.6280719384724952,-0.7781552120518529,-0.004061903305037418,0.8412401975113339,-0.5406463086275837,0
38,7.633366700033367,-0.13526189657358598,0.6416938808230056,-0.754939191358898,0.06311804155197542,0.851630877219666,-0.5203277445963316,0
39,7.833366700033367,0.3458875675164699,0.8983996945867704,-0.27062848963835534,0.15163722202910568,0.9067229610285598,-0.393522076685535,0
40,8.033366700033367,0.3708320899674351,0.9187378848804628,-0.13566230108529548,0.22493588779198542,0.9499919628331661,-0.21660821068375904,0
41,8.233366700033368,0.3806068221879631,0.9200082533775786,-0.09339839731557369,0.2696473065959099,0.9507025002388081,-0.15315053406779583,0
42,8.433366700033368,0.5992555123752326,0.6768504243465683,-0.4275117939306097,0.4755652780286777,0.8500713937620957,-0.2263101673387095,0
43,8.633366700033367,0.6690866238963977,0.618801149245916,-0.41159230728337703,0.7015050136155863,0.6705419002892293,-0.24137994081676659,0
44,8.833366700033368,0.744164426602232,0.5084264225895608,-0.4332688299342025,0.7812475747868124,0.5697509232172369,-0.2550217880551199,0
45,9.033366700033367,0.8772248759541788,0.4797552429682772,-0.017647205207196617,0.7845944144663498,0.5963529429762352,-0.16963128305766384,0
46,9.233366700033368,0.36853078125868477,0.9287097454097523,0.04102769851961933,0.6145134597505182,0.7849360246277945,-0.07904837143776558,0
47,9.433366700033368,-0.041930771245629106,0.9990592766039395,-0.011062199345515104,0.2406731177153983,0.9693826284571028,-0.04872135111784579,0
48,9.633366700033369,-0.45635582389626317,0.8894613577393797,-0.024451075321588852,-0.16552806740065357,0.9852685637182602,-0.04296878228622919,0
49,9.833366700033368,-0.6752572293623719,0.7375242798625128,0.009252610828049563,-0.5244509980127473,0.8511054137155508,-0.023889860349413306,0
50,10.033366700033367,-0.8165313222421015,0.5772722328833454,0.00577658544834786,-0.8001245935818344,0.5997736067401613,-0.008500317841282884,0
51,10.233366700033368,-0.9996516021846773,0.01860725331239172,0.01872015955532065,-0.9726946217287418,0.2319790927518942,-0.007132558165778554,0
52,10.433366700033368,-0.9923886184043151,-0.11745529106129841,0.03700114408069646,-0.9993434733443158,-0.0329059230129029,-0.01515989824462718,0
53,10.633366700033369,-0.992211889429149,-0.09962129752757726,0.07477408344045507,-0.9925198672623603,-0.12052134508580803,0.01946582821805664,0
54,10.833366700033368,-0.9860269725892452,-0.12615083331444454,0.10879695115470657,-0.9845652283706026,-0.16156200666907924,0.06729806152188647,1
55,11.033366700033367,-0.8809338554457942,-0.4534570961144593,0.13539647082863945,-0.9728509649471528,-0.19789876465970352,0.11998782833086367,1
56,11.233366700033368,-0.8611315483819023,-0.4898579795865206,0.13598388219491284,-0.956934436637242,-0.256632048004427,0.13570731710124567,1
57,11.433366700033368,-0.9801707625811841,-0.1978369693180446,-0.0112164946427692,-0.9577700586708517,-0.2606820608651576,0.12133168529583693,1
58,11.633366700033369,-0.9974330477116996,0.04104634217111001,0.058672933512163065,-0.9709774506529005,-0.20308457376066824,0.12633070182675943,1
59,11.833366700033368,-0.9958472604622198,0.07566062482269999,0.05063302954920541,-0.9833315957145563,-0.12526192540572637,0.13178931259064647,1
60,12.033366700033367,-0.9958690155997822,0.08399059531507234,0.03450338631121169,-0.9891181363887454,-0.0807317046145329,0.12299473215096446,1
61,12.233366700033368,-0.9959008777175954,0.09026464479430987,0.005808240824936131,-0.9917892115950685,-0.06001518209143045,0.11292624886254352,1
62,12.433366700033368,-0.9949962573081954,0.0003467056032037708,0.09991159961640429,-0.9921691950768208,-0.05146857990954965,0.11380366260673919,1
63,12.633366700033369,-0.997711185587149,-0.007331304483353884,0.06722084593976804,-0.9913778211029469,-0.05047771713024067,0.1209215278537819,1
64,12.833366700033368,-0.9890001312899457,-0.13809775417275194,0.052988211905219955,-0.992029338803999,-0.052103362073487855,0.11473025151519381,1
65,13.033366700033367,-0.9890632482216831,-0.13450426423060702,0.060518541959936056,-0.9923118179655489,-0.04799009673397875,0.11407982530391116,1
66,13.233366700033368,-0.9974929078090307,0.057527138383796764,-0.041213192306057286,-0.9933386503016357,-0.040836079206865106,0.10775314590273302,1
67,13.433366700033368,-0.9965226275543454,0.0666823306949065,-0.04996118038316143,-0.9944982768796916,-0.032360301010282096,0.0996292537453148,1
68,13.633366700033369,-0.9958388462316086,0.07140923767279354,-0.05661901722114966,-0.9953590388699028,-0.027082205871606445,0.09234142009472911,1
69,13.833366700033368,-0.9934256703642323,-0.11341231633450198,-0.015591150214746755,-0.9949744344931566,-0.031379252817222085,0.09508531536286903,1
70,14.033366700033367,-0.9919893244545009,-0.12606824357810548,-0.007998632972858568,-0.9946714679818077,-0.03672418235127774,0.09633278369042474,1
71,14.233366700033368,-0.9899712993792739,-0.1412682305767234,-0.00033680117854905376,-0.9947887296439711,-0.036900460726414085,0.09504598556232073,1
72,14.433366700033368,-0.9977272346029179,0.03708549453424862,-0.05625861202309065,-0.9950647372412768,-0.035934548443279556,0.09249257768668091,1
73,14.633366700033369,-0.996564530867885,0.04181030585393225,-0.07149149698022107,-0.9964783255297309,-0.030851759834990798,0.0779686838708203,1
74,14.833366700033368,-0.9417013297276485,-0.03975521163708752,-0.33409299414514776,-0.9971518463413556,-0.031130574649716244,0.0686955796249256,1
75,15.033366700033367,-0.9386467232688689,-0.0402887643230272,-0.342518823374627,-0.9977132117212696,-0.02978899182843551,0.060670941336647036,1
76,15.233366700033368,-0.9967235802934167,0.06400977749951522,-0.04944545349711509,-0.9979260029418258,-0.031365160004483444,0.05621316029583037,1
77,15.433366700033368,-0.997528586856703,0.05920866804217608,-0.03782924837134139,-0.9977452038678783,-0.0341241211297623,0.057793187451181935,1
78,15.633366700033369,-0.9993745332091641,0.02237906627689048,0.0273810110394049,-0.997292566320382,-0.036341899578565734,0.06392811194715443,1
79,15.833366700033368,-0.9992115925020197,0.022819423056442842,0.032487956860174354,-0.9966773703426962,-0.036990416674342774,0.07256671772256797,1
80,16.033366700033366,-0.9998890585573701,0.010057646921062776,0.010987006674595465,-0.9965990786755305,-0.03681426434355709,0.07372235972842027,1
81,16.233366700033365,-0.9998784094177755,-0.008186970326714553,-0.013271770682490682,-0.9966282279432244,-0.04134608838413569,0.07087084197383187,1
82,16.433366700033368,-0.9685199658837269,-0.0047278705948921715,-0.24889098602444867,-0.9968173477262623,-0.04654942227165583,0.06471728175808693,1
83,16.633366700033367,-0.9625424231915521,-0.009443185288265512,-0.2709666212066464,-0.9978136844325849,-0.048326305631684066,0.045082361773350337,1
84,16.833366700033366,-0.9412409510462804,-0.03271325158653814,-0.33614775805310654,-0.9981757667934167,-0.06034005675616077,0.002053323412854954,1
85,17.033366700033366,-0.8717099336450054,-0.092698948716496,-0.48117428910060966,-0.9836205210236324,-0.09636795385859086,-0.15232822486429298,0
86,17.233366700033365,-0.7372399551815347,-0.2198835875588209,-0.6388493221458339,-0.8998728436853607,-0.19040573885144577,-0.39239587129588593,0
87,17.433366700033368,-0.719854643244429,-0.4235280916577962,-0.5499393131756823,-0.827901935373601,-0.32096377751050714,-0.45995721423935915,0
88,17.633366700033367,-0.6583211522298151,-0.5069275051358468,-0.5564510446243718,-0.7618177061550679,-0.442268488501871,-0.4733205749456714,0
89,17.833366700033366,-0.6276295635789039,-0.5291947221604439,-0.5709939377605383,-0.6912274521945265,-0.5340037026420323,-0.48687231888582855,0
90,18.033366700033366,-0.32480992981794243,-0.7089361700980884,-0.6260255715370721,-0.5570900611124805,-0.6652593250302129,-0.4970721217992807,0
91,18.233366700033365,-0.016903987706634316,-0.9274444624362488,-0.3735786721641791,-0.32331616561379944,-0.8408098500279144,-0.43417214690584005,0
92,18.433366700033368,0.1301033287454404,-0.9432626586370242,-0.305497431528268,-0.04726943222223029,-0.9460903982992449,-0.32043495287400314,0
93,18.633366700033367,0.42333716640196273,-0.8949604139904059,-0.1408243620006082,0.17824800165708005,-0.9594261583038259,-0.21846989876781614,0
94,18.833366700033366,0.3949897361880303,-0.9054731608816152,-0.1552464596348879,0.33588629144270415,-0.9311989986095075,-0.14159387066366166,0
95,19.033366700033366,0.423980202065279,-0.8988856408853707,-0.11065890324226968,0.3038444999315784,-0.945982119981999,-0.11312094649397177,0
96,19.23336670003337,0.12576369877249066,-0.9866139070836655,-0.10380987631322147,0.1546947293135455,-0.9811466895458185,-0.11584780669434472,0
97,19.433366700033368,0.015091529690192784,-0.9953038383263829,-0.09561650037718239,-0.010940212719665887,-0.9919615071430284,-0.12606617346528964,0
98,19.633366700033367,-0.3035428479223347,-0.9502281659713785,-0.07020094066227985,-0.17692812023517462,-0.9774069059309475,-0.1156381446951649,0
99,19.833366700033366,-0.54882318704294,-0.8296930239609676,-0.10199311425059525,-0.3444789164051474,-0.9327911443682434,-0.10599508073735656,0
100,20.033366700033366,-0.7693616772460071,-0.6277715947827397,-0.11826002861975946,-0.5331488765775211,-0.8385293063102066,-0.11234268050501094,0
101,20.23336670003337,-0.7780939184193671,-0.620577190889663,-0.09723067554167235,-0.7067765346980419,-0.6986560700590088,-0.11111537143855989,0
102,20.433366700033368,-0.9083450517899274,-0.4097455646889672,-0.08377254387013423,-0.8178279373019344,-0.5614382367103201,-0.12627181525609865,0
103,20.633366700033367,-0.8904116431392386,-0.19235924659103903,-0.4125106374543686,-0.8817435126515765,-0.4283713457270464,-0.19755092522400067,0
104,20.833366700033366,-0.8854839640618208,-0.1386784067645846,-0.44349345980138277,-0.9120417233193581,-0.3240322801308915,-0.2513622413128739,0
105,21.033366700033366,-0.9387435886303617,0.03831252651994584,-0.3424801090823366,-0.9345537162665356,-0.2511785256703771,-0.2520291642934681,0
106,21.23336670003337,-0.9375664367893685,-0.0924361229481961,-0.3352979865438999,-0.9506400704775702,-0.1947605933835502,-0.2415611054521981,0
107,21.433366700033368,-0.9393219549481582,-0.08887666929853842,-0.3313234108945052,-0.9632001795691141,-0.155182099248933,-0.21946282179613255,0
108,21.633366700033367,-0.9436249790690925,0.04017430415299641,-0.32856951191898076,-0.9738093230531423,-0.10712602052390133,-0.200547794955451,0
109,21.833366700033366,-0.9454729101513741,0.05862732864067227,-0.320380730547813,-0.9816920981860557,-0.06138360709714551,-0.18031272040209115,0
110,22.033366700033366,-0.9249161403792283,0.21835533048027458,-0.3112090662510357,-0.9864493135141099,-0.018725018383867476,-0.1629942500644268,0
111,22.23336670003337,-0.9199724256011251,0.23931431712751802,-0.31045030802267287,-0.9877102664474245,0.02473675060834555,-0.15432602736964993,0
112,22.433366700033368,-0.9090289879744302,0.2808221787386685,-0.30790453544995194,-0.9852357358614799,0.08259654408948332,-0.14996118059672014,0
113,22.633366700033367,-0.8874480214069167,0.3651090079742225,-0.2813030778307052,-0.9762249684827347,0.16427813098945498,-0.1414125404251522,0
114,22.833366700033366,-0.852771589193369,0.45491122955067065,-0.2565860282503963,-0.9569907133669298,0.2555945820196956,-0.13725955038405216,0
115,23.033366700033366,-0.7867017838823109,0.5786833080825684,-0.21500216785652448,-0.927146420233306,0.3519534626284898,-0.12856234126828198,0
116,23.23336670003337,-0.6875317426041216,0.7260677990483548,-0.011209553818865192,-0.8708958584350052,0.48060078766125114,-0.10277785101927774,0
117,23.433366700033368,-0.6833860966683313,0.726542522814557,0.07155002042404135,-0.7792385335930585,0.6263147179973133,-0.02274163106916502,0
118,23.633366700033367,-0.3520873413690855,0.9356522132357221,-0.024278383692992886,-0.6285410863837159,0.7775193606745969,0.019993661589231194,0
119,23.833366700033366,-0.32448532348834874,0.9458719239630453,-0.005964754740034815,-0.4507856242567295,0.8924253301344781,0.019218509251183572,0
120,24.033366700033366,0.0028004036199411053,0.9986803121875314,-0.05128149557667692,-0.32204263701109165,0.9467240099473703,-0.0014795053613617611,0
121,24.23336670003337,-0.03642627731414899,0.9984595119037514,-0.04185366662498905,-0.3273638352631321,0.9448856256197316,-0.004906511899698263,0
122,24.433366700033368,-0.07672820442060546,0.9963291434589101,-0.037960776346440316,-0.35535966551056486,0.9347223868469862,-0.003683429827368044,0
123,24.633366700033367,-0.7390755206325923,0.6667593907477454,-0.09591292744650168,-0.47830718334172384,0.878187565111635,0.0029730198460460847,0
124,24.833366700033366,-0.7755291206578068,0.6258503035531674,-0.08286121260359028,-0.6920259591235536,0.7218328054700575,-0.007581084774106142,0
125,25.033366700033366,-0.9327639896457378,0.2683849085273372,-0.24066757258704152,-0.8649530340933326,0.5004751323900689,-0.037160337348860206,0
126,25.23336670003337,-0.9333193672959664,0.15996594745266157,-0.321443392039452,-0.9684573755009922,0.2357927462561123,-0.08057352326124793,0
127,25.433366700033368,-0.9174631920646066,-0.08799484181867448,-0.3879667498896385,-0.9839164699250846,-0.09418161595335311,-0.15178340958937164,0
128,25.633366700033367,-0.7977888754545814,-0.44508790739855103,-0.4067304572914268,-0.9009418845616941,-0.3897990340426481,-0.19068412021414274,0
129,25.833366700033366,-0.6046743156780364,-0.6430764239791492,-0.4699166786585555,-0.7608862307070872,-0.6188667429714361,-0.19507972309875754,0
130,26.033366700033366,-0.5885638752900544,-0.6488590587910972,-0.48225977079607735,-0.6116777687477835,-0.7688126764550711,-0.18648693182559267,0
131,26.23336670003337,-0.4006384871753923,-0.8906811036256852,-0.21488595635346797,-0.45368187998826054,-0.8770877500989896,-0.15776511146831473,0
132,26.433366700033368,-0.3352467482868967,-0.923907832751381,-0.18440155732452038,-0.3627466370501832,-0.9214303682696147,-0.13921549389096444,0
133,26.633366700033367,0.025345477685552342,-0.99363567687607,-0.10975312478433275,-0.2539398836897541,-0.9585132142691891,-0.12948727174120978,0
134,26.833366700033366,0.10186846278301787,-0.9767650731328443,-0.1885545231438759,-0.023241688608725608,-0.994633979913615,-0.10081205241347894,0
135,27.033366700033366,0.1340967231566066,-0.8210548592603721,-0.5548756499645586,0.11277909906735128,-0.9791837682053669,-0.16876025271578265,0
136,27.23336670003337,0.16299348417503412,-0.76742215700568,-0.6200777024319072,0.15808786361138993,-0.9531578988818259,-0.2578725405660125,0
137,27.433366700033368,0.2031063306228213,-0.7668759635491956,-0.6088095556012784,0.21531063495875657,-0.9395177353786949,-0.26636019857055604,0
138,27.633366700033367,0.3786439876634361,-0.8559770856951157,-0.35203971277574403,0.26863571218494914,-0.9369439063856156,-0.22354187622400512,1
139,27.833366700033366,0.4059438348389997,-0.8438871148598589,-0.35080498903195584,0.30729326046932404,-0.9275476739921967,-0.21266444117858097,1
140,28.033366700033366,0.3319120192456924,-0.8500289690350167,-0.409005089554536,0.32710284073388923,-0.9229268813318406,-0.20300173225591642,1
141,28.23336670003337,0.40172253976245087,-0.8982041025904627,-0.1784611754317108,0.3392129285849098,-0.9319307326873726,-0.1282173878755373,1
142,28.433366700033368,0.41763860038855555,-0.8923179773266579,-0.17130857189630205,0.35906844167874247,-0.9277150544122339,-0.10205210437470556,1
143,28.633366700033367,0.37682726351020074,-0.9123859892150143,-0.15985312058121992,0.32478239153711735,-0.9393520977751448,-0.11015459387999108,1
144,28.833366700033366,-0.008570008084775094,-0.9947857289267501,-0.10162631787633386,0.2545356198481197,-0.9602933762976584,-0.11422893533329408,1
145,29.033366700033366,-0.08292678326947406,-0.9895475866651013,-0.11797763492226568,0.14511266876499457,-0.9828466599345894,-0.11381896335550876,0
146,29.23336670003337,-0.22486330925310472,-0.9398132024245737,-0.2572695798189328,-0.002082849416808419,-0.9913939193928569,-0.13089598286111334,0
147,29.433366700033368,-0.2949118434507682,-0.8323487609321452,-0.4692787495371941,-0.15604732040740554,-0.9723473741440859,-0.1737521734792674,0
148,29.633366700033367,-0.5101529618431835,-0.7005460877893614,-0.49897809010581606,-0.3294782308811624,-0.9144201317518031,-0.23511681782134375,0
149,29.833366700033366,-0.5346668417693582,-0.6763496767758488,-0.5066384144906362,-0.5477808989355779,-0.7835456361521356,-0.29324447621102095,0
150,30.033366700033366,-0.8227143276830287,-0.35825316943846813,-0.44135677361104897,-0.7382461859381105,-0.6053790604087435,-0.29750422209854405,0
151,30.23336670003337,-0.9037565863125171,-0.05058570821552299,-0.42504719599249197,-0.8725417458331024,-0.39375673153542157,-0.28918253430845936,0
152,30.433366700033368,-0.9120052150649784,-0.026675694878342263,-0.4093102673975333,-0.9448456227807822,-0.18873121538229198,-0.26767009069434505,0
153,30.633366700033367,-0.9749282751947594,0.10566312775194775,-0.19583197302648891,-0.9712716874472509,-0.06954667145324654,-0.227584203435002,1
154,30.833366700033366,-0.9767664032889409,0.11627114740026802,-0.18002336983906048,-0.9821478899593566,-0.009011489584266143,-0.18789442595206557,1
155,31.033366700033366,-0.9851590528930669,0.10383887307454806,-0.1366716098589733,-0.9872819262401039,0.0012962429070270517,-0.15897395344507184,1
156,31.23336670003337,-0.9132464084683999,0.054430693719098984,-0.4037552439298172,-0.9854896719602811,-0.016693249565784454,-0.168912527299049,1
157,31.433366700033368,-0.8684396217628458,-0.14290132030648695,-0.47475450077599957,-0.981047850547791,-0.0443818536950836,-0.18861433136998798,1
158,31.633366700033367,-0.8489950476145102,-0.18599312948579677,-0.49458463877289544,-0.9735885055812401,-0.08254579976103579,-0.2128652455002894,1
159,31.833366700033366,-0.8200459099846281,-0.050138178410728595,-0.5700972448478748,-0.9624428187224261,-0.1365870975823707,-0.23462264482282033,1
160,32.03336670003337,-0.8104016561415831,-0.06410956672238322,-0.5823565223964164,-0.9534458300551834,-0.1679144590399798,-0.25049108486270305,1
161,32.23336670003337,-0.8074026863616179,-0.0544198893998524,-0.5874856404149387,-0.9517392903306237,-0.16806242936921395,-0.25680214772364907,1
162,32.43336670003337,-0.811532470637637,-0.02950859038973064,-0.5835617295487979,-0.9548991261864546,-0.15618566293903954,-0.25253454714283874,1
163,32.63336670003337,-0.8355821478151838,-0.20508278928034837,-0.5096503936950866,-0.9593829877733802,-0.13794865204663267,-0.2460781424050895,1
164,32.83336670003337,-0.8362036881208481,-0.2431688178029156,-0.49156110303951456,-0.9625596247029893,-0.12293139319603899,-0.2415923042203982,1
165,33.03336670003337,-0.972675728968129,-0.07719845793217729,-0.21895735742196978,-0.9703097661492303,-0.10467172802930642,-0.21804308534504224,1
166,33.23336670003337,-0.9895656949341333,0.08328057414499715,-0.11757585372688409,-0.9870002657974675,-0.063488854116494,-0.14764701391732743,1
167,33.43336670003337,-0.9859838925047808,0.13693107025676726,-0.09531865357555944,-0.9953833158324532,0.02706021561563968,-0.09208582569117933,0
168,33.63336670003337,-0.9587680548512805,0.2227281725003672,-0.1765105610759287,-0.9866384040321865,0.14143707349369597,-0.08087158914204011,0
169,33.83336670003337,-0.9124841002489261,0.3515992469783689,-0.2091667667607648,-0.957274288381421,0.27208895607358513,-0.0979466017104764,0
170,34.03336670003337,-0.9652704676891289,0.07585251942107847,-0.24999863900566663,-0.9380469845162128,0.3231925658619849,-0.12495767368027871,0
171,34.23336670003337,-0.9632022784147215,-0.07102361168420596,-0.2592238751350289,-0.9773799674219885,0.15749198877978848,-0.14115478295963022,0
172,34.43336670003337,-0.8904426488131287,-0.4196903460615913,-0.17598835926663195,-0.9706052923416458,-0.20133758864729265,-0.13186562052362957,0
173,34.63336670003337,-0.6558522351231573,-0.7247896429846188,-0.21103985193841424,-0.8248894103674057,-0.549377124882319,-0.1331999824314955,0
174,34.83336670003337,-0.29739758464731236,-0.9042938278737961,-0.3062798548963061,-0.5805372278535086,-0.7994330765069441,-0.15454217308814458,0
175,35.03336670003337,-0.16508826120965703,-0.9244532536153143,-0.34370343014120747,-0.2564239822963052,-0.9498812197315574,-0.17880830435019918,0
176,35.23336670003337,0.17180955894991012,-0.874897079922303,-0.4528096454326746,0.05120901720723409,-0.9746393487810544,-0.21784346757319115,0
177,35.43336670003337,0.5098680570288793,-0.7744527098106847,-0.3745097658118986,0.27812053460429714,-0.9332294940274956,-0.22744599294910547,0
178,35.63336670003337,0.49405126255569737,-0.7805382576803314,-0.38297960554639776,0.4401606857246972,-0.8688936709367373,-0.2264560870200784,0
179,35.83336670003337,0.6736241218796764,-0.5871415553949344,-0.448882319043925,0.5650819541580451,-0.7950698662092511,-0.22033223307298636,0
180,36.03336670003337,0.6701048862583479,-0.592627184630863,-0.4469367532987012,0.6027321435716311,-0.7689772489410523,-0.2130444876465888,0
181,36.23336670003337,0.6438258299990576,-0.7506084195337093,-0.14857759303182833,0.5936626505232707,-0.7831126517159946,-0.18520051861706086,0
182,36.43336670003337,0.5157363034729192,-0.8350399487219827,-0.19163598127303094,0.5433094152548414,-0.8244723779387927,-0.15830406599767183,0
183,36.63336670003337,0.4180407936890462,-0.8812520363066354,-0.22053739664111488,0.4436740141078556,-0.8807867734644207,-0.16543285313249484,0
184,36.83336670003337,0.14537876873882782,-0.8820196377687726,-0.44822580491335645,0.31266138993669085,-0.9316446962092594,-0.1851513307216926,0
185,37.03336670003337,0.18233457541079995,-0.8665016481363085,-0.46468160754093146,0.2022712062590165,-0.9577449811225427,-0.20447716315790135,0
186,37.23336670003337,-0.18719666880946473,-0.9120844738374468,-0.36477297017639254,0.06620497464562902,-0.97496462336379,-0.21227549204106158,1
187,37.37070403737071,-0.15976293422189108,-0.9154682610522569,-0.3693151335306598,-0.08012144583639991,-0.9732297595644566,-0.2154167797902365,1
