,timeStamp,x_gaze,y_gaze,z_gaze,x_head,y_head,z_head,fixations_head
0,0.03333333333333333,-0.995405269093407,-0.051103811355573674,0.08097376566528436,-0.9932347638099095,0.1134596885895364,0.024730609063243328,0
1,0.23333333333333334,-0.9988952358758747,-0.04273777181238351,0.019539462761116736,-0.9997014790318348,0.01644218219746546,-0.018072284475048165,0
2,0.43333333333333335,-0.7962459139717923,-0.10660134990237032,-0.5955070080882486,-0.9619591071939814,-0.06710935849461015,-0.26482260116727285,0
3,0.6333333333333334,-0.6025892664143093,-0.10252266307930001,-0.7914387402429789,-0.8320043070127248,-0.18828661749690356,-0.5218399973017119,0
4,0.8333333333333334,-0.6027399252046091,-0.06329627577247458,-0.7954232609357594,-0.7860539676209721,-0.1849287409933589,-0.5898478793230838,0
5,1.0333333333333334,-0.4441515763980056,-0.13089270554610777,-0.8863388047569546,-0.7068289563979592,-0.13890663760051086,-0.6936121195797346,0
6,1.2333333333333336,-0.4529012991597328,-0.13516476101979602,-0.8812552981956409,-0.603934320703578,-0.15160396081113744,-0.7824829553048955,0
7,1.4333333333333336,-0.41964328173551746,-0.14474055679303938,-0.8960745991899816,-0.5757522302479249,-0.1979068311765693,-0.7933109450513017,0
8,1.6333333333333335,-0.796723309796178,-0.21984533721558286,-0.5629387136553946,-0.5914781771437103,-0.29606104797133015,-0.7500009478906485,0
9,1.8333333333333335,-0.9440055436643295,-0.1338314951373707,-0.3015670148413287,-0.7860056623415791,-0.3856789043752282,-0.4831634107493024,0
10,2.033333333333333,-0.916704367568893,-0.15533175319822926,-0.36813740495700875,-0.7929042931890407,-0.42728391772296803,-0.43443208387238186,0
11,2.2333333333333334,-0.7476800587717759,-0.21810885315229644,-0.6272185088879505,-0.7457376804808801,-0.5453877578244115,-0.38265847112831364,0
12,2.4333333333333336,-0.5001423702391932,-0.8657949543141022,0.016022065277720647,-0.5234422383413053,-0.8434072656470705,-0.12112971301037584,0
13,2.6333333333333333,-0.15818268180706224,-0.9856827727935977,-0.05837559930527922,-0.28820333941898374,-0.955164723123441,-0.06781730493219734,0
14,2.8333333333333335,0.3000434600687459,-0.9539253846693934,0.0005315574519551392,-0.09282401701101195,-0.9956824742364321,0.00033520792986055164,0
15,3.033333333333333,0.45930820409526046,-0.8862372387984125,0.06016253167672229,0.29278278016479775,-0.9537668641395273,0.06787497704179475,0
16,3.2333333333333334,0.7175183338873463,-0.6926352658297417,0.07364665005613029,0.5291308465772336,-0.8285695609485664,0.18301101024244437,0
17,3.4333333333333336,0.8255873272744925,-0.5641505328500018,-0.011821223659961534,0.6305091871257433,-0.7688527910739679,0.10641217321248633,0
18,3.6333333333333333,0.7945716196684547,-0.4583889933364767,0.398165131579123,0.7213110513971073,-0.6777562719471959,0.14267726857715876,0
19,3.8333333333333335,0.7913661374376808,-0.3621904100199946,0.4925015161464113,0.7736810883918397,-0.5352422694501331,0.3390181211361559,0
20,4.033333333333333,0.620803975122912,-0.32789850209977955,0.7120990077175449,0.7393891519114111,-0.4111236256807163,0.5331801257013113,0
21,4.233333333333333,0.5891775693256027,-0.11118631104525105,0.8003170596955455,0.7108970335979464,-0.32924236796794754,0.6214699274755774,0
22,4.433333333333334,0.5653958868466439,-0.16331097461837263,0.808490579231505,0.6828753452045682,-0.3608172186172113,0.635210357016541,0
23,4.633333333333334,0.5529974224595289,-0.6671854559441374,0.499056527990298,0.48706658175628936,-0.810550443811883,0.32522933904032036,0
24,4.833333333333334,-0.6530218275330947,-0.46440129343687986,-0.5982423684590472,-0.4438767256455684,-0.7350080602402971,-0.5125783879680892,0
25,5.033333333333333,-0.4956935937497294,0.15968164469542603,-0.8536917672455571,-0.7206614417472833,-0.0829716440692753,-0.6883042878401737,0
26,5.233333333333333,-0.7293777922340954,0.18192299848748936,-0.6594786265050887,-0.6723806620139705,0.3221944125977932,-0.6664045361793526,0
27,5.433333333333334,-0.28285776166963866,0.5593975281065899,-0.7791443333628751,-0.5165994274203074,0.5056046298466108,-0.6910057813554692,0
28,5.633333333333334,-0.31404326025383256,0.5816359458287779,-0.7503842063963011,-0.4637096271650797,0.5956765156184252,-0.6558527810531227,0
29,5.833333333333334,-0.08184595927960969,0.3715548122714769,-0.9247963345664322,-0.29495994550463356,0.5568835447890009,-0.7764530559480981,0
30,6.033333333333333,0.19488569341291637,0.2516056357865933,-0.9480053641954728,-0.06114275054227622,0.5987364189684545,-0.7986089560335251,0
31,6.233333333333333,0.49804948526172943,0.27416863408506664,-0.8226653452737966,0.2712392160387988,0.6210361975642971,-0.7353525202224697,0
32,6.433333333333334,0.6415836359244693,0.35058054588447535,-0.6822490153611669,0.5352190046160583,0.4975682593809312,-0.6826173484130231,0
33,6.633333333333334,0.6089204855421035,0.5012628530560432,-0.6147775162067043,0.619629061017757,0.44146679012475326,-0.6489737282503812,0
34,6.833333333333334,0.6270938106673235,0.46471812525573314,-0.6251323193384996,0.6436222610401537,0.3626605522454763,-0.6739641748183403,0
35,7.033333333333333,0.4020549869799212,0.005390698654054517,-0.9155996547687189,0.5921812550857385,0.22823141957459664,-0.7728077252745628,0
36,7.233333333333333,0.4311071901535489,0.03991468239151339,-0.9014174442107811,0.6070286482023081,0.2213086308861552,-0.7632422355693993,0
37,7.433333333333334,0.31464088080961605,-0.24358713106759528,-0.9174237983078526,0.6133509392132375,0.06349470527958531,-0.7872541189271084,0
38,7.633333333333334,0.3026537372738725,-0.4355519713249561,-0.8477589253963078,0.6037282066390156,-0.20463076073263822,-0.7704793989915759,0
39,7.833333333333334,0.3769290504461932,-0.2573694191087207,-0.889767089207828,0.5861015871603219,-0.24801130272165547,-0.7713464353002865,0
40,8.033333333333333,0.5076364916861291,-0.0402866729921023,-0.8606289422787421,0.6172130005353911,-0.21339503911857807,-0.7573048720625535,0
41,8.233333333333334,0.523035207283352,0.03156528898459553,-0.8517263671352323,0.655545156577765,-0.0854657182474902,-0.7503040441660129,0
42,8.433333333333334,0.6500909225974344,0.03721366717422004,-0.7589446194103119,0.7228625749905486,0.042833624031630546,-0.6896629454525964,0
43,8.633333333333333,0.9482448319482677,0.05558193774363997,-0.31263778863097097,0.9684013098447021,0.1501884494821538,-0.1991038240044929,0
44,8.833333333333334,0.9903228915067941,0.13315382446415425,-0.03912326147181143,0.9694195704535721,0.20136767099896505,-0.1402738660551729,0
45,9.033333333333333,0.6307128941926636,0.07722360952710355,-0.77216433434258,0.7342085585423445,0.15288988319061375,-0.6614850536339677,1
46,9.233333333333334,0.4512046775020163,-0.05900410294769253,-0.8904677730472,0.6797858552921656,0.10282940101194557,-0.726166169159803,1
47,9.433333333333334,0.4688821459391509,-0.07360611784235832,-0.8801884301873514,0.665532345711626,0.062408456548186164,-0.7437552563598153,1
48,9.633333333333335,0.512179730267174,-0.04982926547444775,-0.8574316113870086,0.6678772692302176,0.07848515323496025,-0.74012163457588,1
49,9.833333333333334,0.5257836114423727,-0.043587215005771576,-0.8495008820634954,0.6616324999025519,0.08198254856659164,-0.7453330106759168,1
50,10.033333333333333,0.5263980881496826,-0.04397948393797045,-0.8491000281385633,0.6602565231392081,0.09296805608183675,-0.7452638889685242,1
51,10.233333333333334,0.5283260467847471,-0.05184754588113569,-0.8474570315213067,0.6602092274382785,0.0921619727715616,-0.7454058939800551,1
52,10.433333333333334,0.5266231572875353,-0.050812947235260864,-0.8485788676379906,0.6547477771693935,0.10135380521227105,-0.7490211976044012,1
53,10.633333333333335,0.4648949514333452,0.4209297107108181,-0.7789036286811707,0.6442834108892808,0.13266283069982024,-0.7531928437017875,1
54,10.833333333333334,0.6007368091113006,0.5368693713781486,-0.5923567879705648,0.6471398496753499,0.18414761334138952,-0.7397970474818318,1
55,11.033333333333333,0.6045692660187475,0.5534739579857985,-0.572854763807623,0.6551136720172865,0.2176424825375627,-0.7235038538466216,1
56,11.233333333333334,0.5922133194421962,0.60120868028015,-0.5364993075774245,0.6653440809023863,0.289289511721861,-0.6882069691712563,0
57,11.433333333333334,0.587311155455939,0.6147514001896763,-0.5264468849198773,0.6678951847373451,0.3211040328209355,-0.6714225363441412,0
58,11.633333333333335,0.58134747512827,0.6069702263481315,-0.5418692254491698,0.6611641557111451,0.32680615945131625,-0.6753219183081872,0
59,11.833333333333334,0.5468254860215476,0.6533811430118975,-0.5235216994488044,0.6469145400081466,0.39941536027833946,-0.6495913699394201,1
60,12.033333333333333,0.5346111353576426,0.5944069289119451,-0.6007256751738536,0.5909836453880359,0.491630457886625,-0.6395606490099713,1
61,12.233333333333334,0.5356181831056477,0.5852370921781548,-0.6087780448287066,0.5797285437699181,0.4962541990315021,-0.6462558204627737,1
62,12.433333333333334,0.540505642518442,0.5761274925593403,-0.6131319292966348,0.5752801304989864,0.49164266642043736,-0.6537126738927982,1
63,12.633333333333335,0.5454916727565176,0.5382207363272004,-0.6424618852046421,0.5788595278953668,0.4703333145387231,-0.6661142696262942,1
64,12.833333333333334,0.5608213045490701,0.52177827926756,-0.6428272642385847,0.5924239635485575,0.4542827364280475,-0.6653277709496743,1
65,13.033333333333333,0.5759253043347218,0.528576008670442,-0.6236324613784814,0.6026202519106456,0.45292859987158784,-0.6570422478087031,1
66,13.233333333333334,0.5747876741908438,0.5443817837522408,-0.6109563021338015,0.6022812905463044,0.462941028100307,-0.6503405658263283,1
67,13.433333333333334,0.5767842442180635,0.5495053629853326,-0.6044532998273362,0.6058761460289579,0.4632985414210963,-0.6467368531251194,1
68,13.633333333333335,0.5756867260796762,0.5525342221054408,-0.6027360341127777,0.6071658957206958,0.46307741731807756,-0.6456848152494407,1
69,13.833333333333334,0.5689992144101292,0.5536714443811555,-0.608019593169119,0.6060455576611136,0.46835948377967024,-0.6429215939699576,1
70,14.033333333333333,0.558345070543777,0.5533083512803134,-0.6181429046773296,0.601376713960314,0.47276763613334927,-0.644078263979759,1
71,14.233333333333334,0.5507798156770152,0.5504117253681164,-0.627446035305098,0.5975463686669775,0.47517656385594104,-0.6458680751167142,1
72,14.433333333333334,0.5543328744844427,0.5478707566751932,-0.6265402606744173,0.5974379471993463,0.4743640440413431,-0.6465652735547851,1
73,14.633333333333335,0.5499317010059025,0.5509429666226118,-0.6277236428220868,0.5881594764106877,0.47973738651662384,-0.6510917525867651,1
74,14.833333333333334,0.535597392055999,0.5770128488097929,-0.6165967936433179,0.5729348055580209,0.5113604875206088,-0.6405124201628557,1
75,15.033333333333333,0.5220763713874425,0.5840015542199822,-0.6215934741513671,0.5595702154182423,0.5186924367544246,-0.6464049273253871,1
76,15.233333333333334,0.4062090902729235,0.42743680907168763,-0.8076459306096069,0.5553658225285097,0.48898738369940514,-0.6726515752973771,1
77,15.433333333333334,0.3764954519292957,0.4018736414993076,-0.8347147722094307,0.5317172123392705,0.45811003469480194,-0.7123285774234266,1
78,15.633333333333335,0.5407530020001956,0.166835383048381,-0.8244708277379355,0.5720822448808245,0.4173772779840032,-0.7060581512274896,1
79,15.833333333333334,0.9241789593438378,0.1887911534963501,-0.33204088824670147,0.6995780654170093,0.37344130258404995,-0.6092061423785247,0
80,16.033333333333335,0.9180292979951505,0.10543972229633986,-0.3822364098102136,0.760585727208774,0.2742542548908677,-0.5884674631961868,0
81,16.233333333333334,0.8714485086720671,0.18251641003853303,-0.4552639419060954,0.82136760291333,0.21429660434962602,-0.5286134941983892,0
82,16.433333333333337,0.8987369467989911,0.12728186326945115,-0.4196084219139131,0.8376743601700163,0.16974752728085762,-0.5191218000583181,0
83,16.633333333333336,0.886840815155201,0.11595711682084228,-0.44728885033438515,0.8175653064889188,0.14614653434684102,-0.5569812924363692,0
84,16.833333333333336,0.7122429395125234,-0.09469627461521377,-0.6955160750755943,0.705551844905502,0.06260794126853685,-0.705887271340515,0
85,17.033333333333335,0.4785301570997956,-0.23974367700103277,-0.8447081496493742,0.6647428535847708,-0.024630250453743813,-0.7466661163937747,0
86,17.233333333333334,0.324055655154529,-0.35405471774752495,-0.8772874039920383,0.6406555729275812,-0.07920956867084668,-0.7637318122926471,0
87,17.433333333333337,0.33765542015094835,-0.2819064560050693,-0.8980632312400664,0.6465526464238542,-0.18509880576117263,-0.740073042008759,0
88,17.633333333333336,0.06157166105686733,-0.3875770345169414,-0.9197787630021427,0.5390432595670127,-0.3505969611411847,-0.7658421085014437,0
89,17.833333333333336,-0.04882893416852125,-0.3013596348468723,-0.9522594739213291,0.40542554542818715,-0.43262031123764866,-0.8052762218139171,0
90,18.033333333333335,0.01920007854856535,-0.3213102348304782,-0.9467793248571242,0.3513046397528521,-0.4309100051524775,-0.8312049191069619,0
91,18.233333333333334,0.3332841980521237,0.11369380625091552,-0.9359462387065467,0.5552429688538294,0.0023904682157981226,-0.831684754699817,0
92,18.433333333333337,0.04116931591379665,0.35761132627430126,-0.932962607368337,0.2859398106448557,0.4288940731518444,-0.8569062368215116,0
93,18.633333333333336,-0.2549448845472048,0.26590913385883397,-0.9296749100484841,-0.15093507173735715,0.46921866349312713,-0.8700876105021621,0
94,18.833333333333336,-0.3625115597688988,-0.06352026959515299,-0.9298121016552106,-0.43755520645375,0.15468049550761334,-0.885787438167157,0
95,19.033333333333335,-0.30007639848401874,-0.10427227909260156,-0.9481990544636159,-0.45307358935555736,-0.03697242983367188,-0.8907061030781515,0
96,19.233333333333338,-0.36573999344607794,-0.1494174885381544,-0.9186450192065558,-0.5143389137344598,-0.16655165634855487,-0.8412585973325971,0
97,19.433333333333337,-0.8939589908982402,-0.1587367973380748,-0.41909420392442914,-0.6497977737826489,-0.2288125310660751,-0.724850107825232,0
98,19.633333333333336,-0.9227960697221771,-0.06130803010181033,-0.38037973020435617,-0.7213980618925692,-0.17709511786781665,-0.6694939548084279,1
99,19.833333333333336,-0.7746116260569116,-0.09239750386593466,-0.6256512847080331,-0.7741976838843818,-0.17178594057041022,-0.6091859624863322,1
100,20.033333333333335,-0.7022555997059723,-0.10626580080793442,-0.7039493250655574,-0.759672031309857,-0.19620242193230727,-0.6200024310222119,1
101,20.233333333333338,-0.6923272814159027,-0.080114109952562,-0.7171224893933912,-0.7538568937583134,-0.17522933518059694,-0.6332412366746445,1
102,20.433333333333337,-0.7109613818515804,-0.047051706237900386,-0.7016552219258357,-0.7783280595291865,-0.1351466832165958,-0.6131401191938793,1
103,20.633333333333336,-0.5239083348693901,0.020798056749443305,-0.8515206970413756,-0.772801194845266,-0.06504633359725336,-0.6313060174996623,1
104,20.833333333333336,-0.5012216024918194,-0.061166548562413915,-0.8631544233406295,-0.7566299515939287,-0.021561154176984332,-0.6534877450890153,0
105,21.033333333333335,-0.47088668867231914,-0.0010982596731299557,-0.8821930175743338,-0.7462388332856227,0.05549588028287618,-0.6633609959653504,0
106,21.233333333333338,-0.4513208349543764,0.05176867495282941,-0.8908588598816949,-0.7295714520578923,0.14554447633054138,-0.6682382073421181,0
107,21.433333333333337,-0.43468279382463204,0.09484293569794998,-0.8955756172992914,-0.7023762237842732,0.2304506254285363,-0.6734687442651969,0
108,21.633333333333336,-0.7764026092425482,0.07380757382031661,-0.6259004956126187,-0.6800595717442234,0.32250373122983567,-0.6584150075916386,0
109,21.833333333333336,-0.8365871317140245,0.06787113883551182,-0.54361335484301,-0.718773455102919,0.35168174491200277,-0.5997371678786145,0
110,22.033333333333335,-0.8471890203538853,0.043417579558461025,-0.5295145678610828,-0.7366729336096295,0.36027096382393825,-0.5722917276287969,0
111,22.233333333333338,-0.7572337842901216,-0.04358035535591526,-0.6516883830150065,-0.7759455108875946,0.2818417197542982,-0.5643348377863358,0
112,22.433333333333337,-0.7477501182233919,-0.07331348186640947,-0.6599203694943259,-0.7952801831410374,0.19895349675926136,-0.572666514151492,0
113,22.633333333333336,-0.7621076194947732,-0.07098971842642725,-0.6435467630139607,-0.8087383099677616,0.17433853339496744,-0.5617369684863021,0
114,22.833333333333336,-0.7854074945256303,-0.033664994927272235,-0.6180628897284797,-0.8113680234875809,0.20392910739753212,-0.5478091361212427,0
115,23.033333333333335,-0.7876518928566805,0.04767255075299109,-0.614273411099644,-0.7874542237879458,0.2799631368924329,-0.549123380871615,1
116,23.233333333333338,-0.7760126672746348,0.11639207292313371,-0.6198848486533312,-0.7537234654044793,0.3519875343539179,-0.554982624374955,1
117,23.433333333333337,-0.7479335417748422,-0.05138874022162086,-0.6617813947721524,-0.732572490821991,0.3846905143943094,-0.5615609974222795,1
118,23.633333333333336,-0.7370108456825206,-0.08374589442705524,-0.6706725270301059,-0.7488415339455579,0.35760869368766135,-0.5579895870328306,1
119,23.833333333333336,-0.7239241091551512,-0.08866165320693092,-0.6841586040053396,-0.7534551703868153,0.3496020463984326,-0.5568516098310246,1
120,24.033333333333335,-0.6335576949338573,0.06222354066478469,-0.771189262228952,-0.7457074398146653,0.3630992054801034,-0.5586406547905142,1
121,24.233333333333338,-0.6895648553440585,-0.06681701997985551,-0.7211350748059198,-0.7364263270878637,0.37689698362325624,-0.5618050627286744,1
122,24.433333333333337,-0.6989255011189686,-0.0723698925175919,-0.7115235361831617,-0.7385829292937779,0.3696830516364242,-0.5637638671364131,1
123,24.633333333333336,-0.6227000457686895,0.039929240584986384,-0.7814411742069767,-0.7396015020863231,0.3707648852750943,-0.5617143561977034,1
124,24.833333333333336,-0.6075758266767128,0.04105705280010228,-0.7931998066398395,-0.7328409014837378,0.3717299116430746,-0.5698781325005681,1
125,25.033333333333335,-0.599923831924229,0.0420117039330157,-0.7989533231810194,-0.718889368223606,0.3779017429385473,-0.5834281009165335,1
126,25.233333333333338,-0.7997722298233467,-0.010744346717469669,-0.6002074136638155,-0.7256581061014915,0.3534016690720995,-0.5903622390924501,1
127,25.433333333333337,-0.8291416608678804,0.0046204870342019914,-0.5590194605850678,-0.7336350854077146,0.3524970221167257,-0.580969371703583,1
128,25.633333333333336,-0.8308073571534141,0.02232554597899054,-0.5561121337432764,-0.7297356414413781,0.36479785059406433,-0.5782805736077352,1
129,25.833333333333336,-0.3053065153399384,0.5754760071184934,-0.7586931507018763,-0.6655467162078469,0.4721156249866754,-0.5780609009337966,0
130,26.033333333333335,-0.2355889341366577,0.6292004762656345,-0.7406784827301602,-0.5649884809783552,0.5821351741019789,-0.5847278473230342,0
131,26.233333333333338,-0.2674340376696349,0.6517489565675545,-0.7097198976418939,-0.4684102983004281,0.6544257111296226,-0.5935644708526545,0
132,26.433333333333337,-0.30058054536717044,0.7286460355752273,-0.6154074183719915,-0.35698825973214426,0.7204210727129362,-0.5946031116674024,0
133,26.633333333333336,-0.35460604934615086,0.7050674219908358,-0.6141127585503431,-0.2653405552117263,0.7497172611628545,-0.606232973430513,0
134,26.833333333333336,-0.3316650859276182,0.7337882970063657,-0.5929190551442273,-0.20936713350974465,0.7686769409720909,-0.6044014922414583,0
135,27.033333333333335,-0.2702923877185208,0.7658912471265462,-0.5833974826105822,-0.1453575052043487,0.7769362440792964,-0.6125693987759459,0
136,27.233333333333338,-0.2528302332300719,0.801583714327622,-0.5417937080564525,-0.04571134998746618,0.7738728851455642,-0.6316891879071572,0
137,27.433333333333337,0.19427777164965948,0.5018044216358039,-0.8428810532154576,0.04465602172594774,0.7329856474370717,-0.6787767529717478,0
138,27.633333333333336,0.16842497612806312,0.48081753123761495,-0.8604926083766359,0.030818380422455827,0.6982501885526005,-0.7151901157135737,0
139,27.833333333333336,-0.3469084610005476,0.7791384186899859,-0.5221090347882328,-0.0690316680310446,0.7341137582843945,-0.6755084149782394,0
140,28.033333333333335,-0.37083227618947096,0.7756821205311474,-0.5106864701795406,-0.13419169586322396,0.756490273197915,-0.6400898806560653,1
141,28.233333333333338,-0.38455022103950987,0.7696094282038363,-0.5097278249401617,-0.1785849995116191,0.7673531811391773,-0.6158542793104717,1
142,28.433333333333337,-0.3873323158150044,0.7791328213106801,-0.49287495765340494,-0.20588719257581894,0.7833059654624864,-0.5865511302556067,1
143,28.633333333333336,-0.37951505892447013,0.7889950563221095,-0.48317193745997683,-0.21616418488240005,0.7981791363206489,-0.5623016196993839,1
144,28.833333333333336,-0.39066949220497993,0.76964076453111,-0.505005387527967,-0.23851973721441114,0.7910098862010356,-0.5633930199171737,1
145,29.033333333333335,-0.4091707450165658,0.7608010925982137,-0.5037469592205522,-0.26828783744864115,0.7931021135092396,-0.5468186845969224,1
146,29.233333333333338,-0.4207442475443437,0.7624653482875071,-0.49154945917898696,-0.2936980374562339,0.7998605555624443,-0.5234162344154937,0
147,29.433333333333337,-0.45599280091353744,0.8785885164411246,-0.14196050258015697,-0.3467776674178198,0.839952577612073,-0.4174025835366751,0
148,29.633333333333336,-0.4542577627531006,0.8627642849783689,-0.2220082735942781,-0.4455836736487356,0.8293080637785992,-0.3371992365493853,0
149,29.833333333333336,-0.6542659164844085,0.48024901678030735,-0.5842062926812456,-0.5200085181100275,0.7049412948962108,-0.4823369277207239,0
150,30.033333333333335,-0.7779494676951482,0.26488020761531755,-0.5697658302552921,-0.6910530385478473,0.5082734166861036,-0.5139103344008779,0
151,30.233333333333338,-0.8532695479619365,-0.13694781399924633,-0.5031663489956983,-0.8491973759330971,0.17902943456357534,-0.4968020513928953,0
152,30.433333333333337,-0.851151661384741,-0.26186541845995676,-0.45493664606930373,-0.8849750466789785,-0.1652764870920392,-0.43531925017170453,0
153,30.633333333333336,-0.4316655679601206,-0.3301519262957656,-0.8394429956827693,-0.8184032967226376,-0.48562858645637486,-0.307214778176281,0
154,30.833333333333336,-0.6155013585108735,-0.7766051975031467,-0.13432216824622747,-0.6563624311551999,-0.73331759825467,-0.1772954005552254,0
155,31.033333333333335,-0.33393605775670215,-0.9408727897677991,-0.056965803816597584,-0.42795335188421574,-0.8998439101604435,-0.0844799737111001,0
156,31.233333333333338,-0.0022765198890704608,-0.9986735551790678,-0.05143877567746599,-0.24602386356069855,-0.9631903200982374,-0.10833589353359513,0
157,31.433333333333337,0.049287742751295716,-0.9958189996820381,-0.07691058631129484,-0.12570410494276585,-0.9825415813516265,-0.13715144518226335,0
158,31.633333333333336,0.07365329490522171,-0.8887066690922593,-0.45252143425538033,-0.0681964982891114,-0.9430469273938255,-0.3255944261718375,0
159,31.833333333333336,0.057522493757924176,-0.7146384085656788,-0.6971248867416683,-0.03884751685036425,-0.8505148586476291,-0.5245143903213372,0
160,32.03333333333333,0.13106391730288522,-0.6319238959901228,-0.7638680771297406,-0.04822027706387344,-0.8091700911195433,-0.5855924935631206,0
161,32.233333333333334,0.2163261778741275,-0.5069521882111427,-0.8343874781145184,-0.03762005819768682,-0.7495424561942783,-0.6608864029343102,0
162,32.43333333333333,-0.07653317085210505,-0.37239412750705464,-0.9249136649209927,-0.0886828501646455,-0.6540056543639048,-0.7512735561343259,0
163,32.63333333333333,-0.11772591047195079,-0.340193035123859,-0.9329572920861746,-0.10100330882098205,-0.5951221137350033,-0.7972628182417612,0
164,32.833333333333336,0.4063256528828679,-0.2665967745253671,-0.8739711800866098,0.04043678525837047,-0.5853234249423448,-0.809790932655912,0
165,33.03333333333333,0.4821228411350671,-0.2292693555668495,-0.8455726631424486,0.22449532286105184,-0.5890593433558978,-0.7762801942717786,0
166,33.233333333333334,0.3572675505066277,-0.3061472760436463,-0.8824022567548485,0.21492422243602108,-0.6076803101580962,-0.7645470680451474,0
167,33.43333333333333,0.2671315042554955,-0.4651817275788361,-0.8439471072057575,0.16656373922705453,-0.6797027710675706,-0.7143253206892273,0
168,33.63333333333333,-0.15454492624342986,-0.8569174429009179,-0.49174013647918247,-0.056299214839224676,-0.7982550718110192,-0.5996826150026959,0
169,33.833333333333336,-0.3624404325429548,-0.8741944221793884,-0.3231424532439543,-0.2842035568888386,-0.8094119926773404,-0.5138876962545705,0
170,34.03333333333333,-0.3915916922933702,-0.8687169287430986,-0.3032933303618339,-0.41242400536664103,-0.7991324317624718,-0.437371462606713,0
171,34.233333333333334,-0.7778598386274762,-0.29675774447637543,-0.5539575006656478,-0.5977566236688462,-0.676876391166416,-0.429564162776122,0
172,34.43333333333333,-0.851337711364662,-0.046650215974794115,-0.5225398152848112,-0.7878886317980043,-0.3623168441670597,-0.49795382146971356,0
173,34.63333333333333,-0.797383249559608,0.023221893199946157,-0.6030262821784558,-0.8413161057807175,-0.12123184563538127,-0.5267732432060387,0
174,34.833333333333336,-0.7260589771545735,0.17750186792162723,-0.6643278171035651,-0.8226971952918176,0.035672469417721286,-0.5673594978359122,0
175,35.03333333333333,-0.8322818677864133,-0.17327806767206855,-0.5265753543585129,-0.8213435147266723,0.1285030572459018,-0.5557713514520998,0
176,35.233333333333334,-0.7234517192163615,0.3341300056310778,-0.6041314006901702,-0.8303397088705431,0.14002308154796578,-0.5393788135499885,0
177,35.43333333333333,-0.7259133882874691,0.3484652731588617,-0.5929769861531952,-0.8348590226319794,0.1751307333563483,-0.5218617044428954,0
178,35.63333333333333,-0.8080584306576833,0.12111183662877882,-0.5765184261334989,-0.8357238412625527,0.1874510297644734,-0.5161664194672121,0
179,35.833333333333336,-0.8158128130166307,0.13684017904601684,-0.5618934236281348,-0.8292468641675923,0.2230474943390759,-0.5124445858210179,0
180,36.03333333333333,-0.3683965003671551,0.3165322226297339,-0.8741232010159173,-0.7398981988895773,0.35631922025549057,-0.5706025486768166,0
181,36.233333333333334,-0.36756714067622287,0.3450394638742199,-0.8636215406441049,-0.605985630862127,0.45694817936505994,-0.651137294711021,0
182,36.43333333333333,-0.11093032112076646,0.34748786097322704,-0.9310996994588147,-0.44116736365636083,0.5700389863942293,-0.6931283511984894,0
183,36.63333333333333,0.13469148151029398,0.32884922847049936,-0.9347279763347833,-0.2587838947046567,0.6393269793931149,-0.7240800434078849,0
184,36.833333333333336,-0.06929631373851673,0.3460324709277755,-0.9356599542386496,-0.16305623020198895,0.6553507182880604,-0.7375148146523156,1
185,37.03333333333333,-0.053339408039228736,0.3593595067736866,-0.931673576120627,-0.07862075963084156,0.660282294240577,-0.7468909345195385,1
186,37.233333333333334,-0.0610067105880618,0.36728576270245045,-0.9281052471456586,-0.06320697619309068,0.6560354143166363,-0.7520787281414931,1
187,37.43333333333333,-0.11570181263893876,0.38410512166607585,-0.9160111058616883,-0.1165623902572146,0.6504086004557285,-0.7505876775105927,1
188,37.63333333333333,-0.1748428106897031,0.40022512390896053,-0.8995831488762903,-0.19877966515363565,0.6482209959424368,-0.7350484236707158,1
189,37.833333333333336,-0.16862167264258948,0.38509976611527474,-0.9073394632953956,-0.196471300534754,0.630080720542523,-0.7512638109657604,1
190,38.03333333333333,-0.11823896725157777,0.41298913812421423,-0.9030279721108861,-0.1390384615090404,0.6509649517137264,-0.7462659967207037,1
191,38.233333333333334,0.1480139421867166,0.5678664677821692,-0.8097033701837669,-0.0960563839977786,0.6815105217789205,-0.7254767948031797,1
192,38.43333333333334,0.1608663201938711,0.5805178045563322,-0.7981986630033775,-0.06817148389169086,0.7117130544999483,-0.6991546158314044,1
193,38.63333333333333,-0.10976612034617761,0.4408400444400816,-0.8908487268005807,-0.07540967658586789,0.7147864103315551,-0.6952652503056262,1
194,38.833333333333336,-0.1320659726543441,0.41825407125872854,-0.8986779794466764,-0.10781500834828928,0.6957498913203657,-0.7101464727100726,1
195,39.03333333333333,-0.15081346508300533,0.4071528234690084,-0.9008228888582216,-0.15182041962003923,0.6791974953152451,-0.718081696288029,1
196,39.233333333333334,-0.11430058986245342,0.46922522555493607,-0.8756500801461821,-0.1772346270137612,0.6663846364921543,-0.7242371181004965,1
197,39.43333333333334,-0.10796820956960954,0.47481860983484403,-0.8734358324896221,-0.1885316865546413,0.6594399796273472,-0.7277325857991701,1
198,39.63333333333333,-0.09428357703812246,0.5178326289292791,-0.8502705307824612,-0.18899558432882801,0.659120692460222,-0.7279014918757638,1
199,39.833333333333336,-0.09735642487130367,0.5523645993805744,-0.8278979864013535,-0.1895847515536324,0.6699122584508977,-0.7178267116481284,1
200,40.03333333333333,0.04646946873087307,0.49563384626049156,-0.8672875410824844,-0.18179746437967542,0.673824288072567,-0.7161777089163127,1
201,40.233333333333334,0.13585608954017175,0.8161778236665049,-0.5616020682742013,-0.169292455577141,0.7159875746281463,-0.6772753188052598,1
202,40.43333333333334,0.2991661446109939,0.781006042474894,-0.5482054172810572,0.1517047558035976,0.8283060894976643,-0.5393465390337261,0
203,40.63333333333333,0.6688473480534634,0.5005333448978351,-0.5496449723660127,0.5422923100634508,0.6761876452320277,-0.4986875964786093,0
204,40.833333333333336,0.8596025885655608,0.287814268445952,-0.42219229814186415,0.7497379563600329,0.47675952946024636,-0.45890450843495334,0
205,41.03333333333333,0.9159831000438624,-0.06020463499902075,-0.39667412615227393,0.9037415080896285,0.19311525059713852,-0.3820442206639027,0
206,41.233333333333334,0.9034537477259296,-0.23149432353182992,-0.3608070175211581,0.9446320861141296,-0.08689230970266669,-0.3164173642488722,0
207,41.43333333333334,0.8784345940630439,-0.4334425910280242,-0.20119687929043095,0.9330024286378993,-0.25008931815638924,-0.258769783977678,1
208,41.63333333333333,0.7854482609285225,-0.6113083478542571,-0.09681494330968778,0.8897263332386901,-0.37985017542356525,-0.2531815478511853,1
209,41.833333333333336,0.817677467484831,-0.5585441150133333,-0.1393988190465237,0.8917720172693153,-0.36555932635341154,-0.2666627985517603,1
210,42.03333333333333,0.8402846822640172,-0.5203647541216905,-0.15212552520971745,0.8989070278067359,-0.3495698708016368,-0.26413455053700724,1
211,42.233333333333334,0.7362406707759718,-0.5910516270176626,-0.3295567460925678,0.8878598363324995,-0.3239623336092,-0.32673126178881134,1
212,42.43333333333334,0.7336526232594313,-0.5849126789267183,-0.34587712618114125,0.8733478521804371,-0.32027158210257045,-0.3670008757337426,1
213,42.63333333333333,0.754965287398573,-0.5544534792442444,-0.3501553286430783,0.8728525078756065,-0.294567657691103,-0.38904806198931446,1
214,42.833333333333336,0.7722317227231094,-0.5217988402269202,-0.3624694976931713,0.8692297801527531,-0.26224032902618455,-0.4191295731964459,0
215,43.03333333333333,0.7175752858552773,-0.5569602136422709,-0.41818779220497687,0.8631902888164001,-0.23661666958024555,-0.44599896521159416,1
216,43.233333333333334,0.7080880444461828,-0.562970346230801,-0.4262343376326609,0.8467628735384439,-0.26341007519492976,-0.46217720441700577,1
217,43.43333333333334,0.7454016594167419,-0.44692643121993,-0.4946040145568825,0.8169891240746361,-0.29108047578381574,-0.4977960704557905,1
218,43.63333333333333,0.698292664448367,-0.10763798044753684,-0.7076732437663417,0.7783173403059327,-0.26916660006472826,-0.5672490274903025,1
219,43.833333333333336,0.7093161864110302,-0.08554219993513552,-0.6996806984086168,0.7855461426520965,-0.23503232524594495,-0.5724308376161233,1
220,44.03333333333333,0.7482872283770861,-0.3860632380537011,-0.5394639933037517,0.78079757672123,-0.2164963696943679,-0.5860754781556848,1
221,44.233333333333334,0.7502737052516959,-0.4043149041380251,-0.5230858681896793,0.7722463573782546,-0.2582865972822283,-0.5804512013773295,1
222,44.43333333333334,0.742161543482252,-0.40184106704003775,-0.5363953767662106,0.7547128719747495,-0.28762104342571004,-0.5896461788685917,0
223,44.63333333333333,0.63741659155599,-0.5691109261757782,-0.5194351186784475,0.7473036204832122,-0.3261470191436173,-0.5789347292367392,0
224,44.833333333333336,0.6845973606603184,-0.40227383620067003,-0.6078669381413359,0.7491794727894652,-0.3186265447524724,-0.5806954817544219,0
225,45.03333333333333,0.695445936750129,-0.3312382585230631,-0.6376803001099723,0.7523403274467724,-0.26823091906367613,-0.6016944455082985,0
226,45.233333333333334,0.7122495283102128,-0.26347678861986235,-0.6506001777439383,0.7667498523001222,-0.1995949978948958,-0.6101282658696262,0
227,45.43333333333334,0.7853077491199066,0.014179568941147943,-0.6189431952908677,0.7690378451012407,-0.1257326834138761,-0.6267153142564703,0
228,45.63333333333333,0.7881309823918514,0.06416526709484739,-0.6121538802398483,0.7762821879031161,-0.05234874096860604,-0.6282082250841301,0
229,45.833333333333336,0.7895196042180743,0.0629527045765043,-0.610488125635412,0.7754317357396485,-0.023749883167460954,-0.630984600649911,0
230,46.03333333333333,0.6501911812914578,0.21616409071132367,-0.7283711373041666,0.7659463578481326,0.017772206938787238,-0.6426587940421461,1
231,46.233333333333334,0.5004064156938688,0.40724641601406747,-0.764031266229408,0.7577630847440303,0.04668216275244292,-0.650857805576584,1
232,46.43333333333334,0.44327352702620626,0.4344461201901878,-0.7840696071710981,0.7340480771362325,0.0932393495054815,-0.6726662204662831,1
233,46.63333333333333,0.3901492598111317,0.47138928689928167,-0.7909334328914241,0.7132922585637627,0.1665984019408072,-0.6807783239379585,1
234,46.833333333333336,0.3947948241954599,0.45656532551988455,-0.7972986581710758,0.7129681988903752,0.17017103247389428,-0.6802339061512468,1
235,47.03333333333333,0.7590656705696461,-0.006621046725043872,-0.6509803910279617,0.7271869650712288,0.1422142170236621,-0.671546152030404,1
236,47.233333333333334,0.7470723982274948,-0.01829057732844957,-0.6644909981238358,0.7375885166797823,0.10218238755690759,-0.6674742989323923,1
237,47.43333333333334,0.7125817303935049,-0.21366881971659665,-0.6682611113855983,0.7493471961798532,0.05463920911895743,-0.6599191892983923,1
238,47.63333333333333,0.7093104042942794,-0.2589264382541693,-0.6556186772300617,0.7575632863348725,0.0035328311901553955,-0.6527521630000858,0
239,47.833333333333336,0.7204646514487602,-0.22373842881821737,-0.6564082582377925,0.7616268999893586,0.033456906908470516,-0.6471515283090337,0
240,48.03333333333333,0.7620416183230783,0.0631527897318845,-0.6444410734059587,0.7549318248742238,0.12005379440331103,-0.64472089018539,0
241,48.233333333333334,0.5397291793910903,0.5257493845464992,-0.6574800358663355,0.6761958998826917,0.37642238800176137,-0.6332971583647665,0
242,48.43333333333334,0.05847425885030433,0.7599734140852159,-0.6473184463118359,0.2481797809731058,0.7403872994091288,-0.6246866760143032,0
243,48.63333333333333,-0.5362740693710558,0.6902116427413483,-0.48581684897139765,-0.31985471470037,0.7409345065466346,-0.590515891820398,0
244,48.833333333333336,-0.7460832454043993,0.3457645506333916,-0.5690401272776181,-0.5922464245063169,0.5849099478586403,-0.5541881680038706,0
245,49.03333333333333,-0.8563366204436739,0.10007602370293123,-0.5066284456748534,-0.7187626185937319,0.4443189956535841,-0.5347531469880958,0
246,49.233333333333334,-0.8967608487644502,-0.009279813295670633,-0.4424182016920877,-0.8328019774167337,0.2789414982998788,-0.4781553167507363,0
247,49.43333333333334,-0.892842139301121,-0.21621279045309016,-0.3950758706029594,-0.8958832550965361,-0.029401812393863268,-0.4433156061606573,0
248,49.63333333333333,-0.8410477676896706,-0.49824771472071855,-0.21068428332413336,-0.8563292338305879,-0.34040539390028934,-0.3883611863854413,0
249,49.833333333333336,-0.8440951275570103,-0.4850138633191357,-0.22861532761991482,-0.7867057470500392,-0.5190193347534728,-0.3342349438800533,0
250,50.03333333333333,-0.664605189432516,-0.7464239148028555,-0.033930540663966675,-0.7355014576770791,-0.6455692438038391,-0.2056160431713233,0
251,50.233333333333334,-0.4988132863326449,-0.8621916791135175,0.0883788088030162,-0.6773348233319401,-0.7190487972284927,-0.15551965890570887,0
252,50.43333333333334,-0.5144374341482488,-0.856838375543627,0.03438203808276454,-0.5784712544822486,-0.8053030252354503,-0.12983853543677132,0
253,50.63333333333333,-0.45329536838386175,-0.8070306559453181,-0.3784505639660335,-0.5225148428874894,-0.8177540966222737,-0.2413637843997141,0
254,50.833333333333336,-0.38470716288471224,-0.6448570644582529,-0.6604239284304291,-0.4633079520067702,-0.7692489253344587,-0.44000208235765514,0
255,51.03333333333333,-0.19989051325381968,-0.7003008133471846,-0.6852901236238538,-0.41798080471685584,-0.7227556783420912,-0.550378302908566,0
256,51.233333333333334,-0.1845292921875219,-0.6969312763784867,-0.6929904301866122,-0.3792286954116095,-0.7147998158575591,-0.5875770756474492,0
257,51.43333333333334,-0.5609823647697371,-0.8111529445464837,-0.1653169288697407,-0.4254860192080955,-0.7362638252489633,-0.5261912457350584,0
258,51.63333333333333,-0.5426077734014072,-0.8396619989963865,-0.023335202715202483,-0.45648367631209197,-0.8035780121424553,-0.3819489909160346,0
259,51.833333333333336,-0.5078394208515877,-0.8500477759842352,0.13970648221675327,-0.4455301956178885,-0.8578573736746671,-0.2560928956935143,0
260,52.03333333333333,-0.33024206908214165,-0.9111436672497063,0.24649014876684647,-0.4160903785063878,-0.8912345434645883,-0.1804710099984982,0
261,52.233333333333334,-0.3067544335436556,-0.9230228788061484,0.23222937519125617,-0.3816848773343198,-0.9130473524116753,-0.14373999675913085,0
262,52.43333333333334,-0.1323254143635157,-0.9905891463696467,0.03497324417577609,-0.3414843580304838,-0.9290532842379795,-0.1422969720940427,0
263,52.63333333333333,-0.09153861367581373,-0.9948583493802057,-0.043330668986332255,-0.2966313771470003,-0.9341085410298039,-0.19862290821313947,0
264,52.833333333333336,-0.05690547219058545,-0.9809642564317221,-0.1856633912168062,-0.2625589725538663,-0.8971048567455412,-0.355338798803368,0
265,53.03333333333333,-0.26722433694597847,-0.5838607932512206,-0.7666144584129876,-0.24525725454349345,-0.8324929170807194,-0.496794144595347,0
266,53.233333333333334,-0.269590054475607,-0.5500349419997204,-0.7904320116918366,-0.23841446026558547,-0.7889656342335231,-0.5662965416941594,0
267,53.43333333333334,0.16037483790524257,-0.5557525227984116,-0.8157322138852117,-0.15413859929222648,-0.7669655416775977,-0.6229005940657145,0
268,53.63333333333333,-0.40260694257219454,-0.6523680223647781,-0.6421242973042977,-0.11812075349046591,-0.7718436563248071,-0.6247438337318725,0
269,53.833333333333336,-0.4444701935485818,-0.6408978260718451,-0.6258563921406171,-0.1651030598678775,-0.7586087289459847,-0.6302807120555266,1
270,54.03333333333333,-0.30730102200986315,-0.7651038444216252,-0.5658464359903166,-0.24721428516556082,-0.7303260396602063,-0.6367958644686066,1
271,54.233333333333334,-0.3259869762218557,-0.7528636620888611,-0.5717768774967041,-0.3036886692166197,-0.7074198306307778,-0.6382243926862715,1
272,54.43333333333334,-0.30474486270922696,-0.753566650360302,-0.5824670566796792,-0.30721782305144374,-0.7046639439231319,-0.6395826258852166,1
273,54.63333333333333,-0.28434757994354154,-0.7638877494728802,-0.5793288875807157,-0.2962256861819242,-0.7179088727858035,-0.629966025450155,1
274,54.833333333333336,-0.44080181502639837,-0.6192372975437976,-0.6497991452749743,-0.28629093149701257,-0.7267975251155755,-0.6243419415900612,1
275,55.03333333333333,-0.4774996781760488,-0.5898291783259109,-0.6512262262356691,-0.33034871619368344,-0.7046924298438547,-0.6279158423148357,1
276,55.233333333333334,-0.3923073883692774,-0.7103426524231432,-0.5843870542537118,-0.3681839254075554,-0.6875107786730706,-0.6259149513151385,1
277,55.43333333333334,-0.27047474338357824,-0.7021140221669899,-0.6586951594387794,-0.3601407642943081,-0.6844255956681685,-0.6339244701758914,1
278,55.63333333333333,-0.2734636954262815,-0.7039383440713153,-0.6555062280634232,-0.351182882712797,-0.6893401446198171,-0.633625084655792,1
279,55.833333333333336,-0.2831915769656264,-0.7041419764595023,-0.6511425402501569,-0.34802681462430124,-0.6910218244435433,-0.6335346671218387,1
280,56.03333333333333,-0.5788591683512253,-0.5312164039807773,-0.6186527259759383,-0.3761880399232897,-0.6846513123638588,-0.6242877053868029,1
281,56.233333333333334,-0.7098078731680213,-0.368595046596804,-0.6002586732509498,-0.45293703948479647,-0.6589914087193673,-0.6004817744917923,1
282,56.43333333333334,-0.7416771949381584,-0.3294263447397309,-0.5842886460475549,-0.5383269959736705,-0.6223201099732198,-0.568262022423533,0
283,56.63333333333333,-0.45259385685615805,-0.8810289302565302,-0.13764746560362656,-0.5617120759380237,-0.6870806595376472,-0.46086843137137035,0
284,56.833333333333336,-0.4094818126948834,-0.9114496010765217,-0.039802886447619715,-0.5458908752210162,-0.7752912103183869,-0.3176896151174668,0
285,57.03333333333333,-0.37366362997005753,-0.9244905376063696,0.0754502320333456,-0.5198553130349463,-0.8295603687339329,-0.203911863645448,0
286,57.233333333333334,-0.4539963647590179,-0.8889679176210823,-0.060194204256173715,-0.5242096507565384,-0.8377822526734581,-0.15272569907875494,0
287,57.43333333333334,-0.47105401147131687,-0.8784833020630872,-0.07984488883526134,-0.5435153917808785,-0.8256436519530137,-0.15133928401763078,0
288,57.63333333333333,-0.6932795441086532,-0.4071011060134731,-0.5946697934174101,-0.6032121279837337,-0.7142662651271067,-0.3549067922070669,0
289,57.833333333333336,-0.7111286182705968,-0.10291182015677627,-0.6954892131072713,-0.712022964945134,-0.4083025142396225,-0.5712375637651496,0
290,58.03333333333333,-0.6202068285962891,0.10756812436973005,-0.7770280486456791,-0.750144502751861,-0.21669260643277438,-0.6247619861263443,1
291,58.233333333333334,-0.6398490663876903,0.10727616598346923,-0.7609763442149096,-0.7422823541931143,-0.16783502725757093,-0.6487282252831141,1
292,58.43333333333334,-0.739979869213049,-0.02948414437655778,-0.6719824985740488,-0.7443228802904381,-0.15783665439934685,-0.6488998693205043,1
293,58.63333333333333,-0.7555107215921432,-0.06092513432907787,-0.652297230996961,-0.7547560672656057,-0.17446241373414798,-0.632381328882986,1
