,timeStamp,x_gaze,y_gaze,z_gaze,x_head,y_head,z_head,fixations_head
0,0.04,-0.99950593739823,-0.02123614853814193,0.023171255920906172,-0.9887059962191199,-0.06962704988203362,0.1327121959922408,0
1,0.24000000000000002,-0.9999088665230189,-0.004867178497662916,0.012592427173666612,-0.9903218020837959,-0.06265935506963172,0.12384075879839057,0
2,0.44,-0.9995941330072446,-0.01636502875137504,0.023318556804866893,-0.9875522592282064,-0.08028174548576214,0.1352604030565658,0
3,0.6400000000000001,-0.8879173731512457,-0.27212304050564573,0.37087975043422683,-0.9438395923546159,-0.17065488025582504,0.28292001652188303,0
4,0.8400000000000001,-0.8380302181711896,-0.21025086649795113,0.5034877620844515,-0.9201914229185915,-0.1798059691070087,0.3477320213333073,0
5,1.04,-0.8395548565447174,-0.2191228323268378,0.49712455904455544,-0.9110064361761097,-0.17750020964682445,0.3722377584569273,0
6,1.2400000000000002,-0.8300119205584535,0.1418838117540856,0.5393970668190543,-0.8990712055974536,-0.13939966406167306,0.41501650681031277,0
7,1.4400000000000002,-0.8144713970634904,0.1464908862253657,0.5614060594777666,-0.8890644958284053,-0.09037102645853781,0.44877321648491236,0
8,1.6400000000000001,-0.806712875596091,0.19142929694355884,0.5590788500910951,-0.8906015575417624,-0.025541260512723298,0.45406663576573003,0
9,1.84,-0.7218843262689261,0.5012750316519169,0.4770810854871826,-0.8574848852051861,0.35444988323826765,0.37294094963818036,0
10,2.04,-0.21352657943103115,0.9769371981815156,0.0003326946558778294,-0.5226230802825766,0.8210741191024697,0.22957004790707106,0
11,2.24,-0.056262785360403134,0.996213177337945,-0.0662857773713607,-0.26358063417381145,0.9562399913941324,0.12700522881787507,0
12,2.4400000000000004,0.13666213718076126,0.9905595122633933,-0.01073838561868032,-0.012135373721857023,0.9956741176846128,0.09211831564677568,0
13,2.64,0.5408685115868299,0.8371747927509162,0.08123804254355153,0.24834560299903702,0.9632937823673348,0.10192914364144527,0
14,2.8400000000000003,0.5019633822454184,0.860074757233964,0.09112724539718042,0.3800070018362276,0.9168135222463772,0.12266883867402069,0
15,3.04,0.31461643992976257,0.8891323104586012,0.3323555779951225,0.3798896435083352,0.908462535082914,0.17429767957673928,0
16,3.24,0.29450664096029405,0.8653681757361898,0.40546733389177486,0.379838043521491,0.9007212076679574,0.21077088686757092,0
17,3.4400000000000004,0.4772143922012531,0.792102978131449,0.38057758198727043,0.4089518466412855,0.8907803402199219,0.1981634996823659,0
18,3.64,0.5062044843745458,0.7899833063367327,0.3459528807632399,0.44487818895475495,0.8802630357716476,0.16498601409337849,0
19,3.8400000000000003,0.7083399580735406,0.6592628888502637,-0.25224382486233343,0.5031451989988409,0.8617004410039001,0.06570584980122411,0
20,4.04,0.7372867409458408,0.616867888925866,-0.2754673651044827,0.5534312437812081,0.8327236660709949,0.016886514503200688,0
21,4.24,0.6775079142077536,0.6849539988055776,-0.26799448820098615,0.5943584735129789,0.8036959606106523,0.028474688083323877,0
22,4.44,0.6601782186878871,0.7212415577805346,-0.20970296826796736,0.555964809509532,0.8263168795971315,0.09001969273380941,0
23,4.640000000000001,0.806124291016619,0.512746579230323,0.2953888503660144,0.6714208752565348,0.7120809705482221,0.20526738575051606,0
24,4.840000000000001,0.895425990719903,0.31712580825135994,0.3124796263505866,0.7539454101344583,0.6071969845436908,0.25075514052204856,0
25,5.04,0.8633761276014748,0.3604847971301056,0.3530331051416411,0.7158405359422705,0.630318567106207,0.3004510460342272,0
26,5.24,0.5953605996983438,0.7171261064185472,0.36232016755875324,0.469888483560745,0.8268644482374863,0.3090307383706368,0
27,5.44,-0.6658579137668599,0.6430929992393768,0.3782388570775725,-0.3112838399602331,0.8929339019927035,0.3252251799164651,0
28,5.640000000000001,-0.9425220391623386,0.10913673986405174,0.31581858353351105,-0.8792034967859006,0.3229859245185685,0.35025890966873424,0
29,5.840000000000001,-0.9525797542477755,-0.2191935362720403,0.2110592463120376,-0.9428944817577992,-0.09180354426864468,0.320190733048923,0
30,6.04,-0.7719359608136497,-0.6077851097403419,0.18631192334530955,-0.9055276650587302,-0.29661782491531236,0.3033768510545815,0
31,6.24,-0.5002167170360469,-0.8453571292513503,0.1874954933367597,-0.8038014293817817,-0.5341584508597242,0.2618740374663823,0
32,6.44,-0.2648911333632107,-0.9428079673240709,0.20235074552817273,-0.5002381464965945,-0.8160831007903628,0.289430767877291,0
33,6.640000000000001,-0.03632878862169381,-0.9903718728121,0.13358058489142044,-0.2989015348435215,-0.9119261140425305,0.28115589091370025,0
34,6.840000000000001,0.08848804078135447,-0.9456428700219294,0.31293678118010687,-0.18372630196544154,-0.9457341355716702,0.268014161529964,0
35,7.04,0.09035662994187982,-0.9309688101186271,0.3537410832966025,-0.1467236620553306,-0.9422332814371913,0.30111228859874895,0
36,7.24,0.5880374761162213,-0.7388502524864538,0.3291082361223557,0.11972060128324485,-0.9262286469950733,0.357445759681178,0
37,7.44,0.6675696770326671,-0.6645289153085129,0.33578571593412415,0.4423320134451081,-0.8212637078885962,0.360372462858459,0
38,7.640000000000001,0.7722225907826575,-0.5091657641588755,0.3800295973913466,0.5837736244823245,-0.714040491603753,0.38646414026276776,0
39,7.840000000000001,0.7814666419079918,-0.4147401518610128,0.4661550107199863,0.5998069633646906,-0.6845474992395674,0.41427808050159176,0
40,8.04,0.7693392973943162,-0.44120571226842176,0.4620114337833371,0.5767057800594821,-0.6992448080725692,0.4224537153695541,0
41,8.24,0.6937026780502267,-0.5006995172971891,0.5177611301018122,0.4602239714068736,-0.7395061588953808,0.4912479385181021,0
42,8.44,0.008996627417868552,-0.8881086398578295,0.45954554127418173,0.26727030308064026,-0.8178585650175626,0.5095821353997765,0
43,8.639999999999999,-0.015285694313754261,-0.8770677988449083,0.4801233422556066,0.07927359005678597,-0.8643932133747365,0.4965280159177385,0
44,8.84,-0.2797828784360994,-0.8287126086064226,0.48472358439707586,-0.13188886484178608,-0.8678288149316432,0.47903911667533516,0
45,9.04,-0.427732363491312,-0.8000290332707019,0.42071198122478326,-0.24865107323658173,-0.8435200588768077,0.4760741056293264,0
46,9.24,-0.4477992841434246,-0.7876529440460283,0.4231768434783041,-0.3168290055273454,-0.8228977685573804,0.47165521703871505,0
47,9.44,-0.32393476739353066,-0.8975951345458536,0.29898033532878104,-0.39029667683822733,-0.8126549048460493,0.43273607392808777,0
48,9.64,-0.5263268623830364,-0.8074097744395979,0.2665886157986238,-0.6041450925176779,-0.6915094695743803,0.39600929367347665,0
49,9.84,-0.9409549749522235,0.04625460076003646,0.33535689499574944,-0.8714251435977731,-0.28931905078569153,0.39612208466338616,0
50,10.04,-0.8755092881351809,0.12452428967529107,0.4668802712365274,-0.8867070108971239,-0.08783201737010789,0.4539121209557914,0
51,10.24,-0.8276709393338798,0.17217810751037962,0.5341493381783016,-0.8595490544503465,-0.0023547137019868263,0.5110478239038863,1
52,10.44,-0.7886296300067487,0.07109576934772835,0.6107443804541091,-0.8489002463446859,0.014457589096174927,0.528355325395191,1
53,10.64,-0.7732793169452944,0.08570477093843246,0.6282465998499398,-0.8272442436007913,0.03710753532847244,0.5606157260113216,1
54,10.84,-0.7683933210871078,0.08833261458994249,0.6338525485540233,-0.8124091966501806,0.03149174540718715,0.5822366934240895,1
55,11.04,-0.7830325982070059,0.09203152125191515,0.6151342530222523,-0.8139064889885719,0.011429862916662696,0.5808834525238279,1
56,11.24,-0.8109637255690605,0.06325875243763876,0.5816667138930878,-0.8339155892725729,-0.03366990587623918,0.5508639826730944,1
57,11.44,-0.770415050612005,-0.058504475939698104,0.6348526412369436,-0.8469074211804319,-0.038504113143087444,0.5303444665692054,1
58,11.64,-0.8558804303638166,0.23568581366183713,0.460348657170634,-0.860590875773535,0.00675974467237629,0.5092520499588629,1
59,11.84,-0.8460941572273258,0.2616543013566225,0.4643939100455123,-0.8616678329115113,0.05867880023974145,0.504068789083399,1
60,12.04,-0.829776591612001,0.29324291488012044,0.4748467130405152,-0.856098648998201,0.10146067800584352,0.5067552012580131,1
61,12.24,-0.8059415875731909,0.3358710524753942,0.48749235227752646,-0.8446658686312312,0.1574567881916406,0.5116120895970118,0
62,12.44,-0.7183510659283792,0.43430728425497594,0.5434601447416626,-0.8342910461499551,0.1976811314118359,0.5146655424620444,0
63,12.64,-0.6837941282161962,0.623062157792573,0.37976194878359737,-0.8117373411370873,0.2828184932260328,0.5109757224106137,0
64,12.84,-0.6886132791516775,0.6271381881833312,0.3640184675234255,-0.7981341174476084,0.3425186226145141,0.49564394854409705,0
65,13.04,-0.6342816279784442,0.7241194269916927,0.27080965983922617,-0.8057436755595113,0.39783124004773873,0.4387566908184167,0
66,13.24,-0.6237055795759574,0.7364125266324755,0.262083842738527,-0.8081759732139695,0.4272871075658511,0.40531139143584644,0
67,13.44,-0.6250914567459215,0.7326884521748568,0.26912506897885763,-0.8078157101438935,0.43345591713914655,0.3994367864152956,0
68,13.64,-0.5916584320404374,0.7708914325624776,0.2359379134374604,-0.7907684715350818,0.48081419997933916,0.37881780518383584,0
69,13.84,-0.49280998378848795,0.8415598936197509,0.22116795728383515,-0.7307642459810322,0.5788403366181063,0.36183902705431176,1
70,14.04,-0.4585371148200997,0.8411315476726382,0.2867776731935231,-0.6724649203583233,0.6428236497861431,0.36683604806929215,1
71,14.24,-0.42655046732470714,0.8565386045053666,0.2905104435593904,-0.634685460654115,0.683486452197714,0.36058374297305074,1
72,14.44,-0.44401185893445727,0.8518211128242893,0.277946507213811,-0.6349660920704786,0.6916572482602359,0.34413414949670856,1
73,14.64,-0.4656066023208762,0.8396736197320267,0.27956878259441864,-0.6455959600845843,0.6850283701246664,0.33755294169479033,1
74,14.84,-0.5945857458960172,0.7147286397653354,0.3682808198596152,-0.6551750819474096,0.6729126288199189,0.3434155004799163,1
75,15.04,-0.602917915549946,0.7011167243505058,0.38069059082793955,-0.6600680230070262,0.6634342702197514,0.3523707906475534,1
76,15.24,-0.608834627083991,0.6965732247165404,0.3796131444925191,-0.6693598282859878,0.6546816658898135,0.35121124216729155,1
77,15.44,-0.6653722710132113,0.6329313720499609,0.3958252382575878,-0.7321112807949477,0.5754602455689286,0.36449770685496713,1
78,15.64,-0.8951506358789958,0.13793200082480164,0.4238868979266714,-0.8372899914031735,0.385295152773268,0.38793442170745523,0
79,15.84,-0.8388843300791454,0.13044833318280935,0.5284470769315414,-0.8617375223595352,0.24204992264885714,0.4458926748706828,0
80,16.04,-0.8142365784161362,0.062885622500428,0.5771171396275784,-0.8542502975114998,0.16031893654241536,0.49452428432527246,1
81,16.24,-0.8145451609167794,0.043061436928228634,0.5784996918553494,-0.8590984206994399,0.11664230557603482,0.4983417262297385,1
82,16.44,-0.7834882860149314,-0.06420108070752015,0.6180811653119448,-0.8588120887698543,0.0666268682708917,0.5079396190564122,1
83,16.64,-0.7729520901371633,-0.043388222654613,0.6329790900870774,-0.8486808820810651,0.06984805672050645,0.5242728386655889,1
84,16.84,-0.772331367673831,-0.0401533989310661,0.6339494956708713,-0.8471044164183491,0.06515103105048552,0.5274177194952661,1
85,17.04,-0.7042672647335735,0.34282923074065147,0.6216717287881639,-0.848257204065142,0.07311479361134265,0.5245130529422112,1
86,17.24,-0.743393194024708,0.315589236136719,0.5897202668319829,-0.84398950964474,0.09984112025035181,0.5269852543637121,1
87,17.44,-0.7431344324735222,0.3317986067598355,0.5810859659503819,-0.8424509978163448,0.12102852732177713,0.5250032493733412,1
88,17.64,-0.8413028089804493,0.1747569329818421,0.5115365069830162,-0.860527569418569,0.04559425915565496,0.5073593064117549,1
89,17.84,-0.7143940463996147,-0.5824274300561446,0.3878394451148316,-0.8473183322690163,-0.25584333658793323,0.46539857211255653,1
90,18.04,-0.7357865588611288,-0.551755535548758,0.3926626653892655,-0.8414731283412926,-0.2801703786255027,0.4619821784661845,1
91,18.24,-0.6615563651218254,-0.6561160849153066,0.36311824366479944,-0.8460025846911998,-0.2931460299054167,0.44535944117813614,1
92,18.44,-0.6474813229265888,-0.664060769796592,0.37388665458717874,-0.8402750952310667,-0.31082786285024167,0.4442114406567819,1
93,18.64,-0.6502397935086147,-0.6549058820318842,0.3850798574554552,-0.8435588306312922,-0.3040591491457497,0.442669778824723,1
94,18.84,-0.7508903715097275,-0.5123618076672259,0.41671216447082027,-0.8479654333347888,-0.3021687890952886,0.43548667805804425,1
95,19.04,-0.9342093532809868,-0.22477929099419072,0.27699666890139646,-0.8566030059211146,-0.2869739548904394,0.42880909442483983,1
96,19.240000000000002,-0.9388421499600763,-0.2161044941536018,0.2680937617046648,-0.8654591198960411,-0.2628495055344077,0.4264863998172596,1
97,19.44,-0.9503763512374981,-0.129829097460526,0.28271752061215666,-0.8808529044792842,-0.17285766060750293,0.4407021554743188,1
98,19.64,-0.8235975134994178,0.1760103102339297,0.5391729837899264,-0.8663238140069638,-0.030784859205767127,0.4985331901971113,0
99,19.84,-0.7911326454499698,0.22671461061255635,0.5680753670404386,-0.8392683231345891,0.05123645859968773,0.5412979836402655,1
100,20.04,-0.7662063263385596,-0.06714017587711023,0.639077508806216,-0.7991296797283435,0.07602584738779442,0.5963319759213347,1
101,20.240000000000002,-0.7702485339994252,-0.09096764965830426,0.6312226885873011,-0.7743734705383993,0.05313399337122789,0.6304938595059761,1
102,20.44,-0.7852556695642307,-0.08947630145729321,0.612672445026505,-0.7730800179465611,0.04756042990129221,0.6325229571796974,1
103,20.64,-0.8266220569394692,0.2336631583419911,0.5119545911648866,-0.7851356370485728,0.08128102135351915,0.6139669592120252,1
104,20.84,-0.8155009524896004,0.3048428998941755,0.49196443252806876,-0.789134815096904,0.17525744459054624,0.5886858854410957,1
105,21.04,-0.725998320035771,0.6039425159195053,0.32890709443558086,-0.7888700284477703,0.33092979145901397,0.5178508968242768,1
106,21.240000000000002,-0.7224325371520391,0.6281605144893558,0.2889733505023182,-0.7823817998508686,0.4144777083624698,0.4648515338607709,1
107,21.44,-0.7358213007093389,0.6281222065178327,0.25304052462320337,-0.7824281092651358,0.42464388952607757,0.4555039197635393,1
108,21.64,-0.7405103929140608,0.6256628354391585,0.2453372665057149,-0.7857705968552484,0.4293673446202347,0.44520585406249485,1
109,21.84,-0.7229474970616634,0.5200970800184127,0.45480319243448264,-0.7967602966940829,0.4197487192326001,0.4347229489163751,1
110,22.04,-0.7455875304436284,0.503634479942775,0.43640754468700726,-0.8153422555880669,0.382712754078997,0.434451325372397,1
111,22.240000000000002,-0.7548383535219301,0.48585144104620054,0.44064434330379426,-0.8272263808193361,0.34912047580031513,0.44024017110380176,1
112,22.44,-0.7760990331098012,0.46608970252365384,0.4247713267246787,-0.8401643364764593,0.32903001805129517,0.43111846972060464,1
113,22.64,-0.9394193074508435,0.19693523499454801,0.28054924346043086,-0.8864078578426379,0.2549984502945413,0.38633780542707485,0
114,22.84,-0.9340411247727316,0.1901260534506385,0.3023561823951608,-0.9268751978151795,0.14898179212106732,0.34453852221699,0
115,23.04,-0.9385787845139159,0.09636517774286776,0.3313361099834525,-0.9337225717860197,0.013260337430884698,0.3577517608461497,0
116,23.240000000000002,-0.793905362048329,-0.3885573120110649,0.4676938008929003,-0.9089358482300478,-0.11284671833475435,0.4013741919498563,1
117,23.44,-0.790685618533498,-0.38507676700223525,0.47595392230698763,-0.8953311329401694,-0.16007219887087482,0.41564293995774276,1
118,23.64,-0.7997042433192479,-0.32501019884546206,0.5048182780601572,-0.885825022778994,-0.11823331795540941,0.44870358984952435,1
119,23.84,-0.782010549523731,-0.2861549795350708,0.5536919975228788,-0.859983874967245,-0.08517897751442026,0.5031622765926714,1
120,24.04,-0.7712067847381672,-0.2703703122746744,0.5763158764204867,-0.8514818750160279,-0.07374039339477126,0.5191733534198132,1
121,24.240000000000002,-0.8539575212380217,0.17975223327655415,0.4883090072414244,-0.8593735977359549,-0.0329575048429947,0.5102850403342089,1
122,24.44,-0.8513144920560619,0.17268087549197578,0.49542401118098234,-0.8598221956788626,-0.02530360265659077,0.5099661944781994,1
123,24.64,-0.8482617260628358,0.17348434551090908,0.500355099863637,-0.8579250638644706,-0.012860545105809817,0.5136138541479633,1
124,24.84,-0.8563408868516862,0.1222223142999818,0.5017389673856554,-0.8543187167120083,0.01726157339084113,0.5194627689831294,1
125,25.04,-0.8560405654880995,0.15848546641991892,0.4920131168703494,-0.8559697493884317,0.052242567669552153,0.5143797257427608,1
126,25.240000000000002,-0.8506123240942142,0.2092640534566303,0.482355916341803,-0.8501563693322121,0.10225608603317478,0.5165054119300666,1
127,25.44,-0.8461525998520552,0.23540819467243593,0.47813048391069213,-0.8489508905423242,0.12828487358702426,0.5126649750628142,1
128,25.64,-0.7961905031607608,0.20005854714792004,0.5710142383423364,-0.8478268257900391,0.1364240057335554,0.5124238130009162,1
129,25.84,-0.7740834728196768,0.18940957472637612,0.6040850851572169,-0.8493476398408192,0.1349660481452298,0.5102869315834865,1
130,26.04,-0.8389176063252792,0.30665761383755386,0.4496424776118486,-0.8469934310474423,0.17002707890564758,0.50367938234684,0
131,26.240000000000002,-0.5858902935914824,0.7606214678844353,0.2796203613269495,-0.7798748828395192,0.4145978332055846,0.4689390192949188,0
132,26.44,-0.5120150909641454,0.8109734467637079,0.2831300324394602,-0.6956804030922096,0.5624226848359465,0.4468886889767814,0
133,26.64,-0.4799093279640516,0.8265352767840225,0.2941538256842024,-0.6755793926777944,0.5928245173668759,0.43835097330544814,0
134,26.84,-0.478077319170329,0.8206691746774826,0.31296035312654447,-0.6639828724068895,0.5951759834661962,0.4526502997406968,0
135,27.04,-0.45206925820859045,0.488864567228176,0.7460863359501655,-0.6264527926502856,0.5377529366581261,0.5642505451448141,0
136,27.240000000000002,-0.35975682665075703,0.4786761295434482,0.8009021093014312,-0.574404927163375,0.527102173710051,0.6262765188960681,0
137,27.44,-0.28654187673757775,0.466009741181301,0.8370953792727827,-0.5319644655521603,0.536657153291988,0.6549907687978086,0
138,27.64,-0.24846778087777396,0.4360438112280674,0.8649448286193612,-0.5243449122007593,0.5288514079289713,0.6673669166063921,0
139,27.84,-0.26694374478681077,0.3810528332392912,0.8851778213441089,-0.5555396435900221,0.4732316725748351,0.683686688821638,0
140,28.04,-0.2834758146562968,0.31767379246954924,0.9048341417535941,-0.5890745823601774,0.389870922571621,0.7078077423639387,1
141,28.240000000000002,-0.25557497785263433,0.282695940133105,0.9245347133168587,-0.5766778290661885,0.3488778474008443,0.7387333274304478,1
142,28.44,-0.2293001820318061,0.2600428980482076,0.9379760752252,-0.5589394708437556,0.3211453504536799,0.7644948213133204,1
143,28.64,-0.24145690420656102,0.18669806371106348,0.9522827292445891,-0.5462917508462144,0.3183245197311532,0.7747482320698177,1
144,28.84,-0.43474486410810986,0.6226704464832936,0.6505985076895864,-0.5480261957979407,0.3561251181152856,0.7568633885759115,1
145,29.04,-0.4739932228624805,0.6371968823371191,0.6077092708033134,-0.5585868439103189,0.4023719902846857,0.7253120150973994,1
146,29.240000000000002,-0.45921606801755877,0.6294032432386205,0.626874915972237,-0.5620413689695355,0.4101204244879508,0.7182692649589525,1
147,29.44,-0.3179202298824942,0.4884077235067728,0.8126405251095925,-0.5541073952690787,0.412111695307424,0.7232765343206968,1
148,29.64,-0.265599485558141,0.44629644475480806,0.8545621081410467,-0.5546200632773688,0.4041073081745016,0.7273883893011807,1
149,29.84,-0.33519477147671517,0.4179402983658786,0.8443757292677907,-0.5497892520445169,0.396074617896615,0.7354295856126413,1
150,30.04,-0.27855555524632614,0.38031081273214645,0.8819129709673315,-0.5451087214005206,0.3886320776071626,0.7428469493158266,1
151,30.240000000000002,-0.2681512725313276,0.3690102985068118,0.8899024073659668,-0.54018519513117,0.38490844503164845,0.7483618402246458,1
152,30.44,-0.4726173310655539,0.06506072421940116,0.878862879259626,-0.5493841830059609,0.355284345389874,0.7562737952512711,1
153,30.64,-0.4571255760637461,0.057398549823855366,0.8875480911964755,-0.5655550418937766,0.2980370320908763,0.7689742662085584,1
154,30.84,-0.49045130754719746,-0.024643897211315546,0.8711200796993964,-0.5834483658483536,0.23798469934645775,0.7764993800807971,0
155,31.04,-0.4735464177697928,-0.06079583221913528,0.8786681153895253,-0.6017893847091882,0.1718745264089997,0.7799414616642837,0
156,31.240000000000002,-0.44350094285985636,-0.12301753768419861,0.8877914164399968,-0.6109745984138276,0.06640406874880846,0.7888602789763635,0
157,31.44,-0.41127647998471745,-0.3448566864053666,0.8437567912929003,-0.5928752479075597,-0.17723993007994895,0.7855475463673754,1
158,31.64,-0.42251281495942916,-0.32760911720167213,0.8450770305252654,-0.5681442530485981,-0.2246011449840599,0.7916858173541449,1
159,31.84,-0.4190579231181713,-0.31231787723541776,0.8525538109885192,-0.5571065219957414,-0.2238881629299839,0.7996914490287147,1
160,32.04,-0.42212950214968403,-0.31169418524232245,0.8512657741862908,-0.547767617598417,-0.22288981243994183,0.8063936809158675,1
161,32.24,-0.39027857829341556,-0.505961530971353,0.7692109986878729,-0.5461780281124189,-0.23553627791682144,0.8038732632649997,1
162,32.44,-0.3657255640481252,-0.5291665285101754,0.7656550116770419,-0.5509146360991871,-0.26535438915275683,0.7912522428967057,1
163,32.64,-0.3702446737696601,-0.5224589418660015,0.7680856303886022,-0.5581756498555588,-0.2722803001567876,0.7837750838441183,1
164,32.84,-0.4235700211942755,-0.4166430073650562,0.8043612630897159,-0.5789490839642231,-0.2553043401526347,0.7743627393387514,1
165,33.04,-0.5423570222103273,-0.03465048010494462,0.8394332639868662,-0.5957702645518215,-0.21560368340700245,0.7736748952739687,1
166,33.24,-0.5237901684003727,-0.018335126927242346,0.8516499765793877,-0.6139292990028471,-0.17971109518705405,0.7686317311252138,1
167,33.44,-0.3429993322755033,-0.4874160739780237,0.8029800924595882,-0.6180677545348505,-0.17649054173755815,0.7660570079840215,1
168,33.64,-0.32805817941728277,-0.5031085494413867,0.7995371275909595,-0.6217468200842104,-0.19381690826572132,0.758858285706554,1
169,33.84,-0.3558774817878878,-0.4583834051329472,0.8143929468352707,-0.6293273562256327,-0.20450096312266475,0.7497509151631347,1
170,34.04,-0.3142292882562355,-0.658510367395348,0.6838304252041028,-0.5245061138628575,-0.48962246377396357,0.6965365600515143,0
171,34.24,-0.2483493102733625,-0.856776663467616,0.4519473077959918,-0.4713641158971947,-0.6474526786162216,0.5988496465701016,0
172,34.44,-0.30299305263140713,-0.8298140676407365,0.46861905979445234,-0.5158055426728911,-0.6308012453523592,0.5796847686543418,0
173,34.64,-0.6242167789060298,-0.303950843743758,0.7196994494368038,-0.6091183750768223,-0.5200211602348199,0.5987927839009116,1
174,34.84,-0.5594435972834013,-0.4197909912319117,0.714701605664306,-0.630889466645054,-0.48083634927686747,0.6089128723310205,1
175,35.04,-0.5633398413347033,-0.3998509824321359,0.7230265659109956,-0.6535525976352339,-0.4587376138362185,0.6020206007904471,1
176,35.24,-0.5583508688558736,-0.397916913168363,0.7279467270772311,-0.6587856789615353,-0.4481551745154592,0.6042833513759978,1
177,35.44,-0.5588648839828269,-0.40257494020096024,0.7249851439671403,-0.6654185898227947,-0.44445038372834217,0.5997349053723429,1
178,35.64,-0.5569291721152353,-0.4007374535531538,0.7274884126683889,-0.6689550929178119,-0.4415477872177013,0.5979419999151031,1
179,35.84,-0.5585948914634381,-0.4047923122781396,0.7239578241523927,-0.6734940259905371,-0.4400448133305036,0.593941376918615,1
180,36.04,-0.560570160481404,-0.4017776196498182,0.7241103779993621,-0.6766221055511317,-0.43454678536435126,0.5944338631076312,1
181,36.24,-0.5622068565543608,-0.39628667129550976,0.7258652248157295,-0.6801994759199643,-0.4271180451685165,0.595733873847737,1
182,36.44,-0.5697158205355813,-0.3869257748212598,0.7250602241265457,-0.6890939772579725,-0.4166926725949022,0.5928884440706415,1
183,36.64,-0.5715317067354369,-0.38012794379730047,0.727223661977878,-0.6934194109140179,-0.40717093304697133,0.5944588731353201,1
184,36.84,-0.521418933276692,-0.4770765644747547,0.7074745561852821,-0.6925463107033563,-0.3996571276140771,0.6005445760960929,1
185,37.04,-0.5101313879285427,-0.47750946938816036,0.7153675095325033,-0.6990723770163546,-0.3877998909824123,0.6007570692440773,1
186,37.24,-0.5025951625723534,-0.48332648501168507,0.7167939811724977,-0.704400928055033,-0.38035245590950567,0.5992923675793107,1
187,37.44,-0.5009618325379208,-0.49046442178211425,0.7130791634216953,-0.7086142699958224,-0.38206358056891115,0.5932058974429965,1
188,37.64,-0.5109743505281759,-0.48531326906986444,0.7094901295768891,-0.71543433942449,-0.37930039318428577,0.5867579719973904,1
189,37.84,-0.5270725952338229,-0.4736612142644588,0.7055774468157281,-0.7225251175975153,-0.3689819227852754,0.584645016311931,1
190,38.04,-0.5363228604294266,-0.4601048623086055,0.7075742399641026,-0.7360135424911606,-0.35215420941727643,0.5781621555059668,1
191,38.24,-0.5585014342324257,-0.437634213036602,0.7046647738748956,-0.7542759015291203,-0.3200716331323449,0.5732556271301894,1
192,38.440000000000005,-0.5214681938956205,-0.4758476797571008,0.7082654222994538,-0.7586744714840294,-0.30220053386343354,0.5771376643844038,1
193,38.64,-0.523910504879887,-0.4697359330803754,0.7105391868501068,-0.7619299515181599,-0.2960929221922529,0.5760136547054999,1
194,38.84,-0.5314457383909976,-0.4580605986177365,0.7125629201270638,-0.7669120810564883,-0.29006013306211414,0.572460460763532,1
195,39.04,-0.5218307877029176,-0.4623268117643964,0.7169006542953641,-0.7646729569502757,-0.2926370285493689,0.5741418278010391,1
196,39.24,-0.5298851581214642,-0.4503810930896028,0.7185948720871906,-0.7660981081045793,-0.2858550730766425,0.5756566389393347,1
197,39.440000000000005,-0.5267016124587016,-0.4531174552651727,0.7192148379777895,-0.7646052615537685,-0.2945084640170714,0.5732744182558638,1
198,39.64,-0.390371977692913,-0.534611994993248,0.7495330105081854,-0.7619469275025734,-0.2972402063294398,0.5753999821086375,1
199,39.84,-0.4182989883245951,-0.5091081867135961,0.7522199216903358,-0.756825802435146,-0.30247180643841065,0.5794182522826515,1
200,40.04,-0.43606262798902384,-0.491023964640644,0.7541517424364211,-0.7586578033295446,-0.295703387242719,0.5805151541694437,1
201,40.24,-0.4762104283948398,-0.47180789232406645,0.7420383687038868,-0.7609373220847487,-0.2903148575304708,0.5802513897920056,1
202,40.440000000000005,-0.4924523660590828,-0.46115492065056723,0.7381238421312379,-0.7566020583595903,-0.2915983358557892,0.5852552740575391,1
203,40.64,-0.504851447953629,-0.44754583060752473,0.738124477987924,-0.7660245536100511,-0.2709918173167759,0.5828977768132876,1
204,40.84,-0.5038231438440545,-0.44428563242278146,0.740791817280525,-0.7664710699907114,-0.26030415037684795,0.5871659460185694,1
205,41.04,-0.6338145041533882,-0.4793153665971397,0.6070716215313019,-0.7580539986372185,-0.2770393701645874,0.5904263904407842,1
206,41.24,-0.6687812997534301,-0.48316771248202595,0.5650491436282329,-0.7609810353268369,-0.30044724586825233,0.5750124488418293,1
207,41.440000000000005,-0.6454252013446508,-0.5443752206077327,0.535800269370499,-0.7454119011664786,-0.38937431852367227,0.5410626005127335,1
208,41.64,-0.42206318712404595,-0.8830017614266871,0.2053547062817414,-0.601712664046499,-0.6824952140199184,0.4149001720486161,0
209,41.84,-0.0054040560920070035,-0.9873420403255212,0.1585133798251479,-0.3909130168104822,-0.8718261277767645,0.29513762249821796,0
210,42.04,0.026171467410574467,-0.9938322659072097,0.10776122463724329,-0.20315924478302194,-0.9547870815343984,0.2170436596498932,0
211,42.24,0.16543922872540845,-0.9807610779211512,0.10362224487861348,-0.09780088181966956,-0.9753693752141029,0.1977108226925011,0
212,42.440000000000005,0.4687605060136859,-0.8753784755816058,0.11822060941400027,0.034588585068426436,-0.9839389175680944,0.17512234659771725,0
213,42.64,0.44830913302428405,-0.8846864974141073,0.12786212316465612,0.1328105210270446,-0.9749965364663683,0.17816598828932254,0
214,42.84,0.5268503089058798,-0.837960950009331,0.14230319133891273,0.22017788914291575,-0.9574466747030306,0.18659464684893667,1
215,43.04,0.6190004460864871,-0.7845552979975944,0.03621370084147676,0.2560419033033481,-0.9490933899186198,0.18347828472487326,1
216,43.24,0.6314691656336817,-0.7745695376955729,0.035898803990779854,0.28210283643389905,-0.9416601816336502,0.18355950534262738,1
217,43.440000000000005,0.671094670122304,-0.7413192426055966,-0.008816137255128458,0.3351642643129421,-0.926764778694144,0.1696229963759602,1
218,43.64,0.6582458169409083,-0.7516559998207555,-0.04154157451586341,0.33339616985862314,-0.9306772940991284,0.1506212739686039,1
219,43.84,0.6220982059287946,-0.7809362546370354,-0.05596774404650235,0.2959462164519671,-0.9452444566836142,0.13758180866911363,1
220,44.04,0.18375879724183647,-0.9826933581659948,-0.023376660426017375,0.09442674621958502,-0.9848346095278425,0.1455485536668919,0
221,44.24,-0.4615492875208434,-0.8755024164671135,0.14306562811956805,-0.28839100050203226,-0.9276771236209959,0.23716193864048454,0
222,44.440000000000005,-0.6879587558304365,-0.6942735335567168,0.2114166759716663,-0.6462853556485236,-0.6809615389892553,0.34439312056376326,0
223,44.64,-0.9478488348574363,-0.08347822318986585,0.3075938434241877,-0.8712900807467705,-0.35032356366606876,0.3436960807640849,0
224,44.84,-0.9214018519987306,-0.1644632359303208,0.3520944066023161,-0.9184584544426387,-0.15713845334192897,0.3629622210976593,0
225,45.04,-0.8475251370497014,0.03257510469820471,0.5297546645597242,-0.8838910833790472,-0.04390824476958262,0.4656271241715509,0
226,45.24,-0.7934630309689016,0.0815974380454255,0.6031237655656319,-0.8582746882455039,0.004038082739518152,0.5131746811806599,0
227,45.440000000000005,-0.7705688285086966,0.09722742992813209,0.629897219711522,-0.8463783631590662,0.02381634994606724,0.5320492908100023,0
228,45.64,-0.752839778000907,0.0739166114743723,0.6540402152831982,-0.8241638228717847,0.00484856753225339,0.5663307200410824,1
229,45.84,-0.728629360868794,0.055895862933352185,0.6826235470498139,-0.7980384057706392,-0.0019560523819000036,0.602603415833445,1
230,46.04,-0.6409673304656605,-0.17547695590402965,0.7472407371271858,-0.7670877126843092,-0.0011008326254127708,0.6415412919027785,1
231,46.24,-0.6330171174705405,-0.16254643366170443,0.756880430380618,-0.7451478442967717,-0.012431134649799157,0.6667834408795652,1
232,46.440000000000005,-0.7773741857109823,-0.04735101028687436,0.6272537422885573,-0.7442412642320934,-0.024771053499281465,0.6674513731521956,1
233,46.64,-0.7956035693146722,-0.043639307287506146,0.6042438012534512,-0.7611171937202696,-0.0215612350812924,0.648255914408153,1
234,46.84,-0.6384661806747098,0.24788247125860327,0.7286392911292778,-0.7674951277226861,-0.032827646838682376,0.6402136944216148,1
235,47.04,-0.6331000110372014,0.17389581986775768,0.7542841771224001,-0.7771476123651406,-0.011828424924553799,0.6292071812677962,1
236,47.24,-0.8003071283996896,0.018850723372774335,0.5992938765421905,-0.7859039181915974,-0.010025136811121696,0.6182673596454964,1
