,timeStamp,x_gaze,y_gaze,z_gaze,x_head,y_head,z_head,fixations_head
0,0.04,-0.9954005376872799,-0.03797441783840219,0.08795290308857795,-0.9918214020577658,-0.08629597677987456,0.0940388792562698,1
1,0.24000000000000002,-0.9975741992427536,0.0371515932372876,0.05886829473587726,-0.9957381613649159,-0.04591825108697169,0.07998142421044149,1
2,0.44,-0.9930696974393288,-0.11113929932701459,0.03821821781376226,-0.9957795403172653,-0.05449795672521519,0.07384497138135057,1
3,0.6400000000000001,-0.9907060239503486,-0.13194125514208907,0.033061749802785444,-0.993421807711866,-0.08945227966837499,0.07149406705887905,1
4,0.8400000000000001,-0.9863267636265672,-0.16080690890663232,0.03606457266953414,-0.9901051324145098,-0.12020430994207573,0.07240684109803192,1
5,1.04,-0.9848065016284394,-0.16886568289658777,0.04050352441731072,-0.9883368918962149,-0.13148164214485228,0.07682945981733008,1
6,1.2400000000000002,-0.987733664319798,-0.1515721807552072,0.0375244239195661,-0.9893409389555756,-0.12236909597956129,0.07893231819505475,1
7,1.4400000000000002,-0.9924666094544675,-0.1185798271590861,0.030803469104551614,-0.991790754044475,-0.10337097646425011,0.07526979086406009,1
8,1.6400000000000001,-0.9986410906528757,0.048924861233740694,0.017953551539855093,-0.9941362260283544,-0.07673135969048467,0.07619358593838577,1
9,1.84,-0.9964494884849185,0.0837818081074347,0.00830816034952159,-0.9965707626939073,-0.04553936985258793,0.06908603865553108,1
10,2.04,-0.9896488149104284,-0.0257116019219739,-0.14118830218184067,-0.9966859541875528,-0.04733077149649551,0.06615819522019885,1
11,2.24,-0.9450916678987126,-0.290664960673867,-0.1493841353855516,-0.9956519721124439,-0.06822786898409898,0.06342009399622485,1
12,2.4400000000000004,-0.941329629628758,-0.30060908441548595,-0.15340373773108906,-0.9941211803602577,-0.08990504571418347,0.06033375103753387,1
13,2.64,-0.9393391848089738,-0.3077141583302767,-0.1515054211752908,-0.9921137805139499,-0.10959978734817293,0.0608122777698157,1
14,2.8400000000000003,-0.9382393075025341,-0.31206149830593,-0.14941426682958803,-0.9903353499004149,-0.1248669650829072,0.06036667763432891,1
15,3.04,-0.9837948832505119,0.13484962046333587,-0.11816601690421025,-0.9914551153448989,-0.11658597563033363,0.05851892465482124,1
16,3.24,-0.9794385999887496,0.15866629599335144,-0.12459949986989936,-0.9951172511980748,-0.08090428402808424,0.056534530986742645,1
17,3.4400000000000004,-0.9980391362965806,0.040359316115732596,0.04784357870232973,-0.9982608328127185,-0.021370964589786667,0.05494171042623267,1
18,3.64,-0.9978940223856797,0.05492686436896541,0.03450448749832509,-0.9981745091415551,0.02717389973537142,0.05393726423529169,1
19,3.8400000000000003,-0.999084712240486,0.03181411238186485,0.028593705963014734,-0.9980247312726798,0.027875820893334652,0.05629897314888374,1
20,4.04,-0.9775080429885817,0.20464748444938746,-0.050965017425397094,-0.9982852368187011,0.007024589163395992,0.058114035283360135,1
21,4.24,-0.9816251522305067,0.18389866617738565,-0.050924857256681555,-0.9981421261133794,-0.010642531886225704,0.05999193773260959,1
22,4.44,-0.9896778825720707,0.13767114443483242,-0.0398038281785327,-0.9978660493401055,-0.030813203929980982,0.05756643151994262,1
23,4.640000000000001,-0.9929539679446046,0.11149843748863522,-0.04013123447712693,-0.9976108898202215,-0.038901810832302854,0.05708906748296062,1
24,4.840000000000001,-0.9936372605006316,0.10342585310057972,-0.044587974334087475,-0.9975119907756984,-0.037466230629424516,0.05971691402882583,1
25,5.04,-0.9940277284199792,0.0981182335052195,-0.0477670114831507,-0.9972460402692602,-0.03738847479804011,0.06405027025359052,1
26,5.24,-0.9687643595874971,-0.2221602574271019,-0.11018364494311575,-0.9961147864838535,-0.06105614946974207,0.06346242006223715,1
27,5.44,-0.9653984912088365,-0.23355975432519588,-0.11599825141465013,-0.9943081115767674,-0.08854904332966121,0.05924901837199275,1
28,5.640000000000001,-0.9935649495466776,0.013307847364632298,-0.11247929689870945,-0.9939068869836181,-0.09274289481277444,0.05956387720993624,1
29,5.840000000000001,-0.9930218352640543,0.020341845811468195,-0.1161630061499455,-0.9950609952442095,-0.08006776845613336,0.05867510714142919,1
30,6.04,-0.9790881615802698,-0.19093125563288718,0.07022554717349594,-0.9953725339506765,-0.06399935121650353,0.07167706537293529,1
31,6.24,-0.9795312003545831,-0.1874590480235818,0.07333302697967752,-0.9953296182509579,-0.05953549207902323,0.07598997443946659,1
32,6.44,-0.9776649639568755,-0.19482217844108018,0.07883867730164719,-0.9949864621327582,-0.06488545115892169,0.07610399726979067,1
33,6.640000000000001,-0.9955294749777424,0.03243726470615823,-0.08870675458455078,-0.9955834056371913,-0.05649204328477875,0.0749822076586371,1
34,6.840000000000001,-0.9966332416327061,0.020179021755321387,-0.07946690351135383,-0.9959406293198789,-0.04630197226733187,0.0771906097532513,1
35,7.04,-0.9976842898745586,0.011598124536443533,-0.06701896182973058,-0.9952769531395084,-0.04139957261423039,0.08780581949219618,1
36,7.24,-0.999041047015796,-0.009370819292854691,-0.042768845242334555,-0.9947749345532755,-0.03822158824567937,0.09466752228987844,1
37,7.44,-0.9887855118404066,-0.12112921246976685,0.0873551684845213,-0.9945926256877704,-0.037227665508725895,0.09695158507356919,1
38,7.640000000000001,-0.9888823303111082,-0.12509785613875143,0.08038820303975494,-0.993574052839993,-0.05274940456614817,0.10014041062941498,1
39,7.840000000000001,-0.9891304120173143,-0.12234747341184131,0.08156055279482263,-0.9926267030360905,-0.059987239121664995,0.10532691755795982,1
40,8.04,-0.9933209009549114,-0.10487446775253907,0.048113758320719985,-0.9930959142080873,-0.05405255937173448,0.10410968258797265,1
41,8.24,-0.9958410700320607,-0.09049776439590253,0.010522256257280638,-0.9937449052236382,-0.047964619571440936,0.10084869166939756,1
42,8.44,-0.9971611696221191,-0.07434092747538729,-0.011959443964777095,-0.9938386895977265,-0.04624618010510922,0.10072710600607797,1
43,8.639999999999999,-0.9974929947060459,-0.06467819538441938,-0.028713351496809696,-0.9940411716430632,-0.04718639619525586,0.0982628774898791,1
44,8.84,-0.9973426832337965,-0.06217814132065117,-0.03796644494709341,-0.9943538359799176,-0.04816935544188563,0.09455243026139797,1
45,9.04,-0.9958903803063851,-0.07698068625073273,-0.04771084109057548,-0.9946739963855287,-0.049771757929685224,0.09025748183408584,1
46,9.24,-0.9955286334776194,-0.07564842634667858,-0.05656903320240682,-0.9951277046108715,-0.04978568518656215,0.0851013341047175,1
47,9.44,-0.9955691838248789,-0.07038194832087895,-0.06235688870382967,-0.9951732861176646,-0.05229694371692017,0.08303710180177488,1
48,9.64,-0.9958312321926186,-0.06682459788701597,-0.06208566748428976,-0.9952677367884541,-0.05089109881739762,0.08277818655386326,1
49,9.84,-0.9813363027448684,-0.17413310879696134,0.0815887328969982,-0.9953523261432242,-0.04866719789197861,0.08309783806222647,1
50,10.04,-0.9816773123464021,-0.17588139440769038,0.07331704798715576,-0.9954916636722038,-0.04744520096518291,0.08212977818380858,1
51,10.24,-0.9815490928559534,-0.17724128736874237,0.07174192892253728,-0.9953771895066899,-0.048997546164647264,0.08260442530280267,1
52,10.44,-0.9829973343189722,-0.17127856564865862,0.0661807651144444,-0.9953398848871029,-0.049223906155885004,0.08291875913015939,1
53,10.64,-0.9976157546313726,0.03289617054359281,-0.06066834491597517,-0.9953910149233762,-0.041833480591936804,0.08629419048450042,1
54,10.84,-0.9977437206493334,0.009331064554814358,-0.06648608229621551,-0.995324457756092,-0.03591493476254491,0.08966237367783753,1
55,11.04,-0.9973705254707543,-0.017381724872498682,-0.07035560079090057,-0.9952144600806951,-0.02872165734381979,0.09339831286332041,1
56,11.24,-0.9966633018122176,-0.03657712843573566,-0.07296832529367839,-0.9947816622253663,-0.029658793921198565,0.09762069679774582,1
57,11.44,-0.9958689833094216,-0.04705492107123891,-0.07765824157962249,-0.9946958450234433,-0.03233877874265689,0.09764414617647031,1
58,11.64,-0.9954245021982692,-0.047078425023426615,-0.08314855573395145,-0.9947761646252482,-0.03575183141469337,0.09561479406439481,1
59,11.84,-0.9957613400315872,-0.04249650554532901,-0.0815683806075234,-0.9949382872339205,-0.03542215522564083,0.09403762818788931,1
60,12.04,-0.9956111995432303,-0.03549308911475028,-0.08659434143858889,-0.9953471557778792,-0.03237685717585546,0.09075119064949455,1
61,12.24,-0.9950299136871896,-0.032602487862917764,-0.09408798357289144,-0.9955375498900101,-0.03171806520652819,0.08887604344563477,1
62,12.44,-0.9641898750671336,-0.2589989917467063,0.057073698778114676,-0.9952745251975614,-0.0355155247987704,0.09037293284516545,1
63,12.64,-0.9877894034636439,-0.1444359614365659,0.05839818018426091,-0.9951678913311864,-0.03299072323217473,0.09247962069590479,1
64,12.84,-0.9994425444194199,0.011474740395741222,0.03135172622499149,-0.994890018366527,-0.02245143236654992,0.09843670321248056,1
65,13.04,-0.9993111819969607,0.02476448576675327,0.027638411324556942,-0.9947118242713991,-0.006248165904981756,0.1025151065818543,1
66,13.24,-0.7727201000739178,0.6269155142975757,0.09940113115433173,-0.9869016255711098,0.11800234701108878,0.1100028524401799,0
67,13.44,-0.714550898892249,0.6916048941276706,0.10535503457800616,-0.9618356928986145,0.25307174158462953,0.10405187877960143,0
68,13.64,-0.645030377165455,0.7543798690976007,0.12184755079228247,-0.9256111574336187,0.36405297244225165,0.10348632030543196,0
69,13.84,-0.6867073213261079,0.7126111547439224,0.1435910755292797,-0.8975233254905421,0.42890247000893916,0.10244291786467936,0
70,14.04,-0.6742198270450501,0.7263955537225687,0.13333088296199716,-0.8757801918311362,0.4719508543251321,0.10134814600177093,1
71,14.24,-0.6527178241741969,0.746136778238014,0.131298705880519,-0.856327221146115,0.5060260809675995,0.10315665613398561,1
72,14.44,-0.6385727679471734,0.7579320948809379,0.13328075474605627,-0.8438427686903981,0.5257822038256207,0.10715622179415081,1
73,14.64,-0.6144342531698722,0.7776418637885318,0.13320540610305484,-0.8245134006804782,0.554831917166852,0.1110819327850784,1
74,14.84,-0.5799089717910085,0.8048845827129346,0.125961871005953,-0.7984967734447475,0.5919318719200605,0.1096337621517238,1
75,15.04,-0.5685817603948358,0.8138222567581206,0.12003381253392367,-0.7860708753232576,0.6090961839391005,0.10533004167545679,1
76,15.24,-0.6292810429071123,0.7714816443278449,0.09392252926184241,-0.7771492865984257,0.6213010670583036,0.100119780322228,0
77,15.44,-0.8872568974451494,0.453027661323897,0.0868397144825343,-0.7981692465940556,0.5945927064209824,0.09687810517577776,0
78,15.64,-0.8927197028318519,0.44288263984625137,0.08310535180495628,-0.8257930790752128,0.5540542490446089,0.10530754800627652,0
79,15.84,-0.6761623762217446,0.7285031185943224,0.10994383648259083,-0.8172895333087985,0.5646131847063126,0.11510764700784164,0
80,16.04,-0.5298065424353036,0.8463616246067583,0.054562147921042144,-0.7551498752503683,0.6443888311689677,0.12046451831989904,0
81,16.24,-0.466419329726126,0.8840696168019043,0.029562163411456194,-0.6459961620892908,0.7529024066113895,0.12580510595633623,0
82,16.44,-0.5184675331912724,0.8549972987784742,-0.013078077384288584,-0.5330266564477351,0.8395669367747456,0.10492827164696292,0
83,16.64,-0.08390273144911525,0.992918375098091,0.08410369818232864,-0.4152009101086101,0.9026713503512187,0.11310454234949889,0
84,16.84,0.03997721192315756,0.9963274595591168,0.07571932286627578,-0.2756432177550895,0.9592287700953422,0.062457850803543845,0
85,17.04,0.4118708180346396,0.900119845758877,0.14193904509504268,-0.11069959077473368,0.993052591514044,0.03990176800027565,0
86,17.24,0.4070750730852306,0.8691177364398618,0.28093459217103495,0.009078102671395694,0.9980554510477924,0.06166769564103581,0
87,17.44,0.4004831322466007,0.8818919727402235,0.24875652594918818,0.13354856051181047,0.9891126303661332,0.06181412812143005,0
88,17.64,0.47602771678393363,0.8425892968812794,0.25187474989483705,0.2637872587350779,0.9612958136004043,0.07954018407930777,0
89,17.84,0.714230904164268,0.6876228231228323,0.13057208222770433,0.3808483462633345,0.9210906444249676,0.08091082684833817,0
90,18.04,0.8601801316790384,0.4989849506704886,0.10537627849284971,0.477189862889422,0.8750795586640354,0.08078119065680951,0
91,18.24,0.8982595514936773,0.4123615901708798,0.15194636258272531,0.5922744955569286,0.8017870302959478,0.07967734911498187,0
92,18.44,0.8860581726825552,0.44885239873050486,0.11589839850629328,0.7057554561619878,0.7019336210812054,0.09590843390136079,0
93,18.64,0.9202842497609837,0.3878740278671139,0.05128974700664095,0.7798276772261896,0.6194166789935716,0.09050840633101973,0
94,18.84,0.9227563994860802,0.3842045268447398,0.030124886049501,0.8042810332506333,0.5846787596466465,0.10622037267564459,0
95,19.04,0.9969732843050255,0.07587349996119813,0.01695530553215823,0.8630525213509854,0.49048133095545077,0.12069966600565349,0
96,19.240000000000002,0.9901484727075301,-0.13574396381765866,0.034344989183519664,0.9239977535420748,0.36386092246082685,0.11761539250946482,0
97,19.44,0.974207777092773,-0.20550079205887872,0.09321282913382645,0.9746500307896645,0.19297564984551632,0.11321535252962367,0
98,19.64,0.9578550034084893,-0.2699029983812422,0.09831665123537625,0.9908797154206755,0.06096462100887653,0.12016948261969557,0
99,19.84,0.9408457542763691,-0.3173472295802466,0.11874343155674853,0.9903127892262573,-0.05200228782795377,0.12874914196051596,0
100,20.04,0.9672741923967338,-0.233131467245861,0.10015166350609866,0.9805048560337323,-0.1551042302221729,0.12063542208430068,0
101,20.240000000000002,0.9775087178884203,-0.18933515606543994,0.09289190023792532,0.9563066301232587,-0.27061367231906913,0.11066105699967133,1
102,20.44,0.7665954672752655,-0.6407717269616854,0.04174905363666404,0.9172922759381177,-0.38348499340721454,0.10730396234872623,1
103,20.64,0.7571192348750647,-0.6499240165963849,0.06610020297562466,0.9007216296686804,-0.4190079911340443,0.11459864402692366,1
104,20.84,0.7841679882130341,-0.6178311612296211,0.05801053762534144,0.9127809036620832,-0.39409565376751454,0.10732957463526273,1
105,21.04,0.9335542246889192,-0.2587738487067027,-0.24801734776219028,0.9365584797586124,-0.33571108850863707,0.10077836595511411,1
106,21.240000000000002,0.9372522682290327,-0.23792848800566457,-0.2548494070914661,0.9556613773279103,-0.2765042086896909,0.1012756360661799,1
107,21.44,0.9914792304548011,-0.115597852344258,-0.060050579598788754,0.9659674156004655,-0.23646886057242755,0.10483048210198963,0
108,21.64,0.9929736572033304,-0.09405520005057429,0.07181180574034833,0.9679081048166249,-0.21712700966519433,0.1265296894177016,0
109,21.84,0.9935041301580639,-0.0701388447919443,0.08961074606385276,0.9750108154221097,-0.17209178712566708,0.14049315504253812,0
110,22.04,0.9000235539161007,-0.4357478131120062,0.009024730707128715,0.9725243988526586,-0.19317558325235828,0.12992108247465517,0
111,22.240000000000002,0.7447349595664069,-0.6671979852309224,-0.014720343182824667,0.9465945279423461,-0.30232435532446744,0.11206597988351305,0
112,22.44,0.4953232263663646,-0.866776077242479,-0.05791488014453074,0.8384000989257063,-0.5396188683114873,0.07679030592200688,0
113,22.64,0.298174470266296,-0.9533571144685232,-0.046927577965036174,0.6945776013028545,-0.7165781890134304,0.0638565172758887,0
114,22.84,0.3020677907276444,-0.9528841009124053,-0.027693682190661185,0.5701797192294172,-0.8184139898475229,0.07136966443329949,0
115,23.04,0.3111905191968691,-0.9502075401133062,0.016312310498602392,0.4576754986964876,-0.8848921234115515,0.08659715825081601,0
116,23.240000000000002,-0.10568272122728128,-0.9941440632981824,0.022555350650710793,0.32804347611279966,-0.9400083046562518,0.093658234860106,0
117,23.44,-0.13298905298251124,-0.9911154855793396,0.0020015073432494953,0.22922519874651986,-0.9704791418462972,0.07500695635001497,1
118,23.64,-0.09906484633744056,-0.9641575385877624,-0.2461430417552498,0.170889715627486,-0.9835317478087174,0.05883881495311495,1
119,23.84,-0.08942138032029712,-0.9632305903279779,-0.2533587310475564,0.16177895101077427,-0.9850930683703204,0.058474076808454206,1
120,24.04,-0.05644239301323145,-0.9681729190156356,-0.24383489322835594,0.2079085568384027,-0.9758452960721721,0.0670819657373533,1
121,24.240000000000002,-0.10490669627088212,-0.9940867571290206,0.02803755300015585,0.2229884569195158,-0.9724038960851394,0.06860620204540427,1
122,24.44,-0.1805581487422288,-0.9817961458264123,0.058949834293081135,0.1417699871097377,-0.9879077943371168,0.06276512282213743,1
123,24.64,-0.21080579648271996,-0.9764823717759735,0.04520059490820303,-0.005476783847683797,-0.9970812805985559,0.07615067116335496,0
124,24.84,-0.5693252606490474,-0.8218943673509785,0.01893136296279487,-0.06551754217463651,-0.9934037242210235,0.09410893884852635,0
125,25.04,-0.6312495994244752,-0.7749830300584656,0.030417862315409425,-0.14307383075822705,-0.9830424627738901,0.11470569007512808,0
126,25.240000000000002,-0.7271811863546924,-0.6849609381579097,0.045122449064947244,-0.27969429163179255,-0.9507752356098292,0.1334074757263033,0
127,25.44,-0.741178206591405,-0.6709483530676134,0.021981209925892684,-0.3875844910345359,-0.913492183845257,0.12373476618607779,0
128,25.64,-0.7797225731789159,-0.6256623313671892,-0.024069814777521785,-0.47615113989852814,-0.8745220590890769,0.09214803383650488,0
129,25.84,-0.7794082349387795,-0.6251782856870408,-0.040925718259175514,-0.5102173293238009,-0.8564817372091181,0.07821323855294299,0
130,26.04,-0.7416248603826587,-0.6693418022394043,-0.044431050373678685,-0.47966836552333425,-0.8740075559100048,0.07764696599606077,0
131,26.240000000000002,-0.050351745940635906,-0.983036270644819,-0.1763643736060534,-0.3490810805459974,-0.9331636225766913,0.08572078338644311,0
132,26.44,-0.04934677564430262,-0.9745627142560611,-0.2186147563989451,-0.17595724699172005,-0.9824776228580279,0.06145541322238467,0
133,26.64,0.42375667012551227,-0.9033676890110363,-0.06600835534231514,0.0135079214185308,-0.9974578020142922,0.06996763008540281,0
134,26.84,0.4204196418781985,-0.9073292818859814,0.0009481325207987549,0.20020543260813917,-0.9787218020199183,0.044960193561326856,0
135,27.04,0.39403716555707197,-0.9190297562939276,0.010909592388025798,0.3583564137987494,-0.9328343706958107,0.03742616114231387,0
136,27.240000000000002,0.47707454536518223,-0.8759781839818784,0.07114843183384499,0.5148901526261838,-0.8507982471844925,0.10502606017736915,0
137,27.44,0.7974311379223316,-0.5959733420955932,0.09444234105158947,0.649061341928221,-0.7449666657528811,0.15409101638762976,0
138,27.64,0.778380701696834,-0.6227225580601284,0.0796247380466321,0.783395047606183,-0.5990873292835719,0.16548888566300668,0
139,27.84,0.8405178624176972,-0.5279294286246503,0.12173841361228299,0.8521191681823075,-0.4803292581574698,0.2077901031670829,0
140,28.04,0.9918087026773794,-0.05890121538311746,0.11334083165305273,0.8951540675622874,-0.3616415050432667,0.260604330656137,0
141,28.240000000000002,0.993724334466466,-0.08199587023425957,0.07608300962571085,0.941763298217557,-0.2455548492131342,0.229749224499896,0
142,28.44,0.9840742833292142,-0.13747841701684954,0.11268313868824673,0.9636111863848522,-0.12267586124711516,0.23749550425482996,0
143,28.64,0.982401635413194,-0.16232999736185091,0.09239046863169242,0.9736932478691217,0.004552970722723046,0.22781731609269606,0
144,28.84,0.9681797353902424,-0.22436579684861216,0.11085120289905541,0.964879362869776,0.1245678931056586,0.231280468512221,0
145,29.04,0.9895697882375553,-0.06337190266635033,0.1293662867980947,0.9474086330288626,0.22469440667528934,0.22788002473060717,0
146,29.240000000000002,0.7507526628625804,0.650743468706057,0.1135930329780571,0.8874578552394334,0.37545716013983477,0.2673022186094901,0
147,29.44,0.7933011853632375,0.6017773813588514,0.09239703775644581,0.8449495178649561,0.4641734593413854,0.2657128372940046,0
148,29.64,0.7575645603721299,0.6445867898642256,0.10297478915110482,0.7799093860387455,0.5579661379288806,0.28357563099356137,0
149,29.84,0.2737040183147096,0.9432345357974642,0.18813484748266032,0.7097116271492832,0.6625521268996797,0.23944537044977057,0
150,30.04,0.2209699614109346,0.9516388029537987,0.21343819917416806,0.6495749837988551,0.7258940381685856,0.22611984825313605,0
151,30.240000000000002,0.23039054553459448,0.9153916100190583,0.3301187617130964,0.5152554323095502,0.8300438201086021,0.21339891324703916,0
152,30.44,0.1629702375403153,0.8753566697613572,0.4551828230286812,0.27845483175018637,0.9361807253536889,0.21454266743754366,0
153,30.64,0.3043985563645308,0.8266948274926863,0.47319888110606034,0.03920201781532362,0.9759362830561314,0.21450308439225155,0
154,30.84,0.2751668196200065,0.8354481131611999,0.4757201610144371,-0.03357968431271363,0.9734783610124224,0.22630131559941544,0
155,31.04,0.31470930188229174,0.8126452734969222,0.4904749889361057,-0.019588905257372446,0.9696550576554257,0.24369108304177095,0
156,31.240000000000002,0.38292587880966433,0.7922074505851863,0.4751580016954006,0.04694355591958477,0.9730472797100478,0.2257770891975118,0
157,31.44,0.3705733975476854,0.792148090256812,0.48495026562777643,0.11799582960259353,0.9700597885368445,0.2122757425148909,1
158,31.64,0.3445310580102421,0.8499816425490396,0.3985342612573986,0.1612532145296965,0.9621920351757796,0.21950828742471531,1
159,31.84,0.36891133135949183,0.8535011537093455,0.36802202408467755,0.20881333747129527,0.9522175343782234,0.2228873197756123,1
160,32.04,0.36563999964911315,0.8518001715824048,0.3751584443255703,0.21986761998276455,0.9441607166383581,0.2453951320626727,1
161,32.24,0.37973995528051785,0.877901039139167,0.29169732916487556,0.20484213905765997,0.9341980959234105,0.2920849459307295,1
162,32.44,0.3674365938445421,0.8876745433453959,0.277532438825562,0.19305705766293496,0.9254213368402266,0.3260741047789262,1
163,32.64,0.3650943889736158,0.8920154018417228,0.2664856656879161,0.19419140681425556,0.930659951525045,0.31009958424174283,1
164,32.84,0.3380023578435932,0.909288778628043,0.24279275762117333,0.17094587786235166,0.9439618057736471,0.28233599855920877,1
165,33.04,0.3050204277597038,0.9205933281595831,0.24386566547455957,0.13530431302461005,0.9535536707398702,0.26912476641041055,1
166,33.24,0.30565639308361137,0.9160595076613389,0.2596327171031855,0.12925739919180712,0.9525548096613984,0.2755573612609673,1
167,33.44,0.29740060112834976,0.9126155639514864,0.280509741153506,0.11125109112481157,0.9507476397996574,0.2893131869426626,1
168,33.64,0.29785354699837713,0.9038525128601397,0.3071382417363504,0.09802534587343859,0.9455379018951109,0.31040152648816804,1
169,33.84,0.37917112230956446,0.8790541379239234,0.28895169597241205,0.07056087552090373,0.9470920721346359,0.31310983655172114,1
170,34.04,0.3907165227465954,0.8659503971178062,0.31220267228888887,0.06007197149603233,0.9484640311818591,0.31113877899554354,1
171,34.24,0.4060170800010513,0.8471649797058707,0.34272675399999347,0.06099694610537959,0.9467164241986844,0.31623944206609406,0
172,34.44,0.3968742702168559,0.8461715891340982,0.3556465315198687,0.04028735328696176,0.945754955924563,0.3223732192804787,0
173,34.64,-0.5157264206676171,0.841623451969048,0.16030041834340958,-0.014259099811270048,0.9417076006723125,0.3361301428146082,0
174,34.84,-0.5930294128963405,0.7913104553426351,0.14880819434847456,-0.1273319109256919,0.9317646350798798,0.3400018371633758,0
175,35.04,-0.5707498835611622,0.8063240617447671,0.1551969003116392,-0.20733553603070892,0.9175892608609181,0.33917830687054923,0
176,35.24,0.26047249094649255,0.8928676988884025,0.3673436452994098,-0.19171458580010192,0.921647905040146,0.33735835061045344,0
177,35.44,0.3170613716262676,0.8794631893441139,0.3549881479868716,-0.1231413046656093,0.9377062961201635,0.3248740083507083,0
178,35.64,0.3879919256213103,0.8437156823722913,0.3709529794619884,-0.0450281990092784,0.9441296056621882,0.326483918449503,0
179,35.84,0.46123796915777476,0.7926154889180196,0.3987733974758858,0.046240202693151766,0.9359849327909352,0.3489900417536938,0
180,36.04,0.496098519313399,0.7720583864378044,0.39725571999167814,0.12494270750079256,0.9240563540966586,0.36126053520411266,0
181,36.24,0.4264450116244644,0.8314749061756682,0.35608163735409687,0.21899945846903063,0.9071473054904733,0.3593368939194047,1
182,36.44,0.4740392605956033,0.8173594637940408,0.3274298189846064,0.30787461607181793,0.8933464343937214,0.3273306721568501,1
183,36.64,0.38700542462324283,0.8762284960938349,0.2871418185240879,0.33548618274221276,0.8860482112611633,0.3199493530388081,1
184,36.84,0.38883026631387385,0.8820451527397506,0.26609654737818733,0.34970459058609454,0.8830584406858052,0.31291291065816706,1
185,37.04,0.37965511410871033,0.8975564571766769,0.2241749328349497,0.35186105978129567,0.8941692801187663,0.276866561905678,1
186,37.24,0.3632612052895067,0.9081905909411552,0.20792101206364566,0.34021873597105823,0.9030094479724874,0.26234547559788285,1
187,37.44,-0.031125828745253048,0.9954202833457244,0.09038607353369903,0.31569873342659033,0.9133546350917652,0.2571334678124097,1
188,37.64,-0.0487893763196357,0.9976712290953496,0.04766251560414911,0.2617459713469328,0.9384984364745522,0.2251882128764105,1
189,37.84,-0.0935612882076301,0.9943493897223411,0.05015552320270297,0.23387790660747337,0.9538445341235203,0.18836594576406418,1
190,38.04,0.3661939047616201,0.8855272027707719,0.2859083721551541,0.2457508256160384,0.9516409303441659,0.18435311606459567,1
191,38.24,0.3619597712526463,0.8824313693423651,0.30049958801184845,0.25567719327073646,0.948741756839542,0.18579088155832163,1
192,38.440000000000005,0.34559761121265514,0.8779948194755556,0.33119086354879,0.24471594428637988,0.9470951454413531,0.20766533676434248,1
193,38.64,0.3446103158142106,0.8755124088336804,0.3387059967179158,0.2446345315851991,0.9452375987243178,0.21605515016767385,1
194,38.84,0.349435809438329,0.8760879444994267,0.3322115720214295,0.2480064289313329,0.9459455869898632,0.20899702788109487,1
195,39.04,0.35287272377247153,0.8736183809110619,0.33506979176245116,0.2505353297452415,0.944992095494261,0.21029024704633512,1
196,39.24,0.3462922067730584,0.8528116199382223,0.3908887929150575,0.2566019971641826,0.9456456193793785,0.19977431666744547,1
197,39.440000000000005,0.34569489567025175,0.8671569668689916,0.3585161557281685,0.2591206687116719,0.9462838714281804,0.19339936329086324,1
198,39.64,0.34432354388539377,0.8541307563352375,0.38974600473692894,0.24928323670877361,0.9497476163802298,0.18930750929656615,1
199,39.84,0.5868240970546705,0.5722104016333918,0.5728985384677843,0.24068289006213606,0.9506255945203168,0.19591509761688172,1
200,40.04,0.32505473838041293,0.8670367512427439,0.37760652675883344,0.23356915493374736,0.9526189676825164,0.19483981183277638,1
201,40.24,0.3192989796849727,0.8663240665132603,0.3840973487959321,0.22653722787998465,0.9527124142663677,0.20253379986363004,1
202,40.440000000000005,0.33787278218630085,0.8580913643213324,0.38667970406376817,0.24017471379644428,0.9483730132503606,0.20713458086767614,1
203,40.64,0.37090337767589443,0.8341762589629853,0.40814293257525797,0.27203306403123234,0.9382492021896808,0.21374388099828023,1
204,40.84,0.39121587655580997,0.8346106569828015,0.3877823992671741,0.30176645886572706,0.9317746253099733,0.20182430956675756,1
205,41.04,0.325129019251583,0.8392927749826373,0.4357507988546295,0.325371556670393,0.9229242895888599,0.20577683493723015,1
206,41.24,0.33066930134277006,0.8350358233886821,0.4397419547951623,0.3331064478542478,0.9209914653988001,0.20202676817812013,1
207,41.440000000000005,0.3319019178709502,0.8310806153431214,0.4462579161364912,0.3278959484123185,0.9221374924529219,0.20529659526505492,1
208,41.64,0.3340402825423219,0.8247342024793306,0.45632289543680443,0.3251354809874739,0.9203713062410736,0.2172638434050734,1
209,41.84,0.33735503156360963,0.8236817608972787,0.4557849706208778,0.3274639356805788,0.9180453563153098,0.22351754869916096,1
210,42.04,0.3394461848492617,0.8270253775070854,0.44811305777732485,0.3234742673244004,0.918947288579684,0.22561090219887434,1
211,42.24,0.35411230906987146,0.8255260241478991,0.4394442581485919,0.3225941949565891,0.919330619138094,0.22530911676068288,1
212,42.440000000000005,0.35157503705351656,0.8083988432548819,0.4721083599609179,0.3244206348559985,0.9185057932185627,0.22604946251555216,1
213,42.64,0.3506202553506985,0.8166867930098118,0.4583537047533915,0.3274085091442329,0.9174673039767913,0.22595887739478004,1
214,42.84,0.33608607008899716,0.8308216972642275,0.4436005645252516,0.32946667262953977,0.9173563449205684,0.22340333045949637,1
215,43.04,0.33638786498869866,0.832372511952404,0.4404534091528754,0.33594284728142615,0.9160435069958782,0.21910430541443257,1
216,43.24,0.7878199948152758,0.6018195802356696,0.13096888414513266,0.34785826866433484,0.912728859819107,0.21429104828518708,1
217,43.440000000000005,0.8117722139473795,0.5690186899497047,0.1313149007191927,0.35777978879826056,0.909391388888685,0.21213421351253303,1
218,43.64,0.4262904873794488,0.8885690512032737,0.16947407357323543,0.36431341327535455,0.9079148398364336,0.20728333389938527,1
219,43.84,0.43605417930070894,0.8841781180996885,0.16758821017028322,0.3770080282660464,0.904455224321944,0.19956375878322696,1
220,44.04,0.44474222804221303,0.8808916225728715,0.16197005858177022,0.3904558109130694,0.9016310502163535,0.1860260976582927,1
221,44.24,0.7538797126209672,0.633505694363305,0.17417208188396577,0.42705165187788346,0.8915744092081617,0.15073804918960823,1
222,44.440000000000005,0.8391849991903311,0.5120921966748293,0.18311231318147847,0.49274289709621744,0.8592052254438026,0.13773459235533742,1
223,44.64,0.8555319246127976,0.48208823928291133,0.18882811102541205,0.5196079595604601,0.8428911532876913,0.1397929614492834,1
224,44.84,0.8534830323826412,0.4908504697190278,0.17502151242502004,0.5202526934914737,0.842947854922334,0.13702572312052622,1
225,45.04,0.850832305913914,0.49793834820999416,0.1677551447649658,0.5185500538757037,0.8435747451123546,0.13959760396987736,1
226,45.24,0.48192367867007674,0.8673013073103101,0.12465155544528211,0.5099220881121669,0.8487798389203746,0.1398293570665005,1
227,45.440000000000005,0.439756189607337,0.8830676008639652,0.16372570356054897,0.5016199936440274,0.8534988455285467,0.14112796554192933,1
228,45.64,0.4475897717084751,0.8862617777301987,0.11917825974758652,0.4819281007263081,0.8647569495704842,0.14121162806187149,1
