,timeStamp,x_gaze,y_gaze,z_gaze,x_head,y_head,z_head,fixations_head
0,0.033366700033366704,-0.9987355338105299,-0.04659479056824257,0.018874824399121495,-0.9831406878525778,0.1130257049044876,0.14373440061308995,1
1,0.2333667000333667,-0.9994248445562011,-0.027306727102033402,0.020107778066925125,-0.9822732437258399,0.1268496852271909,0.13801605710235146,1
2,0.43336670003336675,-0.9836606290563947,0.15557930167041423,0.09059165378843562,-0.9828604367599652,0.12359730125152925,0.13678109875033645,1
3,0.6333667000333668,-0.9806309209697752,0.17392595735546595,0.09007085097830125,-0.9807303515220307,0.1421946876593231,0.1339725658668301,1
4,0.8333667000333668,-0.9771364292400676,0.19157530898624978,0.09221333764045972,-0.9767280597717891,0.16437165652619942,0.1377833654156751,1
5,1.0333667000333666,-0.9770993039823255,0.19328692437871847,0.08897817160107853,-0.9756543876482385,0.1710623076807025,0.1372450463721494,1
6,1.2333667000333668,-0.9966229499353615,0.039769091199361124,0.07184090093613493,-0.9807678596896465,0.13944681878502424,0.13656130539258388,1
7,1.4333667000333667,-0.9937148338171689,0.08588278380308277,0.07179816500405976,-0.9856319787122869,0.06084532709828631,0.1575672831205906,1
8,1.6333667000333667,-0.9908109969547079,0.11893071876913688,0.06441313877365915,-0.9837540742745329,0.07428743579894248,0.16342979603081925,1
9,1.8333667000333667,-0.9907955768043087,0.10115937523270468,0.08994946240832195,-0.9796901860495676,0.044438880088243767,0.19553088066764973,1
10,2.033366700033367,-0.9965472341280992,0.03390411210425267,0.07578998175259101,-0.9818354025500121,-0.035391764200152095,0.1864045743168782,0
11,2.233366700033367,-0.9967642313073315,-0.06176669483225554,0.051438726615301446,-0.9737855444186343,-0.16130479620081484,0.1603822814525276,0
12,2.433366700033367,-0.9984625285176042,-0.027001749572541797,0.04840955139488363,-0.922395125352405,-0.35630518939483125,0.14911017650192307,0
13,2.633366700033367,-0.7604179135947973,-0.6484923106005972,0.03496169011981999,-0.9105490581552211,-0.3704691582260908,0.18344758242040418,0
14,2.833366700033367,-0.7183844018220925,-0.6953480282296167,0.02037083346107137,-0.878405801967908,-0.447496079592851,0.1677811247373951,0
15,3.033366700033367,-0.6692964739186202,-0.7421495515755616,0.035443943012802785,-0.827787131344826,-0.5331598293180266,0.17466843327137485,0
16,3.233366700033367,-0.6308222415640444,-0.7756759980978161,0.019749570199658808,-0.7870836370434028,-0.5944583144292429,0.16467744443144836,0
17,3.433366700033367,-0.5080355534610816,-0.860614835080102,-0.0352417658402863,-0.6684695318096235,-0.7353828988150791,0.11117768288894085,0
18,3.633366700033367,-0.04642852398381442,-0.9719787002217114,-0.23043827476354042,-0.3720653245223486,-0.926907451045385,0.04909146040430023,0
19,3.833366700033367,0.1475596376512312,-0.9704420365909052,-0.1909670310643521,-0.10962055810129917,-0.9935762229175368,0.028100222320856807,0
20,4.033366700033366,0.15591077064225672,-0.9722938556978943,-0.17417373444311215,0.08645586403928457,-0.9961245952228471,0.016160889992190994,0
21,4.233366700033367,0.4304578905887148,-0.8401672240715427,-0.3298864047302228,0.24550233305812358,-0.9693468454951536,-0.009762048535700528,0
22,4.433366700033367,0.5825287756013384,-0.710149563228152,-0.39540842611566906,0.3800242096928258,-0.9237235681176753,-0.048128679093590906,1
23,4.633366700033367,0.5857021144404566,-0.7101962344080431,-0.39060765708395156,0.4319553901034252,-0.8992000838254998,-0.06966886111321541,1
24,4.833366700033367,0.5827377217495029,-0.7071886570116253,-0.4003760120740163,0.424117678533473,-0.9023611264506172,-0.07660673747230819,1
25,5.033366700033366,0.38257813062208307,-0.8843898995071008,-0.2673732963845353,0.40124404439132966,-0.9128012442981368,-0.07613872371048931,1
26,5.233366700033367,0.34690731776764117,-0.8993408913657274,-0.26616024120210036,0.33127196057251507,-0.9411842288033476,-0.0665667754235511,1
27,5.433366700033367,0.4027180471388587,-0.8998501791964715,-0.16759424067891615,0.2820878803804597,-0.9576245606019765,-0.058151772753121056,1
28,5.633366700033367,0.4102673485757652,-0.8970555406938379,-0.16423172532460986,0.2758876265686839,-0.9595193829737634,-0.05664425128772422,1
29,5.833366700033367,0.5845911087365705,-0.8073169500831379,-0.08057653315083296,0.29725109070713834,-0.9540522305235729,-0.037764143130905675,1
30,6.033366700033366,0.6048459218295101,-0.7919726400730197,-0.08331115304676322,0.33487215778479756,-0.9420123349439739,-0.021757728602877894,1
31,6.233366700033367,0.609814030264066,-0.7885787484173814,-0.07918589544592872,0.34716221362049043,-0.9376290275659745,-0.018171518918525077,1
32,6.433366700033367,-0.15239507131016444,-0.9834083305096737,-0.09840628904976663,0.13984514631105166,-0.9900290524480146,0.016905926834311677,0
33,6.633366700033367,-0.38260583120480457,-0.9238375209291785,-0.011705248887162371,-0.28914545378186196,-0.9510859974836552,0.10876732941376316,0
34,6.833366700033367,-0.9096310296099702,-0.415398951049786,0.0038860567987643955,-0.710507539857607,-0.6825484488870387,0.17119185356607594,0
35,7.033366700033366,-0.9262112322810977,-0.375762162012788,0.030586774851326052,-0.9292722419002529,-0.3087821453267171,0.2027478413229301,0
36,7.233366700033367,-0.9552500342936991,0.2955202925426928,0.012850240362258805,-0.9794184415859053,0.07071364687484745,0.18904786808397644,0
37,7.433366700033367,-0.938098397304127,0.34636429422876647,-0.0017811959007670952,-0.916760709176184,0.3552616136399308,0.1825896710789878,0
38,7.633366700033367,-0.6767667700515039,0.7355980871400105,0.029701736481433233,-0.741617661040326,0.6510547106004433,0.16165088505185873,0
39,7.833366700033367,-0.012905433197172633,0.9883842031776308,-0.1514269351961965,-0.37146334858370855,0.9159332120663218,0.1519254149010253,0
40,8.033366700033367,0.08940510136753982,0.9927403977444952,-0.08045638902884919,0.046032386267840064,0.9909043777850791,0.1264497271679697,0
41,8.233366700033368,0.5164542536167881,0.8346580657521804,-0.1913659248559039,0.36808025574680403,0.926441922318009,0.07888149276655086,0
42,8.433366700033368,0.5711893125204924,0.8101703768169347,-0.1317828888387002,0.5162811409385519,0.8544138304742117,0.058572944313671105,1
43,8.633366700033367,0.5908348756062773,0.7998187411814836,-0.10584956788849861,0.557383134449418,0.8266009123077145,0.0778137083256961,1
44,8.833366700033368,0.6032251163653367,0.7928197678423684,-0.0869268353524921,0.5863219672746189,0.8028292557920741,0.1081283345639141,1
45,9.033366700033367,0.5994942160340089,0.7969763044620137,-0.07372553877619889,0.5840023123457024,0.8018350020182688,0.12649873008546691,1
46,9.233366700033368,0.43027017810657386,0.8876421483814034,-0.16419193113239267,0.5569509950964642,0.8215403268540045,0.1219716377428528,1
47,9.433366700033368,0.42665513648265435,0.8805083254579525,-0.20656835021900224,0.5568445388264107,0.8244492389927283,0.10103272689338673,1
48,9.633366700033369,0.706514312072383,0.5950450154186855,-0.38309131608829783,0.6348904246905261,0.7711308881570574,0.04765817837885958,1
49,9.833366700033368,0.7410528504316141,0.5802914727646112,-0.3377905852800794,0.7271339461491397,0.6864440392942402,0.008414587036091138,0
50,10.033366700033367,0.759615652717236,0.6496557559367829,-0.030519812010807792,0.7790925912384344,0.6267206837064635,0.015359651424588875,0
51,10.233366700033368,0.7609132902027183,0.6478498296051982,-0.03607718217086685,0.7985980870406343,0.6011857763728249,0.028578972375569424,1
52,10.433366700033368,0.8420633055137723,0.4824729933540929,0.24114145266038667,0.8169116384301158,0.5714245755712467,0.07829003404421661,1
53,10.633366700033369,0.8503034370779026,0.45738031916525196,0.26035995954408553,0.8360029948207914,0.5292340689682503,0.14494927696948823,1
54,10.833366700033368,0.9578666910535149,0.2854884920978733,-0.031428061503581295,0.8461173994627189,0.509131828213115,0.15770265637210135,1
55,11.033366700033367,0.9659036994765258,0.23988153014038727,-0.09740069216934723,0.8670534279645399,0.4806388984413212,0.1311663156456478,1
56,11.233366700033368,0.8407277000593201,0.3757995862943017,-0.38980970395052705,0.8835649847078116,0.46087442536844286,0.08311246500731605,1
57,11.433366700033368,0.8305647007923256,0.3599744783048896,-0.42494782358176325,0.8926423480046499,0.45042033932449255,0.017639627874612544,0
58,11.633366700033369,0.7694936295384934,0.531184135765087,-0.3545743476496486,0.8835985199479898,0.4682285354958907,0.00396157709700164,0
59,11.833366700033368,0.748279665674024,0.5640111115831803,-0.3492406161222896,0.8460497031133257,0.5330616886804965,0.006718327392320675,0
60,12.033366700033367,0.5941006754495146,0.7981871619185958,-0.09970778293978903,0.7851203437696979,0.6181334540136746,0.03869210291617851,0
61,12.233366700033368,0.5867068893006758,0.8035552643502352,-0.10036913460894388,0.7564589758941649,0.6522582296007412,0.048259918226805205,0
62,12.433366700033368,0.5750164034911965,0.8121536094399788,-0.09880612526389304,0.7289444630513497,0.6825790849006091,0.05220883682890057,0
63,12.633366700033369,0.5753133442213433,0.8124171670166563,-0.09483091635898483,0.7124740971158454,0.6996879170309974,0.05307993688565533,0
64,12.833366700033368,0.47405465736555336,0.8653484037372401,-0.16261710235838855,0.6835631654956974,0.7280112106383574,0.052355285906729034,0
65,13.033366700033367,0.4469744245379601,0.8760965292370629,-0.18074494534490096,0.6569836124304519,0.7523138109450785,0.0489536807515712,0
66,13.233366700033368,0.41194141621475705,0.8873810447286101,-0.2070245180246551,0.622551375417656,0.7812674459273143,0.045287557891719496,0
67,13.433366700033368,0.41643019099580947,0.8861577900745474,-0.20324927335021045,0.543030245129061,0.8386206641871168,0.042819790674773525,1
68,13.633366700033369,0.43169681966919243,0.8808310022481013,-0.19435689173813844,0.48079526534236444,0.8759085131360891,0.04025157686465415,1
69,13.833366700033368,0.2718941243066575,0.9455017243004609,-0.17916493661531957,0.43280527159787635,0.9004877534663639,0.04244293503269487,1
70,14.033366700033367,0.25710460752821823,0.9508820121443028,-0.1723966930314013,0.39956325092005845,0.915226210987792,0.05205949706944863,1
71,14.233366700033368,0.432394379753909,0.8904552465122044,-0.14186103875314662,0.40781658212877897,0.9114778392367628,0.05379390226673205,1
72,14.433366700033368,0.5659371465299251,0.8165313639480309,-0.11398104169876036,0.4461195842791062,0.8931872727595561,0.05651382399894423,1
73,14.633366700033369,0.5859293431871362,0.8027821462280603,-0.11057861678353821,0.4865296647615656,0.8713180255420543,0.0639826825984581,1
74,14.833366700033368,0.5903351257196481,0.80166426022179,-0.09401517550171246,0.5090737765619965,0.8581615088779488,0.0663529554521032,1
75,15.033366700033367,0.5881993925680989,0.8041327868871871,-0.0859763667269401,0.5186492349236052,0.8522523657189074,0.06832917561104429,1
76,15.233366700033368,0.44592866306121504,0.8632501260659047,0.23653085910222615,0.5145982826773385,0.8513268414524494,0.10213332701978486,1
77,15.433366700033368,0.31643711415777914,0.8909455337658536,0.32570478757023985,0.5178397915977808,0.8427791597601724,0.14685107460248675,1
78,15.633366700033369,0.317436858081228,0.8781094777139705,0.35799104217901373,0.5210969520486913,0.8281195979116618,0.20658145638026568,0
79,15.833366700033368,0.33026786930168095,0.8730937622347092,0.3586508285976333,0.5383964656916718,0.8127990890724607,0.2224564823368717,0
80,16.033366700033366,0.3330578058981083,0.8708237098785923,0.3615778812975481,0.551805426727171,0.8019825452710241,0.22876793506751508,0
81,16.233366700033365,0.36600782903955564,0.860550824681909,0.3542464498354755,0.5921715702238832,0.7722923752107536,0.22999417081724857,0
82,16.433366700033368,0.9017195920103973,0.365177345236046,0.23140286063693424,0.7205452361079027,0.6464694487341763,0.2507824048364187,0
83,16.633366700033367,0.9162917523010012,0.34023817905006287,0.2112993283989753,0.8190426869672655,0.5160275176955738,0.25076817562519094,0
84,16.833366700033366,0.9749530956043224,-0.06316709767422408,0.21325191474630334,0.9050804994103929,0.3494074000141309,0.24237111709607473,0
85,17.033366700033366,0.9771672147158665,-0.06616702397039778,0.20190631348062485,0.9582256557275135,0.1715490858220923,0.2288547658651247,0
86,17.233366700033365,0.9962515469301362,-0.06159331951124892,0.06073811184829288,0.9578294462549595,0.09730523845010282,0.27035983883906695,0
87,17.433366700033368,0.9720689181687003,-0.04065369978695043,-0.23114777745841528,0.9861922242004376,0.08703910586558476,0.14088680199619072,0
88,17.633366700033367,0.9893421412673316,-0.04526253978736422,-0.13839591758635528,0.9943330547674065,0.08944737713607667,0.05745383294780741,0
89,17.833366700033366,0.9954312719058445,0.028746833031025303,-0.09105054916143526,0.9859149079734848,0.15971457723844906,0.04962910490003823,0
90,18.033366700033366,0.7730388866233762,0.6262322673257957,-0.10121278144624023,0.9470548684793237,0.31387634523476016,0.067592277603887,0
91,18.233366700033365,0.7317075235210072,0.6816041284732774,-0.004462294358175257,0.8458480230894142,0.5271470603658885,0.08159104474960902,0
92,18.433366700033368,0.3266758842070821,0.9196340321169362,-0.21807364272159785,0.628216611751272,0.7737845602300856,0.08124864964591604,0
93,18.633366700033367,0.24033825575462398,0.9607686924361437,-0.1384234172940685,0.2517463791324335,0.9644581233909679,0.08027632788613344,0
94,18.833366700033366,-0.4918787043307997,0.863306104027909,-0.11295092285593354,-0.1328034400536518,0.9820847038585997,0.13368949381639134,0
95,19.033366700033366,-0.5061761497385633,0.8624296778642803,0.0008695830942240781,-0.3921954463222222,0.9078854357612767,0.1480768969713695,0
96,19.23336670003337,-0.5773446224642214,0.8154923825370278,0.040563048895857816,-0.487788230208987,0.8598210698277612,0.15089854323295687,0
97,19.433366700033368,-0.8964421964240696,0.4346923107527426,-0.08622055116288105,-0.6172336080861287,0.7671023039248765,0.17486202664422526,0
98,19.633366700033367,-0.9296173125362953,0.36849447290418125,0.00484516995218211,-0.7775794237040727,0.599798986283554,0.188709872251727,0
99,19.833366700033366,-0.9880524658966066,0.15204446089654144,0.025195367556671528,-0.8490611679862642,0.48068228810841324,0.21917954036967421,0
100,20.033366700033366,-0.9868405346884367,0.14422748322058873,0.07310398196880623,-0.9052808640798906,0.34350743392508476,0.24993839234693446,0
101,20.23336670003337,-0.9937447697118077,-0.04799918316633149,0.10083358114136211,-0.9365253485635134,0.23011214196027072,0.26451592318884404,0
102,20.433366700033368,-0.9936916644140641,-0.0021404350639705827,0.11212624408114236,-0.9625484666621681,0.10113787740437,0.25153842466002635,0
103,20.633366700033367,-0.9471377881263,-0.30648057149268126,0.0948665884320687,-0.9646303862496568,-0.061339629730887794,0.2563701771819712,0
104,20.833366700033366,-0.9483497498314697,-0.29644749190157865,0.11292314439410622,-0.9569470719937965,-0.15122984315086183,0.24775357907216047,1
105,21.033366700033366,-0.9289373164208257,-0.36882027107023607,0.0323584580682181,-0.9455849728078276,-0.2177089994164822,0.24180953408229086,1
106,21.23336670003337,-0.9528358005675012,-0.3015947744424998,0.03383089100018957,-0.9448246848694092,-0.23442375921454014,0.22880519219883388,1
107,21.433366700033368,-0.9622731291113984,-0.27014931754167537,0.03240017317739284,-0.9459359791293815,-0.23511555585344268,0.22344081718492104,1
108,21.633366700033367,-0.9662997330779377,-0.256667001913199,0.01966916323579118,-0.9524350914287556,-0.2232822614175076,0.2073943787844362,1
109,21.833366700033366,-0.9649261559769653,-0.26150889324110504,0.023035022624897934,-0.9520405472565671,-0.2292019493234326,0.20269499945917557,1
110,22.033366700033366,-0.9644434336376714,-0.2622721056643961,0.03259150048006697,-0.951953387650637,-0.23048234602463513,0.20164978529980251,1
111,22.23336670003337,-0.9628528832476753,-0.2685022014814281,0.028651230711187713,-0.9528867256608524,-0.23594480162438242,0.19062250298894487,1
112,22.433366700033368,-0.9628045816246102,-0.2687684806255396,0.02776403113559771,-0.9530834148032439,-0.23781570895297144,0.18728505813914584,1
113,22.633366700033367,-0.9594157988875629,-0.2792275787652519,0.039411725435901206,-0.9485050841875977,-0.24807017541908674,0.19697536226092327,1
114,22.833366700033366,-0.9594118162862122,-0.2800609846620363,0.033087937991391765,-0.9494948515064213,-0.24907605867029592,0.1908419344904854,1
115,23.033366700033366,-0.9523565606957234,-0.30405201599936205,0.02386111620475338,-0.9436514244171732,-0.27652136661467025,0.1818183791617196,1
116,23.23336670003337,-0.9506964063281481,-0.3090198875919737,0.02613526482339335,-0.9398722838908722,-0.28714679402481735,0.18489675133713093,1
117,23.433366700033368,-0.9448869958537065,-0.32629672180739117,0.02681444394925297,-0.9328005452695837,-0.30796982147829766,0.18718368466133206,1
118,23.633366700033367,-0.9418249406867657,-0.3346334373750847,0.03140451704620776,-0.9174290984879587,-0.34695537625579287,0.1947968586368187,0
119,23.833366700033366,-0.9581314502500811,-0.28555398564875556,0.021048641803853206,-0.9056834936418823,-0.377359162395121,0.19322906588059446,0
120,24.033366700033366,-0.7237801246228486,-0.6410054610615639,-0.2554492710699842,-0.8757840357642852,-0.4416794030621535,0.19473476220511043,0
121,24.23336670003337,-0.7159436394162757,-0.6488728519103254,-0.2576601001962448,-0.8465061958821961,-0.49824842359483656,0.18755204269299117,0
122,24.433366700033368,-0.7260804472740673,-0.6477494685105539,-0.2307115301205936,-0.7848447271937238,-0.5947942278661398,0.17389244001201543,0
123,24.633366700033367,-0.7073878166788872,-0.6763654280651497,-0.20526150280197245,-0.7467312684020369,-0.6405494838925058,0.17913339017539348,0
124,24.833366700033366,-0.8384869461862453,-0.5223106003559993,-0.1553424534086557,-0.7359763003078792,-0.6562441593798595,0.1663805537463693,0
125,25.033366700033366,-0.26077565366053046,-0.9458180373019156,-0.1934536088375577,-0.6523034126762149,-0.7445984753241438,0.1416805150891408,0
126,25.23336670003337,-0.2437611909056836,-0.9679917289118022,-0.05977034855664343,-0.5291623919771784,-0.8319125050319881,0.16705911195859133,0
127,25.433366700033368,-0.20606609822511796,-0.9779627173097679,-0.033551255034221225,-0.4449966189927993,-0.8782508053049513,0.17508150121066973,0
128,25.633366700033367,-0.13986698760353744,-0.982828857487341,-0.1203522441371183,-0.29932464545630794,-0.9438537775154754,0.13980272991692017,0
129,25.833366700033366,0.167105764997461,-0.9595962734132195,-0.22638607588823909,-0.10056012345084309,-0.9927404768902494,0.06598490066122535,0
130,26.033366700033366,0.280614103051183,-0.9037272656985716,-0.3233152554423675,-0.08734370343669473,-0.9937647248836657,0.06930186899972497,0
131,26.23336670003337,0.3211788007673124,-0.8812158726582445,-0.3468468879964755,-0.017585309209711797,-0.9993314038733387,0.032054674113786236,0
132,26.433366700033368,0.41204599512851375,-0.8630263738580201,-0.2922389021400633,0.13049969926190735,-0.9914200162448775,0.007495323979568266,0
133,26.633366700033367,0.4118673292516403,-0.88176567043167,-0.22990129521885821,0.1361557069372376,-0.9902162198351394,0.030552601261236864,0
134,26.833366700033366,0.3661695403352804,-0.909743207879532,-0.1956710593003161,0.08753054860034015,-0.9953008692777834,0.041407519566043036,0
135,27.033366700033366,0.2531451214869072,-0.9548662886652712,-0.1553960045753744,-0.046893347212810854,-0.9961938801668995,0.07347630301802308,0
136,27.23336670003337,-0.7226950656493772,-0.6816487056483183,-0.11431047272238332,-0.4827377930143672,-0.8652205621024827,0.1354902288383995,0
137,27.433366700033368,-0.7621756486973428,-0.6462970685769867,-0.037260967265739464,-0.7125593907859389,-0.6804866494156145,0.17087139775246896,1
138,27.633366700033367,-0.787729751093831,-0.6085623510569286,-0.09557041444775063,-0.7528692489920121,-0.6388178152649595,0.1584288257303826,1
139,27.833366700033366,-0.803445498719952,-0.5847034157343285,-0.11223745460075556,-0.7718026848491166,-0.6171798418760366,0.1530021517546913,1
140,28.033366700033366,-0.8145616336098649,-0.5649530760981916,-0.13159546670770905,-0.787681579558939,-0.5979221931295153,0.14848158197812128,1
141,28.23336670003337,-0.8303482911646677,-0.538877867367614,-0.14188854577184484,-0.8102522713567022,-0.5684066862734815,0.1428464061882732,1
142,28.433366700033368,-0.8383800069870968,-0.529501054170851,-0.12941250911822008,-0.8190304619488473,-0.5533329353165635,0.15169629228762926,1
143,28.633366700033367,-0.8776876756160226,-0.4252573236550193,-0.22095373440952334,-0.8348963170354168,-0.528727679146863,0.15295483354464057,0
144,28.833366700033366,-0.8823280557161889,-0.4274704673032534,-0.19689134485707577,-0.840792644246855,-0.5165293335314852,0.16206534787517532,0
145,29.033366700033366,-0.8770593715683199,-0.46123304658575764,-0.13427931888941194,-0.8341721424282598,-0.5186165711479414,0.1875998105739969,0
146,29.23336670003337,-0.875683445841162,-0.47060029780764073,0.10823059818327188,-0.8431476636574621,-0.5013748835663357,0.19422987256806465,0
147,29.433366700033368,-0.8923698343220803,-0.4338791613101942,0.12419723093831556,-0.8614459799516221,-0.4611391504192863,0.21274752072766648,1
148,29.633366700033367,-0.9322266006574678,-0.33095176062153486,0.14637109403201387,-0.8997588785839404,-0.3718414960963741,0.22840285066123975,1
149,29.833366700033366,-0.9410088174308229,-0.29487612631290006,0.16598335955192306,-0.9089108052266259,-0.3387454807153847,0.2431720531582312,1
150,30.033366700033366,-0.9476312253129331,-0.2610275997944634,0.18400992624706564,-0.9166427883144056,-0.30956535078713404,0.25285429049796787,1
151,30.23336670003337,-0.9546839385600441,-0.24838785035418032,0.16395747391293722,-0.9168773587168157,-0.31364024148818886,0.24691234880359214,1
152,30.433366700033368,-0.9680529198154662,-0.20668812142171655,0.14196325193483345,-0.9115125724153686,-0.32589476306266035,0.25087334202152717,1
153,30.633366700033367,-0.9634452799306131,-0.22476662550539725,0.14578462414925414,-0.9075254270332205,-0.33323786837786273,0.25563669996138905,1
154,30.833366700033366,-0.9500119601638352,-0.28421472738767256,0.12922563322196798,-0.903038283676598,-0.35514958692607607,0.24164153020675413,1
155,31.033366700033366,-0.9387337599503076,-0.3241231401789225,0.11714571238467453,-0.901327570550314,-0.3678783483018621,0.228635367816448,1
156,31.23336670003337,-0.884526796977553,-0.45401004917198584,0.10717845249620701,-0.8997949464399924,-0.3738879976539937,0.2248929068942336,1
157,31.433366700033368,-0.8864817613159831,-0.4538332250081321,0.09047370188530392,-0.8996593229057958,-0.3785062320164509,0.2175916704136302,1
158,31.633366700033367,-0.8903858451648178,-0.44894755357763316,0.0752272614601325,-0.8984308007823627,-0.38542158798868076,0.21040982799728364,1
159,31.833366700033366,-0.8979923772255319,-0.4362730607911169,0.05723204410807269,-0.8984586540648992,-0.389550618005743,0.20253978114739313,1
160,32.03336670003337,-0.9753721130771469,-0.19959503721830782,0.09386725813213005,-0.8992574896000425,-0.3911723691153826,0.19575531931186063,1
161,32.23336670003337,-0.9385327090445985,-0.22286606337684944,-0.26360400575164505,-0.9008871092579647,-0.39075495615375844,0.18897878350254751,1
162,32.43336670003337,-0.9352780017547282,-0.22966258236726933,-0.2692771020604612,-0.9010169839010348,-0.3933300664966472,0.18292034745108313,1
163,32.63336670003337,-0.893663481437022,-0.44367221885887836,-0.06723499207035705,-0.9016102753606372,-0.39519195517606814,0.1758471777659021,1
164,32.83336670003337,-0.8932356192819296,-0.44403617356238967,-0.07044150065195494,-0.8977060729802241,-0.40307327554059985,0.17792060330213672,1
165,33.03336670003337,-0.8938630449570207,-0.44367740821047486,-0.06449197084753014,-0.8960204163379506,-0.4088736455789514,0.1731177502642173,1
166,33.23336670003337,-0.8927066260685165,-0.44887515475924855,-0.03982430430311387,-0.8912088926214258,-0.4211851790040991,0.16837385396722715,1
167,33.43336670003337,-0.7522467382247302,-0.6556297704883993,-0.0653792694941078,-0.8726290734187522,-0.4585376484623063,0.16811223978934006,0
168,33.63336670003337,-0.745922639590022,-0.45293138433409164,-0.4883160624352402,-0.850113609217148,-0.5069624366266672,0.14246381741813163,0
169,33.83336670003337,-0.6807951304008799,-0.4497893935132084,-0.5781068170377072,-0.8364393620046074,-0.5479011322420414,0.0131735711640551,0
170,34.03336670003337,-0.6868827128102586,-0.47081281568574523,-0.5536491952748427,-0.8234235734283125,-0.5603566721390952,-0.08929736116900171,0
171,34.23336670003337,-0.6741075810409694,-0.42470783165343595,-0.6043196396902303,-0.8240432459285365,-0.5400147427640389,-0.17127990669383994,0
172,34.43336670003337,-0.8142303411516498,-0.10812433411313101,-0.5703841511829202,-0.8754935087405143,-0.42473563036225626,-0.23045771944979354,0
173,34.63336670003337,-0.8648619033280738,0.08293403043449943,-0.49511194165322964,-0.9446791359724607,-0.224997819459204,-0.2386573093306149,1
174,34.83336670003337,-0.8912602428165859,0.07746025102383858,-0.44682780697472757,-0.9559889358824925,-0.157855671721133,-0.24731910839183027,1
175,35.03336670003337,-0.8438380528137639,-0.052099762840334934,-0.5340626885820209,-0.9546642932442346,-0.159229463503977,-0.2515195124771077,1
176,35.23336670003337,-0.8460017349156475,-0.074562238422558,-0.5279408462329204,-0.9523667059321599,-0.16716586862298005,-0.25505534654159134,1
177,35.43336670003337,-0.8446830876615116,-0.10107891856161007,-0.5256363130920757,-0.947125629479808,-0.1821170363652815,-0.2641712078331106,1
178,35.568902235568906,-0.844590377332386,-0.11466710155098625,-0.5229900097893211,-0.9451321205603572,-0.1873756498479132,-0.26761098731022737,1
