,timeStamp,x_gaze,y_gaze,z_gaze,x_head,y_head,z_head,fixations_head
0,0.04,-0.8431085422672472,-0.12036614361256075,0.5240992057118941,-0.9907241911322707,-0.11205559450173054,0.07687080620217061,0
1,0.24000000000000002,-0.9983025716899323,-0.03217096706581645,0.04854898799479125,-0.9918817355177904,-0.11228182900792637,0.05969433491421888,0
2,0.44,-0.8799877956099236,-0.4746921558464931,0.016995198009921903,-0.9726659028811881,-0.22358188375611363,0.06270711784471289,0
3,0.6400000000000001,-0.6524861551882237,-0.756631433959131,0.04207957262899269,-0.8720769243536309,-0.47292698343821676,0.12578515948211214,0
4,0.8400000000000001,-0.4377950587029769,-0.898997683467327,-0.011775045462203005,-0.7675193656171966,-0.6373536840828217,0.06851499681552525,0
5,1.04,-0.43169488579298687,-0.9000690026420736,0.059290100886094585,-0.6543546782337668,-0.7560804650941172,0.012739127782048363,0
6,1.2400000000000002,-0.11079015643832418,-0.9932642099899229,-0.03393744818730462,-0.4605040824358427,-0.8847013910282231,-0.07238396764926623,0
7,1.4400000000000002,-0.07611640665859132,-0.9970024302841496,-0.01387251400732035,-0.36944881906962446,-0.9253797560109059,-0.08473415635537115,0
8,1.6400000000000001,0.3839106293887036,-0.919644487558507,0.08286522277542671,-0.1481494966197286,-0.9772210649914586,-0.15195629894242882,0
9,1.84,0.45175499961455756,-0.8920396984458877,-0.013512835373121144,0.14385919849707623,-0.971843460624726,-0.1866140912384041,0
10,2.04,0.667089379716626,-0.7239367256558296,0.17580493939592118,0.2910636170121916,-0.9461488026675455,-0.14171949076450377,0
11,2.24,0.6900844046702325,-0.7178160897878638,0.09232321307554597,0.34652278036409795,-0.9369028541678307,-0.04620610934614378,0
12,2.4400000000000004,0.6894220721155198,-0.7184207296232334,0.09256814639801147,0.3494635621133442,-0.9366313981987622,0.024430363552029537,0
13,2.64,0.7394366399260062,-0.6732229453647363,0.0020787903616739196,0.49588164482411917,-0.8657657986284251,0.06746092388791966,0
14,2.8400000000000003,0.9230464089708509,-0.38467381322025507,-0.003374064108025315,0.6734407304285279,-0.7338233152710126,0.08933602053232212,0
15,3.04,0.9324370002865637,-0.3600053552738945,-0.0309416332909565,0.7820829345423548,-0.618962371448615,0.07233164057538179,0
16,3.24,0.9842269366122052,-0.14324634758799265,0.10381628557049359,0.8486970638824421,-0.5251386156673069,0.06279114660798876,1
17,3.4400000000000004,0.9713519832079939,-0.19861839597290434,0.13048393578923037,0.8827684513019123,-0.46539342099530717,0.06425593420306283,1
18,3.64,0.8867036702786748,-0.44323387682286486,-0.13153072474103158,0.8871510274972372,-0.4551845310336143,0.07596115532497508,1
19,3.8400000000000003,0.8588629731980151,-0.47713124075330743,-0.1862798227577936,0.8741624126700343,-0.4847415778320154,0.029422423350787808,1
20,4.04,0.9372868315652855,-0.34610455566328413,-0.041292032202700606,0.8906353428115108,-0.4542264303725698,0.02114322789962919,1
21,4.24,0.875137862766959,-0.46720777563887167,0.12589922769523632,0.9151511071572841,-0.40107894141403605,0.040424421121315876,1
22,4.44,0.8422396148341288,-0.5262110740526916,0.11719358663498257,0.8809988812818004,-0.4703877152294375,0.05075794067381078,1
23,4.640000000000001,0.591323712436973,-0.7344663280254006,-0.333009729747707,0.7643994657848481,-0.6447060276783229,0.006898882741202835,0
24,4.840000000000001,0.40685741841207235,-0.7402074981370643,-0.5353128998863486,0.5413007862664266,-0.8370567352027752,-0.07955803440897474,0
25,5.04,0.09219670022611198,-0.8873370280600734,-0.4518105433707063,0.22321065183005473,-0.9566115190793105,-0.1872736139299289,0
26,5.24,-0.3288324968583813,-0.8690952063740918,-0.3695168619528176,-0.17265267640822768,-0.9500908025870015,-0.2598432607720726,0
27,5.44,-0.6515635283709564,-0.7036644144072635,-0.2834102333961729,-0.42751630830385534,-0.8477560733952643,-0.31390993319053584,0
28,5.640000000000001,-0.6362356275589691,-0.707611720970455,-0.30739206003063213,-0.6062251755352657,-0.739045374543678,-0.29377367294029477,0
29,5.840000000000001,-0.8264871866622214,-0.43779460771782147,-0.35391356534663304,-0.7871032029091097,-0.5427773202931285,-0.2930210377185085,0
30,6.04,-0.9245872766980532,-0.16457267562813976,-0.3435901660476815,-0.9207877343938553,-0.25283389653270777,-0.29702688254418924,0
31,6.24,-0.972320435253337,0.20939392388917538,-0.1036684900394327,-0.9754416733131521,0.029978434440482624,-0.21820823869078745,0
32,6.44,-0.9752706543620862,0.21660692889999025,-0.043915704396754886,-0.9868253385637732,0.12860599742554407,-0.09816439575872649,0
33,6.640000000000001,-0.9791936624935657,0.07205615072784625,-0.18970419730391636,-0.9852750212714659,0.1432641097850752,-0.09331949049369348,0
34,6.840000000000001,-0.9801074789770059,0.044387802515265085,-0.1934400492173313,-0.9879971126396894,0.11360163004105082,-0.10467270450147483,0
35,7.04,-0.9574100521219608,-0.2028246410627905,-0.20549490765849682,-0.9987008690410497,-0.007415958039976715,-0.05041406294876049,0
36,7.24,-0.9412851750994614,-0.23740823374947773,-0.2400407250570829,-0.9927905144659231,-0.10668204919315744,-0.054643707473384595,0
37,7.44,-0.7906639230252341,-0.5043989338507175,-0.3470335377980148,-0.9722227310015071,-0.20444467532754568,-0.11395321870919678,0
38,7.640000000000001,-0.8354476883737478,-0.47548446946984296,-0.27557517900555495,-0.9302725931990348,-0.32971977417790227,-0.1608656982044849,0
39,7.840000000000001,-0.6108249934130111,-0.6904695609936227,-0.38748498391972447,-0.8713345463124971,-0.4448840072884475,-0.20701287027952453,0
40,8.04,-0.5705977012929803,-0.7171744570478661,-0.4000988145911774,-0.8229986917664258,-0.5178551832211874,-0.23345055699591372,0
41,8.24,-0.5397289067534463,-0.7394021465932591,-0.4024638776685563,-0.773098099651868,-0.5798267446588216,-0.2571386289397693,0
42,8.44,-0.5858458046766959,-0.7994630446772218,-0.13282896272327557,-0.7273141847014306,-0.630168814552686,-0.2718480124947681,0
43,8.639999999999999,-0.4712252373064798,-0.873023795356003,-0.12560345722810248,-0.6756601049165858,-0.6751517095759398,-0.29606349265114407,0
44,8.84,-0.4084221921576579,-0.9014511828748334,-0.14344712561322803,-0.5927468641350258,-0.7340786509259768,-0.3313301817112218,0
45,9.04,-0.25658657716191796,-0.9421005569496974,-0.21589318890460987,-0.5532341871493366,-0.7600416144981686,-0.34098193265953275,0
46,9.24,-0.6472073352610521,-0.6682248031096495,-0.3668763793069247,-0.6039268009336745,-0.7186080343244571,-0.3447824127161333,0
47,9.44,-0.9285908063857369,-0.3375417006443175,0.15422293805406823,-0.785556605467947,-0.5555624512993386,-0.27249070133115794,0
48,9.64,-0.9984141567746838,0.039175022763275176,-0.040428815755522006,-0.9502484544599266,-0.2650191748062599,-0.1636847939838334,0
49,9.84,-0.8987244915900243,0.41168793309642826,-0.15102097191795452,-0.9931200273049199,0.09848294111720923,-0.06335393969422666,0
50,10.04,-0.8394458672597213,0.5127437279220058,-0.18006805773712062,-0.9103711477939422,0.4117964022574157,-0.04059675297593213,0
51,10.24,-0.7583012710653971,0.6180097632806297,-0.20746834647826054,-0.8135103987383673,0.5786655461555614,-0.057853408171246595,0
52,10.44,-0.49039186458022427,0.8617829802988236,-0.12979181029945205,-0.7379682644737786,0.6702579234384153,-0.07846755187708615,0
53,10.64,-0.46039049308125984,0.8703579403104413,-0.17469301536970677,-0.6103035283042761,0.7873296023442058,-0.08741682110364281,0
54,10.84,-0.20644722736078336,0.9447095946416137,-0.2547613081045134,-0.38901944400267696,0.9144778185423779,-0.11132920363418523,0
55,11.04,-0.09504988268752579,0.9054538055358762,-0.4136652340258818,-0.19362688173308823,0.9663024634312443,-0.1696118505206222,0
56,11.24,-0.1086162807856918,0.8721362824485,-0.47705430339238536,-0.16480272560944215,0.957348538607985,-0.2373264360682452,0
57,11.44,-0.1667612199036218,0.8059479869048582,-0.5680127973384602,-0.2263748690973082,0.9201640240582102,-0.3194567067228023,0
58,11.64,-0.609862036862008,0.6109359070976187,-0.5048025489370402,-0.3067265569302549,0.8757626188069481,-0.3727715852557804,0
59,11.84,-0.6254188633799015,0.5868453932147423,-0.5142603715932491,-0.43643790618486455,0.816809206614026,-0.37728593140420297,0
60,12.04,-0.7845886371419778,0.617798326737546,-0.052401316281010975,-0.5670780754451383,0.7687797160373008,-0.29563525594733364,0
61,12.24,-0.8128691246650108,0.5820901049878002,-0.0203689921604139,-0.6637451501807065,0.7213827716041055,-0.19760888756422487,0
62,12.44,-0.7661440208369891,0.6197233781803332,-0.17019481153221858,-0.7169324312028126,0.6848329839940982,-0.13042880480692723,0
63,12.64,-0.7808126457158742,0.5948259531861362,-0.1910855769187761,-0.7548277525729974,0.64727026734415,-0.1061897591947095,0
64,12.84,-0.8668743574453006,0.4352155747763564,-0.24313833896751688,-0.7856064313608025,0.6139137427979758,-0.07702240848172597,0
65,13.04,-0.9077309792376088,0.40900514435155666,-0.09348401588664453,-0.813692240110605,0.5792777821500916,-0.04839617227691495,1
66,13.24,-0.9192635398944865,0.38021192406700066,-0.10194820752679704,-0.8490861045027072,0.5269467327656281,-0.03714738171187605,1
67,13.44,-0.937784857894852,0.3286119269880093,-0.11213278621509232,-0.8804433557811335,0.47256452301184104,-0.03875911314062076,1
68,13.64,-0.8859358358012119,0.45715820168328575,-0.07825645964974783,-0.901656848211259,0.43149241448425973,-0.028796255247556288,1
69,13.84,-0.8709251556817442,0.4881391197904232,-0.05665309286314634,-0.8875073496634935,0.4606691565337556,0.010706657356976085,1
70,14.04,-0.863460164247345,0.5029505306941479,-0.038435770220242284,-0.8735718255101926,0.4848779404160676,0.04201962128175435,1
71,14.24,-0.8639836587964768,0.5020812534527564,-0.038034882199925193,-0.8676709682479102,0.49415672956404505,0.05437110893021693,1
72,14.44,-0.7189695709627725,0.6924330764765351,-0.06015970936472236,-0.8321333722486934,0.5525897885833617,0.046888978912029214,1
73,14.64,-0.7369163997173959,0.6725713543636691,-0.0678379916932352,-0.781531677090574,0.6235250456889044,0.020609587638876766,0
74,14.84,-0.6119555477957345,0.7887594746735315,-0.05804221424754309,-0.7156795894504635,0.6983001416258681,0.013402889588018023,0
75,15.04,-0.5959042761667626,0.8007098505914849,-0.061333749371200064,-0.6728034903462636,0.7397411885745236,0.010882890435748067,0
76,15.24,-0.8700882620402342,0.49287472100115287,-0.004574457108821044,-0.7033545004210677,0.7106272602480066,0.017359254875788446,0
77,15.44,-0.985133361029116,0.13388682193969284,-0.10764097685531628,-0.7929091680345216,0.6093126201924842,0.005760392432139809,0
78,15.64,-0.985604700964652,0.12561200699348435,-0.11315916726208265,-0.8941767696076272,0.44770369368421037,-0.003050795893407104,0
79,15.84,-0.9978887292575997,0.026793414293247837,-0.05916246251774506,-0.9598513294632915,0.280487856266599,-0.003462342345830937,0
80,16.04,-0.9955455406316072,0.08342044704264011,-0.04393296647993788,-0.9865444613689878,0.16348880250733228,0.0011988314694502391,0
81,16.24,-0.9709375137409878,-0.2261095900600377,-0.07845251871897652,-0.9975612216922226,0.06979021800420701,-0.0009666679089596395,0
82,16.44,-0.9535901954852569,-0.30092992932219875,-0.01034005379706693,-0.9985499606971098,-0.05097212079557677,0.017315279189255982,0
83,16.64,-0.9222296249254633,-0.38550363926504844,-0.029655741825874132,-0.9887942971032684,-0.14842224104360885,0.016021122920895126,0
84,16.84,-0.8839718225285172,-0.46515926662713575,-0.047124024090871894,-0.9690664616027473,-0.24678745077107112,0.002479342382062386,0
85,17.04,-0.7663401584873185,-0.6150237993675899,-0.1856569085735465,-0.9403587519864834,-0.3392629677605315,-0.02502111645670934,0
86,17.24,-0.7935331044745032,-0.5869368221890466,-0.16065608877873344,-0.8987144966121521,-0.4335915888269853,-0.06565506589484643,0
87,17.44,-0.6100591151971176,-0.6790261554844986,-0.40835200028021396,-0.8360174249184513,-0.5256767330918838,-0.15728584652970592,0
88,17.64,-0.630181299963708,-0.6697008176001658,-0.39290246128234024,-0.7398770997060348,-0.6297158529898269,-0.23672731533112382,0
89,17.84,-0.5436639967077602,-0.7020753320471211,-0.45991269477442026,-0.6270357650179275,-0.7239297285421864,-0.28766629542095923,0
90,18.04,-0.3801849771742028,-0.8201725310039225,-0.4275235695463712,-0.5430335375280992,-0.7841293708702658,-0.30042587581351893,1
91,18.24,-0.33439573460191285,-0.808190194641168,-0.484776342209393,-0.471254680892947,-0.8187589261730729,-0.32795250654386465,1
92,18.44,-0.3156444932699425,-0.7837021009986681,-0.5349575410802568,-0.43240187148748016,-0.82926172192767,-0.3540531288940696,1
93,18.64,-0.29017069089663533,-0.9413958439455483,-0.171973355920673,-0.41958373388113085,-0.8443750112762134,-0.3331371048002059,1
94,18.84,-0.27687187796666596,-0.9417338011153917,-0.19099584034205436,-0.4058714092507205,-0.8692764537886516,-0.28218229221809893,1
95,19.04,-0.2824426434525461,-0.9389966807831887,-0.19624318239799396,-0.4083522084995006,-0.8784035676122026,-0.24830555011867034,1
96,19.240000000000002,-0.4203568872234045,-0.8886977285838565,-0.18307494250646092,-0.46478960281812304,-0.8595857169108952,-0.21232762513378603,1
97,19.44,-0.5736117035162874,-0.7970298381252596,-0.18897896900757297,-0.5545684327959044,-0.8099099090002603,-0.1910491890835577,0
98,19.64,-0.6169724101358047,-0.7694978959217001,-0.16497888744713096,-0.6264361579627102,-0.7621509281427353,-0.16341267615483768,0
99,19.84,-0.7159240810784219,-0.6827059103738345,-0.14616890939133137,-0.7301655106858047,-0.668117329246656,-0.14309983006717214,0
100,20.04,-0.916865375670908,-0.3260108932549295,-0.23037964401172173,-0.8278428075944215,-0.5411486939171295,-0.14776459990799867,0
101,20.240000000000002,-0.9084823135083063,-0.3367004664916947,-0.24757358887181566,-0.9095017000082151,-0.38226529286235195,-0.1633398406850797,0
102,20.44,-0.9630324371277401,-0.1168272746423175,-0.24273424344219352,-0.9524090257188987,-0.2540202315579854,-0.16849560732673596,0
103,20.64,-0.9742316986051055,-0.014717896795992,-0.22506883601892497,-0.9771979712039913,-0.14622769606771036,-0.1539531941127981,0
104,20.84,-0.9721944804664014,0.011489971336983196,-0.23389286587952937,-0.9823127441247681,-0.08447746441822156,-0.1671084400487777,0
105,21.04,-0.9685350448944722,-0.02567276088912614,-0.24754954283858602,-0.9768907437807137,-0.09879666176659911,-0.18953546987131523,0
106,21.240000000000002,-0.8210667909514638,-0.4877386479440159,-0.2965810784564803,-0.9507692766653841,-0.21472981536317304,-0.2234477320164168,0
107,21.44,-0.7683339271513636,-0.5698322836064466,-0.2914689433679438,-0.9037458256749465,-0.3428137327690773,-0.2563634669761686,0
108,21.64,-0.5703672535001787,-0.7066953791965317,-0.4186440458873543,-0.834464882046984,-0.47398015528762366,-0.28108926166581605,0
109,21.84,-0.6225191736590159,-0.6770454170406128,-0.3925294660164996,-0.7739436911280043,-0.5579267767523794,-0.2995477837438643,0
110,22.04,-0.5889793657442556,-0.7047931868342701,-0.3954363039978606,-0.7203059695190737,-0.6205824332005304,-0.309897973336542,1
111,22.240000000000002,-0.34892494222072507,-0.7890997974794942,-0.505542178570775,-0.6753261378895703,-0.6638821477442123,-0.3212399436397807,1
112,22.44,-0.3442314946747514,-0.7804017263296412,-0.5219940838895616,-0.6400538620615196,-0.6838095726873701,-0.35033629837807273,1
113,22.64,-0.305433359761486,-0.7846174605725523,-0.5395237745544587,-0.6182594042976798,-0.6812627313226597,-0.3919647942204346,1
114,22.84,-0.2915068562276638,-0.7792561932542292,-0.5547824240611732,-0.6054393985362848,-0.6718571311162084,-0.4266745013102137,1
115,23.04,-0.3086951152304248,-0.7687060632389265,-0.560177038241114,-0.6165446080312805,-0.6515146453462736,-0.44204232060615417,1
116,23.240000000000002,-0.6408537367627356,-0.6369733938809342,-0.42845231189134975,-0.6365927265248472,-0.6430838334113708,-0.4256675742179542,1
117,23.44,-0.652479213715127,-0.6358970903900704,-0.412196271335795,-0.6523519095761282,-0.6406245783148874,-0.40501498210714615,1
118,23.64,-0.6628616709375752,-0.6403416921247896,-0.3880424236196438,-0.6677009641567758,-0.6371265438643275,-0.3850262193248782,1
119,23.84,-0.6627318112297211,-0.6516322671077848,-0.369001266729726,-0.6705401778384399,-0.644798704109073,-0.3668930376603704,1
120,24.04,-0.676384512915398,-0.6468470611644126,-0.35226817930543036,-0.6883417851127378,-0.637355338073867,-0.3463578494802111,1
121,24.240000000000002,-0.7195724787177598,-0.6122855187131357,-0.32760020061984924,-0.7359238838442264,-0.5977934491348132,-0.3178978284907488,1
122,24.44,-0.8700172263473818,-0.3840099409753738,-0.30920283163467144,-0.786080731115475,-0.5483970129393657,-0.28519782672408556,1
123,24.64,-0.8899682525555983,-0.3487770379158255,-0.2937874865711574,-0.8226789731848627,-0.501110100427683,-0.26849203773828667,1
124,24.84,-0.8868162653699303,-0.3565151129837979,-0.2940304162658677,-0.8240501736261646,-0.501438616270731,-0.2636297127775668,1
125,25.04,-0.8806054258701923,-0.3744461069596794,-0.2903862891231575,-0.8173454999928432,-0.5163484845042424,-0.2555984667239251,1
126,25.240000000000002,-0.8760508316855773,-0.388342103354631,-0.2858764611945339,-0.8099843453590898,-0.5318388233279988,-0.24712916920974062,1
127,25.44,-0.8703729141208558,-0.40417541161107184,-0.28123518096744254,-0.7987948723666557,-0.5514724388052845,-0.24042649837089616,1
128,25.64,-0.5961082480111977,-0.7814676263253374,-0.18429136078086533,-0.756019677128078,-0.6191244694938667,-0.21241266221460184,1
129,25.84,-0.47266564502105396,-0.8452567811613401,-0.24925521442409446,-0.7013280638440735,-0.6890813420651304,-0.18249890652396272,0
130,26.04,-0.46755265736304485,-0.853046834140517,-0.23174471160222165,-0.6662908340186441,-0.7325722608979436,-0.13926380386021087,0
131,26.240000000000002,-0.5231913121233377,-0.825549921878329,-0.2115140123144208,-0.708721997247298,-0.6981996095666194,-0.10114561690365706,0
132,26.44,-0.9211502879424155,-0.3879125990906438,-0.03171691174037439,-0.7968974634521252,-0.6013765391660368,-0.05745163952620121,0
133,26.64,-0.9566506826563024,-0.2670476757742214,-0.11621105901254433,-0.8602617833331578,-0.5089303227652259,-0.030652743866385498,0
134,26.84,-0.973727959627786,-0.2108611856326081,-0.08597337397543206,-0.906306948225445,-0.42251981516566434,-0.009204422342220754,0
135,27.04,-0.9875780299481149,-0.14207605906966536,-0.06711205706154943,-0.9414472822135285,-0.33642223581909503,0.02229560627662955,0
136,27.240000000000002,-0.9956301170880438,-0.06926474477871346,-0.06263437616826996,-0.9677826702866097,-0.24870928102139025,0.03924788690799377,0
137,27.44,-0.9827867553940837,-0.15204956770728753,-0.10493389529602329,-0.9829969492573054,-0.17751229780584474,0.04697213938623885,1
138,27.64,-0.9901085029836003,-0.09013048951422784,-0.10752510023013263,-0.9901503223880966,-0.1342252569296121,0.039823604519535455,1
139,27.84,-0.9932775013402837,-0.05486869378200788,-0.10192758102623149,-0.9957484553396184,-0.08332845406960808,0.0392604435931809,1
140,28.04,-0.9953747431317606,-0.03290366589411606,-0.09025779471109467,-0.9981531035051205,-0.039402212704677766,0.046236864048843626,1
141,28.240000000000002,-0.9940120451325103,-0.05281336848810685,-0.09565982563450712,-0.9985127699588241,-0.039258064415817646,0.037829255973121104,1
142,28.44,-0.9744604469412413,0.21597922172034506,-0.06148018487407246,-0.9994192063309919,-0.008366421336848008,0.033034118888578996,1
143,28.64,-0.968023239488343,0.24323814002676344,-0.06136949606127383,-0.9970322204689894,0.06832056344984562,0.03548312213676144,0
144,28.84,-0.9629734021631255,0.2627764853179785,-0.060255667702758926,-0.9909434023467986,0.1293446726728365,0.03607116572149631,1
145,29.04,-0.9830914305808501,0.16914138028594106,-0.07016004983938309,-0.9826809361518908,0.18355646640053352,0.025400814282092288,1
146,29.240000000000002,-0.9823511293917363,0.17250499319740514,-0.07230688698003555,-0.9764550750349794,0.21554351988599374,0.008745139998259443,1
147,29.44,-0.9816433446906813,0.17297142612403657,-0.08035688874707345,-0.9725913197269884,0.23228636430468905,-0.010448432888433563,1
148,29.64,-0.9829692231570768,0.16579455855441544,-0.079269607541099,-0.9718949467398879,0.23499635415222137,-0.014033033764478925,1
149,29.84,-0.984960284761027,0.15985105208317257,-0.06558108409731876,-0.9716188829155208,0.23653725558876804,-0.0026216560662692396,1
150,30.04,-0.9866325056109009,0.1559418928473855,-0.04731199559446252,-0.9720994152380692,0.2338656167297394,0.01815489480616641,1
151,30.240000000000002,-0.9921838028351418,0.12153538918881236,-0.028292235088812328,-0.9791760818965016,0.19914358319489042,0.03944659572276596,1
152,30.44,-0.9952361531102909,0.09373935649283426,-0.02679426406040865,-0.985202018999845,0.1650935344744196,0.04605547343555172,1
153,30.64,-0.9977438338510562,0.05899353009030055,-0.03204692527655161,-0.9915818541190818,0.12088623151745645,0.04638906779912774,1
154,30.84,-0.9750212155543523,-0.22071708364608333,-0.024851523206464093,-0.9972364132736572,0.047882556886775327,0.05680490108324068,1
155,31.04,-0.9919357042665575,-0.11698497553380256,-0.04876550113106745,-0.9983871943235479,-0.015938041661493527,0.0544884303201224,1
156,31.240000000000002,-0.9794293615130146,0.18775981985991924,-0.07392141673682527,-0.9984285158090002,-0.002232675241943985,0.055995660373828506,1
157,31.44,-0.9744450936799466,0.21313585438426053,-0.07092155510824481,-0.9977605197716026,0.03471982013224837,0.05717061548633075,1
158,31.64,-0.970462970123537,0.22298948310604205,-0.09207233049675288,-0.997126846853613,0.06690650458014434,0.03551859975617078,1
159,31.84,-0.959891961800879,0.26361086964777497,-0.09548157452411311,-0.9910480526265477,0.13095965527512973,0.02594852742155098,1
160,32.04,-0.8736747165465548,0.48550319800590813,-0.03129112323540338,-0.977035577013905,0.21027638767814294,0.03442850612700842,1
161,32.24,-0.8611651839929985,0.5068837943139204,-0.0382536918509654,-0.9515725831186312,0.3028229850379292,0.05298923277094679,1
162,32.44,-0.8643568485454414,0.49913273064612784,-0.06126789999937098,-0.9399400340178736,0.33936622422552976,0.03665103416529928,1
163,32.64,-0.9848251714564858,0.16212388904063624,-0.061929203676800756,-0.9396687581512618,0.3420679208476597,0.003487474935319975,1
164,32.84,-0.9900113257813115,0.12130526493791019,-0.07185128755334448,-0.9563316813832172,0.2919626173258098,-0.013694716755444874,1
165,33.04,-0.9876115974013107,0.13934132796996151,-0.07216181121617815,-0.979364731406679,0.200599173438865,-0.02459053664253546,1
166,33.24,-0.9761151247298054,-0.18273436921675326,-0.11750495130279154,-0.9944280713526997,0.10179118553368853,-0.02741104619302457,0
167,33.44,-0.9640241307687971,-0.25807211020049725,-0.06368878419414134,-0.9994450802567834,-0.025899504478630504,-0.020946293664367947,0
168,33.64,-0.9584406095615778,-0.28284851753943924,-0.037260086808449285,-0.9868332588552025,-0.16105753358740613,0.014852275649289709,1
169,33.84,-0.9455818836632179,-0.32336939137606274,-0.036154363623159026,-0.9660515860174625,-0.25775901322094147,0.01745348837659998,1
170,33.96,-0.949440290287408,-0.3079840920166732,-0.060901020054086305,-0.957355883421664,-0.28890517198660665,0.0018745872384879948,1
