,timeStamp,x_gaze,y_gaze,z_gaze,x_head,y_head,z_head,fixations_head
0,0.04,-0.9963905006439003,0.0025711955845913064,0.08484903758949566,-0.9967579376998643,-0.0798418803180326,-0.009944233484518299,0
1,0.24000000000000002,-0.9981825346595077,-0.009128182439890045,0.059567640427205144,-0.9963045081617797,-0.08222402218832431,-0.024830166968591992,0
2,0.44,-0.9498966104188292,-0.3125114732180674,0.005745313036937913,-0.9783371195102508,-0.20334057707927122,-0.038847011486784835,0
3,0.6400000000000001,-0.6764436851669264,-0.7311420164164112,0.08863008873025523,-0.8025477505286696,-0.5955125187762863,0.03580430284331479,0
4,0.8400000000000001,-0.7189318760521277,-0.6939448124801129,0.039718444432144416,-0.6031840047423089,-0.7968105837126058,0.03552393709327218,0
5,1.04,-0.5402342207226456,-0.8380019981760806,0.07680909980654448,-0.525576136578203,-0.8506198806746389,0.01468139164361992,0
6,1.2400000000000002,-0.5487167277988635,-0.8334080727801053,0.0658857864691532,-0.5056415894738817,-0.8626850907822168,-0.01005072815297424,0
7,1.4400000000000002,-0.9908690389755455,0.10298101429202657,0.08702561861351085,-0.8886885809874339,-0.44962720514376653,-0.08982194841544369,0
8,1.6400000000000001,-0.9451953349185273,0.3257127764857828,0.022736888137473082,-0.9852257967401211,0.16433900302119775,-0.04819565876500246,0
9,1.84,-0.5922803213215302,0.805352259946723,-0.024733749694924326,-0.8365464974471243,0.5465883803169043,-0.03782988384190514,0
10,2.04,-0.24379109541966415,0.9697932980690714,0.008176846237588797,-0.5931050409291518,0.8047646061309529,-0.02409022920856698,0
11,2.24,-0.1756532554504881,0.9841830739144709,0.023013275949076626,-0.3162921556234344,0.9482585965764135,-0.027656939635685406,0
12,2.4400000000000004,0.08271429398268554,0.9965540219066952,0.006198950922203444,-0.09137834059392741,0.9946439152874097,-0.04830611402330753,1
13,2.64,0.07240391355532122,0.9972220623998933,0.017488040621430796,-0.03398527971757376,0.9981237661160448,-0.050930818536931675,1
14,2.8400000000000003,0.0291868492693228,0.9989266551783847,0.03596756043790565,-0.04418317014091999,0.9984776465777934,-0.0330187334822219,1
15,3.04,0.002190373587241834,0.9983053385559051,0.0581519842681929,-0.06081351263906726,0.9981333276320702,-0.005619337205466728,1
16,3.24,-0.028443463168552174,0.9972215903860783,0.06884815953124825,-0.0884829595972873,0.995974119553143,0.014363810122890038,1
17,3.4400000000000004,-0.011707763053365738,0.9971970847415201,0.07389791923525232,-0.07044480017863519,0.997242094893414,0.023360956752404585,1
18,3.64,0.4197184186636687,0.9059890362509924,0.054957394656841574,0.09537303355072779,0.9954413372941585,0.0007269644760100672,0
19,3.8400000000000003,0.7081677286625219,0.7027069924069327,0.06856639777156248,0.39120857445068397,0.9202690907723559,0.007787929460718302,0
20,4.04,0.6541562598607867,0.7547349784249634,0.049544929375437224,0.6076026959009184,0.7941123181806974,0.014303497740604191,0
21,4.24,0.3621609008304504,0.9283804432687581,-0.08336206850708819,0.517670389314596,0.8522448437708713,-0.07547247374266869,0
22,4.44,-0.1453405518682998,0.8935938402200977,-0.42469538813521035,0.045493545057518014,0.9621957108328993,-0.26853258910767547,0
23,4.640000000000001,-0.20377235809754385,0.9610645634376489,-0.18663260963660175,-0.15704474281148295,0.9531086676625334,-0.258690580388667,1
24,4.840000000000001,-0.20082142075523302,0.948762617121122,-0.24396773007783065,-0.1876595700599441,0.9467076692475102,-0.26177943913314494,1
25,5.04,-0.18399681421878494,0.9326841250164685,-0.31023458108277124,-0.18287120645184463,0.9458810691753187,-0.2680804446926394,1
26,5.24,-0.1841590936329967,0.9134389024762727,-0.3629253362266341,-0.1876551619091129,0.9416929617284301,-0.279284632659949,1
27,5.44,-0.18906891426555544,0.9011594750054731,-0.3900827428460586,-0.1944117669916829,0.9403677035884254,-0.2791283699357757,1
28,5.640000000000001,-0.19062636151303386,0.8931814474472494,-0.4072941102352682,-0.19605163641782586,0.9395839366380903,-0.2806167882888723,1
29,5.840000000000001,-0.1852686852449344,0.8867442729548566,-0.4235092781148677,-0.19113127477801067,0.9373522421798989,-0.2912723980778968,1
30,6.04,-0.22516478581002614,0.8841183913067404,-0.40943313176183777,-0.23376677041290517,0.9306735976003822,-0.2814245045838794,1
31,6.24,-0.6684892373775317,0.6822007162923206,-0.2961829201703749,-0.7080056757619553,0.6871679023183039,-0.16287491247064242,0
32,6.44,-0.9435440560602176,0.30852387229760336,-0.12057211325976513,-0.9471813606898853,0.3066660338330477,-0.09382650827333318,0
33,6.640000000000001,-0.9363507014938397,0.311758120257392,-0.16141325306669116,-0.9690655623089675,0.21015051760744102,-0.12941675276458292,0
34,6.840000000000001,-0.8777031144875425,0.4279702612446076,-0.21558918875743827,-0.9774579553631753,0.162623553508233,-0.13464592582620655,0
35,7.04,-0.910165637308217,0.15842743188608482,-0.3827522194439988,-0.9827501151256306,0.11974874673325449,-0.14093420052057942,0
36,7.24,-0.882158865162503,0.2399527224752755,-0.40523872913618275,-0.9591541130128901,0.2297932662856624,-0.16498012686448835,0
37,7.44,0.13996113841993824,0.9747411540259617,-0.17404184088986074,-0.37474536332481356,0.9092558945581655,-0.18116189135075902,0
38,7.640000000000001,0.585912947287768,0.7811301668344311,-0.21573520960143416,0.3928214151468911,0.9067452280999279,-0.153311536160865,0
39,7.840000000000001,0.8117816149622032,0.5348435030907831,-0.23442064075276475,0.6872882194929952,0.7012803883959897,-0.1893164551678435,0
40,8.04,0.975629978886826,0.12333106948576847,-0.18148165636446079,0.8477836624609014,0.4891433642860425,-0.20494299412107794,0
41,8.24,0.9658822320344591,0.09489641162014369,-0.2409692613213395,0.9174429872380739,0.28159125119752076,-0.2810778049165287,0
42,8.44,0.6402534516843006,-0.23796527839580753,-0.730375276063165,0.8052848132115579,0.03519526175027541,-0.5918425999885074,0
43,8.639999999999999,0.6720065063980308,-0.19879598496174042,-0.7133634499480647,0.7527395113990961,-0.08820092559944219,-0.6523831885495301,1
44,8.84,0.6207117542870078,-0.45293268097486006,-0.6399757062536601,0.7265754130225519,-0.20756153904429098,-0.6549857835866923,1
45,9.04,0.7096223258462819,-0.24325480318380663,-0.6612588414444986,0.7183562537398052,-0.2545752810370851,-0.6474223652282967,1
46,9.24,0.7462972540336799,-0.07680708626102718,-0.6611664541716256,0.7495138910084982,-0.14208069141370297,-0.6465616786608258,1
47,9.44,0.7388301571550504,-0.10464337946254061,-0.6657174791252684,0.7505894005696888,-0.1358429236625394,-0.6466546619666859,1
48,9.64,0.7372018984660709,-0.14179978395497428,-0.6606255990864597,0.7455991577355969,-0.16520844801340576,-0.645591252023268,1
49,9.84,0.7650798346965928,-0.18729412063388193,-0.6160955761216071,0.7656427839583483,-0.23095928110597452,-0.6003739983073232,1
50,10.04,0.33501585132152845,-0.8049803862407502,-0.4896641268573844,0.6319503857431671,-0.5733822206259303,-0.5214130215377628,0
51,10.24,0.3312415353521173,-0.8283992344233476,-0.45170095601446775,0.4566946800326219,-0.7819493961831478,-0.42424652153990844,0
52,10.44,0.04983802534264398,-0.961231352798038,-0.2712018761513277,0.25383280296842137,-0.9090526996519643,-0.3304422754319883,0
53,10.64,-0.29405534260947913,-0.9058729688465127,-0.30483703809745044,0.007930118998780433,-0.9477982786011702,-0.3187719189221725,0
54,10.84,-0.25144516435078695,-0.9218590364891404,-0.29487496700791616,-0.10406179616413652,-0.9502758841245333,-0.29350789875304995,0
55,11.04,-0.4153432538796721,-0.7496684441050941,-0.5152545054336684,-0.21316836501016345,-0.9220281434622514,-0.32314602089836714,0
56,11.24,-0.38622154900276895,-0.733184351637826,-0.5597085148533321,-0.3127072389092118,-0.8507547289343239,-0.42241043302653175,0
57,11.44,-0.41667866732908243,-0.7189376288427903,-0.5563340489550918,-0.39002287077559766,-0.8033507130646105,-0.4500108799690778,0
58,11.64,-0.7095662719031932,-0.5747229093359056,-0.4076877276321622,-0.5153827052813229,-0.7320788328558251,-0.4454674506418602,0
59,11.84,-0.4486339800934877,-0.34040186226578995,-0.8263498799367363,-0.4881790510129622,-0.6172378968396811,-0.6170077737411506,0
60,12.04,-0.21146174480330204,-0.22122220648629248,-0.9520213578707569,-0.35402719371169095,-0.4946239642121024,-0.7937328770686837,0
61,12.24,-0.24469403490463446,-0.2314747127186612,-0.9415648074635665,-0.3915789273460255,-0.4391719608884995,-0.808575248463547,0
62,12.44,-0.602052428043572,0.06985369449919147,-0.7953950812342591,-0.5592605794512225,-0.28613543199207225,-0.7780450622107906,0
63,12.64,-0.5676693896060445,0.0337395765037165,-0.8225649549316155,-0.58727856061182,-0.17327677743289197,-0.7906194094810608,0
64,12.84,-0.3178902469191791,0.09604218343731348,-0.9432505976219985,-0.5508079170245125,-0.09482593347290687,-0.8292277617663979,0
65,13.04,-0.26029675477249703,0.12048186705830953,-0.9579821079566415,-0.4966570272856589,-0.025034243564220963,-0.86758577898496,0
66,13.24,-0.08700431148157639,-0.0024285848842343096,-0.9962049747712953,-0.45897228222401726,-0.015604525298469668,-0.8883135386451605,0
67,13.44,-0.3295064290277562,0.12034040512549593,-0.9364527217770301,-0.5686617943954992,-0.05201980188419002,-0.8209249075322426,0
68,13.64,-0.8690759052812662,0.28218368796727494,-0.4062996887824742,-0.8392795506240374,0.03717396989565715,-0.5424278125857034,0
69,13.84,-0.9647382797410775,0.1558351615705661,-0.21212131910890555,-0.9321870093187696,0.0527936976675382,-0.35810641594910986,0
70,14.04,-0.9903166014512768,0.1015231187603813,-0.09468941465211035,-0.979301777889417,0.0038057328725926215,-0.20236982042767596,0
71,14.24,-0.992637847821862,0.07074200275905916,-0.09831415013729772,-0.9861390741119592,-0.012570697825218252,-0.16544396049960552,0
72,14.44,-0.9973289736791534,0.030650473772678093,-0.06629831609926115,-0.993330962870155,-0.04421182321007857,-0.10648433167321524,0
73,14.64,-0.9981767623214415,0.018572734144173455,-0.057429998327483946,-0.9958055018715306,-0.05796290890116654,-0.0707933869376507,0
74,14.84,-0.8796972780889041,-0.12478838776480439,0.4588687799382676,-0.9743839539723402,-0.15173389633421927,0.16599016520404236,0
75,15.04,-0.8822804188671933,-0.14054823827027607,0.4492521065088642,-0.943212210407921,-0.19673820338914538,0.2676654730528672,0
76,15.24,-0.902847205340952,-0.11979462841749751,0.41293603719020117,-0.9410969470572974,-0.18747614288374595,0.2814058138860457,0
77,15.44,-0.9155582873327601,-0.1291507423815639,0.3808846390163228,-0.9411659480002919,-0.19280958200871487,0.2775448133371197,0
78,15.64,-0.9211448430505235,-0.15850429516520395,0.35548356718083135,-0.9386462932332102,-0.2107599398013984,0.27298971404517264,0
79,15.84,-0.8624186761831273,-0.2754271655613713,0.42470448954699247,-0.8607596175462637,-0.35373900730990854,0.36600764405816827,0
80,16.04,-0.37005499426535926,-0.5623071815050271,0.7395065482111283,-0.5262603479969012,-0.6363462309356228,0.5640155321444681,0
81,16.24,-0.41928335707013076,-0.5646668123924079,0.7108817464716607,-0.3678074100125517,-0.6809089666810332,0.6333093148164068,0
82,16.44,0.15078787923342385,-0.7845375442085653,0.6014680849417368,-0.1397258126840762,-0.7922724447544836,0.593953761291675,0
83,16.64,0.2158376809779594,-0.8107038591299115,0.5442181072528964,0.26839321558324647,-0.8600924158934923,0.4338272904640524,0
84,16.84,0.5339901326844976,-0.8105828179798418,0.24043717140128637,0.5032828798540613,-0.8206324257089828,0.27068203619892023,0
85,17.04,0.5251056314889819,-0.8399557749190331,0.13688817318791321,0.5539948442155505,-0.8241333605537449,0.11787245906054293,0
86,17.24,0.584303908835654,-0.7507298114849609,-0.3082104674846903,0.49546127012886876,-0.8647408201244681,-0.08210629581676983,0
87,17.44,0.4637992412604488,-0.8450809677274489,-0.2659481562091958,0.33010643521464844,-0.9394427992237746,-0.09207045354768234,0
88,17.64,0.33139827850633846,-0.8909568986955381,-0.31043676597636466,0.31407233242505966,-0.9413472879752268,-0.12338498055585281,0
89,17.84,0.27006257628664204,-0.9058634737661735,-0.326309012725212,0.2583276512674299,-0.9553006757531942,-0.14376175950559256,0
90,18.04,0.23496830044167366,-0.9076792149748658,-0.34771876637616644,0.23103799124074947,-0.9589628026179682,-0.16435263855056062,0
91,18.24,-0.3002748349910761,-0.9198775128971054,-0.2523100963840295,0.06419109576844717,-0.9829312608780848,-0.17241125140971725,0
92,18.44,-0.28279446633868616,-0.9170313196391288,-0.281213172894045,-0.07008209778683444,-0.9802164670317545,-0.18510585439035102,0
93,18.64,-0.2997524991050674,-0.9027253669666114,-0.30860225390502743,-0.13643629309731037,-0.9689799503650067,-0.20606550831348305,0
94,18.84,-0.29608789706095445,-0.8960222921270339,-0.33087159023620977,-0.16888266382810208,-0.9575341278706664,-0.2336814922523539,0
95,19.04,-0.33208294906906544,-0.7571113218753862,-0.5625863144671209,-0.21101852627984174,-0.9354689570958143,-0.2834942889667332,0
96,19.240000000000002,-0.3320287153735825,-0.7411179001688867,-0.5835247982876384,-0.24082274345847426,-0.9176477041485188,-0.31611247571724643,1
97,19.44,-0.33185614703417277,-0.7365043890047691,-0.5894342903601263,-0.2497220576642763,-0.9046955596225454,-0.34520260473404557,1
98,19.64,-0.3784950639306998,-0.7100653341648843,-0.5937581223001559,-0.28781091753147514,-0.8857303264893595,-0.3642068979120841,1
99,19.84,-0.40686799954476444,-0.688326579227765,-0.600553870418837,-0.3172150864048131,-0.8680887285698501,-0.3818331419444471,1
100,20.04,-0.41629627612942766,-0.6788119060268496,-0.6049064445986397,-0.3329309412825618,-0.8555683264386662,-0.39643388746630553,1
101,20.240000000000002,-0.4320075433852393,-0.6632459691507697,-0.6111254100947753,-0.35892786908288343,-0.8365753103377432,-0.4138991844989901,1
102,20.44,-0.44183445956692036,-0.6582966724541143,-0.6094487684580618,-0.3744819553415316,-0.8257377847020521,-0.42180608819566673,1
103,20.64,-0.6788141765094977,-0.6079259753073026,-0.4118705164446681,-0.4262819545049467,-0.8024418363880411,-0.4175772916211209,1
104,20.84,-0.6972797287804366,-0.5940450845392007,-0.401137653887908,-0.4682696277591232,-0.7808389369646106,-0.4135385232820631,1
105,21.04,-0.6894316723544395,-0.6072793850314062,-0.39483631756772103,-0.47511658930854006,-0.7777990056205911,-0.4114522249538088,1
106,21.240000000000002,-0.6133831877288003,-0.7290357401134997,-0.30375640676176274,-0.4919296011278177,-0.7866027847042621,-0.3731773393840065,1
107,21.44,-0.520233244074251,-0.8231683258882386,-0.22748907449443703,-0.4863406043485017,-0.8210648950887518,-0.29887330863566763,1
108,21.64,-0.5247319345943932,-0.8295327997607372,-0.19113275736497592,-0.49062472285981046,-0.8377098795192226,-0.23985316148557195,0
109,21.84,-0.23056193783727547,-0.9256696811824568,-0.29996138778230985,-0.4310584372785534,-0.8774855969947332,-0.2102561550056702,0
110,22.04,-0.2077660826163032,-0.9258216450564217,-0.3157333312453668,-0.2908204119939943,-0.9407186856337385,-0.17456185856931836,0
111,22.240000000000002,-0.2205617429205946,-0.9165060218189177,-0.33372028636193396,-0.257234307475994,-0.9491626413023143,-0.18144087580630855,0
112,22.44,-0.4514403427777776,-0.8729402658220515,-0.1848699792265059,-0.3306080789212489,-0.9313420420067687,-0.15264435444084892,0
113,22.64,-0.4938337101092138,-0.8527660405398656,-0.17005395279654587,-0.4115307561265688,-0.9025252021723273,-0.12684910802088656,0
114,22.84,-0.651657719734236,-0.7416096708102231,-0.15923979550203152,-0.4704775143715014,-0.8756054863326871,-0.10938894265378325,0
115,23.04,-0.6692282023982903,-0.7244069968592526,-0.16543311644320832,-0.517246190481488,-0.8482781945778373,-0.1134922157513604,0
116,23.240000000000002,-0.7729687816701952,-0.5933616206448038,-0.2245912948203166,-0.5770371711028893,-0.8076103160795893,-0.12162927496043424,0
117,23.44,-0.7961103204147707,-0.5586298855168575,-0.23268220545738771,-0.6346325272853709,-0.7611586000317229,-0.13371290479654796,0
118,23.64,-0.85300707895773,-0.475998933547518,-0.21401854711596202,-0.7030075403491167,-0.6982329750257318,-0.13509667205005713,0
119,23.84,-0.8824597471837077,-0.3391731936412985,-0.3259238244063003,-0.7632710708348237,-0.628178517636532,-0.15102656192415603,0
120,24.04,-0.8927239368327935,-0.2919648675831632,-0.34322075797204415,-0.8126669260680809,-0.5550802969557829,-0.17736496611940145,0
121,24.240000000000002,-0.8885252295302768,-0.27155466983085624,-0.3698391241894556,-0.8286019956674234,-0.5178122320599995,-0.21281265259613802,0
122,24.44,-0.6657540192344377,-0.6129559007796721,-0.4255075199953266,-0.8036717094161366,-0.5371657393988662,-0.25605614989727266,0
123,24.64,-0.6420000996065734,-0.6355015627293398,-0.4289214798465061,-0.7689196006819942,-0.5802221746919615,-0.2685235104842291,0
124,24.84,-0.9590669090932459,-0.04335821543681996,-0.279840542160106,-0.8463308249516284,-0.47072789259238734,-0.2492777283919007,0
125,25.04,-0.9639080570810261,-0.04064503119222074,-0.2631144977641201,-0.9139092655871008,-0.34336110865129904,-0.21650173980778276,0
126,25.240000000000002,-0.9682470370969445,0.00784689651782329,-0.24987217005506399,-0.9535354677003296,-0.24003347555923965,-0.1820825154935687,0
127,25.44,-0.9605624871127487,-0.05910417728894311,-0.271710148096768,-0.975292834791603,-0.14703355574762275,-0.16487880363579033,0
128,25.64,-0.9246348575111623,0.20141698592440124,-0.32323610265012487,-0.9861045893383072,-0.04726422271520631,-0.15926026540558094,0
129,25.84,-0.90964911666778,0.24361008704453987,-0.33644109445143494,-0.9843598425471768,0.052485364934015684,-0.16816951818995382,0
130,26.04,-0.9190109778945825,0.20192362189675975,-0.3385936700963818,-0.9677333277701312,0.16538048632369384,-0.19010918196206658,0
131,26.240000000000002,-0.902936534717089,0.2452363948445582,-0.35293728184585216,-0.948473603952291,0.2301225239317574,-0.21781057500734555,0
132,26.44,-0.7998381916656182,0.47808305033156545,-0.3628986967994508,-0.9300097282964808,0.2813070725676531,-0.23653379504274513,0
133,26.64,-0.7804394908665018,0.5050142420129775,-0.368612013450584,-0.9052197697395311,0.34546092582223403,-0.24745487912497371,0
134,26.84,-0.5032807832539478,0.6823983292102986,-0.5301329771842969,-0.8187665363347519,0.4700989112111363,-0.32958818646380156,0
135,27.04,-0.5359587204632017,0.6569007469649185,-0.5303109074838833,-0.735002704418767,0.5607558458138251,-0.38121372730099923,0
136,27.240000000000002,-0.37068265567098363,0.805015868993506,-0.46318875143221894,-0.6417745764418746,0.6616050416858248,-0.38781975433021804,0
137,27.44,-0.40351649464177763,0.7894756093728337,-0.46249616296506246,-0.5307045324690026,0.7420610078101663,-0.40950965788930793,0
138,27.64,-0.38501025783505044,0.866968252507817,-0.31643822541742656,-0.47715085656224476,0.8145550712355654,-0.32988952091016643,0
139,27.84,-0.5932758178957805,0.7770869875992682,-0.21014189873508687,-0.5036614282634713,0.833059179980205,-0.22877405519487773,0
140,28.04,-0.6078066902955785,0.7688585358252835,-0.19856379106104874,-0.622624244889347,0.7688535324620213,-0.14561351344103504,1
141,28.240000000000002,-0.6063985763570338,0.768636622284511,-0.2036627346257063,-0.6587619636724426,0.7404391066907905,-0.13335143231841023,1
142,28.44,-0.5993992711649828,0.7730587746892673,-0.20760694738571733,-0.6667581432123701,0.7335729781556722,-0.1315456733602834,1
143,28.64,-0.5831608554957606,0.7812197527824492,-0.22275348365397515,-0.6584516530740859,0.7384639455621754,-0.14530114131949654,1
144,28.84,-0.5656876580079793,0.7868439511225885,-0.24672671148305172,-0.6456532697766697,0.743815328792789,-0.17283116582251692,1
145,29.04,-0.39313907273178267,0.8459748558995127,-0.3602335529588999,-0.6309265458681385,0.7417262729197799,-0.2275386335975336,1
146,29.240000000000002,-0.3662170680755248,0.8247641982749954,-0.43087013854985473,-0.5893814649962114,0.746750156646644,-0.30821046748469255,0
147,29.44,-0.5313986516203683,0.6054598820338306,-0.5924810581813013,-0.552669513445522,0.7314930775173702,-0.3993423173820385,0
148,29.64,-0.2422008173142492,0.7266144921617445,-0.6429386781589982,-0.5082414704877435,0.7336687140319973,-0.45102197920621506,0
149,29.84,-0.1319865021081491,0.740137148403421,-0.6593758903800684,-0.43741421836386185,0.7662432963941066,-0.47068037170061106,0
150,30.04,-0.4677136613776379,0.7832598569648108,-0.409570418155643,-0.46753558071031887,0.8120093881797932,-0.3493583178883011,0
151,30.240000000000002,-0.6467233525042391,0.7480574533220983,-0.14885883196819238,-0.5937128337426596,0.7917205598476819,-0.14381803142768396,1
152,30.44,-0.6361805625697645,0.7488491693064374,-0.1857396388428612,-0.6227853430041885,0.7725695734719151,-0.12359073866831144,1
153,30.64,-0.6218266334161033,0.7502530652784,-0.22461517316236657,-0.6325460494521313,0.7643576624505072,-0.12507141630164223,1
154,30.84,-0.6035584705209751,0.7535174087622487,-0.26063132458437854,-0.6279406768422622,0.7666270236293263,-0.13406533111928054,1
155,31.04,-0.4108916810224551,0.8270916625860241,-0.3835197623946228,-0.6033125956542111,0.7824217498030979,-0.1543700662694576,1
156,31.240000000000002,-0.3942651708368575,0.8247454202224428,-0.4054009951727918,-0.5799116131692357,0.7916133277432826,-0.19248600014198675,1
157,31.44,-0.40104586237270295,0.807518573720612,-0.43252279635871677,-0.5740909670217956,0.7880058938022944,-0.2224101457146841,1
158,31.64,-0.4170933742697853,0.8020172703908748,-0.42755282145603396,-0.580474244259528,0.7832681296692606,-0.2225773770978275,1
159,31.84,-0.5875611480341476,0.7800154240701725,-0.21528547450634847,-0.6139153527322341,0.7725338342982186,-0.16217094235450782,1
160,32.04,-0.6241708893513092,0.763611835118408,-0.16525031362600584,-0.6627487733380985,0.744507538740239,-0.08045239709168135,1
161,32.24,-0.7164474588256284,0.6875751470155836,-0.1180824116826801,-0.7388801037260839,0.6730695473511883,-0.03214928842444735,1
162,32.44,-0.7408940589481268,0.6596038734851679,-0.1264860604917905,-0.7752596387169747,0.6309192423317665,-0.03022254509361842,1
163,32.64,-0.760981874195909,0.635896786820791,-0.1286151766172088,-0.8003104550732202,0.5988873712341302,-0.028932543558570067,1
164,32.84,-0.7567818738631114,0.6382495004067796,-0.141133874823637,-0.8014984625206668,0.5968198998579488,-0.037499622805508115,1
165,33.04,-0.7481756376621722,0.6449680447541005,-0.15572230557911326,-0.7988775509394823,0.5994760022913916,-0.04922581925845434,1
166,33.24,-0.7425238335978109,0.6481017501657316,-0.1691817897154615,-0.7960624207371982,0.6026876756961248,-0.055246609434741765,1
167,33.44,-0.7426547685932428,0.6471603572280437,-0.17218410704297946,-0.7961631389477574,0.6024641454576828,-0.05622463533717287,1
168,33.64,-0.7448583432763735,0.6456597517277117,-0.16825437126709747,-0.7966208659593044,0.6018114462205438,-0.056728997137141225,1
169,33.84,-0.740759906954146,0.6499367406827442,-0.16987346278914936,-0.7953598204897361,0.6035295578408201,-0.0561678623680768,1
170,33.96,-0.7357816555045185,0.6544435329024734,-0.17415228297429663,-0.7935180173241477,0.6057050587187097,-0.05874128041265154,1
