,timeStamp,x_gaze,y_gaze,z_gaze,x_head,y_head,z_head,fixations_head
0,0.04,-0.9996179285210839,-0.012902076198131902,-0.024444496497065295,-0.9958616898640509,-0.06869928774770366,0.05949707996259492,0
1,0.24000000000000002,-0.9995112808589556,-0.021436060715713114,-0.022752906115103614,-0.9943294751731016,-0.07902679709661792,0.07115939953818033,0
2,0.44,-0.9774425954966822,0.20774108289213525,0.03807380973205079,-0.995136762643686,-0.05155332455758721,0.08393496507478189,0
3,0.6400000000000001,-0.9669836605159865,0.24952368360499774,0.05177385069025645,-0.9934659064289733,0.015482360773459183,0.11307426439353661,0
4,0.8400000000000001,-0.9499321504772681,0.3066291017688643,0.0600624961024151,-0.9870887768762727,0.09137165013303644,0.13155595051866742,0
5,1.04,-0.9294689450198799,0.3675185054861527,0.03190028791181422,-0.9668092780931246,0.21538239691320749,0.13744178001238597,0
6,1.2400000000000002,-0.7599765840036403,0.6484820048903767,-0.04366555964963329,-0.9321729109942378,0.34800292441436037,0.09973779929185311,0
7,1.4400000000000002,-0.7737076120914426,0.6330477740299751,-0.025040902289091487,-0.8819226759513613,0.4619123541060675,0.09407109421592363,0
8,1.6400000000000001,-0.6070218709177431,0.7945069710643456,-0.016826204494235254,-0.7946178809966626,0.5996006242467791,0.0951919881252976,0
9,1.84,-0.29194181466499186,0.9547467903923529,0.05682027002410576,-0.6243332780392714,0.7741711752590459,0.10424466092210943,0
10,2.04,-0.25384729770254566,0.9656486896761408,-0.055535192228600753,-0.45013878905055044,0.8866647123488319,0.10583363580387482,0
11,2.24,-0.04515019342174148,0.9968029197612228,-0.06591964190952988,-0.3087924122954428,0.9446305312619592,0.11099732211414007,0
12,2.4400000000000004,0.04628354417982217,0.9955172801895883,-0.08248138203303437,-0.20527405896415313,0.973790629410158,0.09795085905366073,0
13,2.64,0.06699724880293123,0.9939168514505706,-0.08741087492653651,-0.16677691265436778,0.9818256866004429,0.09057473454030311,0
14,2.8400000000000003,-0.04782480030500191,0.9915855664011173,-0.12029485849678892,-0.1613809292551367,0.9829552575582429,0.08806337099700978,0
15,3.04,-0.12980678569001608,0.9860059586686638,-0.10460615593126314,-0.24362216126706832,0.9652241603280892,0.09481857865681255,0
16,3.24,-0.6903911431219457,0.7222566901677849,-0.041295798898310955,-0.47107385742725033,0.8774914074010086,0.08999028161978467,0
17,3.4400000000000004,-0.8250090080662184,0.5648775225353788,-0.016538474654191233,-0.739211700676296,0.6673720425938732,0.09044677079553452,0
18,3.64,-0.9797855213882428,0.1998548293407922,-0.008853206601694365,-0.9187380965198441,0.3869987315994156,0.07843654596893795,0
19,3.8400000000000003,-0.9920302350064665,0.12036718899293951,0.03725255222066054,-0.9808476718523564,0.16314254700344882,0.10640655045174578,0
20,4.04,-0.979391932603955,-0.20029763524850727,0.025928742047120514,-0.994165636061926,-0.017848869441087073,0.10637718709037862,0
21,4.24,-0.9624272367482509,-0.2705018812208279,0.02371805685799957,-0.9850504795272821,-0.12900669968271136,0.11416139548921991,0
22,4.44,-0.9701883149648763,-0.24218851705568772,0.00890818230512004,-0.9577138532669678,-0.2617919626524295,0.11936977653964992,0
23,4.640000000000001,-0.8856625970801886,-0.4643293569170564,0.00011152653897130659,-0.9414690659966845,-0.3109035711022734,0.13028801651412344,0
24,4.840000000000001,-0.8356406911675726,-0.5492343261333607,0.00680369471798377,-0.8979274483893834,-0.4180118095679718,0.13781300552067305,0
25,5.04,-0.5588080187794722,-0.8255651691992016,-0.0785859373733923,-0.7861282475387363,-0.6045324415840914,0.1286192267666579,0
26,5.24,-0.5821361249738961,-0.8116065056804586,-0.049116310300473254,-0.6210937976805753,-0.7768369839746032,0.10376316693298863,0
27,5.44,-0.22153335024632087,-0.9519446227572298,-0.21148146474865565,-0.4489591271634027,-0.8902461352498029,0.07679531762721835,0
28,5.640000000000001,-0.21178869454260651,-0.9597572459174526,-0.18442228111832237,-0.3138116062052521,-0.946867246270523,0.0704605829592444,0
29,5.840000000000001,-0.13555425037781765,-0.9798099274469655,-0.14696105361925152,-0.19034269500305606,-0.9790034945106604,0.07295077926169845,0
30,6.04,-0.23313645958532564,-0.967035094079252,-0.10242322993907092,-0.18994584481730237,-0.9795772247180833,0.0659472277678056,0
31,6.24,-0.24957781662964068,-0.9621517662383937,-0.10942985045553665,-0.21565590466670714,-0.9752435383543452,0.04891392113173395,0
32,6.44,-0.43271871733798095,-0.79982547379499,-0.41597322405894305,-0.2612169567957598,-0.9648713876410377,-0.028087484651007723,0
33,6.640000000000001,-0.4143556067928829,-0.7281713526285416,-0.5459632884456814,-0.3278787858350257,-0.9338497665486589,-0.1428989689128814,1
34,6.840000000000001,-0.408431513626378,-0.706622433821492,-0.5778134947342936,-0.3711753173112047,-0.9062764234456566,-0.2022175267514553,1
35,7.04,-0.301599941437957,-0.8540338260671964,-0.42386754919154507,-0.376171039965753,-0.9031262787209211,-0.2070223982442116,1
36,7.24,-0.29258817835883416,-0.8655057260497512,-0.40656118366090066,-0.3771711202139116,-0.9046624146585331,-0.19831253510753064,1
37,7.44,-0.2000468316610839,-0.9441894624190148,-0.26170121168854793,-0.35716986937709766,-0.9135985841231808,-0.19433813701192804,1
38,7.640000000000001,-0.19566158197053357,-0.9510172796639981,-0.23933800183271528,-0.34231891227361716,-0.9257459102780398,-0.16066198026692893,1
39,7.840000000000001,-0.20234570926138046,-0.9748662472285041,-0.09323097102423676,-0.3491967281565414,-0.9308323663536444,-0.10776247395657587,1
40,8.04,-0.2156196491626834,-0.9748761989476586,-0.055897796202771494,-0.361691030232885,-0.9309089449042447,-0.05087371567263996,1
41,8.24,-0.21656317443278406,-0.975528296933492,-0.038012279090264445,-0.3601909917689304,-0.9328373938682339,-0.008766187862209745,0
42,8.44,-0.19416819276143082,-0.980666664507678,-0.024322953010382897,-0.3312184698909182,-0.9431323031146468,0.028209644180334146,0
43,8.639999999999999,-0.15614411501062042,-0.9874291348397422,-0.024550336396641424,-0.28522976643120235,-0.9573622837959433,0.04584144311229621,0
44,8.84,-0.12567315943372642,-0.9920083110756065,-0.011214622368500165,-0.24119834258825373,-0.9682278984255928,0.06601587871898475,0
45,9.04,-0.17056023992513158,-0.9823015009264652,-0.0774142482640982,-0.17086278175927933,-0.9834243607025642,0.06068308319650689,0
46,9.24,0.2650611537807714,-0.9510570866562694,-0.15884899331533686,-0.0967481173853344,-0.9942555868390508,0.04577804956230276,0
47,9.44,0.36849623837574547,-0.9210907300491207,-0.1257075547471345,0.020425816943059727,-0.9977027103889834,0.06459169981263015,0
48,9.64,0.42087867388851774,-0.9050590582244173,-0.061067528128894794,0.189918455154156,-0.9775919394159291,0.09080187432460257,0
49,9.84,0.7487898381500852,-0.6623862500676753,-0.02362697620206328,0.43017104526113215,-0.8895343999548367,0.1538876964410535,0
50,10.04,0.785173882850705,-0.6180561821571894,0.03883979127681506,0.5896912630473239,-0.7770591822901707,0.22009825420521434,0
51,10.24,0.6608223934268221,-0.6984224953713899,0.27480862851236576,0.5484979603553193,-0.7951070704928831,0.2587561283105777,0
52,10.44,0.5751331335331761,-0.7108184812907176,0.40491846755596095,0.5118426032280831,-0.8155845980843169,0.26988685201087953,0
53,10.64,0.527318964742315,-0.7169012906150173,0.4560561905485067,0.4832764861568183,-0.828834797220412,0.28191615215258115,0
54,10.84,0.5068552554896715,-0.7294360340536611,0.45937002754486095,0.46461916629364974,-0.8404560495711995,0.27885956869321776,0
55,11.04,0.4298027068524606,-0.7891542491681282,0.43875415006833396,0.3763922957879709,-0.89128924025653,0.2528484326121044,0
56,11.24,-0.34776996111601716,-0.9344542644043982,-0.07649367216835326,0.09839501730292727,-0.9849726891463083,0.14194091096596176,0
57,11.44,-0.38862366872824766,-0.9152519991086424,-0.10623286794505285,-0.14115481068794056,-0.9870566985110218,0.07612091265988422,0
58,11.64,-0.3254976320606411,-0.9375067622087558,-0.12301366727226425,-0.27594563195822575,-0.9595724490872679,0.055450186256117334,1
59,11.84,-0.3272000026927019,-0.9352936612105003,-0.13478102810616036,-0.3316471110233786,-0.9427666467074831,0.03465896140646022,1
60,12.04,-0.2828272293362822,-0.9487122559866564,-0.14125796857760467,-0.3172085465176749,-0.9481807217711726,0.0182224278745389,1
61,12.24,-0.26083482555483695,-0.9549931911494041,-0.14125579151332388,-0.3128067395802287,-0.9497707835012221,0.009348929385857997,1
62,12.44,-0.23936923894668904,-0.9596437257378412,-0.14760178555179632,-0.30886463073035947,-0.9509413247763214,0.017698494751065406,1
63,12.64,-0.2138691265294707,-0.9655143625814036,-0.14846552585212403,-0.2917061065123178,-0.9560421010569001,0.029850434337423203,1
64,12.84,-0.20567403019270547,-0.9680459226750816,-0.14347572929398236,-0.2853534168856688,-0.9573398594945706,0.04553922369331304,1
65,13.04,-0.20753214949432292,-0.9680186748564819,-0.14096188156862366,-0.2853390902090082,-0.9569689033602617,0.05284052990038822,1
66,13.24,-0.21336124478583357,-0.9670538979161698,-0.13886589843652009,-0.28755022852764583,-0.9558203754462042,0.06101045775582975,1
67,13.44,-0.21014002972246953,-0.9680392472699991,-0.13689844284422503,-0.2832683576070954,-0.9566518367215563,0.06764836195985639,1
68,13.64,-0.21027643833166082,-0.9674712113448398,-0.1406530294785716,-0.28303666788711096,-0.9567592140283844,0.0670973248583708,1
69,13.84,-0.19702849926296218,-0.9676617926867638,-0.15751325484676867,-0.2666572032272523,-0.962343784491657,0.052805079464911205,1
70,14.04,-0.18318527755908603,-0.9661336940774432,-0.1817383813449278,-0.2520581183081043,-0.9672961498693904,0.028370115312279162,1
71,14.24,-0.18493339929249725,-0.9632650002751573,-0.1947310377701084,-0.252068928901837,-0.9676266563147492,0.012645515862124392,1
72,14.44,-0.18065311135196782,-0.9633309621423689,-0.19838828276062934,-0.24755934541121527,-0.9688691848846472,0.002621656066269363,1
73,14.64,-0.18244444008360466,-0.9641725680068561,-0.19257540181872818,-0.24676770936786013,-0.9690729598337124,0.00181552539713954,1
74,14.84,-0.1839702232877901,-0.9651964163300829,-0.1858785486467066,-0.2465014149239998,-0.9691373374916088,0.003142215801309167,1
75,15.04,-0.18433783953445076,-0.9667651110061742,-0.17715750353002568,-0.24403913917576375,-0.9697336987541247,0.007839135857786226,1
76,15.24,-0.18665153460893547,-0.9682872401668867,-0.16607535987654393,-0.24398358810482307,-0.9696571161201534,0.015397593742006797,1
77,15.44,-0.18986455122753654,-0.9689410647440309,-0.1584445178599431,-0.24416296076231342,-0.9695255811233412,0.02011457529327008,1
78,15.64,-0.1872818902604425,-0.968995390166296,-0.16116273581986487,-0.24066510720213913,-0.9705031307190349,0.014282137092720677,1
79,15.84,-0.18111643056477922,-0.9707974324643899,-0.15731873283249373,-0.23311618926426575,-0.9723282552563889,0.015316864332308727,1
80,16.04,-0.18273965954576188,-0.9713576532490292,-0.15188984924489793,-0.23483961294723166,-0.9718614942982273,0.018319172776392167,1
81,16.24,-0.30139800844256004,-0.9350545699092553,-0.18663384419412346,-0.2438671765191484,-0.969626979183882,0.018770227897346104,1
82,16.44,-0.3184092793792409,-0.8732369643136357,-0.3688803802881072,-0.2610053621581347,-0.9653064001022339,0.007730125895938401,1
83,16.64,-0.32426040802247935,-0.8475566461011425,-0.4201225052753999,-0.2830420011856181,-0.9586191897078524,-0.030601873941011378,1
84,16.84,-0.3334224651511308,-0.8342883554248017,-0.43908131335223416,-0.30272447402167235,-0.951463698557367,-0.055450186256117216,1
85,17.04,-0.33343959521252975,-0.8285082363095414,-0.44988013816099737,-0.31227981983807135,-0.9471232881158612,-0.07374816086182212,1
86,17.24,-0.3533376959326773,-0.8201220997369344,-0.45005801198964185,-0.3421411052419352,-0.9362463643836979,-0.07988873063289711,1
87,17.44,-0.394790963066147,-0.801495695846628,-0.4491600438826164,-0.37787132796375006,-0.9222093124967055,-0.08211725426039433,0
88,17.64,-0.42629579065012707,-0.7861314799023441,-0.4475144636551244,-0.40800860006693945,-0.9092843748710908,-0.082042110447663,0
89,17.84,-0.4539139362699729,-0.7695921688289655,-0.44909913397492557,-0.44225076730204876,-0.8929548656902183,-0.08393966083391632,0
90,18.04,-0.7477495087179373,-0.6267528236878178,-0.21920668377453784,-0.6152201324144086,-0.7875361782077414,-0.03592988569342229,0
91,18.24,-0.8807956042420535,-0.47328764792795514,0.014067902000654964,-0.7652671049536254,-0.6425565295571005,0.038566363575432916,0
92,18.44,-0.9966975207167941,-0.07969082182267508,-0.015602086854742295,-0.8745203144252703,-0.4760169855702374,0.09285498966749682,0
93,18.64,-0.9995509892719934,-0.013823962646708059,-0.026584166380051434,-0.9537432245391475,-0.2877450071558964,0.08704408367329149,0
94,18.84,-0.9533566394050449,0.2941414592982047,-0.067763707279355,-0.9887849541460818,-0.1119872729124425,0.09880873018091799,0
95,19.04,-0.9314507313637905,0.3592736386488765,-0.057636686353885844,-0.9882917107958008,0.08483338371854983,0.12681794580882516,0
96,19.240000000000002,-0.9067548743596828,0.4145120881118499,-0.07730023696024588,-0.9683103671507384,0.22243914038363566,0.1135599475774428,0
97,19.44,-0.7141718908033252,0.686133001920001,-0.13849192778877556,-0.9455880465275539,0.3140834617360343,0.08494012790262336,0
98,19.64,-0.6912385917115559,0.7089010620777512,-0.14017308412695115,-0.9273630028429869,0.3690487849558339,0.06165107688160174,0
99,19.84,-0.6698358333674473,0.7324029668625585,-0.12208951825549844,-0.9106991790902528,0.40909309821687256,0.05718253400873422,0
100,20.04,-0.6668930782943809,0.7388948941386666,-0.09637405013204306,-0.8996123654715809,0.43035911101832297,0.07408527150618718,0
101,20.240000000000002,-0.6665508133832123,0.7396763103645652,-0.09267669104819143,-0.8522538527116396,0.5202802875863297,0.054514153091220666,0
102,20.44,-0.3100718741027006,0.9271483098056745,-0.21036027313853675,-0.7285001002348721,0.6845913824549279,0.02494479958291967,0
103,20.64,-0.2803831502651864,0.9458687043272392,-0.1634554472071196,-0.595842199050248,0.8029161407109788,0.01725528373434006,0
104,20.84,-0.16597338012333246,0.9760514261701251,-0.14062876861332851,-0.4694152476059264,0.8824400668635758,0.03080346910455261,0
105,21.04,-0.07620777553099828,0.9911755469648964,-0.10845925524110636,-0.39042943612123826,0.9195015704147872,0.04562584152420693,0
106,21.240000000000002,-0.0735229744567718,0.9935993748293248,-0.0857592826800912,-0.37785857038444753,0.923565584190558,0.06518828488137089,0
107,21.44,-0.10834164014029957,0.9925052189359854,-0.056528571506288816,-0.4149820684341838,0.9050504347801483,0.09313212862568648,0
108,21.64,-0.6737641696538326,0.7351060944398647,0.07523877728970908,-0.5112133655222283,0.8513569017283821,0.11769588264203192,0
109,21.84,-0.714530869090287,0.6955904793208746,0.0748299552000105,-0.5999953553403343,0.7903650027124978,0.12380927290514039,1
110,22.04,-0.6679871757891508,0.7421258755115221,0.055157210566627195,-0.6652009548001435,0.7376870349726248,0.11543625152557041,1
111,22.240000000000002,-0.6782937046817855,0.7316693188714735,-0.06765839202355464,-0.6845766691418376,0.7208509567291088,0.10829904085169036,1
112,22.44,-0.6788473758425233,0.7304730875898702,-0.07466798925002859,-0.6905745929420172,0.7153098727460202,0.10695100530167911,1
113,22.64,-0.6643849660471759,0.7451568938394896,-0.057739245353371486,-0.6862989037903182,0.7194357135142457,0.10679919838863951,1
114,22.84,-0.6561594463515514,0.7538630371896786,-0.03384231260978935,-0.6904522062661868,0.715740882418712,0.10483673066553968,1
115,23.04,-0.3906223499013306,0.919604139195087,-0.0417421481577741,-0.6682387110897577,0.7374861302227725,0.09783267721032352,1
116,23.240000000000002,-0.5719574391058712,0.8147812527741319,-0.09484828927961725,-0.6308784537493639,0.770869479519186,0.08804897580682736,1
117,23.44,-0.574715181038204,0.810672403012295,-0.11186025066347566,-0.6197913192891618,0.7805933541743989,0.08082534226690274,1
118,23.64,-0.7347875563782438,0.6548330674410182,-0.1768640742985306,-0.6535667767469602,0.7533105153983976,0.07330576868698506,1
119,23.84,-0.8363798492161273,0.5297969994672536,-0.14065520673157925,-0.696184472964213,0.7159623050714395,0.052203039378297296,1
120,24.04,-0.8650670851947725,0.48143226141230555,-0.14100324742378784,-0.7552037120675686,0.6536099955252954,0.049611763008261735,0
121,24.240000000000002,-0.856961939374377,0.5117801679838122,-0.060805379056193126,-0.7985907679279022,0.5995926320208468,0.05235896300192638,0
122,24.44,-0.8580565163821284,0.5106135971231458,-0.05488869762645283,-0.8099552120857336,0.5836674410724617,0.05748802177044268,0
123,24.64,-0.504616128750659,0.8347602721721661,0.22031307407357706,-0.7909655108266165,0.6080079530659476,0.06855574149075025,0
124,24.84,-0.5039327472064855,0.8510270071309108,0.14766455033869594,-0.72976670730485,0.6790399593382743,0.07965730682939276,1
125,25.04,-0.5026520901005984,0.8571204195474785,0.11262975944329515,-0.6946893443095431,0.7152595606828946,0.07622647672882146,1
126,25.240000000000002,-0.5202267618860215,0.8002527468561339,-0.2982610557327208,-0.6477638739931258,0.7612626385355792,0.029684317732871997,1
127,25.44,-0.5050684642241384,0.7961446867558829,-0.3332558839640305,-0.6273050687816193,0.7786077647101598,-0.016071696050386754,1
128,25.64,-0.5187001648275114,0.7926647871485887,-0.3203633471897108,-0.6302748137323427,0.7761078993717447,-0.020253091305738272,1
129,25.84,-0.5328789879679309,0.7917836973960103,-0.2985273198891134,-0.6373078219977104,0.7701609645304567,-0.026283621022443675,1
130,26.04,-0.5532820398140444,0.783402912092865,-0.2831234037370092,-0.6575114802298819,0.7529329230089492,-0.027760886425145813,1
131,26.240000000000002,-0.5805224698832505,0.8124040993257421,0.054710523296537215,-0.6829213850116653,0.7304442999236435,-0.008337062000931927,1
132,26.44,-0.6135097499479537,0.7845294880497644,0.09010698696091145,-0.7125945003947243,0.7009742913616785,0.029053758056159985,1
133,26.64,-0.6382269396195641,0.761613687479537,0.1122985511378817,-0.7383747842498609,0.6721653905956139,0.05473906894912781,1
134,26.84,-0.6510702923553858,0.7483739879910817,0.126664314274371,-0.754077356701361,0.6518375426282271,0.08046836726740986,1
135,27.04,-0.617885292210229,0.7757086771036522,0.12842824430934976,-0.73341946519264,0.6732025553276031,0.09430910654293814,1
136,27.240000000000002,-0.5984609910773762,0.7920865098013203,0.12018071038834699,-0.7170750869132825,0.6901058549550948,0.09776107960229476,1
137,27.44,-0.6016293128873519,0.7908281167012896,0.11239688478505472,-0.7196570972085691,0.6875515452887367,0.09678086075462704,1
138,27.64,-0.6174234237163988,0.7788684812571324,0.11023703892307803,-0.7335863609461318,0.6720803991139386,0.1007918060194417,1
139,27.84,-0.6064639415652427,0.7880372953471301,0.10582395155696056,-0.7236337828254504,0.6825743120371374,0.1022079101672544,1
140,28.04,-0.6008962988935975,0.792497440619191,0.1042662197838219,-0.7188379144286042,0.6873592063029826,0.10396814074738905,1
141,28.240000000000002,-0.6002808722080741,0.7927995395877726,0.1055071774360848,-0.7175913429819919,0.6880954475425513,0.1076444125280903,1
142,28.44,-0.6071121512499265,0.7887093622186412,0.09670769231736778,-0.72264991056589,0.6837308784837075,0.1014356572759749,1
143,28.64,-0.6076495502102179,0.7887470071962438,0.09295258344063617,-0.7218385961433267,0.6846327161275203,0.10112905183816354,1
144,28.84,-0.6090361055380276,0.7880274732065822,0.08993177204260012,-0.7223006238460177,0.684404839708085,0.09935705398110532,1
145,29.04,-0.6076451610349394,0.7891176244109296,0.08978158561127171,-0.7201750448172228,0.6866248650298687,0.09946959105789993,1
146,29.240000000000002,-0.6073194343417865,0.789853067263915,0.08541215841177278,-0.7203604406623053,0.6868491479098571,0.09653540047212057,1
147,29.44,-0.6066524261573703,0.7906950103170266,0.08230573793565996,-0.7206284019146657,0.686943014929759,0.09382963600658512,1
148,29.64,-0.6042752384352182,0.7925375707318517,0.0820709156310263,-0.7182434915466226,0.6892329171622492,0.09531145131060001,1
149,29.84,-0.6020884599441145,0.79407284181599,0.08329350690421417,-0.7167389724487008,0.6905270343835461,0.09725050209970958,1
150,30.04,-0.6049633451771291,0.792026159603793,0.08193847384083311,-0.7186645790513215,0.6887077869676413,0.09593126178218016,1
151,30.240000000000002,-0.5986499389378767,0.796873153576704,0.08131068637267667,-0.7131928382067569,0.6942146062334194,0.09706727575640303,1
152,30.44,-0.5974892199591526,0.797418006519963,0.08444616575269692,-0.7117676978644967,0.6952143028227404,0.10031857967179246,1
153,30.64,-0.5968777032492398,0.7976478626862061,0.0865730588349481,-0.711400942540081,0.6951836863064659,0.10309384679231748,1
154,30.84,-0.6021188387097965,0.7930463487666941,0.09236012547945834,-0.715630719900987,0.6897385407723866,0.1101517957510184,1
155,31.04,-0.6034922945584795,0.7891921830585613,0.11389797455531778,-0.7163142064979644,0.6849055206733068,0.1334105892364571,1
156,31.240000000000002,-0.6115067499214575,0.7805340389421022,0.1297154919553763,-0.7218195363757895,0.6750813279601022,0.15245247635202702,1
157,31.44,-0.6021758159683301,0.7941735420504202,0.08168642341274225,-0.7139256230286934,0.6756558460514618,0.18384608366667948,1
158,31.64,-0.5914350128496677,0.8018296002204403,0.08528726625846735,-0.7005352510533531,0.6898768576339654,0.18253844343781794,1
159,31.84,-0.5919989935000798,0.7996853696989553,0.10020230129262497,-0.6951678992266497,0.69106115332406,0.19792946786981094,1
160,32.04,-0.5986501028070349,0.796075235773579,0.08878216823871349,-0.6969918889014669,0.691070856883925,0.19137235320516616,1
161,32.24,-0.5898979256644625,0.8034997401608455,0.08005376229895836,-0.6847624047420533,0.704738269333672,0.18559208169655642,1
162,32.44,-0.5810216665102099,0.8106613059799412,0.07240214107742113,-0.6742913810883167,0.7170003391529114,0.17675306799210277,1
163,32.64,-0.6031285326459448,0.794779477683795,0.06753928457589548,-0.6901529563645735,0.7039149621831521,0.16790658961437613,1
164,32.84,-0.6225537386402025,0.7794880894930941,0.06946337771453798,-0.7045914742990462,0.6896164404736344,0.16727229111114264,1
165,33.04,-0.6225840054569611,0.7797088200767247,0.06665817312024717,-0.7038018454179038,0.6915484297521011,0.16255378092728726,1
166,33.24,-0.6180226025957105,0.7834991455261775,0.0646308876666141,-0.7016541687275544,0.69461464130857,0.15871965091635973,1
167,33.44,-0.6143160400109619,0.7865163687957217,0.06330722392936378,-0.699536892670295,0.6973058734748445,0.1562454946891997,1
168,33.64,-0.6104385207582821,0.7895764548339582,0.06272028656088272,-0.6970878065211772,0.7001719592553082,0.15436261682180988,1
169,33.84,-0.6021232830478402,0.79526398571043,0.07073008584507119,-0.6898835798684323,0.7054520583431096,0.16247473528947992,1
170,34.04,-0.5874379752112064,0.8054677392438955,0.07834759930646157,-0.677363996914616,0.7153901161416024,0.1714496935277538,1
171,34.24,-0.8349398110590036,0.5500163047932178,0.01890968985386563,-0.671312494739724,0.7182310817659339,0.18298537534913673,1
172,34.44,-0.8719078839417833,0.48954700345253577,-0.010971478059246895,-0.6702810672067433,0.7199198141472256,0.18010761267201772,1
173,34.64,-0.8759451154817466,0.48202373771897145,-0.01932022098999779,-0.6645493627674408,0.7288412423414175,0.16481683138444192,1
174,34.84,-0.8841121805709693,0.46706758827791306,-0.013911151868191382,-0.669757894178092,0.7244970842611638,0.1628752224348454,1
175,35.04,-0.6858145322806426,0.7171764893455922,0.12375908226314168,-0.6622117686408936,0.733011531641545,0.155465970405155,1
176,35.24,-0.5976295209830644,0.7912392340211183,0.12953543991984132,-0.6450523820461769,0.7504599069300223,0.1439352371976208,1
177,35.44,-0.580376586677491,0.8056808927159093,0.1184960621669787,-0.6372277345148099,0.7587589728111859,0.1350023538448027,1
178,35.64,-0.5749060165920332,0.810317698283696,0.11343852932092276,-0.6360012684094609,0.7615512178486098,0.12466807600527315,1
179,35.84,-0.5797245692256154,0.806121724315239,0.11868946635317013,-0.642439436504539,0.756253093081839,0.1239065358561918,1
