,timeStamp,x_gaze,y_gaze,z_gaze,x_head,y_head,z_head,fixations_head
0,0.03333333333333333,-0.9991173729986436,-0.04189072744230486,0.0031051451888561127,-0.9953742235088993,-0.0926281078352566,0.025498800225032685,0
1,0.23333333333333334,-0.9996845132110217,0.021424065725649956,0.01311043301442073,-0.9991971844515948,-0.017034874659729905,0.03626016587569292,0
2,0.43333333333333335,-0.9553396461385731,0.29193997684362183,0.045795310200625744,-0.9980414193985514,0.010708564200447168,0.061633203857096176,0
3,0.6333333333333334,-0.8933883726015035,0.4461378421371685,0.05308711250038506,-0.9865061901619995,0.1490055387317819,0.06784457383835922,0
4,0.8333333333333334,-0.8416338705571217,0.538045747506175,0.04646720910017915,-0.9457807916340686,0.31145970168512,0.09214959794948005,0
5,1.0333333333333334,-0.8313147328649287,0.5525272429580294,0.0602450056926823,-0.9134826991274692,0.3831337504277817,0.13695943807542435,1
6,1.2333333333333336,-0.827030013006348,0.5553838998424327,0.08700621462016757,-0.8947151376051584,0.4052286768819792,0.18781518035734773,1
7,1.4333333333333336,-0.8139518239606781,0.5742221465265993,0.08804177820484091,-0.8809006805166787,0.4262915995023195,0.2056440207227196,1
8,1.6333333333333335,-0.9301279201025309,0.2720926221298778,0.2466326361782391,-0.8769720411530892,0.43057088942554034,0.2133746662916742,1
9,1.8333333333333335,-0.9277249197200507,0.28066750535478024,0.24607361656291002,-0.8670275002222305,0.4564147409292513,0.1998722044729453,1
10,2.033333333333333,-0.9677157067747235,0.08740300360066502,0.23640436929777672,-0.8648383377405506,0.47191827850032053,0.17131196102857343,1
11,2.2333333333333334,-0.7124586290488572,0.6919663551619388,-0.11655584591827464,-0.8450566727836384,0.5192927507156334,0.12733522229940203,1
12,2.4333333333333336,-0.9647251939702252,0.20379488090083703,0.16665217261627766,-0.8150079107287544,0.5719613832944033,0.09285624087536354,1
13,2.6333333333333333,-0.9518514361170838,0.26691003050235723,0.15079084580662144,-0.7961203295567212,0.5989879093763963,0.08605756961123115,1
14,2.8333333333333335,-0.7724951665060318,0.6212828645274263,-0.1313728281244412,-0.7989768663084111,0.5946949044692261,0.08929690757428295,1
15,3.033333333333333,-0.7752367872552921,0.6175157808825706,-0.1329743736480152,-0.8046552476520208,0.5867726151331665,0.09070738975326148,1
16,3.2333333333333334,-0.7781109173994141,0.6281069963338265,0.005000138032160456,-0.8031465344040611,0.589860759752566,0.08378501285356399,1
17,3.4333333333333336,-0.7838529439733547,0.6209224963943129,0.0054603750566935075,-0.8077432048208047,0.5830602006848632,0.0871304621997515,1
18,3.6333333333333333,-0.771697157241182,0.6345067728254292,0.043412587397410524,-0.8111115250516092,0.5771280478335611,0.09498057871099698,1
19,3.8333333333333335,-0.7622361704686101,0.6444197724316193,0.06098505823993196,-0.8077971451769584,0.5807246436389988,0.10110717340680643,1
20,4.033333333333333,-0.7615661904235612,0.6446964851475192,0.06620709661493299,-0.807955866718707,0.5802568141412335,0.1025151065818544,1
21,4.233333333333333,-0.9357442456970535,0.31846723524307785,0.15152995321546972,-0.8135644395446584,0.5724259149261628,0.10218353404209458,1
22,4.433333333333334,-0.9440482894133418,0.3199007918538726,0.08022662043865965,-0.8208608361454672,0.5627906303809763,0.097232679886692,1
23,4.633333333333334,-0.9291506482096056,0.318919876933639,0.18700049472742647,-0.8329889766184447,0.5446972032446106,0.0971304360623152,1
24,4.833333333333334,-0.9322087939915812,0.30770262411327287,0.19054096546036417,-0.8353835626947574,0.541137081808494,0.09646223028316323,1
25,5.033333333333333,-0.7863556248153163,0.603615123233147,-0.13150518744728762,-0.8306237270814113,0.5493152237408904,0.09119763689855465,1
26,5.233333333333333,-0.788157776162527,0.6050819012416024,0.11261977030871463,-0.8166068139171692,0.5699448230684041,0.09119325699620415,1
27,5.433333333333334,-0.7913971317021871,0.598931954257613,0.12235642240073807,-0.8141057084520467,0.5725857691596268,0.09683714381202044,1
28,5.633333333333334,-0.7853844477719489,0.6027676926166167,0.1408629757444827,-0.8145939577293417,0.5707615491292063,0.10328571085332197,1
29,5.833333333333334,-0.9091361094871058,0.37849328447988884,0.1738228064158303,-0.8166002752889904,0.5677660778399689,0.10395033069771184,1
30,6.033333333333333,-0.91170519930769,0.3735673124370909,0.17100027085900804,-0.8106883008589545,0.5821419846272673,0.062411445942612484,1
31,6.233333333333333,-0.9253033161897706,0.3657376091070189,0.10024856274728007,-0.8137022009963876,0.5812817089378982,-0.0005504070051181502,1
32,6.433333333333334,-0.946161258705284,0.3236697875057823,-0.00409159885558304,-0.8355973041317202,0.5483754200174373,-0.03258134509961672,1
33,6.633333333333334,-0.9483302892926153,0.2869754579362805,-0.13533199530209736,-0.8989434067705814,0.4354803476338615,-0.04751440043179126,0
34,6.833333333333334,-0.9982307536840416,-0.03268538866359602,-0.04966918327595583,-0.9690287588691092,0.24000350864549666,-0.058151357012927764,0
35,7.033333333333333,-0.9847962430150924,-0.17369796870479384,-0.0023184933012017116,-0.9996525662786706,0.01642629924536368,-0.020613670841697053,0
36,7.233333333333333,-0.9774254373599078,-0.21031659785467513,-0.020160433245042034,-0.9867701851459704,-0.16120510069766159,0.017248687371628105,0
37,7.433333333333334,-0.7776724177557136,-0.6247477315356342,0.07011335538299464,-0.9268906269969485,-0.3693493092074838,0.06674468797708406,0
38,7.633333333333334,-0.5102309480544298,-0.8515066976037651,0.1208334539082938,-0.780439244952908,-0.6150364245819174,0.11244901678016779,0
39,7.833333333333334,-0.5138876734835228,-0.8566043122227012,0.0463520368825961,-0.6544000452007182,-0.7487895343610509,0.10523694252808238,0
40,8.033333333333333,-0.5069073412429081,-0.8619979318764972,0.0021243433545524463,-0.6333591016595816,-0.7693489953621985,0.08341685489242444,0
41,8.233333333333334,-0.5226837723004308,-0.8524734314875538,-0.009524850740380253,-0.6412685607666407,-0.7635441576416245,0.0759931069480871,0
42,8.433333333333334,-0.5160643469403247,-0.847402118701823,-0.12484886477945316,-0.6780997507815134,-0.7326918445848454,0.05782204483505034,0
43,8.633333333333333,-0.6041696371879857,-0.7907058233000805,0.09880966804660281,-0.7318771234295907,-0.6809118786497361,0.02673742160559467,0
44,8.833333333333334,-0.6991890483819004,-0.7141304545560626,0.033946553556501155,-0.8104104798894256,-0.5844652285733396,-0.040438232826189045,0
45,9.033333333333333,-0.7364957306536478,-0.6747330716667586,-0.0480553922894257,-0.867281270504966,-0.48227062386699543,-0.1234432792266611,0
46,9.233333333333334,-0.7659565156659618,-0.636790487701858,-0.08836566573782784,-0.8758846552908173,-0.4593854738297865,-0.14761794288049562,0
47,9.433333333333334,-0.758138732347347,-0.6444826418636858,-0.09933673465119468,-0.8672836665337871,-0.4733176898946402,-0.15423814766947927,0
48,9.633333333333335,-0.7400303588034883,-0.6533456758664838,-0.15966995921508859,-0.8477003882593901,-0.4802983056994588,-0.22520565998018022,0
49,9.833333333333334,-0.7359390587923669,-0.6088536713797661,-0.2961265077482684,-0.8193007745218929,-0.41938031138835175,-0.39098132345117936,0
50,10.033333333333333,-0.7557688576437454,-0.5335689455333086,-0.37962825787649335,-0.8184423553644704,-0.3372754987441959,-0.46518528447524266,0
51,10.233333333333334,-0.7581300689562723,-0.5198875174009152,-0.3936442147359355,-0.8148602990026231,-0.32465383567993017,-0.48021097455979134,0
52,10.433333333333334,-0.7624488543339758,-0.5088293157366288,-0.3997054815383472,-0.8160645518607057,-0.31170785361962106,-0.4866999704008978,0
53,10.633333333333335,-0.7744733228769505,-0.47154562137001305,-0.42170582058907247,-0.8169066220187988,-0.2693410077342228,-0.5100186197135832,0
54,10.833333333333334,-0.2503727095266113,-0.20519902891679256,-0.9461537215780049,-0.6686059241663107,-0.24217129874995977,-0.7030783599510595,0
55,11.033333333333333,-0.14017328639369955,-0.2910670807543778,-0.9463780451187118,-0.5526803147769126,-0.24871535956167326,-0.7954150737672758,0
56,11.233333333333334,-0.07066052043721661,-0.27866773766635927,-0.9577846223632197,-0.4958854697183206,-0.24904119359133664,-0.8319111039148612,0
57,11.433333333333334,-0.033575845753643065,-0.28431908315727134,-0.9581415978520796,-0.4581969180354232,-0.262893876380859,-0.849083266861552,1
58,11.633333333333335,-0.0297362091276401,-0.3069076622359581,-0.9512746421131894,-0.4416544545829374,-0.2671369892397014,-0.8564923652473473,1
59,11.833333333333334,-0.04663813786744096,-0.38200069648764756,-0.9229844808983574,-0.4106400487331776,-0.25827417780843,-0.8744536576936445,1
60,12.033333333333333,0.05689791806099809,-0.19305942385275965,-0.9795359543079392,-0.36074804561805157,-0.17500196061092563,-0.9160977902850158,1
61,12.233333333333334,0.012314801561091528,-0.24984073068117393,-0.968208631935911,-0.3363770547718687,-0.17866491321588746,-0.9246238834296695,1
62,12.433333333333334,0.02500351092119975,-0.21204228076522486,-0.9769405793647307,-0.32806602391618356,-0.1806874738131262,-0.9272134170507117,1
63,12.633333333333335,0.0193854990492075,-0.1671138712571281,-0.9857470042866322,-0.34044098008382134,-0.2732841632394681,-0.8996753332186402,1
64,12.833333333333334,0.031038454966488403,-0.21637104086729253,-0.9758177017185629,-0.3013036744102045,-0.4220379975322401,-0.8550438728076395,1
65,13.033333333333333,0.09218503396967545,-0.3339246864554809,-0.9380811389680631,-0.2962184170536081,-0.43600179320762344,-0.8497982617762829,1
66,13.233333333333334,0.057536073213025604,-0.38923131787649,-0.9193413846136574,-0.32924581538104974,-0.43035699854138215,-0.8404701344250851,1
67,13.433333333333334,0.0327416381017938,-0.38169237377783166,-0.9237093249146373,-0.3543107510041983,-0.40782894421917154,-0.8415102162065039,1
68,13.633333333333335,-0.014275765560337092,-0.35546832975846226,-0.9345793005713297,-0.39773657805532975,-0.36491817614078687,-0.8418077804338222,1
69,13.833333333333334,-0.026010681355349174,-0.3542062089427383,-0.9348055444860413,-0.41049483204623155,-0.3435012356068849,-0.8446898211769098,1
70,14.033333333333333,-0.337081800880736,-0.6178032197176004,-0.7104189195267583,-0.5064176124731768,-0.19025065312068326,-0.8410385786419796,0
71,14.233333333333334,-0.5093123969772372,-0.4161797006086648,-0.7532564895748219,-0.5685453250303136,0.034498631647580366,-0.8219282558718976,0
72,14.433333333333334,-0.6709690432559955,-0.2127943220338398,-0.7102950932551151,-0.5593570179092052,0.2428427693381419,-0.7925573265675506,0
73,14.633333333333335,-0.7530309280139917,-0.020842076754402035,-0.6576549469828002,-0.5032714269633191,0.3910239980852619,-0.7705959406353775,1
74,14.833333333333334,-0.739874554650084,0.02364843293355918,-0.6723290823704764,-0.4816857707404185,0.3947615765953049,-0.782395114958036,1
75,15.033333333333333,-0.7798152739174428,0.09575253646107364,-0.6186433466273882,-0.4547667135566934,0.4393888955886961,-0.7746771164002398,1
76,15.233333333333334,-0.5346826887490443,0.03500086898065562,-0.844327757167021,-0.46698533700534844,0.42207012973934754,-0.777033783437896,1
77,15.433333333333334,-0.5434166133026129,-0.015125200991511892,-0.8393268807095866,-0.47471011401049945,0.3797844477628748,-0.7939861969162859,1
78,15.633333333333335,-0.5608396655839357,-0.059137002482724764,-0.8258097144288493,-0.4839933084173205,0.35257182442360585,-0.8009017330670891,1
79,15.833333333333334,-0.5204247379063907,-0.11373620964892446,-0.8462991000761851,-0.4811854582844471,0.29398948055219587,-0.825851524222264,1
80,16.033333333333335,-0.5054936997952242,-0.26900404758379654,-0.8198249458578768,-0.5369842521001007,0.1379140428621489,-0.8322425306230827,0
81,16.233333333333334,-0.46226009721860095,-0.37664952947978486,-0.8027768895914399,-0.5543683256537204,0.025332455216989676,-0.8318858252335892,0
82,16.433333333333337,-0.478216191118232,-0.3828625124171,-0.7903958319336185,-0.5791712154191644,0.023300231133709954,-0.8148728750295987,0
83,16.633333333333336,-0.5042783826039785,-0.4067394432478542,-0.7617521500755619,-0.6357252713275122,-0.01728794057317917,-0.7717217805053189,0
84,16.833333333333336,-0.4549643523313615,-0.5775373850732478,-0.6778333179701779,-0.6724591038567242,-0.2370320943944016,-0.7011522943463963,0
85,17.033333333333335,-0.3267200058487403,-0.251634294387173,-0.9110072555509471,-0.6746754836575064,-0.507759535053837,-0.5357175060733232,0
86,17.233333333333334,-0.3701411003839267,-0.9289183796438746,0.01030581226172971,-0.5897327616359056,-0.7921387198418113,-0.15726257781387487,0
87,17.433333333333337,-0.2877508158699255,-0.9354302059696881,0.2053528614986876,-0.44815469849035494,-0.8880916374615814,0.10222822355800915,0
88,17.633333333333336,-0.2872567451455205,-0.9497592011631534,0.12426190958749428,-0.31496971254331363,-0.9362923784743875,0.15540483322971868,0
89,17.833333333333336,0.210082541520196,-0.9751369673836278,0.07052106486913726,-0.11321148342745552,-0.9827050398316667,0.14653997648968545,0
90,18.033333333333335,-0.21770596756045635,-0.8666953610694822,-0.44882431171807696,0.09562331962538068,-0.9953921715225015,-0.007113762404034866,0
91,18.233333333333334,-0.01208699375918676,-0.7713009158761669,-0.6363558766527198,0.2001612376485727,-0.9653812465243529,-0.1672558752393415,0
92,18.433333333333337,0.1913117097836271,-0.7394844655244033,-0.6454165747389458,0.24606417934682567,-0.9482361112370074,-0.20075033496482925,0
93,18.633333333333336,0.17097675661585932,-0.7010983059195532,-0.6922630382548632,0.3034091448686534,-0.9309940551548382,-0.20296048895394136,0
94,18.833333333333336,0.6429708937193166,-0.6964191694787155,-0.3187299330347866,0.42884232088409624,-0.8737857794934425,-0.22933092982364833,0
95,19.033333333333335,0.6240646520497677,-0.7810919884459431,-0.020943152760869527,0.4487589526766455,-0.8560865286918866,-0.25638107922550735,0
96,19.233333333333338,0.557190223662253,-0.82955089748678,-0.03720703070773463,0.39197665934439657,-0.8855847838098327,-0.24918645471553813,0
97,19.433333333333337,0.17579180940246986,-0.9233293944381238,-0.34140894703205077,0.3230076978214407,-0.9147909830371734,-0.24253553245241166,0
98,19.633333333333336,-0.07656403479546137,-0.9830881345781122,-0.16636005598570597,0.17527634898243966,-0.9638056786609577,-0.20089005766407803,0
99,19.833333333333336,-0.3740669823456007,-0.926807329425184,-0.03319739210562381,-0.11698717886445692,-0.9863171198103835,-0.11615738956383848,0
100,20.033333333333335,-0.6853871246071244,-0.7272435340969171,0.03689622659574351,-0.49645473861937156,-0.8679229609558065,-0.015570046502095463,0
101,20.233333333333338,-0.9715005710307948,-0.23152715293366258,0.050811592587441334,-0.8460517799113428,-0.5280689516583589,0.07307234773353505,0
102,20.433333333333337,-0.9754334870837065,0.2143900732124515,0.05065973532975052,-0.9901140353076636,-0.06995128016330282,0.1215771997139681,0
103,20.633333333333336,-0.8572095434412981,0.5144888315671219,0.02220452264425778,-0.9440734484821879,0.30646871056853475,0.12166451131455311,0
104,20.833333333333336,-0.6096092641235085,0.7819232780136866,0.1302786720654061,-0.8329896698535134,0.532244655338361,0.15114177708722368,0
105,21.033333333333335,-0.618086894520695,0.7711688274944299,0.15253599680937655,-0.7047590551836238,0.6864443328443056,0.17918943061079812,0
106,21.233333333333338,-0.4601669549631848,0.874902091811685,0.15097252499527386,-0.5367938609063472,0.8146616326391906,0.2194966405184963,0
107,21.433333333333337,-0.4417877653871317,0.8831150568047739,0.1578966966055533,-0.44838327346876594,0.8609913437367076,0.24009653492687622,0
108,21.633333333333336,-0.5059488835384677,0.8455626362782565,0.1704099626675137,-0.4805441012340451,0.8380217973092229,0.2584508347902633,0
109,21.833333333333336,-0.5587672343793021,0.8103638127905486,0.1763226267490102,-0.5323828563447185,0.8014965335465953,0.27234500359476155,0
110,22.033333333333335,-0.5311056477824407,0.843230398318265,0.08300172435326152,-0.5600549072031383,0.7915290270593321,0.2445818886184973,0
111,22.233333333333338,-0.7546388882468003,0.6297127720794458,0.18434200016722538,-0.5815788283087798,0.8097955796618398,0.0774414980687483,0
112,22.433333333333337,-0.7758095786361693,0.6308151729777425,0.013846127163594409,-0.6091936066361762,0.7867539227136437,-0.09950585273390404,0
113,22.633333333333336,-0.7726481023515521,0.6031761962373877,-0.1979731957239214,-0.5949918802178251,0.7719226403135172,-0.2238751880987837,0
114,22.833333333333336,-0.5360293443938385,0.7132882029090057,-0.45154455100195007,-0.6240784765485387,0.730302380484796,-0.2778209642325352,0
115,23.033333333333335,-0.5426277279465255,0.6808166746231998,-0.4919794756070622,-0.6381925046907394,0.6943384513115085,-0.33257246125753825,0
116,23.233333333333338,-0.6066986401426535,0.6241617875019038,-0.49227921251204937,-0.6838736989947076,0.6470837169184764,-0.337045141074998,0
117,23.433333333333337,-0.6217766645180121,0.5990119917167634,-0.5045576411475422,-0.7004670512733184,0.621341587180837,-0.35111328958052956,0
118,23.633333333333336,-0.8489974404395347,0.5281937972208424,0.014651235597960333,-0.6737589936664918,0.5560056691385533,-0.4867304329290557,0
119,23.833333333333336,-0.6476626478891598,0.658433852891173,0.38340312452572395,-0.6244116791408857,0.47985035975391227,-0.616322713516629,0
120,24.033333333333335,-0.7623318197515059,0.6105157106665677,0.21475745301072474,-0.5675003514938111,0.44406959885023756,-0.6933581631677743,0
121,24.233333333333338,-0.7823413808185931,0.6125277525203401,0.11292349733885532,-0.5159392015335367,0.4029577883763042,-0.7559310557900203,0
122,24.433333333333337,-0.7825377795844999,0.6175530653972718,0.07913807516861854,-0.49328894694488984,0.3896466525765934,-0.7777155655879966,1
123,24.633333333333336,-0.7802775117828499,0.1518977413701644,-0.6067075743491319,-0.4553246700430841,0.38531172812253656,-0.8026296263043007,1
124,24.833333333333336,-0.5094112243167942,0.020639636215879262,-0.8602756592842442,-0.41315996581717074,0.4028492570313664,-0.8167076090959546,1
125,25.033333333333335,-0.496401589264914,0.04518317691681763,-0.8669163412342457,-0.37087063428575273,0.4207101244540475,-0.8279238876891664,1
126,25.233333333333338,-0.4916173859078886,0.06604662110165474,-0.8683030517706066,-0.34768345773014175,0.4345995990007998,-0.8308064767255712,1
127,25.433333333333337,-0.6334470498935871,0.18263883666138553,-0.751922795454485,-0.35777575148412855,0.44134903839697365,-0.8229262044412208,1
128,25.633333333333336,-0.6374273434982897,0.16177706785665028,-0.7533356237935509,-0.3758894079474835,0.4353644030057792,-0.8180250543768888,1
129,25.833333333333336,-0.644036391564042,0.13431657978227565,-0.7531110029316792,-0.39529739099255445,0.4203949466801742,-0.8167056149435078,1
130,26.033333333333335,-0.4159221040293193,0.013624687479415502,-0.9092981751168935,-0.4125466006213555,0.397815331833156,-0.8194804842546526,1
131,26.233333333333338,-0.4702838398946087,0.008113133684535591,-0.8824779243674025,-0.40612045040088784,0.3836096097310798,-0.8294033078594203,1
132,26.433333333333337,-0.4285390889414885,-0.0008950183859356422,-0.9035227989327596,-0.3668772057652432,0.376724888533274,-0.8505759661837855,1
133,26.633333333333336,-0.41583253747247473,-0.018561813994074847,-0.9092517582278589,-0.35236486083597557,0.36090950671879235,-0.8634716745835046,1
134,26.833333333333336,-0.4231734635510384,-0.02075266479203846,-0.9058109883691229,-0.3527903917543738,0.36022704775305603,-0.8635828932725066,1
135,27.033333333333335,-0.43236289592149474,-0.013322968637279373,-0.901601255953578,-0.35751731948193377,0.36652262293959986,-0.8589776092215262,1
136,27.233333333333338,-0.4390261468098392,-0.011733791819942033,-0.8983976628124275,-0.3663252764564434,0.3689980581760387,-0.8541933182198411,1
137,27.433333333333337,-0.44621740970033485,-0.013847266324212622,-0.8948174542864427,-0.37345472938800856,0.36819035926149757,-0.8514501890566579,1
138,27.633333333333336,-0.49729375628081585,-0.008137467944455986,-0.8675440631919339,-0.37865965108656174,0.3610661414065756,-0.8522019186605779,1
139,27.833333333333336,-0.46133591958407905,-0.019227201488714426,-0.8870171836128232,-0.37893086946425225,0.3567153656401536,-0.8539119065121868,1
140,28.033333333333335,-0.44794320369420637,-0.02676879943432024,-0.8936611872745824,-0.37873889626161383,0.3525487446954207,-0.8557255582674961,1
141,28.233333333333338,-0.4433746062683199,-0.031975012304297064,-0.8957659053036973,-0.3762073809708118,0.3485383479367147,-0.8584806500560326,1
142,28.433333333333337,-0.44542432327481507,-0.03957544063673168,-0.8944444961726701,-0.37026295029545675,0.34325469283782917,-0.8631810722457439,1
143,28.633333333333336,-0.4494405166069001,-0.03306541748534854,-0.8926981013750633,-0.3651768714222718,0.34966225748472785,-0.86277584474122,1
144,28.833333333333336,-0.4574200957390095,-0.027628767381059845,-0.8888214146987677,-0.3668033356744169,0.35450114511792885,-0.8601071160316012,1
145,29.033333333333335,-0.4651480813080366,-0.024126424665214946,-0.8849040502157993,-0.3703269089251521,0.3579101416805249,-0.8571804425021425,1
146,29.233333333333338,-0.7597604746139954,0.13868192123727952,-0.6352411714744672,-0.40556697650762047,0.39366857912180964,-0.8249487725784449,1
147,29.433333333333337,-0.5468760621219462,0.7155244546276682,-0.43468532009693084,-0.5573007262777088,0.5110106124024777,-0.6544341483315058,0
148,29.633333333333336,-0.599808685485619,0.7414698178098432,-0.30075247312873765,-0.6757545605782134,0.6257391099073588,-0.3896233311675424,0
149,29.833333333333336,-0.6331549353102055,0.7624757850192054,-0.13321225601151115,-0.7163394117399521,0.6683453913135347,-0.20043024995747938,0
150,30.033333333333335,-0.6290061109786182,0.7760072030554068,0.0465202446003813,-0.7200171166766546,0.6928065350972316,-0.03993064761815761,0
151,30.233333333333338,-0.6065345708415095,0.7930425389262185,0.056562760077309815,-0.6999610715758185,0.7124978602093707,0.049003035370276206,0
152,30.433333333333337,-0.5823312920901597,0.8110777721290421,0.055164425228536304,-0.6763614640239656,0.7304765658910947,0.09454711347953262,1
153,30.633333333333336,-0.5817539899799389,0.8132943519956001,0.010704772509407687,-0.6656037326596881,0.7247797763204041,0.17794928183736952,1
154,30.833333333333336,-0.5024334798674399,0.8588052834401632,0.10007039244230036,-0.627385819265672,0.7580949760249031,0.1779860699890405,1
155,31.033333333333335,-0.46130961658327496,0.8793061546892054,0.11838126529766256,-0.5775224701730034,0.7974923259895063,0.1745674266096627,1
156,31.233333333333338,-0.46437227413795384,0.8767535207152449,0.1251465338128372,-0.5620138287526217,0.809441972819,0.17012980024000526,1
157,31.433333333333337,-0.4719390050540004,0.8701833324846373,0.1416140648896551,-0.5563336132726332,0.8118814551693436,0.17703506289751075,1
158,31.633333333333336,-0.4708483116072551,0.866483970007851,0.1658535413430494,-0.5473955061324911,0.8137262408288498,0.19546806606835465,1
159,31.833333333333336,-0.4824953033782625,0.8588402180229721,0.17202256283456685,-0.5535731959584238,0.8088532062535903,0.19827558460300498,1
160,32.03333333333333,-0.48066636422298425,0.8585192915254303,0.17861823082577677,-0.5503723701517784,0.809563835521684,0.20419757684393236,1
161,32.233333333333334,-0.47830385751149507,0.8586926712223969,0.18404433237285017,-0.5503793875840624,0.8082638597796244,0.20926553155437835,1
162,32.43333333333333,-0.4800637648153152,0.8566637062910527,0.18885464260913265,-0.557517277916627,0.8018500710947264,0.2149673191669297,1
163,32.63333333333333,-0.4627508348006758,0.8657681632885756,0.1905443578991623,-0.5460748705929275,0.8085680183421022,0.21913465134762122,1
164,32.833333333333336,-0.4542401851000466,0.8712888591587372,0.1857998335471309,-0.5465735609113378,0.8085274300098722,0.21803838523143448,1
165,33.03333333333333,-0.45333328020903485,0.8718933475722676,0.18517809674511224,-0.5520266676600403,0.804033966412842,0.2208980286163384,1
166,33.233333333333334,-0.43746516844828887,0.8811626762393685,0.17937827180900215,-0.5433200288827635,0.8105810411821841,0.21854455356022912,1
167,33.43333333333333,-0.41217005059470163,0.8949739128835343,0.17069723094033262,-0.5250887885173618,0.8241143433574288,0.2124083643501905,1
168,33.63333333333333,-0.4032224582977814,0.9006853833818282,0.16179458979404382,-0.5170403785837034,0.8298987343066341,0.20961235104417744,1
169,33.833333333333336,-0.4071717145778547,0.9003038715704942,0.15383151069566164,-0.5189837396097231,0.828800159765024,0.20915585861786898,1
170,34.03333333333333,-0.41828166194631944,0.8956990611286982,0.15087625118816336,-0.5279511651967936,0.822530250940115,0.21145106633862004,1
