,timeStamp,x_gaze,y_gaze,z_gaze,x_head,y_head,z_head,fixations_head
0,0.03333333333333333,-0.9915751551087173,0.06068033951357723,0.11444041317489481,-0.9924782840969408,0.08923530581268645,0.08380880498198358,0
1,0.23333333333333334,-0.995129492575239,0.023948888568170217,0.09562292477903377,-0.9955650409536132,0.0620396859952303,0.07072005792307468,0
2,0.43333333333333335,-0.7799191361281297,0.5779285615724588,0.24025969037676861,-0.9892661275766296,0.1190618665483273,0.08471600063487655,0
3,0.6333333333333334,-0.749525779599319,0.6428218613543983,0.15808592689072573,-0.8359698569649473,0.5389018552759602,0.10363005657691099,0
4,0.8333333333333334,-0.695816606393624,0.7071184352353342,0.1257885877859884,-0.7686540072689655,0.6368683916219398,0.05974670586940134,0
5,1.0333333333333334,-0.8129375463776396,0.5598495774090039,0.16031530296407356,-0.7873199085478286,0.613128925719119,0.06480958301638702,0
6,1.2333333333333336,-0.9670554013010104,0.13786732502168852,0.21400105491774188,-0.9496722740090435,0.30384806607885945,0.07615067116335507,0
7,1.4333333333333336,-0.6375996246693715,-0.7703618217163513,-0.0030630480475093667,-0.9210969393768746,-0.362146506639014,0.14293472636036691,0
8,1.6333333333333335,-0.5264658885220348,-0.8463872368418109,0.08038851618228107,-0.7156331007421427,-0.6878014838927919,0.12164860820025962,0
9,1.8333333333333335,-0.37473750265367517,-0.9227788401611546,0.08972745541762138,-0.46749202996218037,-0.8793189671960342,0.09082596463093394,0
10,2.033333333333333,-0.22791389448394733,-0.967097359033286,0.11303961629448343,-0.3046628690838947,-0.9494188001268791,0.07605575696294593,0
11,2.2333333333333334,-0.5246985336781055,-0.8465767066626116,0.0894389651792368,-0.3802599934429958,-0.924300715516325,0.032718873494401814,1
12,2.4333333333333336,-0.5462794975773555,-0.8342261331551937,0.0751363379967735,-0.46353126853830423,-0.8859601469161256,0.014607572133248016,1
13,2.6333333333333333,-0.5178410173439858,-0.8516596045394444,0.08072545293687199,-0.46322249538313826,-0.8861953599960155,0.00909415705555173,1
14,2.8333333333333335,-0.5387925011709402,-0.8414743897109068,-0.040292581731872085,-0.4695229351902192,-0.8827267775396483,0.018483764357664273,1
15,3.033333333333333,-0.5395781999725527,-0.8302409199151195,0.139840555679947,-0.49084802152761764,-0.8707613665640008,0.02903209021095655,1
16,3.2333333333333334,-0.5319575659182687,-0.8340191107880575,0.1464010618219995,-0.49548172457544576,-0.8680432453457406,0.03160355710005654,1
17,3.4333333333333336,-0.5220574381903346,-0.8414178492341038,0.1395422309567973,-0.485848698282625,-0.873753309373239,0.022498816333136364,1
18,3.6333333333333333,-0.29046020599024125,-0.9402422780195802,0.177700105122809,-0.36307375302250633,-0.9317266665180517,0.007928982615153584,1
19,3.8333333333333335,0.49841690153007434,-0.8575688722818812,0.12710712632398957,0.1667607086101005,-0.9854539661236493,0.032731433134326325,0
20,4.033333333333333,0.729566845924492,-0.6772008776151888,0.09555725344005693,0.6195138821485626,-0.782119131796518,0.06702397707595088,0
21,4.233333333333333,0.9642171202756507,-0.2562495111468137,0.06798185790598872,0.8528346778769098,-0.5144697930276056,0.08940830091619222,0
22,4.433333333333334,0.9710611200364291,0.2385993767682434,-0.010518486554725575,0.9760347618147234,-0.19494228860419488,0.09671425873693608,0
23,4.633333333333334,0.8371818925692277,0.5416055459028244,0.0760914673370817,0.976272492889401,0.1998501206560396,0.0833783479164787,0
24,4.833333333333334,0.6236364448928362,0.7761402798769835,0.09318718020147558,0.8404964878031594,0.5369192303512382,0.07268695941905637,0
25,5.033333333333333,0.34318843981906344,0.9316858920204893,0.11909279316794302,0.5995805612645556,0.7993422036655295,0.03943592261905056,0
26,5.233333333333333,-0.22137726638120536,0.9736524911279205,-0.05470770009769653,0.27270167671521234,0.9605549070238686,0.054479960619287546,0
27,5.433333333333334,-0.1284532945011581,0.9883381444866114,0.08177691168392617,0.018846791054051515,0.9980378312431865,0.05971001485815986,0
28,5.633333333333334,-0.089396793017753,0.9809358682379435,0.17254864764005964,-0.12273935405744024,0.9897513333778107,0.07298869119533528,0
29,5.833333333333334,-0.08295441593970371,0.9883271081583819,0.12778142335798692,-0.1669511776547502,0.983536554952158,0.06916031631313564,0
30,6.033333333333333,-0.1216370910196321,0.98390991737089,0.1308651694970453,-0.23899857216969794,0.9671036050840206,0.08712232512012458,0
31,6.233333333333333,-0.7789205649826514,0.6068953688554574,0.15798976140530574,-0.4351564271685921,0.8900107788872972,0.1360870947529305,0
32,6.433333333333334,-0.7710405146678079,0.5966306277321959,0.22254981193586318,-0.5372524218083734,0.8184275633344423,0.2038042169227253,0
33,6.633333333333334,-0.816999634828636,0.5264040163497091,0.2353941551117424,-0.6236198728678402,0.736776786840672,0.2612627423438592,0
34,6.833333333333334,-0.7560414795588626,0.6207144848762638,0.20764105916518688,-0.6642450055510949,0.7034550514601805,0.2528429614910816,0
35,7.033333333333333,-0.7370634658720506,0.651096419482091,0.1811377923413046,-0.6676229543467181,0.7148750038931974,0.20792623605033717,0
36,7.233333333333333,-0.7398133515948735,0.6610813786861713,0.12509042951541507,-0.684626887672498,0.7178093802938892,0.12663221642998962,1
37,7.433333333333334,-0.7315545454742882,0.6812337228858077,0.02735985743841536,-0.6765001639734113,0.7359522421549408,0.026866808724941734,1
38,7.633333333333334,-0.7382027479588991,0.6736348666064544,0.035675893794470524,-0.6836259577794659,0.729450365113478,0.023615983695827764,1
39,7.833333333333334,-0.73763839429371,0.6731580994583521,0.05241919874832901,-0.6829680977798982,0.7297246192146106,0.03250473084027978,1
40,8.033333333333333,-0.7278969078721953,0.6822173384477477,0.0688882764435885,-0.6681168131483344,0.7428357140887855,0.04260312034016335,1
41,8.233333333333334,-0.7189577361142161,0.6884940691388152,0.09526641822907693,-0.6584981042033949,0.7497922733959704,0.06474406162913714,1
42,8.433333333333334,-0.7124152150820906,0.6884670340850967,0.13593271974623708,-0.6555846644616383,0.7489485054330901,0.09635810257711548,1
43,8.633333333333333,-0.6965961842879603,0.6915139958222206,0.1912123155485542,-0.6434003956689245,0.7516422834327855,0.1451544302080365,1
44,8.833333333333334,-0.6962463030279163,0.6844254368750275,0.2163397949485643,-0.6473732135348365,0.7434864197599532,0.16773749142665115,1
45,9.033333333333333,-0.693222827958516,0.6832602187123278,0.2293416323356493,-0.6482725274905516,0.7401060298123017,0.17884572887403455,1
46,9.233333333333334,-0.6839088428075752,0.6958729486980464,0.2191564144621134,-0.6424262199198638,0.7484104781801797,0.16483418368041727,1
47,9.433333333333334,-0.6875459346580011,0.6976718600977649,0.20133197302708883,-0.6457879233388447,0.7484218317377788,0.15107190290709563,1
48,9.633333333333335,-0.6921526243306783,0.6958381289053248,0.1916612715018132,-0.6493234594544318,0.7464020754815811,0.14581833464594662,1
49,9.833333333333334,-0.6667018100438933,0.7444248398842741,0.03661084876740252,-0.6528901223848788,0.7448393739599275,0.1376546224841064,1
50,10.033333333333333,-0.6614972197532302,0.7489143420141785,0.039353990702549045,-0.6479430802004679,0.7492494197758938,0.13709511948212064,1
51,10.233333333333334,-0.6812620959082201,0.7290385783238373,0.0662171276506115,-0.6411119961960011,0.7553654681540858,0.1356407676693756,1
52,10.433333333333334,-0.6887531561390324,0.7205594156940586,0.08008257215623409,-0.6363587479105445,0.7593319876786361,0.13587669574189598,1
53,10.633333333333335,-0.6885752763995497,0.718295888115737,0.09957462451502594,-0.6285452778204785,0.7641442240655465,0.14496357665579895,1
54,10.833333333333334,-0.7043929538911076,0.6998226512806298,0.11865421721586862,-0.6490410478169155,0.7471926129571853,0.14299971115682206,1
55,11.033333333333333,-0.8665138163437323,0.4781262669962815,0.14334949910488282,-0.7720188749942779,0.6226880146738679,0.12746173164556698,0
56,11.233333333333334,-0.9882433562204829,-0.08543600643608339,0.12679021133482646,-0.9395146606137684,0.3178058991018523,0.1277169252208133,0
57,11.433333333333334,-0.8603611959510129,-0.5090511683544842,0.025407095439611373,-0.9707948731661974,-0.20853377819165284,0.11862115151751731,0
58,11.633333333333335,-0.3434585923923797,-0.9236951585760147,-0.1697747016933809,-0.7575783565807315,-0.6468116276144269,0.08780519360045938,0
59,11.833333333333334,-0.4339410713423673,-0.9000977402640218,0.03897697491905129,-0.6139920000020705,-0.7872479609034619,0.057047979690773104,0
60,12.033333333333333,-0.46940518026930284,-0.8815312566757494,0.05061047559564667,-0.5928121676537981,-0.8043185392272093,0.04056379342484669,0
61,12.233333333333334,-0.518285657426646,-0.8514132467825389,0.08047024611025533,-0.6163573632117982,-0.7863345409646626,0.04220889124927252,0
62,12.433333333333334,-0.6176141696260308,-0.7788255907554522,0.1094688844447113,-0.7174850254280515,-0.694360982988086,0.05548029911894052,0
63,12.633333333333335,-0.8557808350694676,0.27668509450213624,0.43713215485496915,-0.9804565048845584,-0.1665918743028363,0.10465270873620196,0
64,12.833333333333334,-0.4244497025149871,0.9050329260773625,-0.027529125499846395,-0.7603812990874782,0.645325592381435,0.07331548141824856,0
65,13.033333333333333,-0.5804810884996824,0.8086691566154398,0.09537243329755954,-0.5639928512583712,0.8240101178324937,0.05403137458119081,1
66,13.233333333333334,-0.6457948604661192,0.7561517211429195,0.10575241277694836,-0.6092313552900066,0.7906676710879275,0.06067775233060806,1
67,13.433333333333334,-0.6140223334685226,0.7731470623401759,0.15880867103727714,-0.5854888512961005,0.8061033488026115,0.08602439222213987,1
68,13.633333333333335,-0.6503599549403699,0.7353148856909677,0.19064088724940165,-0.6299952108533218,0.7701120358876732,0.10016729248024016,1
69,13.833333333333334,-0.6788961151977381,0.7056331146728573,0.2029334182595403,-0.667910081038938,0.7361161417864404,0.10967747921977627,1
70,14.033333333333333,-0.6493449396608082,0.7290931156136593,0.21627384978695202,-0.6481970694983531,0.7522338344360956,0.11825742016176405,1
71,14.233333333333334,-0.6400956152330481,0.7407185251990042,0.20399428861229973,-0.6404299744672058,0.7605785820424303,0.10662864691188832,1
72,14.433333333333334,-0.6514128017576488,0.7240860726334342,0.22662903857303732,-0.6543818814912168,0.7448816330513964,0.13013725799593232,1
73,14.633333333333335,-0.6759114445599312,0.6918738959250704,0.25387837885564873,-0.677075369051464,0.7193472824550582,0.15526890174257935,1
74,14.833333333333334,-0.6741990581512658,0.7097671474443931,0.20417205096828447,-0.6673627604000983,0.7370292635056325,0.1068401177812254,1
75,15.033333333333333,-0.6672489806993485,0.7127507093282078,0.21625268578174306,-0.6614077058354599,0.7408612589477592,0.11689500268110362,1
76,15.233333333333334,-0.6682720982321096,0.7075069916186723,0.22988314321661257,-0.666298933020847,0.7346882428097826,0.127588862101499,1
77,15.433333333333334,-0.6411297144309913,0.728408243110588,0.24160736876631447,-0.6423536188357778,0.7541302877513602,0.13663578398293516,1
78,15.633333333333335,-0.6547927232303437,0.7425604095203232,0.14089190117817524,-0.6229606691503348,0.7663769158189828,0.15680059818620334,1
79,15.833333333333334,-0.6451917276393614,0.7525262881548402,0.13202961872865826,-0.6055480083039546,0.7803397154512712,0.1561458873250995,1
80,16.033333333333335,-0.6372931386989266,0.7611140626999789,0.12067658815032516,-0.5872747335218811,0.7955487980329888,0.1490318667771106,1
81,16.233333333333334,-0.6212191273596891,0.7770818298644794,0.10114655454803655,-0.5834473668447637,0.8014515716406343,0.13139462864466311,1
82,16.433333333333337,-0.5717337727081281,0.8144996301117201,0.09854362329852719,-0.5477439965280154,0.8267059596921755,0.12858370999841578,1
83,16.633333333333336,-0.3514720344130691,0.9313983695810101,0.09468097046067171,-0.5094725619973578,0.852310627664675,0.11833977582239873,0
84,16.833333333333336,0.11683703359733216,0.9926329681754252,0.03207644106539099,-0.32238296785013854,0.9320935072745088,0.1651390799806085,0
85,17.033333333333335,0.13616765738982223,0.988434098646835,0.06675628594512373,-0.01753949695473145,0.9861515497039728,0.16491660638949643,0
86,17.233333333333334,0.13687609181979804,0.9838628220943787,0.11523403485352562,0.1168520005828167,0.9812607121399931,0.15320908840635827,0
87,17.433333333333337,0.07254782588250358,0.9901847894060447,0.11946085462874083,0.0894424389810155,0.984997275647477,0.14758189955470682,0
88,17.633333333333336,-0.61671543203891,0.7527160953373275,0.23039217804688647,-0.13967492525170078,0.9775409882964422,0.15781169619628088,0
89,17.833333333333336,-0.6392205491625549,0.741288959539229,0.2046650140927103,-0.4442053181820492,0.8799216195051046,0.1685810749351745,0
90,18.033333333333335,-0.7235041827348875,0.6704563159187044,0.16440810810249454,-0.565133514213536,0.8102956580466816,0.15506468864107778,1
91,18.233333333333334,-0.701791376707464,0.6936843625061622,0.1621445922424232,-0.5813874210595339,0.8003972525051598,0.14612633169944356,1
92,18.433333333333337,-0.7797030583471587,0.5892062628616535,0.21189412594192356,-0.6052545755261195,0.7830979688995596,0.1429142047176614,1
93,18.633333333333336,-0.7808266644072611,0.5888145866969317,0.20882313723232954,-0.6220289407277815,0.7707655905077386,0.13784194349446413,1
94,18.833333333333336,-0.7047404362832872,0.6710256577376955,-0.23035946719189804,-0.6189906682447721,0.7730396564637138,0.13878127453065928,1
95,19.033333333333335,-0.699209892396054,0.682294713128384,-0.21349344442524407,-0.6055000444742601,0.7805391153614349,0.15533314370235815,1
96,19.233333333333338,-0.6911470350511513,0.69339755894296,-0.20375377589617094,-0.5918430404205699,0.7892757354924061,0.16360204420684088,1
97,19.433333333333337,-0.5737175575082429,0.7855637432949284,0.23181408375514154,-0.5797249569185454,0.7946853744710209,0.17998369350484025,1
98,19.633333333333336,-0.5498692256550957,0.8139921943400198,0.18724460534548107,-0.5637019893395412,0.8031175349607715,0.19298262163515606,1
99,19.833333333333336,-0.5423778897837197,0.8242031972098689,0.16283523691998814,-0.5574940118159261,0.8062432210102077,0.19791992159575394,1
100,20.033333333333335,-0.53507082119191,0.8325564404616808,0.14334918819020656,-0.5526650802719975,0.8126627873393697,0.18477148893093062,1
101,20.233333333333338,-0.5244847813138162,0.8398405413283154,0.13994134239588,-0.5454000990381318,0.8197096780248836,0.17497078533726046,1
102,20.433333333333337,-0.529963434700403,0.8056510903176792,0.26469808943490053,-0.5295959612701824,0.8305812361173451,0.1722292890773654,1
103,20.633333333333336,-0.6234635603830632,0.7284644186671629,0.2839591160895999,-0.5184767183158214,0.8361801922913317,0.1788423288376901,1
104,20.833333333333336,-0.6134967522679589,0.7315682331498155,0.2973712413847783,-0.5090636739657647,0.8388961811829804,0.19263274136317035,1
105,21.033333333333335,-0.5052312330965992,0.8507453661388281,0.14482307515379303,-0.4968832352493666,0.8476665947914211,0.1859257771338857,1
106,21.233333333333338,-0.4936751390341121,0.8611053367308332,0.12158312445947775,-0.4814307725028016,0.8605605793133557,0.1663126592271844,1
107,21.433333333333337,-0.49111786683728775,0.8652695116211646,0.10055800879126325,-0.46865036677615207,0.872110354938841,0.14067822336462274,0
108,21.633333333333336,-0.4976429636674441,0.8408652782790847,-0.21283107032790155,-0.4579773395772082,0.8887781420146106,0.018170600178303686,0
109,21.833333333333336,-0.5297651979635888,0.7304604431952942,-0.43101783716400216,-0.45652545338616446,0.8735984335131874,-0.16855351486653192,1
110,22.033333333333335,-0.5568261878517072,0.726937093850379,-0.4018794074183205,-0.4722809350541026,0.8503250742295468,-0.23215939895024357,1
111,22.233333333333338,-0.669274688573627,0.7367526836989101,-0.09626460563015031,-0.49127008897903723,0.8423044674481328,-0.22175861604782512,1
112,22.433333333333337,-0.6782904186719414,0.7304607650698861,-0.07968173336066016,-0.5116906523497271,0.8348631307774492,-0.2029192676075547,1
113,22.633333333333336,-0.6667331779892269,0.7446820268129198,-0.030258028854959786,-0.50431275462518,0.8461261446312117,-0.1724505520254573,1
114,22.833333333333336,-0.5365043880864034,0.8428100555170862,0.04282816693859341,-0.4911734898848331,0.859588340384869,-0.14091305088153103,1
115,23.033333333333335,-0.5272376775092524,0.8472279762923304,0.06500144307823146,-0.485532380934546,0.8672539585543008,-0.1101311873899757,1
116,23.233333333333338,-0.5306891706990942,0.8422135578434083,0.09510692449793318,-0.4841374061441843,0.8725218699611043,-0.0657005206338528,1
117,23.433333333333337,-0.5459273670426164,0.822151012445953,0.1613413234357861,-0.49562927716529703,0.8685336909534233,0.0009204865175155051,1
118,23.633333333333336,-0.5627328651371664,0.7969545349657996,0.21953403310639943,-0.5101517325013858,0.8582519463898335,0.05611422586026623,1
119,23.833333333333336,-0.5631773856764595,0.7907179102308315,0.23999253884822191,-0.5077477066060277,0.8576416681677456,0.08150481862298505,1
120,24.033333333333335,-0.5704662826010243,0.7824643694878427,0.24963519563026537,-0.5131894919877387,0.853863610468013,0.08691075901116134,1
121,24.233333333333338,-0.7167261180368474,0.6490451239878173,0.25503744578290827,-0.515495297884834,0.8516580412648361,0.09456838059081472,1
122,24.433333333333337,-0.811209101279786,0.5619062414583383,0.16186775408031548,-0.5289997931090012,0.8433199001819048,0.09471412169162582,1
123,24.633333333333336,-0.7221730756942429,0.6695779691227984,0.17358396241504098,-0.5590003424111152,0.8251711604646954,0.08130912077746352,1
124,24.833333333333336,-0.7168024916189457,0.6744983759459799,0.1767657457063076,-0.576087363233151,0.8139404720925846,0.07499505192195359,1
125,25.033333333333335,-0.5911639804287613,0.793577001790153,0.14408570530547074,-0.5775810327489708,0.8138399219927784,0.06375525060276062,1
126,25.233333333333338,-0.8835243463298916,0.4631694049654266,0.06970532078909383,-0.6386082709643178,0.7661579370555951,0.07198257943891515,0
127,25.433333333333337,-0.8852383518536571,0.45511486768442744,0.0960391462894559,-0.7495131229214208,0.6591259853838803,0.06150621074581035,0
128,25.633333333333336,-0.9931996356109613,-0.05134910212776099,-0.10448805449871662,-0.8906549572956954,0.4515270406635443,0.05345164725454941,0
129,25.833333333333336,-0.9948438308386492,-0.08620122950838793,0.05343313834619399,-0.9903884029909471,0.1307781499638561,0.045032063166958264,0
130,26.033333333333335,-0.990476750021474,-0.11829915624772373,0.07043519928257108,-0.9979835108533555,-0.033804099442552124,0.05372331826766484,0
131,26.233333333333338,-0.6528413665220252,-0.7548502866546096,-0.06323918797003095,-0.9452449293440114,-0.3169589323858378,0.07777569498413457,0
132,26.433333333333337,-0.5001567658658586,-0.8657947552265473,-0.01557727128889233,-0.8025217653229194,-0.5871360540351539,0.10597202571912161,0
133,26.633333333333336,-0.2286817077336602,-0.9730577663040276,-0.029381286279426665,-0.5901427733152859,-0.8030608462940366,0.08261225244023597,0
134,26.833333333333336,0.05371040597627563,-0.9976556602399369,-0.04240726212665989,-0.4317288552518207,-0.8987144058309664,0.07695851021716625,0
135,27.033333333333335,0.11552350705795589,-0.9928035684280627,-0.0315498626547814,-0.38638570683581935,-0.918258320003151,0.08664723479705005,0
136,27.233333333333338,-0.8880191041440237,-0.4464958904899443,0.10983392213172156,-0.6522242831685887,-0.7500382269601192,0.10975492036233064,0
137,27.433333333333337,-0.9629681116212117,0.2420316056827073,0.11879864414768584,-0.9759369952291556,-0.20565542202919734,0.07247640121501826,0
138,27.633333333333336,-0.891408105419152,0.4476968871862577,0.07042078384094395,-0.9425363632813039,0.33312684169070467,0.025528635639818466,0
139,27.833333333333336,-0.9014168979448852,0.4223524541241731,0.09521544304738,-0.8528802001035474,0.5215339950773137,0.024447009020118076,0
140,28.033333333333335,-0.8052809534438119,0.5861522850034195,0.08915203197850122,-0.8042094771400528,0.5931826242748339,0.03716841584658631,1
141,28.233333333333338,-0.832014764731651,0.5448665254799312,0.10426840691198357,-0.7369475771747125,0.6758832363132863,0.009493122089143116,1
142,28.433333333333337,-0.7841770273079878,0.6111619899949192,0.10745888435982248,-0.7758772188996409,0.6299540044720148,0.03424169157959536,1
143,28.633333333333336,-0.7814618999592962,0.6172316705310849,0.09133654145747784,-0.7567390123846076,0.652845931043817,0.033738071294918126,1
144,28.833333333333336,-0.699423790828564,0.6886429519336031,0.19125178580911267,-0.7026880084336427,0.7103813712136848,0.03984808949154506,1
145,29.033333333333335,-0.7186236702010526,0.6620966891682717,0.212621717656457,-0.7376814094382127,0.6691604736921949,0.0897240136044368,1
146,29.233333333333338,-0.6789004453032675,0.7031468405302077,0.21137338058377086,-0.7062811317599891,0.6995476214284493,0.1086282112235499,1
147,29.433333333333337,-0.5901928121301483,0.7725877425840368,0.23405261057892476,-0.626969822236667,0.7676668191077303,0.1326517879470228,1
148,29.633333333333336,-0.5389683881800083,0.8000316459462884,0.2635572841473305,-0.5725284280210645,0.8036995680271106,0.16210553186355114,1
149,29.833333333333336,-0.6145769205760137,0.7672359373109766,0.18342362223511896,-0.5621869690377935,0.8125847627812378,0.15379146640779037,1
150,30.033333333333335,-0.6074818604640914,0.7753354112915917,0.17268696883200177,-0.5546535534449767,0.8198435664190268,0.142182847953582,1
151,30.233333333333338,-0.538994469760194,0.8395949247320512,0.06756718088028169,-0.5422719798272878,0.8297888585140725,0.13187702673364368,1
152,30.433333333333337,-0.5268735201784269,0.8476682854025277,0.06215119996855873,-0.5321137492205947,0.837285872117324,0.12572718975279137,1
153,30.633333333333336,-0.5284732305104147,0.8446422559150386,0.08541372346784071,-0.5328142554034926,0.8348230185157902,0.13849006099719427,1
154,30.833333333333336,-0.5231837826032898,0.8458361144611753,0.10411530672353118,-0.5276556289982031,0.8371147016503502,0.14428622064270888,1
155,31.033333333333335,-0.5129682426328768,0.8516147410920136,0.10777715344599167,-0.5175638179608181,0.8440075794787739,0.1406374776515938,1
156,31.233333333333338,-0.5165699302777818,0.8469093305529022,0.12609557072016103,-0.5198676634339984,0.8408716647520492,0.15057375579028584,1
157,31.433333333333337,-0.5093142043237273,0.8495820337250015,0.13714739970476628,-0.5115041209287338,0.8454430391308795,0.15358906815937703,1
158,31.633333333333336,-0.5213552379196691,0.8526986164955592,0.03307242537650899,-0.5044431187701289,0.8501481306144897,0.15094799083841628,1
159,31.833333333333336,-0.5218300871083295,0.8517270812894465,0.04747988191512196,-0.5051073418514067,0.8488763933653757,0.15580578293118127,1
160,32.03333333333333,-0.516876146237547,0.8528333763029794,0.07425820974331986,-0.5027643184226431,0.8469331668742792,0.17300939560994896,1
161,32.233333333333334,-0.4881207043473237,0.8635357171257374,0.12666587241878172,-0.4843440434905978,0.8539612167450252,0.1901606894984713,0
162,32.43333333333333,-0.4621774264620126,0.870918054399357,0.16701427780339528,-0.4722339465032732,0.8582416839019293,0.20103808540454332,0
163,32.63333333333333,-0.4290658816546492,0.883927983243041,0.18594028514501382,-0.44810185499835864,0.8698534429410048,0.20630006144136387,1
164,32.833333333333336,-0.2757463205896231,0.9565053330107669,0.09519198812529756,-0.3979127132908216,0.8919306923112903,0.21476757836004787,1
165,33.03333333333333,-0.22384142828630926,0.969881000282991,0.09605134185845692,-0.3224337146378817,0.9188769773265282,0.22737985883556183,1
166,33.233333333333334,-0.2164262578133589,0.971302309896275,0.09864835385887794,-0.29551319798995407,0.9284513414969247,0.2250556737483228,1
167,33.43333333333333,-0.3229543014881349,0.929169453270829,0.17984617387839988,-0.3138327433804773,0.9247855185370649,0.2151296211273917,1
168,33.63333333333333,-0.33558576444283794,0.9215612731674975,0.19521018032166604,-0.3318348022982528,0.9172827329657112,0.22017731896504622,1
169,33.833333333333336,-0.3062880020304665,0.9293746328128635,0.2060350739465017,-0.2981652172685018,0.9282619916127469,0.22232223941469306,1
170,34.03333333333333,-0.30398639770791963,0.9272250877016104,0.2187370721786866,-0.2877638464609755,0.929608124316243,0.23026225021748742,1
