,timeStamp,x_gaze,y_gaze,z_gaze,x_head,y_head,z_head,fixations_head
0,0.04,-0.9951426890111678,0.041649540656257075,0.08919834230940098,-0.9956103326510447,-0.004303882507820825,0.09349621443585425,1
1,0.24000000000000002,-0.9968348090967021,0.003831278145406522,0.07940834138120681,-0.9929712209174227,-0.012859967548264987,0.11765532569510266,1
2,0.44,-0.940124852099476,0.0006993864020838971,0.34082953704689206,-0.9905780676947262,0.010057061400345874,0.1365794542314907,1
3,0.6400000000000001,-0.9604641554132449,-0.05288356889302269,0.2733348391761643,-0.9857926180432224,0.03261357676548117,0.1647703517689142,1
4,0.8400000000000001,-0.7826846499783775,-0.08665957647393639,0.6163561117516261,-0.9760958881121271,0.044855114587353986,0.21266131737096236,1
5,1.04,-0.7390869834393385,-0.05532638205280269,0.6713340616708544,-0.9709912003315425,0.05533103701294276,0.2326253752748886,1
6,1.2400000000000002,-0.7193713991777028,-0.059703498947148576,0.6920551150440131,-0.9640957886855238,0.05258835160358322,0.26029555415806827,1
7,1.4400000000000002,-0.7446749158436992,-0.09432674618128879,0.6607281851624239,-0.9652203962150435,0.028043590737472743,0.25992911293085963,1
8,1.6400000000000001,-0.7593222752551902,-0.12229676291783795,0.6391190687822571,-0.9714199192668969,0.008078926256051125,0.2372299968428223,1
9,1.84,-0.9638381248786816,-0.2170023658019494,0.15468045211565803,-0.9668236669201694,-0.004521456182089905,0.25540468577735836,1
10,2.04,-0.9669875682832576,-0.207572933343253,0.1478124491675511,-0.9671271890425103,5.286676234906126e-05,0.2542931328601662,1
11,2.24,-0.9711827857871386,-0.1903069859505431,0.14348256928684092,-0.9662100747628817,-0.0021041692756891286,0.25774728688846776,1
12,2.4400000000000004,-0.8471864233216482,0.06942013691258038,0.5267409313225165,-0.9664250300353522,0.0009339088877756017,0.256947055121008,1
13,2.64,-0.9748928327783632,0.060156868478007684,0.21439476619614078,-0.9666872401873507,0.014815948604861403,0.2555313431379827,1
14,2.8400000000000003,-0.9748030779351557,0.06603863311021782,0.21306773144960459,-0.9670359790037228,0.021146865174844404,0.25376017300906095,1
15,3.04,-0.9742646253865404,0.06258255484386417,0.21654529214378918,-0.9667707623942042,0.022935160640808822,0.25461396541845366,1
16,3.24,-0.9734636190180403,0.059253975237906105,0.2210374377041267,-0.9674345500426541,0.02281588822218484,0.25209090945212764,1
17,3.4400000000000004,-0.990620980488809,-0.022665222026523563,-0.13474554065303768,-0.9719092572038748,0.02964982520975908,0.2334807992671854,1
18,3.64,-0.8384400680255526,0.3650679980959578,-0.404652454700965,-0.9707470413058545,0.1405369840891584,0.1946780365091377,1
19,3.8400000000000003,-0.8709163983237752,0.49004885344317495,-0.03683406534409746,-0.8427495045400788,0.4963815757510503,0.2082753078316207,0
20,4.04,-0.3359320463142388,0.9321002588365285,-0.1354207064521712,-0.5974014972193533,0.791654874466229,0.128039098926594,0
21,4.24,-0.3508563231820399,0.9259884579858105,-0.13944610485862022,-0.410605218354208,0.8999620869582469,0.14653189652103085,0
22,4.44,-0.2248941650166557,0.9735825148097389,0.03949305506295718,-0.3571135263645385,0.9233199909918635,0.14124490618167312,0
23,4.640000000000001,-0.27151023400116564,0.9611790924311823,0.04916243592216907,-0.39714238832402415,0.9018817159238134,0.16996262494621647,0
24,4.840000000000001,-0.43152052854364004,0.7209959884518428,0.5421760028641696,-0.49717792257420634,0.8352099399460385,0.2350286568062097,0
25,5.04,-0.3688508353569104,0.7170715891031463,0.5914029061118979,-0.48903651871967774,0.7810867052780552,0.3882613065918507,0
26,5.24,-0.17511056690507726,0.7712961119760635,0.6119138803857863,-0.3156467681418962,0.8240568687011555,0.47042257057673453,0
27,5.44,0.24069640128017775,0.741508589400564,0.6262828867660025,-0.06572679186212621,0.8678256953308363,0.4925023363955381,0
28,5.640000000000001,0.4688508371464743,0.7828348148797084,0.409082565161733,0.13894091001814457,0.8659276982143113,0.4804837614202948,0
29,5.840000000000001,0.5391277867679047,0.7290768121458048,0.42164941779403814,0.333899303198889,0.8215363826762979,0.4621571456360269,1
30,6.04,0.602973271199666,0.6283886456383428,0.4914783253120971,0.44200505127825146,0.7645047009608548,0.4692164712084016,1
31,6.24,0.6731953645562992,0.7355211833296696,0.0762665720563998,0.44888210602530154,0.7749492053346647,0.44492536906931,1
32,6.44,0.43062683956156095,0.8999468687687965,0.0682360494347391,0.4362197860736079,0.7968124151367737,0.41809361789173194,1
33,6.640000000000001,0.4104366122636549,0.9083451698731053,0.0803171194810524,0.39439852828281724,0.8090215317647436,0.43581413702331406,1
34,6.840000000000001,0.3430296146108942,0.7025643794791705,0.6234853456072159,0.3740580374756007,0.7998509617184796,0.46938153312409475,1
35,7.04,0.30054535225040313,0.7092381362484224,0.6376940938502923,0.30986315361373123,0.824775980154739,0.47300043191559876,1
36,7.24,-0.1677718191134215,0.8270515596468362,0.5365056704240037,-0.029801772084126987,0.883022256118152,0.46838397664806475,0
37,7.44,-0.6150231046882921,0.4667796272252567,0.6355024471290606,-0.47129009783763615,0.7292336436544284,0.4960886378891148,0
38,7.640000000000001,-0.9205770775577828,-0.05995403828792969,0.38593180429726415,-0.7788167898469902,0.41757626781115154,0.46805391613930425,0
39,7.840000000000001,-0.9361572734708098,-0.19222849313613743,0.29437691104145636,-0.9182366469750309,0.09601379549536816,0.384217140724651,0
40,8.04,-0.9476619034266452,-0.15319471650156505,0.2801219299337215,-0.917113590115262,-0.06906332908907567,0.39259765587816453,0
41,8.24,-0.9600380070588836,-0.07581883601974358,0.26940402578101563,-0.8902167018638022,-0.1735941115334727,0.42116422944457055,0
42,8.44,-0.6399496542715897,-0.6426945850060021,0.42119842165140603,-0.8166542667183596,-0.3796162443506487,0.434703710216289,0
43,8.639999999999999,-0.4375128125175213,-0.852693159643992,0.2854766441924002,-0.71275276783487,-0.5809417430314436,0.3930523923694147,0
44,8.84,-0.1883963497250039,-0.9817089267285221,0.027466317405634978,-0.4366092216536711,-0.8417027305660943,0.31766161386695213,0
45,9.04,0.3901860700781232,-0.920558283360157,-0.018090816841452955,-0.018044341850405987,-0.9672628170866279,0.2531344393969869,0
46,9.24,0.6851050934180428,-0.7284155226380004,0.006468180011705414,0.27567374903854097,-0.9342432943747624,0.22625969814977404,0
47,9.44,0.6504034882120189,-0.7594699317171655,-0.013443412482025043,0.27946684502339486,-0.9329060100797285,0.2271225635858129,0
48,9.64,0.4505569611125833,-0.8926220183954104,-0.014978553625031001,0.03616508476377578,-0.9730083316193328,0.22791856713175318,0
49,9.84,-0.6668577252952528,-0.7264209726660585,0.16617263518684094,-0.41479697774629487,-0.8733119378857466,0.2554794050384145,0
50,10.04,-0.8480785268703915,-0.05286174664736013,0.5272271313226747,-0.7631366661514907,-0.5989407584302298,0.2426775569891242,0
51,10.24,-0.9726656360908703,-0.022055682319093665,0.23116034963933954,-0.8878246373228493,-0.38235887174307087,0.25606465308963916,0
52,10.44,-0.9711391525558402,0.05941075328993189,0.23099590638504328,-0.9178237627616566,-0.23381448376654257,0.32082756691253955,0
53,10.64,-0.967467042352121,0.12881661487806184,0.21774710490336432,-0.9259640492909539,-0.1208897527290607,0.3577376791809979,1
54,10.84,-0.6672994668492479,-0.22090016522512126,0.7112766961922933,-0.9291370647439591,-0.08323888553529413,0.3602438102921721,1
55,11.04,-0.6873275580536717,-0.19841908304549652,0.698720756399408,-0.93625483116355,-0.035325666531275654,0.34954111118298214,1
56,11.24,-0.6821556266532947,-0.20179643224019897,0.7028100034578176,-0.9336870933162439,-0.04615726362420564,0.35510268766849634,1
57,11.44,-0.6748985929926766,-0.21111238202471652,0.7070667941095492,-0.9297322341852006,-0.051794408875293706,0.364575522939013,1
58,11.64,-0.6412681302995452,-0.2186997655565641,0.7354900390947723,-0.912343724123574,-0.05935220160851248,0.4051002903190146,1
59,11.84,-0.648231995537981,-0.2169701721888318,0.7298761705530578,-0.9183769306209102,-0.06930006125211595,0.389591215011028,1
60,12.04,-0.9651978765148488,0.01822907313271999,0.26088457229960677,-0.9223875035083136,-0.07303609297896715,0.3792980655026718,1
61,12.24,-0.9557525016877726,0.12020947847073528,0.2684899193700917,-0.9259797519213645,-0.0630677359092811,0.37226866604500247,1
62,12.44,-0.8281431666366548,0.20497944203398386,0.5216917901370985,-0.9278530193828123,-0.06727942357749295,0.3668272803176977,1
63,12.64,-0.8403541110273853,0.17683697681060812,0.5123803779535837,-0.9265486111205945,-0.08342660051944081,0.3668074066267841,1
64,12.84,-0.8967162096086921,0.09007476667868883,0.4333434848163754,-0.9258937458208155,-0.0881267408608566,0.3673614691215487,1
65,13.04,-0.9140361643958526,0.06831410897680243,0.3998388083856088,-0.9263592824263945,-0.07057912054338199,0.3699690089801824,1
66,13.24,-0.7918227002928325,-0.17738986808687365,0.5844224893012665,-0.9263971795103217,-0.05534980423691116,0.37245760156863045,1
67,13.44,-0.8590830892486496,-0.0479046426591151,0.5095894337392601,-0.9261123782144751,-0.03663416077586121,0.375464780215372,1
68,13.64,-0.9102724901641173,0.04451873284912504,0.4116091302144856,-0.9274726535514207,-0.011545421980073304,0.3737126973298988,1
69,13.84,-0.925380517113808,0.08226470843975635,0.3700046165813386,-0.9327062351199664,0.011736588579827631,0.36044601739628895,1
70,14.04,-0.9279745366748463,0.10293153906078045,0.35814572111039306,-0.93310357155343,0.012300998357867916,0.35939728740438887,1
71,14.24,-0.9201530992798503,0.0616858686923921,0.38666927404353063,-0.9255903762112805,-0.03061604736248122,0.3772865132879242,1
72,14.44,-0.9773461255655258,0.08285899161311452,0.19475353231947504,-0.9090610700209291,0.05873370172357663,0.41250251302779917,0
73,14.64,-0.9697798612766133,-0.07427099212076604,0.23240232441115982,-0.9322705659986825,-0.08134301402558128,0.3524980933873689,0
74,14.84,-0.9474497052416625,-0.03576951969312085,0.3178987220773465,-0.9276615638938432,-0.2907644288465787,0.2343076392086947,1
75,15.04,-0.9657706347013755,0.00801131030945902,0.2592737936152211,-0.9442273683344851,-0.21823884364539087,0.24658970783967293,1
76,15.24,-0.9599234455226695,0.054209632421966025,0.27496962466527486,-0.9569688323463601,-0.14867525179307237,0.2492114030735968,1
77,15.44,-0.957386335177649,-0.0818145180513079,0.2769797643351273,-0.9606767769226583,-0.1376318004527807,0.2411589056734567,1
78,15.64,-0.95611875172223,-0.0604512395685581,0.28667504293145235,-0.9607749238976278,-0.13661534282925006,0.24134579696600153,1
79,15.84,-0.955918008001232,-0.0496263756713885,0.2894097179029735,-0.9593239820152867,-0.12902759631008384,0.2510963498754534,1
80,16.04,-0.818718128735664,-0.3678554902860898,0.4408888340000838,-0.959802600914273,-0.11786519701758927,0.25472880208214005,1
81,16.24,-0.9776616957219046,-0.07837715516741879,0.19502469142658027,-0.9610081611569381,-0.11136479414906454,0.253103134737397,1
82,16.44,-0.9692436005194977,0.013542465407295437,0.24573043051826732,-0.9576977071981759,-0.13061043077258896,0.2564293606449078,1
83,16.64,-0.9671292128298806,0.0006441252136216512,0.2542846255552321,-0.9547918873255373,-0.14325392478166335,0.2604817938589726,1
84,16.84,-0.9602599999216281,0.014586484148273059,0.27872561244117294,-0.9552249433807375,-0.12982082690368277,0.2658794095926028,1
85,17.04,-0.8781644041851075,-0.14194817673619872,0.45681286578147545,-0.9559460102566458,-0.11630100522552299,0.2695205032236584,1
86,17.24,-0.9208730112638618,-0.08904562039469713,0.3795573403510343,-0.9565506117730163,-0.11856964068534726,0.26636848053855006,1
87,17.44,-0.9230266886012253,-0.09097870732949229,0.37382429956131996,-0.9547554164441157,-0.12399890936979649,0.27030790821898687,1
88,17.64,-0.9248133903294851,-0.10095770780229565,0.36678022616083095,-0.9545392191217379,-0.12254644243728739,0.2717301024995717,1
89,17.84,-0.9315277237506562,-0.10234341357377442,0.34897267168359897,-0.9576849688152873,-0.11244471700088035,0.26494468502661916,1
90,18.04,-0.9361395062379578,0.06631415373660868,0.3453190667697782,-0.9586741981505449,-0.1050857084924145,0.26438754825266947,1
91,18.24,-0.9358093934738787,0.07308718436223241,0.3448464043136487,-0.9590310901012226,-0.09737457781224636,0.266040522881661,1
92,18.44,-0.9343353321212851,0.08471602013169079,0.34618013097642514,-0.9599146782223105,-0.09191323431268712,0.2647938214753878,1
93,18.64,-0.9359683153081602,0.0841034203439928,0.3418916896118507,-0.959799774654454,-0.09474697667730958,0.2642109062543956,1
94,18.84,-0.9432378679372697,0.07591749509550431,0.32332469504752986,-0.9597974176096329,-0.09557374778031172,0.2639215335759954,1
95,19.04,-0.9547626544027715,-0.001213588376550472,0.29736644222411224,-0.9591352713467817,-0.0934425991202237,0.2670730460533085,1
96,19.240000000000002,-0.9524037478773679,0.012896586659477644,0.30456654294534397,-0.9604813895877592,-0.08699054439804595,0.26440148532279256,1
97,19.44,-0.9606693103350008,0.0076412136653910365,0.2775897837352701,-0.9605372654608066,-0.08677473356098692,0.26426938391818255,1
98,19.64,-0.9492536799735859,0.01075535228081248,0.31432749395164433,-0.9590232743975999,-0.09082097294111545,0.26837643346191037,1
99,19.84,-0.9493659167302674,0.14428845411506322,0.2790791969315957,-0.9590072447591876,-0.0881924948557425,0.26930872312368964,1
100,20.04,-0.9448669693904883,0.15896135353035337,0.2862825496579071,-0.960777766589107,-0.07592585376251612,0.2667233547301029,1
101,20.240000000000002,-0.9772379649303323,-0.014601790160502011,0.21164297206127897,-0.9618325987761434,-0.07272688650468413,0.26379698995793166,1
102,20.44,-0.8295262281554787,0.15993305079409073,0.5350772430835009,-0.961693103765051,-0.0783547364148347,0.2626916623193527,1
103,20.64,-0.914777392803312,0.1311856383464557,0.3820636725829973,-0.9624103110685323,-0.08426160213036038,0.2581983260119946,1
104,20.84,-0.9463050482821256,-0.05178907759420846,0.31909974465315,-0.9633141952662814,-0.08289422593043078,0.25525342016488506,1
105,21.04,-0.9289893434334191,-0.04714275829821306,0.3670917598192328,-0.9629282616198823,-0.08015301596691071,0.2575745659127077,1
106,21.240000000000002,-0.9468499091240298,0.11109654652652766,0.3018821076872489,-0.9622599168998472,-0.08326642605974774,0.2590802088526557,1
107,21.44,-0.9518074907244852,0.10517616803750204,0.2880980289375586,-0.9629866672317788,-0.07946397773573755,0.25756970896486525,1
108,21.64,-0.9562630776258864,0.0910967230021789,0.2779609926369748,-0.9626244926674326,-0.0805016842972267,0.2585992361591148,1
109,21.84,-0.9594670045373525,0.07017782921225639,0.2729434730693813,-0.9590399579218041,-0.08817484219914856,0.26919798719994087,1
110,22.04,-0.9614616135814482,0.06511235301375667,0.267117852444142,-0.9567663885194646,-0.08423391825874625,0.27839311200925954,1
111,22.240000000000002,-0.9612803326692405,0.06554484548598886,0.26766395957157285,-0.9568111942369062,-0.07906152329303215,0.2797527732079356,1
112,22.44,-0.9544484551321631,0.05362972372515363,0.29351660809738034,-0.9505960146884015,-0.08181906719560016,0.2994542654593023,1
113,22.64,-0.9599210769176991,0.014458871197082813,0.2798972438822353,-0.9537089607829656,-0.103897455701951,0.28221363684438916,1
114,22.84,-0.9592018007203247,-0.015261856002193494,0.2823100799586428,-0.9485623811736483,-0.12717729768955485,0.2899229966293819,1
115,23.04,-0.9582020791383052,-0.03430475159760425,0.2840280964145205,-0.9458598048554709,-0.14597262273808345,0.2898986425800157,1
116,23.240000000000002,-0.9619290281483043,-0.0030582633423322033,0.27328225670721507,-0.9535251904506514,-0.11426134212068816,0.27880827977810757,1
117,23.44,-0.9464500855751363,-0.08343953341078268,0.3118815156097073,-0.9582959223398065,-0.0958201131308375,0.26923489957004615,1
118,23.64,-0.9856591740880206,-0.14724056797961757,-0.08243911497075052,-0.9563822680083569,-0.1021084432332453,0.27369110920830886,1
119,23.84,-0.9829465813931586,-0.13631866155496458,-0.12342301503109372,-0.9582376814559508,-0.10660651008959254,0.2653593748945787,1
120,24.04,-0.9811764547401959,-0.13402784881454793,-0.13902985436806514,-0.9589427472900204,-0.11027800215223313,0.2612806339191265,1
121,24.240000000000002,-0.9796729882453606,-0.04125675871928849,-0.19631280132070844,-0.9606996415517471,-0.12611785059983666,0.24728624402182614,1
122,24.44,-0.9098040934204032,-0.38324557045966307,-0.159308958688849,-0.9589193886461518,-0.13820590225078025,0.24773521078267938,1
123,24.64,-0.952943978172269,0.023356017072876732,0.3022453819857331,-0.9583581927990519,-0.1413000168513013,0.24816099518811918,1
124,24.84,-0.9836382273247042,-0.004886249613152486,0.18008876230967713,-0.9578924436155616,-0.13519124563392967,0.2533088896350758,1
125,25.04,-0.9875948172194146,0.013229745087707799,0.1564654941073769,-0.9576177942225803,-0.13160970162112984,0.25621679614630505,1
126,25.240000000000002,-0.9296993299743879,-0.2894937658255261,0.22771147400456118,-0.9554017566769559,-0.13988168581807153,0.2600780600344473,1
127,25.44,-0.9399987956696989,-0.27655429414296373,0.19979986619265605,-0.9554191921671118,-0.14241516886390254,0.25863504580046665,1
128,25.64,-0.9482166338934594,-0.2537490962853815,0.1910408630165531,-0.9552196140943596,-0.1473126437551986,0.256621265368397,1
129,25.84,-0.9536134877215289,-0.2389823651107436,0.18305394068868597,-0.95384659042338,-0.1567822273268016,0.2561171902316208,1
130,26.04,-0.9974834694994125,0.0051787772372450065,0.07071002999392896,-0.9529930791838817,-0.15725942152738287,0.258985840092653,1
131,26.240000000000002,-0.8900588609041812,-0.3777522056518984,0.2551440676384175,-0.9530663135479249,-0.15795253975599466,0.25829362586947396,1
132,26.44,-0.9749100037263279,-0.025431045627907573,0.22114191496096472,-0.9539924197769927,-0.15457176792719102,0.2569163902282238,1
133,26.64,-0.9766801331615032,-0.03792582169784054,0.21132332937035608,-0.9548523927809548,-0.15260182908656078,0.254891329314909,1
134,26.84,-0.9766729384437557,-0.05395268805052309,0.20784388074649426,-0.9549707275392764,-0.15293643254905137,0.25424664627537313,1
135,27.04,-0.9819343875876173,-0.057708348957639356,0.18020711676710915,-0.9556431473799415,-0.15424525932429042,0.2509075025616853,1
136,27.240000000000002,-0.9814609987500033,-0.06186159030480768,0.1814041112478061,-0.9567445532918369,-0.15373784264237375,0.24699096235707113,1
137,27.44,-0.9827116982814019,-0.058825369094399435,0.1755485517222811,-0.9576909325590397,-0.1500682844300701,0.24557603242664527,1
