,timeStamp,x_gaze,y_gaze,z_gaze,x_head,y_head,z_head,fixations_head
0,0.04,-0.9898612610285908,-0.10034969604797647,0.10052175096946477,-0.9992351829169909,0.003381548279737938,0.03895657007591964,0
1,0.24000000000000002,-0.9047714285315395,-0.4133724131695508,-0.10252760673779267,-0.9943129105008595,-0.1064961805679662,0.0006320883998119388,0
2,0.44,-0.8209807620651395,-0.5451589312930718,-0.16968302198610966,-0.9634290679514733,-0.26627046764966117,-0.030074392492389575,0
3,0.6400000000000001,-0.7955838424309839,-0.5808032771020896,-0.17237721128451078,-0.9231941981413053,-0.3777973670097541,-0.07058060639247547,0
4,0.8400000000000001,-0.8854061235197052,-0.05872566037484001,-0.4610935840448743,-0.9602799788322018,-0.24361591639757932,-0.1360648651628825,0
5,1.04,-0.9439773229201918,-0.11505796448194193,-0.3093032146966791,-0.9794906613055101,-0.15062979208593985,-0.1338234290079332,0
6,1.2400000000000002,-0.9465687900795128,-0.07628617703176291,-0.3133495569508374,-0.9858252560970745,-0.08140909031750775,-0.1467007990939841,0
7,1.4400000000000002,-0.9398114725947848,0.20387575451463552,-0.2742062594112517,-0.9843202957082919,0.12585875382278988,-0.12358450365201645,0
8,1.6400000000000001,-0.7169249904681653,0.6287080389248941,-0.30123870905551775,-0.881955611733291,0.4487158406575827,-0.14425114652963916,0
9,1.84,-0.5975264317993696,0.739185055828478,-0.3107533049558182,-0.7673342465984453,0.6248566189937516,-0.1440567933035244,0
10,2.04,-0.4359612482227581,0.8759684711619269,-0.20643891972758244,-0.6671391593756131,0.7346399581438269,-0.12340775472407114,0
11,2.24,-0.4758041600048795,0.8743033079803063,-0.09593814140760126,-0.6103526936877068,0.7884514106190297,-0.07624934361043793,0
12,2.4400000000000004,-0.19844693415415116,0.9403511058096629,-0.27633062104544726,-0.511862630861531,0.8548213199599329,-0.08530626043538715,0
13,2.64,-0.04985337356078323,0.9510456110472844,-0.30500309318481844,-0.2864997590257731,0.9528971882884537,-0.09952304572375742,0
14,2.8400000000000003,0.31586720818305974,0.9468998225312509,-0.0600718976304648,-0.04567161309206852,0.9958332818037273,-0.07893148047254059,0
15,3.04,0.5077687858901818,0.8611023498389236,0.02595386633037026,0.07933350015077245,0.995772245938978,-0.04630151154628677,0
16,3.24,-0.26885396620430624,0.9607503412169338,0.0683836728156603,0.004230692882558951,0.9997500604386507,-0.021952628331202824,0
17,3.4400000000000004,-0.5300072430689715,0.8474148858814703,-0.03131027756061907,-0.1661858074915296,0.9860897683635846,-0.0030407428435459943,0
18,3.64,-0.7217596349650218,0.6858295752598275,-0.09327820235233694,-0.45303511049410455,0.8914440145675407,0.009314373371332629,0
19,3.8400000000000003,-0.8232797723772565,0.5613526822009053,-0.08422340874307056,-0.6632850064757992,0.7483102525481489,0.009206851564176525,0
20,4.04,-0.8836875961719022,0.46066675224398296,-0.08296008527542728,-0.7827553342868149,0.6221063578104088,-0.01666631985186302,1
21,4.24,-0.67822872107501,0.6869065535719364,-0.2610846387072229,-0.7786958038907752,0.6256099183900086,-0.047382222562332356,1
22,4.44,-0.6520248641358034,0.7100017264289324,-0.2660096333154546,-0.7358296588742405,0.6740089147637192,-0.06531995055151653,1
23,4.640000000000001,-0.7738444238027761,0.6311312716920642,-0.053274061622028905,-0.7207094677706669,0.6900482317985621,-0.06641762459919609,1
24,4.840000000000001,-0.8077723696986536,0.3912210959643298,-0.44096468432731706,-0.7395921775429934,0.6684446543791482,-0.0786457560784734,1
25,5.04,-0.7930380422535666,0.31605473951268354,-0.5207687252228194,-0.7990997579607069,0.5848267322726939,-0.13934586483417077,1
26,5.24,-0.6174156663834777,0.3226923186526149,-0.7174033470697263,-0.835431502403479,0.5049846207850136,-0.21689798883918207,0
27,5.44,-0.4864583981118703,0.27404159433817193,-0.8296140256040916,-0.7845421620233903,0.45791172778382905,-0.4181033909999931,0
28,5.640000000000001,-0.6394805737147673,0.0982056142454185,-0.7625091823526536,-0.7610271958131594,0.38308478089016584,-0.5235299971186875,0
29,5.840000000000001,-0.6074389029630841,0.3525680631906479,-0.7118382821856379,-0.7858803288578864,0.3434809672761802,-0.5142109818287043,0
30,6.04,-0.7340948412927302,0.4238893057220109,-0.5304928090765353,-0.7996850146024775,0.3710410214246846,-0.47205130848284105,0
31,6.24,-0.8451868539052481,0.3834789250636653,-0.37229436742685895,-0.8482378062345436,0.38764169101668783,-0.3608691500532181,0
32,6.44,-0.9146805400674237,0.39471817629790634,-0.08693141504669442,-0.8896993172491223,0.44883623133976586,-0.0835533501612096,0
33,6.640000000000001,-0.6303730904632756,0.6816169907137472,-0.37152125752117415,-0.7988401513931082,0.5738552503025764,-0.18040112034686343,0
34,6.840000000000001,-0.6580695284403641,0.674030726280207,-0.33559957653199407,-0.7100930237496071,0.6799374051336892,-0.18290167501202856,1
35,7.04,-0.435554758676055,0.8532452671309515,-0.2868180020732225,-0.6143127536456913,0.7752625756951684,-0.1469278034775651,1
36,7.24,-0.5506289895969123,0.7022271793733582,-0.4513144185208588,-0.6060826015401786,0.7710520011580247,-0.19530154024096885,1
37,7.44,-0.6412153781005968,0.5637569019798935,-0.5205967675248679,-0.6368403506876492,0.7263690255623079,-0.25850030259111006,1
38,7.640000000000001,-0.6322342499912529,0.5031276518059523,-0.5891879319251426,-0.6837345572655631,0.6811228187554741,-0.2618754684415143,1
39,7.840000000000001,-0.6936252411038967,0.6165961807453929,-0.37241532566981744,-0.7091414936380899,0.6769342790241278,-0.19717587043759466,1
40,8.04,-0.8092693470485709,0.5643171481181962,-0.16318480403311317,-0.7051620281141378,0.6996167402478904,-0.11525159812719077,1
41,8.24,-0.7141350283776211,0.6999769925892243,0.006585673074154703,-0.7146396628161344,0.6994202999298893,-0.01006957675502096,0
42,8.44,-0.8215325132730813,0.5193376602445853,-0.23531409708492604,-0.7710022933982832,0.633400406459934,-0.06602566675905606,0
43,8.639999999999999,-0.9419796378907068,0.23879746318115674,-0.23590280493783275,-0.8542988380340408,0.5096270112852662,-0.10224384921419391,0
44,8.84,-0.9184791561211553,0.3851815018235145,-0.08961724401002757,-0.8943301993650201,0.44402822610162945,-0.054885598555210136,0
45,9.04,-0.8567279380833631,0.477651096243243,0.19459360309387688,-0.891037825797963,0.4406085366402197,0.1091591060654274,0
46,9.24,-0.9952510848415334,0.09588872092953019,0.01675205420985351,-0.9542366992440711,0.27863499368431605,0.10860415328302074,0
47,9.44,-0.7913776319951051,-0.6109004904244039,-0.02284807162634392,-0.9790672548448778,-0.17917370183225076,0.0965613538753616,0
48,9.64,-0.48811469664107787,-0.8613979779488109,0.14049044988428389,-0.783621092857704,-0.6105150571334756,0.11493192699074789,0
49,9.84,-0.008563616030108967,-0.93663930066505,0.3501906408374943,-0.4742385325872709,-0.8582004675341519,0.19644279506674472,0
50,10.04,0.32220258730155055,-0.8891705781861488,0.3249017938151423,-0.08405144133567055,-0.9291001972620017,0.3601502167944738,0
51,10.24,0.38741430145916744,-0.819541011882454,0.4222116635854452,0.1275562649069223,-0.9224345699951015,0.3644775210639849,0
52,10.44,0.45359928768639257,-0.7723499130195519,0.44466087985012603,0.21004831144889502,-0.9049412237131436,0.37008254279555863,0
53,10.64,0.23192985077298406,-0.8413939810341763,0.4881236656830737,0.23347844847825522,-0.8932940152732416,0.38407501399231464,0
54,10.84,0.3034627019992731,-0.846429313283371,0.43757034418472834,0.21075317263739313,-0.9104528614668316,0.35589139814012316,0
55,11.04,0.32930881448293353,-0.8905005984675588,0.3139496597111786,0.1679367956055,-0.9368447794178747,0.3067883504294622,0
56,11.24,0.3156277611142689,-0.9314652507415313,0.18097403978198282,0.1213650809492452,-0.9576740776882229,0.2610189227818454,0
57,11.44,0.2664043477210603,-0.9397348868616783,0.21430601001928293,0.1078186257203278,-0.9647767942113135,0.23996016606745535,0
58,11.64,0.4765412098499229,-0.8689152307268112,0.1337714361354645,0.14156184234545371,-0.9661277411418765,0.21577171405876291,0
59,11.84,0.1617365334195479,-0.9300930534740979,-0.32980025111672806,0.1026351528479692,-0.9891672030226334,0.10494889167711485,0
60,12.04,0.05763480499300222,-0.9366726128121455,-0.3454311011780599,0.0702816963359082,-0.9962600720016725,0.05026283015678344,0
61,12.24,0.3214335844145965,-0.9409814463860336,0.1059923033414826,0.08325711469036062,-0.9886463797143108,0.12508632511678877,0
62,12.44,0.630983986720814,-0.6787028689506791,0.3757946569338433,0.18882790618740697,-0.9515484101465728,0.24269249059748363,0
63,12.64,0.5415963673291049,-0.6505055911769347,0.5324620650745593,0.21337870229372963,-0.8818644059375973,0.4204577255180028,1
64,12.84,0.49064119125661,-0.8311466795835437,0.2616608844660293,0.18639911662590458,-0.9068917547105244,0.37789246427938766,1
65,13.04,0.49728616002582493,-0.8279275609960993,0.2593114513279731,0.2002729775540309,-0.9122108373447758,0.35743827815776186,1
66,13.24,0.48408348062545326,-0.8431552181552993,0.23399243979888887,0.20479852598631226,-0.9146986282844662,0.3484020424284998,1
67,13.44,0.47099348543482944,-0.8420553993581942,0.26288370259425264,0.19685853471098275,-0.9195075526751447,0.34022430525288916,1
68,13.64,0.4539864930139651,-0.8468336887197296,0.2770721346693258,0.18269391814053892,-0.9268279896280538,0.32804391461583027,1
69,13.84,0.43859953980916844,-0.8594767710326929,0.2625454698417041,0.17324046433992746,-0.9328215841647451,0.31596144326746883,1
70,14.04,0.43432744990619077,-0.8574773773553179,0.2758481712497494,0.17151929687609563,-0.9339894241985819,0.31344040308219984,1
71,14.24,0.4330528080249882,-0.8525369635160515,0.2926533637266168,0.16888057002486445,-0.9344019862992107,0.31364355735160077,1
72,14.44,0.4448086699218926,-0.8373804515924479,0.3177093427224719,0.1704902766140584,-0.9333570660404045,0.3158760086687652,1
73,14.64,0.4445559737833133,-0.8293615560945822,0.33842191927525006,0.16040320562003557,-0.93474904981244,0.3170410470294933,1
74,14.84,0.43455052214188333,-0.8297013062836627,0.3503734950840321,0.15560932055873783,-0.9356023994201571,0.31691306308590883,1
75,15.04,0.4981359936078153,-0.7503084848463174,0.4346236411425157,0.16903227034069218,-0.9318154359267283,0.32116675567709785,1
76,15.24,0.5432605489996374,-0.6797629678298148,0.4927375401446641,0.1853844860100028,-0.922517955877945,0.3385161937479288,1
77,15.44,0.5329235412642079,-0.697486253813774,0.4790672446611687,0.19240596321715642,-0.9214517302572081,0.3375005987023961,1
78,15.64,0.3834074169310969,-0.8296322741338545,0.40584361810642405,0.2061339038960116,-0.9202291092865853,0.3326968591468936,1
79,15.84,0.3656564577559159,-0.837836263081362,0.4053711276931979,0.19014931612326974,-0.9250757879603903,0.3287522229693913,1
80,16.04,0.36721760670713666,-0.8397658433256915,0.3999306911300665,0.1885427879502391,-0.9280360233073548,0.3212487456097257,1
81,16.24,0.3642642672890491,-0.8482746708259449,0.3843717294644691,0.18817257824076317,-0.9290816003927206,0.31843124942430723,1
82,16.44,0.35257193424586775,-0.8574499911066632,0.37479667012036094,0.1769206202014345,-0.9324521813636304,0.31501114840231803,1
83,16.64,0.3453656807159718,-0.860223949468128,0.37514970791012087,0.16252051746948037,-0.9362568820178179,0.31146449601154624,1
84,16.84,0.15949400354807097,-0.9326317274379067,0.32366606836119594,0.15647212080203737,-0.9407488361810666,0.30084564586458856,1
85,17.04,0.19967662235124223,-0.9527854289864791,0.22875570549704538,0.14914773866849135,-0.946070983776272,0.2875841541300093,1
86,17.24,0.214810932918867,-0.9532060502534396,0.21273102467379612,0.14987504219104636,-0.9492163506455514,0.2766329542830599,1
87,17.44,0.22849848933613554,-0.9541069144044272,0.19356765291950775,0.15154447871422327,-0.952186440122466,0.2652833470426287,0
88,17.64,0.23423519100493417,-0.9574706768302453,-0.16847485956401242,0.12381629531284505,-0.9678003785083898,0.21916193185409644,1
89,17.84,0.12914472224116347,-0.9615576079172735,-0.24233985923422477,0.045873344779815806,-0.9911914163500318,0.12423853022605309,1
90,18.04,0.24441242891187437,-0.9633182496520124,0.11081748273977941,0.0718985779368535,-0.9878814719108837,0.1375528696387119,1
91,18.24,0.26450308859877275,-0.9496425687388731,0.16797948613073044,0.0942025231907187,-0.9812746337330625,0.16800588625564966,1
92,18.44,0.2675305373822163,-0.9474773351010073,0.17525441802669736,0.09551786332409196,-0.9807495557558401,0.1703133778383914,1
93,18.64,0.38226976575096755,-0.8759905779432366,0.2941263904299893,0.10603238548869437,-0.9766395711899957,0.1869017956398452,1
94,18.84,0.4058370619974051,-0.8459777434974419,0.34585826087617294,0.13710694406165042,-0.9619337483954753,0.2364004009893093,1
95,19.04,0.3928506888168966,-0.8592894570492194,0.3275514696962109,0.13739998279411636,-0.9612787545141505,0.2388815623858412,1
96,19.240000000000002,0.387764016785277,-0.8666227581969738,0.31401283773377303,0.1318686262601429,-0.9616294012377465,0.24058171186396476,1
97,19.44,0.3922236368928462,-0.86686552453821,0.30774141909993685,0.12859617241872595,-0.9624760301231668,0.2389621641130708,1
98,19.64,0.4036304338023419,-0.8628823660781912,0.3041652432804186,0.12679704946880405,-0.9630412794083456,0.23764259382851038,1
99,19.84,0.5655625646096152,-0.7407317787353134,0.36256781087655054,0.1244392522960342,-0.9631609238970347,0.23840282541491556,1
100,20.04,0.5605606710051333,-0.7722228754067609,0.29907117015986184,0.12520973770508337,-0.9633107163152446,0.23739205002702762,1
101,20.240000000000002,0.5802236999706587,-0.7493280201500171,0.31913629723115905,0.12580399078139481,-0.9642067889661823,0.23340656377873942,1
102,20.44,0.5721650148016755,-0.7517714911693387,0.3278213246602903,0.11878262040983856,-0.9641934851186834,0.23711097052489846,1
103,20.64,0.5712296866815594,-0.752791856894409,0.3271101729496586,0.12469629620946426,-0.9615750933960058,0.24458980655805032,1
104,20.84,0.5887642619482286,-0.8058102999251224,0.06345395485816438,0.1445026833816931,-0.9584766286908689,0.2458485850048285,1
105,21.04,0.5925650044376651,-0.8042921200520516,0.04450731555560602,0.1591943079589888,-0.9581812744828722,0.23779364487689225,1
106,21.240000000000002,0.6142731163631259,-0.7890519703176968,0.008094853383125178,0.20243628602107194,-0.9538799448109125,0.22165874895777352,0
107,21.44,0.5840914522373055,-0.8106617331314894,0.040801101205307284,0.24327199933236254,-0.9471137660582932,0.2092707540095175,0
108,21.64,0.5826852450310724,-0.8111621700123477,0.04993835363664436,0.24391614379063425,-0.9477616258932519,0.20555489603141772,0
109,21.84,0.5135133900918336,-0.8539746991135728,0.08385231940903681,0.14897201038617003,-0.9672745153890274,0.2053955987854295,0
110,22.04,-0.5124637969495907,-0.8362435903257351,0.19513460599066698,-0.3229151874412538,-0.9073313890123874,0.26921280101925277,0
111,22.240000000000002,-0.5360517141680944,-0.8419646324392311,0.06118919397179836,-0.5129861005562721,-0.8296208842384919,0.22039611854888264,1
112,22.44,-0.3823797274973286,-0.8908050390759511,0.24546308552603624,-0.5230074062107207,-0.8229227029340823,0.22194926907831533,1
113,22.64,-0.5001759577572256,-0.8106358492494417,0.30445612359300467,-0.5244153809812808,-0.8178126567528882,0.2370041490038539,1
114,22.84,-0.5319329538102588,-0.6947517671219668,0.48411498089978333,-0.5627144295097651,-0.7696511934878912,0.30164467703601894,1
115,23.04,-0.5310211585568864,-0.6979497689201395,0.48050249659000327,-0.5692525187029477,-0.7661870053678819,0.29817619414659347,1
116,23.240000000000002,-0.4611866614175515,-0.8553623770638275,0.23592809759384695,-0.5470802561022247,-0.7868504700246405,0.28560380110412964,1
117,23.44,-0.4587154277433648,-0.8655865963427734,0.2008482028347653,-0.5387940699757678,-0.8002730392555085,0.2631805707108699,1
118,23.64,-0.46460310115411085,-0.865400243013163,0.18768691427678624,-0.547219440192966,-0.7981816846394979,0.25190649571011475,1
119,23.84,-0.4572400191107476,-0.8709756536528138,0.1798137249145832,-0.5470686210686297,-0.8034028933384456,0.23507384971000603,1
120,24.04,-0.46814175247170675,-0.8640122568730462,0.18527309455467272,-0.5584853877147604,-0.7949601207712207,0.23692293703333242,1
121,24.240000000000002,-0.46587755429510286,-0.8657003137227745,0.18308760532680493,-0.5524351551104403,-0.7995444796606287,0.235677797940998,1
122,24.44,-0.47016234301015764,-0.864902922046231,0.17575638438216304,-0.5485946602128988,-0.8039826440084045,0.22946853143546642,1
