,timeStamp,x_gaze,y_gaze,z_gaze,x_head,y_head,z_head,fixations_head
0,0.03333333333333333,-0.9972020302378768,-0.061952371855803906,-0.0418331747647349,-0.9994858802149156,-0.023710020176297433,0.021582636406490423,0
1,0.23333333333333334,-0.996519593354393,-0.022464401465129468,0.08027484492422715,-0.999567718334172,-0.013234978055054612,0.026252844038305165,0
2,0.43333333333333335,-0.9908330282067295,-0.06506475761454693,0.11839124769695825,-0.9967663594766729,-0.04745385330607837,0.0648456353351997,0
3,0.6333333333333334,-0.9890374758975021,-0.03632339906055192,0.14312750242698355,-0.9949062787667373,-0.01901090297953132,0.09899536372187549,0
4,0.8333333333333334,-0.9880877465664888,0.12330156019897597,0.09208327935981096,-0.9908173604563884,0.06399715522899836,0.11910215086567859,0
5,1.0333333333333334,-0.8908266923442117,0.4231879924789267,0.16534729277713459,-0.9597140953979844,0.23772146599409788,0.14979105347131255,0
6,1.2333333333333336,-0.9150111541619199,0.37778002202455885,0.14155155498402489,-0.9113159232843449,0.3774854525937457,0.16434117271243204,0
7,1.4333333333333336,-0.9110736538310611,0.3806096658104578,0.158370071625203,-0.888419780048523,0.42038390684957355,0.18435743890720416,0
8,1.6333333333333335,-0.8952552097756448,0.23420438521477166,0.37903352795727385,-0.8907190125374279,0.36663220398806234,0.2687014471550261,0
9,1.8333333333333335,-0.9095560054034939,0.2173438497117288,0.354216775473614,-0.8953614809079264,0.3067531498821827,0.3228472139321076,0
10,2.033333333333333,-0.9119737668158101,0.2183989591322065,0.34728337606305126,-0.8904138778946348,0.29292209626894083,0.34836729405908345,0
11,2.2333333333333334,-0.9221870690061156,0.24714544408658928,0.29747292183516877,-0.8983608634985543,0.3123586801959298,0.3088362249484158,0
12,2.4333333333333336,-0.8860137152074345,0.4506537358436566,-0.10904543472550814,-0.929165427915899,0.337780318050481,0.15018676474170556,0
13,2.6333333333333333,-0.8708107284098545,0.4706943730223386,-0.14189955070896543,-0.9292091979656522,0.3660776938755499,0.050570628459499764,0
14,2.8333333333333335,-0.9825975411626084,0.16597506297566036,0.08339274891392909,-0.94583640544233,0.32179718845901,0.042895962977986965,0
15,3.033333333333333,-0.9828774104570916,0.17211617808234997,0.06578766795902233,-0.9678209663169755,0.2091892646297597,0.1398657524948005,0
16,3.2333333333333334,-0.812062018374129,0.09847290350652355,0.5752028908038719,-0.9454200852321966,0.1448686058496438,0.2918800258303522,0
17,3.4333333333333336,-0.7984752179344473,0.042718527001386994,0.6005101612757016,-0.9104283083045762,0.048332282028759374,0.41083364754065643,0
18,3.6333333333333333,-0.8240866048406832,-0.051527441656357226,0.5641154052838002,-0.8994329651443672,-0.06313691189450057,0.43247435943421847,0
19,3.8333333333333335,-0.8066396720859116,0.06529665944636938,0.5874255575664703,-0.8692108113795748,-0.11717719499471707,0.48035619112699207,0
20,4.033333333333333,-0.8504447324349301,-0.002263512727385301,0.526059534258066,-0.8668138392458075,-0.13501233177154506,0.4800056649265235,0
21,4.233333333333333,-0.8274123299873734,-0.20284539735559529,0.5236817554168915,-0.8445502171064982,-0.23482061543858962,0.4812423603034226,0
22,4.433333333333334,-0.8083491494112036,-0.26352368883006544,0.5264284548460301,-0.7668608454405417,-0.4466056732425524,0.4609423134816162,0
23,4.633333333333334,-0.455615675741215,-0.7980253344640806,0.39442353070318736,-0.5179222342225851,-0.7797336669581799,0.3518124044286044,0
24,4.833333333333334,-0.08874139436645906,-0.9488902629134802,0.3028732967329463,-0.13822774671371968,-0.9545297217206422,0.26413273252355723,0
25,5.033333333333333,-0.3977015065080661,-0.6862331832401135,0.6090299910031982,-0.27238774842059266,-0.9199186615474398,0.2820541980668383,0
26,5.233333333333333,-0.7996565322815398,-0.26634680078544126,0.5381531492900729,-0.6257116181535005,-0.6671572505864461,0.40421055639067904,0
27,5.433333333333334,-0.8291616708142049,-0.2706020094893907,0.4891477037796461,-0.7824094522411935,-0.4466114716857924,0.43402032487233416,0
28,5.633333333333334,-0.8393750672805111,-0.3724029220731113,0.3959363080840725,-0.8491541808138394,-0.35980380275335766,0.38662436644707304,0
29,5.833333333333334,-0.8458363820979209,-0.4654018937074415,0.2606950173153056,-0.8674566589337873,-0.41389923150863944,0.27605501449527897,0
30,6.033333333333333,-0.8812715886927677,-0.44836163023951603,0.14943973866374544,-0.909106968598309,-0.3871752573515257,0.15368747424814266,0
31,6.233333333333333,-0.9941171040771287,0.10379213567430122,-0.030957647738013683,-0.9599291487540239,-0.27665039291292404,0.044727949578535216,0
32,6.433333333333334,-0.9504346390676078,0.3101887785044977,-0.02137565321374421,-0.999096423456184,0.037995341104389214,0.019044439908345503,0
33,6.633333333333334,-0.7254517546153006,0.6882648767671532,-0.003348303193784521,-0.7474634309591102,0.6642898723959229,-0.004169509688726722,0
34,6.833333333333334,0.44193819841683685,0.8966202222147533,0.02761894088568124,0.13210987449698725,0.9889519399502369,-0.06723869071489622,0
35,7.033333333333333,0.7685956503237175,0.6389674248901193,0.03132660582877377,0.656624102340742,0.7538371847684645,-0.023964287712578154,0
36,7.233333333333333,0.9923996863948535,0.11679503520263032,-0.03875283467583899,0.9085772419342601,0.4170822073757985,-0.023017987089769626,0
37,7.433333333333334,0.9943464327481477,-0.09203533958040733,-0.05295911582865516,0.9420863398522136,0.33505208731124303,-0.014609142761958837,1
38,7.633333333333334,0.9937211127374228,-0.09436993164633395,-0.06010545816283469,0.949408869349575,0.3133456103124154,-0.020912371895647444,1
39,7.833333333333334,0.9812245750463785,-0.185803215288793,-0.05172522125037973,0.9737310901525993,0.2254640957057435,-0.03183874397368597,1
40,8.033333333333333,0.9907788852460162,-0.1334223231051182,0.023572955858257368,0.9842332540238118,0.17035994140811148,-0.04756460908200588,1
41,8.233333333333334,0.9829898947798479,-0.01506597214245035,-0.1830406600843286,0.9702230797325632,0.23087291252249653,-0.07324529894566748,1
42,8.433333333333334,0.9834437582201865,0.01891735748509493,-0.18022349459361983,0.9536436138557745,0.2903822888042461,-0.07900622824123417,1
43,8.633333333333333,0.9799383563733969,0.060885408227242734,-0.1897729822003323,0.9281853381053483,0.3600268208941023,-0.0940886091041119,0
44,8.833333333333334,0.9693564151810208,0.14381969716165602,-0.19915831656180027,0.8168405767050206,0.5681699641937106,-0.0997715592557681,0
45,9.033333333333333,0.20770396763437277,0.9781474255899524,0.009309975332321413,0.21073997875977063,0.9733692939132418,-0.0902268198440401,0
46,9.233333333333334,-0.7571183714648886,0.6530188863982708,0.018387647960460572,-0.4980845047093611,0.8670658646812608,0.010421730804806411,0
47,9.433333333333334,-0.8983796695193272,0.43286376082407274,0.07445088286638683,-0.8538177655634022,0.5092912970441743,0.10778496167546892,0
48,9.633333333333335,-0.9833369955751429,0.012713566391493163,0.1813469557584602,-0.9554265471943368,0.2348424702611744,0.17891094733955606,0
49,9.833333333333334,-0.9832683163128264,0.05416024488572225,0.1739255185683184,-0.9698585990484144,0.05163028025408631,0.23813570083616542,0
50,10.033333333333333,-0.981823030928695,0.1886683490230148,0.020683085236989286,-0.9737532687838906,0.014265772201994128,0.22715866542170302,0
51,10.233333333333334,-0.9727695714777773,0.18356730303567734,0.1415005514588172,-0.9367561042149399,0.019012606229501794,0.3494660527439126,0
52,10.433333333333334,-0.7612113059738151,0.06550498153476837,0.6451871395585694,-0.8384135989566253,0.002249402115805462,0.5450298865885433,0
53,10.633333333333335,-0.8058204318432496,-0.27954647890194473,0.522022219601315,-0.8194358278653844,-0.084638884168993,0.5668872756529291,0
54,10.833333333333334,-0.7754432780133466,-0.3245773089403994,0.5416062159031454,-0.7886794566038935,-0.17041485340856594,0.590714391621471,0
55,11.033333333333333,-0.707648949951429,0.14156826743346754,0.6922365125363775,-0.7203242560125092,-0.18073344403175975,0.6696778243367808,0
56,11.233333333333334,-0.7883575859081792,-0.15359871865537775,0.5957346308285715,-0.6957844990122007,-0.13713578593228568,0.7050373799672436,0
57,11.433333333333334,-0.7796431845349165,-0.23463486505652187,0.5806057051977376,-0.6984775356792051,-0.21173803547817072,0.6835906205349443,0
58,11.633333333333335,-0.6830645012504533,-0.4178950145078442,0.5989880165587274,-0.6984965488885277,-0.3014211342392733,0.6490361091840164,0
59,11.833333333333334,-0.6234369033560887,-0.5097085644833723,0.5928942627704125,-0.6786567975946765,-0.4003637460133859,0.615738436315833,0
60,12.033333333333333,-0.9592159827812183,-0.08576711399445089,0.26934865979641387,-0.8156052165212793,-0.3289644275211857,0.47599426068907136,0
61,12.233333333333334,-0.9772131669704295,0.21156577128760734,-0.017156652327984842,-0.9716104555435919,-0.06866977564296223,0.22640137939402982,0
62,12.433333333333334,-0.8444782723804926,0.5355895667049417,-0.0005133362170510873,-0.9603803798637933,0.24608985072581563,0.13080256626848472,0
63,12.633333333333335,-0.8445401517084956,0.5341574256903977,0.03778593299097875,-0.8844388697438723,0.4466691464598799,0.1351094344854716,0
64,12.833333333333334,-0.5636104469582761,0.8093001553292823,-0.16545852248673137,-0.7956139768508858,0.5965856551540507,0.10528036808413273,0
65,13.033333333333333,-0.5887524771353485,0.7938595836199129,-0.15217582646994163,-0.7264579790705419,0.6851106130027802,0.053686614679069856,0
66,13.233333333333334,-0.5846665367947945,0.8110042685565546,-0.020907346446381748,-0.7091477577452017,0.7041624545649773,0.035562554266803305,0
67,13.433333333333334,-0.3387709745535961,0.9121724326056068,-0.23059852556852292,-0.6304067991104741,0.7744271830669177,-0.05338357202665214,0
68,13.633333333333335,-0.5498297366530642,0.7736354992640433,-0.31492122026071334,-0.48530430429987303,0.8657079251757832,-0.12259494490335744,0
69,13.833333333333334,-0.5200239914448008,0.8244031468404004,-0.22346028685532135,-0.4071509572487337,0.9127370770148023,-0.03375094448923193,0
70,14.033333333333333,-0.32070940872146475,0.7093607165816691,0.6276566329835684,-0.4749041049312188,0.8247829712560484,0.3069187864004458,0
71,14.233333333333334,-0.4677008862596252,0.6134213865350855,0.6363725980377646,-0.6296661527908805,0.5719917084117225,0.5256862386802329,0
72,14.433333333333334,-0.8333580832151112,-0.09418727265526314,0.5446494861925413,-0.8238672007498425,0.12948927388879616,0.5517928628356579,0
73,14.633333333333335,-0.7860689307335436,-0.2787203592908463,0.55173417281532,-0.8253632738753514,-0.13530361788303785,0.5481499768544397,0
74,14.833333333333334,-0.5802670053709009,-0.5196956565729034,0.6270619004668881,-0.7486429983480529,-0.3249356023982449,0.5778845172857008,0
75,15.033333333333333,-0.4974964363712128,-0.6489826972240117,0.5756029486562689,-0.6271692483637212,-0.5120996360501213,0.5868668474741254,0
76,15.233333333333334,-0.37135198100600914,-0.6956682893547944,0.6149336040493206,-0.4975808024003322,-0.619476629866189,0.6071754689809779,0
77,15.433333333333334,-0.06112124349747344,-0.8361586277208277,0.545071502540121,-0.36621242385996133,-0.6999797834156192,0.613120512966281,0
78,15.633333333333335,-0.004097457461309739,-0.8427571344499483,0.5382783881748038,-0.2624124124723147,-0.7628588569010503,0.5909196986292494,0
79,15.833333333333334,-0.14267335354680782,-0.8441311529179689,0.5168045190021935,-0.24272233228166912,-0.7935972672295535,0.5579330128765748,0
80,16.033333333333335,-0.4676910917315433,-0.5978902966777964,0.6509932686698794,-0.38043404239290657,-0.7484449093257524,0.5432312188129093,0
81,16.233333333333334,-0.49186667825881164,-0.6080523408085728,0.6231689350857104,-0.4449288268055073,-0.7167380489170921,0.5369589447173729,0
82,16.433333333333337,-0.6794854441145073,-0.4972055334618678,0.5395240390672232,-0.5421489614049374,-0.6691812069919502,0.5082037149178907,0
83,16.633333333333336,-0.731728817858043,-0.46343849552702737,0.4997976570370423,-0.6452426329219448,-0.6110143628531646,0.4586102844977394,0
84,16.833333333333336,-0.7355804892075191,-0.43963699645588783,0.5154033907964451,-0.6755931542047757,-0.5718002634685689,0.4654227633978787,0
85,17.033333333333335,-0.6370340242572297,-0.42207572184098924,0.6450114239073967,-0.6891309292934561,-0.5340393480353878,0.48979642407951085,0
86,17.233333333333334,-0.6605622584840911,-0.4188056953884746,0.6231045595857677,-0.7074225117679258,-0.5012865226393312,0.4982621920877867,0
87,17.433333333333337,-0.818526122164462,-0.5090588156446351,0.26622191785968735,-0.7563053118239693,-0.49750544755410975,0.42484185876727587,0
88,17.633333333333336,-0.9328190528126742,-0.3339610607339955,0.13534631366642377,-0.819551469416601,-0.4687785715284833,0.3295178900345251,1
89,17.833333333333336,-0.9482507668039404,-0.30479545695054383,0.08899557673305113,-0.8684538355765472,-0.41275304961176945,0.274632218628055,1
90,18.033333333333335,-0.9489907939641835,-0.2983006864132081,0.10214290703048376,-0.8866695199658721,-0.3774510016302795,0.267110283837573,1
91,18.233333333333334,-0.8903549778102904,-0.28675092653827217,0.35361266891597626,-0.8887141792525081,-0.3594366575481195,0.2845916316517008,1
92,18.433333333333337,-0.8743017497432529,-0.29532117177512573,0.38520365509331994,-0.8803807340672736,-0.3568085696172575,0.3124378461884148,1
93,18.633333333333336,-0.8095817392648428,-0.4022017880591092,0.4275641813002671,-0.8676626379469783,-0.3677362404184453,0.33456180922782947,1
94,18.833333333333336,-0.793918128317706,-0.41731888517658916,0.4421978670272841,-0.8557730815438087,-0.3838888190719865,0.34681667707382485,1
95,19.033333333333335,-0.7980949270770291,-0.41363197330963974,0.43812450060443486,-0.8580658339913156,-0.3866724411403845,0.33794592437152454,1
96,19.233333333333338,-0.877437016857209,-0.4339949267636521,0.20433473760507342,-0.8718552984116699,-0.3719019712925815,0.3186805020395662,1
97,19.433333333333337,-0.8893978269931252,-0.4197091759609363,0.18115107770614805,-0.8837439438381697,-0.3582944787127113,0.3010343971265492,1
98,19.633333333333336,-0.9568211165758564,-0.17604651291286344,0.23130278028106918,-0.901932617979725,-0.31611056007611416,0.2942646197431912,0
99,19.833333333333336,-0.9624969989753682,-0.17295995542545517,0.20900808784024308,-0.9180637073556661,-0.2820942321378088,0.27853522834813876,0
100,20.033333333333335,-0.9675168885117233,-0.15345461798138008,0.20090482986922586,-0.9340221077750985,-0.24148580900264158,0.2632248207097918,0
101,20.233333333333338,-0.9856780885696025,0.029150587786435606,0.16609921416274132,-0.9517047218895233,-0.18574641459529928,0.24445120535226758,0
102,20.433333333333337,-0.9829479001608294,0.04119112395322418,0.17921137485351324,-0.9624880338552984,-0.13233696107350176,0.23686222455088352,0
103,20.633333333333336,-0.96082922996456,0.23628439724816472,0.1448339547992211,-0.9719525509138683,-0.061326649908840354,0.22704026247118048,0
104,20.833333333333336,-0.9475594403704654,0.2418987842999871,0.20884464350085477,-0.9749451918943036,0.051598213377240174,0.2163781347050959,0
105,21.033333333333335,-0.8988324385026432,0.4020235030053888,0.17457763466912943,-0.9502863044813664,0.2530000422252119,0.18151285945956755,0
106,21.233333333333338,-0.7047959534339638,0.6396308049608209,0.30681443474563347,-0.8754980897896122,0.44844492008454945,0.18000069006840666,0
107,21.433333333333337,-0.5192184337352929,0.843559157504767,0.13718660962104715,-0.7745955325068009,0.6023570621547311,0.1927893427885139,0
108,21.633333333333336,-0.5497818869273505,0.8225068807463501,0.1456787833952211,-0.6701903549877097,0.7168038738602733,0.19245023902389233,0
109,21.833333333333336,-0.11149818707452469,0.9877409512740718,0.1092518533265512,-0.5195020326067012,0.8348699247863772,0.18196111344101862,0
110,22.033333333333335,-0.07796479175748733,0.991313476701314,0.10592016879029682,-0.28881727409626123,0.9428440299782432,0.16622189181329314,0
111,22.233333333333338,-0.054698136325039004,0.99268153249695,0.10766377720512235,-0.10010755634797558,0.9851533385854797,0.13946819220137704,0
112,22.433333333333337,-0.005130712448397634,0.9999645874257408,-0.0066708083648305576,-0.07088677143867705,0.9877195598769882,0.1392305163080628,0
113,22.633333333333336,-0.2802625744506388,0.951880785548013,0.12399943333256715,-0.28095860401816236,0.9431670623392197,0.17747719669459505,0
114,22.833333333333336,-0.7154906761965526,0.606134808193559,0.34738118338787055,-0.5475214003715421,0.7899680060934547,0.27599069818368394,0
115,23.033333333333335,-0.9571656777172832,0.2072072497532806,0.2022350638482263,-0.7695552520590003,0.5512350041314277,0.3223735166675973,0
116,23.233333333333338,-0.9732445010332038,-0.02080053815147165,0.22882849215348844,-0.9249961673137173,0.156836611905528,0.34609878303878594,0
117,23.433333333333337,-0.8511951799299303,-0.5114037245959576,0.11803811305436697,-0.9345424257824135,-0.16480758044963925,0.3153869303554882,0
118,23.633333333333336,-0.830186167868642,-0.547917645933861,0.10284541775827939,-0.8596511158293602,-0.42863650933886516,0.27797608155222514,0
119,23.833333333333336,-0.6730660406885773,-0.7337666351047176,0.09256689515643499,-0.7363225886797996,-0.6289173081734853,0.24958378328668768,0
120,24.033333333333335,-0.4340003793140809,-0.891433090023089,0.13034844366973322,-0.6109645151292427,-0.7519577981491451,0.24755167350591512,0
121,24.233333333333338,-0.3752667074384038,-0.9211055940417456,0.10363099398029067,-0.5460656834155146,-0.8068022941201298,0.22557111428204296,0
122,24.433333333333337,-0.4638387720625299,-0.8711225378286414,0.16124241879391477,-0.49808219353906213,-0.8367302222341345,0.2275888039410828,1
123,24.633333333333336,-0.4654451444699188,-0.8824501409740825,0.0681363793006233,-0.4839159737892001,-0.8633992317770455,0.1427133381238693,1
124,24.833333333333336,-0.5662552285886056,-0.8140092610672853,-0.12939837322299858,-0.4974881808936805,-0.8656084155609066,0.0568118014257021,1
125,25.033333333333335,-0.5585620443391175,-0.8244862320517082,-0.0907242844054579,-0.49684230194549295,-0.8659297746287596,0.057561726944982405,1
126,25.233333333333338,-0.5194216120888937,-0.8536379512110918,-0.038774181449835146,-0.44658089690300556,-0.8899443711207972,0.09254468559412865,1
127,25.433333333333337,-0.34092004856624514,-0.9253627535318036,0.16576276681338187,-0.37740040019285725,-0.9166672044109331,0.13149210733620587,1
128,25.633333333333336,-0.6275790274420768,-0.7406603214593792,0.23993093283390124,-0.39817719400419616,-0.9015580266070168,0.1692573390887581,1
129,25.833333333333336,-0.6269019342326284,-0.7441168024542592,0.23083359625634767,-0.5535131021317521,-0.8016171353425146,0.22590532108329203,0
130,26.033333333333335,-0.9763714666516075,-0.16899409774998764,0.1346839041394952,-0.7979506643785167,-0.551671021455053,0.24276289111934415,0
131,26.233333333333338,-0.9550637463311182,0.1430726006309168,0.259583264854797,-0.9573389831644188,-0.15821322918615124,0.24180704171758025,0
132,26.433333333333337,-0.9260572772448178,0.25237898376736945,0.2805757790944623,-0.9410056323736792,0.17109881364463012,0.2919479333895219,0
133,26.633333333333336,-0.8150395844440448,0.5665996800800386,0.12114156315021342,-0.8552569114180817,0.4644663497779044,0.2297969220759782,0
134,26.833333333333336,-0.7014819159832965,0.6711042044847414,-0.2398796954127333,-0.7469332416328561,0.6628239492586477,0.05248947354473291,0
135,27.033333333333335,-0.3877437642695492,0.9074558282034441,-0.16179831003345468,-0.459553109146414,0.8864725430406114,-0.054565284833636166,0
136,27.233333333333338,-0.10445773940330866,0.9808501991584041,0.1643820777629645,-0.21498925841253763,0.9764243009849338,-0.01937016296550572,0
137,27.433333333333337,-0.15765956111911789,0.9864755118281509,0.04482775201942577,-0.09434343187430794,0.9954856033842706,-0.010379321597895317,0
138,27.633333333333336,-0.4465905852712813,0.7576967723943946,-0.47587020315435985,-0.17246827996704045,0.9617428948795356,-0.2128504088648678,0
139,27.833333333333336,-0.4154166257388999,0.7831451372388012,-0.46272315813986026,-0.3181477823371845,0.9083687291816066,-0.2713820930697618,0
140,28.033333333333335,-0.9192631122142132,0.33432046658701764,-0.2078103850708089,-0.6936390923156796,0.7052706501275134,-0.14648590266709913,0
141,28.233333333333338,-0.965533810237722,0.22628044115891738,-0.1286142419670254,-0.9536050942726597,0.300881924838234,0.010362986194691812,0
142,28.433333333333337,-0.9928731187687343,0.10113341522955142,-0.06304761970490566,-0.9953473660605405,0.09447988296047179,0.01889901034764386,0
143,28.633333333333336,-0.8610636944872226,0.002431901593934734,-0.5084912977531206,-0.9935029169878724,0.0056862304811964096,-0.113664509498362,0
144,28.833333333333336,-0.8859725329349373,-0.1878019016032738,-0.42400839217997316,-0.9935797898141949,-0.06340078511685995,-0.09369920874450495,0
145,29.033333333333335,-0.9791229488867927,-0.20279356169353313,-0.013893246520610305,-0.9811591513967386,-0.1705505108690486,0.09077027527080679,0
146,29.233333333333338,-0.9130157635655711,-0.2593795081368361,0.3148404139234198,-0.9392301200099062,-0.2526290835487327,0.23243349115715725,0
147,29.433333333333337,-0.855713084346976,-0.4580312558330253,0.2407539946862927,-0.8808677741052467,-0.38991000203977566,0.26840669673503015,0
148,29.633333333333336,-0.8374309090570091,-0.5002889432157285,0.22004646293917388,-0.7563960618851139,-0.5964741493045412,0.26848386688237913,0
149,29.833333333333336,-0.7514337423290782,-0.6534610236108942,0.09130181548424399,-0.6637949709754546,-0.6931832193375613,0.28084383727707135,0
150,30.033333333333335,-0.6641516016481334,-0.7399601165421765,0.10659116265013698,-0.5430696581042054,-0.7847017914351554,0.29886191621723845,0
151,30.233333333333338,0.025633964619912908,-0.9837560164783204,0.1776710440690096,-0.3514108149434658,-0.8880041378173159,0.2965789782841916,0
152,30.433333333333337,-0.008928409840624763,-0.9841817283736785,0.17693673737558654,-0.18464766940533467,-0.9414711940201366,0.2820234547222568,0
153,30.633333333333336,0.16189649391973526,-0.9716774550298849,0.1721407814643087,0.00023067222840306156,-0.9585541690656433,0.28491025210967347,0
154,30.833333333333336,0.4159546865753314,-0.8831650211666463,0.2167977031791052,0.22784058355216907,-0.9229214764375592,0.3103298516368073,0
155,31.033333333333335,0.5682265459217866,-0.7550613045541316,0.32711010206780383,0.37562866069628614,-0.8640096625476692,0.33524679310588124,0
156,31.233333333333338,0.5685780914819646,-0.7577448229688024,0.32022138771591396,0.4069165897718361,-0.849784230265419,0.335090511594508,0
157,31.433333333333337,0.14584756425591805,-0.9841019888939456,0.10134970870997509,0.3545182354050136,-0.8943829012479888,0.27275638713061473,1
158,31.633333333333336,0.20126519350079913,-0.9617651433996554,0.1857421083829026,0.3009459745702103,-0.926553212047182,0.2256782347392778,1
159,31.833333333333336,0.3292122662629943,-0.938715614050907,0.10213853180368544,0.288345378313924,-0.935002323802978,0.2064645182302072,1
160,32.03333333333333,0.344784214154913,-0.9327353918076919,0.10549186953946138,0.2956120278915155,-0.9326696976950876,0.206738395000107,1
161,32.233333333333334,0.3453642981385963,-0.9329165633292298,0.10193226887111749,0.28862257309652095,-0.9373335617554411,0.1951993962746871,1
162,32.43333333333333,0.4013182419501058,-0.9127156203449938,0.0767715120101857,0.3463055349730287,-0.9237396169880951,0.16363861541131342,1
163,32.63333333333333,0.6838678927803812,-0.7283929836524329,-0.04205195108467587,0.44789672808178166,-0.8886893934826723,0.0980799820811294,0
164,32.833333333333336,0.5548727956636144,-0.809233744380068,-0.19302053670285813,0.48435714019773485,-0.8743456150433833,-0.030296966743877118,0
165,33.03333333333333,0.5456179210030997,-0.7978207614006582,-0.2564821961819758,0.47973074298547813,-0.8673063226179396,-0.13280872328859758,0
166,33.233333333333334,0.5677028235985533,-0.7858069995974166,-0.24539939580597095,0.502008863689845,-0.8511228935042394,-0.15354778060851978,0
167,33.43333333333333,0.5803739708783422,-0.7807972153034249,-0.23134770909028413,0.5182302119911275,-0.8417569307853507,-0.15127034360527367,0
168,33.63333333333333,0.5405207993817892,-0.7965067771823711,-0.2709505846796126,0.4681438279697561,-0.8626824034461416,-0.1913646443787663,0
169,33.833333333333336,-0.23614898674610466,-0.8614775754669943,-0.44954426147632814,0.20828055288230096,-0.9030710819312873,-0.3756086158097248,0
170,34.03333333333333,-0.2970179535062296,-0.7586039529094245,-0.5799141125418206,0.04395832448531628,-0.9033858504194534,-0.4265696554730126,0
171,34.233333333333334,-0.20396200799465905,-0.7958159061373448,-0.5701548411033478,-0.021574023549975396,-0.8925083112969454,-0.4505146787550217,0
172,34.43333333333333,0.358862599830458,-0.7681179646851303,-0.5302946603265938,-0.01251867626640224,-0.8818889810827278,-0.4712908950843474,0
173,34.63333333333333,0.5164855520477196,-0.6658966765413465,-0.5383533140022005,0.08357504548908179,-0.8565956100103927,-0.5091749922005414,0
174,34.833333333333336,0.4905264172173113,-0.665101187125793,-0.5630490608249068,0.07860363435192069,-0.8327961996356431,-0.5479707643105605,0
175,35.03333333333333,0.25737559679767086,-0.7117603447834996,-0.6535709707191075,-0.04095883271051204,-0.8277297079304949,-0.559630149859968,0
176,35.233333333333334,-0.5460737050174665,-0.6992571664573992,-0.461349026059952,-0.30273806974630957,-0.810545602300435,-0.5013636282357388,0
177,35.43333333333333,-0.5467205305931158,-0.6994800314440012,-0.4602437908750984,-0.5371785807913877,-0.7396794990559997,-0.40535590659964,0
178,35.63333333333333,-0.91908252086313,-0.29156293161988517,-0.2651006917174916,-0.7852484974473757,-0.5446207349631259,-0.2945726604844098,0
179,35.833333333333336,-0.8022520687468923,0.03328971284341125,-0.5960565520234932,-0.8929236047620038,-0.27428283775846524,-0.3570103093329273,0
180,36.03333333333333,-0.7335537705224683,0.12293206732587894,-0.6684209546201073,-0.8995382004777781,-0.09921840925123174,-0.4254253555523648,0
181,36.233333333333334,-0.6640037594150371,0.47694681684288276,-0.5758652111268221,-0.8786777501691202,0.16023145809390238,-0.44972357198042817,0
182,36.43333333333333,-0.649728196251297,0.4859746098727721,-0.5845356700450739,-0.8112417375152887,0.3869810443344754,-0.43832923087443587,0
183,36.63333333333333,-0.7191664740585124,0.3812205871166981,-0.580922065813175,-0.82638313515738,0.48267111131557927,-0.29003363982276786,0
184,36.833333333333336,-0.7624802179823671,0.2867520958034132,-0.5799975454585237,-0.8525087081436453,0.4566537940392502,-0.2543545064055505,0
185,37.03333333333333,-0.7584545733270146,0.21770541878711444,-0.6142890287397811,-0.8720185339721119,0.3959042595606012,-0.2878254569542122,0
186,37.233333333333334,-0.7519643529587728,0.17098692277525726,-0.6366420376625649,-0.8899171182185812,0.33993550844140696,-0.30412394315840724,1
187,37.43333333333333,-0.7319193382764546,0.21615957744853806,-0.6461958830991009,-0.8961505982453166,0.302791599576972,-0.32439382313814175,1
188,37.63333333333333,-0.7386131422865307,0.20122990295693788,-0.643395020339417,-0.9002755758233083,0.2757285867270998,-0.33686441491716956,1
189,37.833333333333336,-0.7437284928748141,0.1891788133930674,-0.6411546657783511,-0.9088695753801102,0.24737644369337836,-0.3357990322410044,1
190,38.03333333333333,-0.7472689790684527,0.18367863537435053,-0.638632313486414,-0.9165257903559652,0.22609367923127738,-0.3299426068637363,1
191,38.233333333333334,-0.7339141091257524,0.19123404860233398,-0.6517665372518858,-0.9169889574992016,0.2168731989482706,-0.3348093000537348,1
192,38.43333333333334,-0.7252351036266561,0.22605077537832716,-0.6503345995858522,-0.9121551178809411,0.2517163488943197,-0.32343766110785566,1
193,38.63333333333333,-0.7404733487094164,0.22821498946124646,-0.6321527809289986,-0.9244813204787183,0.24362842023361256,-0.2932225791790259,1
194,38.833333333333336,-0.8446199318850844,0.02639238661991936,-0.5347154501143017,-0.937779300819408,0.14453495135512162,-0.31572081146391867,0
195,39.03333333333333,-0.7288364713544692,-0.24702656628487518,-0.6385728412429315,-0.930518641308771,-0.04117360456578743,-0.36392278365601005,0
196,39.233333333333334,-0.7192938497018428,-0.26165847888278276,-0.6435458011749055,-0.9164164105733306,-0.13921232044927753,-0.37523444973379055,0
197,39.43333333333334,-0.8044524430057217,-0.04911758068710617,-0.5919828799970249,-0.9293437175252393,-0.09048183606134151,-0.3579571092174835,0
198,39.63333333333333,-0.8345134827233432,0.039764561323661116,-0.5495507499910205,-0.9422618672835943,-0.001138494612444894,-0.33487501742180154,0
199,39.833333333333336,-0.8828487328341292,-0.014287808877876286,-0.46944006374684455,-0.9655518149989907,0.06224401613606438,-0.2526566346000205,0
200,40.03333333333333,-0.9696407563876731,0.11106568706818089,-0.2178559540338855,-0.9747687600549332,0.11087688775678212,-0.19373223836609665,0
201,40.233333333333334,-0.7684797543232204,0.015985608115193364,-0.6396743918029786,-0.9542502291177744,0.10989571065402043,-0.2780817020383094,0
202,40.43333333333334,-0.7430940285054095,-0.05446676939652487,-0.6669667426724569,-0.941274775248251,0.010616446031670512,-0.337474574679355,0
203,40.63333333333333,-0.7678567967134957,-0.022740096358847033,-0.6402177971272588,-0.9446011306689756,0.0315033339747141,-0.3267051329369814,0
204,40.833333333333336,-0.9591083285038309,0.025266699835641258,-0.28190921956190634,-0.9651807991762463,0.1326775425683184,-0.22543889327162395,0
205,41.03333333333333,-0.7558852697828048,0.6304974759566278,0.17638138149390403,-0.913367390257907,0.39519758257125503,-0.09787175866048554,0
206,41.233333333333334,-0.7577407423382125,0.6459935326653288,0.09231101318533687,-0.7831216053442381,0.6196155697603365,0.052887587897702815,0
207,41.43333333333334,-0.6271228603534946,0.7719599874769975,0.10389752526680121,-0.6805078593404161,0.7301493081106546,0.061571432023762224,0
208,41.63333333333333,-0.8522659446309094,0.5182639733465559,-0.07102966671345562,-0.6765138264157593,0.7359207005428414,-0.027381840347965425,0
209,41.833333333333336,-0.4339166696704876,0.8059242189877595,-0.4027436865191587,-0.5591687079182779,0.7895303732685237,-0.2529271550693395,0
210,42.03333333333333,-0.566130924308635,0.6489719041207023,-0.5082629675703325,-0.4414524356987836,0.8161830612025719,-0.372780039194175,0
211,42.233333333333334,-0.5296077185377625,0.674036563500597,-0.5149663829120614,-0.3697591358743607,0.8396462612835905,-0.3978345602759196,0
212,42.43333333333334,-0.012109272857515507,0.9203588688074952,-0.3908873470940833,-0.3527749683473932,0.8576442847362227,-0.374160530476945,0
213,42.63333333333333,-0.04868724334186009,0.9086698551919964,-0.41466691042465226,-0.2355801978511689,0.9123416221873639,-0.33486524872690704,0
214,42.833333333333336,-0.7574394732999477,0.5490819075869385,-0.3532626544765054,-0.4794971980962869,0.8363629259880061,-0.2656680128479748,0
215,43.03333333333333,-0.717920902304306,0.6062197205702677,-0.3421801110910418,-0.7022040302707314,0.6755094567733237,-0.22493659924821238,0
216,43.233333333333334,-0.8999551783003684,0.10066629602176409,-0.4242015722455675,-0.83464051003686,0.4973831625037237,-0.2366119368569659,0
217,43.43333333333334,-0.8778659838614644,0.08647394825718212,-0.4710345747944171,-0.9142420372488764,0.28561158277867815,-0.28738044663769796,1
218,43.63333333333333,-0.7579790781970533,-0.020530063559632647,-0.651955699036202,-0.9242607623713931,0.1426262060522017,-0.354118353785576,1
