,timeStamp,x_gaze,y_gaze,z_gaze,x_head,y_head,z_head,fixations_head
0,0.03333333333333333,-0.9952360672993754,-0.011202549861196297,0.09684871306878945,-0.9855252355966172,-0.009284296595974007,0.16927436852326527,0
1,0.23333333333333334,-0.9963513624948873,-0.01409904702335776,0.0841735072788048,-0.9862394413017126,-0.015569325815496603,0.1645884580234492,0
2,0.43333333333333335,-0.9971297153534112,-0.009490110408755527,0.0751150355365356,-0.9878185508484578,-0.012816203785039455,0.1550814480206892,0
3,0.6333333333333334,-0.9855925809898254,0.1418428894477126,0.09212957728622455,-0.9875184300712075,0.00038717712435945426,0.1575030169983174,0
4,0.8333333333333334,-0.9744285548868991,0.19667062437128244,0.10867224544675483,-0.9816722035146559,0.06941747541991855,0.17748492598811222,0
5,1.0333333333333334,-0.8911660545480187,0.42167791101659,0.16736428108172482,-0.9684222873122637,0.15637717343144217,0.1941763452804607,1
6,1.2333333333333336,-0.8875322567374886,0.4256661825241252,0.17633716087597281,-0.9565587111364097,0.20585051614994984,0.20644853390094614,1
7,1.4333333333333336,-0.8810347537451755,0.4286503052591885,0.20009167522508997,-0.9448374294604707,0.23292471976954682,0.23027875892232966,1
8,1.6333333333333335,-0.8906528933399374,0.3896229022395471,0.23437452428886257,-0.9418370237686595,0.2050402365599164,0.2662733971880165,1
9,1.8333333333333335,-0.8996319743891329,0.35817875058438525,0.249740451842546,-0.9413572537124257,0.18510876355978031,0.28210151813907297,1
10,2.033333333333333,-0.8984865739866114,0.34327425637049275,0.273650619000007,-0.9348953601285805,0.18188829036108362,0.3047742040258227,1
11,2.2333333333333334,-0.8940087932642813,0.30523877152698736,0.3279901979066438,-0.9199992940894793,0.1401149986588256,0.3660178766477077,0
12,2.4333333333333336,-0.7866227336379691,-0.010336837653339807,0.6173474100628084,-0.8784973068709137,0.029437962869170047,0.4768394784019729,0
13,2.6333333333333333,-0.789536510438135,-0.1771251802570488,0.5875872439085799,-0.8690372066289858,-0.07305299374508216,0.48932360825875815,0
14,2.8333333333333335,-0.7332956071689242,-0.2263898142541467,0.6411124741484385,-0.8481902518323277,-0.1457066031032915,0.5092571869976039,0
15,3.033333333333333,-0.6564011753848653,-0.5561941774884516,0.5096916066420091,-0.7715039809344009,-0.37712254562230074,0.5124062772700267,0
16,3.2333333333333334,-0.2905960187800247,-0.8774074718036886,0.3817199003094537,-0.5323495015443809,-0.7027063030303522,0.4720252746271795,0
17,3.4333333333333336,-0.005343401973402773,-0.9675960771051528,0.25244658766968836,-0.3240701754814086,-0.8519398453759602,0.4113113434178955,0
18,3.6333333333333333,-0.019927808576945094,-0.9767060649116712,0.21365426560234915,-0.23301743804474784,-0.92678333229699,0.2945768635577977,0
19,3.8333333333333335,-0.6264039120300743,-0.7739672375771729,0.09269764911031357,-0.5066609576771646,-0.8380406381817308,0.2024415044441633,0
20,4.033333333333333,-0.9389562834825312,-0.2658062452952569,0.2184219258012121,-0.8222417332029819,-0.5032068857292645,0.2658972777860116,0
21,4.233333333333333,-0.9019314173419065,0.27585703481747953,0.3322989839787773,-0.9473177806420026,0.03985841447280109,0.31780548968704936,0
22,4.433333333333334,-0.8686734555338067,0.22768202026311993,0.4399628680921377,-0.9116886575536651,0.1451078963290886,0.3844053721150926,0
23,4.633333333333334,-0.8838840256463881,0.1767751931493876,0.43301219416331904,-0.9307598646243863,0.09424116039646144,0.35327705571056073,0
24,4.833333333333334,-0.9415116955011438,0.30556779170652665,-0.14207058775889664,-0.9775565562434962,0.15240976151025737,0.14544567350644436,0
25,5.033333333333333,-0.9594045067861549,0.28200685425130845,0.0038892818998647375,-0.9706938589449063,0.18437406402916603,0.15414161255162565,0
26,5.233333333333333,-0.8975869685242928,0.4251987085439062,0.11637736974156435,-0.9694246544758838,0.1903527530403405,0.15486015854401108,0
27,5.433333333333334,-0.8829287029766602,0.4570861975235753,0.10728053641454185,-0.9568270040484469,0.2546403344784177,0.14014415571258354,0
28,5.633333333333334,-0.7264577682420794,0.686019103010966,-0.04045863646697608,-0.867127045004156,0.49475651777166024,0.05750370374872758,0
29,5.833333333333334,-0.7331682881508457,0.6795471419521276,-0.02607571887127508,-0.7439432745765131,0.6681048931650068,0.013574090811182235,0
30,6.033333333333333,-0.8116201073004522,0.5840463300315039,-0.012754834469105782,-0.7630921875158172,0.6462550219752088,-0.006690285804631814,0
31,6.233333333333333,-0.8330672330476656,0.350074457819823,-0.42830696842856036,-0.8308444236421622,0.5365034748506654,-0.14785656960678276,0
32,6.433333333333334,-0.816277009794558,-0.09044956168521874,-0.5705354678473608,-0.916743080836179,0.20435700184361727,-0.3432496752168588,0
33,6.633333333333334,-0.8269349830149821,-0.06275002879814306,-0.5587852608577317,-0.9309610756832415,0.04298030929398895,-0.36257987888973553,0
34,6.833333333333334,-0.8374775423764677,-0.02098093055859272,-0.5460688295150781,-0.9338866497219026,0.01834387436190055,-0.35709834463995427,0
35,7.033333333333333,-0.8846498058174233,-0.11531109524379272,-0.4517721465306077,-0.9657791128396903,-0.0975729786444683,-0.24031275255597068,0
36,7.233333333333333,-0.9058500512263264,-0.42354352838965625,0.006823800444224915,-0.945176416558434,-0.3228918081323542,-0.04881005862296203,0
37,7.433333333333334,-0.8752769320879814,-0.4826122805266341,0.031235858232690393,-0.9091143461777291,-0.416512283049898,0.005350106765477604,0
38,7.633333333333334,-0.8684636265211457,-0.4924266349938557,0.05733182849315035,-0.8959795998535625,-0.4408040539980865,0.05396612479234044,0
39,7.833333333333334,-0.9488851858021012,-0.30763732182289694,0.07054206111921649,-0.9224305355859911,-0.373451478395202,0.0982644406842051,0
40,8.033333333333333,-0.9579564668643008,-0.2677969645955305,0.10297666408602618,-0.938352401574489,-0.3183460346235367,0.134724061321129,0
41,8.233333333333334,-0.9553493998607088,-0.24241996778260358,0.16893810525179093,-0.9397327402253609,-0.27719086355499706,0.20016893392874271,0
42,8.433333333333334,-0.9718259853580737,-0.11625861361701842,0.20503216562934232,-0.961328522404648,-0.1299232740523489,0.24283207133905288,0
43,8.633333333333333,-0.9558617032974827,0.22427918987152462,0.18980845386812342,-0.9687201965521403,0.06048291746520235,0.24067197071300242,0
44,8.833333333333334,-0.9197062846137625,0.2872412492481172,0.26764307346227023,-0.9590675097048331,0.1010471879928031,0.2645353995731329,0
45,9.033333333333333,-0.9287937204958276,0.26177619969134364,0.2623269830625068,-0.9607815120195129,0.08742430586779669,0.263165113388976,0
46,9.233333333333334,-0.9552839786597631,0.06882620442344997,0.2875682070407556,-0.970142635432123,0.02536036402626807,0.24120555311449596,0
47,9.433333333333334,-0.9318840447323966,-0.1978863245981058,0.3040281725601131,-0.9717770975122748,-0.05771493043141252,0.2287318507683535,0
48,9.633333333333335,-0.9196455226325384,-0.21740264986266417,0.3270905081695548,-0.966139923640385,-0.11631426037026597,0.23031422184196368,0
49,9.833333333333334,-0.9768856339699373,0.10717824956622415,0.18495210451107022,-0.9755784009106566,-0.09605390204501744,0.19753589946774844,0
50,10.033333333333333,-0.9801185589607149,0.09178242000710266,0.1759079240921571,-0.9818218850323917,-0.09667672299827407,0.1633382909845594,0
51,10.233333333333334,-0.9810993219961739,0.05369637883493026,0.1859054041136625,-0.9798550458625277,-0.1299905158945494,0.1516131751372976,0
52,10.433333333333334,-0.8055757450551775,-0.21690525740909558,0.5513617943665394,-0.9284011895903657,-0.21815541670202873,0.3007980141735618,0
53,10.633333333333335,-0.7564516368993397,-0.2271127362664465,0.6133520408850673,-0.8570054221502226,-0.2740758030739328,0.4363761686601336,0
54,10.833333333333334,-0.7281095686920462,-0.2718242201170712,0.62925992192164,-0.8177151295728085,-0.3184405817873147,0.4795180525680779,0
55,11.033333333333333,-0.7144170590148349,-0.3006855532982999,0.6318199615604823,-0.7994873711010978,-0.3463025182774953,0.4908100541803522,0
56,11.233333333333334,-0.78904900504811,-0.23180608033217223,0.568917927959405,-0.7629944806955973,-0.4014899878095152,0.5066016305903202,0
57,11.433333333333334,-0.7369844203727729,-0.3247584421047901,0.5927781359070847,-0.6808818737305866,-0.5145082024570261,0.5212304515562818,0
58,11.633333333333335,-0.732695059015543,-0.3489356509084568,0.5842960397087265,-0.657999449799676,-0.5536194615670366,0.5104333608195576,0
59,11.833333333333334,-0.45540103893561534,-0.7282816194128129,0.5120700895012448,-0.5926168661833213,-0.6322380930933513,0.49907939604510076,0
60,12.033333333333333,-0.24385117125674544,-0.8480194328134107,0.4705312400335763,-0.43769830667165965,-0.7588723766263684,0.48221666119101375,0
61,12.233333333333334,-0.18049002901924238,-0.8554144979743779,0.48547851248008583,-0.25229772028992514,-0.8462520012572889,0.4692583624236654,0
62,12.433333333333334,-0.19996790686865767,-0.827457152600848,0.5247165871518312,-0.22165327257322548,-0.8433532984476065,0.48951510779047624,0
63,12.633333333333335,-0.5594605252540609,-0.534085664335404,0.6338425860052801,-0.33202872109600307,-0.7790864255422887,0.5317718212759044,1
64,12.833333333333334,-0.47903699244599207,-0.569045873519407,0.6683639380598223,-0.4209052732645781,-0.7100136064441978,0.564552415283271,1
65,13.033333333333333,-0.46909396511051354,-0.5682530775564162,0.6760468117997143,-0.43481784469286944,-0.6997298380958451,0.5668435371555455,1
66,13.233333333333334,-0.46138432376290267,-0.5679250872220067,0.6816051650990662,-0.4103190489073102,-0.7164248574033674,0.5642461358293609,1
67,13.433333333333334,-0.4685491732969481,-0.5606807994922648,0.6827142251948916,-0.41497711226989126,-0.7154835674858908,0.5620295908133356,1
68,13.633333333333335,-0.509033201735443,-0.5334922232102709,0.6754785320830905,-0.4529404209409571,-0.6934173902135186,0.5603724636590397,1
69,13.833333333333334,-0.8402462665053938,-0.3813310081458868,0.38545151945502676,-0.5057645666451069,-0.6685315506326347,0.5452226783021888,0
70,14.033333333333333,-0.850760199489724,-0.4142871120437375,0.3233779085816854,-0.6766193047295737,-0.5884786250652388,0.44258244916466644,0
71,14.233333333333334,-0.8101305879747394,-0.44770851111410964,0.37847789830278133,-0.747918821682894,-0.5170212871685613,0.4163008825201261,0
72,14.433333333333334,-0.8190547114615386,-0.44044936703823584,0.36763260833102607,-0.7861807251401501,-0.476805630235244,0.3931618730168019,0
73,14.633333333333335,-0.9568974481119732,0.2431980716959406,-0.15875128887719206,-0.9267183595457896,-0.26724179654785396,0.26414939761172396,0
74,14.833333333333334,-0.9915316649846071,-0.11799106914990938,0.05425002243054025,-0.9511496262763581,-0.20156020831929275,0.23385437959685051,0
75,15.033333333333333,-0.9896073124760825,-0.13382808744920885,0.05260617932859652,-0.9583223599037013,-0.18105305333711055,0.22099331751415116,0
76,15.233333333333334,-0.858880336108369,0.4996001012809743,0.1128020702222051,-0.9699738616548943,0.11214128153673246,0.21581251280125333,0
77,15.433333333333334,-0.830334558265651,0.5461346336322818,0.11082185387873501,-0.8857545133027924,0.42889879220865074,0.17743947758515885,0
78,15.633333333333335,-0.7840548375407479,0.6107065386534645,0.11088523515264004,-0.8032867721301263,0.5736156665674724,0.16029793756975455,0
79,15.833333333333334,-0.5105732751853981,0.8597776016404962,0.009869467248641801,-0.6942768696563812,0.7065404449385694,0.1370409717060745,0
80,16.033333333333335,-0.46867952480924086,0.877580321274414,0.10095683600668431,-0.6208020333888918,0.7754885525578311,0.11498843503577975,0
81,16.233333333333334,-0.4320742820349874,0.884729489595939,0.17483004616844233,-0.5895966417418214,0.7957081532545375,0.13865184777355205,0
82,16.433333333333337,-0.45912414129454104,0.8451286591845881,0.2737929369165877,-0.6190213008135576,0.7581883386825178,0.20484890096101313,0
83,16.633333333333336,-0.483830480415195,0.7051106840022431,0.5183888400873334,-0.643408783656162,0.6942142237802361,0.32263252876190657,0
84,16.833333333333336,-0.39887556509510336,0.6753941031480817,0.620275010783814,-0.5791829096494058,0.6986868223668444,0.41998081077707583,0
85,17.033333333333335,-0.38840823721927864,0.6788444856367457,0.6231446104884445,-0.5536069692400389,0.6999393519221931,0.45122525111035044,0
86,17.233333333333334,-0.4301090648364931,0.6600465196829993,0.6159097208194051,-0.5837088274059811,0.6688071697698016,0.460413916463048,0
87,17.433333333333337,-0.6094281409073965,0.5977748206946555,0.5208287672677336,-0.6313026940878432,0.6219821211562289,0.46324415743690617,0
88,17.633333333333336,-0.6478697583443783,0.5639970418770526,0.5120274533428177,-0.6904077982356971,0.5639090644369148,0.4531485840000176,0
89,17.833333333333336,-0.6826536649781539,0.5323765991385225,0.500558818103922,-0.7172413565731046,0.5321890681771125,0.4498217781899286,0
90,18.033333333333335,-0.557759688242387,0.7148043822401926,0.42185166267536767,-0.7247869928791336,0.5253226016882683,0.4457801914718645,0
91,18.233333333333334,-0.5770137150882038,0.7031626151069666,0.4154726336547827,-0.7499391040181888,0.5041395043898041,0.42829277413703754,0
92,18.433333333333337,-0.8546221523798925,0.3093307733806234,0.4170556908870871,-0.8220752987543363,0.4047288593894929,0.40048315015147506,0
93,18.633333333333336,-0.9020958237597321,-0.1739145094791971,0.39493906890539526,-0.9282288446721901,0.029225643865528797,0.3708599110974068,0
94,18.833333333333336,-0.7569528475568081,-0.5406958927642962,0.36697457421933244,-0.8463462413323734,-0.31580057508749476,0.42891495259197004,0
95,19.033333333333335,-0.7353874940574453,-0.5957672544154305,0.3229034099389643,-0.7369029462138554,-0.5303532410426469,0.4191652270607621,0
96,19.233333333333338,-0.7292760553784008,-0.548485859186017,0.409047304507311,-0.6602507367589595,-0.6361598319607585,0.3992112633793176,0
97,19.433333333333337,-0.7544641967815683,-0.5054165841147827,0.41873362926386465,-0.6812256259754561,-0.608307690306244,0.4073001355617632,0
98,19.633333333333336,-0.748196812643565,-0.4589393103558901,0.4791411472208065,-0.684339662883803,-0.5712941066083635,0.4531029348378082,0
99,19.833333333333336,-0.7386654242298283,-0.44364162243357613,0.5074992629471223,-0.6783386132063628,-0.5641641835717133,0.4707180682830549,0
100,20.033333333333335,-0.5116874380879745,-0.7127012073508658,0.47982596297364316,-0.5936890203804583,-0.6496523451552737,0.4748527956261238,0
101,20.233333333333338,-0.46320962766114093,-0.7373081902287053,0.491745333952137,-0.5202966285630013,-0.7121689883474669,0.4712820284523059,0
102,20.433333333333337,-0.7878954559605591,-0.34577611701967736,0.5095680792352457,-0.6568060022086691,-0.5872633989941918,0.47299849435749214,0
103,20.633333333333336,-0.7938406095320252,-0.3075978504998544,0.524595700540609,-0.7227720918708632,-0.4913926019740136,0.4859360183582048,0
104,20.833333333333336,-0.7843763056929396,-0.34091191860031456,0.5182015774037636,-0.7321908997746197,-0.47630789303301024,0.48685447242650176,0
105,21.033333333333335,-0.7680981406167395,-0.3765675044701942,0.5179016904376715,-0.7211393892646332,-0.48520953103545467,0.49449943603950297,0
106,21.233333333333338,-0.7613252107735918,-0.5661847311998776,0.31594109197233006,-0.7020041495998138,-0.5286870934244261,0.47715839214151395,0
107,21.433333333333337,-0.7360355149365412,-0.6309712298143837,0.24520813179547113,-0.6736556001287248,-0.622695713355694,0.39804293861799783,0
108,21.633333333333336,-0.7345550824784667,-0.6297717845976275,0.25261894253949485,-0.6661191799228672,-0.644000087613625,0.3762301493667545,0
109,21.833333333333336,-0.9271625141613886,-0.2559423931353185,0.27361133699117673,-0.6993189758535991,-0.6275281588963418,0.34228844532534397,0
110,22.033333333333335,-0.9435651729028518,-0.21532525813088063,0.25163425382026416,-0.8283443928258886,-0.5005522398907114,0.2515810446243943,1
111,22.233333333333338,-0.9495188822338507,-0.22991187135413335,0.21343482305336015,-0.8784662730101266,-0.4491357368001448,0.1630156345651817,1
112,22.433333333333337,-0.9412506417076276,-0.23986621586540294,0.23772132418315148,-0.8956002419022763,-0.4187887955913886,0.15005382831403627,1
113,22.633333333333336,-0.9814670069039594,-0.12682914150194383,0.14365543228455904,-0.9044699089325019,-0.4001745128202592,0.1476297501342471,1
114,22.833333333333336,-0.9582139061464761,-0.24955323813592306,0.1398187805818224,-0.9015522493355543,-0.4060317014261977,0.14947173363197985,1
115,23.033333333333335,-0.9501513521395739,-0.27995060818854767,0.13725911628085694,-0.8974428162463498,-0.4167801469289899,0.14453615704615214,1
116,23.233333333333338,-0.9315762330811315,-0.3420317077037266,0.12320727609862218,-0.876436450402481,-0.46484905330613646,0.12559660045673424,1
117,23.433333333333337,-0.8323359628043243,-0.5082824348475833,-0.22105612737042873,-0.8357221233410785,-0.5468698174722966,0.050019349217040605,0
118,23.633333333333336,-0.8279154777067684,-0.5051288676338805,-0.24372277049239183,-0.8276497668839499,-0.5611818253198984,-0.008415599061913038,0
119,23.833333333333336,-0.8282898265613837,-0.5146317725797487,-0.22156286210991932,-0.8263830247973879,-0.5629051932930869,-0.015127448244578586,0
120,24.033333333333335,-0.8187511905836028,-0.5411175907133946,-0.1919329073881404,-0.7972424455223006,-0.6036582874395725,0.0010747386398941106,0
121,24.233333333333338,-0.27587952457007225,-0.9444890243698206,0.17841236158947976,-0.47832089271857114,-0.8750269210050448,0.07441109531071294,0
122,24.433333333333337,0.010065772384818483,-0.9937733554404993,0.11096485138469905,0.0003902565439609096,-0.9937800776269152,0.11135979980079111,0
123,24.633333333333336,0.4962357328336544,-0.8660319569606049,0.06114529403013009,0.29128410367161556,-0.9515181995314819,0.09882654961391013,0
124,24.833333333333336,0.504293839838558,-0.8612599506084672,0.06260208126559318,0.39334339226755516,-0.9160493746363942,0.0783231701843292,0
125,25.033333333333335,0.13424944035449343,-0.9837989317223667,0.11881392892433094,0.21229940499198824,-0.9728315218597531,0.09234604873022395,0
126,25.233333333333338,-0.3291937714239027,-0.9361852911542133,0.12324188201341145,-0.3152395117459358,-0.9466620239776907,0.06674625527058851,0
127,25.433333333333337,-0.7705598604734217,-0.6312777390182508,0.08789719931366459,-0.6183995876163705,-0.7838585553921356,0.05610450226548155,0
128,25.633333333333336,-0.7126032203275295,-0.6936284707286381,0.10524350323647239,-0.6237481067284321,-0.7783243455924977,0.07176010319604284,0
129,25.833333333333336,-0.6312507705235381,-0.7670158115945078,0.11493132504873475,-0.5530547490722925,-0.8287370674140772,0.0855880693934574,0
130,26.033333333333335,-0.32342280574827464,-0.9418167072663561,0.0915367611174472,-0.3410089077288189,-0.936669906744535,0.07976472057734395,0
131,26.233333333333338,0.15430161142156823,-0.9845166634356893,0.08317422755977409,-0.11528909099055235,-0.9894893062607337,0.08728882112976401,0
132,26.433333333333337,0.36687276137944735,-0.924523271759993,0.10325258801607476,0.10774933279339677,-0.9880459742871128,0.11025077767348382,0
133,26.633333333333336,0.4005808374068994,-0.9124665772596785,0.08330509039905425,0.17173617037687783,-0.9783482533736497,0.11550490424658737,0
134,26.833333333333336,0.2952088561201822,-0.9510901104100017,0.09099084101438287,0.06407231588270296,-0.988389326932265,0.13777255439241773,0
135,27.033333333333335,-0.41018245889669463,-0.8907862689167871,0.19557651577521096,-0.1176411731770165,-0.9761537961817549,0.18243990948661493,0
136,27.233333333333338,-0.42145315809556805,-0.8841343092989352,0.2017021533146522,-0.20982184967058215,-0.9551240886321699,0.20907598311471004,1
137,27.433333333333337,-0.3328740470287827,-0.9250527749814742,0.18295418091356716,-0.2579520625477247,-0.9386189646701839,0.2290309424266668,1
138,27.633333333333336,-0.44950471818857596,-0.8227781133361981,0.3478242150011054,-0.27868558900468815,-0.9229184707593439,0.2656234907013014,1
139,27.833333333333336,-0.40682378149999154,-0.8522516520559146,0.32887920635700224,-0.30856011335700734,-0.9014909468335296,0.30348760966849553,1
140,28.033333333333335,-0.39466606627843814,-0.8603657639451547,0.3225049586585827,-0.31091424033124604,-0.9003204107064423,0.3045578651498386,1
141,28.233333333333338,-0.35752367304904653,-0.8831285071336821,0.3037447334479279,-0.30124348102128995,-0.905070248808502,0.30016696997486636,1
142,28.433333333333337,-0.2933827774174375,-0.9166020279626809,0.27160130384357783,-0.2474863233306711,-0.9299336040123523,0.2719816388892168,1
143,28.633333333333336,-0.31224200042091693,-0.9126690725419407,0.26370456423539196,-0.2684947847402619,-0.9272718987124524,0.2609164165503653,1
144,28.833333333333336,-0.31611901754553784,-0.9130077455986694,0.2578480622825767,-0.2757411917832837,-0.9273494308012387,0.2529621085193461,1
145,29.033333333333335,-0.08589672202459842,-0.9963007670471261,0.002556311158085169,-0.25040938340442775,-0.9424441448669104,0.22157205263546345,1
146,29.233333333333338,-0.10378436968276294,-0.9945267442978267,-0.012056512178770191,-0.26533164654886016,-0.945224217026913,0.19013231415393475,1
147,29.433333333333337,-0.7443835141045206,-0.6653721340818997,0.056330339220560924,-0.46936889003881904,-0.875253512963113,0.11672246188912097,0
148,29.633333333333336,-0.8052189792438762,-0.5872697271098334,0.08207717761833902,-0.6677303487342562,-0.7375292885590568,0.100929331201592,0
149,29.833333333333336,-0.8275267492437034,-0.5503057434448759,0.11118933410058435,-0.7205053391590072,-0.6821643963887296,0.12459451249137865,1
150,30.033333333333335,-0.8829168230812572,-0.3843625011018078,0.2696726743050968,-0.772509594664378,-0.6107079521171357,0.17396759287974523,1
151,30.233333333333338,-0.8077037784416482,-0.5287551518625785,0.26083058806410436,-0.7703747578751332,-0.5991928908692542,0.21792340847319785,1
152,30.433333333333337,-0.6652509537386306,-0.696678777645422,0.2684769065084062,-0.7200042639296066,-0.6533702642870707,0.23388278617424862,1
153,30.633333333333336,-0.6227001826564615,-0.7390427255495935,0.25702204639259646,-0.6753753387921648,-0.7003248854723038,0.23111297354231977,1
154,30.833333333333336,-0.6446050689145768,-0.7255810941592813,0.24086589822607452,-0.6988009533023934,-0.6799945193273547,0.2220015345632243,1
155,31.033333333333335,-0.8896529676466749,-0.3795962262111444,0.2538194283417294,-0.7293202271145485,-0.6478965722967985,0.21982274206196897,1
156,31.233333333333338,-0.9043276478668687,-0.34184291961239394,0.25560697098172275,-0.7755003146271819,-0.5916719725578232,0.220280591298182,1
157,31.433333333333337,-0.7794170028750016,-0.6242731886195308,0.05284052990038766,-0.7906314749445612,-0.5783339988787518,0.20107624565795895,1
158,31.633333333333336,-0.7736201020352768,-0.6327919872651798,0.032958133744384555,-0.7819385033575293,-0.600361924774198,0.16774306617087736,1
159,31.833333333333336,-0.7765378164238039,-0.6287816088302138,0.04028285070149112,-0.7769742422095733,-0.6076683487441924,0.1644694648783359,1
160,32.03333333333333,-0.7780329066527305,-0.6276008901264993,0.027962812410946673,-0.7742824194117772,-0.6118320281339689,0.1617043732844567,1
161,32.233333333333334,-0.7940497064127419,-0.6078483017186782,-0.0023464533997599145,-0.7912137237329596,-0.5958468801687422,0.1376493326166184,0
162,32.43333333333333,-0.8335133816685536,-0.5372241601088228,-0.12901800019695728,-0.8466469881274331,-0.5319448728616761,-0.014950910705422248,0
163,32.63333333333333,-0.9396678425012628,-0.2158768166166651,-0.2653705820479671,-0.8746551078186071,-0.43819064636118005,-0.20728579258693033,0
164,32.833333333333336,-0.7707394887162068,-0.2620908467925738,-0.5807486793450605,-0.8975791826715717,-0.3450691410801507,-0.27437000329635236,0
165,33.03333333333333,-0.7227737056749386,-0.2865661994135663,-0.6288704029755111,-0.8724129163932787,-0.3495822848070713,-0.34159614965517726,0
166,33.233333333333334,-0.700906975902516,-0.36018688519963377,-0.6156255508516323,-0.8349721995322842,-0.41473994388722757,-0.36167969939248606,0
167,33.43333333333333,-0.6406522364139038,-0.474904271232611,-0.6033495215402815,-0.747669588850114,-0.5538304695944501,-0.36641779003958364,0
168,33.63333333333333,-0.5541872124155358,-0.5937216961200276,-0.5834133021721871,-0.6459162212710698,-0.6776980630931349,-0.3514506656398823,0
169,33.833333333333336,-0.58521338680916,-0.6095358757993982,-0.5347815516758343,-0.5638220461888898,-0.7548052446639586,-0.335221930755068,0
170,34.03333333333333,-0.5499285644334536,-0.6940885805732406,-0.46456389909030277,-0.5520157503975438,-0.7760708943640008,-0.30494684493218904,0
171,34.233333333333334,-0.5109618284192076,-0.7362064192075822,-0.4437545697973714,-0.5058865530279328,-0.8151122986349356,-0.28226005044920555,0
172,34.43333333333333,-0.09841536275595364,-0.8379023193907214,-0.5368743982844251,-0.31277805051243124,-0.8996927372147427,-0.30450430164562087,1
173,34.63333333333333,-0.24047645868033177,-0.8327284480375496,-0.49873279885078825,-0.2871584771909296,-0.908143458205868,-0.30465631176011027,1
174,34.833333333333336,-0.22654413013207894,-0.841155114661796,-0.49105583204051345,-0.26112187890292154,-0.9151665203656337,-0.30705961043430297,1
175,35.03333333333333,-0.23364836692603905,-0.8398331951820688,-0.48998841302940227,-0.267350129890519,-0.9141292115045496,-0.3047813851297239,1
176,35.233333333333334,-0.25373396862777475,-0.8272565122702626,-0.5012641380258915,-0.30906382551540623,-0.9051412546106161,-0.29188843923612806,1
177,35.43333333333333,-0.47712442555939394,-0.7410474485787023,-0.4724414900171389,-0.3719815820513857,-0.8811923407523874,-0.2917700485208803,1
178,35.63333333333333,-0.4743866942813667,-0.7478502894871334,-0.46441060367180265,-0.4092397151397492,-0.8656220786701757,-0.2884809741925133,1
179,35.833333333333336,-0.4619648432112683,-0.7576013152459069,-0.4611168298538457,-0.4242147904691674,-0.8590053070019472,-0.28662116825121464,1
180,36.03333333333333,-0.44611276315466447,-0.7739982070403777,-0.4493441643649013,-0.4254899007771845,-0.8622039917729911,-0.27488656007040785,1
181,36.233333333333334,-0.4541694231767633,-0.7787971618636501,-0.4326720648764024,-0.44893191113175523,-0.8553000781776868,-0.25869270464555505,1
182,36.43333333333333,-0.45519193113710255,-0.7820120202090064,-0.4257434744964439,-0.46605381218644615,-0.8478686144461359,-0.2528095266869326,1
183,36.63333333333333,-0.36379442926657585,-0.8395805842771455,-0.4034328391931595,-0.47077208958576816,-0.8463977681679362,-0.2489667803289949,1
184,36.833333333333336,-0.3705454528087603,-0.8518621286342059,-0.3701715564458598,-0.4769967936938488,-0.8463497304420529,-0.23699407711259896,1
185,37.03333333333333,-0.38796686032266237,-0.8544429153180794,-0.34555610218040955,-0.498042488325344,-0.8400331920667237,-0.2151695053879402,1
186,37.233333333333334,-0.5037659369630012,-0.8078352024933237,-0.3059773951918029,-0.6254050705710027,-0.7627264853487474,-0.16467181377402176,0
187,37.43333333333333,-0.9897863526457346,0.1298945166979016,0.058740025945454064,-0.9186170990902514,-0.3949854281278378,0.01136383850994399,0
188,37.63333333333333,-0.9816912057588281,0.16304705659115995,0.0984785960132345,-0.9859888194598616,-0.047553002784667224,0.15988983653225014,0
189,37.833333333333336,-0.9786028114138481,0.18958273391994762,0.0799682717854455,-0.9808416094360932,0.08270099483808892,0.17638107226004943,0
190,38.03333333333333,-0.96461214777226,0.2611591331493511,0.03632232843400178,-0.9778739597832832,0.12452185287916039,0.16809767081462734,0
191,38.233333333333334,-0.9328766458843826,0.3582556187719294,-0.0373373162110844,-0.975895549717285,0.15608625479780075,0.15252854521431108,0
192,38.43333333333334,-0.9353398011207781,0.35190100228513616,-0.0361267356684817,-0.9784766656761867,0.14763049782877638,0.14418269951017043,0
193,38.63333333333333,-0.9295513193596723,0.3679752749831513,-0.02299003431417823,-0.9751377917208981,0.16629654326304913,0.14646414870694924,0
194,38.833333333333336,-0.8741496856838166,0.4855457562996211,0.010375237747351418,-0.9370655296250011,0.3076729609169136,0.16506223768395975,0
195,39.03333333333333,-0.8001281452562583,0.5995975889773805,-0.016663806926762913,-0.8888119011734187,0.4411437026592396,0.12411945027508588,0
196,39.233333333333334,-0.8358266003902526,0.2640778831380055,-0.4813073505748928,-0.9057331002376576,0.41436014838114804,-0.0891808195041654,0
197,39.43333333333334,-0.8311189325820862,0.2733925134104662,-0.48424978421752773,-0.927384629256969,0.3060637440737971,-0.215134223175773,0
198,39.63333333333333,-0.6663704893819316,0.2878086734735162,-0.6878346737074978,-0.8858748559276257,0.30401184815241605,-0.3504319275096958,0
199,39.833333333333336,-0.6626038643671335,0.2985408192557192,-0.6868984627758788,-0.7762026269622915,0.391044132278698,-0.4945644230100243,0
200,40.03333333333333,-0.5546332641288582,0.012987323090231625,-0.8319935527158357,-0.6795839465416589,0.32638778835416804,-0.6569906172968827,0
201,40.233333333333334,-0.5627409287864062,-0.04143827572986675,-0.8255940384796566,-0.6910396103464069,0.21753022912433675,-0.6893075194348312,0
202,40.43333333333334,-0.6374128252417779,0.3736829099579674,-0.6738441756241872,-0.7258440648724126,0.20079617714272655,-0.6578991478443791,0
203,40.63333333333333,-0.6274633888097685,0.4341975667272916,-0.6463452395983597,-0.7328597831559376,0.2756724190976404,-0.6220299474956872,0
204,40.833333333333336,-0.5364676299360103,0.6348606608956188,-0.5560165674492249,-0.7084535851093842,0.3893997212568178,-0.5886096965143995,0
205,41.03333333333333,-0.799703705230856,0.12428001314204846,-0.5873912343348788,-0.7019646005180635,0.40812406789958405,-0.5836783744671472,0
206,41.233333333333334,-0.8292925977217102,0.021519391657190346,-0.5584001281757395,-0.805032361770087,0.20586869216728015,-0.5563640697315111,0
207,41.43333333333334,-0.8727505148661158,-0.001486071456614728,-0.4881642453033157,-0.8717302014479738,0.15150357329411898,-0.46597545339061497,0
208,41.63333333333333,-0.9009188600444662,0.42964237016749585,0.06125880649372797,-0.9491812053814963,0.2429278211717077,-0.200102756231134,0
209,41.833333333333336,-0.8038240519524269,0.5865882220945335,0.09889970274351961,-0.9146669079961876,0.40379304203956046,0.01832011509602295,0
210,42.03333333333333,-0.8131959532096225,0.5793564935722046,0.055302757971131856,-0.8312059825906941,0.5257128205295221,0.18089401547959869,0
211,42.233333333333334,-0.7894349397836795,0.6117727285666504,0.05026534025403244,-0.763196796114962,0.6071967260841907,0.2210040412130454,0
212,42.43333333333334,-0.560549319333885,0.7345214351446512,0.382443096299777,-0.7115711083742943,0.6307177374432208,0.30961539593741627,1
213,42.63333333333333,-0.5041437529592612,0.7586766871081078,0.4126121190547099,-0.6335350236859739,0.6723890284753256,0.3827876279991558,1
214,42.833333333333336,-0.5138083678632595,0.7572326522823686,0.4032364956586928,-0.6137193630671082,0.6780282680354501,0.40450736846360524,1
215,43.03333333333333,-0.5092683312724773,0.7540535927520864,0.41478783253684925,-0.6069919666005054,0.6780249507475076,0.4145394054203907,1
216,43.233333333333334,-0.5163949673667644,0.7473390055080708,0.4181155923001274,-0.6177898346243931,0.6708605146960855,0.410221757171007,1
217,43.43333333333334,-0.69623049367677,0.7012645022401373,0.1532683841256693,-0.6437641786817402,0.6580023500512938,0.3906412543155159,1
218,43.63333333333333,-0.7046040933252096,0.7022827778796349,0.10164630619468078,-0.6655406191101123,0.6628322044659232,0.3430876754378871,1
