,timeStamp,x_gaze,y_gaze,z_gaze,x_head,y_head,z_head,fixations_head
0,0.033366700033366704,-0.9989762595957585,-0.04495868668715181,-0.005014903332506547,-0.9637766079556445,0.17281235745839738,0.20315151751139587,0
1,0.2333667000333667,-0.999932215627086,0.008970940404953573,-0.007422019897405908,-0.9564865295182614,0.21249426845381608,0.19994925537343164,0
2,0.43336670003336675,-0.9294132430669676,0.36495176071227375,0.054783537351593616,-0.9513975387339947,0.2293335740526985,0.20554521425494907,0
3,0.6333667000333668,-0.9119590120691241,0.39653957883123636,0.10529540695706022,-0.9371698995410382,0.2720091263524562,0.21845735184519097,0
4,0.8333667000333668,-0.8812640715198637,0.4535569136385794,0.1328900385238827,-0.9083418119987512,0.35132752246802357,0.22690113382551874,0
5,1.0333667000333666,-0.6240782614859548,0.7653780073745422,0.15723494957560666,-0.8478825218610514,0.4815812270075278,0.22175380699430638,0
6,1.2333667000333668,-0.5977923366858067,0.7863671857474632,0.15579143551343885,-0.7724274297739748,0.5986431510044374,0.21209017772695019,0
7,1.4333667000333667,-0.5829893801896467,0.7989338433303502,0.1477433469483059,-0.7254901513664314,0.656376238866965,0.20696442525509023,0
8,1.6333667000333667,-0.7880138424597579,0.6131098033051171,-0.05595134656975059,-0.7132204806697621,0.671780941384603,0.2000672705507094,0
9,1.8333667000333667,-0.7981219950590434,0.5994528934566078,-0.06047734724236399,-0.7247926225466279,0.6615414452459225,0.1924540738044216,0
10,2.033366700033367,-0.825548480921841,0.5474380952300749,-0.13704465527158843,-0.7816950659726818,0.6158619089266618,0.09832056228059827,0
11,2.233366700033367,-0.791536475839277,0.2642463403515066,-0.5510389088138639,-0.8379848315723738,0.516486553369594,-0.17613364880969828,0
12,2.433366700033367,-0.6544903118549724,0.1175847746755005,-0.7468709744343349,-0.7603389568415901,0.3058257379783734,-0.5730229390687827,0
13,2.633366700033367,-0.40474898529017866,-0.019639832904170262,-0.9142168976069448,-0.5818702326105328,0.15147785495712981,-0.7990503687874446,0
14,2.833366700033367,-0.20564568336308475,-0.08668074523460731,-0.9747801297316757,-0.43422730652204966,0.06954881233904381,-0.8981144743142907,1
15,3.033366700033367,-0.04176494060395582,-0.0038983208979107863,-0.9991198590912528,-0.3257844003471304,0.036818662606365994,-0.9447268973488262,1
16,3.233366700033367,0.14181713877655316,-0.031267995381077836,-0.9893989142980102,-0.29297065136978473,0.027633554285440443,-0.9557220224068907,1
17,3.433366700033367,0.12430682243955411,-0.01620608237825891,-0.9921114739730261,-0.29207290629576405,0.03244535292435876,-0.9558455505370936,1
18,3.633366700033367,0.10570676925265253,-0.10374576058711028,-0.9889706244850595,-0.29236538244957555,0.027741594134857158,-0.9559042248572661,1
19,3.833366700033367,-0.1383016603320564,-0.24210358466161674,-0.9603429101333504,-0.3174904878738698,-0.022492221510671883,-0.9479946677493115,1
20,4.033366700033366,0.1894272462270847,-0.1758926810907375,-0.9660119477136585,-0.3657229619418291,-0.12903031627066994,-0.9217363465718309,0
21,4.233366700033367,0.09531434252249825,-0.4504601221830653,-0.8876941221120721,-0.3595353229050301,-0.2121862576508423,-0.9086866036471024,0
22,4.433366700033367,0.1420883112271614,-0.4546918194015016,-0.8792418672822433,-0.32630694284891026,-0.3130386099244157,-0.8919252254226178,0
23,4.633366700033367,0.1315141940288901,-0.5048395726095752,-0.8531359930845214,-0.27945260189624604,-0.4178217074468857,-0.8644832352796599,0
24,4.833366700033367,0.15196783936233516,-0.42406274433915236,-0.8927914452228417,-0.16676137728418705,-0.5066018866245996,-0.8458990315130273,0
25,5.033366700033366,0.1526045418723307,-0.40546562717681583,-0.9012821306217313,-0.08620588321768236,-0.5340583355280356,-0.8410411642432752,0
26,5.233366700033367,0.17723831209722407,-0.4117672448436804,-0.8938871946721083,-0.004118968280103719,-0.571489382320508,-0.8205991225898502,0
27,5.433366700033367,0.13168543300090313,-0.29631150838323184,-0.9459695749520799,0.09543145952501825,-0.543611243861609,-0.8338942691253846,0
28,5.633366700033367,0.27490051441636254,-0.19851327108405645,-0.9407561790268123,0.19576831104611114,-0.5173465280278573,-0.833083032072839,0
29,5.833366700033367,0.26627082440601435,-0.1583308278425493,-0.9508055516375756,0.23963138758305103,-0.4586945378381426,-0.8556729042353008,0
30,6.033366700033366,0.22374439261667342,-0.14835585712601282,-0.9632907071227261,0.2720556181403829,-0.41898723499055024,-0.8662767672939332,0
31,6.233366700033367,0.15033863334257697,-0.21113192124053512,-0.9658269033103019,0.3143120968626017,-0.3823694004314222,-0.8689082502655557,0
32,6.433366700033367,0.21246058039995744,-0.010898408299317607,-0.977108861116639,0.3336884479799962,-0.3360654997457098,-0.8807451388258511,0
33,6.633366700033367,0.06658985529768771,0.06368036967768087,-0.995746253665635,0.31382795178799977,-0.25681517029318573,-0.9140886089345118,0
34,6.833366700033367,0.05908858649099679,0.06851920192248627,-0.9958984174675658,0.29574073501152187,-0.2138203772473858,-0.9310307534816618,0
35,7.033366700033366,0.042514489813973044,0.04853387501896322,-0.9979163197039628,0.2878267777354868,-0.23382671158289015,-0.9286984521192759,0
36,7.233366700033367,0.3015206815644566,-0.3053998472334769,-0.9032254490982166,0.3268881001897451,-0.281230632030313,-0.9022491349744651,0
37,7.433366700033367,0.35953847143099327,-0.4366389556595288,-0.8246687274061147,0.3721531752070981,-0.3828590337918739,-0.8455299961723581,0
38,7.633366700033367,0.423072537712798,-0.543980843253983,-0.7246340248745838,0.4293094207103875,-0.5047735830359114,-0.7489306050352063,0
39,7.833366700033367,0.42287703815811495,-0.7459347327519621,-0.5145448329085419,0.47344977362097596,-0.6120987077818538,-0.633388098869904,0
40,8.033366700033367,0.54593908698409,-0.8209554637324609,-0.1672801239561905,0.548553996286367,-0.7321428415677779,-0.4038011549009193,0
41,8.233366700033368,0.5378679755277725,-0.8426525001896309,0.025195333413545996,0.5745187873028614,-0.8100227551685852,-0.11743636210792414,0
42,8.433366700033368,0.5588739598840704,-0.8214855451465174,-0.11323160371039426,0.5706846606538061,-0.8151058987779392,0.09960618390370307,0
43,8.633366700033367,0.6440609716644402,-0.7250059964848723,0.2440323131055283,0.6188624945196761,-0.7499318559866827,0.23369087327761237,0
44,8.833366700033368,0.6467452951715541,-0.7021252211947846,0.2978937678697469,0.6243886681814663,-0.6626643785952856,0.4135392513262787,0
45,9.033366700033367,0.4593617332722026,-0.5954282636290046,0.6591297147579577,0.558211964244901,-0.6266903628939987,0.5437449696591574,0
46,9.233366700033368,0.24751336130997126,-0.6108081600380115,0.7520974189584875,0.44750210845447846,-0.6528182778260966,0.6112038604794361,0
47,9.433366700033368,0.09736977484430798,-0.5875873821826557,0.8032808943616814,0.24685621187784285,-0.6762780876859623,0.6940532823732914,0
48,9.633366700033369,0.06104802953609251,-0.5800164676704062,0.8123140004461976,0.2088210567980581,-0.6735772178031938,0.7090045824211936,0
49,9.833366700033368,0.2562626166745104,-0.6777468496677608,0.6891942244828801,0.2502640341967393,-0.6628698060581211,0.7056709809847944,0
50,10.033366700033367,0.3908708608353206,-0.6306849378883203,0.6704151544160242,0.37032413895464955,-0.6135909827959191,0.6973995540140785,0
51,10.233366700033368,0.6317237521019332,-0.4910567780222114,0.5998235922241638,0.5019290435926038,-0.5492536751045092,0.6681224704965434,0
52,10.433366700033368,0.8094973740358226,-0.3903823309637717,0.4385380680173618,0.6421897143819766,-0.4808637495521017,0.5969609912789022,0
53,10.633366700033369,0.8397263741351895,-0.26182726064618433,0.47571640939143867,0.7195829053981002,-0.38356403230795394,0.5788601518315906,0
54,10.833366700033368,0.7596506241747413,-0.10805528826196484,0.6412916527365294,0.7429222538942718,-0.29680297390524557,0.5999787657489699,0
55,11.033366700033367,0.727130686701922,-0.06034138517866116,0.6838420005316375,0.7188698371589736,-0.21601030029554907,0.660731191475972,0
56,11.233366700033368,0.444722575453249,-0.10658043754135783,0.889304470480005,0.6405784447438867,-0.17421701501444348,0.747868763760702,0
57,11.433366700033368,0.2158103302289118,-0.22081557311466482,0.9511395187019256,0.5319432225478198,-0.2140297941890467,0.8192848437416839,0
58,11.633366700033369,0.15726109881604647,-0.28740362233354916,0.9448111476209015,0.4060798363031603,-0.3374921966388727,0.8492338804804408,0
59,11.833366700033368,0.09177421917082554,-0.2683517983786599,0.958939416752969,0.27044187406693593,-0.411874374463663,0.8701842864654189,0
60,12.033366700033367,-0.03441779441744167,-0.28383928483497245,0.9582539724998849,0.13452059173523853,-0.4311528881266322,0.8921947082667915,0
61,12.233366700033368,-0.10498718743403257,-0.2545445145398936,0.9613452972747832,0.0482796843540448,-0.4286551866332336,0.9021772570016947,0
62,12.433366700033368,-0.16680233616975398,-0.17732522470649628,0.96991378242146,-0.055676782548310585,-0.3801390010656385,0.9232520976168356,0
63,12.633366700033369,-0.22391064964959626,-0.06728731445512402,0.9722841345444825,-0.1903167131149041,-0.2971271643164053,0.9356788962750159,0
64,12.833366700033368,-0.21303918290511206,-0.004088618809829306,0.9770351015922355,-0.26630776828258856,-0.23468506961212912,0.9348813243687657,0
65,13.033366700033367,-0.15733412778488043,0.07153763694387345,0.9849509321456871,-0.29815595781034565,-0.11973640913068251,0.9469774111089903,0
66,13.233366700033368,-0.11124746230171485,0.09135980050173331,0.9895844526788565,-0.3255720968011209,-0.021392900933765665,0.9452751734675781,0
67,13.433366700033368,-0.05206659413601867,0.24364939867613103,0.96846478526575,-0.3461028573711942,0.14973152111652213,0.9261713036493991,0
68,13.633366700033369,-0.0064846960105186535,0.2700252062733605,0.9628314165494813,-0.30162855048589726,0.2864084828556515,0.9093901244680967,0
69,13.833366700033368,0.022213985199676975,0.29469173351201716,0.9553341410528733,-0.2496978641743417,0.3581243561384464,0.8996654501353242,0
70,14.033366700033367,-0.03911081261979077,0.3559035229458739,0.9337039288184107,-0.17812549396542265,0.4037154618234284,0.897376807302412,0
71,14.233366700033368,-0.05766206359759045,0.41085786774644456,0.909874111584956,-0.17425130121393193,0.4890132108723205,0.8546944270425514,0
72,14.433366700033368,-0.03956500837456853,0.5213836616442614,0.8524046500827777,-0.16032573407859935,0.6180347963221529,0.769628903775835,0
73,14.633366700033369,0.03384414697962981,0.5394578006730887,0.8413321906406382,-0.08631318494767543,0.6697625560602198,0.7375419666729952,0
74,14.833366700033368,0.17313142338908977,0.9166287829903383,0.3603015187713185,0.0699043629185061,0.767194457757338,0.63759394918034,0
75,15.033366700033367,0.19198834920339802,0.9670326332692517,0.16729722042667433,0.18458705618290056,0.876910264874836,0.4437972578181119,0
76,15.233366700033368,0.34465349529464223,0.9213038593971168,-0.18003657084371485,0.213644191410305,0.9505580117541254,0.22537884942176975,0
77,15.433366700033368,0.3848234942710631,0.9105115341925362,-0.1512601215104741,0.23758953197821336,0.9712475871882641,-0.015143931964607133,1
78,15.633366700033369,0.20210607717806345,0.938003991875038,-0.28160547720914103,0.22229167680840523,0.9707788520418876,-0.09041477119333097,1
79,15.833366700033368,0.1641358534521863,0.9444160481011592,-0.2848468881706657,0.1504853196195794,0.9823523891420518,-0.11107633467978795,1
80,16.033366700033366,0.24652866147045638,0.9387190052375861,-0.24089468296195787,0.13309307535702952,0.9877949742153769,-0.08091552512868856,1
81,16.233366700033365,0.33947665039954816,0.9385727840077435,-0.061941367061576706,0.1754110570479671,0.9841869527185731,-0.024637434197660124,1
82,16.433366700033368,0.30484876792397303,0.9523419105760744,-0.010588392491237079,0.1444633736536945,0.9880703656598571,0.05335996792905199,1
83,16.633366700033367,0.02870141728725939,0.9993175627055747,0.023251613146023826,0.11442435175997223,0.9911360624707447,0.06750091402565143,0
84,16.833366700033366,-0.021050611790027984,0.9975135899109534,0.06725704190810158,0.0498664684331927,0.9903710307723709,0.1291454866918441,0
85,17.033366700033366,-0.5432875747352858,0.8381202162365581,-0.048919467227643273,-0.13627920304358565,0.9804032048957081,0.1422586891828745,0
86,17.233366700033365,-0.5449024053099722,0.8382962799191036,-0.01845848751113931,-0.3335123875532344,0.931182187837081,0.1472046887958694,0
87,17.433366700033368,-0.53671013338927,0.8437302444649215,-0.00784265850564392,-0.5080499806946206,0.8517013352693504,0.12841359981170747,0
88,17.633366700033367,-0.488247451106408,0.8726477659848273,-0.0100151390297939,-0.6027255641899489,0.790506808191231,0.10872387260956272,0
89,17.833366700033366,-0.6204633579400072,0.7834426808095261,-0.03525318907267368,-0.6328647512850532,0.7669452429700186,0.10619416587820053,0
90,18.033366700033366,-0.7370230445184494,0.674719591830514,0.03937644281573298,-0.6519027311658274,0.7503685427564244,0.10940694283332883,0
91,18.233366700033365,-0.7827443638998033,0.6135808819846544,0.10406614264988617,-0.6787131536193518,0.724729758001746,0.11880754593377159,0
92,18.433366700033368,-0.8502439524553961,0.5222956995056329,0.06551659019628714,-0.7335069415921585,0.6687534907482944,0.12139330808610815,0
93,18.633366700033367,-0.9102106352446546,0.41412379986672354,0.004251808023437163,-0.7971076623396499,0.5865732236304413,0.14335699480391986,0
94,18.833366700033366,-0.8980803390529073,0.43931945326136757,-0.021216092777616317,-0.8701356462011831,0.473800445906664,0.13556214319896276,0
95,19.033366700033366,-0.9395566612897878,0.3371598628788215,-0.05963645772110855,-0.9241821456242577,0.35918129358367856,0.12990827552122564,0
96,19.23336670003337,-0.9960346441859513,0.08279426792033771,-0.032559127459149434,-0.957221438263009,0.24493590461033823,0.15405687508972565,0
97,19.433366700033368,-0.9850207302490357,-0.1247027989915623,0.11909396669574081,-0.9756716846045359,0.09830112281737298,0.19596339738275387,0
98,19.633366700033367,-0.933884586449662,-0.3571405544784217,0.017612596020732955,-0.9772373579881051,-0.06679844816789077,0.20135817210828572,0
99,19.833366700033366,-0.8951392614251266,-0.44571809325201317,0.007815625571178281,-0.9555699012008733,-0.2153169362526036,0.20130767715550726,0
100,20.033366700033366,-0.858723732200417,-0.5124246983207038,-0.0038052998203089747,-0.9174922879185272,-0.3447338117098185,0.1984099308856447,0
101,20.23336670003337,-0.7387799912293067,-0.6728024741334255,-0.039255004256361796,-0.8703988931931829,-0.4513735690892957,0.19664096179502624,0
102,20.433366700033368,-0.5876920510789815,-0.8012610821880939,-0.11224407008543949,-0.8113071213810137,-0.5515838131346721,0.1937422305132991,0
103,20.633366700033367,-0.5311675660206037,-0.840662384746771,-0.10558300847967902,-0.7558609377669449,-0.6302880244205306,0.17723218959923495,0
104,20.833366700033366,-0.43475753481639573,-0.8962906843187145,-0.08745796203811815,-0.6691229999046551,-0.7218933067610518,0.17647794381221904,0
105,21.033366700033366,-0.31215375111510296,-0.9454597338136325,-0.0930909630513407,-0.579262981365155,-0.7985134657892102,0.16380062079630847,0
106,21.23336670003337,-0.19512241560991672,-0.9753597923469038,-0.10295881894988716,-0.4737822597687792,-0.8657121336133192,0.1614709634673154,0
107,21.433366700033368,-0.1950632940476848,-0.9635472562612801,-0.1831037855059959,-0.3748757203435353,-0.9143789311457043,0.15290312153044922,0
108,21.633366700033367,0.009764834932874389,-0.9970497815260636,-0.07613396848688991,-0.27739438018424933,-0.9461722878524423,0.16676438331451868,0
109,21.833366700033366,0.06928390548836622,-0.9968292060040729,-0.039131502623445835,-0.18179104231806775,-0.9620856262694565,0.20333043219995026,0
110,22.033366700033366,0.09331556696958998,-0.9744103578754562,0.2044912209024379,-0.08934597166644015,-0.95564853470827,0.28062996179473787,0
111,22.23336670003337,-0.24431668110106974,-0.9232964286566319,-0.2963664356260133,-0.023862776766572447,-0.9158266671476757,0.40086417104322175,0
112,22.433366700033368,-0.2096311288997933,-0.964838188129317,-0.1585624814498539,0.025238789215516533,-0.8546623371734698,0.5185704319917569,0
113,22.633366700033367,-0.16470959668995527,-0.9798084431763319,-0.1133409168773819,0.0687837923181886,-0.828815922633057,0.5552773688025138,0
114,22.833366700033366,0.1602190088659623,-0.8451520547083343,0.5099488931454694,0.12660809085663538,-0.8040018084467873,0.5809918100489313,0
115,23.033366700033366,0.18087870810448337,-0.8937981859337147,0.41037506719591754,0.16059630292319105,-0.823671977539039,0.5438504398309634,0
116,23.23336670003337,0.19363639851112763,-0.9726175017966567,-0.1285306981637874,0.1767511004145188,-0.9261255420062446,0.33324244769521216,0
117,23.433366700033368,0.19903890301181298,-0.8636202545928157,-0.46318848317385225,0.19218367919876445,-0.9806098787207405,-0.03833665615206131,0
118,23.633366700033367,0.1868145153451195,-0.714331267466473,-0.6744117267486609,0.18871520709744627,-0.9400016010857343,-0.28422448973729225,0
119,23.833366700033366,0.17919910629233068,-0.7118828920044772,-0.679051123535903,0.17733177759824065,-0.8986445465226071,-0.40123736074676025,0
120,24.033366700033366,0.15074878352230836,-0.4964459276135675,-0.8548779124661301,0.16864010440574412,-0.8100755741656879,-0.5615497122483022,0
121,24.23336670003337,0.1324550076513363,-0.37815624375824586,-0.9162169646185004,0.1681698901691971,-0.6968813804091755,-0.6971909563953642,1
122,24.433366700033368,0.11152286494610114,-0.35170068984140646,-0.9294456817691351,0.15720079736005316,-0.6490872151031005,-0.7442940927476619,1
123,24.633366700033367,0.11619030981384748,-0.3804242894052427,-0.917484153506685,0.16146179780796166,-0.6473274625158894,-0.7449142528649596,1
124,24.833366700033366,0.11776330204257676,-0.4403074868074159,-0.8900905132363597,0.15812800783856454,-0.6624255180295776,-0.7322485685887362,1
125,25.033366700033366,0.12690465572453835,-0.478968558509371,-0.868610573453312,0.16417918905923415,-0.6736499947294027,-0.7205837067828608,1
126,25.23336670003337,0.17710493126956034,-0.7286797716432921,-0.6615584885086763,0.1694950999000224,-0.6841530334602313,-0.709370169881033,1
127,25.433366700033368,0.1768364505501319,-0.7566296295211071,-0.6294763486324034,0.1731505121313431,-0.7150575723897096,-0.6772824878267479,1
128,25.633366700033367,0.17670050922602476,-0.8201358171512624,-0.544200488299023,0.17583940522241587,-0.7832265514595003,-0.5963528088806878,0
129,25.833366700033366,0.16564189637878785,-0.8741445008259612,-0.456545894560197,0.16487868736146932,-0.8439515061980545,-0.5104516369255705,0
130,26.033366700033366,0.17194173623249193,-0.929914026459282,-0.3251091243500282,0.1762900719704919,-0.9048832195207024,-0.3874379557483847,0
131,26.23336670003337,0.10607236197752695,-0.9901811444759439,-0.09104919081913142,0.17589741572750806,-0.9545781531273324,-0.24050082892247057,0
132,26.433366700033368,0.23497391462354456,-0.9719926145392354,0.004197228569972942,0.17640228388150142,-0.9833269565496756,-0.04416254933925687,0
133,26.633366700033367,0.20986442003439698,-0.834588715379474,0.5093315240242505,0.1849351730620799,-0.9598746902143577,0.21080692789941607,1
