,timeStamp,x_gaze,y_gaze,z_gaze,x_head,y_head,z_head,fixations_head
0,0.033366700033366704,-0.9906857368648875,-0.02457066497861835,0.13393301756842338,-0.9953500747312855,-0.09152394279082839,-0.03002659868259579,0
1,0.2333667000333667,-0.9497324000870067,0.18908268154127364,-0.24951173873414345,-0.9894762597521429,0.019652159152760928,-0.14335453961261407,0
2,0.43336670003336675,-0.936460918692047,0.2395947222403941,-0.2561939047616014,-0.9756005026432985,0.09002950266810589,-0.20024571878439004,0
3,0.6333667000333668,-0.8296161354049834,0.503794162267006,-0.2406834226559569,-0.9412116643733769,0.23601522643847275,-0.2416969502014757,0
4,0.8333667000333668,-0.7918718387048191,0.5681389191583968,-0.223957941595688,-0.8730931976375891,0.40109246836661866,-0.2771878425518381,0
5,1.0333667000333666,-0.7012890202540265,0.7120247919310904,-0.03484832487559952,-0.8270407892260001,0.5027636563236614,-0.2514602132276569,0
6,1.2333667000333668,-0.7793168782151325,0.6231900921673381,0.06556914177786154,-0.7842085300420263,0.5870904675710963,-0.20085259345220297,0
7,1.4333667000333667,-0.7787752304997704,0.6250677149361717,0.05291022684228795,-0.7721375664775288,0.6166097987043986,-0.15360968255901325,1
8,1.6333667000333667,-0.7970338966692471,0.5967452068525105,0.09290923344205819,-0.7921840090627934,0.6025464614587849,-0.09686205432829453,1
9,1.8333667000333667,-0.9257545071323323,0.2821303204007276,0.251755982718892,-0.8112685137769776,0.583687698020649,-0.033942152752148264,1
10,2.033366700033367,-0.934049961085308,0.27260533224584826,0.23073145218557792,-0.8260521564515519,0.5631258671126437,-0.022958497563518858,1
11,2.233366700033367,-0.9333437187126508,0.2824373947880866,0.22158208583944503,-0.8293423223202665,0.5585542421963576,-0.014438522531059147,1
12,2.433366700033367,-0.6549042639929484,0.7162478158101723,0.2410175747762226,-0.8344521867599275,0.5509593307817613,-0.011548326116315762,1
13,2.633366700033367,-0.5942338116180287,0.7657056374273161,0.2461321879436677,-0.8075034963084836,0.5898376489813152,0.005445300154240369,1
14,2.833366700033367,-0.6068746740715776,0.759514642875278,0.2341807789477084,-0.7800696660142485,0.6256926676494098,-4.259324397754017e-05,1
15,3.033366700033367,-0.6338890615577011,0.7452956437411891,0.20668589951398128,-0.7722418801703089,0.6353272727677687,-0.0013171896202045237,1
16,3.233366700033367,-0.6456301908029705,0.7213556478268549,0.2506146166368163,-0.770894192599108,0.6365671903638288,-0.022457870987044777,1
17,3.433366700033367,-0.6639372168990136,0.7359934808839518,0.1322912246247526,-0.7643946064831665,0.6431682125632499,-0.04511691398621619,1
18,3.633366700033367,-0.6939704876774394,0.6949626730695995,-0.18823348605573298,-0.7669409522833963,0.6370100761374803,-0.07758697448643474,1
19,3.833366700033367,-0.805174295317154,0.589489220955437,-0.06478281051233414,-0.7738698480197884,0.6300525436178831,-0.06449225229797376,1
20,4.033366700033366,-0.8048923747350404,0.5902087478673054,-0.06165954130785316,-0.7736100067524889,0.6304792499349522,-0.0634308509628742,1
21,4.233366700033367,-0.8110222823829792,0.5839794376938036,-0.034797612405631034,-0.783751611557997,0.6182742605800073,-0.05890967734157316,1
22,4.433366700033367,-0.7960011826516697,0.6015349426277401,0.06736341748296845,-0.7809780794505543,0.622851373600994,-0.04614548538133476,1
23,4.633366700033367,-0.40518186184140376,0.9079351251723742,0.10715160900779258,-0.7617483158719489,0.6476649014676488,-0.016421896149672436,1
24,4.833366700033367,-0.24512240828953658,0.9688295841114821,0.035836321026451526,-0.7045963615027817,0.7094757169390693,-0.01371766856412784,0
25,5.033366700033366,-0.1936211981176294,0.9705014422811642,0.14365856107338126,-0.6084045482799629,0.7935548298373885,0.010706898430817213,0
26,5.233366700033367,-0.22743890166122183,0.9691740881253476,0.09472662201059782,-0.45860132033674333,0.8884784266456804,-0.01705621208275853,0
27,5.433366700033367,-0.012805145002558582,0.9995723854489393,0.02628829605320447,-0.33592629124887113,0.94078959022339,-0.045480476856393545,0
28,5.633366700033367,0.2635993301516991,0.9644064653717787,0.020870138779800058,-0.15124931221661642,0.9872250405585434,-0.05010354127387366,0
29,5.833366700033367,0.3784343118907485,0.9255891859911647,0.00849295943645246,-0.0070431151290394345,0.9984299380038457,-0.05557025667491639,0
30,6.033366700033366,0.4524556180442256,0.8917542139742577,-0.0076377718853176515,0.10724629801126867,0.990116523878131,-0.09037422589635158,0
31,6.233366700033367,0.34566065453890227,0.8796882079423569,-0.3265997071506682,0.19828114361044824,0.9766790323813509,-0.08235688067891436,0
32,6.433366700033367,0.5148454169840877,0.8507540606690339,-0.1056017275693494,0.2474716617148477,0.9665295303690871,-0.06766419712524681,0
33,6.633366700033367,0.5829674572557677,0.8107039582582508,-0.053926207405576077,0.3521603161194511,0.9347243682291425,-0.047680889141023614,0
34,6.833366700033367,0.5712982179860715,0.8198778697952982,0.03766463521479412,0.4333063999550323,0.8983398200901076,-0.0723265608091727,0
35,7.033366700033366,0.41493030855430385,0.9069417019941286,-0.0727295553886004,0.4869397692444777,0.8688470077499478,-0.08941218178803405,0
36,7.233366700033367,0.6956502112023386,0.7181588271120943,0.017851686058273142,0.5682874811855239,0.8172038563465663,-0.09605829428067929,0
37,7.433366700033367,0.9441432741424606,0.32636116716048785,0.045627474850126706,0.7181301084801104,0.6906749321734614,-0.08518970220354914,0
38,7.633366700033367,0.9366324954143017,0.35008832766870207,-0.012559114782096014,0.8231092056449361,0.5601006008941504,-0.09369392968903834,0
39,7.833366700033367,0.785111318608079,0.24327577741992423,-0.5695762578568521,0.8710231418446457,0.452146600792741,-0.19204722794836618,0
40,8.033366700033367,0.7366846495648405,0.14723997351859502,-0.6600122099580974,0.8908412685038233,0.33068535141033917,-0.31152693734751064,0
41,8.233366700033368,0.6923071779416211,0.039305744871092396,-0.7205316299723679,0.9050869268115252,0.191909225458481,-0.3794581717380653,0
42,8.433366700033368,0.4377123637540154,-0.14334853270514475,-0.8876142657642195,0.8408875622122308,0.004463100145274063,-0.5411914526799783,0
43,8.633366700033367,0.4437731691948108,-0.29616100102267445,-0.8457860460991549,0.8052050217718018,-0.16943114190694894,-0.5682763069718635,0
44,8.833366700033368,0.3247566084653346,-0.44991277223594667,-0.8319324748061339,0.7301854511840795,-0.3525329418857392,-0.5852774827075514,0
45,9.033366700033367,0.181556753645244,-0.5565877666808454,-0.8107078408323364,0.563224929109977,-0.5552532487285724,-0.6119407724652994,0
46,9.233366700033368,0.12808580455514063,-0.7521479523271809,-0.6464267046475504,0.36424934157340605,-0.7318355595475551,-0.5759679947228465,0
47,9.433366700033368,0.0517778975476792,-0.8865197373454954,-0.4597845197724869,0.22415659166627777,-0.7999512333504468,-0.556625409655054,0
48,9.633366700033369,0.0862338088389093,-0.9091569958200106,-0.40742764653944114,0.22406319778330497,-0.8493673632202579,-0.47788153939589095,0
49,9.833366700033368,0.10656717757355208,-0.3158288330800436,-0.9428125926499419,0.2866660032063744,-0.7814719459417024,-0.5541878745622031,0
50,10.033366700033367,0.0423901450622805,-0.11877088992542321,-0.9920164067735586,0.21561115451761267,-0.5639998958769019,-0.797129818472767,0
51,10.233366700033368,0.023087631360141563,0.011769771168607975,-0.9996641604883196,0.11789726057033152,-0.4762459095087104,-0.8713725205824618,0
52,10.433366700033368,0.06909218724159898,0.004059888873939609,-0.997602018324193,0.15683310738748824,-0.45469290961578274,-0.8767312783129838,0
53,10.633366700033369,0.05841771898600182,-0.029409659978961063,-0.9978589289114944,0.15797764935614067,-0.47515243689288733,-0.865605697773911,0
54,10.833366700033368,0.0818855713434222,-0.0734155674272829,-0.9939340559942049,0.22251689410706124,-0.49887795555481057,-0.8376198524977783,0
55,11.033366700033367,0.3831070057225056,-0.2368024045092105,-0.8928346114398752,0.33246829961440616,-0.5530387879775114,-0.7639456320602079,0
56,11.233366700033368,0.5211296056609308,-0.33067282832065553,-0.7868159980034096,0.4659217003949809,-0.5564469765842379,-0.687956198715667,0
57,11.433366700033368,0.6152273735224529,-0.391841275437096,-0.6840728716536668,0.5940628203841714,-0.5937819103402305,-0.5426899744696874,0
58,11.633366700033369,0.7440448821828451,-0.6375818555019869,-0.1997162758318898,0.743183557453024,-0.588234604925634,-0.31883890838392204,0
59,11.833366700033368,0.7604754414828562,-0.6488544568328856,-0.025787530892970496,0.8001861988837544,-0.5749143042177154,-0.17080863538424784,0
60,12.033366700033367,0.7348664686162188,-0.6760457011915466,0.05416163959812952,0.7985073163253757,-0.5975819409034642,-0.07267661027383697,1
61,12.233366700033368,0.7143608416259829,-0.692748224014407,0.09893677817830203,0.7990420587461143,-0.6011807526038655,0.01065321798431452,1
62,12.433366700033368,0.7422616396002426,-0.6644860218716722,0.08663708856557688,0.8311473039754927,-0.5549474067021535,0.03503619398314252,1
63,12.633366700033369,0.7509758017503896,-0.6563143083403179,0.07271089225920625,0.8459178705989906,-0.5302778181661062,0.05681893841197559,1
64,12.833366700033368,0.7411828224275602,-0.6696332616416233,0.04732143955457909,0.844474390429125,-0.5318719143944715,0.06304974692826315,1
65,13.033366700033367,0.6953758708258486,-0.7136746494156071,-0.08438538412961633,0.8556888509956149,-0.5137988845052422,0.061703294587674117,1
66,13.233366700033368,0.7100207031583142,-0.6989396880597325,-0.08575496219774852,0.8728741747194366,-0.48342347738815655,0.06627530926223672,0
67,13.433366700033368,0.7347509918539199,-0.6721570514273194,-0.09135577806692083,0.8948537478907209,-0.44002648129727256,0.07492306482700384,0
68,13.633366700033369,0.998722541611355,-0.0504585470473683,-0.002686988504617727,0.9454397292647022,-0.3156527485657153,0.08066635389551162,0
69,13.833366700033368,0.9986229443549463,0.036459734130645745,0.037721383789313445,0.9826967532713324,-0.15136408307974306,0.10675207474991381,0
70,14.033366700033367,0.9794792894367953,0.1987364011376073,0.03352856136583962,0.9927573650098089,-0.026420600676138103,0.11719541833490556,0
71,14.233366700033368,0.9564209285278992,0.288650533391965,0.044044035309736315,0.9880208855158636,0.06849239840241973,0.138287819946418,0
72,14.433366700033368,0.8775756764137246,0.4772442510890309,-0.04581328376643437,0.979983670637646,0.14166405722130943,0.13986886778394875,0
73,14.633366700033369,0.9823584232719451,0.186458590602044,0.014322088442586162,0.9825261212267614,0.14119927727538417,0.12126493806539781,0
74,14.833366700033368,0.7413911711476704,0.39481090980170247,0.5426448901867943,0.9526908905436962,0.141108981909853,0.26919940991655944,0
75,15.033366700033367,0.6733845551352011,0.4703241781614166,0.5703932050280361,0.9275234715776068,0.15729771761789632,0.33905403360648184,0
76,15.233366700033368,0.6640726736158697,-0.09354332773503324,0.7417931854586742,0.8588911194332397,0.1120854247372638,0.4997428363870601,0
77,15.433366700033368,0.60624167230785,-0.2697458248798364,0.7481365013934809,0.8369605555812591,-0.12377405624151896,0.5330825558978944,0
78,15.633366700033369,0.49187284290158606,-0.5120188837411805,0.7042000916702207,0.7531742330729392,-0.44722468096717094,0.48240922396737235,0
79,15.833366700033368,0.2379479924057173,-0.7584268885484794,0.6067696495679074,0.4945803059677321,-0.7851218986972859,0.3727920668882772,0
80,16.033366700033366,-0.17640855361063662,-0.9821738398600717,0.0649197235632275,0.17367267109757334,-0.9535916806937228,0.24596892044637442,0
81,16.233366700033365,-0.2675323879441316,-0.9548181553002908,0.12941681386072149,-0.020938380801811762,-0.9882958625870542,0.15110550023976316,0
82,16.433366700033368,-0.3978393962976878,-0.9035567663615381,-0.15908797791087798,-0.1597779948843593,-0.977990301020387,0.13418630131569614,0
83,16.633366700033367,-0.7250826635080281,-0.6809453394875391,-0.10280357829523226,-0.3444542943838099,-0.9295644858475512,0.13138152736031536,0
84,16.833366700033366,-0.7561251438697494,-0.6401339129637695,-0.1360269836526715,-0.571787904228715,-0.8183667741428045,0.0577443984888067,0
85,17.033366700033366,-0.8816082908890577,-0.46945346735310856,0.04878794344731958,-0.746890612463178,-0.6641403964714726,0.032740598484062425,0
86,17.233366700033365,-0.9893520622643264,-0.028143427776925942,-0.14279511324373076,-0.8931351003490678,-0.44965440930147954,0.010982018038511362,0
87,17.433366700033368,-0.9976515596873354,0.040413095678927924,0.05530051673423018,-0.9594420291174505,-0.2816610765402372,0.01174864780237094,0
88,17.633366700033367,-0.9034049606986448,0.39003946455431027,-0.17812549810531497,-0.9982228167792115,-0.058958340157804344,0.008667305649021441,0
89,17.833366700033366,-0.84774858976215,0.4926775640072609,-0.19644629413699188,-0.9871202111312808,0.15997070894356633,-0.0017495874452996606,0
90,18.033366700033366,-0.7722976441510683,0.6346814453053757,0.027125851577221177,-0.9467512529683088,0.3219657098041426,-0.0003830316600114608,0
91,18.233366700033365,-0.7732329943109182,0.6340405806918716,0.010162605221396285,-0.927096136299946,0.3747758651668969,0.0059837234324638154,0
92,18.433366700033368,-0.693384191172014,0.7043043561238029,-0.15222922642438774,-0.9439967528744566,0.3286852988504579,-0.02891547824379831,0
93,18.633366700033367,-0.9109727005555339,0.23516985233747303,-0.33885672399131944,-0.9512724522376687,0.3016021677563758,-0.0641627151731247,0
94,18.833366700033366,-0.9436464253806347,0.21207196245120558,-0.25408051205955334,-0.970892633045338,0.22835506949606113,-0.07225965218391181,0
95,19.033366700033366,-0.9472942338121138,0.24049559222601397,-0.21164948548526855,-0.9892263317502823,0.12535089927281573,-0.07562021306090906,0
96,19.23336670003337,-0.9887365878970982,-0.14948032129788424,0.0074560913543962725,-0.998086295179791,-0.0160655420782069,-0.05971302815979771,0
97,19.433366700033368,-0.9670730492578785,-0.25407805107994125,0.014630835877952714,-0.9856070097647909,-0.16298354985982394,-0.04489080950036484,0
98,19.633366700033367,-0.9299359948223946,-0.35636409487244336,0.09068449382020895,-0.9302690863026964,-0.3650944354021065,-0.03613143102568859,0
99,19.833366700033366,-0.6959296091902358,-0.6941226632346811,0.18405354502513493,-0.8318764686862394,-0.5546311610327072,-0.019126318454510675,0
100,20.033366700033366,-0.4571646100121048,-0.8877077038654476,-0.054548619143061396,-0.7051615827568817,-0.7083218592692009,-0.03205130083525803,0
101,20.23336670003337,-0.4742733752218035,-0.8800315745974149,-0.024681840841250097,-0.5682897597144687,-0.821730714842679,-0.042489778627470595,0
102,20.433366700033368,-0.1776649095347516,-0.972623468360303,-0.14979575666481143,-0.42372923323830974,-0.9035799252266085,-0.06322068986297656,0
103,20.633366700033367,-0.05090277064801951,-0.9985211990668601,0.01908724585778318,-0.2913956277827892,-0.9528462603517578,-0.08469115799624445,0
104,20.833366700033366,-0.018701253882564828,-0.9993681642499336,0.030224747921823718,-0.20718097166926935,-0.9749935017099868,-0.08039724249920185,0
105,21.033366700033366,0.0015200355767847062,-0.9996943634752493,0.02467527360864851,-0.14240368421822336,-0.9863344995093276,-0.08285798572715165,0
106,21.23336670003337,0.10331396532740594,-0.9946273774750525,0.006527215748480675,-0.04324911019283911,-0.9947240863070438,-0.09302422581319784,0
107,21.433366700033368,0.19548570827585898,-0.9804045064305165,-0.02433806957466853,0.0869163209927376,-0.9918751844908915,-0.09289333418629972,0
108,21.633366700033367,0.5244915616907593,-0.8504775337593083,-0.0399570555205592,0.21978651154743578,-0.9738237706351441,-0.0579754524584231,0
109,21.833366700033366,0.5810263740084203,-0.8137987786152132,-0.011827959714796981,0.3420013625270529,-0.9391400353011101,-0.0324200882828645,0
110,22.033366700033366,0.7433071858389393,-0.6651481184849586,-0.07122083933875174,0.41455443744361825,-0.9098323274279158,-0.018701720854186484,0
111,22.23336670003337,0.7505349940578976,-0.6602365089405213,-0.028017404529050133,0.5530475351209536,-0.8308032917601128,-0.06248451245868094,0
112,22.433366700033368,0.7879517735378733,-0.6149177680374316,-0.03175123824960945,0.6688254249905836,-0.7395877938636011,-0.07538200086318116,0
113,22.633366700033367,0.8745376298176915,-0.48413513870536257,-0.02823298609063834,0.7759945524805781,-0.6198826312052299,-0.1165245813146246,0
114,22.833366700033366,0.8976488974065558,-0.4383721788663502,-0.04534633150281676,0.8455153421693005,-0.5163100693951107,-0.13611656180475315,0
115,23.033366700033366,0.9977662023003532,-0.03516747660324994,0.05679660321261109,0.8851322833886635,-0.4510735709886705,-0.11433929533935147,0
116,23.23336670003337,0.9931694475620952,0.06782493494037067,0.09494328111845314,0.936652204995168,-0.33679308633441246,-0.09619284731741111,0
117,23.433366700033368,0.9286725252746393,0.3517736471491785,-0.11756973237780938,0.9741170362307712,-0.20345089726960852,-0.09850752319071707,0
118,23.633366700033367,0.8871341064418417,0.4471826140435001,-0.11410866261970601,0.993197454157853,-0.05377235033707384,-0.10328287076561478,0
119,23.833366700033366,0.8704398698837221,0.49222871681972946,-0.006732254808876794,0.9869307800430532,0.11465959099704034,-0.11322903159526758,0
120,24.033366700033366,0.7025343679513304,0.6463298275156576,-0.2978308511736245,0.9382474646129211,0.309992428177292,-0.15361116372247188,0
121,24.23336670003337,0.6618991021843821,0.7168795937474841,-0.21902791282380302,0.8401563456007041,0.5188561309260474,-0.15787853035584962,0
122,24.433366700033368,0.3221601770035899,0.9303751468775027,-0.17497115883962444,0.7444414421390655,0.6460083667394363,-0.1687605680499886,0
123,24.633366700033367,0.22088860258249704,0.9694174427794825,-0.10694880496780008,0.6604129845186907,0.7379403298764753,-0.13891997488091756,0
124,24.833366700033366,0.20507491290496443,0.9766632515683438,0.06382141594301695,0.5295801521711615,0.8415246615666275,-0.10668226844955335,0
125,25.033366700033366,0.2942152939622445,0.9552128771179499,0.0317130917250073,0.4084209167268376,0.9084483504861978,-0.08896038038877697,0
126,25.23336670003337,0.3705156434009103,0.9236916895542119,0.09752856321968024,0.34024937340427447,0.9368207211843966,-0.08122376658063946,0
127,25.433366700033368,0.3843722778874153,0.919761227316179,0.07935513037904743,0.3382531639348816,0.9381370458552005,-0.0740518756151384,0
128,25.633366700033367,0.38394145562517457,0.9192671753006866,0.08681485510624831,0.33715773189295434,0.9375745787295519,-0.08531455412121819,0
129,25.833366700033366,0.3071559659125142,0.9415233335576646,0.13852445621915815,0.25067138785687704,0.9639828231442676,-0.0888874118911953,0
130,26.033366700033366,0.30703979413724114,0.9493055775026072,0.06742021461403429,0.13461641064949031,0.9874773187953908,-0.08226157577212874,1
131,26.23336670003337,0.2757267846377622,0.9577531912130229,0.08175307305901229,0.05923790001168222,0.9945887548946205,-0.08534682090959504,1
132,26.433366700033368,0.29578460518016847,0.9480603399202029,0.11701734576036832,0.06628135110553762,0.9956974394192805,-0.06475640222798847,1
133,26.633366700033367,0.30538957931130967,0.9461314986064983,0.10757505376565649,0.07125008086805446,0.994839852639542,-0.07222945089387256,1
