,timeStamp,x_gaze,y_gaze,z_gaze,x_head,y_head,z_head,fixations_head
0,0.033366700033366704,-0.9514152020986226,-0.04278107461967478,-0.304924405172861,-0.9977184024762528,-0.05923862801373212,-0.032384785182007346,0
1,0.2333667000333667,-0.9937723497353963,0.06878295083805819,-0.08766654193818203,-0.9975580555338546,-0.05491943428178996,-0.04314836703379933,0
2,0.43336670003336675,-0.895110999507153,0.44409803688333344,-0.03941106694413505,-0.9981803003434323,0.05410837079985378,-0.02661526283321423,0
3,0.6333667000333668,-0.8417994956043787,0.5397199241431578,-0.008718525283416543,-0.938966218074083,0.34362748727618864,0.016204669200779107,0
4,0.8333667000333668,-0.6677891550338124,0.7344927835525192,0.12073936942231782,-0.8705338776316865,0.4856475077880287,0.07948123095937058,0
5,1.0333667000333666,-0.5881431486958694,0.7831647417062343,0.20184306772915458,-0.7852840568733086,0.6096704700291896,0.10784650200625676,1
6,1.2333667000333668,-0.5768840427121615,0.7877259974673237,0.21608459958586287,-0.7448389811469175,0.6537569780648605,0.1334792335740795,1
7,1.4333667000333667,-0.5758990509776887,0.7856998506371545,0.2258672791524947,-0.7419151733352003,0.6550092822838188,0.14326449559132565,1
8,1.6333667000333667,-0.8240881048652167,0.56639570961998,-0.008642658372009018,-0.732096846704134,0.6654219088343432,0.1457665609429114,1
9,1.8333667000333667,-0.9374483537918201,0.31415477138072784,0.14999121171498447,-0.76993462998148,0.6116755407950585,0.18180676100836948,1
10,2.033366700033367,-0.9370844856690235,0.3224499113160071,0.13378610320478387,-0.7788283668914702,0.5993028024698253,0.18510139350361185,1
11,2.233366700033367,-0.9361932725047767,0.32875270610424,0.12435358758771875,-0.782305331730357,0.5999567198799484,0.16748224448325746,1
12,2.433366700033367,-0.9381877315690483,0.31683351235429985,0.13935675721887722,-0.7901368052470661,0.5885910064498906,0.17101010531622193,1
13,2.633366700033367,-0.932844484556107,0.3278329399251416,0.14942132087921628,-0.7859489958142956,0.593587167934588,0.17302731010420283,1
14,2.833366700033367,-0.6597002448021686,0.7407148673661378,0.12703177661799403,-0.7677677415429252,0.6172949026092533,0.17169652954765427,1
15,3.033366700033367,-0.6571537954215076,0.7451342473295904,0.11368307974220335,-0.7569554967522375,0.6323420813954219,0.16480857997409945,1
16,3.233366700033367,-0.5486831694971264,0.8357290450779744,-0.0224442135893627,-0.7355777158153174,0.6569453997572303,0.1653728083263186,1
17,3.433366700033367,-0.7456156018162412,0.664980134565138,-0.043113744466651165,-0.7178850989366391,0.6779926131885218,0.1580094971403046,1
18,3.633366700033367,-0.8360483785320582,0.5469068060052873,-0.04377275749837539,-0.7043627166839103,0.6932121879944361,0.15274169621170353,1
19,3.833366700033367,-0.8163261509241405,0.5758598885409539,-0.04468785167108937,-0.6755003557153382,0.7226802007846661,0.1463987596337014,0
20,4.033366700033366,-0.7527811683642736,0.6575719259947815,-0.03032613888434607,-0.5815333212389944,0.7981923054192168,0.1571879125705931,0
21,4.233366700033367,-0.3375533614942285,0.9408052210595115,-0.030712606061851437,-0.4609773840452764,0.874702087170135,0.1496532996595257,0
22,4.433366700033367,-0.08965885630507514,0.9958604619009602,-0.014940880445028561,-0.3577517645791391,0.9235179847657123,0.1383047604198436,0
23,4.633366700033367,-0.13022536577148913,0.9914640927579935,0.0063487700581220715,-0.27093300901993833,0.9540921862224393,0.12768478692737267,0
24,4.833366700033367,0.4345977783068845,0.8998249298340375,-0.03794557602526569,-0.04211602697449096,0.9920575201381007,0.11852475272838975,0
25,5.033366700033366,0.46562871691744634,0.8845985021998792,-0.025988225940668006,0.3110853789119361,0.949929154895013,0.02933407076530064,1
26,5.233366700033367,0.31917421262550066,0.9459626362018148,0.05729321866508409,0.37195698174678843,0.9280464866642824,0.019435079621683376,1
27,5.433366700033367,0.28590643891562073,0.9569434871602804,0.05016642869600141,0.3558552592418308,0.934534163273779,0.003596129044865684,1
28,5.633366700033367,0.24755740683742894,0.9395693765763292,-0.23648407329013935,0.3421003550402669,0.9396623265292788,-0.0014349853332120994,1
29,5.833366700033367,0.2701505705080823,0.9053726666066777,-0.327595793342453,0.3182644765455402,0.9479632532837994,-0.0085669943848019,1
30,6.033366700033366,0.38382903028076915,0.9232418001823487,0.017316290300772873,0.3230542041908677,0.9463459224110214,0.008085560626083076,1
31,6.233366700033367,0.38112862287004035,0.9242520407959485,0.022341394623231123,0.29212224012551274,0.9563206166390336,0.010745930168743098,1
32,6.433366700033367,0.05212945383664208,0.996705215885151,0.06213881773922033,0.18955725192494538,0.9814752901133467,0.027826303016835186,0
33,6.633366700033367,-0.34181881243816914,0.9362679761467494,-0.08100726081919844,-0.015395451829286866,0.9992388268061214,0.035843368509367625,0
34,6.833366700033367,-0.6611762325337683,0.7084970353884573,-0.24673455448765044,-0.3302322065106806,0.9432688373510618,0.03450493103113706,0
35,7.033366700033366,-0.6979508339483346,0.7019495400161997,-0.14188543498848086,-0.5087620879122263,0.8604810287555508,0.02708388921446517,0
36,7.233366700033367,-0.6752533149143684,0.733915153583942,-0.07349495245944493,-0.6103929551401975,0.7915995390516002,0.02811778953814306,0
37,7.433366700033367,-0.9106853555531635,0.3510787419300595,-0.21770599474018812,-0.7405678035657937,0.6713726071860187,0.02860333270764097,0
38,7.633366700033367,-0.9443241454336238,0.3117482301033835,-0.10519006311655206,-0.8249967934303645,0.5607478102900268,0.07030066916151527,0
39,7.833366700033367,-0.816193260689719,0.5653534751142626,0.11918057467939852,-0.8417516778498935,0.5336735455368625,0.08152704846248086,0
40,8.033366700033367,-0.8134053662743304,0.5688813755462961,0.12143183549908444,-0.8525761580255711,0.5173346203519688,0.07401881755094854,0
41,8.233366700033368,-0.9400785741501392,0.33972841765607986,0.028928820590157785,-0.8699685208862851,0.4864493711607998,0.080757550508864,0
42,8.433366700033368,-0.9421759571648328,0.33418968879995814,-0.024934266388214606,-0.9026510886705336,0.42249286253517426,0.08198044418478714,0
43,8.633366700033367,-0.9987646172244027,-0.03677343789763645,0.03342085644894872,-0.953147476630918,0.28469751987760944,0.10226050052513962,0
44,8.833366700033368,-0.9747309283629846,-0.1501099316533051,0.16542861213125828,-0.9866003025430927,0.11639011834760322,0.1143380224287117,0
45,9.033366700033367,-0.967267395866259,-0.18858955279278944,0.16978741258268132,-0.9941955711341259,-0.028451824350994612,0.10375769864636351,0
46,9.233366700033368,-0.9537921304086463,-0.26578463604117003,0.140139570482427,-0.9457844375567266,-0.30625239244030394,0.10817240775769345,0
47,9.433366700033368,-0.548805788022236,-0.8226637052647797,-0.14844741517896604,-0.7992429373185179,-0.5953785402977414,0.08206778234726667,0
48,9.633366700033369,-0.42150826003050657,-0.9017229963589494,-0.09605427925653791,-0.6612969374834077,-0.747347062304722,0.06448820775589688,0
49,9.833366700033368,-0.25784132824397354,-0.9614566944725921,-0.09549279608022915,-0.4969290479863097,-0.8668109306485673,0.041235079429832976,0
50,10.033366700033367,-0.11652104411235403,-0.9604540405641637,-0.252885116689256,-0.40407677015186705,-0.9137302567273279,0.04264952244336311,0
51,10.233366700033368,-0.050885909217098124,-0.9871676174337672,-0.1513628730346017,-0.3264647132329054,-0.9434071463184661,0.05834164283773305,0
52,10.433366700033368,0.22559358865063428,-0.955041114272859,-0.19236424513974626,-0.15071034747771206,-0.9878116268409036,0.03891761864599,0
53,10.633366700033369,0.3363144268120331,-0.9253753424424941,-0.17485159969966024,0.002606987906943692,-0.9998962661930679,0.014165467419552717,0
54,10.833366700033368,0.5079443033761337,-0.8297480558419259,-0.23132390385405233,0.1383589363914972,-0.9902954309059951,0.013105885980097952,0
55,11.033366700033367,0.6404628189100685,-0.7410317886997821,-0.2016910154919407,0.3107423492550399,-0.9503578532423747,0.016097924089881664,0
56,11.233366700033368,0.7019890947768552,-0.6933327523696856,-0.16279129370407905,0.47991878528310444,-0.8771387328374373,0.017481501329242866,0
57,11.433366700033368,0.7477044887475058,-0.6604429272806334,-0.06894300045558441,0.6097170723013728,-0.7923847475878997,0.019274426951353275,1
58,11.633366700033369,0.6902893252590148,-0.7201637157949135,-0.06974861924022323,0.6288412890906891,-0.7773682176889363,0.016040176491774534,1
59,11.833366700033368,0.6466647942418191,-0.7604335080334985,-0.05971200673276207,0.60537459066205,-0.795254752158003,0.03303761720930868,1
60,12.033366700033367,0.6664289669488819,-0.7425732299884256,-0.06676398816729753,0.6170051263937266,-0.7863311611066766,0.031432134456439186,1
61,12.233366700033368,0.6742454464181005,-0.7358229522016881,-0.0629099435514657,0.6065134184456226,-0.7943948411577382,0.032837624569650656,1
62,12.433366700033368,0.6742273179349347,-0.7357634602895734,-0.06379384181076952,0.5999267516205001,-0.799339397710858,0.03382927663012846,1
63,12.633366700033369,0.6713684626604975,-0.7385898506440227,-0.0612325066490049,0.5954810320407243,-0.8023244685549416,0.04096080611687831,1
64,12.833366700033368,0.6576248237210557,-0.7507641655437334,-0.06231178830102842,0.5755554912374189,-0.8167892365923316,0.039890092671862366,1
65,13.033366700033367,0.6486212401086691,-0.757790922747734,-0.071016929538177,0.5643715842542494,-0.8247823512037726,0.03491114476962128,1
66,13.233366700033368,0.6591227865620584,-0.7490079021471128,-0.0674115328104076,0.5729164532710136,-0.8184729951180678,0.04322839152480473,1
67,13.433366700033368,0.6637631271032255,-0.7440096224233725,-0.07660413069526952,0.5709089280776636,-0.8201508489717457,0.03762420460471598,1
68,13.633366700033369,0.6616064616078211,-0.745554580321702,-0.0801577053071609,0.5631405858484426,-0.825584568282422,0.03581621398473209,1
69,13.833366700033368,0.6690267830253611,-0.7388828878208471,-0.08034451866967467,0.5655921516309558,-0.8238945877114088,0.03610022649947761,1
70,14.033366700033367,0.670200666889881,-0.7383960712211189,-0.07484856782581406,0.5630473097945969,-0.8255088083024488,0.03889645675557376,1
71,14.233366700033368,0.6725829819051032,-0.7364491142548925,-0.07262805632001995,0.5626912687101998,-0.8257273800644144,0.03940596311808934,1
72,14.433366700033368,0.6762946261824658,-0.7330150192712582,-0.07290102961876534,0.5653314463274791,-0.8238506961739926,0.040870358536577396,1
73,14.633366700033369,0.6770829293665421,-0.7321518977026613,-0.07424490185065943,0.565200653964514,-0.8238831903167839,0.04200844524049411,1
74,14.833366700033368,0.6795118295902673,-0.7296753004808731,-0.07640438020843453,0.5647839030049912,-0.824045489511182,0.04436410849691104,1
75,15.033366700033367,0.6762225615055019,-0.7323056020138465,-0.08032155731854229,0.5595556297338171,-0.8275680164447677,0.04504081916288509,1
76,15.233366700033368,0.6824436393178501,-0.7260892528370183,-0.08405400685980602,0.5681563185237009,-0.8218193588153629,0.04255983080207194,1
77,15.433366700033368,0.6901497707797748,-0.7187799713143244,-0.08395621912642236,0.5776346628177733,-0.8151221833374434,0.04374954334158653,1
78,15.633366700033369,0.6843417953846482,-0.7238823908126033,-0.08758191229441369,0.5721740623206744,-0.8191314403582479,0.040503405092399115,1
79,15.833366700033368,0.7499981011669119,-0.6532447272452091,-0.10379872143894421,0.5642830606225534,-0.8248412808540542,0.03494980534262384,1
80,16.033366700033366,0.6971880151378276,-0.7105510812297058,-0.09511063300952274,0.5597765891175637,-0.8279728118984787,0.033334562136513216,1
81,16.233366700033365,0.6922941278534189,-0.7157969721798968,-0.09145236551214124,0.5591379913191568,-0.8284454630186496,0.03229274635880222,1
82,16.433366700033368,0.6884661440535945,-0.7193553298201043,-0.09242444455545673,0.5584190974231782,-0.8289503914032526,0.03177043004867011,1
83,16.633366700033367,0.6790524422245632,-0.728377818915005,-0.09139766748378697,0.5471439203893181,-0.8365397685403915,0.028891971746416355,1
84,16.833366700033366,0.6785045785472885,-0.7295876085585177,-0.08563561366761947,0.542291573993932,-0.8397463422194935,0.02731171001906229,1
85,17.033366700033366,0.6753152649483459,-0.7325984988698092,-0.08513948779178639,0.5389283119808639,-0.8420166995318336,0.023751889503252976,1
86,17.233366700033365,0.6805965701132213,-0.7271939197750099,-0.08931579811195559,0.5406492428443492,-0.8410017460780661,0.02035827363692765,1
87,17.433366700033368,0.6876513373031611,-0.7200029143297736,-0.09344218352439958,0.5419134124718625,-0.840233937855969,0.018351650011729583,1
88,17.633366700033367,0.6873007728050944,-0.7200217757831177,-0.09584513602497574,0.5370900008137195,-0.8433508180629444,0.01713851506057016,1
89,17.833366700033366,0.6811829853882665,-0.7260367786490665,-0.0941293602783679,0.5289332742160834,-0.8484106980190864,0.020709391922993817,1
90,18.033366700033366,0.6716518877627462,-0.7351128058123808,-0.09215695521982259,0.516665166190912,-0.8558039307372969,0.025626903431934064,1
91,18.233366700033365,0.6644280548453108,-0.7413698618006378,-0.09437207186546342,0.5062837356361299,-0.8620099055276739,0.024813339204879173,1
92,18.433366700033368,0.666281589144812,-0.7395946910127296,-0.09522886638225438,0.506223689662366,-0.8620420895429968,0.024920109970962827,1
93,18.633366700033367,0.6679486639937262,-0.7378596002891566,-0.09699377572876926,0.50598062056716,-0.8622039942468241,0.024246317561527415,1
94,18.833366700033366,0.6695576314666117,-0.7361037257981305,-0.0992163444747475,0.5062966029431777,-0.8620302531152062,0.023824201189792702,1
95,19.033366700033366,0.6669965388970285,-0.7381958709527409,-0.10090824152520426,0.5022248906082893,-0.8644104612723115,0.023763705445100813,1
96,19.23336670003337,0.6648079060233776,-0.7400433668107494,-0.10181484826989862,0.4953127177080565,-0.8683710844514875,0.024432997466674163,1
97,19.433366700033368,0.6668480477110104,-0.7378340277602815,-0.10447310057165196,0.49440900080354616,-0.8689107465385885,0.023534112989278256,1
98,19.633366700033367,0.6685030710080038,-0.7365776206365493,-0.10274751982538331,0.4927089260415951,-0.8697257040209172,0.028550200774394328,1
99,19.833366700033366,0.6846415815662015,-0.7201082588309102,-0.11273863736113203,0.4860158527771128,-0.8735215637038406,0.027361809036186128,1
100,20.033366700033366,0.8018895145736653,-0.5699358955600055,-0.17929384085636166,0.5196265513932946,-0.8537324312880782,0.033603316116999335,1
101,20.23336670003337,0.8795218256682372,-0.45067915618747484,-0.15274048694225473,0.6305877312112154,-0.7744902838502322,0.05023856553962658,0
102,20.433366700033368,0.9426723177946389,-0.30667791330381694,-0.13159619582381812,0.7430085988438793,-0.6662788919270812,0.06332977353880569,0
103,20.633366700033367,0.9698367372068067,-0.2226466823750187,-0.09922276952118063,0.8371498665005046,-0.5438723170680725,0.05816359467221662,0
104,20.833366700033366,0.9851538317106455,-0.13195725676421222,-0.10981443554058529,0.8899513409974933,-0.4521483561276639,0.059569075096189104,0
105,21.033366700033366,0.9842371236755388,0.008569654413049927,-0.17664610214251342,0.9256210524911471,-0.3680328446180912,0.08819009279673828,0
106,21.23336670003337,0.9695510363292059,0.1949043148194197,-0.1482669754791515,0.9773694700591458,-0.18142053481611922,0.10879112345838647,0
107,21.433366700033368,0.982631694633814,-0.18555336071714312,0.0022142781335847132,0.981610862282529,-0.1646416173077858,0.09660876202098093,0
108,21.633366700033367,0.9693300705301457,-0.24573204101010965,-0.003870192117798812,0.9695261313589808,-0.22974996581497734,0.08505312351762982,0
109,21.833366700033366,0.9508741590121863,-0.30952685645643074,-0.005608819400520033,0.9055602194331518,-0.417922185388567,0.07281302040312856,0
110,22.033366700033366,0.5960680723039276,-0.797465554139631,-0.09354968273944525,0.7543800941966282,-0.6533711016247219,0.06337883749000281,0
111,22.23336670003337,0.5934936020769488,-0.8006740400480724,-0.08177056858568582,0.6460575647797453,-0.7606197469523673,0.0637747876278894,1
112,22.433366700033368,0.630653362603509,-0.7720552656383196,-0.07878453551954635,0.556458462376697,-0.8288992087290337,0.05727199505643472,1
113,22.633366700033367,0.6432798426534865,-0.7608043042462724,-0.08583620842075744,0.5309608882191492,-0.8457377592568813,0.05299224234434558,1
114,22.833366700033366,0.6647114946929069,-0.7433784070047653,-0.07447934493655771,0.5445871600447316,-0.8365238873931,0.060436834258177106,1
115,23.033366700033366,0.8223912601613551,-0.5564829938724957,-0.11831860690915094,0.5991966269893687,-0.7972875786042333,0.07277306650102269,1
116,23.23336670003337,0.8364738082227259,-0.5373059749825787,-0.10776760833103528,0.6099426807043535,-0.7884152989215736,0.07982006440483959,1
117,23.433366700033368,0.7877371503074209,-0.6130231436263486,-0.06060369133983164,0.592345150372996,-0.8010823316701386,0.08599023616392128,1
118,23.633366700033367,0.3875698246574487,-0.9208092840978365,0.04358776587787604,0.44757413184638883,-0.889917404045545,0.08788862542325733,0
119,23.833366700033366,-0.29152429208474,-0.9539071588531425,0.07123706488350634,-0.12987655669057513,-0.9862583087252904,0.1021108637341287,0
120,24.033366700033366,-0.8241023109239715,-0.5450462818862002,0.15420743085791713,-0.6731287482803967,-0.7299204650546154,0.11880152748563716,0
121,24.23336670003337,-0.998702178242494,0.0454691914553006,-0.022945844985512824,-0.9025565000100085,-0.40632875150924846,0.142438442797649,0
122,24.433366700033368,-0.9961668037309187,0.05631275184103473,0.06693708332916418,-0.9877284795183081,-0.08720156932553955,0.12956981537230955,0
123,24.633366700033367,-0.984975905826012,0.043037864888533534,0.16724295838110198,-0.9880276043149587,0.07044510808358152,0.1372550176085958,0
124,24.833366700033366,-0.8636763731698168,0.5039629643581843,0.009189830441465006,-0.9557907694823038,0.2697987571340853,0.11693004584506339,0
125,25.033366700033366,-0.7589084294985377,0.6335720823380236,0.1504806037930596,-0.9099546486426533,0.39356291985893704,0.13073165464314013,0
126,25.23336670003337,-0.7707561027253611,0.6203315932812274,0.14534009938343517,-0.8428339849082103,0.5229740072170377,0.12700024275213304,0
127,25.433366700033368,-0.4126091676432442,0.9109014702367627,0.003490887745742382,-0.7096107157797402,0.6944650862656614,0.11904148860205195,0
128,25.633366700033367,-0.3813812785916894,0.9244102495886543,-0.0037430996794019593,-0.5287125499223492,0.8432823758678382,0.09663267617789417,1
129,25.833366700033366,-0.44145497504069436,0.8966156969984995,0.0346092026448853,-0.4811355100172999,0.8704579074977733,0.10397909537494067,1
130,26.033366700033366,-0.46669515059433647,0.873570119984771,0.1380973637747042,-0.46435267376404776,0.8786102751993732,0.1114476499629404,1
131,26.23336670003337,-0.4532020829024416,0.8825266244270111,0.12551744592029274,-0.435724686775761,0.893354767315224,0.10982375448566503,1
132,26.433366700033368,-0.45276112526100704,0.8844837127920786,0.11267619650097635,-0.41459934677595467,0.9033044155158699,0.11022030013787941,1
133,26.633366700033367,-0.4333478451617425,0.8945572174277863,0.10943961733088697,-0.37858870529436683,0.9185936546334567,0.11338558061184353,1
