,timeStamp,x_gaze,y_gaze,z_gaze,x_head,y_head,z_head,fixations_head
0,0.041701417848206836,-0.998768820563234,0.046947910465431925,0.016023007634531346,-0.999797231841832,-0.01949272722777275,0.00505260196672201,1
1,0.24170141784820684,-0.9990839890147278,0.028593386536987016,0.0318371032093942,-0.9998276767241587,-0.015417393468379021,0.010340253140630671,1
2,0.4417014178482069,-0.9985830173994024,0.033295226065289465,0.041513675852257556,-0.9998698105621118,-0.010065842239595698,0.012611135813007764,1
3,0.6417014178482069,-0.9972096271130109,0.054282224788272694,0.05124841134284323,-0.9998467091278447,0.009381628571489742,0.014783209785645868,1
4,0.8417014178482068,-0.996377635211823,0.06038895034945168,0.05987305508646556,-0.9997366625607897,0.01596805120180541,0.016481106535369112,1
5,1.041701417848207,-0.914943594468467,0.4029241836980343,0.023028702360186733,-0.9971196662585529,0.07584267169203705,-0.0005102068658350372,1
6,1.241701417848207,-0.8304995570012527,0.5554755929750846,0.041440939054288445,-0.9638730264418535,0.2661853094196216,0.009704120104492505,0
7,1.441701417848207,-0.8550006088965014,0.5124746717165243,0.07964715710967382,-0.8895599808502067,0.45610590551204205,0.025503792400740532,0
8,1.641701417848207,-0.9084876328694117,0.4067668739639135,0.09586934426060947,-0.8614382396011637,0.5070528209404974,0.02866349820123802,0
9,1.841701417848207,-0.9554028601856043,0.27385529951594895,0.11049275847853914,-0.8654204444387064,0.5002201341537039,0.028762331872829203,0
10,2.041701417848207,-0.9400773783707042,0.32406942445509473,0.105988352232724,-0.8351155573087409,0.5491708160035945,0.03151857850311833,0
11,2.241701417848207,-0.7179939722889576,0.6945812863914889,0.045182876750689306,-0.7303110517393577,0.6824926494904716,0.029147059865958773,0
12,2.4417014178482073,-0.23949286668609693,0.9693102659035135,-0.05550473151484895,-0.4075587449253797,0.9127596994002546,-0.02766948835100018,0
13,2.641701417848207,0.004274781888342072,0.9977822255150163,-0.06642557253128009,-0.1020312372170532,0.991381614781727,-0.0821712875932524,1
14,2.841701417848207,0.27995196306274234,0.9590006373493304,-0.0440984800293088,0.0580770989519378,0.9936629732878747,-0.0962338095163413,1
15,3.041701417848207,-0.06509065583905504,0.9907723194071753,-0.11888405115476298,0.06821995599377834,0.9929875763355811,-0.09654900749047306,1
16,3.241701417848207,-0.144734113876604,0.9759292763192938,-0.163138235564976,0.038018802114645756,0.9949205526504963,-0.09320764238729871,1
17,3.4417014178482073,-0.20657413939311903,0.9592179001709861,-0.192945963745181,-0.01730297240341161,0.995062140553389,-0.097734045159885,1
18,3.641701417848207,-0.2317646914115581,0.9521842348741735,-0.1990736312824747,-0.05530040345567072,0.9936968819190198,-0.09751088268525614,1
19,3.841701417848207,0.39152468314852684,0.9179640080058397,-0.06364355812885072,0.03768518409778204,0.9972055606772252,-0.06450501262644251,1
20,4.0417014178482065,0.5320277163944205,0.8454475643221219,-0.04652875422714738,0.21668660859810063,0.975695894565373,-0.032625679801813016,0
21,4.241701417848207,0.5583774507980905,0.8295446089341528,-0.008388338840901895,0.3540240178752576,0.9339082237940569,0.04982393297692323,0
22,4.441701417848207,0.6946144309132029,0.7187985639631651,-0.02897269079010819,0.4459576575962768,0.8925347385270014,0.06710818246517539,0
23,4.641701417848207,0.6987475874575557,0.7142090498181164,-0.040709239493624254,0.45749738206444984,0.8879512292344678,0.04731553555834192,0
24,4.841701417848207,0.05698354590004623,0.997227416941972,-0.047857647203976235,0.3932434639535573,0.9192062283454444,0.02048140202110403,0
25,5.0417014178482065,-0.041682603090208215,0.9977381905666737,-0.05273579130310405,0.27304371352372386,0.9616375307244824,0.026464882529392178,0
26,5.241701417848207,-0.06853105045381946,0.9900234205418369,-0.12311426360230356,0.11210942522626727,0.9934742833733807,0.020983923636527808,0
27,5.441701417848207,-0.21105278490946755,0.9756516508261887,-0.05967058087609954,-0.04220816010981571,0.9989493424584875,0.017851678405682102,0
28,5.641701417848207,-0.020011583961264512,0.9772875139483828,-0.21097073633077787,-0.14833938295605803,0.9888787936861009,-0.010684515063311275,0
29,5.841701417848207,-0.10649276218928666,0.9720075041024914,-0.20942947158826908,-0.2879500132973647,0.9575432218980025,-0.01399171323464525,0
30,6.0417014178482065,-0.6548319320480579,0.7557722533470171,-0.001855219927601191,-0.4669662038868938,0.8842735627082328,0.00168247518645836,0
31,6.241701417848207,-0.8567998035398974,0.5154552285622285,0.014142277109945783,-0.7392701687516207,0.6704043047510453,0.06354278688583184,0
32,6.441701417848207,-0.9117244719761679,0.4101205279234416,0.023656706777904987,-0.8627933688487024,0.4969446627694413,0.09291719332649453,0
33,6.641701417848207,-0.9351786594590732,0.3518863228949822,0.04021057885406775,-0.9159896042552775,0.3843592924988981,0.115025993436296,0
34,6.841701417848207,-0.9178277503087889,0.39472952924525745,0.04219975716665837,-0.9565235064450847,0.26135498205525315,0.12944634012940817,0
35,7.0417014178482065,-0.8964933476110094,0.44103928280924065,0.04223776400706601,-0.9520589730305112,0.2775420826476168,0.1286627538633922,0
36,7.241701417848207,-0.8757338975489352,0.4797914606512008,0.05376146361417575,-0.9357170431424447,0.32303798788537685,0.14170417621131617,0
37,7.441701417848207,-0.8875451738374223,0.458852398636976,0.04144925407041718,-0.8944929486952318,0.4167179621859527,0.16195216801912965,0
38,7.641701417848207,-0.7759271864935365,0.6282409906786403,0.057011041837045216,-0.8522559280176055,0.48428848394047136,0.19779913417780645,0
39,7.841701417848207,-0.5774924165578171,0.7901326644769314,0.2054090585753164,-0.7577528383243658,0.5938859525508822,0.27038881517936203,0
40,8.041701417848207,-0.5692573851273637,0.7966463313299601,0.20322561909481837,-0.704380942018633,0.648517252079974,0.2885703766424802,0
41,8.241701417848208,-0.5891743667028455,0.7846841220363875,0.19272881010447082,-0.6960334823521468,0.6582799961355896,0.28671386107489133,0
42,8.441701417848208,-0.6536528488395859,0.7348641613025635,0.1808662976813923,-0.7423805346987569,0.6095528937161648,0.2780582878869786,1
43,8.641701417848207,-0.7055017085348201,0.6901750148070301,0.16101486947038693,-0.7895043594384128,0.55925840207342,0.252810019852906,1
44,8.841701417848208,-0.7492119379048039,0.6429385268620904,0.15909595462277987,-0.8329265290336276,0.4964351272630305,0.24451086203138728,1
45,9.041701417848207,-0.6786755771212887,0.7034348355159161,0.2111371431126743,-0.8398516542585004,0.4899342573676729,0.2336955761174088,1
46,9.241701417848208,-0.6653693609208842,0.7110651026635804,0.2273104338163257,-0.8294213634005323,0.5027270310393752,0.24356874634718037,1
47,9.441701417848208,-0.6649187626483873,0.7100899330402238,0.23163619335731514,-0.8265910921783343,0.5041597583200913,0.25014016954910684,1
48,9.641701417848209,-0.8521306049333813,0.5211271491459,0.04795754955099909,-0.827543762255952,0.5037214794304513,0.24786285060827853,1
49,9.841701417848208,-0.8810220998564149,0.4704400034906817,0.049862437568580026,-0.8367186105126336,0.4896215939971648,0.24530116492483986,1
50,10.041701417848207,-0.8996296840553758,0.4339644842313993,0.048386547636721206,-0.8486978299690255,0.47108665177556647,0.24039417614566555,0
51,10.241701417848208,-0.5894355790297734,0.7818429975441767,0.20319258196344783,-0.7992356244801213,0.5495091586291697,0.24343808482760504,1
52,10.441701417848208,-0.643118653721594,0.7438994002915215,0.18169226588173396,-0.7455159675944192,0.6255594306025517,0.22995943304411048,1
53,10.641701417848209,-0.6809919242083318,0.7116516519556312,0.172632341789873,-0.7817749169268569,0.5854917915045564,0.21453983626541553,1
54,10.841701417848208,-0.7072454882228781,0.6860308901063417,0.17077891324248312,-0.8174093999726193,0.5388136252196202,0.20376886443736572,1
55,11.041701417848207,-0.7136023805665733,0.6762810830981199,0.18279917694933226,-0.8334985356190405,0.5130301903429997,0.20513462632510537,1
56,11.241701417848208,-0.7227789623585088,0.662198892694059,0.19769470930381383,-0.843033801590274,0.4914611584200523,0.2185404748340026,1
57,11.441701417848208,-0.895052590145787,0.4433319246895838,0.0483494097621408,-0.8764959324775695,0.43825665299275296,0.19921341937195336,0
58,11.641701417848209,-0.9799861061951318,0.18709693820164564,0.06798505262242388,-0.9164769921011319,0.35671881962761065,0.1811673443884029,0
59,11.841701417848208,-0.9907929981826542,-0.08597649535596193,0.10458143716039223,-0.9729271698369195,0.16751476079354596,0.15922162889947897,0
60,12.041701417848207,-0.9857748591761725,-0.14884079966502795,0.07806627550532098,-0.9855315910084308,-0.06643000566091856,0.1559311946734243,0
61,12.241701417848208,-0.9324519828257443,-0.36128332265568835,0.0027677599613814704,-0.9491845898062213,-0.2770453464182408,0.1493133969287166,0
62,12.441701417848208,-0.5844583278455135,-0.7963005733724391,0.15592902186171495,-0.798252666878402,-0.5653806903081292,0.20769534142157026,0
63,12.641701417848209,-0.43605454270197486,-0.8853725533556623,0.1611579273676802,-0.5865961733591895,-0.7796806117623627,0.2190960361170957,1
64,12.841701417848208,-0.4874222918175071,-0.8617827975657009,0.14053440596239508,-0.5223309444794926,-0.8301955832133738,0.19479650420930983,1
65,13.041701417848207,-0.48478238670223345,-0.8650258484626769,0.1292916046567313,-0.49364259304844393,-0.8519588000847705,0.17459436785453822,1
66,13.241701417848208,-0.49862071131338503,-0.8579688682656706,0.12355892252791133,-0.48966666326356406,-0.8568557351636533,0.1613220629842137,1
67,13.441701417848208,-0.4182640788367224,-0.8663105284562608,0.27305902043459873,-0.4941464963096097,-0.8513786001038806,0.17599352110260727,1
68,13.641701417848209,-0.44089956799313496,-0.856095234960518,0.2696451735547341,-0.5155521703995743,-0.8371056509439505,0.1829209904685448,1
69,13.841701417848208,-0.3155785135685633,-0.9451734863407402,0.08400763353616748,-0.518149146913918,-0.8397503469248515,0.1622985409422124,1
70,14.041701417848207,-0.2782233966993311,-0.9604867257003014,-0.007549257089346894,-0.494770546411068,-0.8661458506929632,0.0706645012114021,0
71,14.241701417848208,-0.24053515510189816,-0.8307884303962656,-0.5019296993402713,-0.43317779869991585,-0.878062922564738,-0.20337772427325032,0
72,14.441701417848208,-0.19439646918360803,-0.8452618889857402,-0.49773723167672007,-0.31219822836021394,-0.7868845927128196,-0.5323015160225675,0
73,14.641701417848209,0.030834536934332746,-0.6929337936243599,-0.7203415779929675,-0.144568928462724,-0.7235746113998349,-0.6749367427105434,1
74,14.841701417848208,0.14977928162517512,-0.8064023511199945,-0.5720851465507487,-0.12137858417157621,-0.7061970605929117,-0.6975334765546634,1
75,15.041701417848207,0.19501374829385953,-0.8257101068941348,-0.5293131940063986,-0.06625302947433584,-0.7456705039706714,-0.6630128472311814,1
76,15.241701417848208,0.2480916005928897,-0.8331727248575506,-0.4942405975521465,-0.028703743914993474,-0.7672816113975969,-0.6406676391830397,1
77,15.441701417848208,0.2828130104873328,-0.8361845337861866,-0.4699066147181474,0.004875544126270559,-0.7864414368774791,-0.6176456066641769,1
78,15.641701417848209,0.2545549335046241,-0.8511115746252077,-0.4591414524604112,-0.01636374882347863,-0.7997250773861329,-0.600143339814903,1
79,15.841701417848208,0.15351797197447548,-0.8154601841886994,-0.5580832556919954,-0.029751172507267554,-0.79039948071726,-0.6118688818826535,1
80,16.041701417848206,0.19279998056854292,-0.4097829183393668,-0.8915750822729636,-0.06743239883617749,-0.7609771943793391,-0.6452647373146531,1
81,16.241701417848205,0.2670896824993708,-0.5465544533691491,-0.7936884344657771,-0.0980241220543098,-0.5966037572476773,-0.7965269790367657,0
82,16.441701417848208,0.30057359524216276,-0.2232925378481147,-0.9272518300788354,-0.10011812561615638,-0.42201713680890796,-0.9010426722207554,0
83,16.641701417848207,0.30281416013934703,-0.03470656963040572,-0.9524174706732295,-0.06583083755843175,-0.2625923113213632,-0.9626585993285781,0
84,16.841701417848206,0.30658544406143007,-0.010847184791650887,-0.9517813320672726,-0.06442603385150115,-0.2352615159798246,-0.9697944654724735,0
85,17.041701417848206,0.2892638805164628,-0.042666175939529344,-0.9562980732278272,-0.08723433500971414,-0.2650368713149273,-0.9602841390125154,0
86,17.241701417848205,0.23690152638450251,-0.11654847477813486,-0.964517558069102,-0.14827954090583467,-0.3380625308265372,-0.9293690886832375,0
87,17.441701417848208,0.026444197603914817,-0.2799205137464781,-0.9596589031510067,-0.36693177559435786,-0.47277199666320285,-0.8011539872148554,0
88,17.641701417848207,-0.707740454235654,-0.6730431512743532,-0.2147472140936839,-0.6336659986110142,-0.6190352712149665,-0.4639641529214504,0
89,17.841701417848206,-0.6915627402713087,-0.708387243537772,0.14116830190023572,-0.7236875656301054,-0.6888323262986276,-0.0422650399076237,0
90,18.041701417848206,-0.5008312846225143,-0.8339376802725434,0.2317670592750639,-0.6910959195272298,-0.7028896094965159,0.1683229837979602,0
91,18.241701417848205,-0.5059486420315282,-0.7948474769552574,0.33501262663415277,-0.6533360663477564,-0.7200251814816471,0.23391392100848063,0
92,18.441701417848208,-0.5380347665666263,-0.7615626428262547,0.3613044851881673,-0.6680654487697816,-0.6894667636237523,0.27986449938893504,0
93,18.641701417848207,-0.6213244753858886,-0.6929675313870121,0.3657210641046549,-0.7442102504559631,-0.6028615868883903,0.2875917421809687,0
94,18.841701417848206,-0.6659956629870137,-0.6524548287555683,0.36159711464007893,-0.8425151315673269,-0.46476111422085387,0.2723331779058146,0
95,19.041701417848206,-0.5980061916565942,-0.04563061636636795,0.8001915030731094,-0.9736167888361819,-0.04741802509416771,0.22320815261206448,0
96,19.24170141784821,-0.9784757580993264,0.20224679505015994,0.04100517898860306,-0.9647914043388574,0.1963998334884555,0.17494185182386437,1
97,19.441701417848208,-0.9950460305415716,0.041152853592349735,0.09049773336757133,-0.9657373480214465,0.1795935585573782,0.18734334351986356,1
98,19.641701417848207,-0.9977561361456514,-0.002677138214586138,0.06689937006191313,-0.977094991615401,0.13296980954005516,0.1661457405742957,1
99,19.841701417848206,-0.9990064977042699,0.023618970475736134,0.03779102774885779,-0.9809288737109202,0.1425551343131643,0.13212334540565243,1
100,20.041701417848206,-0.9984219808971606,0.045537297636424154,0.03286187130036624,-0.9803127028983725,0.15733094850473078,0.11930623277385441,1
101,20.24170141784821,-0.9982400491177605,0.04258148050067184,0.041274954339677275,-0.9809956213578199,0.1521682074730445,0.12038449863344221,1
102,20.441701417848208,-0.9978140083666268,0.044817915941062145,0.04856499889864202,-0.9803687624597197,0.15377981586573808,0.12340525850018609,1
103,20.641701417848207,-0.9968734180415701,0.054302336950845985,0.05739899479776654,-0.9776405827833373,0.16433158647662974,0.13120221256187084,1
104,20.841701417848206,-0.8794531828829948,0.4726440415782957,0.05630016942695669,-0.961524965860985,0.23611768392291824,0.1404214348484898,1
105,21.041701417848206,-0.8604131726707274,0.5073127918063098,0.04819650987759346,-0.943343187309414,0.30048362872409073,0.1407594395616816,1
106,21.24170141784821,-0.9950360305692824,0.023445335848791063,0.09671408426834012,-0.939774459520106,0.30887589662917714,0.1463545206517881,0
107,21.441701417848208,-0.9448977561969161,0.17002048674765166,0.2797521481957294,-0.9517191866763646,0.2668982891928511,0.15164396769409777,1
108,21.641701417848207,-0.9964036137737864,0.04520303801908336,-0.07166954592004002,-0.9604304173467926,0.23782477631490398,0.14495788769788337,1
109,21.841701417848206,-0.9576979291248672,0.13961751533534264,0.2516378865781663,-0.9665610776987463,0.2145735801485703,0.14042030401641858,1
110,22.041701417848206,-0.9660439412707271,0.10361862974042221,0.23669026829347545,-0.9761477061673172,0.1775209329995243,0.12498789577900535,1
111,22.24170141784821,-0.9983971837463903,0.01598380498603277,0.05429163347556817,-0.9826728793317177,0.1372279734152709,0.12458930747961341,1
112,22.441701417848208,-0.9978825596505099,-0.003242102195126043,0.06496064900155689,-0.9871078045501052,0.09862681617606227,0.12605924530650334,1
113,22.641701417848207,-0.9978997086562948,-0.017820368692475396,0.062278454728309965,-0.9901668264095432,0.06130497908059608,0.12574321221434248,1
114,22.841701417848206,-0.997426606958827,0.013269992208849512,0.07045616394169406,-0.9917911420897113,-0.02151960654623646,0.12604458340794214,1
115,23.041701417848206,-0.9994501183498358,0.00374838873288183,0.032945568934320366,-0.98891236159689,-0.09114232627518817,0.11724085227432307,1
116,23.24170141784821,-0.998423690393532,0.046264618197287166,0.031776084781168,-0.9910797886453566,-0.07150228860863088,0.11246455113680721,1
117,23.441701417848208,-0.9961304288130087,0.07996666573157646,0.03646232527672559,-0.9924798908829904,-0.03864684587911473,0.11614683592971307,1
118,23.641701417848207,-0.9913051294515849,0.12555333902491975,0.03937638102556239,-0.9930094564217977,0.0139090549107988,0.11721244664443486,1
119,23.841701417848206,-0.9886629738903281,-0.1428243942042247,0.0463326718259283,-0.9926407527411554,0.00743407523553267,0.12086798799874736,1
120,24.041701417848206,-0.9875724468885456,-0.151432978582626,0.0420560952082419,-0.9924443095012002,-0.009194023095218223,0.12235098069901555,1
121,24.24170141784821,-0.9890408369688732,-0.14200504718761167,0.04040778861995879,-0.9923915067567778,-0.006744435072232011,0.12293742275063918,1
122,24.441701417848208,-0.9877500183218109,-0.15080725198805447,0.040088328140172096,-0.9922005092719843,-0.01940499568738879,0.12313243091398561,1
123,24.641701417848207,-0.9696702260753259,-0.24297340782257792,0.02652500243373947,-0.9631483469689766,-0.22892569529534576,0.14120300196692265,0
124,24.841701417848206,-0.4518090810115815,-0.8661668868521601,0.2135965318920416,-0.7484534796334541,-0.6302750581830395,0.20632677930152823,0
125,25.041701417848206,-0.4824227382844717,-0.862893580559682,0.1506086658031461,-0.5683673246956296,-0.7886866272079401,0.23437574166644642,1
126,25.24170141784821,-0.515786629406158,-0.8456594593589657,0.13720142755283762,-0.570689816450193,-0.789424892792484,0.2261005794765252,1
127,25.441701417848208,-0.5415266010436433,-0.8272969519633991,0.1494278877391634,-0.5965182879765524,-0.7677907416583951,0.233801858703422,1
128,25.641701417848207,-0.5766047089530393,-0.8029795949073214,0.15083361619896113,-0.6338378631022907,-0.7374120458713668,0.23339459698486495,1
129,25.841701417848206,-0.593351459968914,-0.7904711107668803,0.1519521898352655,-0.6545105776763176,-0.7198944450372965,0.23101491664880947,1
130,26.041701417848206,-0.5944331237493028,-0.7886199377284355,0.1572509307026352,-0.6620429632082953,-0.7125587057152257,0.23229120899384567,1
131,26.24170141784821,-0.6013529820283527,-0.7822718862507999,0.1625585647919639,-0.6748676103338302,-0.7002751353653869,0.2327411508764509,1
132,26.441701417848208,-0.603603591222109,-0.7799221619313007,0.16548149743152304,-0.6849231976654493,-0.6913770955204311,0.22995200605663152,1
133,26.641701417848207,-0.6167287465504818,-0.7701911617510486,0.16263833354668136,-0.7035235942853829,-0.674974576916418,0.2224047499499027,1
134,26.841701417848206,-0.634449106851263,-0.757122586663784,0.1556911030829175,-0.723234510144038,-0.6560795222298651,0.21561888564628431,1
135,27.041701417848206,-0.6429965902039212,-0.7494832004628166,0.15757638531881896,-0.7331964457158543,-0.6432908222108948,0.22045382747611658,1
136,27.24170141784821,-0.6478772380026485,-0.7454970690863801,0.15649026954311435,-0.7410683297900151,-0.6352145878673011,0.21753196993272617,1
137,27.441701417848208,-0.640603006697313,-0.7518853197288656,0.15587255623291796,-0.7385826009242392,-0.6385252220040992,0.21628981131020036,1
138,27.641701417848207,-0.6356847739514981,-0.7556621066697938,0.157732839667591,-0.7384422447960379,-0.6389684714444406,0.2154584498239597,1
139,27.841701417848206,-0.6318297520622781,-0.7589346969843146,0.15750965088605395,-0.7392501158219241,-0.6388804745739486,0.21293427498981543,1
140,28.041701417848206,-0.5626843229295228,-0.8055067533013431,0.1858634528767665,-0.7382724655383596,-0.6398980182552421,0.21327046879707817,1
141,28.24170141784821,-0.5519836654159859,-0.8111973251136783,0.19306199222619344,-0.7349941970521292,-0.6409561064071222,0.22126635523530955,1
142,28.441701417848208,-0.532982152531785,-0.8231903013511961,0.1956725653838887,-0.7227400282031905,-0.6527019664625469,0.227215744632224,1
143,28.641701417848207,-0.5230642941607392,-0.8305773063648291,0.19116768117512142,-0.7186366165130472,-0.6578728039588392,0.22531042412195396,1
144,28.841701417848206,-0.5224133547352664,-0.8315417497828659,0.1887395166950852,-0.7201066487815607,-0.6568940365436012,0.22346507363354115,1
145,29.041701417848206,-0.5224298353324999,-0.8316619455832771,0.18816342743236603,-0.7216416684788749,-0.6556583879223786,0.22213820171697907,1
146,29.24170141784821,-0.5262088967864904,-0.829936882253837,0.18522680264347627,-0.7255887995024892,-0.652915585205141,0.21730654070405908,1
147,29.441701417848208,-0.5248156548709986,-0.8310311637534631,0.18427081503290174,-0.7248345732837755,-0.6543928723434593,0.21537133049364895,1
148,29.641701417848207,-0.5219612126425057,-0.8334070941272743,0.18162903940476546,-0.7241599368689224,-0.6565762628772799,0.2109502236550209,1
149,29.841701417848206,-0.5152254554464288,-0.8381001516271963,0.17925084630899418,-0.7220577532049389,-0.6594456829923948,0.20919845176131177,1
150,30.041701417848206,-0.48462573827840644,-0.8557736401062686,0.18107835513218182,-0.72300711738531,-0.6589898913876457,0.2073476097259949,1
151,30.24170141784821,-0.441461245837433,-0.8780132835814446,0.1849449709459321,-0.7225954311046868,-0.6595896679559451,0.20687511419307547,1
152,30.441701417848208,-0.5309744364760228,-0.790283412184116,0.30580758040899003,-0.710443472885105,-0.6718514507713522,0.20948914036622668,1
153,30.641701417848207,-0.5213966249267403,-0.8006077927700141,0.2952502695526797,-0.675181254467897,-0.7067739044828462,0.2111893026581366,1
154,30.841701417848206,-0.5486869242517123,-0.7817975347986802,0.29620140738676876,-0.6743426796762029,-0.7071911409625374,0.21246797526032657,1
155,31.041701417848206,-0.4380096076471341,-0.8577912959577451,0.2689640797354471,-0.7203750517509435,-0.6587003454564654,0.21719493481745555,1
156,31.24170141784821,-0.6257500368961834,-0.7437465373507062,0.23511269532558216,-0.7975131849141371,-0.5633872277190916,0.21579516104654883,1
157,31.441701417848208,-0.6325580395977191,-0.7519020540514064,0.1857784369983953,-0.8640864544399328,-0.45320313567060827,0.21900118052593726,1
158,31.641701417848207,-0.5968756685974121,-0.7808050763953401,0.1846154622767543,-0.842993922463472,-0.49322768217992563,0.214680460734246,1
159,31.841701417848206,-0.5597102313982045,-0.8092532953811953,0.17841961994927577,-0.8144170578304935,-0.5421221301757315,0.20695036092853292,1
160,32.04170141784821,-0.5573063020126505,-0.8107904191248693,0.17896530946611766,-0.8091432803480937,-0.5508967692055123,0.2044502422264514,1
161,32.24170141784821,-0.5845448488105367,-0.7914631077913007,0.17858742602546906,-0.8248947877508916,-0.5285678319210383,0.20041116785175628,1
162,32.44170141784821,-0.5903266697740779,-0.7856958384949342,0.18492288210275543,-0.8282936146341117,-0.5222439737824043,0.2029554626126655,1
163,32.64170141784821,-0.9209638120817517,-0.18742248100216968,0.3416115783325258,-0.8725519430020156,-0.44167433586991484,0.20875077915370083,1
164,32.84170141784821,-0.9755228146595196,0.21474721355314208,0.047316723786944064,-0.9781739925461213,-0.12088644451834221,0.16900327759571576,0
165,33.04170141784821,-0.9907607546280311,0.1315246096148381,0.033081779797324073,-0.9872213075229928,0.09264758925319211,0.12965536694701238,0
166,33.24170141784821,-0.9846945281248464,0.1603587713606083,0.0682770146440418,-0.9764998934671814,0.16687456683011856,0.1363848855403136,0
167,33.44170141784821,-0.9177774896780422,0.3929482246683457,0.05723785609425277,-0.9577985089191895,0.24882639263342352,0.14390080834107485,1
168,33.64170141784821,-0.872352088687108,0.48452122091663824,0.06512311298371948,-0.9289740590308442,0.3366792246128417,0.15379953628621107,1
169,33.84170141784821,-0.855573339092676,0.5148690534425256,0.05388988069208309,-0.9139606675087194,0.3782840442865105,0.1468913887375886,1
170,34.04170141784821,-0.9938765200398495,0.012623432085456115,0.10977300157990956,-0.9313070929480092,0.33553078119123214,0.14172576864469744,1
171,34.24170141784821,-0.9930977254762947,-0.015137918234658562,0.1163088607343866,-0.9460313870675483,0.2900295499716419,0.14459417286425416,1
172,34.44170141784821,-0.9908822970140734,-0.028524570573679454,0.13167620262485233,-0.9552584885369704,0.2551660604532221,0.14957105893469475,1
173,34.64170141784821,-0.982683005969574,0.011695397988508268,0.1849251941853591,-0.962100038706641,0.22423923234853627,0.1551782271983398,1
174,34.84170141784821,-0.9766856148545915,0.017375136383332435,0.2139703586288743,-0.9668242526392421,0.19674622504360775,0.16291650450356898,1
175,35.04170141784821,-0.9730011159645942,0.0012093982526733811,0.2307972393412044,-0.9695326116110219,0.17052479963648104,0.17586303685439325,1
176,35.24170141784821,-0.9746409074044633,0.0025147193283728197,0.22376053673627072,-0.9721031064944319,0.15997234253751472,0.17153541898667832,1
177,35.44170141784821,-0.9749256147832518,0.004620097512963586,0.2224830338216142,-0.9731337020493372,0.15335753389807577,0.17173312066241808,1
178,35.64170141784821,-0.9722401162905794,-0.0063405927759286225,0.23389945095816375,-0.9730058730627416,0.13647378620232353,0.1861034031526955,1
179,35.84170141784821,-0.972108004078246,0.0046229122764931555,0.23448807451359388,-0.9714172990805519,0.14155171379261852,0.19055587991300177,1
180,36.04170141784821,-0.9724638179554971,0.007321772111875397,0.23293886412653442,-0.9713521113691148,0.140358990050969,0.19176660202088142,1
181,36.24170141784821,-0.9699831859418738,-0.019071871729475737,0.24242294177488027,-0.9733548324015657,0.10651093298380623,0.2030659779368245,1
182,36.44170141784821,-0.9794725822406591,-0.002372533862812945,0.2015634682225059,-0.9782490634562998,0.008075081112005056,0.20727653729234996,0
183,36.64170141784821,-0.9814526903384636,0.021677447682533293,0.19047494556860353,-0.9830847903618688,-0.004272980745914813,0.18310116491902992,0
184,36.84170141784821,-0.9764700687291438,0.05039296173341622,0.20968250829250412,-0.9816683639030982,0.0178768804910064,0.1897567929106222,1
185,37.04170141784821,-0.973356653198578,0.06481937138835238,0.21994379910986755,-0.9795435472014673,0.03815593255682287,0.1975817905240423,1
186,37.24170141784821,-0.9684301354834611,0.11844908768696616,0.21934649829347763,-0.9750750551898361,0.10144065312707921,0.19732823072153124,1
187,37.44170141784821,-0.974640145184017,0.07036117166320244,0.2124285595626434,-0.9677718212276882,0.17514193425631133,0.18095028295805912,1
188,37.64170141784821,-0.974707838047789,0.04464366287463982,0.2189784779683626,-0.9687482202237743,0.16998907849967493,0.18063941708304151,1
189,37.84170141784821,-0.976226078340707,0.035001694356173035,0.21391008709203288,-0.9703027474434438,0.1632363877761274,0.1785117923541941,1
