,timeStamp,x_gaze,y_gaze,z_gaze,x_head,y_head,z_head,fixations_head
0,0.041701417848206836,-0.9990530851828995,-0.020739826571001155,0.038246471475617355,-0.995763710317853,-0.060784687394643745,0.06899170234425817,0
1,0.24170141784820684,-0.9975277619856209,-0.05363207068016414,0.04540886546167255,-0.9927526762967127,-0.0957001128384902,0.07268845925189447,0
2,0.4417014178482069,-0.9965475501006253,0.05857264329154172,0.05884068189852621,-0.9903333240461003,-0.11239938726531329,0.08127905650402059,0
3,0.6417014178482069,-0.9746696547160971,-0.19703650755219748,-0.10580963503971133,-0.9899868374052453,-0.10915901711961781,0.0895006745552221,0
4,0.8417014178482068,-0.948603538978402,-0.31081818146804285,0.05952632952358184,-0.9797997388474229,-0.16177725597916795,0.11756101055355303,0
5,1.041701417848207,-0.9573060193380383,-0.2754958091598057,0.08756280303041633,-0.945888479763353,-0.29012944573742006,0.14532683360986978,0
6,1.241701417848207,-0.6599201471019289,-0.7400672879789967,0.1296372196260838,-0.8421022075259655,-0.5074504387576305,0.1826415185125885,0
7,1.441701417848207,-0.5240055896743888,-0.8417916597762405,0.12963388261237418,-0.7049736521813801,-0.6809881602253357,0.19815972184820896,0
8,1.641701417848207,-0.38004919772766377,-0.9220349848451183,0.07358052750709188,-0.6173823296917532,-0.7607185498846435,0.20036553307839314,0
9,1.841701417848207,-0.250371359399872,-0.9680585936759909,-0.013294419969403807,-0.5436571286996367,-0.8151872509597863,0.199766544463014,1
10,2.041701417848207,-0.23166128131628377,-0.9723976148985625,-0.02785550714822808,-0.49596944595115505,-0.846961696093849,0.19149463186401672,1
11,2.241701417848207,-0.12480359768781851,-0.9884271311041192,-0.08623148207851764,-0.45118065159408155,-0.8744086061577052,0.17845338075945533,1
12,2.4417014178482073,-0.09448870697612688,-0.9900229969725847,-0.10452918118593263,-0.4385428079020572,-0.882051719404217,0.17223521687925444,1
13,2.641701417848207,-0.44161280720916757,-0.8817940277630116,0.16558206759889163,-0.43845017999625374,-0.8836213000962433,0.16424018289528836,1
14,2.841701417848207,-0.4477960182068398,-0.8779432918751277,0.16939392648369714,-0.44847729315939255,-0.8771742880486607,0.17156160965306141,1
15,3.041701417848207,-0.48090511503459304,-0.8494317085076234,0.21724650265397719,-0.4919434641615809,-0.8462886952634552,0.20441886492685163,1
16,3.241701417848207,-0.6448815659976069,-0.6885084011365926,0.33178901036774416,-0.5234603740474076,-0.8164277085157133,0.2437930137840903,1
17,3.4417014178482073,-0.39803222640375396,-0.900370496096301,0.17579339152360593,-0.5775541445170913,-0.77230672439063,0.26452510960615133,0
18,3.641701417848207,-0.4173557242936983,-0.8975498403982454,0.1421917135432541,-0.5979895551592899,-0.7548872108543098,0.2693581088606684,0
19,3.841701417848207,-0.4184212192726771,-0.8974285481045813,0.139805880810751,-0.5995010902774189,-0.7543907280286953,0.26738188461547163,0
20,4.0417014178482065,-0.31536593363505433,-0.9399237596918402,0.13071975317161091,-0.493519419479791,-0.8284954607340517,0.2646391016826517,0
21,4.241701417848207,0.020201198544625265,-0.9994393390136059,0.026700546987048393,-0.25679770288894144,-0.9329371700220511,0.2523552586775431,0
22,4.441701417848207,0.3610297147958433,-0.9307798128471213,-0.05750204370898269,0.03457975939557528,-0.9755810485816897,0.21690057143399782,0
23,4.641701417848207,0.5815525972148131,-0.7921947474907518,-0.1849974559845875,0.37187409130558524,-0.923708406156533,0.0920458614572258,0
24,4.841701417848207,0.7577075915853859,-0.46096916654274395,-0.46193791049313365,0.6873362382074895,-0.7251355444036782,-0.041801170906552054,0
25,5.0417014178482065,0.7346245503134705,-0.4994023352645352,-0.4592647140909697,0.777978857068079,-0.6184791005110944,-0.11060063375059388,0
26,5.241701417848207,0.9460177060418345,-0.2531204824478171,-0.20243646218191474,0.871157749363733,-0.485211420948382,-0.07519343525047335,0
27,5.441701417848207,0.9585815129453786,-0.2068118950467329,-0.1958323852342311,0.9387488668564664,-0.3437656273341074,-0.02399496695742322,0
28,5.641701417848207,0.9521611051671037,-0.23407594354714867,-0.19646292897000153,0.9669357153682615,-0.25323225357959117,0.03014544894789487,0
29,5.841701417848207,0.9939816233428517,0.09346724570906055,-0.057134984346471164,0.9969472777524975,-0.07135249631349423,0.031700893547620373,0
30,6.0417014178482065,0.9173490543428234,0.39466572678936657,-0.05205455401930709,0.9939392356000397,0.09272848871578956,0.05904424879100947,0
31,6.241701417848207,0.9100671567250568,0.379086689498869,0.1675441795323238,0.9684402189368558,0.24237674738139786,0.058112431323676786,0
32,6.441701417848207,0.8180020246701499,0.5724150128185638,-0.05668986448616016,0.9503657589831995,0.305096354625974,0.06100113561426197,0
33,6.641701417848207,0.7960637006576774,0.6036499740931021,-0.04346600134129135,0.9319716959518378,0.3548442783302219,0.07425830647785535,0
34,6.841701417848207,0.7834106974125432,0.619574911627667,-0.04893473266670411,0.9158960342440574,0.39205175540730386,0.08619672579663186,0
35,7.0417014178482065,0.6862085808239143,0.7208930673110011,-0.0971131767916504,0.8795044993248137,0.465764064741431,0.09765076376019481,0
36,7.241701417848207,0.6690671015524244,0.7394718953527729,-0.07436753057360192,0.7991657301445542,0.5908457720164403,0.11061378509398648,0
37,7.441701417848207,0.19779502717907627,0.857545309511615,-0.47486121062670206,0.6740759630906168,0.7379265563381967,0.03295441448893014,0
38,7.641701417848207,0.18491903022070055,0.8623780615588488,-0.47128444829448624,0.5013726380940194,0.8544651940675413,-0.13606876900215842,0
39,7.841701417848207,0.21330192172164186,0.8750772150471869,-0.43444465458227755,0.40414244605025346,0.8974136308140942,-0.17696795904790977,0
40,8.041701417848207,0.23128925707306663,0.872309264986871,-0.4307920911305753,0.40023272332364873,0.8988587409409372,-0.17851255142148642,0
41,8.241701417848208,0.29672509336349356,0.8591116872461373,-0.4169908006245718,0.4830992898712383,0.859688622105199,-0.16598358096139976,0
42,8.441701417848208,0.34426031434779053,0.843644016605116,-0.4120068072393306,0.5570236589064171,0.8161934890725744,-0.15346931880361322,0
43,8.641701417848207,0.596991212723025,0.6657755973401139,-0.44759842037020936,0.7214161937680417,0.6821207395596871,-0.11945698820821128,0
44,8.841701417848208,0.7557464276678917,0.12179790677090517,-0.6434381143306994,0.9367133599935342,0.3373507549393008,-0.09360848974055476,0
45,9.041701417848207,0.8214376798441683,-0.4276623718901457,-0.3772864081855119,0.958421011639818,-0.27489252296681976,-0.07657196134515833,0
46,9.241701417848208,0.25518396204009747,-0.8318495437754753,-0.49285645175654524,0.6595114705953561,-0.7447913824881025,-0.1016386576289363,0
47,9.441701417848208,0.05309759583658824,-0.8922765618233207,-0.44835608899303253,0.1263448256645206,-0.9831500200837802,-0.132109890004741,0
48,9.641701417848209,-0.5024965449402158,-0.854751218581305,-0.12999067911554332,-0.2642971640557796,-0.9605737512023498,-0.08628486294315374,0
49,9.841701417848208,-0.5963392732160616,-0.802580811642387,-0.015604871149324134,-0.42540571356779355,-0.9050009804256891,0.0017900537472578437,0
50,10.041701417848207,-0.6987442631315912,-0.7128996438737364,0.05941845256643345,-0.5577165513480171,-0.829562632169533,0.02789422270705733,0
51,10.241701417848208,-0.6932770002712582,-0.705649567704983,0.14637516351026492,-0.6885129318264243,-0.7243344212052386,0.0359108474566351,0
52,10.441701417848208,-0.9783025783505298,-0.2026071323865942,-0.043294515804968126,-0.8808093376374009,-0.4734562676737653,0.003751443880865006,0
53,10.641701417848209,-0.9946187706448577,-0.10046761297606738,-0.025293473937034423,-0.9632892031615576,-0.2661954511026559,-0.034840965609824665,0
54,10.841701417848208,-0.9941360082060842,0.09973713612531573,0.0417863717687136,-0.99670341002764,-0.07128329366531902,-0.038742799118007674,0
55,11.041701417848207,-0.9863169984509459,0.12942326947386082,0.10211951765168871,-0.9982293826386908,0.041138251188983385,-0.042962121990081356,0
56,11.241701417848208,-0.8376479905108235,0.5432178214868477,-0.0570985324878206,-0.9729404127935136,0.21924122743299743,-0.07293995713502932,0
57,11.441701417848208,-0.9307464995332284,0.35928561556407324,0.0680058825057597,-0.8890357490716181,0.4498848500833105,-0.08496504303644153,0
58,11.641701417848209,-0.8404233249036137,0.5411457583160179,0.029153099569979878,-0.7672366863666629,0.634414164991614,-0.0941622766881551,0
59,11.841701417848208,-0.39655330666494804,0.8846798910088438,-0.24512642741588725,-0.48867233309547264,0.8610213703171866,-0.14086003948651332,0
60,12.041701417848207,-0.08667474456024765,0.9410046487745463,-0.32710508959676715,-0.4129309869397761,0.8977184179864034,-0.15358919894618736,0
61,12.241701417848208,-0.22957970759787877,0.930710370580902,-0.2847303354973488,-0.4326638704532143,0.8880867684375275,-0.15525420100800363,0
62,12.441701417848208,-0.4420163534773957,0.8887381278062172,-0.12151577445766365,-0.565935313330995,0.8155086627301364,-0.1210902231274412,0
63,12.641701417848209,-0.8015083575872846,0.5822402082974897,0.13631101407967755,-0.811997421654728,0.5823024451815576,0.0398001201210872,0
64,12.841701417848208,-0.815115617906178,0.5442998111203983,0.19830341666176227,-0.8762225516204493,0.47647005868807485,0.0721825685711712,0
65,13.041701417848207,-0.8744111307243693,0.4545832688553869,0.1695854538045085,-0.9320888151558377,0.35589207030342274,0.0674631377607838,0
66,13.241701417848208,-0.9974105342767089,0.031336573585491856,0.06473210385714036,-0.9773818595265462,0.16671163528242358,0.1301227548505308,0
67,13.441701417848208,-0.9955067703453587,-0.043422099822819304,0.08414743872234248,-0.982624629297161,0.033815588340375916,0.1824975174730093,0
68,13.641701417848209,-0.9975946535591956,0.004647770505709908,0.06916144460199722,-0.9655599812745583,-0.09210117939307773,0.243333711835165,0
69,13.841701417848208,-0.9417775840087041,-0.3293351739144653,0.06777407676580435,-0.9178768779699504,-0.2476223115043529,0.31013743362157686,0
70,14.041701417848207,-0.8420955609235062,-0.5366297244226856,0.05388511054974007,-0.8592775745264474,-0.3648742068277646,0.3584813288133086,0
71,14.241701417848208,-0.8088083268204531,-0.5867859236326618,0.03887634618200803,-0.8102562655136625,-0.46623314296617147,0.35512172644846624,0
72,14.441701417848208,-0.6323169994681141,-0.7553969376379648,0.17190310872938275,-0.7377638326491607,-0.5625529743080588,0.3731469929290309,0
73,14.641701417848209,-0.4321269825379527,-0.8966307612142015,0.09653781128182574,-0.6556438182857591,-0.6478942692822391,0.38776822893953583,1
74,14.841701417848208,-0.42073919178630925,-0.9003648725250336,0.11100283247729968,-0.6003513706495858,-0.6935117896855675,0.39827079898768003,1
75,15.041701417848207,-0.41987399796943764,-0.8850775819245205,0.2008569137565456,-0.5711976869516087,-0.7140555144286183,0.4047936816888497,1
76,15.241701417848208,-0.3920604065064386,-0.8852766481174268,0.25014774423924013,-0.5598894729529237,-0.7204409683722949,0.40925369780527043,1
77,15.441701417848208,-0.39972050414603477,-0.876607155356615,0.2679242686708749,-0.5545581293688717,-0.7133744043969031,0.4284416416529349,1
78,15.641701417848209,-0.5530292636273708,-0.8286536003586651,0.08655543994683472,-0.5407437918288169,-0.7135867874405234,0.4454099778730903,1
79,15.841701417848208,-0.5266484729446581,-0.8447449260670723,0.0951177997485041,-0.509272916718994,-0.7321487588434242,0.45232653163457326,1
80,16.041701417848206,-0.5215817750438382,-0.8450562000438459,0.11761152456105087,-0.49891637226633456,-0.7314946032537438,0.4647559562773223,1
81,16.241701417848205,-0.5165573720820015,-0.8487446308933319,0.11314164961444804,-0.5067091912426875,-0.7307315666530068,0.45746822076186233,1
82,16.441701417848208,-0.5159409400341062,-0.8489595898199918,0.11433530185115227,-0.5154653975479755,-0.7256384872469236,0.455789655166398,1
83,16.641701417848207,-0.5326525126888422,-0.8433325092194375,0.0712150238356364,-0.5499094185867998,-0.7239077425411805,0.4166019822786012,1
84,16.841701417848206,-0.6198067731999551,-0.7775033716453829,0.10643341099260621,-0.5590022016670889,-0.7222556665423235,0.4072631712773099,1
85,17.041701417848206,-0.670365108269207,-0.6787397656395627,0.29987155942964305,-0.5554580555256915,-0.7284354775851227,0.4010587283016697,1
86,17.241701417848205,-0.46534867247370404,-0.8712094558795549,0.1563479997090191,-0.5475286256973276,-0.7415256062302757,0.3877527296445736,1
87,17.441701417848208,-0.4428725548867365,-0.8878224822351666,0.12504055408499415,-0.5319693886999435,-0.7592059467757427,0.37498653291359185,1
88,17.641701417848207,-0.43457089560180534,-0.8995309670078505,0.044633799858029136,-0.5429893421504185,-0.7892391251723923,0.28681732445612945,1
89,17.841701417848206,-0.47321453349029613,-0.8661101242045989,-0.1610008013764397,-0.5561319413926529,-0.8019187927682128,0.21827394156887164,1
90,18.041701417848206,-0.4824620291647225,-0.8624826639293568,-0.152820302432559,-0.5657040051230499,-0.7956675758540515,0.2165458088310133,1
91,18.241701417848205,-0.5017969388087893,-0.8517657319566377,-0.15064849838780897,-0.5865869998335398,-0.779911371255776,0.21829783464849511,1
92,18.441701417848208,-0.7012007281225031,-0.6779717025081115,-0.22061711057559552,-0.5988856812018813,-0.7651856774297888,0.23627699826194185,1
93,18.641701417848207,-0.8521434435970222,-0.5163362372749426,-0.08513778016464135,-0.6279160182639159,-0.7378214543384379,0.24767110353350097,1
94,18.841701417848206,-0.7674215240264816,-0.6400578453691956,0.03728483662583781,-0.6543435021206075,-0.6991665566701926,0.2880984332940476,1
95,19.041701417848206,-0.6327271366353504,-0.766237994752796,0.1119629669240918,-0.6807232099571263,-0.6671787250347869,0.3024705940858101,1
96,19.24170141784821,-0.6248573163847947,-0.7706647738127343,0.12501656116115076,-0.7064648671719586,-0.638952281587505,0.30438031031232743,1
97,19.441701417848208,-0.6487183059458235,-0.7396885447898766,0.17895646464270523,-0.7168446665750239,-0.6235193895200837,0.31202130519476623,1
98,19.641701417848207,-0.9205722342557593,-0.3659862353751893,0.13638488564814036,-0.7222664490550754,-0.6175432001072059,0.3114025892164735,1
99,19.841701417848206,-0.6851392263441904,-0.7202816539944288,0.10852916402301531,-0.7153497105322733,-0.6267350208940038,0.3089951540500029,1
100,20.041701417848206,-0.4529291549766227,-0.8865433380682154,0.09431908767067705,-0.681914402424546,-0.657432267803088,0.3205862770258004,1
101,20.24170141784821,-0.4362112667770239,-0.8946315246067732,0.09671693707177115,-0.6356420242008817,-0.6960169395532325,0.3339455598218935,1
102,20.441701417848208,-0.4920648185461547,-0.8663335119238698,0.08566481463701138,-0.5758861514743705,-0.7417069086060034,0.3438400824019274,1
103,20.641701417848207,-0.26910756665573443,-0.9629197832796451,-0.0191470242416691,-0.5507994077566932,-0.7595434144436842,0.3459968410117439,1
104,20.841701417848206,-0.26198160967933803,-0.9646275351665364,-0.029314750354659167,-0.5343138383485404,-0.772831195201186,0.3424042433632446,1
105,21.041701417848206,-0.5094216585347908,-0.8569620805109107,0.07813812374298999,-0.5346111436846741,-0.7713272954113796,0.3453188793007582,1
106,21.24170141784821,-0.5264329641367531,-0.8465257446855762,0.07913594540234542,-0.5526071973441269,-0.7586793559968262,0.34500857993347134,1
107,21.441701417848208,-0.5247656292818503,-0.8471564786837903,0.08334827501816824,-0.552890688472236,-0.758089387692259,0.3458502087162487,1
108,21.641701417848207,-0.5241381095990965,-0.8473017859825118,0.08578417999101808,-0.5485118113076104,-0.761968882591132,0.3442937914323558,1
109,21.841701417848206,-0.5150499181129252,-0.8519579285825277,0.09429352988003793,-0.5351404808036293,-0.7700330101275324,0.3473813885618979,1
110,22.041701417848206,-0.5194627541946997,-0.8487886091844504,0.09857151679457765,-0.534546361165539,-0.772236069248708,0.34338264533314167,1
111,22.24170141784821,-0.5196278155756049,-0.8482235203878884,0.10248801266930226,-0.5319753050815381,-0.7750121529783309,0.34111352585216576,1
112,22.441701417848208,-0.5211827116001834,-0.8459557677946914,0.11281586796180054,-0.5295832867599513,-0.7737679487178466,0.34759848089642664,1
113,22.641701417848207,-0.5393947909364518,-0.8347684072964797,0.11052133590542734,-0.5445860940890589,-0.7659221892832477,0.34174432853871833,1
114,22.841701417848206,-0.5369185391141389,-0.8348694797191252,0.12129070116483012,-0.5392834518531278,-0.766080069841743,0.3497065700678859,1
115,23.041701417848206,-0.5581972190688173,-0.8206273678649048,0.12241971955104754,-0.5622750981658493,-0.7501300120038804,0.348068497674873,1
116,23.24170141784821,-0.578862867277814,-0.8087131197759468,0.10440723532956335,-0.5844976165512864,-0.7416017395586237,0.3292254487877404,1
117,23.441701417848208,-0.6032595098214026,-0.7914835517026746,0.09814148559177706,-0.614538644391546,-0.7205822364672527,0.32109732953927467,1
118,23.641701417848207,-0.5113549449707815,-0.8478374512908392,0.14031313709907264,-0.6258380519875951,-0.7097228235105191,0.32345053172414,1
119,23.841701417848206,-0.5002856969334009,-0.8570168900994063,0.12343529287932244,-0.6308163379910937,-0.7170943195497795,0.29638907637250245,1
120,24.041701417848206,-0.5070304967884852,-0.8519121879708085,0.13101793508223233,-0.6482273483492761,-0.7020405230113261,0.29485659039955237,1
121,24.24170141784821,-0.5819157056422127,-0.8035111731051438,0.12547472343911095,-0.7290917242224514,-0.6228670564856934,0.28365804697766184,0
122,24.441701417848208,-0.9662316365139613,-0.2561323136754453,-0.028154262391614525,-0.8509161459509959,-0.47103574057326114,0.23252321101882062,0
123,24.641701417848207,-0.9960812611861549,-0.06367054088349218,-0.06138553035856801,-0.9315323964943653,-0.30955192333174375,0.19085334957260558,0
124,24.841701417848206,-0.9923362572812652,0.12345677952558803,-0.005213067636373213,-0.9733295843067027,-0.14915356270868071,0.17430644005500423,0
125,25.041701417848206,-0.982497813713364,0.18046229386972634,0.046167158670819955,-0.9896278942534826,-0.003991699496822351,0.14359908513129568,0
126,25.24170141784821,-0.9740488085421429,0.20635217465573927,0.09299300292215373,-0.9874486499727859,0.061309959545528335,0.14555498111520873,0
127,25.441701417848208,-0.8851188707283462,0.46528358068710385,0.00870483908897184,-0.9771235493666852,0.15253618487765463,0.1481967664155369,0
128,25.641701417848207,-0.8562231876408878,0.5143053156465514,0.048702107180060225,-0.9460284820473075,0.2899255357068066,0.14482159680237092,0
129,25.841701417848206,-0.7581174737788257,0.650956483187643,0.03890440781181018,-0.8604078018699045,0.49462492617252435,0.12265641805557584,0
130,26.041701417848206,-0.24846233995843747,0.9580449195701236,-0.1428859605008603,-0.5752515477855866,0.8169080332344114,0.04179619608735785,0
131,26.24170141784821,0.14188958050578426,0.9612511314627186,-0.23635483749129446,-0.1898596781157454,0.9817774835869163,0.008140967235414149,0
132,26.441701417848208,0.46645977534522415,0.8744817081759841,-0.13303014714904118,0.10307049823640901,0.9936747144315561,-0.04457616283019219,0
133,26.641701417848207,0.6042349420571704,0.7936902795115484,-0.07039797586612884,0.2684916763530261,0.9616827776564658,-0.055483825463701106,0
134,26.841701417848206,0.6283934734570846,0.7747710063506867,-0.06965292696566702,0.3350322901536338,0.9371357844397709,-0.09762113540041964,0
135,27.041701417848206,0.577346440053053,0.8164992655890309,0.00019352167824612934,0.42014883964520217,0.9012544699429906,-0.10590246905794722,0
136,27.24170141784821,0.8718219947981412,0.48770480969536606,-0.04550195585023431,0.5697078026309799,0.8167147290072669,-0.09170643949018618,0
137,27.441701417848208,0.8677613660327267,0.4921189799666843,-0.06934782748988409,0.7140662015909477,0.6989182106679381,-0.04028392411625095,0
138,27.641701417848207,0.9462503443185635,0.30605082658471583,-0.10460964307276996,0.7062209307433572,0.707990516052016,-0.0011942195721451696,0
139,27.841701417848206,0.8799771309999641,0.47321083208563125,-0.04137338895832041,0.6341946181262885,0.7731705146534105,0.0021311054013548256,0
140,28.041701417848206,0.9098205295909839,0.3690157835964944,-0.18987879131553084,0.6379796389994102,0.7696092156697738,-0.026146421903160022,0
141,28.24170141784821,0.3043725707898064,0.8789361315687275,-0.3671901615972369,0.5417851043764706,0.8387440081005922,-0.05456546115566651,0
142,28.441701417848208,0.22664002614826106,0.8716101508967218,-0.43466083720679194,0.4633968755140194,0.8782094783739688,-0.11836996180605232,0
143,28.641701417848207,0.20880790565841373,0.8543696332991754,-0.4758695075656557,0.4430928942838913,0.879639548265742,-0.17292470084393752,0
144,28.841701417848206,0.7610332722546587,0.6388128742929492,-0.11290026642549345,0.648663185594629,0.7605064457754349,-0.02942817677402671,0
145,29.041701417848206,0.9617512502753728,0.26483381634589076,0.06998272867950113,0.7817727674375631,0.6188897905029849,0.07620214763499454,0
146,29.24170141784821,0.9686856735895887,0.2298607859344163,0.0938727056811375,0.8058181503858406,0.588306564744206,0.06747217491391955,0
147,29.441701417848208,0.8519488999833289,0.5202338208303712,0.05949658377948147,0.7550120396498934,0.6516176540156255,0.07315225874079785,0
148,29.641701417848207,0.572070529548784,0.8194558877668142,0.03503365847404889,0.6001155898316642,0.7915876645190604,0.1151097225357303,0
149,29.841701417848206,0.22477468213683027,0.9740471856146481,-0.026616206838511975,0.27287723021361016,0.9536418648637591,0.12690630721174018,0
150,30.041701417848206,-0.3046182244041646,0.9231201641433707,-0.23464206765362902,-0.0983331531387926,0.9859064026820745,0.13534827721206408,0
151,30.24170141784821,-0.29003953810705824,0.9301390799213972,-0.22520736741417005,-0.3852964372107648,0.9069180269644236,0.17042989127394417,0
152,30.441701417848208,-0.7359461654740505,0.6770339038998147,-0.002886952410110292,-0.6574622141710909,0.7257998882572837,0.2023807281906095,0
153,30.641701417848207,-0.916336942691351,0.4002620928981634,0.01081038611013142,-0.8348775667368958,0.507355680354926,0.21347051827142471,0
154,30.841701417848206,-0.9989197054699644,-0.044389104007097974,0.013748798829237564,-0.9417304502483844,0.2944327389712845,0.16264415543401092,0
155,31.041701417848206,-0.9980826657133235,-0.04158125398528846,0.04584748324169258,-0.9818657860244526,0.08467340856162353,0.16961719287012295,0
156,31.24170141784821,-0.9953171605794262,-0.07068165437476617,0.06593825589864363,-0.9796167959324136,-0.03429831160306433,0.19792563994665194,0
157,31.441701417848208,-0.9423063674474957,-0.3250675248427856,0.07993631315297481,-0.9515952034533206,-0.19785702040081135,0.23520027262472865,0
158,31.641701417848207,-0.9306448974219002,-0.3542945754211259,0.09151736845946476,-0.9212965856454944,-0.28492671651504126,0.2646306246334916,0
159,31.841701417848206,-0.8038222119210403,-0.591347190906572,0.06464016885244613,-0.8651689277122827,-0.4171892015208724,0.2782730613184756,0
160,32.04170141784821,-0.6367647254623462,-0.7698352313651347,0.043409687350322586,-0.7849358359898893,-0.5515770133159879,0.2822029974331745,0
161,32.24170141784821,-0.5271065594485204,-0.8446963975771851,0.09298747714864444,-0.7017589907350295,-0.653293077487649,0.28415220187299256,0
162,32.44170141784821,-0.5979296138562826,-0.7781753080975388,0.1921545386947117,-0.6622759911435298,-0.6805964643107587,0.31333522675012043,0
163,32.64170141784821,-0.6074829495032981,-0.7704219271758674,0.1934283334710715,-0.6540482056367242,-0.6791611430155146,0.333108220434803,0
164,32.84170141784821,-0.6255749252386211,-0.7565688073267116,0.19041967517284256,-0.6765119804587278,-0.6532248192532701,0.3400424617710887,0
165,33.04170141784821,-0.9644663925061713,-0.25449153190483553,0.07098336364855111,-0.8452406967123443,-0.4494780368790513,0.28902882033559446,0
166,33.24170141784821,-0.991410571409032,0.13033731259089065,0.0108288431977535,-0.917066812445489,-0.20805085960857808,0.3401518797937212,0
167,33.44170141784821,-0.9959789650933359,0.07971076873785964,0.04089125137271951,-0.9253823783748618,-0.035934684645173944,0.3773276457307845,0
168,33.64170141784821,-0.9933825420270459,0.10152621874602416,0.0536987160276598,-0.9174947640465851,0.044993351773864876,0.3951948332699381,1
169,33.84170141784821,-0.9873553355574297,0.1560061812466796,0.028133836551453517,-0.9216071390771471,0.08314511961548203,0.37911366407208735,1
170,34.04170141784821,-0.9874574960420975,0.15281208924232995,0.03970086764373959,-0.9134245671402107,0.10262747351744658,0.39385677831433163,1
171,34.24170141784821,-0.981134834360111,0.18451940008753845,0.05768039351888029,-0.8989705436109074,0.15441875263935187,0.40988633857841195,1
172,34.44170141784821,-0.9848272612981298,0.16263189961615968,0.060548580753514006,-0.9009361340877104,0.1527420611015137,0.4061821574928577,1
173,34.64170141784821,-0.9848912077318925,0.15454432249621267,0.07813681153336233,-0.8958817928557643,0.16077472744047935,0.414182689457178,1
174,34.84170141784821,-0.9863488480660345,0.1442639802813352,0.07939681298511533,-0.8996085830440612,0.1643043897266504,0.40460902712372837,1
175,35.04170141784821,-0.9897080048259128,0.11645259819658253,0.08316764729614837,-0.9065292000373706,0.1521269378857002,0.3937793852515969,1
176,35.24170141784821,-0.9927432052304328,0.07536405145735958,0.09370799441210893,-0.9114754303298228,0.12224944087551601,0.3927691613539541,1
177,35.44170141784821,-0.9709878292555523,0.19439154662877167,0.1392643602536726,-0.9048372608250361,0.11559912547869354,0.40976380222172787,1
178,35.64170141784821,-0.9645170544729875,0.25483006228899663,0.0690542611613375,-0.9032088689091904,0.14096712301778586,0.40539118065378477,1
179,35.84170141784821,-0.9838647581766962,0.04346630224908156,0.17355350237521225,-0.907335993755487,0.14919666322375139,0.3930416646090355,1
180,36.04170141784821,-0.9835645366138689,0.02561953516168967,0.17873008066255772,-0.9093192212717809,0.128834942890367,0.39565150235544205,1
181,36.24170141784821,-0.981698876557085,0.01258975435952691,0.19002319293108555,-0.9063160781857177,0.10380933151686413,0.40965203418521173,1
182,36.44170141784821,-0.9846198450221035,0.0010959744284042372,0.17470706805593586,-0.9132424154684743,0.07796558352948318,0.3998870570226223,1
183,36.64170141784821,-0.9984621393306629,0.05254040716758745,0.01768790371695578,-0.9189407672224965,0.05190337909196557,0.39096535086291856,1
184,36.84170141784821,-0.9985835361996401,0.051515311295889286,0.013307664449859898,-0.9204571461918375,0.04219278911879174,0.38855940417232915,1
185,37.04170141784821,-0.9940373615669701,0.05385435900776852,-0.09481261427067247,-0.9215762601215125,0.02536323563787083,0.38736791691933437,1
186,37.24170141784821,-0.9935673308301328,0.049612655232473504,-0.10179657925426265,-0.9237750041970562,0.013664779633784018,0.382691802131022,1
187,37.44170141784821,-0.9931839987634306,0.06283720514553667,-0.09816837703547691,-0.9220268838943675,0.02317660739507354,0.38643145607687956,1
188,37.64170141784821,-0.9774516309429636,0.07281947740244428,0.19820603643122403,-0.9178963380461628,0.035583589348268906,0.39522160969579817,1
189,37.84170141784821,-0.9796461759977031,0.06693559275611148,0.18924321989298776,-0.9184789731215265,0.03639581705150671,0.3937914682097365,1
