,timeStamp,x_gaze,y_gaze,z_gaze,x_head,y_head,z_head,fixations_head
0,0.033366700033366704,-0.9941115619191091,-0.046516780891473264,-0.09786925745219482,-0.998146162872294,-0.04305317875420832,-0.043019313598362086,0
1,0.2333667000333667,-0.9963618997716772,-0.03887670754008506,-0.0758390815755107,-0.9992810622973581,-0.03670721568918336,-0.009483609556049736,0
2,0.43336670003336675,-0.9153245664070906,-0.1501944432350552,-0.37366103269271167,-0.9985350023780486,-0.04994410760060716,-0.020819105212512675,0
3,0.6333667000333668,-0.9060595150263456,-0.16557903936062404,-0.38940947209157195,-0.99574159863226,-0.0802156034419357,-0.04543265034881601,0
4,0.8333667000333668,-0.8863061830123948,-0.43160834310755986,-0.1678558551673034,-0.9822482547424715,-0.18612229191250712,-0.02338500606381629,0
5,1.0333667000333666,-0.7870948563685845,-0.6156358148222252,0.038395710519434086,-0.9310048122633676,-0.3609135963477417,0.05451069173833038,0
6,1.2333667000333668,-0.7259820621300841,-0.6837480868032549,0.07374685931101892,-0.871185711978781,-0.4795837647979347,0.10504697894877303,0
7,1.4333667000333667,-0.6914376523509103,-0.7160261723854958,0.09602340011912926,-0.8356192895037773,-0.5328107879681118,0.13361537050056252,0
8,1.6333667000333667,-0.7040773775258105,-0.6871008108543204,-0.17935306571038268,-0.8132785510556705,-0.5659098943072726,0.1353661328321116,0
9,1.8333667000333667,-0.6896788979079601,-0.6822089804163136,-0.24276310432146617,-0.8037644067183136,-0.5828349405474367,0.11944124316928051,0
10,2.033366700033367,-0.6703494461684804,-0.6902653157339539,-0.2723332772841332,-0.7781500598933514,-0.6209797229004603,0.09416298654164189,0
11,2.233366700033367,-0.377512203810928,-0.9064040764634546,-0.18951566200250772,-0.7032037894128285,-0.7095927384511536,0.04452612820391543,0
12,2.433366700033367,-0.2566130955732375,-0.9506454382994076,-0.17442181578245328,-0.5594426779929026,-0.8285274316213357,0.023794644168018908,0
13,2.633366700033367,-0.20751869900403636,-0.9570222090885268,-0.20259437523038068,-0.3950982468333659,-0.9184977861089024,0.01609944912863145,0
14,2.833366700033367,-0.17071393947932095,-0.9621124043553222,-0.21259461952992179,-0.30927953703899186,-0.9509513426957353,0.006140992926683679,0
15,3.033366700033367,-0.024008774224040685,-0.9623159857038154,-0.2708717822497452,-0.23737283584386543,-0.9713517732976045,-0.011396021895419533,0
16,3.233366700033367,-0.015058978556440061,-0.9567516663301657,-0.2905158793238121,-0.21685923778649496,-0.9748957021430931,-0.05050189035656529,0
17,3.433366700033367,-0.42504895331603565,-0.7177616561065852,-0.5514994037241335,-0.49410017667215766,-0.8525820126743565,-0.17020260596326406,0
18,3.633366700033367,-0.5931388055063187,-0.406716069552147,-0.694815368404147,-0.7762909061159553,-0.5291322823133288,-0.3426243670487507,0
19,3.833366700033367,-0.6445441693394113,-0.08148674498319286,-0.7602122888789766,-0.903031217606977,-0.08795625810665957,-0.4204739191521107,0
20,4.033366700033366,-0.5206986216285906,0.255312705877336,-0.8146707111782522,-0.7759557512479867,0.39793671727950686,-0.4894272582784729,0
21,4.233366700033367,-0.3967598032771049,0.3215309418228349,-0.8597671265837242,-0.6265847292274078,0.5393050548526471,-0.5626203292713478,0
22,4.433366700033367,-0.30631826276080987,0.13426377857214117,-0.9424130515133641,-0.5205146752331897,0.5056520510145799,-0.6880265083349886,0
23,4.633366700033367,-0.27588165964135386,-0.0010066559064751575,-0.9611910822086409,-0.5317675501964689,0.40980748312086324,-0.7411350074960631,0
24,4.833366700033367,-0.21626797223356525,-0.0731991598958886,-0.9735861786079945,-0.5462698752924456,0.2527081430728959,-0.7985786234132646,0
25,5.033366700033366,-0.16469360973883937,-0.08706332200811297,-0.9824947800737177,-0.5311768720131123,0.10930092125933147,-0.8401811942969369,0
26,5.233366700033367,-0.049272414910263275,-0.09561826135801106,-0.9941978561754103,-0.4518896262743573,0.0632661306231329,-0.889827602618394,0
27,5.433366700033367,0.10055559445820168,-0.07717487365672299,-0.9919337736458148,-0.32615781728747145,0.06434447041946298,-0.9431229333171317,0
28,5.633366700033367,0.13406175770895412,-0.04945948769110151,-0.9897379472351857,-0.29036056735701093,0.06634529746893296,-0.9546146041350266,0
29,5.833366700033367,0.12803038738879305,-0.04186376835232115,-0.9908862925706557,-0.300674000524786,0.06290397822155323,-0.9516502692335687,0
30,6.033366700033366,-0.3270781368230652,0.009273660035987922,-0.9449517932899485,-0.42903969212681026,0.08024509071979356,-0.8997142146232348,0
31,6.233366700033367,-0.38191015736047107,0.018019436176688226,-0.924023772218429,-0.6803608922311785,0.10932111266586517,-0.7246778254147784,0
32,6.433366700033367,-0.8502990867589078,0.006914099762602581,-0.52625436652007,-0.8976491203270646,0.09134115870683655,-0.4311413335579645,0
33,6.633366700033367,-0.9522832278586385,-0.06541668813653297,-0.29812297941014243,-0.986314322926225,0.032071407474018286,-0.16172656310333852,0
34,6.833366700033367,-0.9695883702241099,-0.0660661998954105,-0.2356557861745276,-0.9996527420906764,0.019471096067306747,-0.01775589053046192,0
35,7.033366700033366,-0.988610886216263,-0.05669807168704044,-0.1394053238641431,-0.9964684947534409,0.02111077494025991,0.0812703768001209,0
36,7.233366700033367,-0.9924130218334917,-0.12173773588478183,-0.0172138826812722,-0.9854651091985374,-0.039535840217767196,0.16521330421788058,0
37,7.433366700033367,-0.9616649895952933,-0.27422675930307094,0.0003636878065521324,-0.9777478747122259,-0.11507546997589817,0.17540447458816896,0
38,7.633366700033367,-0.9145022414429353,-0.3973070589595173,0.07637245116392377,-0.9575071868011619,-0.19985937628861003,0.20793320305726276,0
39,7.833366700033367,-0.8856411668697556,-0.4399536768465924,0.1485950395361237,-0.937271964750373,-0.23929673436939386,0.25349228195966744,0
40,8.033366700033367,-0.8781610416816804,-0.4354825872838788,0.1979598470525905,-0.9201104268855615,-0.24220156468145493,0.3077908452217598,1
41,8.233366700033368,-0.8608458176077972,-0.4577195160236919,0.2223450538199589,-0.9042131342207382,-0.264339915269927,0.33544450673367293,1
42,8.433366700033368,-0.8389752113239013,-0.4845865370061753,0.24758126531782976,-0.885024180552819,-0.29207874800076106,0.36252200595704415,1
43,8.633366700033367,-0.8221807583083054,-0.5028217154587395,0.26681289910855194,-0.8677974415007383,-0.31361970255973276,0.38544815824066053,1
44,8.833366700033368,-0.8083112396369793,-0.5141060498913392,0.28692840455704893,-0.8541465410469922,-0.32605659370251455,0.40511823474212133,1
45,9.033366700033367,-0.7974525963458902,-0.5323877865919323,0.28395880206280333,-0.8431739455570078,-0.35083470759695534,0.40739747848899055,1
46,9.233366700033368,-0.7820555653733589,-0.5511286873105806,0.2909403077812918,-0.8240254221154817,-0.376636269314945,0.4232342428773014,0
47,9.433366700033368,-0.9204424279198578,-0.3613236321598988,0.14910053563879552,-0.8212988618021757,-0.3730709261581772,0.4316089244419435,0
48,9.633366700033369,-0.9376652366096776,-0.315638749293465,0.1454513114350437,-0.8407249243174888,-0.32402016019970775,0.4338116381743452,0
49,9.833366700033368,-0.9560751072595348,-0.25709463696389206,0.14079324175213054,-0.8633826067690232,-0.2590127232710066,0.43299293702376174,0
50,10.033366700033367,-0.9725512501919689,-0.19515662092956246,0.1267200025938813,-0.8881795861724419,-0.18829100006951738,0.4191461821362224,0
51,10.233366700033368,-0.9908549794522832,-0.10043826867374123,0.09010307364589148,-0.9165161052444906,-0.08879917227932402,0.3900165840448036,1
52,10.433366700033368,-0.9958206356287694,-0.09120311591685645,0.004822167870375939,-0.9275931059689765,-0.0043947371412452205,0.37356621373497745,1
53,10.633366700033369,-0.9978571848388279,-0.06542937532190032,-0.00018844233858452552,-0.9320165689581666,0.03278868177438989,0.360929380260107,1
54,10.833366700033368,-0.9854296400512577,-0.12235779286099992,0.11813972674182784,-0.9302966744322783,0.03752155337813618,0.3648838590186413,1
55,11.033366700033367,-0.9832877951143448,-0.12680436251109123,0.1306360043300715,-0.9266502762608246,0.025676631564956143,0.37504663189690857,1
56,11.233366700033368,-0.9825040308569728,-0.12063693079410891,0.1418892535690366,-0.9251628052408221,0.026945101179329058,0.37861292281348335,1
57,11.433366700033368,-0.9821891489336967,-0.11277579165853246,0.15028671442510272,-0.922172866254488,0.026450310477844782,0.3858724994342141,1
58,11.633366700033369,-0.9985944665168568,-0.05197702629683216,0.010367264791299007,-0.9225528224690797,0.026873453881657565,0.38493389982022286,1
59,11.833366700033368,-0.9916224204560123,-0.0930916658263921,0.08954840591896092,-0.9223096429972238,0.034597774301731735,0.3848998784719218,1
60,12.033366700033367,-0.9866045317376587,-0.08177164342114643,0.14115557476387594,-0.9227306622599167,0.033407722203506816,0.3839948554636498,1
61,12.233366700033368,-0.9798311216468185,-0.11007860357103777,0.16677432082964155,-0.9239913342040377,0.011288799353429881,0.38224674926675406,1
62,12.433366700033368,-0.9743114386075089,-0.1540595345833918,0.16426466571516618,-0.9269107795208352,-0.04057556804861987,0.3730818007965673,1
63,12.633366700033369,-0.9697416253095962,-0.19262402218220812,0.14999055377006537,-0.9289630265315151,-0.09127330435866142,0.3587434727613307,1
64,12.833366700033368,-0.9884308442483074,-0.07369821505511095,0.1325633404688824,-0.9322271569298957,-0.07669702746952788,0.35365250438777085,1
65,13.033366700033367,-0.9843118232537427,-0.1093705019904551,0.13844973057846222,-0.9238819727505295,-0.1217178253819072,0.36280417777485663,1
66,13.233366700033368,-0.5595611235433735,-0.7274834367895681,0.3970632169009314,-0.6953100710758884,-0.5745628779525179,0.431765450608734,0
67,13.433366700033368,-0.2238218638354827,-0.9053811359750201,0.3608168120941613,-0.2913617554724191,-0.7861334434139078,0.5450711298484104,0
68,13.633366700033369,0.301428910866084,-0.883134877851316,0.3594626534379164,0.056206329780754294,-0.8243433779124072,0.5632928579207619,0
69,13.833366700033368,0.4968156455291808,-0.8452744564984522,0.19668580922036413,0.2878389649628407,-0.8430572524445801,0.45431618873832447,0
70,14.033366700033367,0.6197477064845673,-0.7795139308941372,0.09094400392048356,0.5351447863381137,-0.7831666236102279,0.3166545393928377,0
71,14.233366700033368,0.7871535645386616,-0.5972317105073387,-0.153959571961465,0.6791116599896723,-0.7292902342499626,0.08332531124278181,0
72,14.433366700033368,0.9357261537088856,-0.31636175091899393,-0.15598656294900506,0.8481198905145608,-0.5282500305482334,-0.04055313230023293,0
73,14.633366700033369,0.9642711970060953,-0.23081461976596854,-0.130021805581694,0.9370130885933271,-0.3482431065922217,-0.027077860251369146,0
74,14.833366700033368,0.908558070983251,-0.10453683579110448,-0.4044678993615905,0.9571055849723479,-0.2735554402685588,-0.09547942351216353,0
75,15.033366700033367,0.964939889914992,-0.23322718851256447,-0.12039969846045308,0.9301826072833791,-0.2914109992442651,-0.22324862066080992,0
76,15.233366700033368,0.9420695169813953,-0.33541369690846834,-0.001636184780166004,0.9426695133726685,-0.2964641049060569,-0.15324236705293606,0
77,15.433366700033368,0.8789449703455712,-0.47658920859261017,0.017845597700629153,0.9122776705673743,-0.40202967102375803,-0.07824062500193965,0
78,15.633366700033369,0.8792865822476925,-0.47505265615150616,0.034352294866149234,0.8925803198585318,-0.4497441985577524,-0.03210184519441382,0
79,15.833366700033368,0.9467487907891019,-0.3219329884655255,-0.005087049933842249,0.893940693711655,-0.44779076879439095,-0.018800625225072084,0
80,16.033366700033366,0.9172537669151296,-0.3972332821274079,0.029176131516913156,0.9179521963336258,-0.3826266233000239,0.10469303887219408,0
81,16.233366700033365,0.9925583047633464,-0.08610153992357553,0.08610770272223904,0.970246892771513,-0.1055700819986915,0.2178897080038743,0
82,16.433366700033368,0.921065576597933,0.36352268437273144,0.13960466164409013,0.9391785732990281,0.18527140596614144,0.28916796777536047,0
83,16.633366700033367,0.8222441397188438,0.5470255298622322,0.15709119764316207,0.8566754287051701,0.39134192454890027,0.33609330243724844,0
84,16.833366700033366,0.7588020825152543,0.6458532338397528,0.0842199495918106,0.7910089566248482,0.49893680730041345,0.3540718752741304,0
85,17.033366700033366,0.8078994266373724,0.5854917998495839,0.06706615202842779,0.8367069998547765,0.43057038063425446,0.3384236157753957,0
86,17.233366700033365,0.9402964239036815,-0.3204411739275923,0.11471743217948507,0.9365558379875618,-0.12172710015621438,0.328703020094089,0
87,17.433366700033368,0.5429444067505836,-0.8376772510475307,0.059230011444446735,0.6539110795720914,-0.7041877043764029,0.27662244489186705,0
88,17.633366700033367,0.3644769623824157,-0.923519658808796,-0.11944866548510498,0.3722278494884886,-0.9022303323694933,0.21777707734655766,0
89,17.833366700033366,0.16114269885743104,-0.948558004322706,-0.2725265914369988,0.20727320321124032,-0.9690750761688407,0.13390786376799388,0
90,18.033366700033366,-0.002490256618542297,-0.9594261646501535,-0.28194899043385646,0.06994118952513034,-0.9944088481521549,0.07911556562721701,0
91,18.233366700033365,-0.13163529413735753,-0.9760767624942887,-0.17305000160658643,0.009999937176819407,-0.9979781305507692,0.0627666487782468,0
92,18.433366700033368,-0.22730162393300524,-0.9617093750170329,-0.15313082564188896,-0.10008490159438288,-0.9923961916026696,0.07164364148590244,0
93,18.633366700033367,-0.33915509932849314,-0.9288451915934371,-0.149065182565317,-0.2171078254556154,-0.9728903235166558,0.07967816848792983,0
94,18.833366700033366,-0.43386115268064374,-0.8579313768845295,-0.275169498221803,-0.3774073660505842,-0.9229930986985185,0.07514931673453264,0
95,19.033366700033366,-0.5109236306107406,-0.7647407356504883,-0.3925922196379975,-0.5359146217348285,-0.8441992257291412,0.011098895852038963,0
96,19.23336670003337,-0.6510920368095808,-0.5972670908866727,-0.4683494227037353,-0.7437355111029057,-0.6664116071985027,-0.0524696037302424,0
97,19.433366700033368,-0.7845391948181484,-0.39077849310559404,-0.481446176763522,-0.8971307508684173,-0.43335760503913684,-0.0857764653096258,0
98,19.633366700033367,-0.8881134007506444,-0.28485002893153016,-0.360714635723077,-0.9553574465855544,-0.2769669306519545,-0.10286626550412582,0
99,19.833366700033366,-0.9373988346670922,-0.25714537833304846,-0.23486097838238496,-0.9798030007829172,-0.1927249798536388,-0.05332130715957456,0
100,20.033366700033366,-0.9934339351141414,-0.07474939026327226,-0.0866114612444634,-0.9940492835200685,-0.1084367464386807,-0.010367929158323965,0
101,20.23336670003337,-0.9954532256033506,0.08691061427782254,0.03897974809739677,-0.9983732023734206,-0.013422521772501412,0.05541466134434323,0
102,20.433366700033368,-0.8706686283643251,-0.30978961657969306,0.38205566746430014,-0.9262691572221905,-0.1456911564815305,0.34756227542983903,0
103,20.633366700033367,-0.2919360523340331,-0.7576685874990525,0.5837051077940053,-0.5658319136020937,-0.5743253324095821,0.5915950118975107,0
104,20.833366700033366,-0.017518857596380666,-0.8717795358819116,0.4895850594595761,-0.2096446472661359,-0.7059626892354772,0.6765100171320974,0
105,21.033366700033366,0.2220655447376419,-0.8845871951413057,0.4101126528557882,0.008271722216520783,-0.7620863014836186,0.647422619084777,0
106,21.23336670003337,0.38751556442331925,-0.8730063785032982,0.29612759145718354,0.2712554750383349,-0.7872727692110304,0.5537346423337833,0
107,21.433366700033368,0.4576190342542859,-0.8572884770619745,0.23588405326544518,0.33201689821448044,-0.793072028236222,0.5106873185514992,0
108,21.633366700033367,0.4212851752851279,-0.8180189168105206,0.3916169720851257,0.24930344669976684,-0.8012190644048266,0.5439630523278864,0
109,21.833366700033366,0.2906055735657928,-0.8475000788735312,0.44417565998358743,0.13723030698559874,-0.8120530776811515,0.5672192185330186,0
110,22.033366700033366,-0.0223641975522455,-0.8223746330083856,0.568506645213728,0.02124508052376578,-0.8141048336052994,0.5803291880080015,0
111,22.23336670003337,-0.4310119514864355,-0.6529058038272814,0.622850470823059,-0.3484939388769701,-0.7190693887864686,0.6012413730576674,0
112,22.433366700033368,-0.5314336332688465,-0.5444655655382508,0.6489495676659215,-0.5760075501156647,-0.5226198342477829,0.6285569274620797,0
113,22.633366700033367,-0.48280964613501026,-0.5574906009241156,0.6753510757230305,-0.5521733150504937,-0.4993359529446277,0.6676587723103987,0
114,22.833366700033366,-0.9327756188008329,-0.28246901021673015,0.22392164530903216,-0.8168707758384666,-0.30384177534021223,0.4903083837129139,0
115,23.033366700033366,-0.9945895929211894,0.050175779186963115,0.09096116113948666,-0.9275542046971952,0.01427663767351202,0.37341582045394506,1
116,23.23336670003337,-0.9919571333653352,0.11406422622177224,0.054867092706422996,-0.9295853886790149,0.1065668999460716,0.3528661233249365,1
117,23.433366700033368,-0.9976786178200775,0.0216931644924982,0.06455061702974993,-0.9391268404295163,0.12437643161233337,0.3202675145003889,1
118,23.633366700033367,-0.9975321428286705,0.01715582156280569,0.06808305082871825,-0.942874817619896,0.1212392097171091,0.31030329087107467,1
119,23.833366700033366,-0.997367203998957,0.016201500309004836,0.07068360329694799,-0.9439411995277782,0.11728274569887683,0.3085770072370792,1
120,24.033366700033366,-0.9754103751940629,-0.023184981091692595,-0.2191735764538134,-0.9590549872998256,0.08787828323169712,0.26924141336648255,1
121,24.23336670003337,-0.9920810568551035,-0.07238209507409235,-0.1026450629204652,-0.986613492923127,0.013270095425176636,0.16253528893576882,1
122,24.433366700033368,-0.9996023716561547,-0.00037225769935819925,0.028195035087694855,-0.9881527942334148,0.026045766809085675,0.15124706040125663,1
123,24.633366700033367,-0.9986901432714796,0.01440300652379366,0.0490973638341963,-0.9843182529831427,0.04541357915328159,0.17045581149583316,1
124,24.833366700033366,-0.9975028907258268,-0.036930741471477936,0.0602005259776526,-0.9827982912816914,0.033569904371428254,0.18160556206867975,1
125,25.033366700033366,-0.9859889079049088,-0.15342731959309178,-0.06546702292731027,-0.9834140499592899,0.013113615072945324,0.18090008137749825,1
126,25.23336670003337,-0.9837908719655334,-0.16854002347832947,-0.061235453155996725,-0.9822820314075948,-0.02051251758442475,0.18628270825848992,1
127,25.433366700033368,-0.9992926469320663,-0.031982376459402814,-0.0197821481015875,-0.9788189481185489,-0.022351705421997322,0.20350397556024835,1
128,25.633366700033367,-0.9999202353351218,-0.0006226367269912792,0.012614883703838049,-0.9753260793146021,0.0015246667198647085,0.22076393364904434,1
129,25.833366700033366,-0.9986151910374526,0.03872692138834278,0.035607945588218254,-0.9714998127926247,0.042009420171247924,0.23328806733472546,1
130,26.033366700033366,-0.9860466144363041,0.03122656653810142,-0.16351445104621334,-0.97619078417022,0.06280973501493324,0.20762102515998895,1
131,26.23336670003337,-0.9518813452990327,0.13007081523315953,-0.27749502247118807,-0.9938257495918901,0.09192766659156149,0.06212635160017512,0
132,26.433366700033368,-0.8868843817339065,0.32051078706815445,-0.33272951298227027,-0.9594062804140167,0.2785054642502142,-0.044433044965586976,0
133,26.633366700033367,-0.812082050399423,0.43965876418237804,-0.38369638322076133,-0.9059688068264817,0.41544305212993726,-0.08141002084733148,0
134,26.833366700033366,-0.7618702647556855,0.5030577732896809,-0.40802766623591813,-0.8604082447877573,0.5004324088854833,-0.09625516317748016,1
135,27.033366700033366,-0.7290890397301691,0.5397492850120701,-0.4208323674271016,-0.8307481901155644,0.5475904544652046,-0.100010693419779,1
136,27.23336670003337,-0.7212364998295794,0.5493548930175052,-0.4219325927577801,-0.8211757677051126,0.5624424966560809,-0.09658569505466992,1
137,27.433366700033368,-0.7244097211607812,0.549603494706331,-0.4161328567829596,-0.818735543508487,0.5674136358240858,-0.08782867229301633,1
138,27.633366700033367,-0.7212149550152323,0.5507107212170538,-0.42019839385577035,-0.8144038764689903,0.5733800986082551,-0.08933973646854744,1
139,27.833366700033366,-0.7157976792380518,0.5547359914206479,-0.4241481606938433,-0.8082032546215088,0.5827315430641389,-0.08503792058422147,1
140,28.033366700033366,-0.691126916006271,0.45954894900087234,-0.5578156948704961,-0.7836731097607815,0.6121457195745131,-0.10551812661560987,1
141,28.23336670003337,-0.43601784647850317,0.8358628920910509,-0.3334991202048855,-0.6249692630151403,0.7717478039582093,-0.11755316827714125,0
142,28.433366700033368,-0.22624708377842484,0.9128794704577529,-0.33979895452830805,-0.3887449266257499,0.9131254979640993,-0.12279742257293587,0
143,28.633366700033367,-0.08054398592654799,0.9596695644145045,-0.26934549089884413,-0.16393923680413952,0.9800709337080057,-0.11218240297298891,0
144,28.833366700033366,0.15008557698839914,0.9701079547236051,-0.19069576755146647,0.00321678775196399,0.9961226068310227,-0.08791703155092902,0
145,29.033366700033366,0.16493812197703295,0.9578449891753226,-0.23521988145226205,0.060312696383371334,0.9914328930459553,-0.11585852252421804,0
146,29.23336670003337,0.06923300204344923,0.868502113794587,-0.4908267207094437,0.014772283408987563,0.9597173078680453,-0.2805788100006773,0
147,29.433366700033368,0.13718395378764656,0.7110602964747126,-0.6896186029976881,0.06538308818573463,0.8710672931905693,-0.48679238132180264,0
148,29.633366700033367,0.14033832221415604,0.48968639539996633,-0.860530295502897,0.20069870456948874,0.7797011486125228,-0.5931156285552102,0
149,29.833366700033366,0.14550965642138042,0.4487870240537521,-0.881712621509474,0.1991352693139197,0.7258215926654558,-0.6584285535544873,0
150,30.033366700033366,-0.11952085490750239,0.6585011811833218,-0.7430282360868596,0.06707098095866987,0.7937518240201754,-0.6045324849649406,0
151,30.23336670003337,-0.4592793983653802,0.6253610980723362,-0.6308612614948685,-0.33107787574883063,0.8373949179599437,-0.4349220522858104,0
152,30.433366700033368,-0.661048971932719,0.4373849424202251,-0.6096791523832445,-0.7038148439251097,0.6128283727162936,-0.3592854729384043,0
153,30.633366700033367,-0.8754296741531208,0.1829461445122277,-0.447385285654627,-0.8677327573348036,0.410385114988139,-0.28039957069209387,0
154,30.833366700033366,-0.9680812761275728,0.08509300674781095,-0.23574949207543833,-0.9533266142982414,0.25059293636324664,-0.16843855471802827,0
155,31.033366700033366,-0.9729414589809309,0.05565979914990439,-0.22424741727531655,-0.9789521450061494,0.17500289581096581,-0.10500801991103081,0
156,31.23336670003337,-0.9951926525920014,0.05879055900614113,0.0783278647649786,-0.9886973986671732,0.14947851906929055,0.011559680169301364,0
157,31.433366700033368,-0.9835929811161346,0.02785529707620103,0.1782384075441432,-0.9843621132140679,0.11546493676866453,0.13303788349843537,1
158,31.633366700033367,-0.97752023733133,0.016385495472093725,0.21020395130880506,-0.9733216393502016,0.0961349709842608,0.20833399560919413,1
159,31.833366700033366,-0.9725571146349641,0.0218061853822113,0.23164012832838382,-0.9614925249451852,0.0976227071152761,0.25690841078099685,1
160,32.03336670003337,-0.969914105526346,0.03244700758176212,0.2412754019787702,-0.9503098852413939,0.10622874678064856,0.2926201896142877,1
161,32.23336670003337,-0.9832985489260396,0.01296711285314864,0.1815373726376989,-0.9639499667124112,0.08315506460201992,0.25275620052963266,1
162,32.43336670003337,-0.9861033561436736,0.00986168595988345,0.16584003784433898,-0.966648918156888,0.08345310610748759,0.2421269256136757,1
163,32.63336670003337,-0.987688836721307,0.02989511025029094,0.15354818201214382,-0.9654335220968406,0.10102121271365855,0.24027656771635217,1
164,32.83336670003337,-0.9883462904545189,0.047337556308651,0.14467468993406285,-0.9627191958459553,0.11911683325627727,0.24286401541750358,1
165,33.03336670003337,-0.9893317478577386,0.047499844246059526,0.13771876225610086,-0.961009529881784,0.11805539043707856,0.25004721207232206,1
166,33.23336670003337,-0.98903062721668,0.047772126723306996,0.13977210857575756,-0.9570931280174109,0.11558134622311114,0.2657323779803688,1
167,33.43336670003337,-0.9904123113012867,0.05370317136367857,0.12727695395603664,-0.9571744303559964,0.12069012209919912,0.26315585553119236,1
168,33.63336670003337,-0.9883395657172174,0.08000862743983601,0.12955123454871348,-0.9512155003499929,0.1503969990149547,0.2693878515843063,1
169,33.83336670003337,-0.9894883140979012,0.09311374543444317,0.11064676531586214,-0.9534390795675227,0.16329058795623436,0.2535549357404472,1
170,34.03336670003337,-0.98971564530048,0.0880868573740099,0.11271045650437894,-0.9529882881163452,0.1605980073286776,0.25694669243859897,1
171,34.23336670003337,-0.9899726857115264,0.08728474149284533,0.11106509554146453,-0.952763217875807,0.16381515765730018,0.25574761931375034,1
172,34.43336670003337,-0.9885033840901487,0.09596363774208569,0.11684194398258795,-0.9504771644973027,0.1679767043392969,0.2614899358837263,1
173,34.63336670003337,-0.9929166419339983,0.041089639956318764,0.11148176379468004,-0.9603694025335214,0.11515842899763644,0.2538289717668253,1
174,34.83336670003337,-0.9538673677274887,-0.04289296846355215,-0.29714851175972035,-0.9823553157363466,0.0705059908628998,0.17322511046896114,1
175,35.03336670003337,-0.9219626097502567,-0.07708263039563101,-0.37953025480689456,-0.9990626460632201,-0.023065702931689993,-0.03663062365595297,0
176,35.23336670003337,-0.8281947874214708,-0.4186665294156125,-0.3725744640135599,-0.9620335715577877,-0.23451388066928963,-0.1396232321972143,0
177,35.43336670003337,-0.7973085575949065,-0.4690106686219961,-0.37990532597566723,-0.8744064332080226,-0.4577624610869873,-0.1608319582172926,1
178,35.63336670003337,-0.6565235241774507,-0.49104633571777656,-0.5725821848256941,-0.8293943437325465,-0.5264510461858365,-0.18696074067647722,1
179,35.83336670003337,-0.6476145290838895,-0.49580342563369745,-0.5785969105079479,-0.8071757013530223,-0.5563254929312172,-0.1974065172685411,1
180,36.03336670003337,-0.6549479704988501,-0.4122047199836441,-0.6333485807694236,-0.8112088331356072,-0.5478584385255288,-0.20442935302724097,1
181,36.23336670003337,-0.6637525935623898,-0.39704130560260625,-0.6338696208090265,-0.8277893423881039,-0.5222974386151716,-0.2048662740538373,1
182,36.43336670003337,-0.5606567819998176,-0.5660655529209994,-0.6043457310131776,-0.8268740608513327,-0.5245837552505614,-0.20270957357373534,1
183,36.63336670003337,-0.612332790727981,-0.44321763849579476,-0.6546805925987829,-0.8257170640015937,-0.5273632831229601,-0.20019814642089245,1
184,36.83336670003337,-0.6079953750362426,-0.41378422141927923,-0.6775870734001499,-0.8201930928582634,-0.5266710967189531,-0.22338497332732893,1
185,37.03336670003337,-0.5739802220066319,-0.4229235459761929,-0.7012006695690903,-0.7919265052942177,-0.5505146323058393,-0.2641704938664685,1
186,37.23336670003337,-0.5823590592963719,-0.40663356447209636,-0.7039226309049615,-0.7872961850105183,-0.5471096759934593,-0.2843162315138124,1
187,37.43336670003337,-0.8508294892960291,-0.4307349480008833,-0.30092621141225645,-0.7986511122851697,-0.5336529224217267,-0.2781563575336939,1
188,37.63336670003337,-0.8479430503579676,-0.43205426296250404,-0.30711837653509527,-0.8063593203277001,-0.5250886200047968,-0.27215177321139694,1
189,37.83336670003337,-0.8467263197712152,-0.4325548641250503,-0.30975930805781066,-0.808751679040923,-0.5211919280821492,-0.27254301633045036,1
190,38.03336670003337,-0.5904875162452284,-0.532101228089007,-0.6067889058187469,-0.8052798257482757,-0.5264732369273368,-0.2726725747890303,1
191,38.23336670003337,-0.5530246214584675,-0.5133980787980461,-0.6561906588387203,-0.8067651269860467,-0.5221340752352653,-0.2765972475593395,1
192,38.433366700033375,-0.5484804420759496,-0.5135856472262211,-0.6598477003243967,-0.8006770332291571,-0.5295325486638751,-0.2801991583943395,1
193,38.63336670003337,-0.6020694343254952,-0.43319953410826184,-0.6707089979263461,-0.8003237502862788,-0.5287134927519883,-0.2827435893343993,1
194,38.83336670003337,-0.6301100474983026,-0.3987552783735972,-0.6662998994528531,-0.8035354719553944,-0.523667293268786,-0.2830252837998132,1
195,39.03336670003337,-0.5175109584684164,-0.3841189736262554,-0.7646142962078418,-0.798351444428409,-0.5139639285693393,-0.31380894077231714,1
196,39.23336670003337,-0.46241733780223904,-0.35611565318382976,-0.8120048320406379,-0.7660890660799216,-0.49077548579294494,-0.4150264634664788,1
197,39.433366700033375,-0.5927680445635467,-0.27760934339365606,-0.7560152761716211,-0.7785094064979863,-0.387564310492185,-0.49367702926799306,0
198,39.63336670003337,-0.9521714288070042,0.18059126689951321,-0.24648806154306435,-0.9246303804519584,-0.08231910276731734,-0.3718631803027168,0
199,39.83336670003337,-0.9521521052675631,0.17161989941804137,-0.25288926145308843,-0.9539804649738327,0.021620741991966758,-0.2990883079694472,0
200,40.03336670003337,-0.9550377088826945,0.1462196649339593,-0.2579201120476927,-0.9561890993199151,0.022492719797355853,-0.29188436734071144,0
201,40.23336670003337,-0.8958728577294792,0.22515101469819337,-0.38303895802384164,-0.9517655636008878,-0.017470642132697764,-0.30632839993535593,0
202,40.433366700033375,-0.6559787232613054,-0.5303137398725458,-0.5370840268811405,-0.8885607005735849,-0.3029135712739686,-0.34453337970976056,0
203,40.63336670003337,-0.6367688036227144,-0.517516951168535,-0.5715782500989003,-0.8042900406785075,-0.4786684600437442,-0.35212786857151107,1
204,40.83336670003337,-0.468093268566211,-0.5991600207240478,-0.6495351887996214,-0.7620047926193829,-0.5338631654049771,-0.3665226004612399,1
205,41.03336670003337,-0.510575395719939,-0.6045528455297939,-0.6114152617061964,-0.7344417831947818,-0.5726402057575599,-0.36425054817749875,1
206,41.23336670003337,-0.5138996841652801,-0.6019733515491117,-0.6111752601664726,-0.7265177863944843,-0.586063359724495,-0.3587501142033215,1
207,41.433366700033375,-0.530203182239319,-0.6000711274182542,-0.5989985205176099,-0.7315406476263125,-0.588778656765328,-0.34378477890693715,1
208,41.63336670003337,-0.5436584819248966,-0.5954497808917847,-0.5915023359776721,-0.7386280697520693,-0.5880554444116802,-0.3295745270376853,1
209,41.83336670003337,-0.5908554119467226,-0.4244279493010893,-0.686112817272306,-0.7520110806823006,-0.5735568502908734,-0.324825913398933,1
210,42.03336670003337,-0.5733016481301569,-0.4337806674848482,-0.6950967938119448,-0.751494224947577,-0.5737617981894683,-0.3256590683657194,1
211,42.23336670003337,-0.5614220474752842,-0.4447473088540765,-0.6978575183199767,-0.7527825148624114,-0.5735778127909376,-0.32299686994054255,1
212,42.433366700033375,-0.42824532164727735,-0.5636903311002063,-0.7062996213444829,-0.7445654383925199,-0.5844300731030198,-0.3225892087534146,1
213,42.63336670003337,-0.5526151930836778,-0.5824945975944125,-0.5960842995302035,-0.7357622051282408,-0.5950221575676159,-0.32342326680127403,1
214,42.83336670003337,-0.5549338266907134,-0.5855728585448501,-0.5908915935516549,-0.7318040099868668,-0.6043324391261335,-0.31503205231690345,1
215,43.03336670003337,-0.6359042811492358,-0.4528902222368797,-0.6249129473921176,-0.7336494316338342,-0.6046208638732143,-0.3101485489770346,1
216,43.20987654320988,-0.636813875865385,-0.45417871447394226,-0.6230487804531067,-0.7342610024127877,-0.6075687538337801,-0.30285473366060556,1
