,timeStamp,x_gaze,y_gaze,z_gaze,x_head,y_head,z_head,fixations_head
0,0.04,-0.9998750937866747,0.004728798111124387,0.015080957977293283,-0.9996252242885726,0.020122101593209697,-0.018561034278657153,1
1,0.24000000000000002,-0.9994079131951239,-0.029720673808893833,0.017335068252345643,-0.9999068950148098,0.000270151819959748,-0.013642885319336284,1
2,0.44,-0.9993848898810025,-0.003341866802825956,0.0349095087878428,-0.9997400097919416,0.02153397607245631,-0.007496712327409594,1
3,0.6400000000000001,-0.9986125876359202,0.009355505388774495,0.05182059758447611,-0.9993859553814576,0.03478832680588284,0.0041814476367427016,1
4,0.8400000000000001,-0.9953557542971689,0.023244105229914533,0.09341645443697012,-0.9979683593804749,0.05058849413712794,0.03872929041928455,1
5,1.04,-0.9961395378742001,0.006458053736068423,0.08754607144650875,-0.9989777742614403,0.03538999949768416,0.02812391272943645,1
6,1.2400000000000002,-0.9807463502807682,0.06314061109183496,-0.18479680636283397,-0.9981752433857844,0.03335286799073226,-0.05033656413108431,1
7,1.4400000000000002,-0.9358635422583316,-0.0074968325043797005,-0.35228288033069305,-0.9934167717249555,0.007945384207975604,-0.1142803068133588,1
8,1.6400000000000001,-0.9423151447175534,-0.067303847701897,-0.3278907746803141,-0.9924693159859124,-0.04108601793446936,-0.11539755611252922,0
9,1.84,-0.9086774341720976,-0.3419031137209403,-0.23959879268130596,-0.9395144882218389,-0.34141955393263934,-0.02729861926350465,0
10,2.04,-0.5091178522466547,-0.8560373939575172,0.08943708777781278,-0.7315835421226754,-0.6808085548160144,0.03585014064923115,0
11,2.24,-0.3203012385700299,-0.9394161957349385,0.1220832820717076,-0.5301662748177439,-0.8445805027004992,0.07488321243141732,0
12,2.4400000000000004,-0.009536385197854713,-0.9862981213252184,0.16469691323064614,-0.327013819331246,-0.938682281220177,0.1092590357346975,0
13,2.64,0.12519207331972754,-0.9776560960928865,0.1688653385106759,-0.14569676463244885,-0.982207804392601,0.11849169492374728,0
14,2.8400000000000003,0.3011387096096903,-0.9413591003899818,0.15217924197332233,0.027667339553313575,-0.992124065251541,0.12216528750343934,0
15,3.04,0.29817364197267,-0.95145090219093,0.07637839977912055,0.17868341045331876,-0.9752806925313965,0.12999926770659317,0
16,3.24,0.3442539259349678,-0.9367882029852846,0.06258671764809885,0.2899615746763138,-0.9508381963715704,0.1087612501403491,0
17,3.4400000000000004,0.7610516547902971,-0.6411062211905535,0.09891001916752229,0.44835996312066356,-0.889633550501165,0.08674957805735095,0
18,3.64,0.8157638334221936,-0.5733347037345972,0.07626719854491491,0.5723689875818727,-0.8176377896133284,0.062146496689135695,0
19,3.8400000000000003,0.8959658836003435,-0.44091261169711027,0.05330294804876169,0.6933197039116226,-0.7184260739443563,0.05631842011987182,0
20,4.04,0.9370654116416954,-0.3474225403092336,0.03472740689799441,0.7993409007465149,-0.6008024476101741,0.009515426389527343,0
21,4.24,0.9924508053154601,-0.10773262461096302,0.05860956085083679,0.8945149892411947,-0.44686884926022546,-0.012294941385282693,0
22,4.44,0.9883927051468288,0.047726829043038745,0.14422901997181714,0.9556089088731405,-0.2943583621688522,0.012836195057603972,0
23,4.640000000000001,0.9747193675371898,0.14232217711839612,0.17223981086897763,0.9939854164506822,-0.09994893976023382,0.04475713713106506,0
24,4.840000000000001,0.9514055499765515,0.198109747813589,0.2357541246618007,0.9946867242295627,-0.006653412389917357,0.10273291948071728,0
25,5.04,0.9543875846616617,0.19422765052967836,0.2267596922149098,0.9950108476609145,-0.005810521355532844,0.09959744413731222,0
26,5.24,0.9713905100157998,0.1060052651223604,0.21251673067686383,0.9889284552868494,-0.11866180920500909,0.08910603436445945,0
27,5.44,0.9529901238981795,-0.2875567976797554,0.09550346517638374,0.9547895486098508,-0.29056531539836916,0.06283880451475546,0
28,5.640000000000001,0.7733436678731611,-0.632751617169128,0.039559604779871964,0.8602516621440105,-0.5069396991606115,0.05458222415233767,0
29,5.840000000000001,0.7377068750135951,-0.6742356348399355,0.03456696789805585,0.728945565839411,-0.6831227609535637,0.04451578944870576,0
30,6.04,0.6903397383523858,-0.722428250312661,0.03909563660751944,0.6156043785691347,-0.7870602277556172,0.03959099609488524,0
31,6.24,0.6990083212684122,-0.7101798876379027,0.08385638909547777,0.4968177102964696,-0.8671865630241369,0.03405330595049574,0
32,6.44,0.691052199434921,-0.7198595376040147,0.06518514997062005,0.451269244185346,-0.8923696903727889,0.005692535143464493,0
33,6.640000000000001,0.5671229184196084,-0.8205453287613005,0.0712527813578921,0.25903990643894054,-0.9657734608738292,0.013414512435840194,0
34,6.840000000000001,-0.47397855499044017,-0.7600237141132438,-0.4446439962427075,-0.21186632033949704,-0.9770606235052143,0.021568502530395717,0
35,7.04,-0.8252122616271564,-0.5626506107146788,0.049487508753142805,-0.655126404290466,-0.7553612528730869,0.015452250950765325,0
36,7.24,-0.9849027376725299,-0.17294796303228827,0.007456501065392048,-0.868186022855981,-0.4962071019884703,0.005616195662387118,0
37,7.44,-0.9981493780899298,0.05686981200978451,0.02153238260524018,-0.9795408097232192,-0.20123491211903072,-0.002076591251563043,0
38,7.640000000000001,-0.9741662833684386,0.03569572242533359,0.22299297690433384,-0.9992999048101139,0.008335910272815352,0.03647208311052365,0
39,7.840000000000001,-0.9556352850791925,0.0735585694773435,0.2852198078115506,-0.9893789390103447,0.09416801893495876,0.11073255732904498,0
40,8.04,-0.9361798880563302,-0.0678530551765972,0.34491039430849113,-0.981244176598359,0.10254160943796976,0.16323322034953347,0
41,8.24,-0.8917795456880422,-0.2523385596611989,0.37557222101819604,-0.9803279897791425,0.09411275714920388,0.1734930010039621,0
42,8.44,-0.987363912650538,0.1151156526061473,0.10890771561501758,-0.9728355185469826,0.18475868638717077,0.13948219118550773,0
43,8.639999999999999,-0.9896998178623526,0.09212953570477558,0.10957380697068601,-0.9484015839626777,0.2919732145680497,0.12363687763723287,0
44,8.84,-0.990800318966439,0.1327262261512365,-0.026428712183035406,-0.9117717010087067,0.3997839065590993,0.09404888779796962,0
45,9.04,-0.9238502195063976,0.30663108771073994,-0.22908109474007257,-0.8252685861753255,0.5622068060517011,0.05343470689846186,0
46,9.24,-0.38350570487937613,0.9220966690670895,0.05158592075704082,-0.5963037979509107,0.8012330189265378,0.04947150625548235,0
47,9.44,-0.5514794584569198,0.8131093941651332,-0.18634248045057475,-0.4732952529233118,0.8805417018794742,0.025256975500990094,0
48,9.64,-0.46121377584178197,0.7738077764675453,-0.43416975718274076,-0.4059658571091256,0.9103509326882702,-0.08032995839193471,0
49,9.84,-0.5023265285424096,0.7743889187198709,-0.3846945038422059,-0.3055768274856712,0.9323889180070073,-0.19306399996248494,0
50,10.04,0.06214068909969733,0.9346986903239175,-0.3499669885360166,-0.12609879023449866,0.9623535849259259,-0.2407793028514173,0
51,10.24,0.040469959954033186,0.9341938732135295,-0.3544629594070767,0.0182761955928904,0.9587271238287515,-0.28373981516470415,0
52,10.44,0.05976761846004475,0.9361894025678991,-0.34637730050217613,0.0939837414162728,0.9524292494247483,-0.28990615928194796,0
53,10.64,0.46046390346155797,0.811145881371188,-0.36057641734243223,0.22868385219146525,0.9366959476129083,-0.2651497642322695,0
54,10.84,0.48119917956512825,0.8030817657894139,-0.35143566558106254,0.3877867524832913,0.8839329964216605,-0.26131186814893675,0
55,11.04,0.6009107290533555,0.732606930774652,-0.3196769943075493,0.5684814984296941,0.7907027929392786,-0.22719568477670138,0
56,11.24,0.7682390298537254,0.5759788089258827,-0.279387194906511,0.7055697255721698,0.6700222559041633,-0.23074128141515754,0
57,11.44,0.7939790904809645,0.5593753642974555,-0.23811007054744526,0.842611368196856,0.5038774517326868,-0.1900357751077315,0
58,11.64,0.9674078190984606,0.20529515749810612,-0.14824307692094124,0.9189762433664727,0.36399471749049606,-0.15162621728137932,0
59,11.84,0.9488668705998954,0.2610467106113761,-0.17750007537165197,0.9401889100540396,0.3013290494048063,-0.1588886949917869,0
60,12.04,0.8936794982373599,0.18114325468237732,-0.4105168397438721,0.9303276446545434,0.2745539156190765,-0.2431267591396785,0
61,12.24,0.7226966662541451,0.49714484571581025,-0.48016302540215267,0.882577958294896,0.33476202191601184,-0.3301371475837225,0
62,12.44,0.584365654921459,0.44300506556291536,-0.6798994728883173,0.7894481110999572,0.42751229193030094,-0.44045989616446457,0
63,12.64,0.45844182997680405,0.44096018215961114,-0.7716120827704046,0.6672508729098705,0.46839705614339366,-0.5791204282333842,0
64,12.84,0.30681207559573176,0.38148571934708186,-0.871971901039752,0.5396740620459441,0.5376021524373781,-0.6478702280931955,0
65,13.04,0.2515657509307484,0.3982041877482756,-0.8821270304317769,0.4027445477804345,0.599622695986075,-0.6915558196498132,0
66,13.24,0.219330441398982,0.4093974282597566,-0.8856003066903408,0.3065157923636513,0.6405058162971105,-0.7041309312345649,0
67,13.44,-0.15148281445796263,0.42939297049923886,-0.8903227694548389,0.06638279131444041,0.7100942511341651,-0.7009703841985857,0
68,13.64,-0.274980719334055,0.3328912753820501,-0.9019805999959408,-0.17400892515006483,0.6815391243549466,-0.7107920342418109,0
69,13.84,-0.18321139566130157,0.3298377901369917,-0.9260888816400855,-0.3176758911693569,0.5899749332495611,-0.7423015602212695,0
70,14.04,-0.20430857702987337,0.3403278306836619,-0.9178425643944507,-0.4079471651414869,0.5334483116271777,-0.7409534460916817,0
71,14.24,-0.4230009445990266,0.2678409840252823,-0.8656393060303466,-0.5029731528461964,0.457670932712725,-0.7331816452052119,0
72,14.44,-0.45818751779203815,0.2338946106181514,-0.8575298884956456,-0.585269251799462,0.3761120898331451,-0.7183311205700631,0
73,14.64,-0.4657730191687775,0.39130442232808743,-0.7936852925945416,-0.627937160467491,0.4148136039656444,-0.658501781674931,0
74,14.84,-0.6484020325068585,0.46059282285158293,-0.6061592660172619,-0.5999526010600797,0.5443423800422253,-0.5863004773759017,0
75,15.04,-0.8371635654783931,0.32303688531109237,-0.44136644113934714,-0.6317461015546418,0.5792213141218464,-0.5151694211009362,0
76,15.24,-0.8839735178539041,0.25346604398041733,-0.3928686603458089,-0.7052817022481179,0.5607051519217054,-0.43380577806485576,0
77,15.44,-0.9367410925052707,0.20987655395617602,-0.28012132677022694,-0.7840797243360106,0.5192314147864584,-0.3400260633892913,0
78,15.64,-0.9116333468411507,0.3532198306906917,-0.21014374160093732,-0.7989198087243665,0.5434253913619264,-0.2577129861899836,0
79,15.84,-0.7451533663559504,0.6628027144782072,-0.0737497273806171,-0.7660638742245106,0.6189541697673315,-0.17332592516922116,0
80,16.04,-0.5846750806141816,0.7331665166174488,-0.34730664983532455,-0.6976698804375296,0.6859688068436078,-0.20664833405532274,0
81,16.24,-0.5894224676630206,0.7383293911879543,-0.32779698705457944,-0.6749462414248222,0.7104294822938875,-0.1993427246581748,0
82,16.44,-0.6211467004093526,0.729951966274613,-0.28521378561072447,-0.6954773751300125,0.7034267512873903,-0.146635692297393,0
83,16.64,-0.9359788555905683,0.29108724195026153,0.1980196946295001,-0.8025767319737118,0.5959798420871925,-0.026050280615035556,0
84,16.84,-0.9453781598564489,0.2893719973026226,0.15007991885500868,-0.8810842646870471,0.471332350904475,0.03919609051610407,0
85,17.04,-0.9836338968608973,0.0806301564726276,0.1611308003252191,-0.925190224544595,0.37682237879683245,0.045032690848077456,0
86,17.24,-0.9859940060765224,0.010723665138898664,0.1664356421778678,-0.9459640531181843,0.3200716336204989,0.052020760852971,0
87,17.44,-0.9773747761585672,-0.020925060542189726,0.21047728801534918,-0.9559926074671864,0.2748225250049352,0.10271666962086741,0
88,17.64,-0.9211495505591021,0.0510875345184369,0.38584137844662547,-0.9478556998829928,0.23102284399979542,0.21954046950293246,0
89,17.84,-0.9055144105535868,0.08762423495192775,0.4151694181040795,-0.9510303056348755,0.15838880501654976,0.26543237219575316,0
90,18.04,-0.8845413835231217,0.03740305500878087,0.46495973192418716,-0.9494607309986004,0.09355588456529562,0.2996191194747235,0
91,18.24,-0.8656985266638952,-0.24268547295953413,0.43780112168240093,-0.9574074903099697,0.03364086344666994,0.28677376066322346,0
92,18.44,-0.8393933898430389,-0.38073788936668435,0.38788838173940593,-0.9640012089444281,-0.0030272976678754134,0.26588062099843185,0
93,18.64,-0.8402853872356135,-0.4125560577556419,0.35173564961120857,-0.9654094741347888,-0.07599585265028033,0.2494176770614866,0
94,18.84,-0.7574845607201751,-0.5486812569664182,0.35378809833615826,-0.9494931260528007,-0.20024439007939818,0.241588467895739,0
95,19.04,-0.7437723617340228,-0.5754446326494848,0.3400972635519045,-0.9338856957494239,-0.2733810902955437,0.23047838671648593,0
96,19.240000000000002,-0.37416355728019995,-0.7729081263686777,0.512459423366072,-0.9054137591648941,-0.3490694015616911,0.24161224639545492,0
97,19.44,-0.29589946933022515,-0.8011945985738534,0.5201256764150117,-0.8557523184508321,-0.43970414009417963,0.27266873427304317,0
98,19.64,-0.5965132033167725,-0.6864685273484075,0.4158520881622115,-0.821128782057934,-0.49775267629741865,0.2792665331091627,0
99,19.84,-0.8896004192958936,-0.4294101288244597,0.15562144855877472,-0.8717450077872193,-0.42657931785764314,0.24102017959948696,1
100,20.04,-0.8977001007192597,-0.417529265544918,0.14072612260043518,-0.8972336474863152,-0.3886318330537683,0.20961173668397254,1
101,20.240000000000002,-0.8367250783629023,-0.506406326359053,0.20843170551075776,-0.9115270566310378,-0.3699313620290545,0.17963633378825533,1
102,20.44,-0.8539920366726043,-0.5029572017287137,0.13316025881996343,-0.9310411975751208,-0.28972872481525014,0.221854804849509,1
103,20.64,-0.8432928262113843,-0.5312204563265683,0.08162129648938858,-0.9264208395722258,-0.3202345832028684,0.19797535131217153,1
104,20.84,-0.87858630975849,-0.4774318863210635,-0.012037035717730914,-0.9258148208525797,-0.3384641920455086,0.16825251318386658,1
105,21.04,-0.8834319325597209,-0.4682990781309237,-0.015620305871653755,-0.9378369036252328,-0.30994462763099706,0.15619305362697336,1
106,21.240000000000002,-0.886665813931949,-0.46214419960130504,-0.015699464298628035,-0.9503961481523989,-0.2836829833298817,0.12755832605573597,0
107,21.44,-0.8798324856141384,-0.4752808745183563,0.001699286648522886,-0.9524653567655363,-0.2839226335737348,0.11044311796601304,0
108,21.64,-0.8979611133884051,0.3020141157947565,-0.32008329025890675,-0.9678884487656159,-0.23078971371358273,0.09963964467064594,0
109,21.84,-0.9919480438518411,0.051209403233628055,0.11583037304162538,-0.9895920593068018,-0.12101912486008673,0.07785838153353813,0
110,22.04,-0.9916022470577663,0.09133766078623316,0.0915555315209737,-0.9967242458195075,-0.039663193891347176,0.07048126592131734,1
111,22.240000000000002,-0.9845159807511955,0.1580538111031912,0.07581079369897767,-0.9973642396980908,0.0539410838181347,0.04852765034466505,1
112,22.44,-0.9970958951505947,0.043614212337027086,-0.06243057228677869,-0.9943775405866653,0.09407325781359507,0.04861613869027377,1
113,22.64,-0.9962483327028664,0.05192222482857417,-0.06923396677650405,-0.9922758930841,0.11438357528910494,0.04800989177485794,1
114,22.84,-0.9969694415994242,0.02360457074243575,0.07412662650490438,-0.9919230717059906,0.10716635562320444,0.06785272315680214,1
115,23.04,-0.9974762844125056,0.026937255365492817,0.0656920566582955,-0.9914312279883675,0.11486759269893174,0.06220575790897519,1
116,23.240000000000002,-0.9988235080412324,0.03163743388802663,-0.03675149740061191,-0.9929506792558765,0.11447210763233606,0.030742237060831793,1
117,23.44,-0.9950805955214931,0.029201504314220028,-0.0946672095415147,-0.9938841953528957,0.11025555662077159,-0.006157796843939706,1
118,23.64,-0.9925454241366461,0.01531955504602842,-0.12090861118463471,-0.9950625662990248,0.0942938776469058,-0.030970208083086457,1
119,23.84,-0.9981141934758647,-0.018320003465480926,0.05858698025200719,-0.9968908582093213,0.07660499000399966,-0.018447013990619356,1
120,24.04,-0.9958738010482513,-0.06501181114042039,0.06331537568356176,-0.9999503457820541,0.009964966941745142,7.351326802785837e-05,1
121,24.240000000000002,-0.9483868281367995,-0.272714128032948,0.1618314820665303,-0.9967482752540952,-0.07597164910529632,0.026854874980316537,0
122,24.44,-0.9130184415016662,-0.34403624702608937,-0.21917204705452908,-0.9949374993665975,-0.10048033746082086,0.0017533219616416732,0
123,24.64,-0.8734730538755178,-0.24582713796413075,-0.42025449717253655,-0.9908607664382878,-0.12107001747205472,-0.05947261893212093,0
124,24.84,-0.881311907511431,-0.21816957615093072,-0.41915552927366534,-0.9925508777447314,-0.0816191396853104,-0.09044927376819299,0
125,25.04,-0.8819627162446166,-0.1853369710327939,-0.4333497136526195,-0.9913129079769342,-0.020648311871307324,-0.1298936707279462,0
126,25.240000000000002,-0.9009375258960691,0.2126962185753797,-0.3782484541092067,-0.9820895760748795,0.07087720423104774,-0.17457515998977094,0
127,25.44,-0.869964169168223,0.2679500889667642,-0.4139626724550743,-0.9565610015173807,0.17101238721149298,-0.23610551411665912,0
128,25.64,-0.8894460596534861,0.2525585537862332,-0.3809197866694427,-0.9155713525405553,0.2909404856365567,-0.2776377716101016,0
129,25.84,-0.7572190387942865,0.5939973418482765,-0.271636678606993,-0.8172711166523564,0.4820618065904824,-0.3157282637214021,0
130,26.04,-0.7431429566731657,0.6118886476969337,-0.27079665575239914,-0.7066499265319688,0.6265341426014819,-0.3287869363082864,0
131,26.240000000000002,-0.6297122858206257,0.6903820134161678,-0.35613917593828526,-0.6280549528582007,0.70139939164347,-0.3370250281395343,0
132,26.44,-0.6843558506179703,0.6653674683990831,-0.2982334684792251,-0.6675370863219064,0.6924295149191155,-0.2737436853221245,0
133,26.64,-0.7455575412007468,0.6252968768673096,-0.2305379980365185,-0.7371822464329079,0.6516789573612085,-0.17854095350014276,0
134,26.84,-0.8080040061011213,0.33159867216776095,-0.48700292272338314,-0.8246534644497374,0.5656377222446177,-0.0007941945393382568,0
135,27.04,-0.9900738815524553,0.07839059897472515,0.11665600310330648,-0.8958982425206315,0.4381640481267841,0.0733389799328629,0
136,27.240000000000002,-0.9943343773295207,0.0038710245545200525,0.10622693269417577,-0.9400061933807277,0.33029312338366174,0.08540965432162641,0
137,27.44,-0.9907047312721607,-0.053685796209802655,0.12498788229374676,-0.9611542699916898,0.25772002834877994,0.09880716707124916,0
138,27.64,-0.9924079273643667,-0.0466095414321342,0.11381588795879026,-0.9844336728946003,0.150322602770854,0.09106842903796648,0
139,27.84,-0.9928532294424233,-0.09819694610297171,0.0678220064713574,-0.9938678012163902,0.08733860529537135,0.06781417057192016,1
140,28.04,-0.9740251542325538,-0.08262058900605203,-0.21082892874210354,-0.9985454932104423,0.03880378761539599,0.03743212598576285,1
141,28.240000000000002,-0.9698534687776373,-0.10911491359739622,-0.21789489376903137,-0.9996513925009665,-0.01612785359576839,0.02090420554032119,1
142,28.44,-0.9669062530113863,-0.11036472362124625,-0.2300259239031261,-0.9989366226227394,-0.03935582115169178,0.024015480935241758,1
143,28.64,-0.964077969767255,-0.11141544506680177,-0.24112292883509479,-0.9984595432931936,-0.05160405923321041,0.020385325050214603,1
144,28.84,-0.9619415429446241,-0.10922437310334344,-0.25047655434690386,-0.9987888413262607,-0.04653375648365404,0.015983114517088066,1
145,29.04,-0.9643384346812449,-0.09570101007458803,-0.24676446273162997,-0.9993212772580016,-0.027901980601112316,0.024051284746805738,1
146,29.240000000000002,-0.9660560291839367,-0.08797340785883205,-0.24289180304627161,-0.9991737670883596,-0.016545909568881797,0.037121638420134315,1
147,29.44,-0.9727274353671724,-0.07756824510918431,-0.21859666931288177,-0.9978622426362073,-0.0033047990902635997,0.06526885186681662,1
148,29.64,-0.9929080548263379,-0.0516630616629095,0.10707251150782233,-0.9963236987531502,0.014186940566945078,0.08448560836137967,1
149,29.84,-0.9947040260280221,-0.03868142223311884,0.0952241995380748,-0.9953509292935103,0.03265745699922033,0.09060914996229295,1
150,30.04,-0.9952452090277131,-0.01305703514851524,0.09652195470728091,-0.9937958248937726,0.05326526731279816,0.0976353917480871,1
151,30.240000000000002,-0.997340056882771,0.022803278856420233,0.06923020591091708,-0.9939245026147547,0.08837325528776264,0.06560678967802587,1
152,30.44,-0.9853820981242345,0.10637511760830651,-0.1330656043089284,-0.987687017021578,0.15636936879105387,-0.004793423714312524,1
153,30.64,-0.9733521600304634,0.11717075821770602,-0.197120739605752,-0.9776315346478799,0.1979174491687376,-0.07117068059651784,1
154,30.84,-0.9674276823839452,0.1124968170581674,-0.22677774473922718,-0.9707737280591053,0.21406425954150773,-0.10851203480338979,1
155,31.04,-0.969505511259919,0.09585147654284039,-0.22554724135134166,-0.9703470258615369,0.20972951520185593,-0.12016729944067334,1
156,31.240000000000002,-0.9733121915929763,0.03225884018834897,-0.22720639279338015,-0.9805215716547901,0.14734237356123323,-0.12987560384060734,1
157,31.44,-0.9735035316607084,-0.00018044274312168743,-0.22867190751061792,-0.9845295926337729,0.11557091417682507,-0.13169982925087692,1
158,31.64,-0.9707519334991782,-0.0059811613331756065,-0.24001022752523374,-0.9829984514358849,0.10966635951925198,-0.14726620136489668,1
159,31.84,-0.9690661464279633,-0.014609408808089796,-0.24636836043115487,-0.9825289136664536,0.0974831678867315,-0.15853695401447068,1
160,32.04,-0.970460093141676,-0.03356897486314305,-0.23891490440340263,-0.984688665471487,0.07632331782217729,-0.15672582189478784,1
161,32.24,-0.9741403080957348,-0.02827395900396821,-0.22416789106691665,-0.9862188878234315,0.07955399372795786,-0.14506366665104778,1
162,32.44,-0.7989558910938053,0.4863151508899667,-0.3537895675417415,-0.9871825669880238,0.11598294984637035,-0.10962907816756585,1
163,32.64,-0.8014117419572162,0.49829561620992957,-0.3308182260986648,-0.9882904372036025,0.1305649303530165,-0.07896081745919527,1
164,32.84,-0.8068504479268899,0.505460043971362,-0.30578178269583967,-0.989314322360109,0.13756671224724853,-0.0482967002458921,1
165,33.04,-0.9987300346065262,0.0312399997475885,0.03952695777084107,-0.9909952519164268,0.12708816315901283,-0.042154590069958,1
166,33.24,-0.9966133121365262,-0.006581985216477551,0.08196696616853016,-0.9962316233965096,0.08494934549375865,0.017497463957306964,1
167,33.44,-0.9840732749611785,-0.14453680637373392,0.10348382052505972,-0.9966484555639132,0.0626635698026498,0.05258453234226914,1
168,33.64,-0.9850438788207342,-0.14389290729746426,0.09478073658337204,-0.9970599675822485,0.05511596882561237,0.053232048854987654,1
169,33.84,-0.9989729108144709,-0.027364605102138635,0.036115119361108804,-0.9968915533322169,0.05597875325007051,0.055440148623966144,1
170,34.04,-0.764942324113741,0.4716412579139352,-0.43865449343740814,-0.9983663083929413,0.04743320187261034,0.03185601396851829,1
171,34.24,-0.9968747538293465,-0.07425470162486494,0.026962278543959085,-0.99937554706156,0.02150539453135284,0.028036296857089364,1
172,34.44,-0.9973842412280792,-0.07025141818255273,0.017012160157628187,-0.9998173346365415,0.0035858024287960654,0.018773368936430286,1
173,34.64,-0.9928922328220141,-0.044257305314902205,0.1104821475532542,-0.9998311752379844,-0.008149352424667465,0.016468426679248322,1
174,34.84,-0.993848235183072,-0.03663139174588838,0.10451711133710476,-0.9999871847550048,-0.004173890748402209,0.002865128580099452,1
175,35.04,-0.9968103540137846,-0.06134208173169774,-0.051051612508669617,-0.9999048905738295,-0.010563936002811114,-0.008866400772965487,1
176,35.24,-0.9935751245296616,-0.09454913919833996,-0.06220074109462583,-0.9980992415298011,-0.05446200127296426,-0.02884084733462893,1
177,35.44,-0.9955681240219364,-0.0740762329414141,-0.05793808889368071,-0.997899012825693,-0.04448047816684211,-0.047106764520149655,1
178,35.64,-0.9999201968179356,-0.011130862507095492,0.00597527366979722,-0.9998613915740946,0.01584280965751606,0.005118888714437356,1
179,35.84,-0.9975881315735387,0.04248341662561876,0.05489152079720712,-0.996849629795059,0.06613295067862505,0.043786395284293844,1
180,36.04,-0.9409337952763289,0.007318688389790761,0.33851149124828395,-0.989942883004229,0.07028050342281036,0.12277515720988642,1
181,36.24,-0.9378152629137733,0.01644343566987954,0.34674507360500656,-0.9844621755386291,0.0844130655646412,0.15397616470002362,1
182,36.44,-0.9214225659285639,0.024656861748693873,0.3877789243452091,-0.9784408510956322,0.09686959246165028,0.18240006294837,1
183,36.64,-0.9335266752633838,0.01314550153297012,0.35826685914432477,-0.981304533945955,0.0913057424389632,0.16942453498470017,1
184,36.84,-0.9865983416418604,-0.01714128481224713,0.16226487181308352,-0.9854864393249085,0.0840455704141683,0.1474883724246454,1
185,37.04,-0.9855883557901657,-0.038277942106246216,0.164773760286487,-0.9890612582800019,0.06194445976809306,0.13386826088964648,1
186,37.24,-0.982698096123038,-0.06067940791160702,0.17499274651154303,-0.9917050944523444,0.03570696932706917,0.12347476656686796,1
187,37.44,-0.9917040979661129,-0.11176886570769189,0.06348781564705529,-0.9938458541250658,0.03613857645857988,0.10471113374405758,1
188,37.64,-0.9953531957733686,-0.08618235587738227,0.04294900696368577,-0.9971360613445484,0.030810103180870883,0.06906817435161558,1
189,37.84,-0.986859650344895,-0.04383681346772411,-0.155519658905709,-0.9995873003084462,-0.0007926109066214632,0.028715863734581897,0
190,38.04,-0.9845376710403289,-0.05794328216083162,-0.16531228131907122,-0.99955453241285,-0.02984509590522042,-8.356636448818202e-05,0
191,38.24,-0.9878562152423562,-0.078436116895339,0.13411887851241772,-0.9977954423958872,-0.06630526505107663,0.0028048102435567846,0
192,38.440000000000005,-0.9314839736393214,-0.3383449095387661,0.13364254203772302,-0.9913187120413334,-0.1306183641271028,0.01503509592491419,0
193,38.64,-0.8560679829197219,-0.4944674527113735,0.1504976638652076,-0.9688221534855316,-0.2470513086977027,0.018689189024944906,0
194,38.84,-0.8684810040392323,-0.4869090582508826,0.09306081138828462,-0.9351049629461913,-0.35362673723850363,0.022952973303102416,0
195,39.04,-0.6261248386503212,-0.7471318678275313,0.22307321332166677,-0.8715677303464022,-0.4812128512570262,0.09382901046000858,0
196,39.24,-0.3554322852811101,-0.8925998988063573,0.27736854765947927,-0.7323061436584871,-0.6623629539090616,0.15812346204437205,0
197,39.440000000000005,-0.18184201775081438,-0.9115143311500663,0.3688835923273903,-0.6944482792741875,-0.7004739482088438,0.16455344206012226,0
198,39.64,-0.40729020043297004,-0.8774499119970058,0.25336997566349145,-0.7902306441422868,-0.5927258766236061,0.1556006562943881,0
199,39.84,-0.9678453165464426,0.08445864502773474,0.23694341206118327,-0.9279859515102872,-0.3458453759370492,0.1386832713145604,0
200,40.04,-0.988715211596189,0.05479488785322445,0.13942650617244737,-0.9867960911038471,-0.12172699933207577,0.10684574027904481,0
201,40.24,-0.9909113869602286,0.07318384613117626,0.11286606158630913,-0.9956063139065823,0.026260752475400197,0.08988014568732024,0
202,40.440000000000005,-0.9872143014403943,0.1237060020114704,0.10052237610548534,-0.9892978576035992,0.13039446192691023,0.06547543997347677,1
203,40.64,-0.9735646513041374,0.07508572141050107,0.21571741740369157,-0.9801512509498267,0.18817404600865067,0.06240235308242852,1
204,40.84,-0.9725227171514412,0.07289794204622628,0.2211005533005352,-0.9754024586475679,0.20808651385602858,0.07273270526746942,1
205,41.04,-0.9727133703193414,0.0683067247541097,0.2217270632001294,-0.9727169563157079,0.21764298405428326,0.08033215039977804,1
206,41.24,-0.9908767718865262,-0.06148315927538292,0.11992932944553372,-0.973976257733347,0.21727131444179865,0.06452460997540518,1
207,41.440000000000005,-0.9908625200072076,-0.062371662926374125,0.11958780083589342,-0.9741077188122969,0.21930228482027705,0.0549605315013365,1
208,41.64,-0.9911972847101516,0.12342648797493616,0.04789410036106378,-0.9757523538798403,0.21272037476764735,0.05154984051054964,1
209,41.84,-0.9905983308797537,0.134964903618799,0.02234774372088919,-0.9755536210934374,0.2178786556071093,0.028705814782394236,1
210,42.04,-0.7725587989556219,0.558375547576019,-0.3022741305924613,-0.964054653351318,0.2649117007335764,0.020504052431519385,1
211,42.24,-0.84426141770245,0.5353218689752677,0.025556900748640917,-0.9433549713634148,0.33141252776197366,-0.015720510371802034,1
212,42.440000000000005,-0.9268857356654335,0.3707882700001779,0.05830001586812153,-0.9349307360150425,0.3547403982817491,-0.007985529492609266,1
213,42.64,-0.945402663600642,0.31709442646277636,0.07526571837865088,-0.9393210022543964,0.3429850788069982,0.006106589846507803,1
214,42.84,-0.9493724559019507,-0.013659193077496471,0.3138556458296877,-0.950426213380641,0.30955643061086385,0.029407978277968573,1
215,43.04,-0.9769695027687083,0.044025481526297185,0.20878780528623,-0.960000223739393,0.2736415151397349,0.059328674452964206,1
216,43.24,-0.979406085572737,0.027515291873973228,0.20001656995403813,-0.9663248965686931,0.24840908566769332,0.06714998458112692,1
217,43.440000000000005,-0.9971888577861594,0.009795832769936058,-0.07428609269223174,-0.9694461276580711,0.24250414417319147,0.036958701649257616,1
218,43.64,-0.9457959187445414,0.15223151987657038,-0.2868721743952149,-0.9653366137596653,0.2607616566937604,-0.011339335666099636,1
219,43.84,-0.9451396242754617,0.15545842040124785,-0.28730431627594494,-0.9585018257334191,0.2817408663806883,-0.04354692040502437,1
220,44.04,-0.9584454630768826,0.14169316122945774,-0.24759915663859455,-0.962242333742419,0.27149332295795114,-0.019520930899763405,1
221,44.24,-0.9389290043421339,0.05025175500711112,0.34042192338889476,-0.9748794168008328,0.22143205919677195,0.024040920488734727,1
222,44.440000000000005,-0.9715618584528406,-0.001896671551813246,0.2367782883557681,-0.9787780937253743,0.1927003678750824,0.06971378245462401,1
223,44.64,-0.9769810177081951,0.015442201439422749,0.2127666079359345,-0.9756029778765829,0.1983058203888665,0.09419995306921503,1
224,44.84,-0.9966137635950238,0.06024704282409362,0.055958020371651755,-0.9754079883247149,0.19731291385606584,0.09821848266982135,1
225,45.04,-0.9979005622190411,0.049711327167085685,0.04151206901864636,-0.9779376636300772,0.19121720656819083,0.08410651559780594,1
226,45.24,-0.9989196643188486,-0.0019042612651149458,0.046431433600019625,-0.9836675499699059,0.16153532142350077,0.07940082536604527,1
227,45.440000000000005,-0.9753027415483101,-0.0469491784817174,0.21582478302605218,-0.9899701530527963,0.1039842327221878,0.09563668443542449,1
228,45.64,-0.9748142629821396,-0.06318677705995256,0.21387983516770406,-0.9925395039868545,0.07925167403280678,0.0926526048663865,1
229,45.84,-0.9766510714639117,-0.03271966963778648,0.21232547616145322,-0.9913364794501445,0.10018084633942681,0.08494576233167532,1
230,46.04,-0.9833960970111256,0.0030690496801808044,0.18144612786539538,-0.9896066968579618,0.13137784462815222,0.05846749075114539,1
231,46.24,-0.9923534839025434,0.027686841329017484,-0.12028300712779975,-0.9836780784939259,0.17743362824998063,0.029912296076131342,1
232,46.440000000000005,-0.9939051797922264,0.02785012955904995,-0.10666238261789585,-0.9817589925882374,0.1874397355216322,0.031868887958479385,1
233,46.64,-0.9944586307380401,0.03101382535823255,-0.1004498600659636,-0.9801017775456755,0.1949902152634117,0.03713921920740647,1
234,46.84,-0.9937777065301782,0.03225829843699005,-0.10660803058667465,-0.979237582329782,0.2000199341525239,0.032951225994550415,1
235,47.04,-0.9564510376918797,0.08291755910035573,0.27986798832836474,-0.9713132837370158,0.2345915257898696,0.03895280302618072,1
236,47.24,-0.9368529017227398,0.33828887377197175,0.08869767987818912,-0.950528236099959,0.3072963950075959,0.04544224897644134,0
237,47.440000000000005,-0.8374577539972079,0.5320715603253816,0.1247572240908957,-0.9159851489649941,0.399226577609707,0.03986661015960506,0
238,47.64,-0.7656623998789627,0.6372956449058121,0.08726597501702998,-0.8317432353104329,0.5545444000298192,0.02614763681294747,0
239,47.84,-0.4028729741683408,0.908745878751325,0.10896923665529472,-0.7192979224014573,0.6946579134995332,0.007802694497557098,0
240,48.04,-0.5335292494517159,0.8440904115719494,0.05345949000678733,-0.6302119874156795,0.7763335094772448,0.011795464396287633,0
241,48.24,-0.21659734482945536,0.9617402566000753,0.16775359622866973,-0.4960697341624761,0.8682394305936965,0.008666603158349084,0
242,48.440000000000005,-0.13078876767087916,0.9853545426388225,0.10941080180754469,-0.3695872930343171,0.929169892222782,0.006967367815000644,0
243,48.64,-0.10649021620524518,0.9904370610229296,0.08771694251865807,-0.30420411816116705,0.9524983427985247,0.014379202337090573,0
244,48.84,-0.18459547466556941,0.9828025416613303,0.004865679502647341,-0.23265983648684635,0.9725565368857119,0.0017841095214881355,0
245,49.04,-0.13653302981449228,0.9906213202523804,-0.005303926008725737,-0.15538749270445468,0.9877770261370926,-0.012299339282435366,0
246,49.24,0.27810597086705324,0.9493115845064639,-0.14650796732574095,-0.04587158738583247,0.9985438007059237,-0.028391469537037004,0
247,49.440000000000005,0.2970825827934408,0.9437577162525727,-0.14513205026632298,0.012165093048430942,0.9989365810302389,-0.044471536860555924,0
248,49.64,0.24076598470035848,0.9613915904843856,-0.13325895976320054,0.07130229312869862,0.9943406002251477,-0.07875756305576245,0
249,49.84,0.2513658078174769,0.9549960268041626,-0.1574732340702074,0.12265446753050524,0.9857652048065332,-0.11499061956325758,0
250,50.04,0.4778175988852657,0.7795405395014714,-0.40497764070288406,0.2382884164876254,0.957390469421903,-0.16316286228161317,0
251,50.24,0.5369027375366361,0.7218562016117823,-0.4366452503122822,0.31888855500148283,0.9220258770452009,-0.21949572102456735,0
252,50.440000000000005,0.52438589376341,0.748373353502022,-0.40614868975547264,0.4224798897303679,0.8740616895623676,-0.23984767168516796,0
253,50.64,0.6920217893713072,0.6622294873284159,-0.28732899113747246,0.5471377586740049,0.803659628540058,-0.23403306280960062,0
254,50.84,0.9252588321947897,0.364758472289729,-0.10415061372069526,0.6824669488371982,0.7013911369086979,-0.20564371327801276,1
255,51.04,0.8741148806349769,0.45651079812161016,-0.16589474570000998,0.7519741407419911,0.6343063746256231,-0.179416595566416,1
