,timeStamp,x_gaze,y_gaze,z_gaze,x_head,y_head,z_head,fixations_head
0,0.033366700033366704,-0.9995578055043917,0.026899821622298425,0.01267253139405295,-0.9978271809064625,0.026774194373731297,0.06020016245741728,0
1,0.2333667000333667,-0.9997426210981206,0.018563285797072147,0.013042084966603912,-0.9979579601118632,0.017822742591987958,0.06133726188760539,0
2,0.43336670003336675,-0.947159400694769,0.047846089910902376,0.3171747489252007,-0.9973382920092482,0.017184957211449137,0.07085907519659167,0
3,0.6333667000333668,-0.9339676458713652,0.035356665656510806,0.3556041938154753,-0.9924667372648178,0.007952980696989798,0.12225598357937557,0
4,0.8333667000333668,-0.8874066438822902,-0.34812036865819,0.3021947341017975,-0.9836406908677324,-0.035329813671002665,0.176643130450133,0
5,1.0333667000333666,-0.8562385317356065,-0.4091078170557536,0.31541460142981476,-0.9623135026394396,-0.14480163691778497,0.23018516151946777,0
6,1.2333667000333668,-0.8530398705208344,-0.4151603894880876,0.31617215295135936,-0.9542097682153188,-0.1848111495709229,0.23522023135083775,0
7,1.4333667000333667,-0.9269119143499327,-0.35351309134468234,0.12594759737315084,-0.9506564608892745,-0.22229947542427522,0.21641450181439312,0
8,1.6333667000333667,-0.9351906228279905,-0.34814771076003265,0.06489738413175151,-0.9232474019079981,-0.3378056098270793,0.18303443621211493,0
9,1.8333667000333667,-0.49878080757481563,-0.8633024507677307,0.0769843132946248,-0.74139246518459,-0.6477115486830417,0.17551912223496488,0
10,2.033366700033367,-0.2181839916115842,-0.9517857581243993,0.21563769715891362,-0.4429425276901889,-0.8833502426289471,0.1532783938159792,0
11,2.233366700033367,-0.06651402047060889,-0.987057988980049,0.14591919500702039,-0.24568087983976494,-0.952467827910195,0.1801275716740616,0
12,2.433366700033367,0.020289711593574622,-0.9997567334656502,0.008648785668688534,-0.16751445762339084,-0.9697221126433698,0.17770180285416595,0
13,2.633366700033367,-0.2670228723266144,-0.9508310125959891,0.15690497487374527,-0.13008499447560434,-0.9843142141541332,0.11917811051704795,0
14,2.833366700033367,-0.36488973330203583,-0.9121869821928665,0.18646820653569968,-0.19881862006965478,-0.972412626612195,0.1220034422414804,0
15,3.033366700033367,-0.41782106907647754,-0.8845656513831142,0.20729004469331544,-0.29960421301396045,-0.9455274131210814,0.12733902222351687,0
16,3.233366700033367,-0.3389423886895788,-0.9125429503335715,0.22887424701329692,-0.3899775842323867,-0.9126479709517616,0.12243841273842312,0
17,3.433366700033367,-0.3298970879669132,-0.9159693780037774,0.22840317403732274,-0.40402715655196075,-0.9063813418446256,0.1234298178094474,0
18,3.633366700033367,-0.4442597745342841,-0.867039510764072,0.2255565106680505,-0.6822970241197086,-0.7048261103741066,0.1941415077006912,0
19,3.833366700033367,-0.9309704492438614,-0.06369235793879623,0.3594959056441105,-0.9352423580240853,-0.0972548608570704,0.3403868737146317,0
20,4.033366700033366,-0.9258064256866158,0.16111981319296093,0.3419398601421576,-0.9205125024384573,0.1653534303265599,0.35399855357575805,0
21,4.233366700033367,-0.8792126850207256,0.3177188314018402,0.3550208425871579,-0.8890848524353522,0.2833687984987273,0.35948609042269736,0
22,4.433366700033367,-0.8625696684450426,0.35845470107092287,0.35704872826935724,-0.8548546068131206,0.36476367178953106,0.3690136378956805,0
23,4.633366700033367,-0.19124324823493222,0.9592772951844929,0.20787758644951543,-0.4816018465908456,0.822491363243817,0.3026014189484504,0
24,4.833366700033367,-0.07405310976587348,0.9967066956439453,0.03304390704095789,-0.16224198929315164,0.9667077315326179,0.1978729357574228,0
25,5.033366700033366,0.19433624075928474,0.9788781403475871,0.06349025025308447,0.08907763334272473,0.9803724272008391,0.1758837093718315,0
26,5.233366700033367,0.3421572639905293,0.9387251002149979,0.04151617666473813,0.1602054462163866,0.9714980540569772,0.17471618690354632,0
27,5.433366700033367,0.3076274680181224,0.9509252772238846,0.03326346430300683,0.10573805858849267,0.9811683792482908,0.1616418093477634,0
28,5.633366700033367,0.32267110886754957,0.9452632504991264,0.048587475320417156,0.10231081244165818,0.9792176018918036,0.175115349991921,0
29,5.833366700033367,-0.25419432292931504,0.9619211345892292,0.1004638095090818,-0.12624656038312887,0.9758297589485829,0.1783762527406034,0
30,6.033366700033366,-0.6073626411554376,0.7875185509758028,0.10452346146996372,-0.4318945656309642,0.8889726259218016,0.15229824207829093,0
31,6.233366700033367,-0.8993499476261326,0.36504611410543647,0.2406470574958132,-0.8162350058756566,0.5519888865825747,0.17049540836191623,0
32,6.433366700033367,-0.9531288978274343,0.006759321033401691,0.3024890340250835,-0.941533806465825,0.22615689162753633,0.2497341619629664,0
33,6.633366700033367,-0.9574201564157688,-0.04195641294377376,0.28563316246839476,-0.9583323866250781,0.13510142965133792,0.25168758501691435,0
34,6.833366700033367,-0.8975704196702183,0.025695286626869634,-0.44012168087722214,-0.9903263705011215,0.11190453267587579,-0.08204300979772579,0
35,7.033366700033366,-0.8079825525182223,0.024322185349138704,-0.5887041923801638,-0.8957256394554729,0.0469063320653492,-0.44212597168031115,0
36,7.233366700033367,-0.8175660126774624,0.27715045352622003,-0.5047508702566903,-0.8891594229341502,0.036556096415310484,-0.45613503748592255,0
37,7.433366700033367,-0.9232984155180013,-0.3360623655712782,-0.18596269074355992,-0.9168900855931427,-0.1057657366391968,-0.3848716408027067,0
38,7.633366700033367,-0.8668524441666711,-0.37003510080165847,0.3341270180888925,-0.9471685687421286,-0.3188684774447276,-0.03456293504708418,0
39,7.833366700033367,-0.8431249502868261,-0.3881956765640646,0.37208122083868395,-0.8157510536339319,-0.5640926619069988,0.1278658956790549,0
40,8.033366700033367,-0.6522473008963037,-0.6885440198258241,0.31698673668717164,-0.3597997643971226,-0.9255233209179247,0.11811313210998678,0
41,8.233366700033368,0.8822489312643614,-0.4706044550386658,0.012971899654740495,0.602032434934155,-0.7946209905934484,0.07832259313594772,0
42,8.433366700033368,0.9638715934400633,-0.26635256275505786,-0.0028042241577264882,0.908431478641838,-0.4162505270961718,0.038571327495473665,0
43,8.633366700033367,0.9943398507723336,-0.10594313140648345,0.008019605591457346,0.9734753609116195,-0.22773137787210432,0.02200320954917406,0
44,8.833366700033368,0.9831323348512073,0.18150436092429617,-0.02251619718061564,0.9909270789957719,-0.13231667192442537,0.02357588691335923,0
45,9.033366700033367,0.7352105655355365,-0.6772917565706068,0.027226839816958864,0.8785100450044618,-0.47503483671375046,0.050616249708952045,0
46,9.233366700033368,0.51476052490452,-0.8570029239234528,-0.023824155529127162,0.6669008227992266,-0.7440460707405937,0.04048131871861654,0
47,9.433366700033368,0.5216623400703193,-0.8531515587372487,-0.0009059671965369432,0.5314187231472889,-0.8460956570479591,0.04142800759254218,0
48,9.633366700033369,-0.0937956237565945,-0.9955147397135807,-0.012360581584743284,0.2706897038614627,-0.9618896472235406,0.03867028300344053,0
49,9.833366700033368,-0.12286614285845293,-0.992205458709355,0.020790349839410704,-0.05462197560437837,-0.9971591312531328,0.05186623891870782,0
50,10.033366700033367,-0.33264707436578145,-0.938354361418604,0.09400540581567962,-0.3151311296893547,-0.9446213328708155,0.09155822511426931,0
51,10.233366700033368,-0.38488506967394664,-0.8849195432107608,0.26226110116778567,-0.52217674955883,-0.8312592794015715,0.19062909701552772,1
52,10.433366700033368,-0.378863340978978,-0.8853051679107069,0.26962442124711555,-0.5817040899716509,-0.7849700552068185,0.2131721467238584,1
53,10.633366700033369,-0.4405847030258022,-0.8690599685499883,0.22498864532140048,-0.6531017481021217,-0.7273991187116431,0.21059114113247365,1
54,10.833366700033368,-0.33587295824380675,-0.930243624763069,0.14777061449496987,-0.6252394840122104,-0.7578004294424227,0.1865853605431689,1
55,11.033366700033367,-0.2474112892023177,-0.9478501036616733,0.20091748297199594,-0.5244581645871049,-0.8182052484559932,0.23555000530034376,1
56,11.233366700033368,-0.2787660541062745,-0.9334198570389689,0.22586911600165413,-0.5353740965708521,-0.7982993977083664,0.27584895928642406,1
57,11.433366700033368,-0.3028475345700373,-0.9274173847566461,0.21950026254196922,-0.5558911054331375,-0.7839749288317714,0.2763483125758931,1
58,11.633366700033369,-0.6978933474855504,-0.5841803488599102,0.4143406757021654,-0.6005533152403522,-0.7505739456392068,0.2756346634250053,1
59,11.833366700033368,-0.8702574362794974,-0.33876258188248826,0.35761978093576907,-0.7844558094550472,-0.5447614682415127,0.2964186663008563,0
60,12.033366700033367,-0.9507500116569456,0.12017846363322303,0.28571235922353105,-0.9420663196105623,-0.19277977365855545,0.2744940952435335,0
61,12.233366700033368,-0.7926379166569868,0.3366417039416975,0.5083281383564184,-0.9328859439687771,0.24469464668373664,0.26428837551017154,0
62,12.433366700033368,-0.7353130128011394,0.4756313804157275,0.4827934995100297,-0.8211044884632861,0.4904464438698293,0.29197552075625127,0
63,12.633366700033369,-0.8450980620439802,0.4902877199686526,0.21313661622876726,-0.7271961042671007,0.6201762984468002,0.29422301878605095,0
64,12.833366700033368,-0.9583249603822175,0.28366352693579544,-0.033886188849835956,-0.8536784488695917,0.46654733709112584,0.23144478431968962,0
65,13.033366700033367,-0.9958932311684858,-0.056687698104393607,0.07059162129047897,-0.9608642858980592,0.18452150818473628,0.20661954675887634,0
66,13.233366700033368,-0.9742554634947965,-0.21951518037599801,0.051374871630323796,-0.9769078691797968,-0.08191451807728871,0.19733480904988618,0
67,13.433366700033368,-0.9221645453465112,-0.3790451046537764,0.07705426622757784,-0.9731845709268361,-0.13005007575775945,0.18973341483605752,0
68,13.633366700033369,-0.9648978055834324,0.2441978883971048,0.09664168915469061,-0.9767885912114334,-0.023163597739816234,0.2129495147187041,0
69,13.833366700033368,-0.7645653562771004,0.40477905665289005,0.5015911993606617,-0.9214206560621057,0.28742119355356205,0.26148237431675,0
70,14.033366700033367,-0.4093258296869394,0.7953958184968094,0.44698753569746114,-0.586281266727449,0.7681837367933853,0.2572314576614006,0
71,14.233366700033368,0.09893048108871061,0.9433562083619668,0.3166888442248792,-0.03873987637854964,0.9657019106440379,0.2567470384573686,0
72,14.433366700033368,0.5344885503179855,0.8190452653915685,0.20853499183262575,0.24111780243235353,0.9340401278363277,0.26349809286157905,0
73,14.633366700033369,0.7732063495140334,0.5282305386226662,0.3508909219937026,0.47488400631392547,0.8300786117229726,0.29232632263841396,0
74,14.833366700033368,0.8785047368964973,0.37613306891608306,0.294539202345265,0.6588980064724828,0.7015019239821123,0.27156669110180504,0
75,15.033366700033367,0.9212875357602934,0.27470913796927754,0.2752529127346395,0.7530286046802472,0.6052196346127662,0.25818039122386904,1
76,15.233366700033368,0.9169708857665255,0.31348852653027315,0.24675765112845377,0.8142045813489671,0.5380654679123167,0.21807441837742697,1
77,15.433366700033368,0.9041504220040169,0.42501135995245926,0.04332849295001251,0.8397056678427933,0.5159603432662749,0.1693496842903352,1
78,15.633366700033369,0.8880923130461331,0.45943524488733434,0.014536136477220829,0.8146989979101324,0.563850966430329,0.1354165073386936,1
79,15.833366700033368,0.7925198974180626,0.6096979735161799,0.013438500166588116,0.7880489723314269,0.5998674443286011,0.1383396777575212,1
80,16.033366700033366,0.9890357718713253,0.13551750404582924,0.05867919610969757,0.7733246842169144,0.6189976571387497,0.13715259107121844,1
81,16.233366700033365,0.9630143735846984,0.23746904369871252,0.12732544739403062,0.7528022893436798,0.6409350188837419,0.14997004610058537,1
82,16.433366700033368,0.842806298817687,0.48598461709552265,0.23129309246008625,0.6787496074713872,0.716514224956526,0.16095445253980029,0
83,16.633366700033367,0.2899556459145824,0.9566982807938705,0.025575827030807345,0.5089996344632526,0.84914048397575,0.14099578216990769,0
84,16.833366700033366,-0.1004782783526545,0.9854196536264309,0.13730339335228284,0.06379036186358128,0.9831534617095169,0.17128940557403674,0
85,17.033366700033366,-0.723322881116229,0.6296346393582171,0.28348585603864895,-0.5201053246664777,0.8127674239335735,0.26248726796924926,0
86,17.233366700033365,-0.8992152196430736,0.3160065810721855,0.3025753286064931,-0.8131798618359056,0.5059967446557332,0.28758617265497777,0
87,17.433366700033368,-0.8612421938140156,0.2975320752119568,0.4119909559862796,-0.910667449175163,0.2546616713305088,0.32531865942173416,0
88,17.633366700033367,-0.9052006661851152,-0.07965188883314313,0.41745338727016745,-0.9406957272164032,0.09555040349711318,0.32551754052330534,0
89,17.833366700033366,-0.8627500183655961,-0.3363804217156043,0.3775057849842779,-0.9450278718834015,-0.07385711148317475,0.3185395555451334,0
90,18.033366700033366,-0.8942651028106098,-0.2736314471175086,0.35414087174951686,-0.939648859829733,-0.14945952833449078,0.3077691823602787,0
91,18.233366700033365,-0.9878472523562669,-0.0852834058844508,0.12994055061035537,-0.9619377982881356,-0.10085851696530625,0.25397486446523215,0
92,18.433366700033368,-0.9607396213882445,-0.029127192861597588,-0.2759184418098498,-0.9997804692702932,0.009688261969099598,-0.018578235806737477,0
93,18.633366700033367,-0.7770424194510133,0.04212914384801903,-0.6280367931995295,-0.9062254371091597,0.039850265169198984,-0.42091259603658465,0
94,18.833366700033366,-0.7210752405377626,0.04060190334842269,-0.69166609207615,-0.8613617768902547,0.03948456681732344,-0.506455188832844,0
95,19.033366700033366,-0.8281511434369558,0.31016017857465455,-0.46686866167113994,-0.9114329005054929,0.04327376934916801,-0.4091667737762436,0
96,19.23336670003337,-0.8846226538984344,0.46172946603867815,0.0651817489894829,-0.9937893663322218,0.11061577974837809,-0.012117946841765464,0
97,19.433366700033368,-0.817249804553654,0.3761491361521062,0.4365943017596986,-0.9484681183470481,0.17752756115796534,0.26247322436491394,0
98,19.633366700033367,-0.9103098357439218,0.1712199632328338,0.37685504791421015,-0.93404302080727,0.17747350731415085,0.3099464300211313,0
99,19.833366700033366,-0.9026088695748766,0.030368781969944088,0.4293890609300914,-0.9401673526664339,0.11724147994163427,0.3199058992286395,0
100,20.033366700033366,-0.8685302049967503,-0.33446884145655653,0.365767517834774,-0.9403617680400352,-0.019477933660886803,0.33961795492718155,1
101,20.23336670003337,-0.8370727283928865,-0.3872875769504649,0.386416330038893,-0.9327776815727278,-0.09515418651221175,0.34766575550233053,1
102,20.433366700033368,-0.8304576676682607,-0.38770036893829546,0.4000356060853866,-0.931383511535009,-0.10913086157521547,0.34729700472731845,1
103,20.633366700033367,-0.8720745850809478,-0.2957188206299528,0.38991832116627023,-0.9298080816290895,-0.11489897451431824,0.3496500493247371,1
104,20.833366700033366,-0.8892627182780486,-0.24835466671547238,0.38409865581824504,-0.93384590517774,-0.09487761130407764,0.3448623845188103,1
105,21.033366700033366,-0.9329721263281627,-0.10163138066494094,0.3453028727926327,-0.9403223035882221,-0.062273171380174026,0.3345385142263817,1
106,21.23336670003337,-0.9487565560571835,-0.025737228394716996,0.3149580804060611,-0.9468102729779113,-0.0171241817863614,0.3213363804203325,1
107,21.35468802135469,-0.9764136629807619,0.037482927288963665,0.21262969902236548,-0.9539887370054024,-0.0001426592958339587,0.2998424074662608,1
