,timeStamp,x_gaze,y_gaze,z_gaze,x_head,y_head,z_head,fixations_head
0,0.033366700033366704,-0.9998139703240092,0.01759146100824353,0.007909819500919813,-0.9997246936353275,-0.013904270038720266,0.018899952657104563,0
1,0.2333667000333667,-0.9999348781747307,0.01001532330875949,0.005471079300093735,-0.9999026627302262,0.0010847571166671913,0.013910009597456918,0
2,0.43336670003336675,-0.9989763288425921,-0.0038831551977879875,0.045069008396978714,-0.9988048772525375,-0.0061046563730793825,0.04849278654717775,0
3,0.6333667000333668,-0.9448249516806224,0.04111632226151129,0.3249850130781376,-0.9903375238005911,-0.037957118942540134,0.13338233044183845,0
4,0.8333667000333668,-0.9460601830759613,-0.08495296517568557,0.31265495950990085,-0.9768245065778586,-0.06750811867544072,0.20311705310442557,0
5,1.0333667000333666,-0.8563380459936661,-0.4070979845082526,0.31773634037212084,-0.9539981506238635,-0.19309334932733344,0.22935232079009027,0
6,1.2333667000333668,-0.8735829276224114,-0.3943310021620128,0.28522960803633196,-0.9224924392593494,-0.32030146029358714,0.21544065086034886,0
7,1.4333667000333667,-0.712813092423153,-0.6908024006961058,0.12120040619832195,-0.832890485961185,-0.5249321247032779,0.1753274161386169,0
8,1.6333667000333667,-0.3603338360479761,-0.9303956067750527,0.06725727836176638,-0.6469788122833238,-0.7454618595971001,0.16032789009555876,0
9,1.8333667000333667,-0.2482741509911171,-0.9638114207767569,0.09709526831895249,-0.37499427966168475,-0.9144787888945438,0.15201261422323717,0
10,2.033366700033367,0.05546566962908567,-0.9984201078576281,-0.008991535917719201,-0.13275067294946014,-0.9843649454651893,0.11577095046159316,0
11,2.233366700033367,0.08235896350566985,-0.9966027269063997,7.650490029833908e-05,-0.008963060263155909,-0.9947424676622575,0.10201512917171533,0
12,2.433366700033367,0.1891498047689672,-0.9819319097731254,-0.005663561173397933,0.1009865952090993,-0.9918409948189708,0.07780198316616524,0
13,2.633366700033367,-0.11587128233089022,-0.9878529714612967,0.10353913610843891,-0.006658789593988079,-0.9980289209187196,0.06240139045693807,0
14,2.833366700033367,-0.3887272022020915,-0.9050602086695301,0.1725026983881738,-0.33022897709033333,-0.9422939677543813,0.055053619532025665,0
15,3.033366700033367,-0.911671904852626,-0.4033291598893398,0.07861250972551281,-0.6849981301974202,-0.7263743009449147,0.05619552075409999,0
16,3.233366700033367,-0.9049781917762737,-0.4122467296367175,0.10520031517622683,-0.883569013742445,-0.4593168240980741,0.09128993950409817,0
17,3.433366700033367,-0.9725817112177781,-0.06913049517216671,0.2220490703469606,-0.9658413882685994,-0.22061939842953132,0.13593194526665328,0
18,3.633366700033367,-0.8785025824235003,-0.21013966381927388,0.42903908256144235,-0.9668397332877205,-0.09483161345069396,0.2371242189791404,0
19,3.833366700033367,-0.8916600100717158,-0.19402989549401786,0.4090169019655397,-0.9594061053706633,-0.039389186551103246,0.279264063137989,0
20,4.033366700033366,-0.9485247792436425,0.026867563627755095,0.3155612098872548,-0.9594658506399332,0.011551313657968777,0.28158808321476336,0
21,4.233366700033367,-0.9039576572992067,0.2508063218925514,0.34634771936431136,-0.9612249646119164,0.05017892796871018,0.2711616539902556,0
22,4.433366700033367,-0.8792497194188813,0.3486832991379788,0.32456106945238106,-0.9540015115646587,0.15161487634047316,0.2586388315868481,0
23,4.633366700033367,-0.8585596506870883,0.3723190460104507,0.3524966016714665,-0.9117697807890286,0.33190288904350806,0.24190150699096466,0
24,4.833366700033367,-0.8104877622014476,0.4900274352424789,0.32090917723145346,-0.818923079119485,0.5225071140466206,0.23738430077857703,0
25,5.033366700033366,-0.35454501391237114,0.9310546236716774,0.08622714682434938,-0.6351162928445814,0.7548807018047401,0.16365335501033695,0
26,5.233366700033367,-0.20095877871625117,0.975928203695111,0.08473317230758512,-0.3477190126698558,0.9319633643958862,0.10264392652174545,0
27,5.433366700033367,-0.02323150547858166,0.9983354703147498,0.05278812238208592,-0.09939975169844967,0.9928095923860993,0.06669934503751902,0
28,5.633366700033367,0.3309953029209048,0.9427252631779561,0.04136650348230762,0.050165539110636426,0.9976346296163663,0.04699536653708933,0
29,5.833366700033367,0.4115907431811115,0.9102441738800505,0.04526150732183538,0.18781610547453415,0.9809140186230149,0.0503269171838199,0
30,6.033366700033366,0.3901319458822694,0.9202419590078422,0.03085128333672739,0.3464467362958967,0.9373338518453579,0.03714712767720175,0
31,6.233366700033367,0.4153336615927376,0.908585852593814,0.04438127999891057,0.46380623528808623,0.8851694089073231,0.036863174613060275,0
32,6.433366700033367,0.7964730189478698,0.601868154237494,0.05818466295183793,0.6141981831739599,0.787579246730919,0.04979479796690853,0
33,6.633366700033367,0.9184796680647157,0.38648117984584457,0.08382957101580461,0.7958673905495663,0.5982562682722485,0.09319084790250319,0
34,6.833366700033367,0.9615509552486563,0.261251800920164,0.08465965376947793,0.9054226842927864,0.4139989123320153,0.09388643861577488,0
35,7.033366700033366,0.9792360048369423,0.1787687117178864,0.09559599647323883,0.9592466008338515,0.2603999345549803,0.10971705825651662,0
36,7.233366700033367,0.9865682234089311,-0.1624853989850422,0.01678200454110293,0.992094971206616,0.06903890618711489,0.10479120926409169,0
37,7.433366700033367,0.9917370200808897,-0.12537341456489542,0.02718804739983821,0.9925138910054061,-0.06280345493687019,0.1047468482070072,0
38,7.633366700033367,0.8671273932419747,-0.4895816160954614,0.09165110512554828,0.9783523060872046,-0.17281174316802883,0.11385458531423547,0
39,7.833366700033367,0.8615520383219973,-0.4996855262859709,0.08967976406929305,0.9669590869390773,-0.22085248787843353,0.12733539485882425,0
40,8.033366700033367,0.8768093477739141,-0.4684434061501022,0.10847185298857065,0.9678474198060834,-0.20366518856237623,0.1476206724769918,0
41,8.233366700033368,0.9753604381921693,0.17518462570586235,0.13409833155515735,0.973282264372912,-0.15554487391289099,0.1689006395978412,0
42,8.433366700033368,0.8964262583361506,0.41860856158954185,0.14555698378773702,0.9728199178582057,0.10982214232929008,0.2038639361744968,0
43,8.633366700033367,0.7002834818257011,0.7074936194196985,0.09516209099472087,0.8710006500138325,0.4270663845109767,0.24284186396954743,0
44,8.833366700033368,0.7156566960202099,0.6744985060919598,0.18134844559894028,0.7083690479816506,0.6677701065212779,0.22868401058694848,0
45,9.033366700033367,0.2736520428007207,0.9580139891281089,0.08557894662731154,0.48305539692239796,0.8508196295141351,0.2067932337809299,0
46,9.233366700033368,0.021163124947631673,0.9947405287224483,0.10021677833294498,0.19923850786977892,0.96495595021693,0.17077479650922056,0
47,9.433366700033368,-0.25173856476937123,0.9545913015394628,0.1593208775805962,-0.06109652174108382,0.982287068229282,0.17714211983789627,0
48,9.633366700033369,-0.6042377653916644,0.7843271172453032,0.1404553168383474,-0.2909004650433067,0.9401371703241098,0.17753596934864774,0
49,9.833366700033368,-0.6221791678969115,0.755257713429641,0.2061040255311318,-0.4838205572979845,0.8542956232272556,0.18999120103474065,0
50,10.033366700033367,-0.7734631100053591,0.6269701330596326,0.09307668726391478,-0.6963533747830862,0.6944457618469222,0.18120999222188203,0
51,10.233366700033368,-0.891862817861665,0.44898920639744966,0.05467546665955024,-0.8596577219506245,0.4808350245730593,0.17258702220760527,0
52,10.433366700033368,-0.9565143974124873,0.025575517210409727,0.2905616982020285,-0.9463554284341331,0.25555996700631317,0.19773847965679564,0
53,10.633366700033369,-0.9586067741836459,-0.014512783768890616,0.28436320366127216,-0.9748152972550115,0.04223347981042337,0.21897823960550578,0
54,10.833366700033368,-0.944031292485851,-0.12971151591243477,0.3032817855513127,-0.9659380331642569,-0.1085163368125558,0.23492109469256045,1
55,11.033366700033367,-0.9330297779215868,-0.17508121233838636,0.3143278584499245,-0.9533070835962646,-0.17605831889560686,0.24537537103963322,1
56,11.233366700033368,-0.9391720091205734,-0.15989655213365553,0.30395563804640147,-0.9541329003970778,-0.18386463919180704,0.23627146005120195,1
57,11.433366700033368,-0.9474731873236296,-0.1245430455227838,0.29459054484947783,-0.9602783450908482,-0.15575433126402688,0.23152988628269425,1
58,11.633366700033369,-0.9574874951964161,-0.0783728211722491,0.277624562032966,-0.9691426495218904,-0.10438755203839954,0.22330643487620475,1
59,11.833366700033368,-0.9803100373674813,-0.19037639511517074,0.052431467836789036,-0.9763842275733874,-0.048929002099324145,0.21042764290720942,1
60,12.033366700033367,-0.9409478037475221,-0.33844593026875525,0.008460668249720327,-0.9788349067875087,-0.02742765433027766,0.20280519971694147,1
61,12.233366700033368,-0.991439100529002,0.07843833886648158,0.10438360473805582,-0.9800482312628687,-0.02733832417744084,0.19687072009237983,1
62,12.433366700033368,-0.9871175324728302,0.14134497386762895,0.07497049717795988,-0.9808707167876773,0.020886215903852864,0.1935365674327356,1
63,12.633366700033369,-0.9366527760004123,0.3440134764338891,0.0658506282626968,-0.9778101372044556,0.08896611678598865,0.18966382270803642,1
64,12.833366700033368,-0.9722283530775888,0.21879400697713486,0.08307353358879314,-0.9707249019298082,0.1380334800871654,0.1965704025238538,1
65,13.033366700033367,-0.9981726152321451,-0.011877495481820703,0.05924825146533774,-0.9674789451537875,0.15571748553504963,0.19934030044814352,1
66,13.233366700033368,-0.9980528452016257,-0.01572432752563577,0.06035945417916215,-0.9659966314805613,0.1572692126430557,0.20522403056865127,1
67,13.433366700033368,-0.9978882304221945,-0.01697395895482447,0.06269740267556054,-0.9662371152064018,0.15377270013903613,0.20673604883899865,1
68,13.633366700033369,-0.9527006871161958,0.26254938302647346,0.15306607148792448,-0.9685148819894733,0.13011625618426265,0.21224675083851854,1
69,13.833366700033368,-0.9433334373471893,-0.3313142981298305,-0.018784617043598052,-0.9753156773379293,0.04198119827425592,0.2167877038263797,1
70,14.033366700033367,-0.9142746255183747,-0.4047309563702463,-0.017168636779360237,-0.9754665324590484,-0.0631862418991396,0.21088514145615883,0
71,14.233366700033368,-0.9114623358127528,-0.4113778660451981,-0.002159102327344628,-0.9743412989780054,-0.09921886478872981,0.20202635960658413,0
72,14.433366700033368,-0.9673386204279584,-0.2454962748979932,0.06314722828235189,-0.972703299408127,-0.12118009348274075,0.19789814618651186,0
73,14.633366700033369,-0.969902833141471,-0.23184879898019864,0.07439508502305538,-0.9705440105427696,-0.1135415170358972,0.21249152338091787,0
74,14.833366700033368,-0.7775886942499723,0.2557234865478314,0.5744225979211162,-0.9529660582079957,0.02024752393378087,0.30239994986452307,0
75,15.033366700033367,-0.8042545488971645,0.2937122768827569,0.5166311246784937,-0.9375814016230333,0.11004292776659176,0.32989645251070104,1
76,15.233366700033368,-0.8139543920280056,0.29574084368189635,0.5000156008332542,-0.9292668356612576,0.1459595978913555,0.3393507682671534,1
77,15.433366700033368,-0.8145675468991662,0.2961118389595292,0.4987960408490435,-0.9255320603529584,0.16305015528984115,0.34176754105497825,1
78,15.633366700033369,-0.8125772721117235,0.30866635953232063,0.4944120299310429,-0.9245713431439324,0.17633337938277163,0.33774897594585923,1
79,15.833366700033368,-0.7986827277995368,0.31322178062086586,0.5138073729126366,-0.9178537648336926,0.19457305457757576,0.34595634524166174,1
80,16.033366700033366,-0.7956705949916437,0.3157596932430705,0.5169179048830539,-0.910970038815616,0.21711453760365332,0.3507062388116685,1
81,16.233366700033365,-0.7998095547343365,0.3117053268845716,0.5129760865259169,-0.9077112036827439,0.22889736607561462,0.3516622904328385,1
82,16.433366700033368,-0.8081728020392733,0.300990821147837,0.5062225277768077,-0.9116221916566488,0.22230013680795244,0.3457276801968484,1
83,16.633366700033367,-0.8424625522235211,0.1410263981519378,0.5199696175021402,-0.9213219670558828,0.18269618345325062,0.34320247314361674,1
84,16.833366700033366,-0.7977660850184674,0.4255658229578735,0.4271568844400094,-0.9303825610897639,0.14054426743673942,0.3385787927657642,1
85,17.033366700033366,-0.8454253290968783,0.3758176354778921,0.3794958732123998,-0.9382663995265077,0.11489382696052161,0.32627530100504043,1
86,17.233366700033365,-0.8673301384695621,-0.28732941038104337,0.4064237208043501,-0.9468143970914236,0.05231015266929756,0.3174998352568371,0
87,17.433366700033368,-0.8515179283088871,-0.33506832796893476,0.4032944747459896,-0.9478184140463013,-0.04914559494771967,0.3149999436380735,1
88,17.633366700033367,-0.9587029255596065,-0.06982809697264088,0.2757040757708004,-0.9455997184069831,-0.10841001369785398,0.30673839257364877,1
89,17.833366700033366,-0.9587404420674199,-0.07057329477048918,0.2753836865349979,-0.9437940122341667,-0.12308665251035365,0.30676137052231517,1
90,18.033366700033366,-0.9867077051160289,-0.16245630018103413,-0.003981858378908863,-0.9471663606018156,-0.11400735532283232,0.29979694507550453,1
91,18.233366700033365,-0.9911758986755851,-0.13161591053883967,-0.01573499214103507,-0.9546831025546076,-0.07453762473752443,0.2881394041001626,1
92,18.433366700033368,-0.993566081812634,-0.11065343092434624,-0.024130049651040462,-0.9596326267734083,-0.03837592110306184,0.27862611204167453,1
93,18.633366700033367,-0.9959349423211616,-0.08275189638082922,-0.03557687885581286,-0.962548943039135,0.007639721440055895,0.27100030795289265,1
94,18.833366700033366,-0.9139270482104571,0.1528894863591009,0.3759815893234285,-0.9609939653702302,0.05001822278993265,0.27200877910637006,0
95,19.033366700033366,-0.9108097730390876,0.18020979178752883,0.37141619280852733,-0.9557743331471793,0.09760826543276578,0.277431163743859,0
96,19.23336670003337,-0.805708991345838,0.42745760342654604,0.4100158759576343,-0.9405793175551336,0.199559084876651,0.27474846501975747,0
97,19.433366700033368,-0.7974425025657059,0.4587380861764885,0.39197553927876294,-0.9181416461008474,0.29254550715758015,0.2672696090788124,1
98,19.633366700033367,-0.9096128337820446,0.2209025097506449,0.35186158330352757,-0.8922688402742878,0.3681033730193195,0.2614502313010587,1
99,19.833366700033366,-0.9094682196633027,0.231736641887579,0.34520383287143663,-0.8788967195574068,0.40390582088852695,0.25377282006470736,1
100,20.033366700033366,-0.9124646530485852,0.22652919803003038,0.3407239049095269,-0.8777344119751695,0.4113661524832901,0.24568311017588831,1
101,20.23336670003337,-0.8155506346461913,0.4212217875021966,0.396798901285839,-0.8706485549643821,0.4282853037906067,0.24195617846093753,1
102,20.433366700033368,-0.8049768589947084,0.4689017301801825,0.36351536957471925,-0.8627150409226158,0.4471220456193648,0.23623004569073,1
103,20.633366700033367,-0.6182013951249505,0.7805343666149585,0.09269917798206652,-0.8287622017769131,0.5188528849873653,0.20963038101899997,0
104,20.833366700033366,-0.8215022817732058,0.5698087119492318,0.02126106366515185,-0.7993631998297153,0.5696161221717119,0.19119609860052128,0
105,21.033366700033366,-0.8461317080234833,0.5329632252562548,0.0033664820976567933,-0.8035960609846268,0.5688234460700893,0.17513782564295022,0
106,21.23336670003337,-0.9460584375892225,0.2913419951008965,0.14175074799403448,-0.8643968024399854,0.4686211864170134,0.18224256246179185,1
107,21.35468802135469,-0.9633193206727414,-0.034865527508692144,0.2660832227145274,-0.915135530615462,0.3555333824372783,0.19006044979917416,1
