,timeStamp,x_gaze,y_gaze,z_gaze,x_head,y_head,z_head,fixations_head
0,0.033366700033366704,-0.932220988576717,-0.020185125856064124,-0.3613261534282061,-0.9903892963662131,-0.11267762739845712,-0.08020470015586208,0
1,0.2333667000333667,-0.9999448378069145,-0.0056520234768832195,0.008853020609967933,-0.9894271833166295,-0.1385518436943799,-0.04286298546542522,0
2,0.43336670003336675,-0.942385673962553,-0.3267786622685738,0.07158873791390781,-0.9854552647557785,-0.1697796448582439,0.007265903724064582,0
3,0.6333667000333668,-0.6239607664258334,-0.763384247090179,0.16708516767160192,-0.7249972078662162,-0.6712166437415338,0.15442559940159398,0
4,0.8333667000333668,-0.021264832513124,-0.9890454204601162,0.14607177401901017,-0.05644112322257705,-0.9890867113898392,0.13609510263564545,0
5,1.0333667000333666,0.30118276671217276,-0.9431056483300247,0.14085693850004252,0.2669683367418186,-0.9487175926387829,0.16930102360877752,0
6,1.2333667000333668,0.29799951857173856,-0.9401112787354384,0.16549039405787538,0.3053214626659435,-0.9383352508192487,0.16219050991197614,0
7,1.4333667000333667,0.6806684381114,-0.7262367003313847,0.09628464286047776,0.4502447011002597,-0.8838978733425916,0.1265079390061436,0
8,1.6333667000333667,0.6804344323431327,-0.7225600028113559,0.1221311820098876,0.581423178369219,-0.8068484364950316,0.10460730462333222,0
9,1.8333667000333667,0.7099982291755726,-0.6960460734435687,0.10687552671842607,0.6382116113372168,-0.7645600983586736,0.09018755541719194,1
10,2.033366700033367,0.7204046335044478,-0.6878967165870454,0.08840402329127421,0.6639625066550634,-0.7447290073112299,0.06732381024240261,1
11,2.233366700033367,0.6423399532178948,-0.5484773668453468,-0.5353241658644114,0.7055109375690765,-0.7065555969611279,0.05507726730064741,1
12,2.433366700033367,0.6393561856379113,-0.532283937457953,-0.5548851032518345,0.7307599885869784,-0.6820992708967734,0.027026352370409252,1
13,2.633366700033367,0.6354074698604697,-0.5568826802725928,-0.534919645982394,0.7158170168308593,-0.6980318604228413,0.018908205890471347,1
14,2.833366700033367,0.7674920719969511,-0.454450886596526,-0.45213970307136064,0.6884359452162565,-0.7252221230644429,0.010431756903906273,1
15,3.033366700033367,0.7768542054776519,-0.4447530058333264,-0.4457491528134486,0.6876887886873394,-0.726002989260882,-0.0019466633001182841,1
16,3.233366700033367,0.7822416292135819,-0.423434307900237,-0.4569479405997237,0.7098773278363673,-0.7040405459836743,-0.02002720736669467,1
17,3.433366700033367,0.6648847230993224,-0.610391163444981,-0.4305240209064067,0.7046016909519722,-0.7081718772127809,-0.045044971223743034,1
18,3.633366700033367,0.7059359988048544,-0.7069527864807843,0.04326803991917904,0.6915596484466554,-0.7212471996449841,-0.039341195261545635,1
19,3.833366700033367,0.650565216084604,-0.7167919766773655,0.2509465317388298,0.6162602023583713,-0.7853895132197114,0.058195150259487224,1
20,4.033366700033366,0.6622319406041296,-0.7270499872875307,0.18123789015790834,0.5964484922222085,-0.7999812334418105,0.0654157646655125,0
21,4.233366700033367,0.615932076010164,-0.7696472802934732,0.1681390545907455,0.5463233715646454,-0.8335296407840269,0.08221381645860722,1
22,4.433366700033367,0.6209461096162253,-0.7709833332448073,0.14145892976833077,0.45006801723940826,-0.8836086212860251,0.12913010589013324,1
23,4.633366700033367,0.656154633963057,-0.7479739882982158,0.09998004379908935,0.4680014522992242,-0.8766938777036098,0.11127661678369347,1
24,4.833366700033367,0.7049816213650263,-0.6857675665295979,-0.180897092938533,0.5277180395456177,-0.8446798923916762,0.08960775707111678,1
25,5.033366700033366,0.7028339678180482,-0.5785219636963685,-0.41392843729567164,0.5430128671165391,-0.8359551621364374,0.07947322217777913,1
26,5.233366700033367,0.7087745353900161,-0.539765202929465,-0.45419399345343714,0.5540273068102213,-0.8296421456972763,0.06890321756951841,1
27,5.433366700033367,0.16676416581486747,-0.8662966015934407,-0.4708714379400466,0.5610393401623837,-0.8250436638648596,0.06736328010575121,1
28,5.633366700033367,0.008928791828865634,-0.8717831397347278,-0.48981061028803496,0.5001463122716884,-0.8649398929262913,0.04162508793608537,1
29,5.833366700033367,0.04776754731777211,-0.8349284461624137,-0.5482816349396192,0.4281126829691454,-0.9035388175381516,-0.018361260379368083,0
30,6.033366700033366,-0.009794843745937476,-0.8408824615159094,-0.541129140733465,0.3290540267909747,-0.940254092019172,-0.08743963571428574,0
31,6.233366700033367,-0.05018927150543012,-0.8377431296765102,-0.5437531477661164,0.27483206889997175,-0.9534905492716143,-0.12378653543045962,0
32,6.433366700033367,-0.02743606558045153,-0.8426501511812734,-0.5377620152257339,0.28339049333457506,-0.9507985654787082,-0.12518752402382996,0
33,6.633366700033367,0.7534678514610182,-0.4233053720016153,-0.503089215596291,0.5939173612088682,-0.789742870799038,-0.1535199207815998,0
34,6.833366700033367,0.7237619616904736,-0.5057831616828077,-0.4694166764912605,0.6196541667078481,-0.7572312599167385,-0.20646920517721565,0
35,7.033366700033366,0.6383523497913002,-0.6112395620481065,-0.4678594610597974,0.6320755799531913,-0.7490818521508025,-0.19838558416669366,0
36,7.233366700033367,0.6037660318069504,-0.6411503503594566,-0.47370117908871073,0.6114293358804949,-0.7697644955279342,-0.1833488168747269,0
37,7.433366700033367,0.5959888912018352,-0.6669879752711385,-0.4471289326443936,0.5915104975522669,-0.7924360268417789,-0.14886394677249778,0
38,7.633366700033367,0.25139931883870165,-0.9612207295333693,0.11337147614269852,0.5279565069567811,-0.8475233950024041,-0.054461194309284776,0
39,7.833366700033367,0.15321455535757117,-0.9696197130333105,0.19069061886674693,0.41905013374931105,-0.9058881420231412,0.06134867192161699,0
40,8.033366700033367,0.1720866975037773,-0.955200920063295,0.24078490578206563,0.2615894611756,-0.93378888130107,0.24415011562634176,0
41,8.233366700033368,0.219768882597226,-0.9397137051657974,0.2619919666049625,0.2467269906950305,-0.917828075197074,0.3109942386003457,0
42,8.433366700033368,0.5883590813090499,-0.800335420064565,0.11531178097335347,0.34849154278650063,-0.8864097482699718,0.3046824622098391,0
43,8.633366700033367,0.7371096024787447,-0.6690705190324079,0.09494247993038354,0.5911111486312445,-0.7665022475853772,0.2511213141300759,1
44,8.833366700033368,0.7246038413724981,-0.683320125164016,0.0895705287137094,0.6096981653595828,-0.7588331470780473,0.22899869443467522,1
45,9.033366700033367,0.7286766227886492,-0.6792432125518464,0.08751592771362171,0.6221457324997208,-0.7525476853056555,0.21588577737657003,1
46,9.233366700033368,0.6829130103267143,-0.7239008154312736,0.0979664725528201,0.5732918167010037,-0.7889982622096369,0.22094848977496162,1
47,9.433366700033368,0.6729594205525937,-0.7359153111978426,0.07452699533792971,0.5705274183762179,-0.7995868297846568,0.18750831052486824,1
48,9.633366700033369,0.633152652495905,-0.5804158922648384,-0.5120889675083924,0.6234085722708997,-0.7774414517966816,0.08334591200188673,1
49,9.833366700033368,0.6226009310802754,-0.6065746790199126,-0.4944039233156068,0.612602309007643,-0.7862353785652256,0.08094652859079673,1
50,10.033366700033367,0.2968857874327489,-0.9378283607956984,-0.1798243445912973,0.08119946457082572,-0.9099073837883248,0.4067864303057534,0
51,10.233366700033368,-0.7797270623804028,-0.553210813004283,0.2932294401433257,-0.5241448836988333,-0.670690021555939,0.5248304829920143,0
52,10.433366700033368,-0.9337772743166086,-0.24162198946423383,0.26396745287476414,-0.7425544207691941,-0.3985017312436044,0.5383393933124127,0
53,10.633366700033369,-0.9545679045569501,-0.22285110564048036,0.1978320002036305,-0.8491761941465503,-0.11681094076663374,0.5150291209358888,0
54,10.833366700033368,-0.8580184848809386,0.4995231205369304,0.11950285206498598,-0.8414658082378621,0.4427320399887567,0.30971540861570884,0
55,11.033366700033367,-0.48872444663566617,0.8672984369546458,0.09456128444924286,-0.5689304560572546,0.8145643672879453,0.11315046493618004,0
56,11.233366700033368,-0.7197418346998472,0.6848338872375178,-0.11390451384404705,-0.47760999259359255,0.876847531443155,0.05501910192646012,0
57,11.433366700033368,-0.8322192738960015,0.5340288559097504,-0.14907803732185115,-0.5884684043086135,0.8081966426924673,0.02287190134420493,0
58,11.633366700033369,0.09466427897281687,0.9766623928155452,-0.19279326945298375,-0.21432330909214137,0.9751670938190157,-0.055809123916883564,0
59,11.833366700033368,0.16627268481605367,0.9663044076433482,-0.19649220354278463,0.018377428651681904,0.993596957604481,-0.11147805145082047,0
60,12.033366700033367,0.15395025946628488,0.9557518654071421,-0.2506744689453478,0.02076707414655038,0.9818291923478321,-0.18862705448846956,0
61,12.233366700033368,-0.2764682939784894,0.5437712155148768,-0.7923876245891887,-0.2599598594064023,0.8830554260558553,-0.3906839976383929,0
62,12.433366700033368,-0.3019185636109505,0.4362778899628048,-0.8476477945920128,-0.48163102676724756,0.64902584746023,-0.5888947303072576,0
63,12.633366700033369,-0.34635452483933915,0.42961539984717523,-0.8339479308310965,-0.5351893818375265,0.43085181112844134,-0.7265941387154926,0
64,12.833366700033368,-0.3203766248220701,0.34759693075130016,-0.8812123421740611,-0.5333718702892465,0.36680829461041786,-0.7622113374840002,0
65,13.033366700033367,-0.23295910365109562,0.4525090371749091,-0.8607936031948163,-0.5004190909876088,0.37404754190121076,-0.7808131465163719,0
66,13.233366700033368,0.013426835545309351,0.5305685151255959,-0.8475357047609617,-0.369875212074578,0.4996689484675109,-0.7832772621684854,0
67,13.433366700033368,-0.21457069640457882,0.7035273707147016,-0.6775017748314118,-0.30846305564778936,0.571286968780469,-0.7605798725985671,0
68,13.633366700033369,-0.2187392949508537,0.7131952353869305,-0.6659622189477299,-0.29657106561671936,0.5933122984179293,-0.7483489290331069,0
69,13.833366700033368,-0.24168918794819616,0.6897035703187517,-0.6825652507405491,-0.31477516921895227,0.5685174045684319,-0.7600687821151147,0
70,14.033366700033367,-0.37809138637740536,0.5860459901147699,-0.7166568223477754,-0.43069941199828765,0.4316862749275906,-0.7925559769148613,0
71,14.233366700033368,-0.05520384502099957,-0.10926070119832361,-0.9924790348760765,-0.5293346270056115,0.09320204265716234,-0.8432782648078645,0
72,14.433366700033368,0.01216547669667257,-0.009144973640614477,-0.9998841786096305,-0.404591146808524,0.04465597165386075,-0.9134067265571307,0
73,14.633366700033369,0.09506638876628618,-0.1058885932209745,-0.9898232102515178,-0.3395998746866127,-0.049961333868446006,-0.9392421361027854,0
74,14.833366700033368,0.12345163168164895,-0.1122639906592097,-0.9859799648250503,-0.2658811009827634,-0.20532706433651177,-0.9418853628712699,0
75,15.033366700033367,0.11019701243617183,-0.1993547885806256,-0.973711603463837,-0.11474072341885612,-0.37408637949504125,-0.9202684103377721,0
76,15.233366700033368,0.07080960319526793,-0.124977330983988,-0.9896295604090695,-0.06717282352788238,-0.3505937374398656,-0.9341155405233545,0
77,15.433366700033368,-0.032871386661190945,-0.1064687551070226,-0.9937725474800214,-0.11695960848765163,-0.3413166582728558,-0.932643226945795,0
78,15.633366700033369,0.013759165113257683,-0.14045226509401573,-0.9899918416862569,-0.07625241664933721,-0.36677895428327234,-0.9271778511429215,0
79,15.833366700033368,-0.09307242809036419,-0.10809485662397866,-0.9897742293577892,-0.18653751382429448,-0.32348122860604317,-0.9276656998486987,0
80,16.033366700033366,-0.249741809847258,-0.11450877559730634,-0.9615179502876802,-0.2668870898870555,-0.3425761667329301,-0.9007845753775932,0
81,16.233366700033365,-0.3716551288906125,-0.08882659547632732,-0.9241116280544182,-0.35392555535483944,-0.3724107348778452,-0.8579317838934003,0
82,16.433366700033368,-0.31748217339799023,-0.02703295858372941,-0.9478788365211555,-0.3928922183650978,-0.3258419322133396,-0.859920193948037,0
83,16.633366700033367,-0.3634361806111364,-0.06562414115451734,-0.929304909446045,-0.4551977578488452,-0.26913742308601896,-0.8487402716638356,0
84,16.833366700033366,-0.6486728281286575,-0.2363046084932654,-0.7234526204613634,-0.5659988526672588,-0.2423773376202685,-0.787971144768295,0
85,17.033366700033366,-0.7696231029539553,-0.3032760818870956,-0.5618753398706313,-0.7058556966299288,-0.19374440198655019,-0.6813448776016097,0
86,17.233366700033365,-0.7875056813878538,-0.3196357572662765,-0.5269419175380399,-0.7710250058489286,-0.1901621907952305,-0.6077489461509729,0
87,17.433366700033368,-0.8454964875631725,-0.3496872276473379,-0.40355239107042473,-0.881035645812448,-0.21430834380412325,-0.4217204341548751,0
88,17.633366700033367,-0.9209246120795291,-0.38733440401513264,-0.04324255233460743,-0.9617521981222712,-0.26093016362432064,-0.08335561839471511,0
89,17.833366700033366,-0.9158003354775303,-0.36071034672571206,0.17662896507724898,-0.9256975761782882,-0.36060208262330057,0.11423718950228423,0
90,18.033366700033366,-0.8691853397988106,-0.4414929334784928,0.22271244861341136,-0.8719463544913941,-0.44705750210792916,0.19962250549020602,0
91,18.233366700033365,-0.8210914549021611,-0.4798246832491422,0.30915545609209805,-0.8184965141559688,-0.4824801821737204,0.3118915358327989,0
92,18.433366700033368,-0.826686284627558,-0.4381074331088231,0.35306042522984965,-0.7400999918397955,-0.4773697876120904,0.4736771980515028,0
93,18.633366700033367,-0.4338291931909793,-0.32897223558391786,0.8387904978897793,-0.6137018163240588,-0.4000606246257235,0.6806772930432067,0
94,18.833366700033366,-0.38785259370904446,-0.35864676001102674,0.8490835454104384,-0.5022656157417653,-0.4268682210199277,0.7520058331734052,0
95,19.033366700033366,-0.14459438264964466,-0.628078535298776,0.7645978145424644,-0.37525562323141226,-0.5333693023771986,0.7580899712533237,0
96,19.23336670003337,0.056498686264804976,-0.7811606427070963,0.6217684044206393,-0.20771459041522478,-0.7018782512414364,0.681338072738416,0
97,19.433366700033368,0.2673405647163573,-0.8141323222493285,0.5154780153663734,0.17242920219575442,-0.8235817059254151,0.5403529808330093,0
98,19.633366700033367,0.45899573793735016,-0.8018975998229098,0.3824698052835077,0.3566256995000044,-0.8370024658788087,0.4150240746859466,0
99,19.833366700033366,0.22603006253037844,-0.970168237963416,0.08765843301972796,0.37714473431440343,-0.8500101117122635,0.36775624993441475,0
100,20.033366700033366,0.16918388675488044,-0.9848196550889012,0.038820863116239904,0.2772593721518801,-0.9064339195982788,0.3185981637669099,0
101,20.23336670003337,0.13624916646424662,-0.9888707847703271,0.05975563291871031,0.219433271448554,-0.9247792414731777,0.310857513857522,0
102,20.433366700033368,0.26739861043296675,-0.9577042641862454,0.10630392983328842,0.36265144003480393,-0.8698449860332256,0.33444526205874286,0
103,20.633366700033367,0.39922376439312424,-0.9118843841827545,0.09532709912413095,0.5042487629950362,-0.8042510494992928,0.3145050625940105,0
104,20.833366700033366,0.44854412795549325,-0.8910158703083014,0.06999202908464988,0.5549293389495847,-0.7827604482637716,0.28167269907975956,0
105,21.033366700033366,0.9154999604802653,-0.3717510800020864,0.15382118475007076,0.7703932112131463,-0.5874470703769107,0.2477907173852195,0
106,21.23336670003337,0.9828598027054407,0.04050716227469861,0.17984932034976878,0.9654295811914306,-0.103625952092775,0.23918065518223874,0
107,21.433366700033368,0.9800544742297551,0.07758226629867632,0.18295961165842015,0.9687014699839794,0.08726863651787616,0.23238254480745404,0
108,21.633366700033367,0.7937009309100042,0.5997043625241351,0.10194856468883481,0.9032196392859853,0.35193476836492654,0.24563428511512805,0
109,21.833366700033366,0.7446885869280447,0.6618206556739067,0.08621095187081729,0.7675226371335168,0.5991624668378289,0.22784499077315643,0
110,22.033366700033366,0.3984834065439586,0.915396160202127,0.05710380544520907,0.6090615630767794,0.7705028606408545,0.18806741909945576,0
111,22.23336670003337,0.3719105969191231,0.9256674897511836,0.06944210766533511,0.464340007096882,0.872099454979967,0.1543725961202718,0
112,22.433366700033368,0.43297033726823303,0.8986770888980605,0.07011545432741578,0.5404003033506835,0.8268360877683603,0.1559153491558862,0
113,22.633366700033367,0.3486904449558424,0.9356289227863471,0.054895286156069145,0.5605828209847099,0.8164416693516221,0.13845541290668673,0
114,22.833366700033366,0.28420682682623466,0.9582462887669536,0.03147268100627926,0.5245181149187592,0.8417944685704608,0.12752576134352964,1
115,23.033366700033366,0.14081180405741972,0.989753023354435,0.02368519788495471,0.42209811185927576,0.894786130070215,0.14557116953161742,1
116,23.23336670003337,0.12442300422992719,0.9918013611844971,0.029137192228806237,0.37600688214627037,0.9145489586884735,0.14906048014302614,1
117,23.433366700033368,0.15503952936044202,0.9876902488224218,0.020753715734663107,0.38533721993777065,0.9119831245721746,0.14071960569232622,1
118,23.633366700033367,0.1985645712587531,0.9799489176676285,-0.01649938795442895,0.41163229629940346,0.9017709910355314,0.1317874514894183,1
119,23.833366700033366,0.2519280887400077,0.963807402073594,-0.08722115461260979,0.48335080162732075,0.8667330390158273,0.12306844292756343,1
120,24.033366700033366,0.2804005748463049,0.9412875390899963,-0.1880246961964329,0.6053156178927777,0.7842342739524844,0.1362703426769925,0
121,24.23336670003337,0.6084584879419711,0.7917229127910621,0.05434241265352965,0.7491967317741772,0.6426216227165488,0.16044222360725818,0
122,24.433366700033368,0.9755576377236902,-0.1285929830255148,0.17818849624926097,0.9067422358794791,0.35141962432331275,0.2330724464898099,0
123,24.633366700033367,0.9624727812676721,-0.17348603507819146,0.20868335092124723,0.9161319215632582,-0.024043357618653494,0.4001552439331941,0
124,24.833366700033366,0.8203433831863072,-0.5341311006362977,0.2043054110773901,0.8246257084279855,-0.29036166108081474,0.4854714685478782,0
125,25.033366700033366,0.6868236402710771,-0.7234226889968345,0.07023460834499903,0.7235501701479199,-0.5246592853535772,0.44856190829270176,0
126,25.23336670003337,0.6195897124998683,-0.7848828960044122,0.008211438610743327,0.5981215867088326,-0.706822237299525,0.37769417836631075,0
127,25.433366700033368,0.6500496564127234,-0.7576633019715039,0.058152945267959215,0.4645131422372616,-0.8252899360672543,0.32112935417830074,0
128,25.633366700033367,0.3894043749713994,-0.9184321637414385,0.0696174788279028,0.35644495916025504,-0.891836608736357,0.27852191010202093,0
129,25.833366700033366,0.04386960208882695,-0.998625157706243,0.0286923754462667,0.22225274586944538,-0.9545001054692746,0.19882974026195296,0
130,26.033366700033366,-0.24690169018188696,-0.8661622915825214,-0.4345140274212592,-0.06906750822033964,-0.9968325699503076,0.0394272341725707,0
131,26.23336670003337,-0.376332580252707,-0.7903191204898993,-0.4834971321822001,-0.2817767949270872,-0.9594797381901988,-0.0006854510091136671,0
132,26.433366700033368,-0.7840063104709672,-0.6207376790515418,-0.00434038562880446,-0.5013276799892978,-0.8651758522049943,0.011887053373757717,0
133,26.633366700033367,-0.8727009529800278,-0.48411085298836787,0.06348014403438593,-0.7211826764558247,-0.6926683419512915,0.010301225095219883,0
134,26.833366700033366,-0.8447777247920678,-0.5237602702940857,0.10966209443834221,-0.8164473197727877,-0.5773814819899977,-0.006663204249112409,0
135,27.033366700033366,-0.9181717246111474,-0.38224541507679755,0.10415914159284653,-0.8442383898265309,-0.5359650401028931,-0.0017369313777304432,0
136,27.23336670003337,-0.9055067579372491,-0.41256799793608634,-0.09922277162517303,-0.859548687260889,-0.5110401659735031,-0.0037420569019311943,0
137,27.433366700033368,-0.9630594963299003,-0.2408106021136694,-0.12052659639453488,-0.9013270557045561,-0.4327117013840574,-0.019238558684846536,0
138,27.633366700033367,-0.9895894848453144,-0.0018623563626285302,-0.14390685568229192,-0.963458203287766,-0.26496499935853596,-0.0392662658326599,0
139,27.833366700033366,-0.9301312198148513,0.36504547536395127,-0.03997142531914393,-0.9999929812383723,-0.003199359892690682,0.0019497615928955165,0
140,28.033366700033366,-0.8392666659518859,0.5434986845945143,0.015512680814041679,-0.9256719180377796,0.3773761130034427,0.026809876737338437,0
141,28.23336670003337,-0.681930727539563,0.7304964493617107,-0.036679971473497185,-0.8052465268189373,0.5892354298141486,0.06617884327921283,0
142,28.433366700033368,-0.49296163377741337,0.8695735051915087,0.02882267670527721,-0.6306477243026468,0.7699921868089885,0.0969302846637957,0
143,28.633366700033367,-0.4323545561991445,0.8810645239746075,0.1918198173475288,-0.4166240129200415,0.9007735741144219,0.12260261023131391,0
144,28.833366700033366,-0.09515958551428016,0.9813402400267804,0.16708077863396284,-0.2672109840897181,0.9539325016536171,0.13642240384437068,0
145,29.033366700033366,-0.056825598481632045,0.9809313150860339,0.1858617939243802,-0.202865517021806,0.9713329457436479,0.12392695637529054,0
146,29.23336670003337,-0.26439333177752855,0.8491467912096604,0.4572153683877161,-0.31163101737649673,0.9304682400592084,0.19265244158849704,0
147,29.433366700033368,-0.31741965316994614,0.7500797360783318,0.5801940652110562,-0.5064822425063273,0.7922152058482081,0.34039801064143005,0
148,29.633366700033367,-0.36548637899921954,0.6560068311952539,0.6603595567501093,-0.6621720665133494,0.5219350396262097,0.5376913322156381,0
149,29.833366700033366,-0.6247087572711887,0.11608761618578872,0.7721804413198955,-0.7404234108303943,0.2723347966616535,0.6144972996047593,0
150,30.033366700033366,-0.5996765457710744,-0.24321147868005016,0.7623884948570097,-0.7440598183065678,0.03529770026045628,0.6671799301072541,0
151,30.23336670003337,-0.5182061227722564,-0.25154779402267313,0.8174265236971897,-0.7142208043363152,-0.11434602406798838,0.6905169291429649,0
152,30.433366700033368,-0.4728636987764126,-0.34549297361091247,0.8105766635951096,-0.6641355125334658,-0.2266904130142787,0.7124152424248982,0
153,30.633366700033367,-0.4941746815773653,-0.4501070077048258,0.7437708421973247,-0.6217989610360083,-0.3202762664943068,0.7146951554159356,0
154,30.833366700033366,-0.37686019280260263,-0.7476443745238067,0.5468128421349404,-0.5744827521848456,-0.4243817802927816,0.6999069023789197,0
155,31.033366700033366,-0.5170256986411708,-0.801767129727829,0.2997563954824121,-0.5296261541394138,-0.5424336694813072,0.6521210401946389,0
156,31.23336670003337,-0.5608246234377472,-0.7770518065923059,0.2857730421462864,-0.49435970658075007,-0.6712333548179917,0.5523171768913033,0
157,31.433366700033368,-0.341228118613656,-0.9138994636575704,0.21988892967539325,-0.4247075917979166,-0.7766837381269903,0.46517290591596056,0
158,31.633366700033367,-0.37056470007986786,-0.8913290012943919,0.2611788936845008,-0.31827639957739884,-0.8512927521741764,0.4171340115211952,0
159,31.833366700033366,0.10378254610465665,-0.9939234109950803,-0.03668018811210804,-0.23678736777611037,-0.9060408937458979,0.35074441025024994,0
160,32.03336670003337,0.2664092908947302,-0.961826897877092,0.06257082583039376,-0.1280516759155711,-0.9489369721093608,0.2883078064484759,1
161,32.23336670003337,0.24793798435834408,-0.9637806986546017,0.0982523323548566,-0.06585422413097825,-0.9650563709960621,0.2536324544769816,1
162,32.3656990323657,0.2383231767105175,-0.9654410199329874,0.10547843605856469,-0.06623009949891179,-0.9679786795982224,0.24213807995366288,1
