,timeStamp,x_gaze,y_gaze,z_gaze,x_head,y_head,z_head,fixations_head
0,0.03333333333333333,-0.9809847036018755,0.170428114613645,0.09286155850716282,-0.9858022621390979,0.013853124827882651,0.1673379541345608,0
1,0.23333333333333334,-0.9954242666157264,0.01058352844905898,0.09496587996807507,-0.9811612021356205,0.04286717862969769,0.1883748932849433,0
2,0.43333333333333335,-0.980100078295147,0.07841149652696325,-0.18236083389326918,-0.982272303896556,-0.03828637576838969,0.183508240763935,0
3,0.6333333333333334,-0.9077408334990126,-0.13297349443656611,-0.3979002751643262,-0.9788079329246113,-0.12303804946635215,0.16369688093352752,0
4,0.8333333333333334,-0.8446056265251887,-0.3630294321400598,-0.3935110761364402,-0.9591877765746413,-0.24677548946510558,0.13806037472444352,0
5,1.0333333333333334,-0.7057868059797772,-0.597257779393787,-0.3809831091511372,-0.8957240192163787,-0.42636462927795526,0.12606222391949318,0
6,1.2333333333333336,-0.6497972566008152,-0.6743231912702202,-0.3507873416034281,-0.8387863494902512,-0.5287704377431598,0.12976626710253153,0
7,1.4333333333333336,-0.9658962579615371,-0.0011828302101262473,-0.25892666870871817,-0.9044889857734899,-0.41146004055158225,0.11225110085755902,0
8,1.6333333333333335,-0.9922613190242261,0.06431768300003543,-0.106210688830316,-0.964332391597933,-0.23043683797574704,0.13023786783708605,1
9,1.8333333333333335,-0.9929533063079279,0.09405623099558318,-0.07209130948359871,-0.9788152209577945,-0.15433695818470947,0.13453946097571362,1
10,2.033333333333333,-0.8889674822243641,-0.08044259410860476,-0.4508500910510649,-0.9815891921591404,-0.1469730771375716,0.12199005054954291,1
11,2.2333333333333334,-0.8858352050179792,-0.08089150234219884,-0.4568944674643996,-0.9812066716479834,-0.16136990395538417,0.10579802271742429,1
12,2.4333333333333336,-0.9678423763581296,0.07495393683507263,-0.24013130132986144,-0.9826294218513354,-0.15685176263805864,0.09918136856005064,1
13,2.6333333333333333,-0.9982815799304223,0.014350958087431384,0.05681493794410615,-0.9857663994035256,-0.1314019105183597,0.10487203497183711,1
14,2.8333333333333335,-0.9980429430353994,0.013157086713237284,0.06113243759624694,-0.9839225103829994,-0.1259549221417425,0.12661694653514613,1
15,3.033333333333333,-0.9983358853818024,0.019092751764997185,0.05441439872840035,-0.9849293935177843,-0.11909997185640381,0.1254164522241543,1
16,3.2333333333333334,-0.98539840291443,0.06497962116336814,-0.1573773692979904,-0.9822951963028974,-0.12216066177608159,0.14203140510000786,1
17,3.4333333333333336,-0.9935082328171008,0.06116456537325586,-0.09591812793910452,-0.9844543971347743,-0.10570055786553598,0.1402744881613286,1
18,3.6333333333333333,-0.9969887974063143,0.03982430268212947,-0.06653843071634463,-0.9829206505946493,-0.11635386014799978,0.14257900919578248,1
19,3.8333333333333335,-0.9281743755251326,-0.20173113519722766,-0.3127249233920575,-0.9815996341067197,-0.11548708978561578,0.15206870294180713,1
20,4.033333333333333,-0.9261059438316486,-0.20818562702254453,-0.3146212413377741,-0.9801344812271342,-0.12723239480945708,0.1521457078614685,1
21,4.233333333333333,-0.9681172106105093,0.039185262626251736,-0.2474137864239553,-0.9791139153675398,-0.13092026536760734,0.15555007184093914,1
22,4.433333333333334,-0.9715816677738969,0.039940025082502224,-0.23331064536814863,-0.9771689431260329,-0.12904754783222164,0.1687826619900353,1
23,4.633333333333334,-0.9994419315888421,0.03270681606653628,0.006788929573523775,-0.9758345871878376,-0.12218848599658318,0.18115416732111211,1
24,4.833333333333334,-0.9991113603388647,0.03752441650034014,0.019193952384354496,-0.9754651257167636,-0.10524502505396187,0.19336823216798013,1
25,5.033333333333333,-0.9995856107615446,0.021154272034571233,0.019521873197958832,-0.9750958250759496,-0.1165994451824236,0.18866028014026842,1
26,5.233333333333333,-0.9931380485734101,-0.09137592083615681,0.07298806455266099,-0.9734591851207659,-0.14284226371984943,0.17881080112622777,1
27,5.433333333333334,-0.9799400870093806,-0.17312079794318086,0.09872494715908509,-0.969473824544377,-0.17722794691113242,0.16944249277251258,1
28,5.633333333333334,-0.978849436494131,-0.17425776330979442,0.10718214684074108,-0.9658394069469493,-0.19529519074743043,0.17033504765399915,1
29,5.833333333333334,-0.9784384054408586,-0.1680395471721342,0.12008745706581633,-0.9631983028049355,-0.19960069324287566,0.18002386711393473,1
30,6.033333333333333,-0.9808966375877193,-0.15285223006150067,0.1203244868442519,-0.965123076303835,-0.1908473858838231,0.17920581153281098,1
31,6.233333333333333,-0.9993289718697692,0.031566079308880356,0.018579252373977256,-0.9681367938286853,-0.17639016690744158,0.17775729929732473,1
32,6.433333333333334,-0.998955639252678,0.04000659732131178,0.02207040951237093,-0.9702582668162222,-0.15928883314821643,0.1822799037443801,1
33,6.633333333333334,-0.9901920359304475,-0.1319418211677047,0.04594657557278142,-0.9713471568371148,-0.1530518315653291,0.18182364466414166,1
34,6.833333333333334,-0.9829140685075193,0.0070065992085426194,-0.18393162179877218,-0.9713132015427319,-0.1525918148044092,0.18239079626863205,1
35,7.033333333333333,-0.8889915853929151,-0.2500933486259353,-0.38359780770184043,-0.9706111108629147,-0.15340838612366275,0.18541827994130522,1
36,7.233333333333333,-0.8846847423060532,-0.2562786017464145,-0.3894280228973962,-0.970219648691796,-0.156179551392116,0.18515339861673075,1
37,7.433333333333334,-0.8809901937400058,-0.2644389174302779,-0.39233702028007716,-0.9695836840520284,-0.16026186574677392,0.1849962540362901,1
38,7.633333333333334,-0.8817949558934496,-0.260995075453129,-0.39283485887849257,-0.9705274411990896,-0.15286267811854565,0.18630482419404412,1
39,7.833333333333334,-0.8858862239607008,-0.25468386425198586,-0.38773925192882824,-0.9702029158859398,-0.14605299439639569,0.19332569625961937,1
40,8.033333333333333,-0.9481053963882222,-0.09506710604318556,-0.30341127646827193,-0.9668526638146056,-0.15516518194803874,0.20277991218469685,1
41,8.233333333333334,-0.9977083374609648,-0.04490539304657832,0.05061204437888668,-0.9666918076260045,-0.16332708540879023,0.19705636818087818,1
42,8.433333333333334,-0.9959349969589018,-0.021322424740035966,0.08751477609911551,-0.9668276331289847,-0.15936014126134745,0.19962132450058703,1
43,8.633333333333333,-0.9946835912734099,0.010430017316045292,0.10244885548516144,-0.9706950735422436,-0.13628968430188826,0.1979297758138231,1
44,8.833333333333334,-0.9561776921617755,-0.09093885074483778,-0.27830620984338367,-0.9727931808880412,-0.11403210774790301,0.2016683059389796,1
45,9.033333333333333,-0.9136030280711966,-0.16919291985484702,-0.36973404356392686,-0.9715797942270776,-0.11854747652744202,0.2048882604217364,1
46,9.233333333333334,-0.9079584733283994,-0.177782285719634,-0.37947973542135927,-0.9713266815143904,-0.12113560323849618,0.20457429801000923,1
47,9.433333333333334,-0.9074429705782481,-0.177552290461453,-0.3808181183977685,-0.9717201653773735,-0.1257384616096161,0.19987435921352395,1
48,9.633333333333335,-0.906058816189923,-0.18034703812287795,-0.3827954642427472,-0.9721179313854519,-0.1265694000070388,0.1974003912375262,1
49,9.833333333333334,-0.9982484407533873,-0.0576217832650381,-0.013408229815620325,-0.9724456053766679,-0.11999090081687852,0.19987928433121688,1
50,10.033333333333333,-0.9990286842985294,-0.02894921456992234,0.03322094105431173,-0.9742913011805068,-0.11716767858137468,0.19242711747528377,1
51,10.233333333333334,-0.9969491870429834,-0.011828897372582579,0.07715177017595845,-0.9749996955907538,-0.11420257325358299,0.19061313139497413,1
52,10.433333333333334,-0.9937806603725191,0.0009334944271072758,0.11135137025521878,-0.9746920011487461,-0.10824738221691908,0.19559654173792856,1
53,10.633333333333335,-0.9132514067013202,-0.17562006307694936,-0.3675995941277794,-0.9743239684276936,-0.12473925010241566,0.18743778709533823,1
54,10.833333333333334,-0.9155259022495401,-0.17024820900150522,-0.36445557979257925,-0.9729713914379892,-0.1318423095243107,0.18958975938198483,1
55,11.033333333333333,-0.9181061896932177,-0.15892179843446427,-0.36307697039244596,-0.9739691428219565,-0.12069893672112705,0.19187463486624037,1
56,11.233333333333334,-0.9195573002716211,-0.16399866745869218,-0.35709775774840913,-0.9713979547212572,-0.12799977016220143,0.200005180937351,1
57,11.433333333333334,-0.915927343047295,-0.17372127018142072,-0.3617983174986819,-0.9708397997847817,-0.13661356414978368,0.19699445993260384,1
58,11.633333333333335,-0.9968423499926369,-0.0702258385640101,0.03706293106513322,-0.968845293135998,-0.14117912470264074,0.20348772129152806,1
59,11.833333333333334,-0.9917520211909477,-0.059487222193100646,0.11353060758852225,-0.9689355621494584,-0.13350385256425581,0.20818404778612293,1
60,12.033333333333333,-0.8856782148731487,-0.4421749376604045,0.1416171748204649,-0.9693836375741709,-0.13819427610679122,0.202972178524024,1
61,12.233333333333334,-0.8814344625718399,-0.4558787365620839,0.12348224868883102,-0.9694908691584534,-0.15210829355469424,0.192225184745043,1
62,12.433333333333334,-0.9931738251668597,0.10886740800485306,-0.04187649075236942,-0.9711514129115358,-0.13902036682051427,0.1937479569157247,1
63,12.633333333333335,-0.9699821715604221,-0.08159816346004074,-0.22907711927400468,-0.9738443961024642,-0.13246349799878132,0.18460908395242612,1
64,12.833333333333334,-0.9602193218150072,-0.0981267529010765,-0.2614383184963875,-0.9742691166758883,-0.13429736634431727,0.18100802657496826,1
65,13.033333333333333,-0.8843392164858577,-0.264338519857625,-0.3847977353164377,-0.9729780175585214,-0.1413093867030291,0.1826073234498109,1
66,13.233333333333334,-0.8748942570270142,-0.2726273340622135,-0.4002928624685673,-0.9719642958467842,-0.15049400922314982,0.18065702529104005,1
67,13.433333333333334,-0.8648324824646817,-0.3041287933530306,-0.39946270705487097,-0.9648173328742409,-0.19402615079328328,0.17742989317975355,1
68,13.633333333333335,-0.8339952968276361,-0.3898893099847863,-0.39043331162821,-0.9281501764088457,-0.32337542907664524,0.1842975363419824,0
69,13.833333333333334,-0.6046392378399906,-0.740681221698209,-0.29292101305287754,-0.8195056067331408,-0.5421164489034873,0.1857964379669844,0
70,14.033333333333333,-0.3353305911236483,-0.9379553377917729,0.0882789837083909,-0.596715926309606,-0.7758860420888055,0.2047704885481243,0
71,14.233333333333334,-0.17487204688950203,-0.9796636220367589,0.09838167956735859,-0.26295224736558753,-0.9487204080874224,0.17545855032976185,0
72,14.433333333333334,0.5495758895903422,-0.830606074621712,-0.08977689225237824,0.1439384368660363,-0.9794129046371414,0.14153476118183722,0
73,14.633333333333335,0.6852598666130458,-0.7274078785111474,0.03600963050883124,0.5309373043172495,-0.8406304639893365,0.10698598925749798,0
74,14.833333333333334,0.5498925947275246,-0.812308041616669,-0.1943547781473923,0.5945952071148588,-0.79684353554712,0.10722368923332137,0
75,15.033333333333333,0.5846860078615683,-0.7472935050997543,0.31574465861931167,0.5814810542184132,-0.8005187527968219,0.1450844926436437,0
76,15.233333333333334,0.38827124335791396,-0.7788007894578489,0.4926609096743227,0.4885107988207966,-0.8405039110160458,0.23432962894648698,0
77,15.433333333333334,0.8316618821959254,-0.5521760208784527,0.05865284024810048,0.5071145352067472,-0.8353870717398301,0.21204548698804399,0
78,15.633333333333335,0.9656057598984853,-0.17783411506244018,-0.18968538154224754,0.7511897237418643,-0.6411000767221791,0.15717725844230196,0
79,15.833333333333334,0.996871597124158,-0.04843791440304153,-0.06245628307395778,0.8869201372267934,-0.44763666446305084,0.11399160850694247,0
80,16.033333333333335,0.9278711551550276,-0.34325992744179334,0.14569743183711134,0.8141639551945989,-0.5684292175165281,0.1184283696393518,0
81,16.233333333333334,0.10671597790615589,-0.9896058934993266,0.09639437541128762,0.37208475598794427,-0.9125273381720654,0.16984343216620712,0
82,16.433333333333337,-0.4200676824818974,-0.9040890374361858,0.0785248656286577,-0.22575132147748822,-0.95675777030602,0.1834418431280629,0
83,16.633333333333336,-0.861883292077011,-0.5055085612535649,-0.04022791739383006,-0.7535913208602537,-0.6388669132517707,0.15475525282281224,0
84,16.833333333333336,-0.9466807984058888,0.2861990804714838,-0.14793766344939582,-0.9872415661519685,-0.11329667089022788,0.11188366470133222,0
85,17.033333333333335,-0.8936640622285358,0.4409048438034344,-0.08347132796272533,-0.9466788692043212,0.30403296561342386,0.10659772240688072,0
86,17.233333333333334,-0.4643657232678404,0.8855506518865877,-0.01282645692213468,-0.5471282525293457,0.8141792158101238,0.19432673472015285,0
87,17.433333333333337,-0.28403408762993587,0.9561277373801587,-0.0717243813255175,-0.39873831162709555,0.9014687395640957,0.16840982877936184,1
88,17.633333333333336,-0.44700111909992135,0.8944491067081972,0.012279862878952422,-0.3903580185364077,0.9067731891913675,0.15932043411956287,1
89,17.833333333333336,-0.45651891393098964,0.8895040284250798,0.01931488127906951,-0.40574706050095116,0.8984615435097225,0.1677384205510613,1
90,18.033333333333335,-0.4618564329999788,0.8322039687382227,-0.3067982883147941,-0.4657667499054595,0.8720405783605353,0.15035479498548937,1
91,18.233333333333334,-0.4784690131094362,0.8201717192608693,-0.31366503537811197,-0.5084400992208634,0.8455919331253009,0.1626743622630676,1
92,18.433333333333337,-0.5229738774652645,0.8521257383141676,0.01949486064277871,-0.527611384622442,0.8302082739008965,0.179945682813686,1
93,18.633333333333336,-0.6596532330817882,0.6995144007173368,0.27484034506201765,-0.6541996134606574,0.7288574343257561,0.20196461614848063,0
94,18.833333333333336,-0.8337444996338965,0.5094677262700573,0.2128679055645574,-0.7258161359420282,0.6480924752940237,0.23057987829264043,0
95,19.033333333333335,-0.8668073686714856,0.4648766754758316,0.18037367384226033,-0.810079537546704,0.5358319248845186,0.23802371966396546,0
96,19.233333333333338,-0.9752911030684329,0.1491102764661223,-0.16301346486642126,-0.8791352059033569,0.41210116153726495,0.23936148896783638,0
97,19.433333333333337,-0.9946451523142557,-0.02887848456182899,-0.09923232390286563,-0.941072018396957,0.23951217057052712,0.23878311569052027,1
98,19.633333333333336,-0.9872925754440649,-0.0462499270267416,0.15203392622387468,-0.9493478300046458,0.19189163502496362,0.24882985767973317,1
99,19.833333333333336,-0.9448926813270039,0.3244691493228612,-0.043561358017908926,-0.9537128379721207,0.15874934720609868,0.2554025595972003,1
100,20.033333333333335,-0.9400127305743169,0.3372396337559796,-0.051434383269849476,-0.9498673641376156,0.16970238756873207,0.2625892042711023,1
101,20.233333333333338,-0.908000033683807,0.11878467714622036,-0.4017787193287785,-0.9443200483689116,0.19031405850139235,0.2684030651562414,1
102,20.433333333333337,-0.8959312128069795,0.13196984433681733,-0.42413585335825016,-0.9441812525175626,0.20898435549988117,0.2546513332984262,1
103,20.633333333333336,-0.8959286328962885,0.1374871660048966,-0.4223850896285636,-0.9427830771884165,0.2150533003176073,0.25477862427928527,1
104,20.833333333333336,-0.913253885455743,0.2245854120688768,-0.3398951799979541,-0.9388858693548996,0.217413829234475,0.266879282042082,1
105,21.033333333333335,-0.9141505288658631,0.2212865383361589,-0.33964846315781044,-0.9392948732020785,0.20880872090518443,0.2722573401218633,1
106,21.233333333333338,-0.91415640192383,0.22755517979684423,-0.33546492062405425,-0.9339260096535531,0.22137404974501523,0.2806701597820531,1
107,21.433333333333337,-0.9968413836714705,0.06551151668841085,-0.044894286731523916,-0.9279675110695296,0.24027439932087424,0.2848587569839062,1
108,21.633333333333336,-0.9969756548943383,0.06478052709858263,-0.04293048866289931,-0.9212798306251244,0.2506610127380509,0.2973424463080858,1
109,21.833333333333336,-0.9354545533803761,0.35198577541740483,0.032105956826252086,-0.9184450167135203,0.2610067283014764,0.29721076537612257,1
110,22.033333333333335,-0.5917436313733443,0.8060233298243954,0.012878917185910128,-0.8026355368515796,0.5215017446489312,0.2895032388611526,0
111,22.233333333333338,-0.39065861001803653,0.9203708117294569,0.017418936110927215,-0.4694276061242515,0.8628237809128847,0.18754424997756924,1
112,22.433333333333337,-0.40959608745380477,0.9119630010352164,0.023548458237790976,-0.44467863262313334,0.8806240010477249,0.16359181662637465,1
113,22.633333333333336,-0.4178287370147872,0.9081844877890983,0.024901459071325332,-0.459015687085446,0.8734803773262848,0.16228564149488844,1
114,22.833333333333336,-0.4260540833785872,0.9044667700924521,0.020439663279010468,-0.4731385347426598,0.8670046192109475,0.1563423078006999,1
115,23.033333333333335,-0.5734462738159206,0.8092629012165504,-0.12748697094686975,-0.4873981469844801,0.860716603548452,0.14700331524190807,1
116,23.233333333333338,-0.5898242572074426,0.7966796472010677,-0.13194273509849333,-0.5088697092362177,0.8488647642373729,0.14310915784140718,1
117,23.433333333333337,-0.3712438747292147,0.8672563498272167,-0.33172942160805063,-0.5186555408073796,0.8433389024076615,0.14062690238942752,1
118,23.633333333333336,-0.38334073338511804,0.8593136926169525,-0.3385703173770227,-0.5298176167980386,0.8358952938800381,0.14343064735143435,1
119,23.833333333333336,-0.36526826522576866,0.8622677441004533,-0.3508182319989558,-0.5229796385334253,0.8427387076698777,0.12760786917095893,1
120,24.033333333333335,-0.5240475040193935,0.8305260958688294,-0.188681259302358,-0.5385100479498917,0.831297157059531,0.13766613571153608,1
121,24.233333333333338,-0.4288825930022181,0.9033602215073587,0.0001778141432563335,-0.5625628717395235,0.8153904502123166,0.13660684112714278,1
122,24.433333333333337,-0.43040793741485134,0.9026263577110762,0.0038295920840079405,-0.5727287764017179,0.8104882717208904,0.12284343728614473,1
123,24.633333333333336,-0.4188326605574078,0.9080455330572373,0.005701959768466185,-0.5716483744756653,0.812941154784327,0.11110722216514465,1
124,24.833333333333336,-0.4410491285544668,0.8974398626525243,0.008795403547522888,-0.5923392051217005,0.7976070538631844,0.11382993324905208,1
125,25.033333333333335,-0.7184207650459717,0.6773023146069594,-0.15853447252511366,-0.6144109190265874,0.7793080478273685,0.12319979371898411,1
