,timeStamp,x_gaze,y_gaze,z_gaze,x_head,y_head,z_head,fixations_head
0,0.03333333333333333,-0.998411551529686,0.03001189105743215,0.04768291273865563,-0.9985903162655618,-0.011414127118105933,0.05183722564699172,1
1,0.23333333333333334,-0.9988345311485519,0.018081479279063093,0.04475086024127063,-0.9985451935215379,-0.01597759024509999,0.05149964179481529,1
2,0.43333333333333335,-0.987202587425945,-0.05596795612895781,-0.14932728908764947,-0.9992732985425063,-0.023855121250064504,0.029728908660152674,1
3,0.6333333333333334,-0.9879709113758744,-0.05341313605863198,-0.1451224144352152,-0.9993112362328052,-0.025672359914362338,0.026795206199814153,1
4,0.8333333333333334,-0.9820679041659521,-0.05228952282805232,-0.18113099516512554,-0.9995332054541217,-0.029128515824452656,0.009214160866452945,1
5,1.0333333333333334,-0.9683081263842308,-0.061848666285674994,-0.24197957528879185,-0.9976640560073532,-0.04521872106554511,-0.05120252548608993,1
6,1.2333333333333336,-0.8503243389132621,-0.0926714534829742,-0.5180352501143886,-0.9839411323667915,-0.07090953531731796,-0.16380380287965982,0
7,1.4333333333333336,-0.6809814776118747,-0.11108169473015983,-0.7238266948969371,-0.903136861215727,-0.12250421807985767,-0.41150519615923126,0
8,1.6333333333333335,-0.5142113832343321,-0.10198243180815046,-0.8515786733794658,-0.7911270085281695,-0.14398263052084792,-0.5944636729738555,0
9,1.8333333333333335,-0.31935723647061776,-0.05138084594367366,-0.9462404367727912,-0.6718969965119379,-0.14877606658407988,-0.7255481431924459,1
10,2.033333333333333,-0.22136475885302898,-0.03879788849688662,-0.9744189896477405,-0.5920747555923284,-0.1102788813344454,-0.7983019805323722,1
11,2.2333333333333334,-0.1829430682557436,-0.04641288330671118,-0.9820273305974393,-0.5580311934344072,-0.1017928585510431,-0.82355291335905,1
12,2.4333333333333336,-0.22223614339587813,0.11372877676551107,-0.9683371633392717,-0.5547829988542399,-0.09842794539139478,-0.8261523853069271,1
13,2.6333333333333333,-0.23509579171240869,0.11885233090426586,-0.9646782324473477,-0.567407316673803,-0.09115571355454107,-0.8183761805376529,1
14,2.8333333333333335,-0.24654937074162858,-0.24270302330863894,-0.9382476486854382,-0.6252679307803816,-0.09241490105036561,-0.7749190285452225,1
15,3.033333333333333,-0.4328819535993309,-0.2537939788374425,-0.8649866071529005,-0.7877514947464089,-0.10898748251944358,-0.606274946850744,0
16,3.2333333333333334,-0.9991744467001202,0.03153731810178904,0.025609034117966053,-0.9480223080078144,-0.11286848129704444,-0.2975137130440138,0
17,3.4333333333333336,-0.9931769303713561,0.024872852096003255,0.1139338676897316,-0.991081446366614,-0.10463236002975816,-0.08252051806953178,0
18,3.6333333333333333,-0.9719599205992212,-0.01824437480618057,0.23443774341323087,-0.9887690912694405,-0.11790616628763657,0.09183583233987236,0
19,3.8333333333333335,-0.9226952339726279,-0.07681165499430427,0.3778008402071569,-0.9676757414881394,-0.13632210294328753,0.21217903662826823,0
20,4.033333333333333,-0.9103336116358006,-0.08345160460107101,0.405374573962929,-0.9433420048748953,-0.1524331283192538,0.29473717653092024,0
21,4.233333333333333,-0.8915490559675854,-0.07150299598002151,0.4472444548221792,-0.9139772860119907,-0.14791205905585914,0.3778459255305158,0
22,4.433333333333334,-0.7642555542744116,0.04387173552522917,0.6434195509795425,-0.8747887483913012,-0.135933598759673,0.4650448391458878,0
23,4.633333333333334,-0.7175113947376855,-0.26691006128305944,0.643378906716295,-0.8457108794375346,-0.1325119752970198,0.5169271561872847,0
24,4.833333333333334,-0.9712268663605993,-0.04423693697716469,0.23401168232857325,-0.8553413256140827,-0.13289294618122585,0.5007301484352799,0
25,5.033333333333333,-0.9933337517194888,-0.024696293606677387,0.112597294714296,-0.9022695617290492,-0.11129786140161639,0.4165602285680864,0
26,5.233333333333333,-0.9990238178296301,-0.010036087969357897,0.043019627466789154,-0.9418543487978075,-0.09175723384129562,0.3232506700510493,0
27,5.433333333333334,-0.9680647340876984,-0.06896997294686026,0.24102658244978528,-0.9490831350404355,-0.0896359541718629,0.302004302124188,0
28,5.633333333333334,-0.9662746290111572,-0.07638407146861677,0.24592440902689583,-0.9518208911956207,-0.10348239362301385,0.28866656421142123,0
29,5.833333333333334,-0.7848529772475051,-0.5970626536081515,0.16589753395430498,-0.9352742141768118,-0.21398601823286423,0.28190801389246095,0
30,6.033333333333333,-0.6764671938599645,-0.7268066777652399,0.11892934367547953,-0.8860066834569262,-0.3848285408615736,0.25864870192601164,0
31,6.233333333333333,-0.5925820047324543,-0.7943194298965813,0.13380288097061202,-0.8131487210779492,-0.5316017257918447,0.23704168946501428,0
32,6.433333333333334,-0.5858845147279629,-0.7959365513469828,0.15239534649014688,-0.7488999672297934,-0.619462301792265,0.23540453636547382,0
33,6.633333333333334,-0.5215452075287275,-0.8398205693852399,0.15063866615603227,-0.6987647106119362,-0.6736750315557658,0.2406030570498955,0
34,6.833333333333334,-0.20824835493041066,-0.9777054304756985,-0.02692051052834836,-0.5792865767770206,-0.7787679698204779,0.24072289286159063,0
35,7.033333333333333,-0.10070471628955191,-0.9947334798957989,-0.01907522192362501,-0.44812153640004526,-0.869558794046793,0.2074960055286615,0
36,7.233333333333333,0.04206776943175222,-0.9939690309974584,-0.1012712604494019,-0.302903064140421,-0.9390791881953291,0.16241924772866662,0
37,7.433333333333334,0.06794542383964669,-0.9928839240657216,0.09780047398200976,-0.16025306071287804,-0.9773838351692611,0.13798476467342863,0
38,7.633333333333334,0.1065246171902941,-0.9887405056314266,0.10509385546345044,-0.05767639645263739,-0.989671924277489,0.13123610627083832,0
39,7.833333333333334,0.46076998168774463,-0.8844346010672096,-0.07393551521807207,0.06809206207597224,-0.9925180860245987,0.10134752091841909,0
40,8.033333333333333,0.5997991047336002,-0.7687323435544168,-0.22201715684628173,0.23583015320733147,-0.9698570485706961,0.06133061369287805,0
41,8.233333333333334,0.6332145237309017,-0.7610237186260529,-0.1410044915058452,0.4021269037067621,-0.9155787764271766,-0.003075300201151444,0
42,8.433333333333334,0.7813648182588613,-0.6134207189526402,-0.11482178515823162,0.567883824456923,-0.8219233572733773,-0.04415831392432306,0
43,8.633333333333333,0.7644104654777089,-0.6402264990207707,-0.07607016642390121,0.6871581240910141,-0.7244055226992504,-0.05522998441557623,0
44,8.833333333333334,0.8020324438536729,-0.5927253273494676,-0.07362503191558983,0.7644151258867011,-0.6424465765077007,-0.05414712964834239,0
45,9.033333333333333,0.9101042363757907,-0.15390710153760143,-0.38473742088226004,0.8064929007316379,-0.5841085794866974,-0.09157711744481327,0
46,9.233333333333334,0.8891553232631303,-0.10199855169113424,-0.4460931590662978,0.8397589829793252,-0.49522086840488017,-0.22262331863900986,0
47,9.433333333333334,0.8615728464254971,-0.20129320094307365,-0.46601853778187674,0.8617018050479556,-0.4249561727044296,-0.2772764873866851,0
48,9.633333333333335,0.8618906711324155,-0.21419986041364147,-0.45963343091390874,0.8620632571324698,-0.4254011858482046,-0.2754646470621937,0
49,9.833333333333334,0.924833523063028,-0.25669697311271195,-0.2806948852644082,0.850375005181421,-0.4570656381518116,-0.2606786392928581,0
50,10.033333333333333,0.9171344765962196,-0.3059945149316508,-0.25540498951728025,0.8195449443783366,-0.5197074068129091,-0.24135097979438824,0
51,10.233333333333334,0.7202264209322651,-0.6851817407551697,-0.10862727432286738,0.7696741231300882,-0.6032561690651724,-0.20900655173640445,0
52,10.433333333333334,0.6510220789582144,-0.7557225237703467,-0.07108951944627186,0.6810485446124876,-0.7130701693738992,-0.16644462571765808,0
53,10.633333333333335,0.5940579499628642,-0.8044202668228122,-0.0017850519977781832,0.48228233834764433,-0.8711308851307848,-0.09238358668716001,0
54,10.833333333333334,-0.0901275999105271,-0.973782618942647,0.20886461351690838,0.15466787433838852,-0.9879451462889697,-0.006498966972597172,0
55,11.033333333333333,-0.5659957522710731,-0.7680900386272573,-0.2994770458193429,-0.3878979454743137,-0.9105372504824583,-0.14302831670914498,0
56,11.233333333333334,-0.46047887605975424,-0.4703291856153917,-0.7528277770254679,-0.5703497675579864,-0.6083864865872635,-0.5518759150248875,0
57,11.433333333333334,-0.5255303931834583,-0.335225729543703,-0.7819472591500862,-0.6137214463424141,-0.5073567534344687,-0.6049257070449322,0
58,11.633333333333335,-0.9178629571457236,-0.17766015812946,-0.35491472231104043,-0.7664520581269585,-0.36938824016854227,-0.5254555838680728,0
59,11.833333333333334,-0.9873115181002338,-0.04393582535854974,-0.15259623021777102,-0.9364661876215895,-0.15301611438009396,-0.31562184363808593,0
60,12.033333333333333,-0.9941151163758015,0.07914364648411523,-0.0739690382141335,-0.9803445568192153,-0.0343876077359368,-0.1942731127797564,0
61,12.233333333333334,-0.9156596276405222,0.14837502157502644,0.3735669943689228,-0.9966474111596306,0.055569923234510696,0.06004932522948896,0
62,12.433333333333334,-0.914800982590494,0.200074515340918,0.3508694209568052,-0.9808872724313695,0.1341346293193226,0.14095410600445915,0
63,12.633333333333335,-0.9399855366765514,0.054039429162106155,0.3369078968126594,-0.9687170408385843,0.11593855325828008,0.21942093486564562,0
64,12.833333333333334,-0.9080770035455569,0.07398402316552757,0.41221659348935175,-0.936703793283004,0.1263825044355087,0.32651717599820035,0
65,13.033333333333333,-0.8171950843326051,0.5403400163756138,0.2005613642899044,-0.926733956242701,0.22806404549527598,0.2985815893505169,0
66,13.233333333333334,-0.6569644191427223,0.7432402330746579,0.12645832483309946,-0.8552269305045127,0.4460331786898613,0.2638963827862136,0
67,13.433333333333334,-0.4603633005653047,0.8589721716399521,0.2241259463800737,-0.7530981370308639,0.5860347644661088,0.29900911497443516,0
68,13.633333333333335,-0.4243809819912645,0.8796432474108601,0.2147755558917423,-0.5991443912862537,0.7392872761141521,0.30737651466229765,0
69,13.833333333333334,-0.028002361951137145,0.9993379934064959,0.023225904921794986,-0.40717911395743556,0.8835244797874366,0.23149441196965778,0
70,14.033333333333333,-0.029275471683586463,0.9987997290401193,-0.03926891935217791,-0.13608143411048718,0.9759760585066096,0.17015456653389177,0
71,14.233333333333334,0.2563066763887119,0.9654140256053318,-0.04777705310166713,0.09077801904873956,0.9880617745002053,0.1244720090184634,0
72,14.433333333333334,0.49185222183265115,0.8510413908385566,-0.1838748024006013,0.3280165016665722,0.9427729519282086,0.059869322252682385,0
73,14.633333333333335,0.6328101986166363,0.7032730206945238,-0.32397270084063184,0.5294350272382593,0.8478466506500945,-0.029233694850985977,0
74,14.833333333333334,0.7935630172119533,0.49556690045217044,-0.35308806959410327,0.678899948705692,0.7228212165512883,-0.12893544334559182,0
75,15.033333333333333,0.8280513411375232,0.43722497026808604,-0.35094914419958395,0.7606025381354419,0.6317043774244185,-0.14977769702045673,0
76,15.233333333333334,0.9158461603316479,0.2718692549471725,-0.29548759503614797,0.7924982922569916,0.5935433345950915,-0.14018832593155367,0
77,15.433333333333334,0.6927552372148542,0.6753702348998991,-0.2529134775425113,0.760194182386305,0.6378777536777084,-0.12335629870054551,0
78,15.633333333333335,0.6589691388055501,0.7133497173049871,-0.23852013525647456,0.6958772881497672,0.7100800166375189,-0.107429836681375,0
79,15.833333333333334,0.5761511674661584,0.7987892334655169,-0.17316348554748784,0.5819333296161244,0.8084458965256243,-0.08814097953149158,0
80,16.033333333333335,-0.05852836202248135,0.9916742885854956,0.11470194504635498,0.27356222227260396,0.9615161701930336,-0.025502254853170918,0
81,16.233333333333334,-0.2445851626583807,0.9497591528671138,0.195283511215145,-0.16349157275065657,0.9822939934304218,0.09148232676332227,0
82,16.433333333333337,-0.7094004839263784,0.653299092023142,0.26448298577934737,-0.5668666845681972,0.8033155201364638,0.1826097944649812,0
83,16.633333333333336,-0.8868335316935562,0.44274198434334455,0.13230957018920514,-0.7965599890727859,0.5761128828399183,0.1832651904597315,0
84,16.833333333333336,-0.9881535660104566,0.15255567179400337,-0.016712180716429128,-0.9001152566167773,0.39638343681231547,0.18075590122198054,0
85,17.033333333333335,-0.9904578842723659,0.13780629159716526,0.001614149604474998,-0.965924834377256,0.20356968490798347,0.15983928715974347,0
86,17.233333333333334,-0.9669021144071288,-0.13732234095006088,0.21504156768173663,-0.9766456478920329,0.046427066764273106,0.20978037545303738,0
87,17.433333333333337,-0.8916058356685699,-0.0063814891950247365,0.4527673910490959,-0.9495394524307708,-0.024680285668373284,0.31267508979258263,0
88,17.633333333333336,-0.8210338929655088,0.025348655471610537,0.5703163966323287,-0.9064827768011576,-0.03137362686807788,0.42107561185611914,0
89,17.833333333333336,-0.7734882276338472,0.04416768962892669,0.6322698608226498,-0.8763483007125523,-0.02662874963768946,0.4809413327329596,0
90,18.033333333333335,-0.879232048305127,0.025833344185147274,0.47569280377296336,-0.8793265420080154,-0.02552037566237016,0.475535007067069,0
91,18.233333333333334,-0.9969302583284674,-0.013635475981079578,-0.07709820895393565,-0.9574599861251853,-0.04106018862623293,0.2856298931819604,0
92,18.433333333333337,-0.9859571412868987,-0.0003555902271343547,-0.1669981709509331,-0.9879686059589473,-0.03234377906062991,0.1512346309401779,0
93,18.633333333333336,-0.9650048537280824,-0.019533176592603996,-0.2615035129657814,-0.9984200091916219,-0.04387263230057395,0.03510950556217638,1
94,18.833333333333336,-0.9578503637245053,-0.04186259090122569,-0.28420099260183795,-0.9980918649645577,-0.06053403416318734,-0.012176198072526078,1
95,19.033333333333335,-0.95858679731744,-0.03937626622895026,-0.2820653499927989,-0.9980067936804431,-0.05423243038167084,-0.03226892100115415,1
96,19.233333333333338,-0.9615327418534414,-0.04045893012239035,-0.27169442636380076,-0.9979003480010271,-0.047988592630600097,-0.04349701641220356,1
97,19.433333333333337,-0.9585719393227984,-0.030587358248552805,-0.28320354986882545,-0.9974247562662705,-0.041345778622246546,-0.05860360208461209,1
98,19.633333333333336,-0.9945096491701322,-0.003079363492207662,0.10459959477925136,-0.9989369770841543,-0.03773345663642306,-0.02647833197614873,1
99,19.833333333333336,-0.9873604254913272,-0.0050920983449626684,0.1584091560107272,-0.9988312588109651,-0.04127143463472529,0.025155220239438184,1
100,20.033333333333335,-0.931908927511754,0.05197675509935432,0.35894869794057555,-0.9973346396555604,-0.03487690981450147,0.06408757839788061,1
101,20.233333333333338,-0.9272678451700228,0.007359804952524251,0.37432629694533076,-0.9865933024629739,-0.026557127961808934,0.16102290051301263,1
102,20.433333333333337,-0.9294078684155909,-0.011486576368223657,0.3688754162187073,-0.9770135420076116,-0.03463831973483256,0.21034430237039642,1
103,20.633333333333336,-0.934463170340054,-0.00836345295600237,0.35596156524640127,-0.9726080409039775,-0.029580003330522072,0.23056153662719525,1
104,20.833333333333336,-0.9826614606008741,0.02671203436236805,0.18347457881129056,-0.9719367677498836,-0.022736928202746594,0.23414087979635706,1
105,21.033333333333335,-0.982230472419312,0.028119024653312872,0.1855602853616081,-0.9719352614535666,-0.017427762066064757,0.23460204741765547,1
106,21.233333333333338,-0.9811311369408782,0.024533552747364337,0.19178059577207474,-0.9706024505308064,-0.01641500051360422,0.24012794669036774,1
107,21.433333333333337,-0.9720739572399497,0.011944249094726992,0.2343705539726095,-0.9655253939034456,-0.019087324099787653,0.2596081427580929,1
108,21.633333333333336,-0.9632421584597646,0.00010772967624480882,0.2686345706719275,-0.9594293605869432,-0.02701017594727775,0.2806523693807457,1
109,21.833333333333336,-0.9823416955788389,0.0875374874943723,0.1653541091429672,-0.9588148583972806,-0.02629049044427896,0.2828124421393126,1
110,22.033333333333335,-0.9828477252477277,0.07955119797111421,0.16637895262540753,-0.9585152442016864,-0.037028650567642866,0.28262591117963914,1
111,22.233333333333338,-0.913014203344887,-0.36298579779233414,0.18613536765366198,-0.954563329539741,-0.129666160309464,0.2683198404304173,1
112,22.433333333333337,-0.7772342924775161,-0.5979712571970179,0.19579895342721604,-0.928357300399945,-0.2582984827582024,0.2672725511513234,0
113,22.633333333333336,-0.9711044149080792,-0.2308576407157463,0.06050590937417979,-0.9009206714971527,-0.3535323327968043,0.2517078332836878,0
114,22.833333333333336,-0.9958410393436886,0.006035627984700499,-0.0909076209880813,-0.9393866695065709,-0.26773002382028066,0.21418057684707173,0
115,23.033333333333335,-0.9849036627024141,0.0364020990441096,0.16923256891199367,-0.9720299114492759,-0.129138241136549,0.19616616916296042,1
116,23.233333333333338,-0.9813449712879752,0.05854306555835783,0.1831249759121714,-0.9801837421131872,-0.043319352740229536,0.19329579761380372,1
117,23.433333333333337,-0.9799966710434711,0.04376887352080303,0.19414121266344997,-0.9797841493101552,-0.012579583855241945,0.19966165087618737,1
118,23.633333333333336,-0.9802360727604932,0.05396913031583227,0.19032754564707147,-0.9790741533280695,-0.006953388312180618,0.2033849863581479,1
119,23.833333333333336,-0.9806252092362281,0.05889958334922644,0.18682890057935753,-0.9788718771691005,-0.0028741057851686454,0.20445436557671576,1
120,24.033333333333335,-0.9782611809711257,0.04562233664465922,0.20229598168045787,-0.9774073891580038,-0.004306259563467287,0.2113202587257241,1
121,24.233333333333338,-0.9762165070610088,0.03502400281551726,0.21395011233552153,-0.9764067917407177,-0.004506148952284256,0.21589226865318478,1
122,24.433333333333337,-0.9746266996023822,0.03171389234742602,0.22157848599163288,-0.975713020308671,-0.00048738160473769156,0.2190521957417966,1
123,24.633333333333336,-0.9974386763500962,0.04244628750285124,0.05757082245541892,-0.9770567354352625,0.0015986044542122184,0.21297319128093714,1
124,24.833333333333336,-0.998033126767169,0.03724843478420946,0.050422534461040155,-0.9788001305958498,0.005651896823880608,0.20473973822353042,1
125,25.033333333333335,-0.9988958359072485,0.010335465796320581,0.04582888994872973,-0.9810112250165786,0.001717873806263741,0.1939433559085168,1
126,25.233333333333338,-0.9914619985296598,0.04534774454391541,0.12225664618479175,-0.9834807566956714,-0.001501593384027295,0.18100648172543068,1
127,25.433333333333337,-0.991178849140605,0.044368138327534716,0.12488377523783734,-0.984040588184028,0.0010170889527839058,0.1779412440568353,1
128,25.633333333333336,-0.9868341439461222,0.03620895185877866,0.15763021330764468,-0.9829133657572658,0.004979611765126764,0.18400141000109838,1
129,25.833333333333336,-0.9736726635311429,0.018212877098200984,0.22722199585422168,-0.9765253336658486,0.0014866787455877115,0.2153974523876984,1
130,26.033333333333335,-0.957240976073696,0.0018037574135067846,0.289286121659286,-0.9659119125683349,-0.01042816701007708,0.25866084066087647,1
131,26.233333333333338,-0.7611826724434696,-0.33840152815693875,0.5532498033554705,-0.9169777820826331,-0.10059384429424671,0.3860474396455964,0
132,26.433333333333337,-0.7043837939277044,-0.4410277950538779,0.5561815844145938,-0.881925756294956,-0.19857251454982253,0.42752300154369544,0
133,26.633333333333336,-0.7029492805377011,-0.44717465118392735,0.5530796871428761,-0.8568254150717003,-0.23476839183718698,0.45905774177263325,0
134,26.833333333333336,-0.6480702322318377,-0.4731245579134904,0.596789851450355,-0.8026021668945419,-0.30281944245903175,0.5139359366350904,0
135,27.033333333333335,-0.6965283015551376,-0.4026186545178719,0.5939246957038693,-0.7612756228254833,-0.3394865645976767,0.5524566033177086,0
136,27.233333333333338,-0.4035226567567941,-0.3423937118131076,0.848490431056698,-0.6665616986486623,-0.32749559121328836,0.669658225985815,0
137,27.433333333333337,-0.5218508584389767,-0.1251965323863391,0.843799448817632,-0.6450407965503884,-0.32199921633088935,0.6929926951043087,0
138,27.633333333333336,-0.4717061393128386,0.24354552059568388,0.8474543630971254,-0.7051179560911114,-0.16688752160106776,0.689171403303813,0
139,27.833333333333336,-0.2538189100297612,0.4435965015682314,0.8595336553665195,-0.6924671846427497,0.20685272534987573,0.6911592784650099,0
140,28.033333333333335,-0.3011304873720718,0.515391210546968,0.8023043871661114,-0.5829655881456223,0.459852818017569,0.6698406592610885,0
141,28.233333333333338,-0.2245541910933739,0.3485520050993815,0.9099928104131383,-0.5198059187442405,0.5035807040444322,0.6900784602873573,0
142,28.433333333333337,-0.27169689780146444,0.3395098408537558,0.9005075589291399,-0.5283445118299117,0.5039540963838602,0.6832878936123041,0
143,28.633333333333336,-0.7518669481891611,0.6578389758326159,0.0440905216142003,-0.6116691339155058,0.5101507690441396,0.604654499246246,0
144,28.833333333333336,-0.9267890709090112,0.34856167067598504,0.13988130603900614,-0.7712080730677054,0.484916001203698,0.4124252414823956,0
145,29.033333333333335,-0.9792182370560114,0.056390584117459966,-0.19481207929645558,-0.908290902347842,0.3712042362332996,0.19291203102604948,0
146,29.233333333333338,-0.9832276775005699,0.02716885243120729,-0.18034740822758397,-0.9735970132138992,0.22461723060464286,0.04069343407081203,0
147,29.433333333333337,-0.9603711995985649,-0.08239357332163183,-0.26626764365372363,-0.9933935440845663,0.10378852269905,-0.04896130234229744,0
148,29.633333333333336,-0.9705449164124565,-0.04039891789903447,-0.23750893174473464,-0.9960933851989838,0.016454207418983523,-0.08675959325078804,1
149,29.833333333333336,-0.9593092979258842,-0.07282222442564092,-0.2728050486018342,-0.9919156702849333,-0.03858672241504625,-0.12088989989431016,1
150,30.033333333333335,-0.9479032589328256,-0.09160345614833244,-0.3051036193266304,-0.9888182317082255,-0.056810025821458755,-0.1378808384351622,1
151,30.233333333333338,-0.9853501791769311,-0.0731304418897058,-0.15406804621661851,-0.9895741631135403,-0.05454188368626746,-0.13329725661877062,1
152,30.433333333333337,-0.9963379331457503,-0.00036371623376866375,0.0855019922888111,-0.9923998332251399,-0.05492341052472375,-0.11011807295374915,1
153,30.633333333333336,-0.9745791790510859,0.026325650383918976,0.22249131194717556,-0.997698499270907,-0.05147861513036581,-0.04413226412546671,1
154,30.833333333333336,-0.9695762088382208,0.012503969324196798,0.24447009225269795,-0.9980722593576381,-0.05955668129372154,0.017457571824803515,1
155,31.033333333333335,-0.99317905397169,-0.054296174378886765,-0.10318571703349654,-0.997644766777404,-0.059493427922890176,0.034138707586013055,1
156,31.233333333333338,-0.9895114688355833,-0.05827156787246265,-0.13217971637332035,-0.9977852081609743,-0.055858503629813996,0.03611794494983819,1
157,31.433333333333337,-0.9754782595718631,0.027001334978645215,0.2184332690137198,-0.9949831749914879,-0.060297805579886087,0.07982891785630726,0
158,31.633333333333336,-0.9674726209511443,0.014894868442071168,0.2525368697913574,-0.9885256337049997,-0.08403137068261003,0.12552211059941246,0
159,31.833333333333336,-0.844288974952418,-0.509949008619756,0.16470620929862845,-0.9709195245165494,-0.19253120419652447,0.14229199669410086,0
160,32.03333333333333,-0.80746600923626,-0.5730742595138996,0.13994476414165777,-0.916786934947712,-0.36883150786393015,0.15318301053315034,0
161,32.233333333333334,-0.6467635613911281,-0.7626582458635566,-0.007021087735354011,-0.8036054904431504,-0.5902297029854623,0.07646642036421146,0
162,32.43333333333333,-0.34702433050060144,-0.8744873847787125,-0.3388892561051443,-0.6614990106239766,-0.7482841036781362,-0.04989949023896571,0
163,32.63333333333333,-0.14020071622734548,-0.9499013158164672,-0.27934074063674225,-0.49812872775111855,-0.8630952461752137,-0.08327284442601664,0
164,32.833333333333336,-0.03202382455174074,-0.9731470551179211,-0.22794579131099885,-0.3465798645852967,-0.9345747418093993,-0.08032714009556549,0
165,33.03333333333333,0.1190198948136198,-0.9797009981751468,-0.16130783866004852,-0.18144378107935466,-0.9794489757185002,-0.08807870498371292,0
166,33.233333333333334,0.048617080050091854,-0.9829067212435727,-0.17756901999395303,-0.027685511204947,-0.9929771936682968,-0.11502089081534227,0
167,33.43333333333333,0.48202574726691694,-0.8420075866393744,-0.24222799799673567,0.0916464838613491,-0.9881703682152878,-0.12296440695223351,0
168,33.63333333333333,0.624928288736557,-0.6721375404850225,-0.39710925525293816,0.17482304340194715,-0.9761093228588915,-0.12902516546642037,0
169,33.833333333333336,0.6864995743507291,-0.6138425117631642,-0.3897636529597877,0.29296715408499585,-0.9449289229505837,-0.14587521104968013,0
170,34.03333333333333,0.7431776430758661,-0.5647679049875746,-0.35878155516713306,0.4007902231553597,-0.9040386946568767,-0.1485975625175836,0
171,34.233333333333334,0.7253849115783422,-0.6857046984661668,-0.06021458756733605,0.47744600435728873,-0.8684917393648873,-0.13329445441657536,0
172,34.43333333333333,0.7365268177316648,-0.6744381722668505,-0.05158874442566472,0.5196039717195049,-0.8459217447170159,-0.1201170861627778,0
173,34.63333333333333,0.8589860678939192,-0.5089906834773842,-0.055420387019296795,0.5890282691336727,-0.8034151750727565,-0.08700433681260755,0
174,34.833333333333336,0.8916568817588871,-0.4527080760693164,-0.0018447421598873153,0.6685267086315227,-0.7430482152760566,-0.030844604412610256,0
175,35.03333333333333,0.8941534026941791,-0.44742909222488764,-0.017230782954767706,0.7554920895825984,-0.6548690055727621,0.01944963028596961,0
176,35.233333333333334,0.9592828555940006,-0.22199984188099986,-0.17462094137940917,0.839198211359268,-0.5430079700011616,0.029811181905840922,0
177,35.43333333333333,0.952458007484581,-0.18837652336999047,0.23945360598984014,0.8763283913224931,-0.4735438360407911,0.08834469938770505,0
178,35.63333333333333,0.9286911264723111,-0.18673507384916369,0.3204103678193599,0.8788500651649827,-0.44126090714209093,0.1814149243795692,0
179,35.833333333333336,0.8987501411687848,-0.2024831831393726,0.388907115253548,0.8650623773240228,-0.43032533597624356,0.25785109764250225,0
180,36.03333333333333,0.7737999779465783,-0.38073669616648614,0.5062342958770215,0.8353192784945584,-0.45276670346026204,0.3118397268037827,0
181,36.233333333333334,0.746835161572324,-0.42867262590587185,0.5084063544431812,0.7998752357654122,-0.5201882858244604,0.29933886232869283,0
182,36.43333333333333,0.6169763937925459,-0.6468848854532003,0.44819646861052514,0.5584698360638107,-0.8055028607192333,0.19818320710895782,0
183,36.63333333333333,-0.05606893273289332,-0.9722598034723625,0.22708401382324933,-0.2339296525849096,-0.9717990479897232,-0.02972419835372649,0
184,36.833333333333336,-0.9859138268842322,-0.14493877085867918,-0.08346663201821103,-0.84994675627759,-0.5189942905250453,-0.09074931347182759,0
185,37.03333333333333,-0.9684866348312036,0.22065586574578136,-0.11551894678065205,-0.9901040928394708,-0.1105781289591811,-0.08640811731785161,0
186,37.233333333333334,-0.8672240273385835,0.47371024710588194,-0.1533658638469854,-0.9868587249489162,0.14819320511507408,-0.06440986686774816,0
187,37.43333333333333,-0.7696535978258909,0.6382864804477106,0.014956879064032778,-0.9521601428593013,0.303476496743605,-0.03595939758093724,0
188,37.63333333333333,-0.6757016231926873,0.7315552421478853,0.09085287062452625,-0.8655396284867929,0.5007153717696532,0.011192318460560388,0
189,37.833333333333336,-0.574576307903492,0.8139477921408381,0.08573831153601182,-0.7789318394738687,0.6263507884343643,0.030820111640055152,0
190,38.03333333333333,-0.4146697530607797,0.8997930425350938,0.13572574001253895,-0.7100797738797042,0.7008985961283827,0.06728946925196116,0
191,38.233333333333334,-0.36470998801166854,0.9168325014662733,0.16249550424434814,-0.6417371562061212,0.7600050107713741,0.10279010626944692,0
192,38.43333333333334,-0.2962456975899212,0.9332212662476648,0.20331393184572016,-0.5849928554836441,0.801233921947567,0.12572812475183387,0
193,38.63333333333333,-0.18193264261135678,0.8581588433286325,0.48006657160159794,-0.5164604582198122,0.8238772428607848,0.23344139262670013,1
194,38.833333333333336,-0.06272627117845608,0.7798212571831565,0.6228516851942588,-0.4839858955604695,0.8358041493563274,0.25920855853400515,1
195,39.03333333333333,-0.06130117729213458,0.863371554579984,0.500831033787584,-0.4638121762475954,0.8443974676800008,0.26808801118302866,1
196,39.233333333333334,-0.20312625622017388,0.8519324481855439,0.48264979826221993,-0.43479355544639214,0.8499044113363522,0.297686169872391,1
197,39.43333333333334,-0.26680102882207857,0.8242877115865741,0.4993665783238295,-0.4540598263336233,0.8314001276585904,0.3203178138024165,1
198,39.63333333333333,-0.4843614426673919,0.7715939645309757,0.4123551221417461,-0.4764471177661341,0.8162156327290627,0.32678767550359045,1
199,39.833333333333336,-0.527473925006347,0.7735044201142272,0.35137184079284467,-0.5317701589419135,0.7883661292519245,0.3093531061864901,1
200,40.03333333333333,-0.8982270782566911,0.43349558642027075,0.07259264729016292,-0.7408212194025257,0.6323709964533542,0.2264748191908918,0
201,40.233333333333334,-0.9903427497276537,0.135150651245061,-0.030911802437027937,-0.9289568862121679,0.3455220355359422,0.13286695043573835,0
202,40.43333333333334,-0.9925138934810077,0.035030510204815526,-0.11700014787153691,-0.988712759324728,0.12977953282243862,0.0748622228421783,0
203,40.63333333333333,-0.9875426406088842,-0.10616897011097365,-0.11613648334958236,-0.9984612679816978,0.020295740609682044,0.05160600016940484,1
204,40.833333333333336,-0.9869478103263141,-0.11821292279706286,-0.10936052567480552,-0.9982217039813883,-0.029883142250762256,0.051579332195313334,1
205,41.03333333333333,-0.9873053442305553,-0.1216411928667517,-0.102135094124101,-0.9964255103483526,-0.06372318441558358,0.05545771447655258,1
206,41.233333333333334,-0.9904890921076612,-0.09527352253993616,-0.09926889904987098,-0.9968012043221468,-0.05722719440681808,0.055788953048450156,1
207,41.43333333333334,-0.9926041967618784,-0.06906927585503202,-0.09983157668577528,-0.997736959027242,-0.03990630323621733,0.054115132385411366,1
208,41.63333333333333,-0.9879247045290175,0.013987254371389726,0.15430208973440443,-0.9981273374831018,-0.020701158756912686,0.057561099668225056,1
209,41.833333333333336,-0.9930914661397162,0.0040614939546246565,0.1172725208534628,-0.9980083348005451,-0.007395138013502565,0.06264723140254631,1
210,42.03333333333333,-0.993109632712941,0.007318901651586911,0.11696021157377286,-0.9974684991907992,0.004110731842570766,0.07099080930496303,1
211,42.233333333333334,-0.9941339589843289,0.010258708400204259,0.10766814986849116,-0.9974359458167583,0.00811228058710737,0.07110362083821911,1
212,42.43333333333334,-0.9973917751257588,0.0019640168270685025,0.07215115764414871,-0.9975120606864344,0.0008937533145662352,0.0704903538799201,1
213,42.63333333333333,-0.9988578903460591,0.005059134293384507,0.04751126238716363,-0.9977196246058387,0.003206531541704218,0.06741860894335275,1
214,42.833333333333336,-0.9996028848828267,0.001075254569996403,0.02815877059709946,-0.9979954732935498,-0.0006051120568651495,0.06328245511184846,1
215,43.03333333333333,-0.9999408288590617,-0.005791562266621521,0.009208506239580338,-0.9984458958975587,-0.008204564101059535,0.05512239194041296,1
216,43.233333333333334,-0.999837706841306,-0.015639470129706637,-0.008942424301084067,-0.998571377235117,-0.01721499756236112,0.05058506128976734,1
217,43.43333333333334,-0.9997411743135516,-0.014606292089717787,-0.017442494476142156,-0.9985238467007088,-0.01710874532520293,0.0515501542521142,1
218,43.63333333333333,-0.9601185561903417,0.01684113435386354,0.2790855321449845,-0.9970183744177439,-0.01595253320802977,0.07549753477860338,1
219,43.833333333333336,-0.8427940019295123,0.04581026746806559,0.5362832178113929,-0.9727480315731196,-0.010563709033532914,0.2316239951345192,0
220,44.03333333333333,-0.7851924290590768,0.04502856437842599,0.6176125628080475,-0.9183405513735704,-0.0212198702572966,0.3952218981903084,0
221,44.233333333333334,-0.7229374609800994,0.06362788582292511,0.687977412170888,-0.8784200009240478,-0.011114758469495112,0.4777601533413611,0
222,44.43333333333334,-0.5132165250165811,0.12746207882536573,0.8487415489484542,-0.820643315748949,0.04055338439483069,0.569999974851487,0
223,44.63333333333333,-0.20522938252801598,0.23769087411751105,0.9494124229798255,-0.7295625153182905,0.11336780425829089,0.674452575945932,0
224,44.833333333333336,-0.3202947100804402,0.41188858581492077,0.8530879741092777,-0.6539042765400779,0.19133819137278407,0.7319828506493778,1
225,45.03333333333333,-0.3264023276187385,0.42302027372434947,0.8452901091005657,-0.6119691969798259,0.23782078969524156,0.7542777830061012,1
226,45.233333333333334,-0.6299995603707608,0.29557629136678326,0.7181470670513853,-0.5882012963953799,0.25137907800655357,0.7686532339484234,1
227,45.43333333333334,-0.6332091254524955,0.2951843204362545,0.7154805520852909,-0.5788752869923913,0.2601921845890283,0.7727893821658434,1
