,timeStamp,x_gaze,y_gaze,z_gaze,x_head,y_head,z_head,fixations_head
0,0.03333333333333333,-0.9936623804839508,-0.11238854994550722,-0.0019716622719337428,-0.9964188896739219,-0.05035616950411242,0.06792387278315154,0
1,0.23333333333333334,-0.9991715306983483,0.007334067807213226,-0.04003078429557185,-0.9969592325917234,-0.058226796401221095,0.05178734141634446,0
2,0.43333333333333335,-0.9992010561209459,0.034978636554118724,-0.019332470912984998,-0.998016153598341,0.007818494175339426,0.06247101972597294,0
3,0.6333333333333334,-0.9700571408183557,0.05401946833346053,-0.23679324438903895,-0.995499796201559,0.07769806123554504,0.05425096352040327,0
4,0.8333333333333334,-0.970082038818655,0.05230968219934325,-0.23707495673234968,-0.9942813608938357,0.10039892667270833,0.03639547914330445,0
5,1.0333333333333334,-0.8032834508141122,0.4516296006103178,0.3882864941003447,-0.9840874813630507,0.10965764560385122,0.13981069267101032,1
6,1.2333333333333336,-0.8019023208736455,0.46876782942585704,0.37041785846909686,-0.9621923002756527,0.14365899990120265,0.2314045570805272,1
7,1.4333333333333336,-0.8157920659953188,0.46457327660545117,0.3444633154969694,-0.9622492785934336,0.1393055115019304,0.23381680930079088,1
8,1.6333333333333335,-0.9759471266320527,-0.11857940863403556,0.18293750262491895,-0.9646656639310536,0.10886884862750176,0.23993276272943986,1
9,1.8333333333333335,-0.9760997124908406,-0.1399177337764266,0.16629004495208843,-0.9732849666862811,0.052781080963980286,0.2234514066072497,1
10,2.033333333333333,-0.9232015201410075,-0.17839320393531452,0.3404039042064975,-0.9709554447072323,-0.0006033586137899589,0.23925960869265886,1
11,2.2333333333333334,-0.8422431600856009,-0.23143012489603307,0.48689481059016004,-0.9422308820754042,-0.08290588396317293,0.3245421070796379,0
12,2.4333333333333336,-0.8513573777353892,-0.18638048959127862,0.4903599988531259,-0.9213783791063868,-0.06963717034006707,0.3823774928291624,0
13,2.6333333333333333,-0.7897281971898907,0.11588369130411763,0.6024121053339958,-0.9080870774965826,0.00575140171945897,0.4187419026822813,0
14,2.8333333333333335,-0.8841382634142414,-0.22317738878840293,0.4104770204292071,-0.8974084187935364,0.054009960686354684,0.4378824659941793,0
15,3.033333333333333,-0.8698535677108565,-0.2079959581395168,0.4473169481903397,-0.8980495496280554,0.026273850120919512,0.4391089741882649,0
16,3.2333333333333334,-0.8567114437244181,-0.46456363956129537,0.2241118626694853,-0.9012108739037483,-0.0849924123959327,0.42496499925612924,0
17,3.4333333333333336,-0.6544247983760149,-0.7032746031909746,0.2777283128834541,-0.8319467999902078,-0.32008376848306863,0.45322279635928525,0
18,3.6333333333333333,-0.5325565220050665,-0.7990971573050815,0.2789754183737437,-0.6551722889925586,-0.5840006457792285,0.47926247241537256,0
19,3.8333333333333335,-0.6009799261730557,-0.758462983578978,0.2521051980374521,-0.6077645140166795,-0.6371110233771206,0.4740378037598136,0
20,4.033333333333333,-0.4577195356211605,-0.856388674677903,0.23893778394003257,-0.5795482737685158,-0.6675049849728292,0.4675049661857682,0
21,4.233333333333333,-0.4636090374738607,-0.8538842308966088,0.23653410028718383,-0.56483474660647,-0.6805100914574732,0.4667630281529872,0
22,4.433333333333334,-0.590123512592921,-0.37474462735526026,0.7150669228494351,-0.5680614791676255,-0.626965064274014,0.533123779309994,0
23,4.633333333333334,-0.5872008146241005,-0.2818358898784033,0.7587909688980501,-0.5890796023439425,-0.5318626520036323,0.6083644808056813,0
24,4.833333333333334,-0.5903504686514094,-0.2515468992480013,0.7669488129215517,-0.6036340646360301,-0.4758679562781265,0.6396683548516872,0
25,5.033333333333333,-0.5948323680799151,-0.35819001627439695,0.7196348839000148,-0.61169631002344,-0.4343228816393351,0.6612044001579328,0
26,5.233333333333333,-0.6054926161152524,-0.34811165717478193,0.715679373720477,-0.6145076183621756,-0.41630005644782275,0.6701303231285587,0
27,5.433333333333334,-0.7288531607318324,0.030006835432002187,0.684012178194639,-0.6269998761196189,-0.3762463535079574,0.6821362303953278,0
28,5.633333333333334,-0.7432080507748179,0.2724927927778121,0.6110560294667292,-0.7228966552640799,-0.2799757605648135,0.6316913797925061,0
29,5.833333333333334,-0.7584465321555878,0.3029432592782704,0.5770478658820447,-0.7987316403421483,-0.16752023021007525,0.577896823997766,0
30,6.033333333333333,-0.7721594277943996,0.24076512744122067,0.5880492934069715,-0.8353515730253007,-0.06722781360933096,0.545589745616122,0
31,6.233333333333333,-0.9986672600852836,-0.011265019273603303,-0.05036668516507978,-0.8744057684477123,-0.005565551328555162,0.48516345363575614,0
32,6.433333333333334,-0.9906343417267651,0.10841707787198283,-0.0830020374284862,-0.9231557676047402,0.06413303748779187,0.3790387608684539,0
33,6.633333333333334,-0.9684469707581808,0.24461036425558377,0.047709899686061465,-0.9532975913190358,0.09152928929109697,0.28782996992528614,0
34,6.833333333333334,-0.7184784493129999,0.6396169325917292,0.27327439948655097,-0.9532788226545348,0.1746171108144801,0.24651237471816276,0
35,7.033333333333333,-0.6638852486690279,0.7076321544940384,0.2418948336070633,-0.9189476824725211,0.32448709454230806,0.22415013351295052,0
36,7.233333333333333,-0.5942051273606387,0.7745803539433368,0.21666919924932146,-0.8789419665322127,0.43266883974856674,0.20064569414546596,0
37,7.433333333333334,-0.8865216753279097,0.29697977958253263,-0.35479899900212086,-0.8827889629722738,0.4448485060921146,0.1509750094616693,0
38,7.633333333333334,-0.8703071605684182,0.32521536998653033,-0.3698653936067307,-0.9154838383796734,0.4019424901807347,0.01820923537468305,0
39,7.833333333333334,-0.8758819250203347,0.3066929681022793,-0.3725188273621711,-0.9281336160718023,0.3703461273676517,-0.03757308426604755,0
40,8.033333333333333,-0.8566880044049543,0.32784276630376996,-0.3982521609369478,-0.9121575194394499,0.39989977891628503,-0.0897152526205878,0
41,8.233333333333334,-0.6812327507579146,0.40755224917214267,-0.6081308276099255,-0.8829909887957613,0.45103558249555437,-0.1299762171644489,0
42,8.433333333333334,-0.6464548203642504,0.3985583906419333,-0.6505746494267486,-0.8625112983231968,0.4665375069116372,-0.19600258903776696,0
43,8.633333333333333,-0.6357186698774354,0.37854572167833433,-0.6727294473770964,-0.8616415869282437,0.44696430030616036,-0.24040942146181082,0
44,8.833333333333334,-0.6261509791853583,0.3733208576245676,-0.6845191659315863,-0.8563675942885782,0.4394620438588887,-0.27112295266126385,0
45,9.033333333333333,-0.46228037237212694,0.37155157427104946,-0.8051374323531312,-0.8347610354810534,0.46911325878614957,-0.28828243802500186,0
46,9.233333333333334,-0.4152741178545418,0.8641481550403225,-0.2842452694074949,-0.7802221030680159,0.5413553510895499,-0.3133494115693095,0
47,9.433333333333334,-0.40818382696334726,0.8673442533003964,-0.28478045872625196,-0.7526107679980547,0.5850165046089987,-0.3022130394745537,0
48,9.633333333333335,-0.4633501780378382,0.4638885016485578,-0.7550589848154644,-0.7302714833710469,0.601561601264366,-0.32377028964885396,0
49,9.833333333333334,-0.44766164804813063,0.45646545918252923,-0.7689202386724612,-0.7026226306187209,0.6059074551416469,-0.37309193873119534,0
50,10.033333333333333,-0.2740525961406785,0.7454733182332064,-0.6075892579291762,-0.6109790594014813,0.7020531662016994,-0.36582228034805414,0
51,10.233333333333334,-0.14656275741369312,0.9876995165105714,-0.05448874401267153,-0.4960479677415347,0.829938691294836,-0.2552218297703169,0
52,10.433333333333334,-0.050797336777146984,0.9966756999012274,0.06369599518610257,-0.4051889253731283,0.9027939242198384,-0.1441702644331147,0
53,10.633333333333335,-0.01132488346535726,0.9805936098537008,0.19572408980139488,-0.295906469725062,0.9506806874693358,-0.0929816737195159,0
54,10.833333333333334,-0.06747771752004594,0.9916015062366478,0.11033227300974237,-0.19938169754541346,0.979921267582008,-0.0011171501152446549,0
55,11.033333333333333,0.21899501216090678,0.9545103489802824,0.20236397490211588,-0.07370541558004018,0.9935032460739058,0.08671108207597268,0
56,11.233333333333334,0.23567115152231116,0.9538142276128713,0.18627272356254848,0.02734551666646079,0.9904550024707047,0.1350966720500575,0
57,11.433333333333334,0.26510364269874476,0.9518824888252775,0.15375235313858343,0.10451380428552837,0.987231502304985,0.12021158667286928,0
58,11.633333333333335,0.5457806377484996,0.8367814828067371,-0.043820605776276465,0.20733713236701107,0.9739378893979841,0.09195814883317575,1
59,11.833333333333334,0.5375351595887281,0.8397070355787832,-0.07712358008684936,0.32637954507450656,0.9428584835229433,0.06703933625696595,1
60,12.033333333333333,0.4209172006349401,0.8927467762310922,-0.1607230653597611,0.3633330702137667,0.9272924137340474,0.09009916492577748,1
61,12.233333333333334,0.429938803588757,0.8901041556273773,-0.15121910363291402,0.36112352433550904,0.9275228882569226,0.09639031035865388,1
62,12.433333333333334,0.060737557779919515,0.9389574287170542,0.33862943778116694,0.340943934655937,0.9300274553160611,0.13713557444973923,1
63,12.633333333333335,-0.021272380711277128,0.9247391193332148,0.3800066407231651,0.296480750003679,0.9282592326173094,0.22457506971607583,1
64,12.833333333333334,-0.00499469021306187,0.932350495345713,0.36152123989923357,0.2507891411771904,0.9277215175894936,0.2764734932485471,0
65,13.033333333333333,0.0858836246600988,0.9962951473880433,0.0044701572993171654,0.2079771740303753,0.937907496330953,0.27762388839677116,0
66,13.233333333333334,0.08921148847480909,0.9959388055199933,0.012132847296422338,0.19408061643494112,0.9398172395763,0.281205032884223,0
67,13.433333333333334,0.41005034249255073,0.9109628396883247,0.044781930828471574,0.22852107163294993,0.9367597633450971,0.2650646441858406,0
68,13.633333333333335,0.4595986453349015,0.8875236976819184,-0.03272264138693858,0.325218450259665,0.9300437548388709,0.17103091444506746,0
69,13.833333333333334,0.5182242697240491,0.7782008083267855,-0.35474935967315524,0.4267910444608781,0.9038868612968938,0.028947302859558044,0
70,14.033333333333333,0.5768508065631823,0.711024399472976,-0.4021037805361943,0.48800907926391424,0.8716559738062708,-0.04542028053445262,0
71,14.233333333333334,0.6001265506704687,0.7011890708214138,-0.38494416496547595,0.5394474540754477,0.8394336263700278,-0.06593656960126328,0
72,14.433333333333334,0.7536535140196265,0.5171422224182906,-0.4056726544865202,0.5737908025541906,0.8165231471514057,-0.06367154050423014,0
73,14.633333333333335,0.7685246448942418,0.4186785134787768,-0.483816259070922,0.6363942712549691,0.7549083107391089,-0.15847956931693802,0
74,14.833333333333334,0.815581426869454,0.3953815781669493,-0.42249301034667797,0.7101171605882667,0.672203796689614,-0.20946520941226984,0
75,15.033333333333333,0.982608210667804,0.10759803647287511,-0.15133990509908002,0.7882596062448236,0.5759370717278063,-0.21666398540679452,0
76,15.233333333333334,0.9837070461405604,-0.010910615669727846,-0.1794475016240716,0.8646478122773382,0.458421825368282,-0.20550812818481234,0
77,15.433333333333334,0.9773119576433915,0.0005766054241728408,-0.2118041665629515,0.9150176934034285,0.35601706450933673,-0.1897220876356375,1
78,15.633333333333335,0.9779940081553669,-0.02762583604774106,-0.20679587325394969,0.9360490770205967,0.30408421291121734,-0.17704495719182245,1
79,15.833333333333334,0.917197121226814,-0.14652128185313898,-0.3705144461115624,0.9499846314039375,0.26260539762726065,-0.16901954098077918,1
80,16.033333333333335,0.923006013753886,-0.169508640695712,-0.34543699758950747,0.959677476511668,0.2260201548311599,-0.16713476803554486,1
81,16.233333333333334,0.9823938447604852,-0.12095711629521533,-0.14237875471522252,0.9656629289087447,0.22206413443142187,-0.13484297508809365,1
82,16.433333333333337,0.97501103596217,-0.10697543146266045,-0.1947042290638636,0.9620472236201243,0.21387109288616554,-0.16948243316782988,1
83,16.633333333333336,0.760013464043972,-0.011349557476325291,-0.6498082194132162,0.9384163656302308,0.15999840205606006,-0.3062274253832544,0
84,16.833333333333336,0.6741829954154915,-0.09673918038032962,-0.7322013518643198,0.9082768929663866,0.06225991444373911,-0.4137109966592445,0
85,17.033333333333335,0.38969376743264655,-0.1333561845634686,-0.9112381113972486,0.8592288514432946,-0.10500026423584462,-0.5007002350287445,0
86,17.233333333333334,0.29559804407252294,-0.24354366267085886,-0.9237468704755444,0.7371489033877229,-0.288771833291351,-0.6109192438709307,0
87,17.433333333333337,0.2258930549016455,-0.3133086161304577,-0.9223936463384924,0.6424763950122594,-0.4313720005764536,-0.633357939060307,0
88,17.633333333333336,0.18857149120479977,-0.8188773467943093,-0.542107631021655,0.5440126331003147,-0.570586532203253,-0.6152083096769166,0
89,17.833333333333336,0.05823963541822663,-0.9350769270908849,-0.3496273520315882,0.43730648408144845,-0.6968370415758365,-0.5684902606625363,0
90,18.033333333333335,-0.05494525055385785,-0.9983880938539839,-0.014220882257530704,0.29983559251499475,-0.8118193145780148,-0.5010469218938124,0
91,18.233333333333334,-0.18460603097639872,-0.9801429136623091,0.07239117435641063,0.16347552745522553,-0.9373332079088001,-0.3077047436661219,0
92,18.433333333333337,-0.15018460531309574,-0.9881103103200239,-0.032902871701656504,0.07937684809501544,-0.9853051209030714,-0.1512386680339552,0
93,18.633333333333336,-0.06211434138110833,-0.9897302402013153,0.12874727269281425,0.059241792972321405,-0.997316286655172,-0.0430189997299281,0
94,18.833333333333336,0.10163162732197573,-0.9947572911021095,-0.011355356757075002,0.045299736760229414,-0.9984806086595167,0.031375276578463056,0
95,19.033333333333335,0.0852126853765896,-0.994962789214964,0.05280005992884459,0.05900553554758592,-0.9946164476203534,0.08518491003582546,0
96,19.233333333333338,-0.4271158606589668,-0.8297685352559179,0.3592439553740588,0.014454004473164583,-0.9836479409474778,0.17952105732887477,0
97,19.433333333333337,-0.502473773817731,-0.8122798953317298,0.29617811915339376,-0.12687050882868045,-0.9727930413273477,0.1938493557756663,0
98,19.633333333333336,-0.6365693776149558,-0.7134577266422724,0.29284381464758436,-0.28666476719382833,-0.929855589261874,0.2306336800386309,0
99,19.833333333333336,-0.17992192996574577,-0.7743494344189727,0.6066391452357972,-0.42135573317285685,-0.8438061190079529,0.33234105922546053,0
100,20.033333333333335,-0.5873223398159598,-0.7917534141738114,0.16786601888774144,-0.47234030777873937,-0.7894171131619626,0.3920653709453556,0
101,20.233333333333338,-0.607010939109313,-0.7702484830771035,0.19558883945422706,-0.5231429443104059,-0.7530550167919935,0.3990358398723733,1
102,20.433333333333337,-0.7938818214456743,-0.5764056497002497,0.19367028830394062,-0.5453915693424274,-0.7425098671230379,0.3888793300178513,1
103,20.633333333333336,-0.792951795651749,-0.5855323714658398,0.16846154379637213,-0.5732489211220241,-0.7407275922461676,0.350297457195497,1
104,20.833333333333336,-0.7966055301080148,-0.5784489641133757,0.17554607747680376,-0.5986229446688469,-0.7255802291389564,0.33938753836677366,1
105,21.033333333333335,-0.8037862577982577,-0.5649934417388102,0.1863063674886246,-0.6221547328968873,-0.7037058927472899,0.3431056759174096,1
106,21.233333333333338,-0.5111781182118963,-0.8279128776705071,0.23077521194592093,-0.6000551643824392,-0.6949907775836478,0.39613333458778804,1
107,21.433333333333337,-0.5121341153395342,-0.8336432728182359,0.20677896795925113,-0.5549027599920082,-0.7321393879776151,0.3950377748076946,1
108,21.633333333333336,-0.6849346377260263,-0.7041396643622503,0.1872214600811963,-0.5509986068841335,-0.7548420793149937,0.35582856898675397,1
109,21.833333333333336,-0.6648850196643449,-0.7247892964629685,0.1805779232316592,-0.5807201340602922,-0.7381507958500831,0.34336209529137784,1
110,22.033333333333335,-0.6906899337681226,-0.6979352305706304,0.18929825493043323,-0.6296381147338648,-0.6937834628859281,0.3496002733128146,1
111,22.233333333333338,-0.7274701185168039,-0.6579273285878203,0.19472764817159838,-0.6701395270971573,-0.6552325688718162,0.34868796209740205,0
112,22.433333333333337,-0.9695264676560436,-0.21447667018735778,0.11839842253906135,-0.6718355575600559,-0.6397488740334318,0.3733073288470574,0
113,22.633333333333336,-0.9833649704986704,-0.16662711590037435,0.07231002034899629,-0.7380875845062513,-0.5786534677850539,0.34696812795710646,0
114,22.833333333333336,-0.9993453482502115,-0.031386836974608506,-0.017992815104730938,-0.8462906059522278,-0.4731160286942724,0.24485390270439125,0
115,23.033333333333335,-0.9994624395880901,0.03152314970984505,-0.00900682435679898,-0.9280489856059362,-0.32146990056529484,0.18810152404042998,0
116,23.233333333333338,-0.9992127635510334,0.03665560456132864,-0.015172996109868312,-0.9475761134857137,-0.26653337591460113,0.1762369673901484,0
117,23.433333333333337,-0.949095148312382,-0.04852776086224782,0.311228944469493,-0.9301705177345865,-0.3060398181844616,0.2027866800926356,0
118,23.633333333333336,-0.9274765275565353,-0.11072438500284676,0.3571097889969038,-0.8796536798288881,-0.4028296089381734,0.25285907087983767,0
119,23.833333333333336,-0.7022961065760245,-0.10492091233270168,0.7041106311109291,-0.8331146876274756,-0.45701258060025735,0.3115436059887397,0
120,24.033333333333335,-0.7122899276575121,-0.04223318473890775,0.7006136003992968,-0.8315269792525875,-0.3948075915794302,0.3907554841666554,0
121,24.233333333333338,-0.8126821569575253,0.07706374110764856,0.5775888603231175,-0.8624900716586136,-0.2789835740292312,0.4222310288363426,0
122,24.433333333333337,-0.8277860191466924,0.06728538500644445,0.556994599138813,-0.8595342292498033,-0.1035725207522113,0.5004734175687853,0
123,24.633333333333336,-0.9044294950184287,0.24926765083045901,0.3462266985519381,-0.8585009804550375,-0.02780292108325433,0.5120576765726473,1
124,24.833333333333336,-0.8848501299884189,0.295434487110732,0.36022036489501397,-0.8392596809507069,0.06320477530743071,0.540044761393771,1
125,25.033333333333335,-0.972267032055068,-0.022893183079607447,0.2327503395213703,-0.8344973367260731,0.10900799154993639,0.5401217018185254,1
126,25.233333333333338,-0.9724468656365376,-0.06285538979263518,0.22449118799563106,-0.8442890354485727,0.06931783418530538,0.531385982582508,1
127,25.433333333333337,-0.9249034811983048,-0.036931497318984076,0.3784040366764536,-0.8434855661516916,0.046319350955849985,0.5351510230026562,1
128,25.633333333333336,-0.8193616733668175,-0.05673142124542841,0.5704629646708036,-0.8362589156059239,0.016167607812493528,0.5480963733936086,1
129,25.833333333333336,-0.8241029594634266,-0.08012990474256969,0.5607437120196435,-0.8338389227642371,-0.015148614670558875,0.55179993689465,1
130,26.033333333333335,-0.7681645144668884,0.5600348653960262,0.3102970000736464,-0.8348096266201874,0.12487997819266931,0.5361882862846428,1
131,26.233333333333338,-0.6459338743819255,0.7024410199518674,0.2989080852284456,-0.7809972059178907,0.3449180589509335,0.5206485349618959,0
132,26.433333333333337,-0.23546060296394097,0.7724324239436543,0.5898359559168874,-0.6782617085733659,0.5335564140402602,0.5052510343578103,0
133,26.633333333333336,-0.335370899297865,0.8153413452590895,0.47195852637201063,-0.5331977257271118,0.6718636544711653,0.514100588484478,1
134,26.833333333333336,-0.31291439829575773,0.8230421863137001,0.4740106949080036,-0.46592280007979076,0.7173335316507864,0.5180236951484148,1
135,27.033333333333335,-0.31817582901045416,0.8253811119291803,0.46637984723191106,-0.4397575880338892,0.7347943086721871,0.5164209404251334,1
136,27.233333333333338,-0.3823691585768184,0.878672802359874,0.2858809769157472,-0.4147771823087806,0.7400706681234427,0.5293914385587564,1
137,27.433333333333337,-0.558363062640582,0.8146971032100125,0.15652258718742143,-0.45190940077209957,0.7107866045796203,0.5390364516839063,1
138,27.633333333333336,-0.04011678143346198,0.5358209897520361,0.8433780355146606,-0.4423462717528246,0.647685625590281,0.6203491809216025,1
139,27.833333333333336,-0.07324722383491344,0.6097621067860872,0.7891926363875116,-0.42880802503198384,0.6311117264079908,0.6463912642188905,1
140,28.033333333333335,-0.2515322188876006,0.5337825679637465,0.807346092453236,-0.38690585320701726,0.6387466898378527,0.6650612956527663,1
141,28.233333333333338,-0.2434944544004359,0.5384142933773242,0.8067344664530154,-0.34265710825264534,0.6483443375523609,0.67987919965809,1
142,28.433333333333337,0.1524601181827491,0.7459734930410342,0.6482896420920673,-0.3357430871696158,0.6428996047958266,0.6884451158743058,1
143,28.633333333333336,0.12040179591009184,0.7432575450999827,0.658081780019453,-0.35303111647213103,0.6356698741829158,0.6865077143475645,1
144,28.833333333333336,-0.5593271778116164,0.42000143784937416,0.7146690845179678,-0.3897462918629767,0.6172208421181256,0.6834736717928872,1
145,29.033333333333335,-0.5208997031650938,0.47118382849862167,0.7117930169676426,-0.4159526958833952,0.6057221966368305,0.6782949028916472,1
146,29.233333333333338,-0.5695626607598434,0.3252404882053189,0.7548622392861718,-0.4371162104849914,0.5981890374304955,0.6716392588504769,1
147,29.433333333333337,-0.5648670106701648,0.33631785693072686,0.7535353736660775,-0.4484224054156816,0.5970448792699758,0.6651727282884607,1
148,29.633333333333336,-0.5810459793303525,0.3365069628544332,0.7410456354736301,-0.47824847989143704,0.5939149016946865,0.646949365117952,1
149,29.833333333333336,-0.45279729048655154,0.870425492085905,0.19322027961642022,-0.5049085169925547,0.6286350611113279,0.5915110729394139,0
150,30.033333333333335,-0.5767910791155589,0.811693377452265,0.09201039100473557,-0.534374154692103,0.6722697010995169,0.5123453052196992,0
151,30.233333333333338,-0.5541747625803056,0.831992735384498,0.026046511983044227,-0.5548405422692636,0.7143651387226664,0.42642047468677596,0
152,30.433333333333337,-0.9518162714955934,0.2844084654009838,0.11470662633206578,-0.6664362098587324,0.6563477621859097,0.3536529276885412,0
153,30.633333333333336,-0.9770134847014034,0.17852823107155746,0.11650030653213746,-0.8404597002032241,0.45280109057144924,0.297655278319758,0
154,30.833333333333336,-0.9662455107810219,0.08423094971874856,-0.24346408360372196,-0.9459035918795807,0.2762230486431654,0.17019759771390183,0
155,31.033333333333335,-0.97795805541068,0.14300782195859682,-0.15214073983000012,-0.984543972461872,0.17500412357094774,0.006835424065949658,0
156,31.233333333333338,-0.9659476060600545,0.11405665511878997,-0.23224190356170302,-0.9882125071911559,0.1318240316911421,-0.07783614391568013,0
157,31.433333333333337,-0.9730966945451212,-0.08963740858094144,-0.2122450424585994,-0.9895356538728448,0.10192120215728957,-0.10213353154206888,0
158,31.633333333333336,-0.9198982127786823,0.3103203145239512,-0.23976776372219538,-0.9893427060711804,0.08438383786507941,-0.11866076795181364,0
159,31.833333333333336,-0.917370069189646,0.2510291046917467,-0.30889568587574084,-0.9724936043356792,0.08044595493133996,-0.21859697587428878,0
160,32.03333333333333,-0.9365687746786684,0.18878190737580097,-0.2952970059862656,-0.9643138885898573,0.013511765425468737,-0.26441663424942763,0
161,32.233333333333334,-0.5565161041928831,-0.3715422068189691,-0.7431327030390109,-0.9280460168728566,-0.1390240377592005,-0.34554725797140073,0
162,32.43333333333333,-0.54160615316643,-0.3224224136673327,-0.7763417817026165,-0.8502029335302024,-0.3023527818495582,-0.43097304686543003,0
163,32.63333333333333,-0.5894302741685117,-0.23956463890128948,-0.7714795756737363,-0.7966649555358765,-0.39491508259815167,-0.4575664172090382,0
164,32.833333333333336,-0.6013560843104869,-0.25330836148985436,-0.7577636398390228,-0.79767306409452,-0.4156106470946059,-0.437018847236207,0
165,33.03333333333333,-0.6389845626304155,-0.2998236178442687,-0.708381625187152,-0.8103626252954015,-0.4643081608331875,-0.35739382662274366,0
166,33.233333333333334,-0.5220147317264539,-0.8421165301329432,-0.13542662049025112,-0.7831631275636959,-0.5720609120887794,-0.24372490329222374,0
167,33.43333333333333,-0.7285948121490397,-0.6778461790318369,0.09835729399208339,-0.7298537855990399,-0.6707928355552242,-0.1317210059729767,0
168,33.63333333333333,-0.70491383872761,-0.6744155017892357,0.21968206780863694,-0.7000797705979819,-0.7135651247980066,0.02670444666123378,0
169,33.833333333333336,-0.4957756820216459,-0.8438109075170394,0.20540113308168945,-0.6211717164584131,-0.7755617334734718,0.11247086842259445,0
170,34.03333333333333,-0.5082557367096252,-0.8372409213726058,0.20175169313021016,-0.5222790261923546,-0.8401044648386014,0.14645513633127885,0
171,34.233333333333334,-0.5662618247033953,-0.8003834249980697,0.19680934650554782,-0.46790144777090364,-0.8625240157650053,0.19266695981019,0
172,34.43333333333333,-0.5799136529941115,-0.7834013949071228,0.22356746080008988,-0.47640138487760664,-0.8432271998732371,0.24901728831677172,0
173,34.63333333333333,-0.599589781465787,-0.763916176424821,0.23858786506922658,-0.5006830271833118,-0.8109536023018098,0.3027717972405511,0
174,34.833333333333336,-0.5760451394742113,-0.7997781534168569,0.1688990900071964,-0.49090867659321924,-0.7898057128323227,0.3677167486298674,0
175,35.03333333333333,-0.5602503704212072,-0.8079278807086631,0.1826802179123639,-0.4498777343058424,-0.7909768055824308,0.4146874934290343,0
176,35.233333333333334,-0.32986660232564285,-0.8002667311855853,0.5007606051075447,-0.3629665874275262,-0.8264748129316635,0.4303424682747312,0
177,35.43333333333333,-0.01604758562481773,-0.7436822965349282,0.668340569482468,-0.0939270540608732,-0.9166515541004223,0.3884940628641921,0
178,35.63333333333333,0.0520475581747315,-0.553105619102523,0.8314837495737741,0.18370110282761593,-0.8227323055795132,0.5379270007870368,0
179,35.833333333333336,0.15272279010287493,-0.4530396584581756,0.8783113441412975,0.23630401634943948,-0.6971166904109257,0.6768963966573035,0
180,36.03333333333333,0.3804722760763165,-0.35707407109598344,0.8530761717972478,0.21720726462572862,-0.6308630577265539,0.7448709999655722,0
181,36.233333333333334,0.3630361713877791,-0.30540599313756217,0.8803021740401205,0.2217253460525941,-0.5830534829514623,0.7815922894553312,0
182,36.43333333333333,0.4535675246777275,-0.30856106206775463,0.8361020102435701,0.259289639892477,-0.5841280874702555,0.7691314972569849,0
183,36.63333333333333,0.5885833102625914,-0.23146528221707283,0.7745924799586564,0.3870269706762713,-0.5059340879401008,0.7708701723567771,0
184,36.833333333333336,0.7828895265079165,-0.18456493522143252,0.5941546717572109,0.5737293289516835,-0.39108612933542103,0.7196431730671036,0
185,37.03333333333333,0.8808064323197597,-0.12973915089756888,0.45535456680318326,0.7215716454391703,-0.28680383881169336,0.6301411893703542,0
186,37.233333333333334,0.97505274243359,-0.21404019670677735,0.05881278488950807,0.7879392766658682,-0.2942485375751041,0.5408969351199735,0
187,37.43333333333333,0.9636597946405844,-0.2032625677527775,0.1733324226560477,0.8651896465720523,-0.31334961354169516,0.3914829436358599,0
188,37.63333333333333,0.9679545681262802,-0.19443185708770908,0.1589345997348948,0.8945649566257828,-0.3423295734822894,0.28733952303250115,0
189,37.833333333333336,0.7967195390009209,-0.5217915118085018,-0.3049124372320002,0.896810540636425,-0.4164424672637538,0.14935369316719643,0
190,38.03333333333333,0.8116552609520834,-0.5501705772027423,-0.19628569318523137,0.8231269387061966,-0.5668158230858142,0.03437827040030372,0
191,38.233333333333334,0.23853027154789153,-0.9711169186440057,-0.00593631861181218,0.557187185876964,-0.8301987331794325,-0.017677763483408056,0
192,38.43333333333334,-0.176472959911042,-0.9840352326604491,0.02306415624148939,0.2187572429367215,-0.9752637213034107,-0.031716597739164534,0
193,38.63333333333333,-0.38422266797945015,-0.9133666041634807,-0.13466398111456887,-0.15172839127466087,-0.9869605465792426,-0.053734297959554624,0
194,38.833333333333336,-0.6309613633787728,-0.7453554293195149,0.21525111360251312,-0.4584652773809291,-0.8885250116675718,-0.018245357688165445,0
195,39.03333333333333,-0.8082887139870928,-0.5630908545189575,0.17204082189469497,-0.6349409368974526,-0.7718534157527734,0.033050132262389335,0
196,39.233333333333334,-0.9760352059799089,-0.1809236518658922,-0.12092108535431809,-0.7554994265966939,-0.6528793844431208,0.05448968509028501,0
197,39.43333333333334,-0.995881074220494,-0.09066732848877045,-0.000567057443579544,-0.8626126602902556,-0.5040187613881209,0.0431796998108262,0
198,39.63333333333333,-0.9970444393438656,-0.03813813998520199,-0.06669234027941837,-0.9532047354497519,-0.30068184857027086,0.031482665969280246,0
199,39.833333333333336,-0.9911459286060604,0.09024125316231021,-0.0973974560002798,-0.99607338830878,-0.08563627109544221,0.022455159227547348,0
200,40.03333333333333,-0.9897199113164455,0.03062514879421772,-0.1397018160408068,-0.9999671641527246,0.006311336202183829,0.005083075024135287,0
201,40.233333333333334,-0.9860870707102308,-0.026647045797368422,-0.16407993152238282,-0.9998725148695579,-0.012447931046551983,-0.01000015105318536,0
202,40.43333333333334,-0.984161957085384,-0.057017757385161016,-0.16785177261093792,-0.9997147906942435,-0.023641916909544956,-0.003375949052881287,0
203,40.63333333333333,-0.9873786272115358,-0.002449918378188144,-0.15835859441723776,-0.99862856958426,0.04927269917436344,0.017696924200751064,0
204,40.833333333333336,-0.8176088683087697,0.5242491812810328,0.2380725401826502,-0.9764580337116454,0.19544870966057962,0.0912661508556262,0
205,41.03333333333333,-0.7799226380172575,0.5951351705746766,0.1937390189230164,-0.9534727079414799,0.2855652546331298,0.09665547349766106,0
206,41.233333333333334,-0.7044531112907673,0.6853050070272999,0.18466960046545342,-0.9046694155959384,0.41300635935040947,0.10487609652072288,0
207,41.43333333333334,-0.44590271209906596,0.8343425661896968,0.32410376978166955,-0.8358601391683053,0.5354450810308604,0.12098096110296344,0
208,41.63333333333333,-0.4335899216573357,0.8617356248755519,0.26346060930911025,-0.7429662439029124,0.6539972151085031,0.14243876948050463,0
209,41.833333333333336,-0.30872916358815106,0.90867889414224,0.28104976586113156,-0.6448554302270217,0.7409482117738176,0.1875025908511793,0
210,42.03333333333333,-0.22768093399690809,0.9341213317956611,0.27491585945266267,-0.5486742455396602,0.8089985137379676,0.21089802524263723,0
211,42.233333333333334,-0.08553921010347626,0.9357968733042965,0.34200475939491837,-0.4243209191887059,0.8690320723466288,0.25443076616591664,0
212,42.43333333333334,0.07257971863826018,0.9102420982562065,0.4076659257339641,-0.2795945973074953,0.9102852371128307,0.3052992765318932,0
213,42.63333333333333,0.1793911955732752,0.8506935421603549,0.49410453982680524,-0.16889358035547353,0.900254931098867,0.4012680121151993,0
214,42.833333333333336,0.24469049344616686,0.7775973825038832,0.5791967482127135,-0.10531217774509444,0.8655316831116026,0.4896572788681716,0
215,43.03333333333333,0.2557330742053947,0.7338283839817868,0.6293619766240546,-0.09193815796437005,0.8278530627357509,0.553359450654957,1
216,43.233333333333334,0.20226810887117852,0.7369293782466296,0.6449982198508095,-0.1425181762031911,0.8093960440295069,0.5697074805205742,1
217,43.43333333333334,-0.0009278557190173786,0.7409570846417685,0.6715517387386736,-0.18734376054232707,0.7895951680281117,0.5843302028926092,1
218,43.63333333333333,-0.15879281267531775,0.7259830338857093,0.6691288942743113,-0.1760639767476687,0.7731282476413084,0.6093227295866092,1
219,43.833333333333336,-0.13302332250002696,0.702269861601803,0.6993724595355744,-0.13494432391086306,0.748651159733985,0.649085102643097,1
220,44.03333333333333,-0.11786826172012976,0.6949368511782653,0.7093446593536269,-0.09265029939052066,0.7354613816175551,0.6712022632351923,1
221,44.233333333333334,0.028132364563534296,0.7580458407673919,0.6515942551613867,-0.1004038538203158,0.7278015583172301,0.6783980821383859,1
222,44.43333333333334,-0.0012464367422219125,0.7534234249742185,0.6575344774957171,-0.12053828662062172,0.7202497078747303,0.683162410971894,1
223,44.63333333333333,-0.06359349725036234,0.899231698842622,0.43282585286010833,-0.14779062088872008,0.7174532905275824,0.6807486381098908,0
224,44.833333333333336,-0.04281401676954122,0.8743690497733114,0.4833691392368505,-0.13720609833390934,0.7272377712513519,0.6725323119712184,0
225,45.03333333333333,-0.009027514805077963,0.8785684846842804,0.4775310688279994,-0.09383491143132702,0.7527432633709442,0.6515923486708055,0
226,45.233333333333334,-0.03431579649341765,0.9740522770355207,0.22370647668974666,-0.048783687653043306,0.7939730026329529,0.605992593113962,0
227,45.43333333333334,-0.03730186141675057,0.9991951174270269,-0.014754268698774189,-0.03681500958267242,0.8936606560874165,0.44723068636983787,1
