,timeStamp,x_gaze,y_gaze,z_gaze,x_head,y_head,z_head,fixations_head
0,0.04,-0.9967973444843381,0.026997265856540675,0.07527417661617335,-0.9996091043935074,0.02352378783659481,0.015108600842856243,1
1,0.24000000000000002,-0.9981790047787856,-0.0112331670608583,0.05926626676800143,-0.9998325994918376,-0.017452282586978788,0.005494617902910429,1
2,0.44,-0.9981405941376514,-0.023184267777704933,0.0563723696694389,-0.9993453633910109,-0.036056251347470834,0.0029650308019752627,1
3,0.6400000000000001,-0.9963801440448515,-0.042273297775508194,0.0737534870249833,-0.9982354842980445,-0.05782241361634658,0.013508751675444563,1
4,0.8400000000000001,-0.9953076439289819,-0.0456458406584523,0.08531794164841598,-0.9977386739617312,-0.0640004106635992,0.020530122161772708,1
5,1.04,-0.9955513528594744,-0.023887064376128912,0.09114226228902379,-0.9986135870428194,-0.04670354588703893,0.024283380634720766,1
6,1.2400000000000002,-0.994723666475867,-0.026630875913425854,0.09907383005058583,-0.998209654616878,-0.052093623466439,0.029389450892971323,1
7,1.4400000000000002,-0.990470039128297,0.069716254752735,0.11878023999151283,-0.9982153567309364,-0.05606881856904847,0.0205521086704134,1
8,1.6400000000000001,-0.9884239279285973,0.09273934914300161,0.12007311030674417,-0.9935436491568594,-0.0747241047781302,-0.08536583265674198,1
9,1.84,-0.9997588745072061,-0.0044549900427133405,-0.02150223029836694,-0.9967854757592207,-0.07103444302955234,-0.037051629099748226,1
10,2.04,-0.9896441421671489,-0.014028390832912413,-0.14285543785550217,-0.9959678593046248,-0.07200838146678515,-0.05350529161398154,1
11,2.24,-0.9890248668664466,-0.018089765969452085,-0.14663755687741992,-0.9951840915955126,-0.07605180013241897,-0.061844543266426,1
12,2.4400000000000004,-0.9953498893863245,-0.005840022145511064,0.09614828048369722,-0.9947704820014126,-0.08926623994879279,-0.049630903115722276,1
13,2.64,-0.9952954820934851,-0.03220239459491316,0.09137783706485325,-0.9897211479427869,-0.1368139024149719,-0.04164139071643744,1
14,2.8400000000000003,-0.9971007156585191,-0.051333445755811405,0.056169744347864224,-0.987276574879605,-0.1540541881891845,-0.03939888063596648,1
15,3.04,-0.9985844621547237,-0.0396605511665971,0.03544167919728514,-0.9883715137715195,-0.14648984347330787,-0.040773478195525285,1
16,3.24,-0.9990255880529894,-0.025369179052715022,0.03611480540678713,-0.9890198297684272,-0.14047434251532917,-0.04589918757142993,1
17,3.4400000000000004,-0.9991229275152499,-0.021724804361421164,0.035796767854306674,-0.9887618271867871,-0.14038382562784069,-0.051404577620465186,1
18,3.64,-0.999223755698893,-0.023157288858793312,0.03186888795847891,-0.9879471175328234,-0.1439905154866111,-0.05680866490673802,1
19,3.8400000000000003,-0.9989411268766615,-0.03355062908361075,0.031479839937330244,-0.9859790547183434,-0.1572790833549908,-0.055754762986994826,1
20,4.04,-0.9981510837535889,-0.05472650785733965,0.02644661300199028,-0.9823283420723057,-0.1785951200333502,-0.05598938704565795,1
21,4.24,-0.9594067581461373,-0.282008170911334,0.003172374940460248,-0.9566220442099514,-0.29085775503900774,-0.01661417663449123,1
22,4.44,-0.9332875810921827,-0.35911340802821484,0.0034425504300684656,-0.8888645400966306,-0.4580769898990187,0.009235836933380601,0
23,4.640000000000001,-0.910836563636763,-0.41275377085509013,-0.00332851127035866,-0.858917393597527,-0.5121041680003406,0.003198764184851472,0
24,4.840000000000001,-0.8987246381743357,-0.4383406339251945,-0.012309077482427518,-0.8314592507712596,-0.5555602870193983,-0.00531806297628437,0
25,5.04,-0.296225451044874,-0.952703198560253,0.06787560391130566,-0.6351729198442995,-0.7717627319969089,0.03062102867530916,0
26,5.24,-0.05939355776115812,-0.9979538259888062,-0.023676285409154115,-0.27160921999928767,-0.9623129956103385,0.013495558189104724,1
27,5.44,-0.035421610386754065,-0.9980799343465407,-0.05081096508052419,-0.20278428780383584,-0.9785301961544138,-0.036840030318875554,1
28,5.640000000000001,-0.5041140517262809,-0.8626500630758699,0.04127822098044263,-0.23798604571023396,-0.9709657480087731,-0.02425197396028528,1
29,5.840000000000001,-0.39775284347122736,-0.9170761161256311,0.027641865756165306,-0.3286611671712881,-0.9444422677631608,0.003261909867710462,1
30,6.04,-0.23321510998316652,-0.9722908499978946,-0.016162162166958694,-0.3594158718018883,-0.9331481161462828,-0.007404352067013791,1
31,6.24,-0.16896791167765773,-0.9856108815368608,0.004586395035672457,-0.32110551210907756,-0.9468264218927056,-0.020272565181145535,1
32,6.44,-0.11559606331167727,-0.992872857052021,0.02900068751253939,-0.26115235072732373,-0.9651592424337133,-0.016342779885131047,1
33,6.640000000000001,-0.18496330437432074,-0.9821144482802046,0.03521060229820464,-0.3266597799063022,-0.9449951156165157,-0.016661922232869185,1
34,6.840000000000001,-0.19110619746911772,-0.9804640087285217,0.04656982796717089,-0.3448975244486094,-0.9385413929362381,-0.013629063596844968,1
35,7.04,-0.23602861750699905,-0.9702589912317926,0.05373994465571055,-0.40112084380676005,-0.9159645190337978,-0.010538905775108914,0
36,7.24,-0.8667198919502814,-0.4987538257988679,0.006422627864453889,-0.6206289828864635,-0.7837626325058291,-0.023147386220622738,0
37,7.44,-0.7184548300591238,-0.6887085845474911,0.09748406400693059,-0.8085335113774775,-0.5858559195899307,-0.055194224888507774,0
38,7.640000000000001,-0.9170743742592588,-0.3865089410206899,0.09790521226193341,-0.9917501083747062,-0.11857259218236275,-0.048705881799983274,0
39,7.840000000000001,-0.8054547306876376,0.5874052302490014,0.0787259314903483,-0.8715883549265047,0.4896132416599912,-0.024751023164803928,0
40,8.04,-0.43425776676420624,0.9005897328165313,0.018929478344980197,-0.588326119628063,0.8084073001115585,-0.01870866349388137,0
41,8.24,-0.4302467850301906,0.9007408370666095,0.05961248536782279,-0.45129579666885894,0.8923149945425909,-0.010298272839479832,0
42,8.44,-0.036712677515380376,0.9979103520705007,0.05317056084132948,-0.3375748749014311,0.9412969754965802,-0.0017910210142836533,0
43,8.639999999999999,0.04194925884917855,0.9956704785783905,0.08294912759929092,-0.17859500912790355,0.9831244656691781,-0.03962458475867461,0
44,8.84,0.14311595774224845,0.9875283776003324,0.06561650763012479,-0.08545380691019455,0.9935706888517254,-0.07426259582901393,0
45,9.04,0.21071126128705336,0.9745956402671604,0.07592168556521112,-0.005345135016976366,0.9963650722519681,-0.08501807059667021,0
46,9.24,0.5334105253933666,0.8456556686015416,-0.018430994592053513,0.31861455327264504,0.9322863648861398,-0.17125098624609425,0
47,9.44,0.8719932936731165,0.4666918756326587,-0.14773756803055016,0.6407787279894076,0.7357933781704513,-0.21911350117414524,0
48,9.64,0.924622317372187,0.37578191237425257,-0.06214116630412121,0.8140161425525393,0.5276277685514205,-0.2428716894109578,0
49,9.84,0.948800495092498,0.31587414299213995,-0.0010706545717941106,0.8438575204566221,0.4866208991852738,-0.22606323373100048,0
50,10.04,0.29014072627920307,0.9567211386378157,-0.02242814833501566,0.5808914726914749,0.8010061280412559,-0.14475593181173801,0
51,10.24,0.2119240437084805,0.9718355001169988,0.10307259776773542,0.29720251586361474,0.9519224423874922,-0.07425852303520279,0
52,10.44,-0.016566923222513685,0.9885863496223979,0.1497416655283429,-0.00925779933399895,0.9993098046471091,-0.03597509538066974,0
53,10.64,-0.05019243861174588,0.9903152843381964,0.12944634684827344,-0.3565952256524756,0.9340516837720592,0.019679864949776374,0
54,10.84,-0.8647987132540961,0.5018493627232697,0.016443925574745537,-0.7199992225560559,0.6939472417080977,0.006192353704254978,0
55,11.04,-0.9982661350108821,0.0484695304182102,0.03339802855669652,-0.9684736454281134,0.24819156997326577,0.021441611538935423,0
56,11.24,-0.9942179426728015,-0.06680481697440038,0.08407020219126093,-0.9989302517788328,-0.0027478428178266475,0.04616060485875453,0
57,11.44,-0.975002048591032,-0.2100214226861634,0.07253969434848045,-0.9759178016203107,-0.21228116732653063,0.05021105933024789,0
58,11.64,-0.9897831773603387,-0.1314265882398702,0.05528393725215408,-0.9685987782357997,-0.23756331814017084,0.07334900595337414,0
59,11.84,-0.9819396451852146,-0.17850788041906435,0.06268548350159137,-0.9772631624309941,0.18145424747130195,0.10968622260792905,0
60,12.04,-0.4695848404750477,0.8820530002598297,0.038374240431009655,-0.6644985297284189,0.7315633203552259,0.15250184359412422,0
61,12.24,-0.443822479206679,0.8960575496051152,-0.010122981108035459,-0.5322424783497116,0.8367426325842932,0.1287622268216245,0
62,12.44,-0.47757509116754365,0.8785695496320902,-0.006130151350390511,-0.5367780654653935,0.8353294151116019,0.1187184765929004,0
63,12.64,-0.9955803950386604,-0.03562414859729096,-0.0868941715616367,-0.8285004965069571,0.554389362872363,0.07898962983646007,0
64,12.84,-0.7702055108426197,-0.6164100326083151,-0.16377467071398935,-0.9933620863709665,-0.10168648448771724,-0.05377382479655141,0
65,13.04,-0.5771747332073278,-0.8165752209400362,-0.008616025405115843,-0.7190609731167745,-0.6906668159682608,-0.07701081911408302,0
66,13.24,-0.053350145696951234,-0.9984430891283184,-0.01628372580262262,-0.33512695726299097,-0.940806209732885,-0.0507306440299429,0
67,13.44,-0.051867865027305615,-0.9956506422360357,0.0773920098749156,-0.08150839158021894,-0.9965316497813581,-0.01676463796360563,0
68,13.64,0.23425409523691232,-0.967236719784961,0.0978680068478185,0.0836094082951846,-0.9963410595802866,0.01771891190116966,0
69,13.84,0.23467657079494142,-0.9663505290467999,0.10532598032250753,0.3129218923835133,-0.9496564969571683,0.015245558506050621,0
70,14.04,0.7533212097492654,-0.6518797433677699,0.08694800244211275,0.5753789477684794,-0.8172670804650424,0.03183685997367426,0
71,14.24,0.6685133661166843,-0.7332053988122537,0.12449788141130946,0.7059210174973922,-0.7073044529996643,0.03736211747602795,0
72,14.44,0.5333969920859077,-0.8364196146172737,0.1260550558970093,0.57403145547188,-0.8173316599169248,0.049566579731504745,0
73,14.64,-0.0339882934409132,-0.9970702020508739,0.06852596654702296,0.20427962042163816,-0.9784725879230495,0.029346743661983605,0
74,14.84,0.023786798722226443,-0.9971991493564083,0.07090870700699532,0.056069580342458736,-0.9982961331229432,0.016156508038541448,1
75,15.04,-0.10595844818644767,-0.992135641005171,0.06663090202885116,0.014285452390453257,-0.9998001927747406,0.013982144956742769,1
76,15.24,-0.09127098180962445,-0.9937974690479783,0.06353108210427474,0.011590684745605706,-0.9998548132592183,0.012490333442388455,1
77,15.44,-0.036564273596692176,-0.9973217947323972,0.06334265267650409,0.04683541600034835,-0.998810842572476,0.013540478859154154,1
78,15.64,-0.009433789169061457,-0.9987291469254596,0.049508531622918385,0.06384389543405539,-0.9979586244135201,-0.0015940434373601313,1
79,15.84,-0.016411347735966753,-0.9989719156137241,0.04225848412491915,0.048384363682864306,-0.9987402861216292,-0.013296399087375507,1
80,16.04,-0.05111793883202248,-0.998633623078272,0.010855560194203985,0.0017717537240360959,-0.999585493862672,-0.0287350195416617,1
81,16.24,-0.3981969525826352,-0.9163204858545103,-0.0423786993341826,-0.167346678909078,-0.9848650932490327,-0.04512025218985816,0
82,16.44,-0.40475155237205074,-0.9142078168160354,-0.020006212157070814,-0.2857868393106539,-0.9581319792683034,-0.017578190470873542,0
83,16.64,-0.39198993222671064,-0.9196121602622035,-0.02563918350459626,-0.2452584831939365,-0.9694069002288207,-0.00992664143400346,0
84,16.84,0.2043093938395471,-0.9788918954594987,-0.005322461143752452,-0.12628066902309282,-0.9919943883049196,-0.0005711415133713507,0
85,17.04,0.2962065206008965,-0.9551076389881149,0.00557629806045987,-0.010972047121561468,-0.9999344077777103,0.0032854716863543127,0
86,17.24,0.2557895975972028,-0.9665805814552226,0.01713654909088827,0.08729073087331324,-0.9961580543642632,-0.007032711341189903,0
87,17.44,-0.2909118148461624,-0.9565925233501144,-0.01735108796511165,0.096682101144269,-0.9951793669045369,-0.016449893793419424,0
88,17.64,-0.323673197183382,-0.9461226976774615,-0.00935426985983478,0.04338205592279265,-0.9989334611941629,-0.015809406394971366,0
89,17.84,-0.3560787148747288,-0.9344268894744269,0.007371366244379988,-0.03766006945525169,-0.9991411301387207,-0.01728355385173978,0
90,18.04,-0.4232701116133883,-0.9059906800378222,0.004827038366804285,-0.308890758073844,-0.9503774407834659,-0.0370029678057866,0
91,18.24,-0.9552736357305884,-0.29279154939369406,0.041537807858660764,-0.8799079599801828,-0.4712016716356548,-0.061081638904645505,0
92,18.44,-0.6525065377511279,0.7577123695421197,-0.010352933637498042,-0.8479547085993316,0.5293899487972734,0.02681593326071582,0
93,18.64,-0.26957485746634485,0.9628531999568509,-0.015592034981125531,-0.45669525017390344,0.8878444771369017,-0.056228399284501206,0
94,18.84,-0.15835174979262945,0.9865738362819044,0.039959841111027676,-0.2735266539246187,0.9606137279561399,-0.04903504109317003,1
95,19.04,-0.15161631752156496,0.9862851726505338,0.06522308234748248,-0.23145444073226862,0.971639433444055,-0.04843194443576297,1
96,19.240000000000002,-0.17806516187099236,0.98055110779647,0.08253679862323773,-0.23710837847376665,0.970618079889762,-0.0409897529713563,1
97,19.44,-0.1813390556291528,0.9802866866533751,0.07844844723558468,-0.24046431344761765,0.9695447750188104,-0.04647411313720985,1
98,19.64,-0.22276666545758328,0.9706612391273942,0.09050840633101967,-0.28654795375760805,0.9574585952431428,-0.03410730995483971,1
99,19.84,-0.21791798291026765,0.9726982554604385,0.07981138107149793,-0.2926593712274278,0.9552001035619956,-0.0440823614149636,1
100,20.04,-0.5413240367515515,0.8395882444070589,0.045385758652665975,-0.3405273083340245,0.9396811583950743,-0.03225636117227231,1
101,20.240000000000002,-0.5805386901718836,0.8114951437438338,0.0667117747754346,-0.38907998411893807,0.9211170233725786,-0.012656824690567222,1
102,20.44,-0.4439914655471164,0.8849242502188973,0.14064369838654958,-0.43955303582489447,0.8982162625490572,-0.0008212122273458028,1
103,20.64,-0.43529448024187856,0.8955547365815877,0.09219777251775825,-0.44713165249439757,0.8944573119840263,-0.004404812815501423,1
104,20.84,-0.11934277499246432,0.991847043173034,0.04468495279182601,-0.39291021139856036,0.9194911549022526,-0.01255316036942352,1
105,21.04,-0.18659292723959603,0.9811180752049614,0.05089599208454976,-0.4470705474220044,0.8944755931008603,-0.006429539225585811,1
106,21.240000000000002,-0.2053483971568355,0.9774626481967246,0.04897761902507039,-0.46799235098185255,0.8836903908239059,-0.008628591308603613,1
107,21.44,-0.22136495810362827,0.9744309283257073,0.03849573023179609,-0.48486639017669114,0.8742356927541549,-0.024830166968592072,1
108,21.64,-0.22056287920686996,0.9742945295194169,0.04584960266473247,-0.4751072423135523,0.879415919842561,-0.030012467887103197,1
109,21.84,-0.19283610888781422,0.8615700760091209,-0.46958624259516496,-0.44125516505690265,0.8778694994040499,-0.18611561279669228,0
110,22.04,-0.12636320679224172,0.8525173769789948,-0.5071946982353382,-0.33641235629525346,0.815538947724559,-0.47087466620768037,0
111,22.240000000000002,-0.24157812356049702,0.8686426351572121,-0.432550554969155,-0.29667873995042837,0.8175443786665625,-0.4935614593666431,0
112,22.44,-0.3109054983392204,0.863435362156609,-0.39726206272425124,-0.34092149747917605,0.8187021249711547,-0.4620599129163579,0
113,22.64,-0.3623403192349285,0.8520775987908338,-0.37772113879895225,-0.39620482911855326,0.8168010303821218,-0.41935403914811914,0
114,22.84,-0.42095669377253125,0.8964726218182905,-0.13831955862545278,-0.46681836192197484,0.8178464875846212,-0.33646357859058484,0
115,23.04,-0.3280758865827406,0.9417385284068776,0.07412662650490502,-0.5030867997802335,0.8305109227404641,-0.23907170283340937,0
116,23.240000000000002,-0.35401910452912816,0.9276554744855867,0.11885198477650828,-0.5502735467979846,0.8203252063272671,-0.15577412993977194,0
117,23.44,-0.410607439803773,0.9060895880658112,0.10199602333679525,-0.623944849455577,0.7722397192992051,-0.11974406362965388,0
118,23.64,-0.9592173360649462,-0.26656137637809124,-0.09405920909664175,-0.8948203083014521,0.4413082289166315,-0.0674066980481936,0
119,23.84,-0.9730246231862267,-0.18144337610348046,0.14248292508743943,-0.9861557068952821,-0.1651259458999139,0.015177079710047623,0
120,24.04,-0.8902783379477845,-0.4447518051532477,0.09798118591779784,-0.7962013817943032,-0.6000146776536585,0.07775439684685852,0
121,24.240000000000002,-0.949543938079514,-0.3135198685179103,0.008461778829563692,-0.7511571410541926,-0.6572329356325344,0.061707517881801274,0
122,24.44,-0.8915427657705045,-0.45222641916474926,0.025352763393913257,-0.6705260471064893,-0.7413415298630919,0.028417534234990525,0
123,24.64,-0.787288709086895,-0.6151733885560378,-0.041691612547049284,-0.4800387364529408,-0.8770693100655231,-0.017670224838738785,0
124,24.84,0.2654806914458234,-0.963977184245755,0.016370422202049227,-0.07529721519583576,-0.9970757896628283,0.013046035872991817,0
125,25.04,0.6333501006765593,-0.7738280745376949,-0.007600067781038507,0.4485368826063592,-0.8924709401534484,0.04806543376886695,0
126,25.240000000000002,0.7046618982252417,-0.7095419466819592,-0.001354654337910196,0.5516192554171299,-0.8332926540297039,0.03659986056235423,0
127,25.44,0.6749029979625363,-0.7350049818646776,-0.06537292998853314,0.5033056168099188,-0.86406477916495,-0.008689850068554345,0
128,25.64,0.5016545269671651,-0.8616123161526491,-0.07724604991465638,0.2656385099913748,-0.9637530013208704,-0.02482608415712017,0
129,25.84,-0.1259430113334959,-0.985244972072233,-0.11589090949093513,-0.39253340086676225,-0.9179516285482135,-0.057291682203058775,0
130,26.04,-0.9933128093980732,0.09066697922417272,-0.07147839928307725,-0.9462391230394763,-0.31588087318970975,-0.06964765597196726,0
131,26.240000000000002,-0.8945039078389642,0.44678269250932673,-0.015747524724174466,-0.9172386848509577,0.392770601919345,-0.0663660250489717,0
132,26.44,-0.3510521551338764,0.9358462083518386,-0.030891077827560984,-0.6034605042098511,0.7960371651384813,-0.046478506614164736,0
133,26.64,-0.2833380977564674,0.9572496821396621,-0.05824575867187633,-0.3456303705871352,0.9366981157692308,-0.056002561032263656,0
134,26.84,-0.3311755294614851,0.9409784518766497,-0.06987361297177055,-0.30469103894649757,0.9501919344177974,-0.06556415600820681,0
135,27.04,-0.6360496588805093,0.7190706276012017,-0.2799611829507833,-0.3882373241981136,0.916638606015759,-0.09510754996831534,0
136,27.240000000000002,-0.6420307065446029,0.7038019854980537,-0.3040712697096445,-0.548300421126132,0.8303439156505986,-0.09947678088347052,0
137,27.44,-0.6337703224060489,0.7169438870709747,-0.2903904978281739,-0.6624018304269719,0.7413548122782934,-0.10778152605531789,0
138,27.64,-0.5228865608600303,0.8486595528636633,0.07979102584386907,-0.7016022758656346,0.7080227124558288,-0.08036221218242552,0
139,27.84,-0.47914719350091733,0.8747825196840028,0.0719271173862944,-0.6665071224757623,0.7432437364888184,-0.05793965705127802,0
140,28.04,-0.40755698904788223,0.9094740505166663,0.08218425709971876,-0.6102163985325539,0.7912404393601529,-0.039680147216351075,1
141,28.240000000000002,-0.34989942234990173,0.932764304846006,0.08672454003540464,-0.5585141655014482,0.8291179989811512,-0.02500541340815952,1
142,28.44,-0.3155221549442479,0.9456254525620041,0.07898273992615959,-0.5259984515495233,0.8501310861785274,-0.024551278590359077,1
143,28.64,-0.3040573045363053,0.9498471149425888,0.0730726610529353,-0.5183437973261915,0.8546612222595203,-0.029561849389494164,1
144,28.84,-0.5447279480905647,0.8239933071066999,-0.15590539571293538,-0.5349313052201299,0.8441743085824954,-0.03490322943159281,1
145,29.04,-0.7546619984551766,0.6410363679098859,-0.13984864355631194,-0.6178302657369912,0.7850309840250284,-0.0448566255981729,1
146,29.240000000000002,-0.7628901577320584,0.6367273865881182,-0.1121465220335454,-0.6931556797252674,0.7188840893912086,-0.05235331589093073,1
147,29.44,-0.7599271502909538,0.6403336536789277,-0.11172975528866565,-0.7213215559542259,0.6903199638624976,-0.05615657048516088,1
148,29.64,-0.74061327028041,0.6623177449425403,-0.11325717910483755,-0.7179340533559071,0.6935709585922678,-0.05941397503416603,1
149,29.84,-0.6237531987081003,0.7776315824984772,-0.0788737535706722,-0.7003598005800157,0.7114948407785608,-0.057194766167990095,1
150,30.04,-0.613935440677077,0.7844469561084767,-0.08789907697347603,-0.683786607195854,0.7268096018196484,-0.06468136147567691,1
151,30.240000000000002,-0.6347836841274932,0.7281044431513651,-0.25867662095513666,-0.6856477967089185,0.7220088214362309,-0.09268419841844831,1
152,30.44,-0.6263701897703142,0.7340649162651706,-0.26231485675750177,-0.6787036740917046,0.7254660416426177,-0.11428186731854294,1
153,30.64,-0.6091880098045768,0.7475574964368631,-0.26466537029122006,-0.6567686771472162,0.7425457210478593,-0.131456292629187,1
154,30.84,-0.52562907143008,0.8397010528795815,-0.13644127330274466,-0.6228706020053372,0.7708318789278932,-0.13360549234968824,1
155,31.04,-0.12465833275173205,0.9433348893603588,-0.30753794333551526,-0.46257262442683844,0.8666564401271231,-0.1869042051882458,1
