,timeStamp,x_gaze,y_gaze,z_gaze,x_head,y_head,z_head,fixations_head
0,0.04,-0.9780899385020143,0.05207833510602179,0.2015636852553337,-0.976096904989592,0.2171045136939498,-0.010023083530181163,0
1,0.24000000000000002,-0.9802944969642757,0.049672819258594916,0.19119443048494048,-0.9787768659442155,0.20147345984326367,-0.03747387985256155,0
2,0.44,-0.9859542312939347,0.01991012335165788,0.16582472910186893,-0.9835975011805814,0.15695559149643848,-0.08888699550170127,0
3,0.6400000000000001,-0.9831158164677846,-0.12602807971678934,-0.132665800166359,-0.9851275846346428,0.0887541012183799,-0.14712699109555835,1
4,0.8400000000000001,-0.967005524837068,-0.035290969948002904,0.2522991525445858,-0.9901749165908212,0.039088519055042424,-0.13425990552821107,1
5,1.04,-0.4875303980047138,0.03694457890911692,0.8723240275898592,-0.9927951905791753,-0.01347035886396862,-0.11906409616225752,1
6,1.2400000000000002,-0.9488001951189371,0.04016862952222521,0.31331241747586863,-0.9957394180750018,-0.033991786283973986,-0.08571796635992891,1
7,1.4400000000000002,-0.9735052537654104,0.04836667051903402,0.22349090825813744,-0.9987380800938123,0.015472254785454624,-0.04777924970507414,1
8,1.6400000000000001,-0.9850566318069842,0.09767583274762119,0.14185508038183942,-0.9914304019880211,0.09493091095492434,-0.08974341290111028,1
9,1.84,-0.9365292807357422,0.2894685392060368,-0.19778996722411582,-0.8594340652811682,0.25832242687217893,-0.4411831946132501,0
10,2.04,-0.17304005562388766,0.09864065779207874,-0.9799628359177851,-0.557836411402005,0.4115711292385612,-0.720713357508676,0
11,2.24,-0.07599166377255184,0.06225176327589571,-0.9951632956485691,-0.39350864680603226,0.4568055936339038,-0.7977967125237243,0
12,2.4400000000000004,-0.08633002262793898,0.10418249008670599,-0.9908042874111886,-0.29963541427158913,0.5364882945804974,-0.7889226377106966,0
13,2.64,0.1314033628807139,0.401350751400477,-0.9064495190433455,-0.1317659761338733,0.6331040548460856,-0.7627692857417192,0
14,2.8400000000000003,0.4384563753526634,0.6267622901416394,-0.644146752354626,0.1759149665067186,0.7197442985349554,-0.6715817666415349,0
15,3.04,0.7274644845948253,0.5966475986777471,-0.338831915033492,0.4630536799149497,0.7700906883824428,-0.43879564854710984,0
16,3.24,0.5945610346481776,0.8039688086490845,-0.011459964985148036,0.6156092731146673,0.7397770662197698,-0.2715789298721488,0
17,3.4400000000000004,0.7620400256825461,0.6354900049075887,0.12428778266707244,0.6664450249803471,0.7367336588044187,-0.11434397519589219,0
18,3.64,0.9327322568630143,0.3506363405125487,0.08405173239854247,0.7387558126550964,0.6738588789190945,-0.012412113849346927,0
19,3.8400000000000003,0.9775769853942153,0.1825020234845628,0.10505355325546241,0.8589336832084384,0.5057403807515202,0.08037160647451366,0
20,4.04,0.9315625431047291,-0.10761402609593143,0.34729015199350843,0.94559579324685,0.27631952249822794,0.17174433696693497,0
21,4.24,0.9183305471255848,-0.3472353760851674,0.18999105192354887,0.9664870385127696,0.06427905160838222,0.2485377394102223,0
22,4.44,0.8968844778083055,-0.396149264793474,0.1966316186937224,0.9648651393021254,-0.05644681944790254,0.2566106379979328,0
23,4.640000000000001,0.830899185333016,-0.5382973069116274,0.14086359779808388,0.9401290284383731,-0.235660946995938,0.2462139881251644,0
24,4.840000000000001,0.8844519136789342,-0.4635379979190381,0.05364081351808062,0.9183619166691613,-0.3139556118994592,0.24092169634256788,0
25,5.04,0.8397310134003967,-0.46485113794584326,0.2806514647814929,0.9047258049166527,-0.3398714529352669,0.25682409037624493,0
26,5.24,0.987342171377264,0.10387440896565095,0.11985634644050605,0.9528082214239493,-0.13639612659572484,0.2712058071587217,0
27,5.44,0.7205554922342815,0.6920675035150466,0.04292264192082916,0.9359253164042879,0.29952427225905004,0.18528090144755915,0
28,5.640000000000001,0.6640641173149738,0.7454596674485285,0.05752158118666532,0.7846759056436944,0.6081841485762952,0.11998235088034957,0
29,5.840000000000001,0.13635612474774744,0.9857976525742101,0.09803058412022997,0.5031623865546377,0.8526831063361722,0.14056718296080895,0
30,6.04,-0.2733003163632023,0.9590683676733799,0.07412693979986358,0.1692431763321387,0.9743057661685667,0.14861030003230236,0
31,6.24,-0.27103924374951605,0.961509020520687,0.04514567315967166,-0.06775698938671887,0.9864177581594009,0.14962953176772828,0
32,6.44,-0.4008235718674708,0.9144818403998205,0.05534824129419345,-0.23847098743896328,0.9594923151254032,0.15002028317924176,0
33,6.640000000000001,-0.49881694884366096,0.8651023530939438,0.052721629504614884,-0.36065916036557893,0.9211172157354441,0.14651977654971632,1
34,6.840000000000001,-0.5550999297871898,0.8297067607626146,0.05874316211327396,-0.43833951837311064,0.8837308753770909,0.1639457426640595,1
35,7.04,-0.4308622506089707,0.8919615942798055,0.13697530919841244,-0.4552814759178512,0.8693474884998912,0.1922335088505506,1
36,7.24,-0.12474780350700992,0.9688086313032659,0.2141210438804866,-0.4332792970465674,0.8821703642544146,0.1845115150392137,1
37,7.44,-0.00164047823914161,0.454779809060768,0.8906023995598702,-0.4027943028112457,0.8981230887576075,0.17644168176283456,1
38,7.640000000000001,0.0011273374074166065,0.4472107200353296,0.8944279182784112,-0.41111900062427753,0.8927064563638062,0.18454362652790643,1
39,7.840000000000001,-0.5705549442027948,0.8127974484334595,0.11758981021246467,-0.5169375967677493,0.8445430793540761,0.13972296934691536,1
40,8.04,-0.665385326597258,0.7224945480907715,0.18778710053721057,-0.7636909990267017,0.6296968789560957,0.14233024498872449,0
41,8.24,-0.9329095888375855,-0.3547884728452107,0.06168337370030119,-0.9796621839791031,0.15894762276109595,0.12246492763191631,0
42,8.44,-0.7935377258569865,-0.5985281654048209,0.10982674018135019,-0.9591181143128759,-0.27090658315157756,0.08186614686212199,0
43,8.639999999999999,-0.6321359154618438,-0.7744340957862882,0.02561280279257045,-0.8163674542930779,-0.5735166676003077,0.06799126087724841,0
44,8.84,-0.1648544281336961,-0.9859223188686366,0.027932036828753462,-0.6307218854498624,-0.7749614325512277,0.04030733522225816,0
45,9.04,0.07625460903704345,-0.9970793532582103,0.00424239399360261,-0.3613479390141212,-0.9316329813770251,0.03857013068168405,0
46,9.24,0.12063906912517686,-0.9883861060823921,0.09240736065864785,-0.12638872293906672,-0.9900374246917409,0.06206277808459337,0
47,9.44,0.02035996331368478,-0.9957395451481166,0.08993458801866705,-0.041189681176125315,-0.9977037457365756,0.053764727357403445,0
48,9.64,-0.05197792297766979,-0.9826345179553146,0.1781227095169337,-0.13791119983399486,-0.9891945679155071,0.04974542960716601,1
49,9.84,-0.015032644050830712,-0.9900822680810201,0.13968221806795683,-0.2591771159765955,-0.9606549563923646,0.09984626839716507,1
50,10.04,-0.02420820207886637,-0.9965327661208025,0.07960156405329354,-0.2793797922036055,-0.9561174626292873,0.08824017998397266,1
51,10.24,0.025100201393286004,-0.997372475805993,0.06795678328644393,-0.2040120323667518,-0.9754628355841845,0.0827728641744988,1
52,10.44,0.05066618188402805,-0.9965164696981804,0.06624095133352403,-0.14038484330499806,-0.9861376974780391,0.08845641515991272,1
53,10.64,-0.16625651503471167,-0.9787769742368135,0.11980987401855035,-0.14826938504222492,-0.9855569895191402,0.08181448447047977,1
54,10.84,-0.20623513418904982,-0.9732283912022163,0.10145722243374652,-0.209925762379013,-0.973612912770282,0.08949340968226575,1
55,11.04,-0.20713412340926607,-0.9506389724357855,0.23104328383597086,-0.2944607002680722,-0.9513986013741945,0.09018645852268183,1
56,11.24,-0.21196319992730794,-0.8988427637785836,-0.38360564109441025,-0.3389033018920033,-0.9329390583905666,0.12152886610192955,1
57,11.44,-0.2708163853776486,-0.8847470541896976,-0.37931666917450085,-0.3972919580446974,-0.9089801190230454,0.1261516678203684,1
58,11.64,-0.3089218600656288,-0.875541462208741,-0.37147601850855994,-0.4315568932857992,-0.8919310960154383,0.13497247059385303,1
59,11.84,-0.30387546747445365,-0.8771933797826924,-0.3717411394137051,-0.4210734851927156,-0.8969014982344402,0.13514741038020792,1
60,12.04,0.1176346021961816,-0.9845239396882378,0.12990270415544428,-0.3913330961150385,-0.9102048244239385,0.13559345662828062,1
61,12.24,0.1527432127726771,-0.9805331574502025,0.12338653934938439,-0.3524632089432596,-0.9265167506626929,0.13166775263087677,1
62,12.44,-0.1161810132584436,-0.989565835530543,0.08521402061269186,-0.34174221764700863,-0.9309884440064891,0.12834630420888946,1
63,12.64,-0.12915418982751542,-0.9883034550077378,0.08108930921993633,-0.34954561482724544,-0.9281112888292375,0.12816902395967136,1
64,12.84,-0.14889009849358786,-0.9846526224169294,0.0910546634612045,-0.3710459120884337,-0.9201866392544532,0.12482579885607425,1
65,13.04,-0.1606999098706114,-0.983530225829125,0.08272746731339103,-0.3828182746837302,-0.9157618424065067,0.12178019773515136,1
66,13.24,-0.16612489150973964,-0.9832889269120476,0.07446748708685802,-0.38989714131117004,-0.9136709866196983,0.1148283388661747,1
67,13.44,-0.1706382367220836,-0.9827983321650169,0.0706401476643386,-0.3952093182722067,-0.9120875131428269,0.10911444963775836,1
68,13.64,-0.17661112556512726,-0.9819822792968889,0.06722583932912875,-0.39925661398052603,-0.9107698462327488,0.10532066931984711,1
69,13.84,-0.1804061051905369,-0.9812189305206029,0.06828651109835358,-0.4037972184365669,-0.9088571405524816,0.1045299213127922,1
70,14.04,-0.7491769183392921,-0.6471065637265555,0.14137552903402814,-0.409761096272299,-0.906273456498757,0.1037509808508773,1
71,14.24,-0.6913257571297358,-0.6730605458659278,0.2627892675275325,-0.4215382561068171,-0.9011023276121756,0.10158786251488525,1
72,14.44,-0.6949724950338846,-0.6769325206644374,0.2424367827151402,-0.4405611802296236,-0.8925194273046332,0.09651382470138985,1
73,14.64,-0.20596283051476366,-0.9778952111479682,0.036059235435843585,-0.470089044155025,-0.8781709843106791,0.08849866033013366,1
74,14.84,-0.18396186709749413,-0.9827915644623838,0.01669647494484634,-0.4691433279044367,-0.8793340880385093,0.08170740172244882,1
75,15.04,0.16101838480882796,-0.986675280039301,0.02334462492573206,-0.41338511457113775,-0.9077914298116414,0.07090463321633741,1
76,15.24,0.34213031334541366,-0.9395664888620348,0.01271462534396344,-0.23109205786463904,-0.9705022783381165,0.06871527146429462,0
77,15.44,0.44028473491395437,-0.897539333407225,0.02392691347965205,0.046219374864687524,-0.9980163770195901,0.04274436322848597,0
78,15.64,0.5950151496016578,-0.8024230853074535,-0.04554298969308456,0.2271337221708108,-0.9738614665672739,-0.0020288391438383502,0
79,15.84,0.5707825256028789,-0.8208551053275518,-0.020104838325457283,0.23900852023268765,-0.9703999009492054,-0.03462599448324492,0
80,16.04,-0.05121063482749144,-0.9586284315185719,0.2800160730472598,0.1213970050357176,-0.991539327100033,-0.04596226694117541,0
81,16.24,-0.006445823174945131,-0.999971159067887,-0.004016515408199765,-0.005836397214322553,-0.9981526762733772,-0.06047455097684985,0
82,16.44,-0.3132614877546976,-0.9120456894796201,0.2646505253940718,-0.13641123613414036,-0.987311299326645,-0.08129189921688251,0
83,16.64,-0.4521330684580269,-0.8860229788673024,0.10265948239613036,-0.3655019606486578,-0.9271704010637865,-0.082239675055318,0
84,16.84,-0.5725421065585987,-0.8022362559371892,0.16915237473155217,-0.5427054234874731,-0.836305708101511,-0.07786903051992379,0
85,17.04,-0.588761379377126,-0.8071598185022657,0.04304724787177197,-0.6277657094942078,-0.7751557136139765,-0.07101995237143607,0
86,17.24,-0.5204965103346555,-0.8525333617207965,0.04764713928961244,-0.5932611262151449,-0.8029263116711715,-0.05788414418532242,0
87,17.44,-0.14400799127913266,-0.9891687882460365,-0.028404344872174418,-0.48695219732009803,-0.872132128169708,-0.04757214036917625,0
88,17.64,-0.19661961787225385,-0.9804639302647854,0.005586351000367394,-0.4500872283587808,-0.8898073788893528,-0.07526164589198632,0
89,17.84,-0.6080900896587196,-0.790375299753402,0.07438634551159268,-0.6331438556647199,-0.7738488523738349,-0.01693551634025562,0
90,18.04,-0.7531255029305173,-0.6563796250985493,0.04435949268356567,-0.8819582649981239,-0.47130323696244264,0.004783056577402677,0
91,18.24,-0.8759719020566441,0.46389274662595403,0.13219964612317878,-0.9988924637851094,0.04688956364579293,0.003900591547630164,0
92,18.44,-0.681935373574683,0.7239563698551742,0.10416967319558888,-0.8930007279624513,0.44922069118785246,0.027394716045981034,0
93,18.64,-0.38751807953338685,0.9126960351656657,0.1296753077020827,-0.7387430242467427,0.6738812292377675,0.011951276407637431,0
94,18.84,-0.43225715218113053,0.9012761636348744,-0.02924091742510707,-0.5931872503795823,0.805059370722465,0.0028802081626206656,0
95,19.04,-0.1673177889750042,0.9849986121718934,0.04221956314269125,-0.46673493690713336,0.8840984028232525,-0.02298940616171115,0
96,19.240000000000002,-0.07548756625552949,0.9960375304661067,0.047019838832105525,-0.34645735294737,0.9378179001576445,-0.021561278547615553,1
97,19.44,-0.1439179702287619,0.9890953458834321,0.031273224921126906,-0.2409748661251857,0.9684176848631451,-0.06401797825810517,1
98,19.64,-0.1806253105056007,0.9829007910685322,0.035784523492834036,-0.2467167028819356,0.9631312241982787,-0.1072805364145412,1
99,19.84,-0.40462428764301206,0.79316482977136,-0.45515792716721376,-0.2636294370724567,0.963685951579258,-0.04253124307658285,1
100,20.04,-0.40385296730692805,0.807402908334804,-0.43012012788276915,-0.25770194064564694,0.9661203768871373,-0.01418193043712342,1
101,20.240000000000002,-0.4012190390813877,0.8189118115095287,-0.4103738876302804,-0.23830304687082365,0.9711901447155535,0.0011664730877493773,1
102,20.44,-0.381397412485101,0.868478850056399,0.31667096607422757,-0.2376546605154401,0.9711231090323637,0.020980215408976585,1
103,20.64,-0.4586964736027897,0.8879487163857244,0.03383226527015392,-0.21761043980634237,0.9748450362577452,0.04819597255918552,1
104,20.84,-0.45661234247746013,0.8890245578161816,0.03377135320044819,-0.23440675385909016,0.9708583123172358,0.04987595763263758,1
105,21.04,-0.4250885882184902,0.9048743868841144,0.022406162712728998,-0.21803460489354365,0.9756611114152498,0.02337320561831747,1
106,21.240000000000002,-0.1396182035212154,0.9666835820425717,0.2145451221884376,-0.1757049027057585,0.9842078833072928,0.021508826117168086,0
107,21.44,-0.12027760159976586,0.981470980364981,0.14915767916809125,-0.12124567149717241,0.9925470000304722,0.012244993822375564,0
108,21.64,-0.18540822580004435,0.976272360283159,0.11187523565485596,-0.14598153321092622,0.9892186609709817,0.01165473072040677,0
109,21.84,-0.251377037992669,0.9656272334991871,0.06613343099173583,-0.19178949883492524,0.9812311663610416,-0.02005458297741684,0
110,22.04,-0.2926989041835072,0.9561376868847129,-0.011317031789500647,-0.2311894325202375,0.9697862509056122,-0.0778850039828435,0
111,22.240000000000002,-0.3055063977998391,0.9470402232119537,-0.09889720179064607,-0.24462722408295556,0.9590693538954637,-0.14263062664100465,0
112,22.44,-0.2564712086830033,0.8088503788584882,-0.5291347500752145,-0.2368752379290895,0.9462062946662817,-0.2204172624590525,1
113,22.64,-0.25841300717381344,0.7685913575008592,-0.5852264885481289,-0.23402942902019191,0.923795059197578,-0.30303946105190044,1
114,22.84,-0.28404114253097434,0.8112953556186833,-0.5109994865958802,-0.2357077681106669,0.911477577613217,-0.33712085898180555,1
115,23.04,-0.2907495956417665,0.8202581522759098,-0.49258627290969,-0.24603704758414158,0.9036013072343783,-0.35067142566853354,1
116,23.240000000000002,-0.3014753131707436,0.8288711001430609,-0.4712593074902967,-0.26468744129444033,0.896733145648139,-0.35469736948135905,1
117,23.44,-0.28628872755494056,0.8440280551596012,-0.4534924548197846,-0.25695526372308003,0.8989984137933275,-0.35464890306059577,1
118,23.64,-0.27454502787665375,0.8497306970277567,-0.4500919574897224,-0.2382045578324875,0.904289398977937,-0.3542869903396836,1
119,23.84,-0.2740804560841097,0.8716282734666737,-0.4063792028219855,-0.22985266164359597,0.9073246777844348,-0.352036479670398,1
120,24.04,-0.2993552103203095,0.8712428432061793,-0.38900175605785653,-0.24893330793227308,0.9025101445268855,-0.35143654793996076,1
121,24.240000000000002,-0.3213909291946122,0.8673615593405868,-0.37998920512257917,-0.26877938683366936,0.8983834122772089,-0.34736851578471445,1
122,24.44,-0.3196250764524331,0.8737080005117095,-0.3667071588401392,-0.2656929569349378,0.8996275653843698,-0.34652199964181346,1
123,24.64,-0.3082710071835545,0.8863244148454732,-0.3455401825820939,-0.253135283940476,0.9045051319075573,-0.3432098401521542,1
124,24.84,-0.29556735934145406,0.8951662897796023,-0.3336423979864385,-0.24066342440187155,0.907169543465026,-0.345144224295614,1
125,25.04,-0.30036112421648364,0.9017252737503525,-0.3109255951819698,-0.24773086797466465,0.9092991586976042,-0.33437173481672794,1
126,25.240000000000002,-0.3235876607749451,0.9024269391360156,-0.28445851246851656,-0.263908319728177,0.909086181156508,-0.32235805249524524,1
127,25.44,-0.33449892023584105,0.9086676814396966,-0.24986699875746402,-0.26747911816251707,0.9147899870396758,-0.302678378743762,1
128,25.64,-0.20612836417624858,0.6602157519692388,0.7222369821144006,-0.30207080414316145,0.9006366919112634,-0.31242083552068034,1
129,25.84,-0.2397708819551037,0.6442507182430582,0.7262581746250957,-0.3501566948144043,0.8857864651783679,-0.30458599308481704,1
130,26.04,-0.28528944550094176,0.6258131385829419,0.7259255112356453,-0.41041366771528076,0.8595122913800403,-0.30462968062735424,1
131,26.240000000000002,-0.353506770883701,0.6112041832679613,0.7081401056959866,-0.4786983718482055,0.8132506181495199,-0.33086447507899847,1
132,26.44,-0.48442574118114173,0.8303800977872441,-0.2753190775808102,-0.5094714348647742,0.7869513236650255,-0.34806101654550864,1
133,26.64,-0.4438203768394049,0.844245083556167,-0.300455840338259,-0.4748620730604992,0.795060751830483,-0.37733859127769126,1
134,26.84,-0.40084768629550555,0.8448250766175568,-0.3543892243137191,-0.4333520546807859,0.8057935121176906,-0.40361220562933736,1
135,27.04,-0.3942526838653546,0.8359297055599286,-0.3818197855369152,-0.41769120880470395,0.8047398516028945,-0.4218149183343533,1
136,27.240000000000002,-0.4858606178164283,0.8274924655180393,-0.28141726948770485,-0.4121817751984097,0.8091433115436931,-0.4187998156379657,1
137,27.44,-0.4930386923240345,0.8208066192227268,-0.28842562596198695,-0.4105215821831327,0.8087945607542567,-0.42109783786691,1
138,27.64,-0.5170143019045566,0.8015533984403411,-0.3003470676981615,-0.44117081683699955,0.7935217158587299,-0.4191558145033799,1
139,27.84,-0.5466861162778294,0.7898446228967616,-0.2779923775036576,-0.4784931158050913,0.7736038521043034,-0.41542919750123264,1
140,28.04,-0.7256967434034647,0.5440853318475983,-0.42111208517673204,-0.515583721942929,0.752064735652284,-0.41057527818383843,0
141,28.240000000000002,-0.7323191950427366,0.6536246478980053,-0.19100632511036653,-0.5105126865406929,0.7563427035575805,-0.4090507445980443,0
142,28.44,-0.7259167612876276,0.6579159860670715,-0.20047795629214438,-0.4927153253889371,0.7784769165601301,-0.38885125499335355,0
143,28.64,-0.423915559002383,0.9050401193219058,-0.03461186579033119,-0.4683751031997401,0.8107356955240178,-0.35118712206716807,0
144,28.84,-0.3903787185382509,0.912957264982729,-0.11880020382006172,-0.4234151486878418,0.8612345086324645,-0.2810600167264115,0
145,29.04,-0.1263142319675255,0.9914822432147006,0.031743915832801596,-0.3532739569586332,0.905545453660159,-0.23491475622064925,0
146,29.240000000000002,-0.010404119847854554,0.9999440501630631,0.001910715489294552,-0.24090902244427514,0.9510741931088861,-0.19344436437184018,0
147,29.44,0.10220007490685878,0.9939404961962519,0.04046522840885604,-0.14774371001606462,0.9750239457891504,-0.1658315449136408,0
148,29.64,0.2552874823055816,0.9558818905926972,0.14532072328132767,-0.06602080995880522,0.9846495022290302,-0.16157540163188988,0
149,29.84,0.3936308762202385,0.9164583992294943,0.07182433966142952,-0.008455692295382455,0.990237320429987,-0.1391350081591445,0
150,30.04,0.46976720335397887,0.8761852760994339,0.10778746030749717,0.08726662892531456,0.9887314825979477,-0.12163301688142089,0
151,30.240000000000002,0.5756212969594656,0.8121365478274034,0.09536430238663962,0.20130477887577292,0.9723132071299998,-0.11867355746901147,0
152,30.44,0.7562992071633751,0.6492357728693746,0.0806499874194449,0.4374007274786199,0.8918684859845992,-0.11511388842669214,0
153,30.64,0.8318297634475749,0.5469226678872281,0.09452428256204165,0.6712552470750359,0.7276718442231231,-0.14110308430063334,0
154,30.84,0.9224831472562723,0.3314270546224148,0.1979417856150483,0.8316747538911011,0.5324758394237576,-0.1574375564156826,0
155,31.04,0.9995660476511763,0.004432776812231323,-0.029121587744138016,0.9205660214360272,0.35690108158923706,-0.1586814990409309,1
