,timeStamp,x_gaze,y_gaze,z_gaze,x_head,y_head,z_head,fixations_head
0,0.033366700033366704,-0.9995911551706913,0.010512883417969634,0.026589505199663067,-0.9691821549772094,-0.007118813227658379,0.24624230540661082,0
1,0.2333667000333667,-0.9994173373541663,0.016298762431678743,0.029988933610660858,-0.9691952974474761,0.004410196578146944,0.24625398590041286,0
2,0.43336670003336675,-0.8897856125703909,-0.4480697730014907,-0.08668934297321168,-0.9709084864326428,-0.01121754952085344,0.23918795445386035,0
3,0.6333667000333668,-0.8292538202507234,-0.5453512452970786,-0.12218887368540166,-0.9693580342285302,-0.09115071637233382,0.22811520857104223,0
4,0.8333667000333668,-0.7506856372914852,-0.6379967725369906,-0.1715552161744444,-0.9574401175682097,-0.2117865536840943,0.1960991508130193,0
5,1.0333667000333666,-0.7523158992985877,-0.6385769592475533,-0.16198844026876108,-0.9347959495635902,-0.3215596150965871,0.15085074285014546,0
6,1.2333667000333668,-0.6859797868971412,-0.700008900591002,-0.19854286958218761,-0.9036606436151804,-0.4172312302303279,0.09651705394118422,0
7,1.4333667000333667,-0.6510364698792012,-0.7288647081967591,-0.2119144922662934,-0.8736005613016044,-0.4840534493964046,0.05014296980599307,1
8,1.6333667000333667,-0.6355965327919615,-0.7405912319710104,-0.21804053437491472,-0.8517485687383753,-0.5238244857566375,0.01150146833770262,1
9,1.8333667000333667,-0.7045802175125162,-0.6962415317124497,-0.13716576325277852,-0.8329121964644095,-0.5533768189449683,-0.005600824509006534,1
10,2.033366700033367,-0.6894484728405561,-0.7026646124125501,-0.17585006613858897,-0.821412409361013,-0.5701374119092101,-0.01499950963210354,1
11,2.233366700033367,-0.7088303643425458,-0.6892868703371031,-0.14981029659838263,-0.8313628055045506,-0.5553735287879668,0.019902993372961406,1
12,2.433366700033367,-0.7375609604390188,-0.6700565298263398,-0.08383362376371269,-0.8450399094802996,-0.5293077248332494,0.07576862026839702,1
13,2.633366700033367,-0.5852552382902472,-0.5419026580745089,0.603173122101448,-0.823427281337428,-0.5025478161691789,0.2634638586463838,0
14,2.833366700033367,-0.5041363065662203,-0.4292745025055127,0.7493797341137636,-0.7731172471739056,-0.4424769992485411,0.45442692180178845,0
15,3.033366700033367,-0.4716141570654944,-0.3664607879957842,0.8020514807148681,-0.734562934662716,-0.3805796327084256,0.5617619052474265,0
16,3.233366700033367,-0.42787967751748235,-0.3306046336609553,0.8412012587778509,-0.6998961716081008,-0.3323756960462741,0.6321959709188911,0
17,3.433366700033367,-0.41982677082683295,-0.31866105447349397,0.8498238728459887,-0.6824038142081635,-0.3028937242352343,0.6652671840494317,0
18,3.633366700033367,-0.40733890588182736,-0.2859852968407089,0.8673450442274562,-0.6623171600819994,-0.26249101485436516,0.7017367359499151,0
19,3.833366700033367,-0.4120699357750729,-0.25445403911462683,0.8749008572453109,-0.6555996495423695,-0.22314541206874947,0.721384241990765,0
20,4.033366700033366,-0.41947411917450256,-0.2279371649804777,0.8786843074525904,-0.6517294927635091,-0.1942528823285792,0.7331537942132321,0
21,4.233366700033367,-0.43401080339883435,-0.06561086375691416,0.8985153516163038,-0.6313048296707794,-0.1663910407992288,0.7574749062352482,0
22,4.433366700033367,-0.5250563063627862,-0.027631136627265608,0.850618830873943,-0.6189218982566173,-0.1345631251542391,0.7738400669435196,0
23,4.633366700033367,-0.7350678153559782,0.03466723646634927,0.6771067046954831,-0.647870603531979,-0.08925355437177043,0.7565034594178105,0
24,4.833366700033367,-0.7798883193197911,0.08072736985862883,0.6206909868398769,-0.7020164174521454,-0.03094183527000066,0.7114882658609204,0
25,5.033366700033366,-0.8118417965261974,0.14306998200435628,0.5660776251207864,-0.7370371525095685,0.034058257728432635,0.6749935339698381,0
26,5.233366700033367,-0.818741197464697,0.10608864634774129,0.5642765728702358,-0.7475083067616659,0.09822735335890052,0.6569495554259955,0
27,5.433366700033367,-0.6799940685598866,0.40503856679290856,0.611188862900592,-0.7354969071779218,0.16046857954197644,0.6582508142885144,0
28,5.633366700033367,-0.6588137991716727,0.44964343939610124,0.6031460481749272,-0.7203278546131799,0.2259586531897613,0.6557975822744719,0
29,5.833366700033367,-0.45712299390426436,0.5039828270837388,0.7328300474521255,-0.6972494483595317,0.2927975872337141,0.654303278054179,1
30,6.033366700033366,-0.4477052687935339,0.5177166851575609,0.7290606464512925,-0.6690101465247461,0.34802495831165536,0.6567374302102085,1
31,6.233366700033367,-0.45543618435164324,0.5246200101563216,0.7192716642040039,-0.658227916822024,0.3849493155967919,0.646954429568034,1
32,6.433366700033367,-0.5165601193356717,0.4708657061605324,0.7151581152960932,-0.6536884076636111,0.4123413015651263,0.6345597818249987,1
33,6.633366700033367,-0.5306751773026396,0.4676432393301813,0.7068901307159315,-0.6592915705536975,0.4260934806657544,0.6194989674979143,1
34,6.833366700033367,-0.5471122061278251,0.46608906464115074,0.695290743306627,-0.6704900922556598,0.43826601650348795,0.5986367303842633,1
35,7.033366700033366,-0.5564473625390944,0.45364080114488725,0.6961151889306182,-0.6783509945427917,0.4362609291517776,0.5911990611447497,1
36,7.233366700033367,-0.5835512350634929,0.27223414112403954,0.7650859614855894,-0.6858204938680179,0.4314795700773166,0.5860679404271509,1
37,7.433366700033367,-0.5723229061437667,0.2374006047606271,0.7849123797994536,-0.6887704770244132,0.41990676300022367,0.5909936889394305,1
38,7.633366700033367,-0.5736230850535173,0.22999038213669282,0.7861685445362866,-0.6922766102689114,0.4078390096419916,0.5953322073337085,1
39,7.833366700033367,-0.5773956470727504,0.22560293732191355,0.7846767368879781,-0.6972897999207899,0.3972843942322186,0.5966171678940898,1
40,8.033366700033367,-0.5838215494293914,0.20870347155622473,0.7845987887973349,-0.7081248929108732,0.3754679711618214,0.5979823899343443,1
41,8.233366700033368,-0.6491472278990675,0.40365441339334246,0.6447255160601545,-0.7178555085535916,0.36503209249014373,0.5928195680740739,1
42,8.433366700033368,-0.7197501535370077,0.4244438879975273,0.5493697319883913,-0.7423685157992967,0.3416431571364175,0.5763409927567279,1
43,8.633366700033367,-0.726604695220809,0.5910019969074856,0.35037445188603555,-0.7949303712426646,0.3004434062143577,0.5270858227445642,0
44,8.833366700033368,-0.7520322678217886,0.5572490225313078,0.35202413985793607,-0.820963119808619,0.2764761562681525,0.49958031479361525,1
45,9.033366700033367,-0.781313448351334,0.5154498450626207,0.3519385637441116,-0.8370731160871758,0.25170331121928485,0.4857510076627256,1
46,9.233366700033368,-0.8246741874812711,0.5085824378186108,0.24750027968587168,-0.8473425686288097,0.24069614142082082,0.47336660094968597,1
47,9.433366700033368,-0.8695757264704985,0.4444470618980204,0.2151856526432976,-0.8753236619396795,0.21424816553470294,0.4334814995054859,1
48,9.633366700033369,-0.895510094910589,0.3914451495224846,0.21173654580291043,-0.8857381753835469,0.18920266233119387,0.42387526140954945,1
49,9.833366700033368,-0.7843657528635674,0.5004615466465223,0.3664813856977461,-0.8869310652499971,0.1771194255200333,0.4265934769753969,1
50,10.033366700033367,-0.834156396482815,0.4373490700911024,0.3360191915609178,-0.8901235903847806,0.16524362698080675,0.4247052361141028,1
51,10.233366700033368,-0.8615944955773935,0.384590721767313,0.3312776809886745,-0.8934171789801681,0.15256313262379345,0.4225283835047448,1
52,10.433366700033368,-0.9280165849698236,0.24255847957262444,0.282755374853181,-0.893326704482725,0.1368972214681144,0.42804970483852056,1
53,10.633366700033369,-0.9477538098163767,0.23429885017190888,0.216487331700183,-0.8938163253639986,0.10965263835628002,0.4348202794423299,1
54,10.833366700033368,-0.9565429804477938,0.177392872741493,0.23142449147955754,-0.8999047985075941,0.07785956354878251,0.4290795287437978,1
55,11.033366700033367,-0.965676495156693,0.13851331828909344,0.2197338557401423,-0.9085219283175148,0.05201447266062981,0.41458702391664526,1
56,11.233366700033368,-0.9742541807167453,0.11952498375732151,0.1911611090513854,-0.9217537968857449,0.038408930616447526,0.38586874967482665,1
57,11.433366700033368,-0.9804302612325668,0.1204306004040021,0.1557336615692725,-0.935970150255865,0.029303156557601462,0.3508578100110851,1
58,11.633366700033369,-0.9934444825250963,0.02284812799252012,0.11200903172370293,-0.9503805221246733,0.020631666518099754,0.31040489284597184,1
59,11.833366700033368,-0.9967899621594623,0.002458535099327836,0.08002329000549174,-0.9656178825959205,0.004933157215033932,0.25991877340981506,0
60,12.033366700033367,-0.9987225376297126,-0.02381699579410679,0.044565048432725116,-0.9803816319851648,-0.01882016328389085,0.196208198401781,1
61,12.233366700033368,-0.9918743772617117,-0.10290717065472421,0.07480196494431803,-0.9876201130876279,-0.05130936473366511,0.1482358300661789,1
62,12.433366700033368,-0.9898779714325777,-0.12032633839228464,0.07525406275830131,-0.9891028902907097,-0.08116510690580521,0.12283199029378965,1
63,12.633366700033369,-0.9887703093717699,-0.12560919376805327,0.08096669528759341,-0.9884745354123715,-0.10008297027062837,0.11358473446332956,1
64,12.833366700033368,-0.9889430598980739,-0.12213529492179818,0.08411060583422478,-0.9884686158882561,-0.10746173950573126,0.10668537831567076,1
65,13.033366700033367,-0.9899204462798186,-0.10704244726612362,0.09273308212522662,-0.989059801159002,-0.10138206399792674,0.10715589965482943,1
66,13.233366700033368,-0.9932862714659304,-0.009321329126354545,0.11530609585199103,-0.9895973330027908,-0.10119588593799317,0.10225708377901349,1
67,13.433366700033368,-0.9958385644966105,-0.0016023316879623386,0.09112072209158681,-0.9932000958373567,-0.09594859341566642,0.0659350972564748,1
68,13.633366700033369,-0.9757077079925949,-0.1576043598086095,-0.1521687692437439,-0.9963866121759511,-0.0773157676143927,0.03515666586478405,1
69,13.833366700033368,-0.9744671753931304,-0.13678161976451975,-0.17805761027243056,-0.9975083911937811,-0.07051321108061677,-0.0022128174563609826,1
70,14.033366700033367,-0.9706445044533656,-0.13200138422443408,-0.20105939554597746,-0.9960267103421344,-0.07876580376950611,-0.041554066486561375,1
71,14.233366700033368,-0.9677482943803419,-0.12432817223454413,-0.21910213215018343,-0.9933503968755284,-0.08430715639758633,-0.07840467082631714,1
72,14.433366700033368,-0.967481544010673,-0.1130835333646811,-0.2262555556897632,-0.990543942838183,-0.08574311182690346,-0.10710189578539682,1
73,14.633366700033369,-0.9507175803553702,-0.19459927855045067,-0.24138600454639908,-0.9871063681504105,-0.08947801076890563,-0.13272039611810027,1
74,14.833366700033368,-0.9362849621735867,-0.2754498799161558,-0.21793997628195919,-0.9846456107375036,-0.10289426901326865,-0.1410169871313163,1
75,15.033366700033367,-0.931299823267078,-0.06775365006577191,-0.3578967477995217,-0.9825730408329207,-0.11464189773879403,-0.1463128658430134,1
76,15.233366700033368,-0.924997452508916,-0.02034602507258761,-0.37942819098712427,-0.9817159513912954,-0.11474390112402622,-0.1518803079359646,1
77,15.433366700033368,-0.9256618317945882,0.0014817391370454262,-0.37834901560307743,-0.9829967607071695,-0.10537664899775633,-0.1503766281215801,1
78,15.633366700033369,-0.925508265430268,0.010569918745294789,-0.3785798825056276,-0.9828699432915071,-0.10448070626561738,-0.15182376820638907,1
79,15.833366700033368,-0.9276972683933135,0.021111414707801826,-0.3727359472664528,-0.9838395189015119,-0.10073594077992072,-0.1480272653359043,1
80,16.033366700033366,-0.935131184789458,-0.033477627815366444,-0.3527164805762848,-0.9843162079506134,-0.10171343991282297,-0.14413874880414945,1
81,16.233366700033365,-0.9551690861845121,-0.1440190466231931,-0.2586706999395007,-0.9840348685642042,-0.1058372580471504,-0.14308686962433287,1
82,16.433366700033368,-0.9545360378195388,-0.1475709219284049,-0.2590053580622934,-0.9831184430431068,-0.10962966360231376,-0.1464904905000373,1
83,16.633366700033367,-0.955060430953026,-0.14731817355938978,-0.25720989282480144,-0.9829035608041703,-0.11054314662988421,-0.14724402497774272,1
84,16.833366700033366,-0.9554206963241134,-0.14904608283808832,-0.25486576511208464,-0.9824745888254782,-0.11288774944926175,-0.14832409897413323,1
85,17.033366700033366,-0.9557600510836528,-0.15512188854268302,-0.24991983604253015,-0.9817822045362443,-0.12001076723595931,-0.14731299536493356,1
86,17.233366700033365,-0.9820752733687368,-0.0494615006994557,-0.18188380187987885,-0.9809196702123351,-0.12460648221737845,-0.14923077825949407,1
87,17.433366700033368,-0.9952585720742708,0.09415978823484139,0.02437845344260313,-0.9820341152049854,-0.12094879414715558,-0.1448460761218974,1
88,17.633366700033367,-0.9920350062064216,0.11316242806572951,0.055324599730082004,-0.9883733695093007,-0.10448358362633615,-0.11045932824994759,1
89,17.833366700033366,-0.9738703008593104,0.17904633858784552,0.13971057849169086,-0.9974027271831485,-0.06718696783878958,-0.025955946529606852,1
90,18.033366700033366,-0.9339993416356263,0.2691820559950078,0.234917539903937,-0.992980496415908,0.021406499810541,0.11632495649463409,0
91,18.233366700033365,-0.9324580276822009,0.278697032840249,0.2298912579831197,-0.9646051870074216,0.11053279848285286,0.23941456442314973,0
92,18.433366700033368,-0.9399695072263798,0.2686606525366975,0.21042523437827731,-0.923499504483288,0.18707926492050156,0.3348880616802076,0
93,18.633366700033367,-0.9246283352334996,0.3050043485705788,0.22811135227419937,-0.8859287996421548,0.259162286029716,0.38466228235227645,0
94,18.833366700033366,-0.9115502358223564,0.33170784720419466,0.24299397456596672,-0.8536741397109553,0.31278708267913763,0.4164189045874782,0
95,19.033366700033366,-0.9458204915930662,0.2597473747174676,0.19482017095268642,-0.8503277344660575,0.3284685004101648,0.411158349345018,0
96,19.23336670003337,-0.9306808655668262,-0.3195324088943662,0.17813524674793385,-0.8936706079911898,0.16783537812990126,0.41615397422186257,0
97,19.433366700033368,-0.9186616431289394,-0.3307028591014252,0.2160935085230011,-0.9139089885123886,0.017577458033242937,0.4055383997667207,0
98,19.633366700033367,-0.9228582262885368,-0.31209986321628336,0.22566871637857486,-0.9099596432581928,-0.09827933152424775,0.4028828869989018,0
99,19.833366700033366,-0.8911315643499969,-0.42805899279172516,0.15049928142440253,-0.9153388997056624,-0.18915855890342995,0.35549084134363407,0
100,20.033366700033366,-0.9858167540596854,-0.08869013448820418,-0.14247591887645525,-0.942528045862331,-0.2329948187310178,0.23948757213566663,1
101,20.23336670003337,-0.9858035575153237,-0.060359248290818644,-0.1566783556714184,-0.9649387118738793,-0.19474089300056768,0.17598087089374226,1
102,20.433366700033368,-0.98724926637709,-0.04968267120789038,-0.1512300175876026,-0.9736593910252611,-0.16590377268201406,0.15640757167794778,1
103,20.633366700033367,-0.9894996692000043,-0.05228911669075307,-0.13474514064998014,-0.9755064208850677,-0.15224188952569853,0.15877540705553245,1
104,20.833366700033366,-0.9896315895246158,-0.06399919490261963,-0.1285823474151838,-0.975794996254218,-0.1517051004073477,0.15751091325882022,1
105,21.033366700033366,-0.9761783368131738,-0.11456610451142551,-0.1842565125951938,-0.9788059637544606,-0.16551946590390454,0.1205910101358624,1
106,21.23336670003337,-0.9470952202159726,-0.18022909357438913,-0.2655713043109375,-0.9820132711745,-0.1809315185316449,0.05397889253209135,1
107,21.433366700033368,-0.9405289461945665,-0.18325825472678203,-0.2860449500421791,-0.9820602521565934,-0.18856417476177192,-0.001101422053668071,1
108,21.633366700033367,-0.9423770958823265,-0.17434190397250546,-0.2855351286192901,-0.9832968764383746,-0.1793780043611445,-0.030834791031389353,1
109,21.833366700033366,-0.9453800543847419,-0.16099041391408925,-0.28344071584596403,-0.9849122513915619,-0.1655287571626897,-0.05047858566739266,1
110,22.033366700033366,-0.9519179368207745,-0.06796536515415595,-0.2987188489170749,-0.986741286767101,-0.1512100683246074,-0.058967348816723095,1
111,22.23336670003337,-0.9665868731438696,0.143704399381927,-0.21227072870331506,-0.9944616127783954,-0.08889009215497025,-0.05607719881443647,1
112,22.433366700033368,-0.953615828723989,0.22633351347812217,-0.19846912073093073,-0.9986695318031285,-0.020894368016734013,-0.0471443701124683,0
113,22.633366700033367,-0.9274643058723123,0.3474746445395945,-0.13809899613998866,-0.9971426719284455,0.06826148391643636,-0.032355241197172716,0
114,22.833366700033366,-0.9094645403431728,0.39771721957188005,-0.12122402036887951,-0.987397179833697,0.15802590746363077,-0.008638392602675684,0
115,23.033366700033366,-0.9987563061602044,0.04685502698925816,-0.0170425159838579,-0.9846872115705527,0.1635422409989695,0.060374090290824786,0
116,23.23336670003337,-0.909414975429306,-0.41208616480378263,-0.056119472932526476,-0.9954101742682839,0.016844700958374353,0.0942063745869018,0
117,23.433366700033368,-0.9039697612223343,-0.42757407722679547,-0.004367983435259462,-0.9884232524581994,-0.13464356176188602,0.06993271963843711,0
118,23.633366700033367,-0.7868715707061565,-0.5765542062022344,-0.22004176541042736,-0.9582402856951301,-0.2838489793970048,-0.03471760023668975,0
119,23.833366700033366,-0.6908530997391271,-0.44179157828863846,-0.5723130226843293,-0.8904243230894908,-0.37466942435527767,-0.2583937834080135,0
120,24.033366700033366,-0.5927485736190025,-0.3791550218528635,-0.7105565409426563,-0.8016071993347997,-0.36187611749712856,-0.47589029571932095,0
121,24.23336670003337,-0.4579713717440084,-0.2952350845228013,-0.838509670504596,-0.6898673406456939,-0.3078711192136913,-0.6552086890942059,0
122,24.433366700033368,-0.3915334511210246,-0.23815955346053777,-0.8888090817204433,-0.6126916600354674,-0.2642545173568106,-0.7448345318119339,1
123,24.633366700033367,-0.3510694961925656,-0.21965889015618456,-0.9102198530126947,-0.5649275199084538,-0.25329643805266994,-0.7853010962171856,1
124,24.833366700033366,-0.3265380365402643,-0.19761009522939804,-0.924296035345742,-0.5498948530060963,-0.24385272899484242,-0.7988438503231856,1
125,25.033366700033366,-0.3717032887787904,-0.1449200502715068,-0.9169704707024843,-0.5526296137550653,-0.22968112072460695,-0.8011536012423687,1
126,25.23336670003337,-0.41198181450326044,-0.1592226476616926,-0.8971728556918124,-0.5682788842512505,-0.21513542576932068,-0.7942139877219533,1
127,25.433366700033368,-0.5530330425131867,0.12321879465317036,-0.8239973194937152,-0.6000470609018461,-0.1998613151746996,-0.7745960104465396,1
128,25.633366700033367,-0.588019075856687,0.11625187277997208,-0.800449291650506,-0.6401805418055025,-0.17918541090410972,-0.747035114578116,1
129,25.833366700033366,-0.7538688871611685,0.057552453964265636,-0.6544993628820983,-0.6908518325923639,-0.16300304513134156,-0.7043818230772869,0
130,26.033366700033366,-0.8252226859771061,-0.018852530826273688,-0.5644927817343418,-0.760479256683042,-0.1468909797022466,-0.6325301101425309,0
131,26.23336670003337,-0.9497542500294444,-0.16241130795199654,-0.2675620144944527,-0.83513045175059,-0.14236026960496473,-0.5313103445227257,0
132,26.433366700033368,-0.959460280856723,-0.1828265860218538,-0.21450037040045522,-0.8818371849411915,-0.15058313910635715,-0.4468645180274114,0
133,26.633366700033367,-0.9385758584555084,-0.24543465657354555,-0.24256377981292132,-0.922809080445112,-0.15322369028543859,-0.3534768758820853,0
134,26.833366700033366,-0.9484160036655378,-0.23467602613286126,-0.21315310635686244,-0.9515445070456883,-0.14856221213609258,-0.2692439790160754,0
135,27.033366700033366,-0.9517509812726508,-0.23931221407528203,-0.1920930343373569,-0.9667012396312473,-0.15992240907729507,-0.19978372398752556,0
136,27.23336670003337,-0.8766519481816323,-0.4060526258099767,-0.2580748473256774,-0.9698880629216337,-0.20868610432954857,-0.12556773177005995,0
137,27.433366700033368,-0.8683479727651393,-0.4267531120800569,-0.2526926582326039,-0.9615233278000517,-0.25692769623406037,-0.09726792381958824,0
138,27.633366700033367,-0.9744919974319706,0.0044531987960878825,-0.22437806479585135,-0.9748521568603714,-0.20468333162610608,-0.08813629229278754,0
139,27.833366700033366,-0.9725182641773016,0.09677625896836037,-0.21176067043164024,-0.9936646989706497,-0.08853822701780593,-0.06922028876067797,0
140,28.033366700033366,-0.9832091931009217,0.07339732889200376,-0.1670703884994396,-0.9987560007463252,-0.022602058096732658,-0.04444769896179505,0
141,28.23336670003337,-0.9818431235628722,0.1628199376053305,-0.09733318360404773,-0.9971737781591831,0.06718684867012363,-0.03362117662304832,1
142,28.433366700033368,-0.9792886742672765,0.1796638923631377,-0.09335190535156071,-0.9931513982083905,0.11287631553428905,-0.03015356741950517,1
143,28.633366700033367,-0.9768785246209661,0.15486016763837498,-0.14739971714144756,-0.9936030880158616,0.11283155008956115,0.0046845266282540534,1
144,28.833366700033366,-0.9875211750066171,0.14231548691368145,-0.06744057456807385,-0.9924105000119753,0.11224707381667531,0.05021945724094403,1
145,29.033366700033366,-0.9884335457394875,0.14291521950834093,-0.050738207395883,-0.9911122071734133,0.10869612922711665,0.07669253081550542,1
146,29.23336670003337,-0.9912843184521228,0.1273786682198505,-0.033616586284864254,-0.9905791641819377,0.08680175242777427,0.10591683182611353,1
147,29.433366700033368,-0.8790579747826074,-0.4635702345356377,0.1111742534208097,-0.9883720193107777,0.005261608273903127,0.1519640316716677,0
148,29.633366700033367,-0.8096098766141847,-0.5716158448894617,0.13336856286273596,-0.9609595246653474,-0.16994945775825734,0.2183437055713398,0
149,29.833366700033366,-0.7118064086159313,-0.6812617697187091,0.17092114489735455,-0.8831683017349847,-0.3921784611588857,0.2573126608109117,0
150,30.033366700033366,-0.5746789666544712,-0.8023019199856406,0.16141782575757915,-0.7826453362136658,-0.5621330740974573,0.26734375756456513,1
151,30.23336670003337,-0.7166208472837905,-0.6721796264906847,0.1860889866948222,-0.7319082146462512,-0.6276138567168343,0.26535111115342563,1
152,30.433366700033368,-0.8403411010874419,-0.5077654330816664,0.18973955515530677,-0.7550545644785198,-0.6002530764957843,0.2637969840947754,1
153,30.633366700033367,-0.8516004620668467,-0.48767011326885845,0.19223556807176037,-0.7875518240564989,-0.5568602462114427,0.26394846204252237,1
154,30.833366700033366,-0.7283562714891026,-0.6604113920893483,0.18263059705619422,-0.7910219707746177,-0.5539100063997158,0.25974592694036047,1
155,31.033366700033366,-0.7416668817947997,-0.6464240770323284,0.17907023505228672,-0.7997555382249086,-0.5455115032080754,0.2506157994745207,1
156,31.23336670003337,-0.8989668607985872,-0.40633922319341215,0.16354515853582555,-0.8906683496683713,-0.3960861561137178,0.2232165939935465,0
157,31.433366700033368,-0.9504093517852406,-0.28111709117161093,0.13302347571151227,-0.946284696712389,-0.25895953078107686,0.19361103838776086,0
158,31.633366700033367,-0.989869798412249,-0.1118597403647964,-0.08743672384538356,-0.9388832909903915,-0.2886639549551122,0.18754009440310232,0
159,31.833366700033366,-0.970642595427674,-0.2262876514082387,-0.08152822064519918,-0.8861412571682065,-0.41964088287819307,0.19660926163729298,0
160,32.03336670003337,-0.6248234171139335,-0.7700906195274748,0.1286706459992245,-0.7512146683984708,-0.629185970297726,0.19950322494507391,0
161,32.23336670003337,-0.36831190148863635,-0.917005822681659,0.15312303677030034,-0.5790140960677184,-0.7912927387551857,0.19646495399485583,0
162,32.43336670003337,0.034091488094748656,-0.9979636233531957,0.05391082361870026,-0.3795450067407358,-0.9063031779062999,0.18590357063573784,0
163,32.63336670003337,0.2907915179029661,-0.9547461718708327,0.062450303551543275,-0.20946021734682324,-0.9632872955486291,0.16794047631119174,0
164,32.83336670003337,0.3977811903570112,-0.9126277867172675,0.0942371875095044,-0.04746615366052365,-0.9823533764462339,0.18091105008086017,0
165,33.03336670003337,0.43707491000519855,-0.8500690608210566,0.2938504974961838,0.11228769576505782,-0.9722077334216338,0.2054351392896145,0
166,33.23336670003337,0.3586539261913308,-0.8514086854051055,0.3827147915149005,0.23703527243835132,-0.9458243986574375,0.22187944141892377,0
167,33.43336670003337,0.41069072265118634,-0.829269003378126,0.3790066626914311,0.3669927454691063,-0.8996681768261755,0.23646034842931582,0
168,33.63336670003337,0.7918017354005392,-0.5855343713164773,0.17378006739471624,0.5390137818760374,-0.8137903197458295,0.21727737672310113,0
169,33.83336670003337,0.9489639558866573,-0.31363710161380787,-0.033153867334548476,0.7198720541615233,-0.6678518006043513,0.18909838197825637,0
170,34.03336670003337,0.988772044883471,-0.14466834320029778,-0.03742878214209313,0.8546723428081402,-0.49583291363549437,0.15389901947244822,0
171,34.23336670003337,0.9997621092730041,-0.01916112420065662,-0.010419989508674626,0.9499960291942451,-0.2855601574032667,0.1263445330000044,0
172,34.43336670003337,0.978690950791042,0.2050913523587434,-0.010077699508725831,0.9824471518621799,-0.1394358988588639,0.12391619711447004,0
173,34.63336670003337,0.948727856864005,0.31604340987921087,0.005658328565332171,0.9921038093842242,-0.01588293690371855,0.1244096608813937,0
174,34.83336670003337,0.8948499914238451,0.44636546110895775,-0.0011696058019544237,0.9850150456835769,0.1366865149054184,0.10517678650725125,1
175,35.03336670003337,0.8977059793282958,0.4371139684414108,0.05527525008199265,0.9667738988290028,0.2372950141573386,0.0950752586062106,1
176,35.23336670003337,0.8144058014321034,0.5776428891576504,0.05542457216195944,0.958087624981739,0.27453987568752797,0.081828842802079,1
177,35.43336670003337,0.8133861404049365,0.5787136660720823,0.0591056621532281,0.9599855995081032,0.2675701476443223,0.08266719317034597,1
178,35.63336670003337,0.6905716135047029,0.7219878138446851,0.04294698221392988,0.959886273291284,0.2697283168649943,0.07658314062604239,1
179,35.83336670003337,0.6716088002282581,0.7372690369558162,0.07332111975551928,0.9538210800091367,0.28927324403869104,0.08090944081833881,1
180,36.03336670003337,0.6675137937763902,0.7371345678145326,0.10515685451330874,0.9532745608948666,0.2853196477433756,0.09929909446865931,1
181,36.23336670003337,0.6749611446133481,0.7272759937444017,0.12448727720266017,0.9560845108864521,0.27079574570226816,0.11212525207359189,1
182,36.43336670003337,0.9612097635931712,0.040716590297280954,-0.2727965352560834,0.9708614562152036,0.21763485685307388,0.10031501342389544,1
183,36.63336670003337,0.9549175536920363,-0.017450557708393755,-0.29635779673644963,0.9874885195277304,0.13930583870448443,0.07389389084201244,1
184,36.83336670003337,0.9594543949237013,0.009681839585680667,-0.2816975790521306,0.9980452012115658,0.04160780626030552,0.04663225060803164,0
185,37.03336670003337,0.9407274378405316,-0.1173748143124742,-0.3182059720669947,0.9977783383698302,-0.06439260569439825,0.017087416768674524,0
186,37.23336670003337,0.9283619380178162,-0.157200542322763,-0.33679682530159594,0.9894160783842756,-0.1442761242159324,-0.015499155328907534,0
187,37.43336670003337,0.8001318702558353,-0.587090525717901,0.1229378087212305,0.9745598138129106,-0.22385148507920907,-0.011121237735878474,0
188,37.63336670003337,0.7568248887601992,-0.6341289168077904,0.1584190790949454,0.944969367401816,-0.326949594185798,0.011698612479835318,0
189,37.83336670003337,0.6855143082863948,-0.7047030048103308,0.18293115684846253,0.8812877391894027,-0.46846240657461286,0.06224864962995836,0
190,38.03336670003337,0.6623793726141289,-0.7286907271889482,0.17396376302021865,0.7711622334364039,-0.6286092075661842,0.1007932234051043,0
191,38.23336670003337,0.29780556691221727,-0.9365307054245662,0.1849921136509804,0.6225862536651215,-0.7712129590618987,0.132728778048392,0
192,38.433366700033375,0.32556372252802956,-0.9269330632271324,0.18655658356127966,0.4409432338475717,-0.8819032376511319,0.16678052627479298,0
193,38.63336670003337,-0.07689630526207036,-0.9848583643103387,0.15537361579433995,0.20010283810100304,-0.9600590656873076,0.19556442563906667,0
194,38.83336670003337,-0.24439251031943854,-0.9602248784193822,0.13505733509974982,-0.06631677886531706,-0.9778807202095257,0.1983718273430684,0
195,39.03336670003337,-0.3983720885763096,-0.9130741119990758,0.08715127675741692,-0.3022525523642619,-0.9327315446832732,0.1966094101055301,0
196,39.23336670003337,-0.7225490426247857,-0.6880298899459223,0.06736283502798884,-0.4822355107264631,-0.8544296268407653,0.19338801661720892,0
197,39.433366700033375,-0.7068837888204145,-0.7028455943117251,0.07951968095694259,-0.6235793138181512,-0.7570059560347263,0.1951687011434823,0
198,39.63336670003337,-0.8673485202332637,-0.47150847214875824,-0.1593308041186999,-0.7514067454495772,-0.631407792423739,0.19160402542602034,0
199,39.83336670003337,-0.9071159421256823,-0.3977423101685932,-0.1376289295285943,-0.8653141286683603,-0.4643773281176371,0.18864028164005922,0
200,40.03336670003337,-0.999001307107152,0.03929012591503283,0.021276146356487544,-0.9282861553577824,-0.3100779808151921,0.20527167263078697,0
201,40.23336670003337,-0.9395849179554785,0.28721149177146793,0.1862518213199668,-0.970540540550372,-0.12124294170671582,0.20820952964380426,0
202,40.433366700033375,-0.9504356207051614,0.2568334207265676,0.1752390507069825,-0.9750162864602177,0.07713145272849868,0.20831221792616558,0
203,40.63336670003337,-0.839640702560952,0.5186870997909282,0.16114336198995777,-0.9380639866504281,0.2587891175651978,0.23035657051478187,0
204,40.83336670003337,-0.6645098801846384,0.742921341776089,0.08058845494618316,-0.8675964455410813,0.4457749071099899,0.2203659226730883,0
205,41.03336670003337,-0.6105488751926418,0.7890715752710608,0.0677946907968978,-0.7601267796422959,0.6148813325263566,0.2100671934911413,0
206,41.23336670003337,-0.38857458786139454,0.9210563291098062,0.025788142141611937,-0.6517716418733169,0.7289473233237895,0.2093550254205602,0
207,41.433366700033375,-0.4313931789179995,0.9001030271689997,0.06094641633620421,-0.5505183778341072,0.8079181879069257,0.21023253153613758,0
208,41.63336670003337,-0.3153386486680765,0.9407170529103409,0.12495184280303345,-0.48425001179131133,0.8463317126046442,0.2218660819499121,0
209,41.83336670003337,-0.33915117381443183,0.9267597602940555,0.16153274590620356,-0.4905696255420118,0.837905677117695,0.23928125448832718,0
210,42.03336670003337,-0.57929103973805,0.8054388928757081,0.12526005397716708,-0.5542564237068681,0.7958252828110457,0.24384818231512764,0
211,42.23336670003337,-0.6584000551515286,0.7387049246059262,0.14430662403166736,-0.6253714533412431,0.7370544967185129,0.2562444423063283,0
212,42.433366700033375,-0.693490980521981,0.7049591476449055,0.14867030667362682,-0.674342654645568,0.6895651602869606,0.26412473160229905,0
213,42.63336670003337,-0.7981393646098025,0.59605840032953,0.08768088763728835,-0.7201855965132771,0.6374839884751967,0.2737642617519146,0
214,42.83336670003337,-0.8469768281673427,0.5016076215743847,0.17612508772482266,-0.7532854068503247,0.5900207344640541,0.2905798147305473,0
215,43.03336670003337,-0.8933887156262873,0.3328888436764826,0.3017310400793188,-0.7755947934659608,0.537864029029284,0.33038614169616637,0
216,43.23336670003337,-0.8924836276991259,0.3065720867940123,0.33088748826115005,-0.7897651430161959,0.4874975415359936,0.3723132630903308,0
217,43.433366700033375,-0.8153915119291879,0.279593365028479,0.506916395972635,-0.7912656218145114,0.4380660327076036,0.4266109078801382,0
218,43.63336670003337,-0.8091413231835038,0.24386088256276695,0.5346234086462707,-0.7917561382620941,0.3801089277702087,0.47816254616362197,0
219,43.83336670003337,-0.78279639388588,0.16303527459841122,0.6005408437033097,-0.7950541482206045,0.31697808908296143,0.5171206749285154,0
220,44.03336670003337,-0.7765067102104919,0.10471856211757322,0.6213464023764098,-0.8110829572964176,0.2557612906702948,0.5260518972287461,0
221,44.23336670003337,-0.7670941448477502,0.058352660490024216,0.6388752146969197,-0.8193502979142938,0.19474013702813447,0.5392043845686174,1
222,44.433366700033375,-0.7880408654860631,0.2681308915511178,0.554163711659271,-0.8331590534144995,0.10584573748348143,0.5428099774046466,1
223,44.63336670003337,-0.829936108500591,0.35575849968449713,0.4296998321027496,-0.8557066807456569,0.06093149549834878,0.5138612939145984,1
224,44.83336670003337,-0.8053168358609022,0.4175361630645658,0.42086618587420993,-0.8601174854334178,0.09487184448052158,0.5011958144044686,1
225,45.03336670003337,-0.9847302004472536,-0.05834494482644318,0.16401920540080375,-0.8609894507806237,0.11976258300300652,0.4943218479461822,1
226,45.23336670003337,-0.9954979804256185,-0.09444244520774776,0.008024681407798892,-0.8687245858387224,0.11439784861222656,0.4819032332245082,1
227,45.433366700033375,-0.9896364268788085,-0.14293242036305032,-0.01378643549670559,-0.8837885582067933,0.07103360862344198,0.46246298319831997,1
228,45.63336670003337,-0.9870748009227737,-0.16010102366931647,0.007141400654195841,-0.8979101477927798,0.009377873079664098,0.4400788815510807,0
229,45.83336670003337,-0.9853117200827851,-0.17067174476142458,0.0056541849629126225,-0.9100674847472705,-0.039883720047592185,0.4125366190787696,0
230,46.03336670003337,-0.9436889051569995,-0.3167895469945666,-0.09537102913652992,-0.9175259236040033,-0.08515863215469245,0.3884510096320547,0
231,46.23336670003337,-0.9172299541967909,-0.3983458781172027,-0.003126101595907403,-0.9114713440306368,-0.1548662309026761,0.38109898915765156,0
232,46.433366700033375,-0.8371788394382966,-0.534523263797917,0.11582949216658527,-0.8826707683368249,-0.24211339697825093,0.40283174865858284,0
233,46.63336670003337,-0.8077279067054803,-0.5751506640180172,0.12952738092317315,-0.8577138807315874,-0.3128181687804124,0.4080094264612399,0
234,46.83336670003337,-0.6372967384491313,-0.53687981897201,0.5528226905099695,-0.8010276460330557,-0.3746739268095821,0.46687702755632515,0
235,47.03336670003337,-0.4955237456639503,-0.5344712824470254,0.6846872758585492,-0.7082115717570863,-0.417372851609143,0.5694174851275734,0
236,47.23336670003337,-0.4403593999364585,-0.48672721567412214,0.7544403332336622,-0.6159979571306058,-0.41205226741875767,0.671386212046376,0
237,47.433366700033375,-0.516366685894345,-0.4370369511651443,0.7364537657007166,-0.6380307116187054,-0.38836240755981616,0.6648995799560045,0
238,47.63336670003337,-0.9505497879695336,-0.1557820528197229,0.26867648317325415,-0.8044257498046905,-0.35851513477722285,0.4736730002721619,0
239,47.83336670003337,-0.9978721011211302,-0.024996638507401726,0.06021991254918298,-0.9054935861578627,-0.24679481055639882,0.3452154210191151,0
240,48.03336670003337,-0.9963150841204641,0.08081749592268511,0.028719079142959444,-0.944650965539243,-0.15263310465173463,0.29040951890416594,0
241,48.23336670003337,-0.9938697922408787,0.10960617953151065,0.014467946626215603,-0.9595033461132921,-0.08852749116245344,0.2674251523433753,0
242,48.433366700033375,-0.9923934357987003,0.12179696834116353,0.017909971707200014,-0.9633292475890515,-0.047292685154289096,0.2641214922538667,1
243,48.63336670003337,-0.9827102438188173,0.18450086206427158,0.015492210658969868,-0.9655211254139937,0.015053168811374421,0.2598891272986064,1
244,48.83336670003337,-0.9667253987041828,0.2557176329935912,0.007106030987401437,-0.9644683326770964,0.08735226795411129,0.24933996179179668,1
245,49.03336670003337,-0.9612087266334107,0.2758202873084023,0.0009761930585067455,-0.9639000881710424,0.11323705173247631,0.24098545628065055,1
246,49.23336670003337,-0.9164177559168213,-0.056537011636067544,0.39620961996857257,-0.9611595577532996,0.10235959069291636,0.25631000513569596,1
247,49.433366700033375,-0.906829461340432,-0.06662527825896616,0.4161987510095836,-0.9556183975467406,0.08761183215154032,0.28127858990198734,1
248,49.63336670003337,-0.9438745289299243,-0.018780032409910503,0.32976989556355263,-0.9526538313652791,0.08134796447758849,0.2929730128534156,1
249,49.83336670003337,-0.9961614117690966,0.08388739733568197,0.025006924449964205,-0.9562211221378935,0.07491257734067892,0.2828944526383028,1
250,50.03336670003337,-0.9962625680838021,0.08551761026979118,-0.012150463728268189,-0.9617537865163317,0.07174155889622486,0.26435355652731124,1
251,50.23336670003337,-0.9951427633652438,0.09435208369331602,-0.028081396413221778,-0.9646012210522655,0.08161220212707473,0.2507666899898156,1
252,50.433366700033375,-0.9953308539348384,0.08745179421539272,-0.04084941730128134,-0.9684515137499308,0.07857198040346874,0.23649124594991777,1
253,50.63336670003337,-0.9771844455057381,0.2123738241471947,0.0028139436276768213,-0.9737853370541567,0.05894545424425364,0.21969877278278369,1
254,50.83336670003337,-0.9859578222451447,0.16580343465936162,-0.01990964110100252,-0.982321776769243,0.007215118093424305,0.18706113694676257,1
255,51.03336670003337,-0.9934939486868881,-0.07822471067382228,-0.08276876562165186,-0.9851391227828131,-0.040487280686302383,0.16691821010704083,0
256,51.23336670003337,-0.9753420891715654,-0.20822454205083968,-0.0731460810854848,-0.9826675589243118,-0.09592873256334616,0.15862580781992747,0
257,51.433366700033375,-0.9641145353997082,-0.2504544177279971,-0.08806672056761604,-0.9762831921655226,-0.15963481987327796,0.14624586482743213,1
258,51.63336670003337,-0.9504492930150846,-0.28768802007119676,-0.11782081528592761,-0.967516801970952,-0.21082682781579884,0.1395108833640925,1
259,51.83336670003337,-0.9400310080069726,-0.3156218868123981,-0.1293233488213832,-0.9579363078639616,-0.25084223329113525,0.13941378724314485,1
260,52.03336670003337,-0.9356061439346953,-0.3280843802067985,-0.13039088501874538,-0.9516541390828093,-0.27105889382134096,0.14450424093052916,1
261,52.23336670003337,-0.9317212360473344,-0.3366263906459574,-0.13630191274924444,-0.9476113090581694,-0.285387247452225,0.1434814480575986,1
262,52.433366700033375,-0.9242984314146514,-0.3516165817737381,-0.14845264937402547,-0.9438623365863751,-0.2994030023045774,0.13957697440736372,1
263,52.63336670003337,-0.9122269570398442,-0.37555266564133416,-0.16371369576035735,-0.936851742495612,-0.32455850954972226,0.13027120350176616,1
264,52.83336670003337,-0.9036746511085014,-0.3967716061484249,-0.16107270873219826,-0.9303114485832025,-0.34066700610279477,0.13589186726210686,1
265,53.03336670003337,-0.8911233786418423,-0.42384832163377933,-0.16202383863548017,-0.9218312353078053,-0.3628095434341466,0.13636865037094212,1
266,53.23336670003337,-0.8798209213943008,-0.449544489492282,-0.1543531607839866,-0.9123848055963119,-0.38291115288647104,0.14468246442514654,1
267,53.433366700033375,-0.8577747664706229,-0.49112386850258166,-0.15172275964181367,-0.8958545200843506,-0.41948177098074635,0.14655962151730073,1
268,53.63336670003337,-0.9938020799377438,-0.10417989665834464,-0.03878111710189648,-0.8960621662345002,-0.4188204878452018,0.14718013862013501,1
269,53.83336670003337,-0.9947727907271023,-0.09942838224548478,-0.023261376422271284,-0.91552758682791,-0.3742660485762168,0.14742510858130256,1
270,54.03336670003337,-0.9364312487614459,-0.33212013053158285,0.1131049744209484,-0.9191550270326014,-0.3640622894841204,0.15037514972986016,1
271,54.23336670003337,-0.6795732874642991,-0.7298912502565799,-0.07374896449341974,-0.9003660720036109,-0.4096810307196532,0.1466369307278072,1
272,54.433366700033375,-0.6332358754447024,-0.7714458511721736,-0.06231873521680312,-0.8667828838008913,-0.476228884833531,0.14796446059788165,1
273,54.63336670003337,-0.5792929113350742,-0.8114959608996009,-0.07677257531545724,-0.831914736876105,-0.5354535126860894,0.14562762897365664,0
274,54.83336670003337,-0.5176945339322101,-0.8515276747132997,-0.08302402504138563,-0.7846002650866685,-0.6040458439996821,0.1397535057615427,0
275,55.03336670003337,-0.4392436687912266,-0.893979581452164,-0.08868769572740656,-0.723882186168198,-0.6770867116774582,0.13246948863099395,0
276,55.23336670003337,-0.39383014587722387,-0.9140963971384212,-0.09656910964113868,-0.6637743108377027,-0.7366035205688981,0.12968777026936007,0
277,55.433366700033375,-0.3833401648493863,-0.9160574638597668,-0.11785177520961403,-0.5939593395156937,-0.7942694398876368,0.12786070492008583,0
278,55.63336670003337,-0.31614098046749456,-0.9375817941704092,-0.14489741098186598,-0.516944897655426,-0.8483260294202964,0.11450292832943511,0
279,55.83336670003337,-0.2492677393432014,-0.9546601870772795,-0.16275601780672616,-0.43011572853348895,-0.8973591063229143,0.09872737395194386,0
280,56.03336670003337,-0.2923424800794585,-0.9439463879083263,-0.15330065588840505,-0.34775859571048195,-0.9338933196405012,0.08310972650850648,1
281,56.23336670003337,0.07464292230103298,-0.9918946176725296,-0.1028275331933455,-0.2590796650440366,-0.9633088318567469,0.07009865638840494,1
