,timeStamp,x_gaze,y_gaze,z_gaze,x_head,y_head,z_head,fixations_head
0,0.03333333333333333,-0.9986485612103067,-0.05119042268444919,-0.00897729457977611,-0.9927086862552811,-0.006258662620660694,-0.12037563447606374,0
1,0.23333333333333334,-0.9981652343146385,-0.060535966106494976,-0.0012497252322915303,-0.9925465594810624,-0.020866795641488484,-0.12006624880440978,0
2,0.43333333333333335,-0.9689521078872358,-0.020314722593778332,0.24641250915247856,-0.9975778533534174,0.007257806475374672,-0.06917912072261272,0
3,0.6333333333333334,-0.9537285231658572,0.007199469833215124,0.3005828866286207,-0.9990384302618978,0.04322813328998284,-0.007317332308084661,0
4,0.8333333333333334,-0.9076944784842718,0.25752265741853714,0.3313198072033435,-0.9862676488973676,0.162575855181739,0.029072599649587357,0
5,1.0333333333333334,-0.8879134366223939,0.3291743431710941,0.3213315746441506,-0.9464258943091085,0.3227018702999927,0.011896616581667229,1
6,1.2333333333333336,-0.5836509522128045,0.71021291998349,0.3936358396660695,-0.9134830218123873,0.4029926732865165,0.056086309719013815,1
7,1.4333333333333336,-0.8850994558111209,0.3207489210743595,0.337222601485268,-0.9006920415150557,0.42615836211757296,0.08451565978390715,1
8,1.6333333333333335,-0.9242665243801919,0.17981618136024669,0.3367455015752687,-0.9224392684397172,0.3809588003269238,0.06305702572965631,1
9,1.8333333333333335,-0.882009044167738,0.3129835181470916,0.3522802341525604,-0.9277936617880564,0.3703922714616963,0.04481613980871934,1
10,2.033333333333333,-0.8461242701912435,0.3666374182592235,0.38684715706018463,-0.9000466377986485,0.4274168413386665,0.08503466074152005,1
11,2.2333333333333334,-0.8178614587465949,0.40239191450291195,0.41131907497656045,-0.8641020138570177,0.48706195081892184,0.1268793352469682,0
12,2.4333333333333336,-0.8289442261340136,0.3282775501408651,0.45286346731944827,-0.8314767060493168,0.5334929339331871,0.15502185891266593,0
13,2.6333333333333333,-0.7821789062716763,0.429662241486732,0.4512056258783146,-0.7356322408574657,0.6610854429595086,0.14768630037364322,0
14,2.8333333333333335,-0.200193567626049,0.9086470958908375,0.3664464362090342,-0.5904414438517798,0.7984465450473401,0.11773706334112337,0
15,3.033333333333333,-0.2544629083320141,0.8915312657949174,0.37472740811598765,-0.5708312712210667,0.8103293912514841,0.1323553454535945,0
16,3.2333333333333334,-0.4106864706508371,0.8168399996691557,0.40510373704133285,-0.6070728718691442,0.7743953950631269,0.17825347218377932,0
17,3.4333333333333336,-0.4745027667010099,0.7918146006511451,0.38454747767831554,-0.683145943412029,0.7121017962092375,0.16193409719779964,0
18,3.6333333333333333,-0.8335179079834798,0.1708700459626242,0.525405866415264,-0.8448749884430345,0.5132119612822128,0.15099581683029142,0
19,3.8333333333333335,-0.887213300058389,0.14539073783821818,0.43785167985330503,-0.9428169209637979,0.28788456120253325,0.1679843235708871,0
20,4.033333333333333,-0.8395058798790531,0.17181177635215686,0.5154712321315452,-0.9557144770653214,0.2186986673298359,0.19692823879757113,0
21,4.233333333333333,-0.8020179511689056,0.23925375197866625,0.5472886333251974,-0.9341899798599907,0.27411010073802605,0.22836973136249758,0
22,4.433333333333334,-0.7561876408713674,0.3209647288307399,0.5702296858635173,-0.8912100948661955,0.3748560353213902,0.2553967885305448,0
23,4.633333333333334,-0.7083541983948378,0.44161957146806086,0.5506418833622929,-0.7576721202976178,0.6017471062505738,0.2526526830310204,0
24,4.833333333333334,-0.13307224084140296,0.9163182720445411,0.3776937953352612,-0.5206143753757843,0.823480356713927,0.22547898850754505,0
25,5.033333333333333,-0.2539261168283331,0.9098127989078774,0.32827153110785945,-0.434622528621171,0.8756275135961415,0.21066493549800408,0
26,5.233333333333333,-0.30366120898373056,0.9525990070650356,-0.01857422669312687,-0.48848208183874764,0.8603461194702459,0.14556720247010452,0
27,5.433333333333334,-0.42734437193396424,0.9029726773580772,-0.044912489589775346,-0.625953621898857,0.772319701339113,0.10818660802135519,0
28,5.633333333333334,-0.9799012746270516,0.19671173675784687,0.03313585076607654,-0.8499087318557942,0.520928317716436,0.07930217724879918,0
29,5.833333333333334,-0.9763414590182153,0.21590061855417042,-0.012011590656912745,-0.9661277649101714,0.25772211774348747,-0.013283519695046061,0
30,6.033333333333333,-0.9797673328273847,-0.19700891877726567,0.035262720350619156,-0.9988160496161566,0.04263441722428237,-0.023426598069752957,0
31,6.233333333333333,-0.9566162893816074,-0.2865388519351274,0.0527329235057587,-0.9932590269540876,-0.11572072455741854,0.006724528394253323,0
32,6.433333333333334,-0.7670415365358173,-0.6321697585860124,0.10958411179580456,-0.9364156650907246,-0.3458035934121825,0.059544747509065486,0
33,6.633333333333334,-0.5741982304485067,-0.8014930030849761,0.1670489693342351,-0.8552027532035505,-0.5131652454302194,0.07273019864960051,0
34,6.833333333333334,-0.5317014955658654,-0.8332896305066492,0.15139983917796687,-0.8030994285775286,-0.5918287630226173,0.06906535367002668,1
35,7.033333333333333,-0.43584363907280643,-0.8883222163240743,0.14465117443304112,-0.7794971839763065,-0.6235997049578559,0.059224556980050906,1
36,7.233333333333333,-0.4009355364863222,-0.8238785434221593,0.4005931118616574,-0.762020984189335,-0.6443125625013334,0.06469421502795264,1
37,7.433333333333334,-0.362442040208878,-0.8223357485823192,0.4386338838858475,-0.7250460551450708,-0.6805755730090253,0.10547562439733643,1
38,7.633333333333334,-0.5779057291826215,-0.7145150695758712,0.3943262399674797,-0.7441379069553293,-0.656976239521367,0.1209999840351446,1
39,7.833333333333334,-0.5405696737360687,-0.7292127600877195,0.4195630803134737,-0.7909573837318169,-0.5961407428956318,0.13785003365964016,1
40,8.033333333333333,-0.6974264136308281,-0.5709842505396479,0.4330974292300961,-0.7842228632590391,-0.6053624572665769,0.13612786663268617,1
41,8.233333333333334,-0.7091210679956811,-0.5416361734299697,0.45141728650640356,-0.818068213100491,-0.5526159268991128,0.1593111297179332,1
42,8.433333333333334,-0.702935475543744,-0.5598280787682816,0.4387188615100856,-0.8654501892457083,-0.46701160408896086,0.18137290751604535,0
43,8.633333333333333,-0.7804464168164456,-0.4179438244631896,0.4650014516874691,-0.9441900262315316,-0.2468900489099036,0.218060767021867,0
44,8.833333333333334,-0.7344229995962277,0.3946885655889319,0.5521266103507703,-0.9367932966323327,0.20658114716633041,0.2823872323958178,0
45,9.033333333333333,-0.7121781391792245,0.40415973831331337,0.5739836269456923,-0.887836827454653,0.2961347231843526,0.352207316136085,1
46,9.233333333333334,-0.6726329058933062,0.4318367756474407,0.6009009678041374,-0.8526401841518338,0.35769198610959113,0.38086895310920715,1
47,9.433333333333334,-0.6726771412939763,0.4039619759685055,0.6199356301683139,-0.8439764958752802,0.3535000962405764,0.40341214206811704,1
48,9.633333333333335,-0.6989973787220515,0.3496886125286446,0.6237952699463926,-0.860539718232427,0.30196743506900403,0.41022806035460596,1
49,9.833333333333334,-0.6969919845024946,0.3911711546900254,0.6009886032844107,-0.8613155659392527,0.2943779815093412,0.4140979351231193,1
50,10.033333333333333,-0.6886829094503122,0.42176179821023274,0.5897735462035611,-0.8274519806604119,0.35323952399716524,0.43651467144578054,1
51,10.233333333333334,-0.6764283723046737,0.4477587852606297,0.5847706621943128,-0.8097594853915226,0.3920057518785594,0.43660172504535755,1
52,10.433333333333334,-0.6766965721201372,0.43979068709383795,0.590479382219554,-0.8029596922973938,0.3956111389676618,0.4458111251083625,1
53,10.633333333333335,-0.6905119592450171,0.41179325827441704,0.5946591852307903,-0.8125235700935046,0.3649716104686205,0.45453401588269216,1
54,10.833333333333334,-0.7183203621098238,0.34250637871814993,0.6055619191427011,-0.8392088505376064,0.2764592466512304,0.4682934871641754,1
55,11.033333333333333,-0.6532768307732254,-0.43070324364345813,0.6226749539606478,-0.895878643817056,0.02410963686261751,0.4436442053750568,0
56,11.233333333333334,-0.6900529275190151,-0.6027777749341322,0.4006069286319112,-0.907792409204411,-0.2658553796388567,0.32439768634799343,0
57,11.433333333333334,-0.74543458054853,-0.5424527048909144,0.38739172562016366,-0.8821632426368125,-0.39385364972647713,0.2582001470519287,0
58,11.633333333333335,-0.7888374777109189,-0.5862803537554212,0.18442011972421496,-0.865051741095306,-0.4405221743183713,0.2400535339498139,0
59,11.833333333333334,-0.838497551407905,-0.543916670200452,-0.0328102447567951,-0.8627543452017107,-0.45627825807677885,0.21786484581498683,0
60,12.033333333333333,-0.8475780546534778,-0.5298633589305423,-0.029261957088846945,-0.8641069407106732,-0.45310236373166435,0.21912882739708162,0
61,12.233333333333334,-0.7174581537056473,-0.6964787598779018,-0.013081846972971097,-0.8609462168133283,-0.47838746038326274,0.17296545754245332,0
62,12.433333333333334,-0.6602695984913393,-0.7494033249809572,-0.04938333540347195,-0.81800499315997,-0.5624419516946025,0.12052751610866294,0
63,12.633333333333335,-0.5169597007428035,-0.8559738923476312,-0.007833481164638166,-0.7817825271724806,-0.6205353268818079,0.06125347581564229,1
64,12.833333333333334,-0.4812742178082077,-0.8761437893319473,0.027334734097014653,-0.7347230240250684,-0.6731336488398979,0.08410213295121766,1
65,13.033333333333333,-0.4610632117847552,-0.8215830734915334,0.33529385334499046,-0.7016854580638929,-0.6978076141692001,0.14388207514889914,1
66,13.233333333333334,-0.4825437699514502,-0.8055461724287473,0.34387043223638347,-0.7103376658460261,-0.6871337506466096,0.1525372387410441,1
67,13.433333333333334,-0.5094136236850719,-0.7851339625283431,0.3522249577877556,-0.7345670610116979,-0.6583092103521523,0.16443909645264576,1
68,13.633333333333335,-0.7206992747151428,-0.6074550604200128,0.33405224890005714,-0.7486881801063887,-0.6409605553997546,0.16922049341206247,1
69,13.833333333333334,-0.735758871549443,-0.5886392721329782,0.33490698744434777,-0.7664825240998048,-0.6192040755535498,0.1705604088511349,1
70,14.033333333333333,-0.6212958969626773,-0.7408910659766539,0.2550918202791297,-0.7644193647591426,-0.6212593764415487,0.172336362862535,1
71,14.233333333333334,-0.630707169875323,-0.7386201399275284,0.2380099887847131,-0.7723089872050517,-0.6150654680460285,0.15884992382631863,1
72,14.433333333333334,-0.6556164259326028,-0.754960667469359,0.014194809670449261,-0.7746841546563786,-0.6137038804581625,0.15242049611166353,1
73,14.633333333333335,-0.6455474223516995,-0.7637188829847953,0.0014118312694970869,-0.7675814581437475,-0.6252480490247109,0.1410091568115753,1
74,14.833333333333334,-0.5885561930065539,-0.8072374738546574,0.04437644057812164,-0.7761538187048428,-0.6127707122926109,0.14865161911764052,1
75,15.033333333333333,-0.588111573171082,-0.8072465257366568,0.04977774792346987,-0.7754881952919758,-0.6113748320359181,0.15760353332285168,1
76,15.233333333333334,-0.4890301445507929,-0.8708271096209452,0.05009653550756523,-0.7686146381002051,-0.6189011208965012,0.16184233269186804,1
77,15.433333333333334,-0.48471124756376127,-0.8730995504380935,0.05246123816668452,-0.7608455972851763,-0.6260179687225245,0.1709253636190018,1
78,15.633333333333335,-0.47197517476032336,-0.8801082596665101,0.05146732630270885,-0.7439481045468739,-0.6437254868392014,0.1793285123307124,1
79,15.833333333333334,-0.46885664799328214,-0.8821023226556234,0.04548555812626936,-0.7336239130789584,-0.6553657828625351,0.1796987612970474,1
80,16.033333333333335,-0.47172720101331495,-0.8807363948051851,0.042152706789828055,-0.7271846405520137,-0.6614315826703445,0.18360490187204195,1
81,16.233333333333334,-0.47444407848668124,-0.8797250036059451,0.031412329099323046,-0.7228321490944178,-0.6675250286331846,0.17867294250616617,1
82,16.433333333333337,-0.6656041404680988,-0.7195084917474094,0.1981884418806795,-0.7213571031366836,-0.6674951195311438,0.1846461349618677,1
83,16.633333333333336,-0.6784443259819803,-0.7089955285130298,0.19245424674812012,-0.7214575538326775,-0.6683019656893651,0.181304938359384,1
84,16.833333333333336,-0.9058255356017122,-0.19913751237616265,0.3739309431118336,-0.7510960984316606,-0.6321406310974349,0.1904018735109348,1
85,17.033333333333335,-0.8978015037750574,-0.09858494716031999,0.4292242630754262,-0.8542492764271599,-0.46691359724784426,0.22858229684022313,0
86,17.233333333333334,-0.994520282755188,-0.1028760558287311,0.018599040987768718,-0.9206060933270246,-0.3180387730810251,0.22657396087430332,0
87,17.433333333333337,-0.9934941821350397,-0.11334830490470718,-0.011021426362236658,-0.9346791076266312,-0.2742606368792366,0.22617707404792353,0
88,17.633333333333336,-0.9896310668353862,-0.14129327152206467,-0.025817880951920558,-0.9348323120623043,-0.2829934063175211,0.21448375300953035,0
89,17.833333333333336,-0.9743268227271573,-0.18696126858942272,-0.1254301660759338,-0.9259286494037411,-0.31301636938457195,0.21136908172830168,0
90,18.033333333333335,-0.7985327369485157,-0.5998653034891959,-0.050070806777280416,-0.9128793318663418,-0.3869306077862614,0.13013850394643398,1
91,18.233333333333334,-0.6636356209811409,-0.7479047024165829,-0.015043891389467974,-0.8717334195131594,-0.47945207790190425,0.10102747299344124,1
92,18.433333333333337,-0.6528656806127053,-0.7574736976255336,2.1991148573799378e-05,-0.8578080972365192,-0.5023240634161301,0.10879247965080133,1
93,18.633333333333336,-0.6389715888764717,-0.7688580924532629,0.023927855687616812,-0.8508442338112756,-0.5106408021969331,0.12373383095086159,1
94,18.833333333333336,-0.5871706591453663,-0.7338816129867495,0.3415382777358396,-0.8441411229895255,-0.5111258941208955,0.16179024951182494,1
95,19.033333333333335,-0.6003397843090456,-0.7212000649364273,0.34563363509858536,-0.8508739453851245,-0.5006996641089021,0.1591017769416329,1
96,19.233333333333338,-0.5855335294777281,-0.727951239744899,0.3567036282563141,-0.8428888689276592,-0.5117873048757597,0.16616891768877068,1
97,19.433333333333337,-0.5757315492268564,-0.7355715513885953,0.3570261559222493,-0.834877820844826,-0.5249250312011148,0.16562830639689546,1
98,19.633333333333336,-0.5811061735321126,-0.7309336529810089,0.35784299633037997,-0.8350468529905207,-0.5234981171420028,0.1692526946887571,1
99,19.833333333333336,-0.5947385710436753,-0.7204772694942618,0.3566490379280734,-0.8408670823111969,-0.5139419601348509,0.169723927300197,1
100,20.033333333333335,-0.6681362976804723,-0.7015258271913638,0.2479019998009378,-0.8457490247747392,-0.5060986591522649,0.16903471328948147,1
101,20.233333333333338,-0.7085416744187664,-0.701635818385208,0.07533839639102044,-0.8475600729657117,-0.5019711649617334,0.17224073926141178,1
102,20.433333333333337,-0.7131293533628968,-0.7002733394531159,0.03261557026020228,-0.8469804324738931,-0.4998625712875046,0.1810015382039104,1
103,20.633333333333336,-0.645800828871961,-0.6865954324546508,0.33395808353848694,-0.8505974194790907,-0.4919272146862002,0.18571926509274425,1
104,20.833333333333336,-0.6460357491694068,-0.6821417382785238,0.3425207434499083,-0.8544863027183374,-0.4856386345607459,0.18441332676550323,1
105,21.033333333333335,-0.6410346450691004,-0.6828724130419572,0.3503710195312779,-0.8544819729926235,-0.48436269871026144,0.18775871199160388,1
106,21.233333333333338,-0.6301281680890807,-0.6939702611386677,0.34834432453512,-0.8488251905554672,-0.4963220386184192,0.1820995053813465,1
107,21.433333333333337,-0.8167499284409792,-0.47656086649183893,0.3252834070778939,-0.8430404070790101,-0.5060415757135786,0.18222183096812514,1
108,21.633333333333336,-0.8686585288949547,-0.22269213262029033,0.442538782760427,-0.8415299446863549,-0.5088087832554985,0.18149648558095988,1
109,21.833333333333336,-0.8664435933380539,-0.22134470869192072,0.4475287918084482,-0.8497517357491032,-0.4894992189834589,0.1957357969457047,1
110,22.033333333333335,-0.8651881081620634,-0.2247757720331879,0.44824701873167505,-0.8581047723703455,-0.46874576947011426,0.20960344281310908,1
111,22.233333333333338,-0.8636309658642933,-0.227923929857934,0.4496579110817729,-0.8657511560348429,-0.4468968631517202,0.22529564915791378,1
112,22.433333333333337,-0.8472640794004536,-0.31515124599158134,0.4275783810106121,-0.8736435505166716,-0.42024946416666153,0.2452291469386491,1
113,22.633333333333336,-0.8567803843849265,-0.2711991673085658,0.43860960384419123,-0.8951012930459145,-0.35382069393763277,0.2713016618618914,0
114,22.833333333333336,-0.8949689527169475,0.31347925514441616,0.31742925238048264,-0.9568290988026467,-0.08137570519607724,0.27902700637815736,0
115,23.033333333333335,-0.9326028434440056,0.16822926333436564,0.3192974339986662,-0.9591391439250984,0.1004192430843643,0.2645147977127057,0
116,23.233333333333338,-0.9260285870506088,0.13154229021751868,0.35379044906467366,-0.9442019107310562,0.17049555596423585,0.28180492750885056,0
117,23.433333333333337,-0.5055172924718637,0.6183952940141875,0.6016972057048489,-0.8794085215554909,0.3441390632084142,0.328951299419262,0
118,23.633333333333336,-0.5805032120400231,0.5336807068001892,0.6149804257051334,-0.8110646590290139,0.4542079920957832,0.36860442047059966,1
119,23.833333333333336,-0.5838953124182267,0.5427998448439284,0.6036841828087174,-0.7749889273816604,0.5129535920846475,0.369148716377669,1
120,24.033333333333335,-0.5835899998009741,0.548516925954725,0.5987920290664178,-0.7616297660240715,0.5389230608343368,0.3598361210427159,1
121,24.233333333333338,-0.5811048180154811,0.5452315152606673,0.6041852242861879,-0.7489377681300433,0.5531325644271207,0.3648788643353661,1
122,24.433333333333337,-0.5712805106246437,0.5496674169411028,0.609511533060485,-0.7292046567076554,0.5745496099934547,0.3716898092391556,1
123,24.633333333333336,-0.6442343949047755,0.482430001069802,0.5934840675953055,-0.7200416941335883,0.5837809965026564,0.3751529112663223,1
124,24.833333333333336,-0.6761035909168502,0.45788528248541077,0.5772564442538485,-0.7192369083487937,0.5867045140479098,0.37212374670890774,1
125,25.033333333333335,-0.7547342548018181,0.32603756277200324,0.5692764814134138,-0.7318840400359305,0.5673790279467829,0.3773947410694116,1
126,25.233333333333338,-0.7577197810057575,0.3104763369576816,0.5739905727988283,-0.7342220955499981,0.5617091432709125,0.38131450637502295,1
127,25.433333333333337,-0.7551553527942793,0.3129651474179844,0.5760149387366503,-0.7187041454554642,0.5766310987981748,0.3885369058454302,1
128,25.633333333333336,-0.7565512869695596,0.32904842770989184,0.5651170519514974,-0.699386362211979,0.6065476950203985,0.3780986776191317,0
129,25.833333333333336,-0.4929614269034221,0.7506634917380074,0.43987879439346067,-0.6625668870762083,0.6479448327530475,0.3757294423634757,0
130,26.033333333333335,-0.46600983619258907,0.7609020751656094,0.451511754642585,-0.6154214915713542,0.6938641857802311,0.37391025581498377,0
131,26.233333333333338,-0.447866124685678,0.775969321186638,0.4441706281781599,-0.5761052596415834,0.7300734240559437,0.3675534318987296,0
132,26.433333333333337,-0.4463958721308702,0.7721574121074238,0.45222080477581517,-0.4795661015545752,0.8021224989096345,0.35583121136672485,1
133,26.633333333333336,-0.47682144749144695,0.7446563779040054,0.4670419532108958,-0.4211867484349965,0.8388932341471449,0.3447605903303023,1
134,26.833333333333336,-0.4511681791024549,0.7819071579568923,0.4301958513295435,-0.3866055903131217,0.8703615947220629,0.304970182102301,1
135,27.033333333333335,-0.42319972722609,0.7985983042790622,0.4279517955078228,-0.3533680762982857,0.8845767898834371,0.3043926829816421,1
136,27.233333333333338,-0.42193917348558674,0.7959633002445579,0.4340619293857639,-0.3435137940693638,0.8872049256492405,0.30800274866922317,1
137,27.433333333333337,-0.44046032315314476,0.7798565911405789,0.44476780569463814,-0.3560922149170553,0.8787861050312352,0.31770004104421606,1
138,27.633333333333336,-0.43965789412835926,0.7793195556032859,0.4464996824018064,-0.3511398444322599,0.8792987968571309,0.321767673170707,1
139,27.833333333333336,-0.4290829140777328,0.7796678700366458,0.45607660023189217,-0.34042302387551715,0.8804000236708768,0.3301635399855181,1
140,28.033333333333335,-0.42013882283100884,0.7816692488347686,0.4609517924645297,-0.33180475265252446,0.8833238469082336,0.3311262411836858,1
141,28.233333333333338,-0.4289153560599972,0.7819365750603046,0.45233484269829,-0.3410670479688558,0.8835588822746121,0.32093141065256986,1
142,28.433333333333337,-0.44107282164885,0.7687522795177224,0.46311413143957014,-0.35610586431605024,0.8718256688517734,0.33631624482156214,1
143,28.633333333333336,-0.4439758493187088,0.7655239084246386,0.46568078213728864,-0.3657777525274019,0.8675638397007802,0.33695640637869145,1
144,28.833333333333336,-0.10485913462986818,0.948889297441776,0.2976804714540879,-0.36870731468109486,0.8695858187870573,0.32844393717208353,1
145,29.033333333333335,-0.10048029098063216,0.9522113143862948,0.2884394631099785,-0.3528264558500312,0.8774704250796278,0.32489866906911635,1
146,29.233333333333338,-0.11838328109208052,0.9513306600848342,0.28452657861863645,-0.3573178237785706,0.8771203906812194,0.32091088024772785,1
147,29.433333333333337,-0.13389936564222393,0.9503267663990059,0.28098042093039066,-0.3651426022796254,0.8780193198456074,0.3094397420796495,1
148,29.633333333333336,-0.10694757583442605,0.9535011836698862,0.28177599039532447,-0.3316759701411427,0.892903446052226,0.3044905365672162,1
149,29.833333333333336,-0.09345042302454398,0.9552847499376144,0.28053175394803964,-0.30747911752247997,0.9041490906400609,0.2965990798744122,1
150,30.033333333333335,-0.09943114816650006,0.9536879435093545,0.2838886281258725,-0.3005587680132177,0.9081785190833421,0.2913352097601056,1
151,30.233333333333338,-0.11401126419832203,0.9499073887598065,0.29099378758905975,-0.30117540904352597,0.9075558272059293,0.2926359401919495,1
152,30.433333333333337,-0.27301352990230543,0.9452739260567692,0.17866397848336604,-0.31529426402187294,0.904311879886974,0.2877664868781508,1
153,30.633333333333336,-0.2965711994417079,0.9547185357869563,0.02362289327150941,-0.3424189347720782,0.8968427555903956,0.2800398986833505,1
154,30.833333333333336,-0.3187057439907994,0.9473509923318516,0.030866585090146302,-0.3633999646517022,0.8841856339266039,0.2935238158121954,1
155,31.033333333333335,-0.46289809351497535,0.8839790523422522,-0.06562309075542921,-0.4072008909268699,0.8720095301941524,0.27163728330061304,1
156,31.233333333333338,-0.5928285060722475,0.7999468693072537,-0.09294820425199721,-0.5433578800634877,0.8092778972256144,0.22322970061127734,0
157,31.433333333333337,-0.6686519700602632,0.7357457409969029,-0.10762317380307784,-0.6622326871112485,0.7254055331708664,0.18770903165939248,0
158,31.633333333333336,-0.6031178579027314,0.7961482137958139,-0.04895785073465089,-0.7523479670890012,0.6418410567627739,0.14836641894543628,0
159,31.833333333333336,-0.9803116153006204,0.19604644238047145,-0.023556938184939695,-0.8762512628621547,0.4735646858185595,0.08899557673304932,0
160,32.03333333333333,-0.9802697761987127,0.19460363586136264,-0.03464954228938811,-0.9528595967734153,0.30332816269129675,-0.007114390706665588,0
161,32.233333333333334,-0.9667756126639868,0.17203878215503082,-0.1890702837380497,-0.9740295133938134,0.22122228103993632,-0.048241158871847274,0
162,32.43333333333333,-0.9688155641393668,0.12844731726944014,-0.21189074865978558,-0.986929704183958,0.1349318631680467,-0.08810874701960464,0
163,32.63333333333333,-0.9596794630173014,0.1618589008300133,-0.22981954765625145,-0.9932812074125745,0.0575761415090466,-0.10038640809366721,0
164,32.833333333333336,-0.9593345431127432,-0.24893131913296876,-0.13308054983875117,-0.9953435055672148,-0.011355749165109003,-0.0957201801401749,0
165,33.03333333333333,-0.9088514089913585,-0.3947651836174367,-0.13472032577868165,-0.9899823624509227,-0.11148285134859089,-0.08664003630699894,0
166,33.233333333333334,-0.8173438962149745,-0.5746476199408468,-0.04158206604349182,-0.9726575941251872,-0.22628724792931607,-0.052261706967715774,0
167,33.43333333333333,-0.7973459636146811,-0.5997962991167732,-0.06696128637652003,-0.9326786226483548,-0.3603680868920773,-0.015666167511941647,1
168,33.63333333333333,-0.7451585272429885,-0.664067140731198,0.06126664572303297,-0.9026212427648894,-0.43028786579341444,0.011280277501699146,1
169,33.833333333333336,-0.8211663545804233,-0.5665333759160379,0.06874410577115646,-0.8885997523063542,-0.4582564303142641,0.01978697239888133,1
170,34.03333333333333,-0.8294648932647002,-0.5537724985407243,0.07296581871906434,-0.8842907968309646,-0.4657095869700409,0.03382849751690845,1
171,34.233333333333334,-0.8395141755586075,-0.5261738143969215,0.13548825070516446,-0.8955475440685492,-0.43935374474954597,0.07044773443724714,1
172,34.43333333333333,-0.8316335642257219,-0.5273149104875691,0.17413959926079234,-0.8937165695263569,-0.43629986831962875,0.10446587126098006,1
173,34.63333333333333,-0.8069778567455801,-0.500096670361605,0.3141497397986284,-0.905107608707709,-0.4064405388023482,0.12484512436402939,1
174,34.833333333333336,-0.7913553949407192,-0.5040638662169035,0.3459425641239976,-0.9030638573357282,-0.4045529341047103,0.1442657030662014,1
175,35.03333333333333,-0.7839350499181506,-0.5106601828708165,0.3530892452910052,-0.900181290275466,-0.4078781982997199,0.15267291832467053,1
176,35.233333333333334,-0.8365993873571551,-0.3667065921273136,0.40697388167301973,-0.8906868330755008,-0.42393809879259886,0.16417507051331448,1
177,35.43333333333333,-0.8360984780358223,-0.3685807015804867,0.4063097358526102,-0.8840832218680958,-0.4347863907976314,0.17134074585018272,1
178,35.63333333333333,-0.8376392639723823,-0.3621127672928215,0.40894352570415027,-0.8838488499557509,-0.43241135259516683,0.1784142163021633,1
179,35.833333333333336,-0.8401685128309488,-0.3557734985583661,0.40931905375998806,-0.8853879148295016,-0.426981043708319,0.18378092552716624,1
180,36.03333333333333,-0.8409490517402862,-0.34968525607961054,0.41294662373925645,-0.8866664072693398,-0.4198918065907662,0.1936841577879423,1
181,36.233333333333334,-0.925690473347444,-0.36893509949051906,0.08357056848978553,-0.8966022636422453,-0.3985993967817901,0.1929323760201876,1
182,36.43333333333333,-0.9262821073674206,-0.36808075633124737,0.08073422068483392,-0.8994967548562974,-0.38841054354668075,0.2001070655043508,1
183,36.63333333333333,-0.9139044018842932,-0.40308322202186536,-0.04798604318949217,-0.9012388325026196,-0.38750442801448487,0.1939301035385745,1
184,36.833333333333336,-0.9045511164845798,-0.42224379940121637,-0.05913925543770331,-0.8907240650484318,-0.40619973526558034,0.20399121307980353,1
185,37.03333333333333,-0.9001663249996326,-0.3531221030053647,0.2549615023993329,-0.8952303451903455,-0.39641011519663727,0.20352309357948528,1
186,37.233333333333334,-0.8671647924894139,-0.3524194246830326,0.3518888628144866,-0.8954518975891227,-0.39727696773393795,0.20084050889242205,1
187,37.43333333333333,-0.8420979431922695,-0.37868456190463073,0.38401700046540543,-0.8819924134966082,-0.42560655957883503,0.20235720638982824,1
188,37.63333333333333,-0.8289577376310412,-0.4015677825316914,0.389322983208295,-0.868342457921919,-0.4557031664669671,0.19574473132654194,1
189,37.833333333333336,-0.8217251114885896,-0.4154348839867199,0.3901047273694666,-0.8562036380033925,-0.4800753167810416,0.19090055130181874,1
190,38.03333333333333,-0.8219791740069512,-0.4047155425940694,0.4006938570550322,-0.8542903910121861,-0.4801673385528029,0.19906595593261106,1
191,38.233333333333334,-0.6436965447322796,-0.6875661839139962,0.3360171142035321,-0.8602712502234178,-0.4684655827412479,0.20117995383720752,1
192,38.43333333333334,-0.6500628452390432,-0.6776709828378027,0.34377367010777055,-0.8672601373488076,-0.4533970373897331,0.2056477100576136,1
193,38.63333333333333,-0.6445033029173783,-0.680146923924284,0.3493073924281078,-0.8670069662212145,-0.45622723491741235,0.20038869889167543,1
194,38.833333333333336,-0.5933402901816458,-0.7705856928590967,0.23269076046982623,-0.8590555372603496,-0.47348580584026,0.19451163350846712,1
195,39.03333333333333,-0.5758888344097326,-0.7886324775922819,0.2154318121560943,-0.8407541573247358,-0.5106437141335507,0.17993177639612778,1
