,timeStamp,x_gaze,y_gaze,z_gaze,x_head,y_head,z_head,fixations_head
0,0.03333333333333333,-0.9992484038713603,-0.03460124378573361,0.017475162059887386,-0.9891213773305587,-0.048457853831373895,0.13889109874198471,1
1,0.23333333333333334,-0.9992318830631621,-0.024368001364500617,0.0306894832075618,-0.9878922438548943,-0.043323575506675885,0.14896973631130558,1
2,0.43333333333333335,-0.9707714188928374,0.11315704086814943,0.21165617487508243,-0.9764447168991347,-0.0309777232023087,0.21353242260830058,1
3,0.6333333333333334,-0.9600352939931314,0.144109092820471,0.23992666307432928,-0.9630040655330818,0.01051114567575934,0.26928179586325307,1
4,0.8333333333333334,-0.9613835458222602,0.1255895307908113,0.2448855805839988,-0.9541367398769757,0.0031042312445324384,0.29935504900588705,1
5,1.0333333333333334,-0.9722213610227797,-0.17317297857516828,0.15746982143388127,-0.9522265851894545,-0.02006402144267239,0.3047326131249795,1
6,1.2333333333333336,-0.9609746927889002,-0.23096826048381186,0.15225407209122865,-0.9516699454580213,-0.06416271377214809,0.3003455694251549,1
7,1.4333333333333336,-0.9750068249999204,-0.15506023664492732,0.1591163543297605,-0.9472155893645877,-0.1104432499760446,0.30097328087294745,0
8,1.6333333333333335,-0.9548571150204459,0.21648364601530032,0.20342743399736762,-0.9617940833616482,-0.04501486709029578,0.2700477790158068,0
9,1.8333333333333335,-0.98037225954805,0.11388594927669461,-0.16093546304651749,-0.9800802148831403,0.05384689878706067,0.191162977288056,0
10,2.033333333333333,-0.956444974396625,0.10731731379094618,-0.27147008143096557,-0.9957110362239601,0.08024160246792662,0.046052335176265835,0
11,2.2333333333333334,-0.8964461836829762,-0.08410949317132767,-0.4350974981756271,-0.9856311774682018,0.015794493840330725,-0.16817168598481014,0
12,2.4333333333333336,-0.6997345096273686,-0.23988069015931268,-0.672925605490858,-0.9053746888723427,-0.12308932996367206,-0.40638121216218065,0
13,2.6333333333333333,-0.7020616488779299,-0.26479560345029013,-0.6610542561455899,-0.8089205477638448,-0.26371671334492336,-0.5254531782261795,0
14,2.8333333333333335,-0.5109882059421756,-0.4207318067218141,-0.7495837512917387,-0.7146048325693571,-0.3986487321612008,-0.5748209474391033,0
15,3.033333333333333,-0.4256243923820978,-0.35794175022823194,-0.8310966129475684,-0.6008454701870694,-0.4750828192648266,-0.6428693769305424,0
16,3.2333333333333334,-0.11049469129865291,-0.24800890881231802,-0.9624357143957921,-0.438387131312145,-0.42650220025381136,-0.7911463810689942,0
17,3.4333333333333336,0.008797776464258682,-0.16916975985235086,-0.9855476606845471,-0.33253784886875687,-0.34849260194910725,-0.8763398230461066,1
18,3.6333333333333333,0.0724277776436855,-0.09789877584199508,-0.992557326663924,-0.2632998897593883,-0.29185561793191406,-0.919507186668095,1
19,3.8333333333333335,0.016373419300006117,-0.015299351206645889,-0.9997488889681659,-0.2059175579855884,-0.2542828688634644,-0.9449540633892309,1
20,4.033333333333333,-0.01080872260775464,-0.029617172504519354,-0.9995028737369525,-0.21541443721904927,-0.25792749428345785,-0.9418439509442408,1
21,4.233333333333333,-0.027650261559276496,-0.035070654220140274,-0.9990022583799674,-0.23042105765523724,-0.25877645133785926,-0.9380516427265754,1
22,4.433333333333334,-0.037870319752374815,-0.04413721829862081,-0.9983074400417504,-0.24239720014114793,-0.26742518613024796,-0.932591747329417,1
23,4.633333333333334,-0.16425195314300384,-0.10562148791114873,-0.9807473666445116,-0.29061240997911253,-0.28979843723336984,-0.9118998261559376,1
24,4.833333333333334,-0.5117254218288312,-0.43817202606769773,-0.7390144573862096,-0.4013933775610833,-0.3607004913423714,-0.8418898455234375,0
25,5.033333333333333,-0.737471671240068,-0.5672069867181009,-0.366622105629971,-0.5569623094602754,-0.47408979254878175,-0.6819324412591985,0
26,5.233333333333333,-0.8154904802822106,-0.5769775673145052,0.045521021351960705,-0.7175744923084844,-0.5628954281689242,-0.4101653141536277,0
27,5.433333333333334,-0.8057105936621649,-0.5044908256719373,0.3103537434499689,-0.8296569411973111,-0.5572296796757176,-0.034123950703556574,0
28,5.633333333333334,-0.8449669449183151,-0.4030511509252818,0.3515403699907231,-0.847237882479485,-0.47276003338805117,0.24225177258919517,0
29,5.833333333333334,-0.9106651834837927,-0.35651326423021534,0.20877551584979337,-0.7840019203433185,-0.5348020698120429,0.31516302927650625,0
30,6.033333333333333,-0.4908237493236996,-0.8607795736429666,0.13472406132112888,-0.7327613335879707,-0.5825704856621932,0.3516709502271908,0
31,6.233333333333333,-0.33119115493632545,-0.940681219907104,0.07369709224946136,-0.6164018088199087,-0.7102536288968034,0.3399832241779983,0
32,6.433333333333334,-0.21052538385530356,-0.9750824733343322,0.06995164721990897,-0.4690471006691059,-0.8238695971709686,0.3181724441419334,0
33,6.633333333333334,-0.26147823471627435,-0.9615883772625418,0.08352799221370576,-0.2958009067026815,-0.9152494092546335,0.2735330737825247,0
34,6.833333333333334,-0.053267077395137086,-0.9961836225133226,-0.06914339232359573,-0.04414352043974329,-0.9803559283287177,0.1922332005505931,0
35,7.033333333333333,0.3969518299711724,-0.9160159007227244,-0.057828317506855784,0.1419128670700976,-0.9774700484837906,0.15624673589243818,0
36,7.233333333333333,-0.017299328596690366,-0.996379679477701,-0.08323621539941464,0.20293742618269017,-0.9708239473321292,0.12773904783115003,0
37,7.433333333333334,-0.17115014744452306,-0.9797483489347669,-0.1039268963710371,0.14277608390750407,-0.982464926408146,0.11990687320530716,0
38,7.633333333333334,-0.1949363574626215,-0.9762375589571581,-0.0946575143376095,0.01612084175637052,-0.9920288626057078,0.12497541445537165,1
39,7.833333333333334,-0.23172907768528983,-0.968036790300564,-0.09595002438617187,-0.06895417357244493,-0.9890475405127668,0.130500132385328,1
40,8.033333333333333,-0.21979827246066475,-0.9705007639435868,-0.09908070754804812,-0.09477001677326746,-0.9865292403347441,0.13333679869168835,1
41,8.233333333333334,-0.2043874853974093,-0.9731956335670886,-0.10543251215292562,-0.10355507000282288,-0.9857830062361325,0.13231860070588639,1
42,8.433333333333334,-0.20038138977432823,-0.9730473271285467,-0.11413236964200714,-0.11680215794505161,-0.9850429522774492,0.1266792724478099,1
43,8.633333333333333,-0.19742394680649833,-0.9738722656226642,-0.11223455563383486,-0.1259223767305922,-0.9836241124534593,0.12894634713191014,1
44,8.833333333333334,-0.19416663672079532,-0.9749569851676132,-0.10843520764684016,-0.13471674744781803,-0.981857993627414,0.13344016751724397,1
45,9.033333333333333,-0.20048607332431945,-0.9742249281915585,-0.10339789017745354,-0.1492953447932413,-0.9789181668162018,0.1393919750210688,1
46,9.233333333333334,-0.21631714434657423,-0.9714480468826998,-0.09744529372695075,-0.1740846274581766,-0.97387632203566,0.14580621338284322,0
47,9.433333333333334,-0.23975905601352904,-0.9667609939579842,-0.08881877966326514,-0.19861836433971758,-0.9683784987138508,0.15097625169450923,0
48,9.633333333333335,-0.24394901355508947,-0.966603604129856,-0.07852611838535964,-0.20379955632418567,-0.966004860904425,0.1590608360065028,0
49,9.833333333333334,-0.2662693983817426,-0.9603697068406675,-0.08240530121415479,-0.23369076138205402,-0.9598791654212588,0.15498585688656738,0
50,10.033333333333333,-0.3695746530191227,-0.9252677784657173,-0.08540558517398679,-0.35219964242423013,-0.9233667628025984,0.15280455892313743,0
51,10.233333333333334,-0.7995537318959473,-0.5850317032050975,0.13583716743294696,-0.5890330781137605,-0.7872480830272196,0.1824294073273178,0
52,10.433333333333334,-0.9283335845495411,-0.3212732315230827,0.18703012191654017,-0.7816863905143135,-0.5821084630080726,0.22386630871813581,0
53,10.633333333333335,-0.9574244337586604,-0.06921020594753677,0.28026487656252674,-0.8840403384440982,-0.36887660237438546,0.2870587609260056,0
54,10.833333333333334,-0.9497925085762485,-0.019981687983893853,0.3122417697838512,-0.9142560404739295,-0.18428498118042835,0.3607976415780203,0
55,11.033333333333333,-0.9349258552589117,0.0021041822534487043,0.35483688870442553,-0.9027663521525501,-0.05916264746240987,0.42604306656301383,1
56,11.233333333333334,-0.9232487424536896,-0.0078343614643168,0.38412287401055306,-0.8744493294440993,-0.044167388129744564,0.48310207209301226,1
57,11.433333333333334,-0.9315126844490745,-0.017399669774173097,0.3632924031716449,-0.8531270485674078,-0.031815044276874385,0.5207322171330717,1
58,11.633333333333335,-0.932413307854702,-0.0225497588114873,0.36068952259941905,-0.8464706673637661,-0.03009801504892487,0.5315839715255299,1
59,11.833333333333334,-0.9349668418971364,-0.03178543574448813,0.35330820911412236,-0.8431920991216282,-0.03448649780373288,0.5365051401879536,1
60,12.033333333333333,-0.9372307550526239,-0.046092189584846316,0.3456501437042425,-0.8419867618991737,-0.04873089302400029,0.5372928371490057,1
61,12.233333333333334,-0.9433771426618615,-0.06477551897978762,0.32533628577833346,-0.8505273084022927,-0.06883856081596931,0.5214063196843104,1
62,12.433333333333334,-0.9457652526525214,-0.08039465321957671,0.3147455902928852,-0.8545575528693692,-0.08834852248047712,0.5117869941776875,1
63,12.633333333333335,-0.9414317726892982,-0.0825548160484486,0.326941768084613,-0.8467441233340532,-0.09214399315328857,0.5239598020125328,1
64,12.833333333333334,-0.9156113255720354,-0.2604389678193561,0.30631265812141806,-0.8428680617369693,-0.11610570218451381,0.5254454266848323,1
65,13.033333333333333,-0.9046144373689801,-0.2815636409069761,0.3199916183633743,-0.8360206642786974,-0.14368797296843078,0.5295500121076663,1
66,13.233333333333334,-0.9490178774144548,-0.1336152147408331,0.2855031396281382,-0.8392681351311612,-0.14899781473769635,0.5229040529168373,1
67,13.433333333333334,-0.9642577969855582,-0.08349485339073691,0.25146671829452416,-0.8547037704980271,-0.14307424207155,0.4990102463397993,1
68,13.633333333333335,-0.8732276404076159,-0.09119324888398417,0.47870374908301194,-0.8571133851936306,-0.14279783150912534,0.4949398188044753,1
69,13.833333333333334,-0.8534650112349697,-0.09056890800909302,0.5132199796381023,-0.8355291668741699,-0.14317438938446045,0.5304640473462293,1
70,14.033333333333333,-0.8924909460019408,-0.052507460018231276,0.44799874770694964,-0.8231882992236162,-0.1444828196973954,0.5490771701988894,1
71,14.233333333333334,-0.9142313269595459,-0.07186949236154985,0.3987679235764603,-0.8196176544397209,-0.14122985431881444,0.5552306086481695,1
72,14.433333333333334,-0.9161291539210914,-0.07577935625814212,0.3936557665028259,-0.8185471773772752,-0.14552554091524597,0.5557003107332411,1
73,14.633333333333335,-0.9279075643639227,-0.1860049037869424,0.3230939921499987,-0.8193656920825187,-0.15144957373583082,0.5529040506754952,1
74,14.833333333333334,-0.9255807720909635,-0.1820795624089028,0.3318844185683911,-0.8194781623109347,-0.16911947536140678,0.547589394116592,1
75,15.033333333333333,-0.9186836807304749,-0.2246643821437946,0.32487876224132334,-0.8182780938566123,-0.179240553110031,0.5461627827261757,1
76,15.233333333333334,-0.9133785737550377,-0.2388051607097816,0.3297145374768733,-0.8128069041452333,-0.18434161558661238,0.5525966932010714,1
77,15.433333333333334,-0.9065544708145792,-0.10225754850409459,0.4095148168504178,-0.8108623595758289,-0.17030274116455207,0.5599100018529395,1
78,15.633333333333335,-0.9108983273584654,-0.22545363319022751,0.3455935423251948,-0.8110191240952362,-0.17122386408410312,0.5594017954207016,1
79,15.833333333333334,-0.9113016616138134,-0.22551639403866222,0.34448749985986665,-0.80777626386389,-0.17561939691668346,0.562721365299662,1
80,16.033333333333335,-0.9150159030198111,-0.23505749566375542,0.32786257937301044,-0.8074963784784044,-0.17931243652656423,0.561957871064343,1
81,16.233333333333334,-0.9212828106401404,-0.2561131110035383,0.29265005927061183,-0.805683831784983,-0.18589100712853382,0.5624216360249727,1
82,16.433333333333337,-0.9170693542330883,-0.28717107205838777,0.27661629543348104,-0.7975848257237328,-0.21221882632437883,0.5646429097480518,1
83,16.633333333333336,-0.8043375573911998,-0.341641807350377,0.4861295807090186,-0.7833537464445379,-0.24963151950498472,0.5692460034123548,1
84,16.833333333333336,-0.6400469049404582,-0.33627613670885853,0.6908388519447247,-0.7400799812663734,-0.2637420960684127,0.6186450744087477,1
85,17.033333333333335,-0.5858528016628073,-0.3611380616750696,0.7255038216256432,-0.6613950336094507,-0.30821504312642073,0.683783662211472,0
86,17.233333333333334,-0.4872818645267786,-0.4184697422575205,0.7664459924340596,-0.5869431375398122,-0.3897491892867906,0.7096430953269471,0
87,17.433333333333337,-0.44956013968112407,-0.45429369709230094,0.7690987697247323,-0.5144397844270927,-0.5215827959390303,0.6806637166611943,0
88,17.633333333333336,-0.14547906034905975,-0.7469528238556261,0.6487659993665366,-0.3782542323212452,-0.6648905894521007,0.644084031620955,0
89,17.833333333333336,0.3714378841761856,-0.7832654733766802,0.49852692646909635,-0.06387782932927444,-0.7885269530834593,0.6116738241751861,0
90,18.033333333333335,0.5356394180750237,-0.7997860185779512,0.2709847565666363,0.12832003610465992,-0.8328752437330876,0.5383797885421114,0
91,18.233333333333334,0.5856725657940658,-0.8105474439071303,0.0006977476717457149,0.22330672885646963,-0.8508468535311623,0.4755982933984773,0
92,18.433333333333337,0.6313754271892934,-0.773929166645843,0.04897667767834253,0.35862270213062997,-0.8307552451167581,0.42571760619866444,0
93,18.633333333333336,0.8062251566177777,-0.5896301081556178,0.0483459656334905,0.4593511206206726,-0.802778299393081,0.3801888346704639,0
94,18.833333333333336,0.8200732727469986,-0.5692418198019477,0.058682006736255225,0.478444219024203,-0.7993677050471323,0.3634589404733384,0
95,19.033333333333335,0.822473410656921,-0.563293846587626,0.07897804225788246,0.47242677973804537,-0.8036582561014203,0.3618650925225651,0
96,19.233333333333338,0.777096176604388,-0.6213314412340886,0.10034327302222244,0.48872247277483083,-0.7969571132973887,0.3549784559230998,0
97,19.433333333333337,0.8101607183952804,-0.5768299211871077,0.1044358769413945,0.5529433435479463,-0.756639392410517,0.34892762670597083,0
98,19.633333333333336,0.954485889505101,-0.2883433100555412,0.0762549820134405,0.6904651120180696,-0.6413007800896876,0.33465092042639405,0
99,19.833333333333336,0.9879699764767609,-0.14938289237386432,0.040000963069994844,0.819891753267561,-0.501787193969003,0.27565762259106746,0
100,20.033333333333335,0.9818669606934229,-0.17803029540613718,0.06513436432685908,0.8521047391212763,-0.47071729060482526,0.22878537080135639,0
101,20.233333333333338,0.9264263682647071,-0.33951068388791295,0.16268583131246206,0.8095422430691837,-0.5410478922816733,0.22783444635101582,0
102,20.433333333333337,0.8967403232898447,-0.39994735065548276,0.18947007491866724,0.7622335183469773,-0.599530889127003,0.2440548636904698,0
103,20.633333333333336,0.8923790787278425,-0.4072977165408279,0.19434029419931032,0.7386246843595731,-0.6212647219214169,0.26165572982571195,0
104,20.833333333333336,0.8092796970179938,-0.565845928889433,0.15774903091214057,0.6913783628441463,-0.6649038198572095,0.28266388119149544,0
105,21.033333333333335,0.7491527263545772,-0.6413835459039877,0.16552141746351637,0.5877921547826774,-0.7519437559425747,0.29846435411102407,0
106,21.233333333333338,0.5337193142459061,-0.8255217129388012,0.1834600639579836,0.42168315469067386,-0.8453732725529682,0.32791362750457065,0
107,21.433333333333337,0.1315637320658073,-0.9525087614044823,0.2746234583072169,0.17423586495194793,-0.9088243966818935,0.3790515523780889,0
108,21.633333333333336,-0.24950611393283062,-0.9005040886098303,0.3561447535863983,-0.1345507729213401,-0.872828216133822,0.46911298705846954,0
109,21.833333333333336,-0.5618716936396184,-0.7402041739600427,0.36932097251398843,-0.3979689762669928,-0.7676113719567539,0.5023877741064886,0
110,22.033333333333335,-0.8130277352022276,-0.36108405090924534,0.45673209868686293,-0.6299525609057169,-0.5674134988302377,0.5302845390481952,0
111,22.233333333333338,-0.8974159011135863,-0.015047531353409126,0.44092887434217565,-0.8039053959468189,-0.26669568376075303,0.5316103146393727,0
112,22.433333333333337,-0.894194929778687,0.060615036293135735,0.4435552332385124,-0.8431216602257652,0.03330514273330958,0.536690444786996,0
113,22.633333333333336,-0.9091448546845537,0.05437348403847043,0.41291543617806353,-0.8283507153651172,0.14651850571630506,0.5407101070229405,0
114,22.833333333333336,-0.7903363095806903,0.4454646635529282,0.42063018351522485,-0.8011231917089402,0.2670422318409953,0.5356212076826877,0
115,23.033333333333335,-0.6688424301528246,0.6697777110874653,0.3225641352625852,-0.7558421567415647,0.39061413204185624,0.5254742942727526,0
116,23.233333333333338,-0.5190978394413717,0.8187403134703469,0.24536041283340299,-0.7000702018972546,0.5037984350956536,0.5060522198456479,0
117,23.433333333333337,-0.5406446978377933,0.8083247161303178,0.2330546373551124,-0.7112627676721468,0.50521909295215,0.488731975053776,0
118,23.633333333333336,-0.9337431227769359,0.029960116277190443,0.35668777957680825,-0.8052010045498479,0.3414031616838193,0.4848661912983906,0
119,23.833333333333336,-0.9056999316071318,-0.04268605956164223,0.4217647854028793,-0.829607013131275,0.1955750954614084,0.5229747468077839,0
120,24.033333333333335,-0.9030338598261654,-0.08673594001240958,0.42072167131920046,-0.8322697817824997,0.05104750436437385,0.5520155456414974,1
121,24.233333333333338,-0.8902199461328736,-0.14803986732882257,0.4308046485223301,-0.8177205162817184,-0.06414973283730417,0.5720296924363826,1
122,24.433333333333337,-0.8980186049662255,-0.09958538916602785,0.4285386043277372,-0.8183307209574091,-0.055111361153615875,0.5720992649961394,1
123,24.633333333333336,-0.9068713333929435,-0.06680175209510171,0.4160792119141852,-0.8273451241119872,-0.044544590879180876,0.5599248387342064,1
124,24.833333333333336,-0.9075174871130562,-0.041978544608522336,0.4179112494017768,-0.8304408568357301,-0.026845605519087726,0.5564596092819785,1
125,25.033333333333335,-0.8279558395435076,0.34771170821295594,0.4399837448559139,-0.8345283996770806,-5.138626654145868e-05,0.5509649240122846,1
126,25.233333333333338,-0.7606025232048933,0.45297781706479195,0.46507515407895744,-0.8280281953747041,0.11912696994714245,0.547885090777002,1
127,25.433333333333337,-0.9036687505252403,0.10515457769446349,0.41512083073973854,-0.8186326956324084,0.1616109544884692,0.5511101605223249,1
128,25.633333333333336,-0.905550443656255,0.063598356195464,0.4194444457651033,-0.8184590381579518,0.1157453291307358,0.5627857688694502,1
129,25.833333333333336,-0.9092871422137292,0.015014562902524547,0.4158983720882249,-0.8217996556581065,0.054022971090889924,0.5672097006881411,1
130,26.033333333333335,-0.9477610431869754,0.030514215213978752,0.3175183265372428,-0.8286756370440869,0.0031547684563388314,0.5597202301199806,1
131,26.233333333333338,-0.9245651815384961,0.015533557757458922,0.38070714948643075,-0.8293127079626663,-0.0005815170523726551,0.5587844792489745,1
132,26.433333333333337,-0.9227384487947776,-0.016672626049963064,0.38506594066004546,-0.8280140419492286,-0.0008121207603326953,0.5607067743435709,1
133,26.633333333333336,-0.9228895629687491,-0.04078722876216008,0.3828984937725069,-0.8290103817896295,-0.006668482674870382,0.5591934533091639,1
134,26.833333333333336,-0.9214456942438813,-0.0499901691556746,0.38527758246126753,-0.828620056889418,-0.007186537338337767,0.5597652677700384,1
135,27.033333333333335,-0.9184779044002374,-0.04915083991027265,0.3924060831137351,-0.8250892307609665,-0.002528855084387345,0.5649967842158385,1
136,27.233333333333338,-0.9184443936753587,0.07611670463052678,0.3881573688628009,-0.8225435726779143,0.004988918543830223,0.5686802104329073,1
137,27.433333333333337,-0.9126641182038538,0.06613482897268243,0.40332417698414286,-0.8163630870860888,0.0149014211957329,0.5773467395678429,1
138,27.633333333333336,-0.9450077300157714,0.1646885802908285,0.2825562983411101,-0.824857822684147,0.07374476374815735,0.5605098412842517,1
139,27.833333333333336,-0.9456756230621877,0.1760096698185078,0.27334632259520747,-0.8285455671338678,0.10863771990566451,0.5492814296847435,1
140,28.033333333333335,-0.9513197646103788,0.14776516496937195,0.2704739571256872,-0.8365206521171995,0.09107187830843222,0.5403139009527604,1
141,28.233333333333338,-0.97022642297605,0.023385556664271123,0.24106804827392833,-0.8566359851724773,0.06624470664411783,0.5116506891905983,1
142,28.433333333333337,-0.977590402334562,0.01006710512706796,0.21027519743828613,-0.8859395231092989,0.042905737656195264,0.46181193041003804,1
143,28.633333333333336,-0.9967346374568282,-0.06377628160811626,-0.04952422031741468,-0.9173026677420487,0.0076594029758768785,0.39811700453431237,0
144,28.833333333333336,-0.9897483876589364,-0.08150200815723098,-0.11728406453084116,-0.955596588730734,-0.02443577449922561,0.2936631616849605,0
145,29.033333333333335,-0.9861769470879553,0.027543040176911986,-0.16339036070127802,-0.9827164289640814,-0.021878949294376317,0.18381983522421463,1
146,29.233333333333338,-0.9839123222901922,0.04551477723288791,-0.172756901740456,-0.9903536370097297,-0.002739806947513061,0.1385357972492697,1
147,29.433333333333337,-0.9827923486811377,0.05244018161383828,-0.17711359836590992,-0.993818963025268,0.004086324821635815,0.11093768827965335,1
148,29.633333333333336,-0.9846952078416488,0.049800905068865545,-0.16701861425605866,-0.9944012885766012,0.0028391023522087574,0.10563151411879435,1
149,29.833333333333336,-0.9870084580661087,0.0379120027098325,-0.15613130293599872,-0.994280612488945,-0.009498606835900415,0.10637593758358005,1
150,30.033333333333335,-0.9884803514066683,0.026707990253765353,-0.14897408546305768,-0.9941101084860429,-0.023234389931291385,0.1058548786329142,1
151,30.233333333333338,-0.9893477222677693,0.023393017776609886,-0.14367968249853685,-0.9940676774812136,-0.029133021399152484,0.10478892904912435,1
152,30.433333333333337,-0.9887151163060451,0.02706931704496458,-0.14734202001684052,-0.9946566326137176,-0.027732336173373052,0.09944395772447515,1
153,30.633333333333336,-0.9883978773925703,0.02712775308900613,-0.14944470876616406,-0.9948843970445959,-0.029313993569199042,0.09667329671753383,1
154,30.833333333333336,-0.9882320856581222,0.020267955017366824,-0.15161317513729647,-0.9949189951380351,-0.037985470763154894,0.09323785242284778,1
155,31.033333333333335,-0.9873255655564873,0.02219693685877596,-0.15714809446076727,-0.9956765199886755,-0.03648578693991163,0.08542280078887696,1
156,31.233333333333338,-0.9861650133094295,0.018253160563979024,-0.1647585768748879,-0.9961662494166965,-0.04166792634622347,0.07691935671258383,1
157,31.433333333333337,-0.9683263619748943,0.014506364218997534,-0.24926616718201522,-0.9962736188552451,-0.047769194310677034,0.07181211908851277,1
158,31.633333333333336,-0.9818574847377209,-0.0013331633232498703,-0.18961567008048133,-0.9959055172165766,-0.055418712271258205,0.07142105507326774,1
159,31.833333333333336,-0.9847763016452028,-0.006398616873385344,-0.17370864520830392,-0.9955982987176575,-0.05945865061337038,0.07244788787634765,1
160,32.03333333333333,-0.9830381680081223,-0.015450829150992862,-0.18274909607924678,-0.9956187219120627,-0.0636615388795541,0.06848772916134675,1
161,32.233333333333334,-0.9813736098484536,-0.02217602360491916,-0.19082468883792217,-0.9957879619820289,-0.06482776143291695,0.06483591689237261,1
162,32.43333333333333,-0.9788548398472339,-0.021262561280873553,-0.2034480424959234,-0.9960915134322532,-0.06656230607945351,0.058061659273812086,1
163,32.63333333333333,-0.9791371078873424,-0.0180215351767336,-0.20239997091868558,-0.9962241110103776,-0.06823248665790421,0.05368285020434215,1
164,32.833333333333336,-0.9798475381524567,-0.0036231542236860644,-0.19971398230980547,-0.9969353723461051,-0.05757427081318504,0.052962880449075794,1
165,33.03333333333333,-0.9784890694299478,0.012698235302295687,-0.20590749337098566,-0.9977324587420281,-0.048845155799587495,0.046304335947094925,1
166,33.233333333333334,-0.9766561300452408,0.01829016916405064,-0.2140286741467233,-0.9981455083438783,-0.048146847973736605,0.03724815704347229,1
167,33.43333333333333,-0.9754835022574954,0.01921489813078063,-0.2192321247291882,-0.9982377697174383,-0.050348738529510766,0.031406363018369785,1
168,33.63333333333333,-0.975639039175932,0.019230840121016612,-0.21853750255758111,-0.9981244036236104,-0.052689743251332216,0.031168346878221894,1
169,33.833333333333336,-0.9755367389832941,0.01814289472253049,-0.21908652689046862,-0.9979616756213766,-0.055007947839876586,0.0323515017490647,1
170,34.03333333333333,-0.9752654314335841,0.018780269719622253,-0.22023768914498656,-0.9979069827376112,-0.055420022234493826,0.033320788391705644,1
171,34.233333333333334,-0.9762336620097762,0.01908731435252658,-0.21587846485879547,-0.9976623890510457,-0.05538065834374113,0.0400342372772835,1
172,34.43333333333333,-0.9770606141246014,0.014623701906058852,-0.21245871050399234,-0.9971354289768957,-0.06078604224445638,0.045011035839196516,1
173,34.63333333333333,-0.978010573277266,0.012647774089291032,-0.20817144945563523,-0.9967137757846618,-0.06549872770477609,0.04766094659297837,1
174,34.833333333333336,-0.9793244190648795,0.007857287735027054,-0.20214337795902634,-0.9959196330864034,-0.0734360771887152,0.05245214009148807,1
175,35.03333333333333,-0.9804552501236505,9.856611268299444e-05,-0.19674219880262478,-0.9950641752673917,-0.08189945790889597,0.0560336139621111,1
176,35.233333333333334,-0.9817681618902502,-0.01901718389547838,-0.18912858857223439,-0.9933040390754015,-0.09760253366727718,0.06181287388741417,1
177,35.43333333333333,-0.9834750198401536,-0.03695385788459799,-0.17723232701133992,-0.9912734750025288,-0.11132234934533222,0.07059909555119434,1
178,35.63333333333333,-0.9847176350569964,-0.0437063276835135,-0.16858510055214726,-0.9904323739937517,-0.11401972985783691,0.07773811001205752,1
179,35.833333333333336,-0.9845379035665046,-0.04399338959126211,-0.16955735936002286,-0.9906421247551609,-0.11426840729258204,0.07463854068373278,1
180,36.03333333333333,-0.9841241630927415,-0.046049447384170605,-0.17140326721688814,-0.9904571009470975,-0.11814216826120362,0.07097294739555875,1
181,36.233333333333334,-0.9840525504673489,-0.05482363788225042,-0.16921863564058756,-0.9891833392293312,-0.12825662557171477,0.07117976810911407,1
182,36.43333333333333,-0.9839299909560946,-0.06373978229533586,-0.1667903266082398,-0.9876002271118572,-0.13973276378580618,0.0715579914013004,1
183,36.63333333333333,-0.9842242912522577,-0.061477003933216715,-0.16590094181886472,-0.9876197177940349,-0.13974058516787896,0.07127314979267849,1
184,36.833333333333336,-0.9984317737776915,-0.05181019917326825,0.021206045665301942,-0.9854181318935904,-0.1473134335419535,0.08514609582022749,1
185,37.03333333333333,-0.9902919085891846,-0.052617583913765135,0.12865972814314483,-0.9745620447251757,-0.14603046719134904,0.17001153970528302,1
186,37.233333333333334,-0.9345662605872029,-0.041724550593404464,0.35333407201942874,-0.9116001657159177,-0.12242863207418683,0.3924237096750843,1
187,37.43333333333333,-0.946476572537385,-0.10126679069417381,0.30647534116203684,-0.8595638357016689,-0.12154178555419198,0.4963643890511624,1
188,37.63333333333333,-0.9571689274508871,-0.09332631328557876,0.27407634624505745,-0.844781466168639,-0.1400696581295086,0.5164540301802738,1
189,37.833333333333336,-0.9547619601625199,-0.11792461766805973,0.2729897140451727,-0.8383621262310808,-0.1628940938839263,0.520206170166249,1
190,38.03333333333333,-0.9573807538812465,-0.12055481682670892,0.26246643259216024,-0.8434298987236485,-0.16751964042629194,0.510453892149391,1
191,38.233333333333334,-0.9587524342381959,-0.12140258486254195,0.25701202740538637,-0.846640391430677,-0.171156855061097,0.5038902445609608,1
192,38.43333333333334,-0.9599531566962933,-0.1246825527868065,0.2508868230485346,-0.8496497554755653,-0.17616780659127576,0.4970515033083904,1
193,38.63333333333333,-0.8758563684344729,-0.4418126884308029,0.19410607979742261,-0.8531870591970525,-0.19391288264210776,0.4842206480150482,1
194,38.833333333333336,-0.8572613934825519,-0.47791885921658556,0.19156321998095302,-0.8474640863886552,-0.2213111239583056,0.4825204748958878,1
195,39.03333333333333,-0.8406680319970796,-0.507080234543683,0.19012336971892876,-0.835887888758613,-0.26473451416290655,0.48083996759587144,1
