,timeStamp,x_gaze,y_gaze,z_gaze,x_head,y_head,z_head,fixations_head
0,0.04,-0.9969460038660111,0.02000989113140369,-0.07548688384415693,-0.988383444752762,-0.029834144825362285,0.1490237898498218,0
1,0.24000000000000002,-0.9976521947774999,-0.04477850042850176,-0.05181683273813712,-0.9817060411981275,-0.08958204353606397,0.1680128154368093,0
2,0.44,-0.844391449070398,-0.5273327465697234,0.09446298286644136,-0.9676831921952724,-0.16276861988585095,0.1926022220100881,0
3,0.6400000000000001,-0.7334814779199271,-0.668957539466427,0.1204189849626014,-0.9006356670783562,-0.36321897393595876,0.23859457696945555,0
4,0.8400000000000001,-0.6134127180548792,-0.7773033536573684,0.13972950197268053,-0.781764535580886,-0.5641680926451283,0.26562863954995425,0
5,1.04,-0.6551742476505839,-0.730973760521793,0.1908509016067783,-0.686332164463088,-0.6701007233669894,0.28268919428667716,1
6,1.2400000000000002,-0.6605413191065881,-0.7238642321925647,0.19926298980291715,-0.6557752046544112,-0.6910144715917237,0.30406887543988464,1
7,1.4400000000000002,-0.6551091369982776,-0.7195176664726752,0.23049153185114685,-0.6333863388263125,-0.6941086625095046,0.342103654493001,1
8,1.6400000000000001,-0.6742917295404852,-0.6945416791158266,0.2508834778224134,-0.6419944619536071,-0.6688055544217093,0.3748896386879325,1
9,1.84,-0.6973254717092005,-0.6640840571237101,0.26968417005759565,-0.657257936803066,-0.6335096032361215,0.4082616650103079,1
10,2.04,-0.7036890408656207,-0.6553824004479551,0.27440051557659173,-0.6626596088221197,-0.614360866665279,0.4283024262667708,1
11,2.24,-0.7078410312507089,-0.6939220230527446,0.132035224089328,-0.6555720821958054,-0.6191385315632871,0.43231091101094427,1
12,2.4400000000000004,-0.684703576475753,-0.7104505220195252,0.1626070973958303,-0.6384676206988937,-0.6426105850225573,0.4235690419944077,1
13,2.64,-0.6934183375365526,-0.7039217463056069,0.15383492531316975,-0.6408837336458759,-0.6458388809611137,0.4149218960081746,1
14,2.8400000000000003,-0.7141144589663392,-0.68245617505996,0.15586567491831713,-0.6550660350130452,-0.6349140974586784,0.4096005110110581,1
15,3.04,-0.7046458378385154,-0.6903764974415508,0.16387353354704218,-0.6492987958467283,-0.6416965511359997,0.40821147702159516,1
16,3.24,-0.7091992785930756,-0.6846210660138545,0.16831630703266626,-0.6548629517056244,-0.6372253781103877,0.4063229404986519,1
17,3.4400000000000004,-0.7114902010726856,-0.6839857026186147,0.1610753003749164,-0.6580215918788962,-0.6392533764172826,0.3979481189304302,1
18,3.64,-0.7175479984740419,-0.69059050725072,0.09060695989320823,-0.6752153852695129,-0.6611812512508024,0.32699164590210356,1
19,3.8400000000000003,-0.6759258623658131,-0.6720011890342481,-0.3025535167893262,-0.7110396552456101,-0.7020516115687766,0.03932102951205062,0
20,4.04,-0.5597984626953122,-0.5461288874335236,-0.623192521998288,-0.6597693662554127,-0.6696612411008309,-0.3409665753680651,0
21,4.24,-0.41629820453164024,-0.37694447960857475,-0.8274108194822895,-0.5468806156554504,-0.5642752926798104,-0.6184779594225085,0
22,4.44,-0.1840283799840992,-0.13862787995892853,-0.9730960210886289,-0.41856116228607043,-0.43314414248006194,-0.7982435125078976,0
23,4.640000000000001,-0.10859664954416871,-0.06012034908720202,-0.9922662502239074,-0.2852832725491142,-0.3031978177278566,-0.9092219408531306,0
24,4.840000000000001,0.05665560546382363,0.014371248277426722,-0.9982903433332793,-0.17597598752388802,-0.22770797261002018,-0.9576959491533976,0
25,5.04,0.055882798212405396,0.017234696583201606,-0.9982885745603006,-0.13476218307191082,-0.1896230938571736,-0.9725647722849758,0
26,5.24,0.3042856657918096,0.006820638257138567,-0.9525564090842077,-0.10513268408581132,-0.19505879112999067,-0.9751405984471265,0
27,5.44,0.3488936747656585,0.00940315017388005,-0.9371151393907381,-0.02900606731315679,-0.24194730344805057,-0.969855736907939,0
28,5.640000000000001,0.5638056450754092,0.051667378462268355,-0.8242898013344208,0.08382129118458263,-0.31353019735893034,-0.9458714534693495,0
29,5.840000000000001,0.6186066584641484,0.047253486870018346,-0.7842785921357573,0.34031138557150803,-0.3902026000377362,-0.8555291297052319,0
30,6.04,0.7677852429833573,0.1734928906299239,-0.6167706523156402,0.6459379487727461,-0.29740071465389184,-0.7030767961315549,0
31,6.24,0.8683546022468485,0.20506672392653996,-0.451561649716574,0.7702515889042376,-0.2125747707641318,-0.601269038472026,0
32,6.44,0.970784908059958,-0.06534687409371275,-0.230881892597058,0.8262982811532752,-0.20454676971444205,-0.5247778287642589,0
33,6.640000000000001,0.9635676804393838,-0.10547720913761763,-0.2457882901303586,0.8152653831607776,-0.2741607140877093,-0.5100767176323852,0
34,6.840000000000001,0.5144837815160218,-0.8021992260259203,-0.3029568291364118,0.6622535988575547,-0.5325239521805369,-0.5271037954276542,0
35,7.04,0.11417402484491163,-0.9620774737125525,-0.24773216711922344,0.2509828562151292,-0.8341958975522671,-0.49104461140823386,0
36,7.24,-0.35165759225659854,-0.8969916753239272,-0.26784859941367356,-0.33699733478713506,-0.8502994886244979,-0.40425681935037994,0
37,7.44,-0.9503124056493896,-0.3104587831471141,-0.022840219694296764,-0.7671464617889298,-0.5788977912745555,-0.27633974274824746,0
38,7.640000000000001,-0.9980791268587104,-0.061651814260107005,-0.0060918246356786,-0.9699209183347131,-0.19873849633459936,-0.14055754071343718,0
39,7.840000000000001,-0.8473437103510986,0.4332538443715769,0.3070826319831238,-0.9840974885637855,0.16576356876643303,-0.06383237636392672,0
40,8.04,-0.7623063904956718,0.5838411815573222,0.2793178149119932,-0.8707334379484079,0.4897507182634204,-0.044356668033231635,0
41,8.24,-0.3794677325369471,0.8554553405214391,0.3524207717155962,-0.6864933712461195,0.7271091581283226,-0.006254870187279946,0
42,8.44,-0.004221555447419201,0.9824203561919777,0.1866344614727742,-0.42505175895379727,0.9033944126560907,0.056652779208442396,0
43,8.639999999999999,0.06822418233556954,0.9967459360523435,-0.04293017479326761,-0.07630403627432625,0.994799009007633,0.0674731481826507,0
44,8.84,0.3276072254080214,0.9447532758526043,-0.010712311899456282,0.19530216394206495,0.9787067720641237,0.06316738933476619,0
45,9.04,0.6794397136331859,0.7320811969581041,-0.04918126267639325,0.38000009501620485,0.9234842725873221,0.05269464936347663,0
46,9.24,0.6517185556455345,0.7556693101211278,-0.06501398286797501,0.5279603387076802,0.8453762824960199,0.08122082088283429,0
47,9.44,0.7348266646874979,0.6780733058944161,-0.015696008972517172,0.6222358810033144,0.7726189333037822,0.1260257604323613,0
48,9.64,0.7695325304154219,0.6385942107550405,0.004137465720067883,0.6649465827673864,0.7319863589572064,0.14846552585212416,0
49,9.84,0.7222382968424832,0.6059122692105691,0.3335298556264016,0.652121227459243,0.7174720361410418,0.24489136786068613,0
50,10.04,0.45204250456196793,0.5277235487379416,0.7191421487972854,0.5727136239787592,0.7209722122601011,0.39012584387334837,0
51,10.24,0.3972520307720946,0.5373627631969837,0.7439301612226442,0.4531161096787424,0.7228027144575253,0.5217681737346914,0
52,10.44,0.27944461755213806,0.45486946673807166,0.8455793717626762,0.33875502439641203,0.6623760930945455,0.6682087583554951,0
53,10.64,0.2855072665524226,0.5421229024702139,0.7903090277625805,0.22972080362339112,0.6343959175393565,0.7380854775647748,0
54,10.84,0.1660990578020336,0.8094767778742806,0.5631682244938448,0.1425471449115583,0.6510903274955576,0.7454942635052874,0
55,11.04,0.15057052610873417,0.8254816263708111,0.5439748166887325,0.10462605487614324,0.6695846197366516,0.7353297394048318,0
56,11.24,0.2413214906446004,0.9408815139042632,0.2377097283375036,0.14987437113812932,0.7249545656541734,0.6722935003501962,0
57,11.44,0.33679129384908135,0.9262236999995024,0.16935548986287244,0.34668067792000007,0.8026824436025836,0.4852972308689951,0
58,11.64,0.5572280460495741,0.8120865204080099,-0.17324083833607226,0.5139841968742416,0.8129535088657429,0.27372767084534455,0
59,11.84,0.6448884475262923,0.7088976162200973,-0.28562748460992404,0.64067253188571,0.7634644718127048,0.0816131555994576,1
60,12.04,0.6722521276774216,0.6709229189529398,-0.31295289367067225,0.656577123015914,0.7542586889634205,0.0005582609855457034,1
61,12.24,0.7900415362031038,0.5889572362925042,0.1701873817077384,0.6554129881386757,0.7552534428277881,0.005104123421859282,1
62,12.44,0.775957539535434,0.5951485459161371,0.20901699723233855,0.6401608832318126,0.7676753737856118,0.029471410943272887,1
63,12.64,0.4877017377170673,0.8728817528362025,-0.014982008989177025,0.6129444095641655,0.7876708578565118,0.06223962136471749,1
64,12.84,0.22614195025356754,0.9590765107070349,-0.17038798357141274,0.5549867516310661,0.8264049562626826,0.09510285893952472,1
65,13.04,-0.014567008292301564,0.9818064023023594,-0.1893250925458907,0.4127091369543756,0.9014294504403443,0.13075210955542252,0
66,13.24,-0.07285371299504256,0.9853709209609601,-0.1540664941750332,0.08212743377561055,0.9804107529438204,0.17902469140753693,0
67,13.44,-0.6608995720027611,0.7494848641992118,0.038525239296550884,-0.36103103487058974,0.9029999414560278,0.2329113513564372,0
68,13.64,-0.9365508920426969,0.34607421851515385,0.05572308222949003,-0.7091370368736905,0.6547878111938433,0.2614910806241354,0
69,13.84,-0.999902467378408,-0.006106108105578785,0.012560699597339988,-0.9085727841737992,0.3420892423782587,0.23972994411991988,0
70,14.04,-0.9690574492334632,-0.23275701176511962,0.08216954155468029,-0.9722466796642691,0.07261248744481545,0.22240463248071252,0
71,14.24,-0.8673109792990925,-0.09201949235239892,0.48918716072118645,-0.9655131824282221,-0.07038708594825882,0.25065903671928436,0
72,14.44,-0.932051558834123,-0.013614413077639356,0.3620697991153544,-0.9471090450312395,-0.03364901213901949,0.3191429159515864,0
73,14.64,-0.9305104458740971,0.06664875710533931,0.3601503204156606,-0.9270656347216688,0.06224230925922222,0.3696960966201686,0
74,14.84,-0.9374941301332465,0.09041561128042767,0.3360502539836777,-0.8655769883640112,0.18356100933816033,0.46592041494813774,0
75,15.04,-0.9416998759102628,0.09382005101660199,0.32310856029798724,-0.8403523556849878,0.23006068304520774,0.49079527342005314,1
76,15.24,-0.9459552523903446,0.10272079483864392,0.3075989251977925,-0.8308804824424808,0.2673964265019598,0.487992597269807,1
77,15.44,-0.9494843210487706,0.12429842852901157,0.28814826868779464,-0.8264822390363527,0.306535349796553,0.47218977951938174,1
78,15.64,-0.9462351386616861,0.15844148264087374,0.2820201392462282,-0.8130782274022079,0.34643797961973666,0.46785096174046537,1
79,15.84,-0.9447053083003005,0.18042934188092571,0.2738195264360281,-0.8059852560276308,0.36972253657652027,0.4622694160481502,1
80,16.04,-0.9438194684088744,0.18767941614349598,0.271994940777262,-0.8020629509141803,0.3755151286016371,0.4644172810761172,1
81,16.24,-0.9443006952386905,0.1919722041742077,0.2672879903703534,-0.8021078782851805,0.37449334596751466,0.4651641488968186,1
82,16.44,-0.945524653456626,0.19671224575774734,0.259398192119127,-0.8048040290532004,0.3708701430910837,0.46340674550909866,1
83,16.64,-0.9424352253387682,0.21550789610471272,0.25567986380860297,-0.8021722574835259,0.378421490462279,0.46186236573257555,1
84,16.84,-0.9389475947529928,0.23614422174301938,0.250226539050025,-0.7999553344437023,0.3871472583155606,0.45846315367083684,1
85,17.04,-0.9350900843800914,0.2559159009455499,0.24518072056599602,-0.7977794234877815,0.39371004692525813,0.45666222792082806,1
86,17.24,-0.8981928557679496,0.3867291479021,0.20902191275158444,-0.796506312810897,0.39742205938762454,0.4556680813536196,1
87,17.44,-0.8931608658964985,0.39745060899081514,0.21046776723253263,-0.7954596169347143,0.39925031432699765,0.455898217079066,1
88,17.64,-0.8853167544334167,0.4129509094684055,0.21374234650321025,-0.7928088464509131,0.40492870313849905,0.4555072758625774,1
89,17.84,-0.8734108679438474,0.43724742845828385,0.2144018238359768,-0.7901236230341098,0.41164750387861154,0.45414864623156226,1
90,18.04,-0.8631110390158787,0.45561225418443,0.217845835778223,-0.7869301593273186,0.41634476079661925,0.4554096666719838,1
91,18.24,-0.8530613031836671,0.4733533152217666,0.21959747716935757,-0.7837338984571297,0.4204555141091488,0.4571414847335572,1
92,18.44,-0.8410244705100842,0.4971052098785405,0.21345784200831053,-0.7797945298116987,0.43100827051455026,0.45404004451568825,1
93,18.64,-0.823688090212738,0.5300296861657409,0.20151045090699096,-0.7739634074080421,0.45085930430975646,0.44464202647821743,1
94,18.84,-0.7763581112389621,0.6045500617361262,0.1782899491511429,-0.7445322921310902,0.5170988119649663,0.4222327375256983,1
95,19.04,-0.7150720074349689,0.6824941259370875,0.1512408418526387,-0.7013745635713268,0.5954247706874459,0.3918457145700762,0
96,19.240000000000002,-0.7163069007511415,0.671060522119164,0.19126473692097445,-0.6371930492149933,0.6780079229263575,0.3664563745948297,0
97,19.44,-0.6556980188347649,0.7365347971610191,0.1660620386094948,-0.57624058425484,0.742085454354663,0.34242658701227374,1
98,19.64,-0.5206160734255733,0.8417156105171623,0.14308646023526927,-0.5170383105281602,0.7942205649750051,0.3191944229101905,1
99,19.84,-0.49320746468536814,0.8570927984821559,0.1487895546355926,-0.4640209420488427,0.8286251879290917,0.3131530987705255,1
100,20.04,-0.6575247000992943,0.7438204064979175,0.11996862771827514,-0.47291444766313184,0.8243455066588654,0.3111372861661126,1
101,20.240000000000002,-0.6653827007195028,0.7426861809843837,0.07538632606813934,-0.5023657282319013,0.8121862152839783,0.2966179812498211,1
102,20.44,-0.657703296671126,0.7532318584380746,0.008254755105844676,-0.5180561834333746,0.81066162644556,0.2728470601180909,1
103,20.64,-0.6426914737528908,0.7653008751208338,-0.03552801858566534,-0.5200259215264034,0.815618604560244,0.25365199158653534,1
104,20.84,-0.5388724327099952,0.8303442504796711,0.14193282552167164,-0.5057145973320507,0.8255888498587862,0.25031140012817754,1
105,21.04,-0.5236870222853476,0.840593115775762,0.1384020101021022,-0.4931463844278849,0.8325237415158798,0.2524101094213653,1
106,21.240000000000002,-0.5331875487182479,0.8391863136095008,-0.10713248313337334,-0.48246335646320204,0.839545219010738,0.24978577803084318,1
107,21.44,-0.522715535953878,0.8435145243989182,-0.12349783642039038,-0.48203312900247686,0.8433152716704287,0.23762031712695053,1
108,21.64,-0.4484004046901777,0.8830741807932075,0.13826448672775932,-0.4706784635346881,0.8489673515769991,0.24024200282415487,0
109,21.84,-0.42915889602420904,0.8927853560343818,0.13695601488742537,-0.4595928645482242,0.8540297289911065,0.24373678601256585,0
110,22.04,-0.388861524135787,0.9148054215066889,0.10916847451880217,-0.4463047326142565,0.8608384778392735,0.24447740328602938,0
111,22.240000000000002,-0.41580926002648294,0.8940328879431672,-0.16675687257870156,-0.43812058869667025,0.8669894635088745,0.23744393006492553,0
112,22.44,-0.3896812832711761,0.8964825052938205,-0.21087345771871074,-0.4249386992593,0.8862681915165211,0.1842709813775607,0
113,22.64,-0.2899631486647314,0.8955460574926121,-0.3375183422065745,-0.3434466858033994,0.9390776871431815,0.013321843734030192,0
114,22.84,-0.1217514877430288,0.9799501966692279,-0.15771552644017267,-0.21532197256821162,0.9733475966892979,-0.07893607634346972,1
115,23.04,-0.12282647124544815,0.9824619088681932,-0.14029346237247717,-0.1624638848446383,0.9823074521009098,-0.09315339858645753,1
116,23.240000000000002,-0.26952768619800593,0.9577943085930676,-0.09992441543225082,-0.1668892887810971,0.9835877231076446,-0.06857956140176658,1
117,23.44,-0.2793237357451817,0.9546310176786331,-0.10323696399649468,-0.18093677201202646,0.9816011577422132,-0.06100042338389838,1
118,23.64,-0.2660355624190746,0.9570920884015983,-0.11489044280284445,-0.1699226997541035,0.9832216122742244,-0.06634408236724386,1
119,23.84,-0.031067274449226356,0.9921308562564691,0.1212896884409465,-0.1554256431727184,0.986239301526498,-0.05634633589571107,1
120,24.04,-0.02896755624688374,0.9900362623941925,0.13780087020632897,-0.14358711952481068,0.9890675549899866,-0.03358736031154837,1
121,24.240000000000002,-0.019543216346142533,0.9907285976328102,0.1344429564066989,-0.13000143271796255,0.991228610067152,-0.0237796147071184,1
122,24.44,-0.19164897938995534,0.9782006673150414,-0.07996326133416504,-0.1301929046237909,0.9912538254721456,-0.021579181459399705,1
123,24.64,-0.2493421146380148,0.9643463279560142,-0.08868297257983003,-0.17459489011993984,0.9844168898609363,-0.020976446327433767,1
124,24.84,-0.4796879533107548,0.8724205971086614,-0.09371109426906792,-0.37051372209567407,0.9288130180946746,-0.00509501292162803,0
125,25.04,-0.8551822044422657,0.5183232095294549,-0.0021089495850337217,-0.71132099683389,0.7012560285474341,0.04756492288569205,0
126,25.240000000000002,-0.9598251075859582,-0.23632016544083156,0.15128959730801658,-0.9811147569617155,0.1712001750390445,0.09002407310578062,0
127,25.44,-0.8343718579606648,-0.5500933283907371,0.03494184745071485,-0.9433966694667404,-0.31625873004130545,0.09991566299496323,0
128,25.64,-0.6928377464217099,-0.7120011723515787,0.11414984758318342,-0.7803402720826953,-0.6151054794779132,0.11275774422252244,0
129,25.84,-0.43686878262717826,-0.8945026812594874,0.09492428554081983,-0.6047280549035194,-0.7877983155842903,0.11695209949018004,0
130,26.04,-0.10628304983514364,-0.9942993924649032,0.008522409381444593,-0.427492873766441,-0.8948713086492361,0.12827776048603914,0
131,26.240000000000002,-0.12563133923819292,-0.9920481392681632,-0.007566767856462579,-0.23858718163983655,-0.9624239740357363,0.1296774882484243,0
132,26.44,-0.1566626071166644,-0.9869693549968764,-0.03671947478463407,-0.06817206556760169,-0.9882100580602261,0.13708920681385275,0
133,26.64,0.450657717639064,-0.8926557071905598,-0.008567960811739526,0.09159908865234345,-0.9867086693819941,0.1342222363264568,0
134,26.84,0.5602183561093927,-0.8282797967733646,0.010390944863869897,0.27065594726623243,-0.9532259965544303,0.13455689392309694,0
135,27.04,0.7244481046549274,-0.6890584087330957,0.019324932499182504,0.47783395444665033,-0.8688392022584756,0.1295883968445179,0
136,27.240000000000002,0.8604958304092627,-0.5076908382377646,-0.042390312781457454,0.6377507219996523,-0.7606977594704297,0.1208839746434185,0
137,27.44,0.9660363859894445,-0.25772836499894725,0.01870269551221937,0.7457788411388023,-0.6559018695583138,0.11664757871286531,0
138,27.64,0.9767358204156743,-0.21401723171643283,0.013555871250302193,0.8123052032818026,-0.5737137745262328,0.10494170591415317,1
139,27.84,0.9942748671251794,-0.10674998643731151,0.004682840894269988,0.86531173082817,-0.4895079957022426,0.10778464934641734,1
140,28.04,0.998978897325794,-0.044005184317444684,0.010232617012689392,0.8917803435192837,-0.43817369479037566,0.11283453419223888,1
141,28.240000000000002,0.9998159328214611,-0.01918585481676242,5.874778258829916e-05,0.896387985180784,-0.4283500279425972,0.11403873721289286,1
142,28.44,0.8963917353474667,-0.4396089421958963,-0.056796432477419695,0.8898051071065959,-0.4429380081985234,0.10978520966024789,1
143,28.64,0.8726640883600659,-0.4793403014034129,-0.09322158729168194,0.8781648516599192,-0.46562325358464113,0.10964250558230297,1
144,28.84,0.81894720357506,-0.5733590677222692,-0.0241838213944748,0.8662883576669748,-0.487410197588382,0.10943390999827476,1
145,29.04,0.6792115344624217,-0.6943855480057112,0.23769813245797872,0.8528100070193494,-0.5110976927456518,0.10721119530034598,1
146,29.240000000000002,0.6281438176103663,-0.7613678014930287,0.16048182217169352,0.8287404159297053,-0.5497742964231649,0.10458272322460052,1
147,29.44,0.6075001554216519,-0.7882702993373758,0.0978442453352935,0.7956602173087357,-0.5985266460449046,0.09322377683001914,0
148,29.64,0.5367168973745413,-0.8410204764321519,0.06796712657220844,0.7185215177407798,-0.6885473055676353,0.0981296924433974,0
149,29.84,0.542540526408692,-0.838837446195384,0.04473830645638553,0.6215509124990145,-0.7737309226476545,0.12253539288896116,0
150,30.04,0.3038709870310529,-0.8982135523318703,0.31760799367795617,0.48825097377157306,-0.8502902420229063,0.19651333525167786,0
151,30.240000000000002,0.1537554860510708,-0.7216887594896041,0.6749256143720991,0.30482087706560135,-0.869501892897779,0.38865240402207357,0
152,30.44,-0.1679510911335168,-0.7121887277467729,0.6816007974302073,0.06492387904813768,-0.873549039814666,0.4823867379688396,0
153,30.64,-0.032202030156371186,-0.6537106087801429,0.756059170450371,-0.1602847775833947,-0.8332345321818646,0.529177668136809,0
154,30.84,-0.3654520491147907,-0.6206714659033297,0.6936942634988503,-0.3523461769473313,-0.7476394496438539,0.562927548559169,0
155,31.04,-0.7002243234189548,-0.5902771314699846,0.40157042340794225,-0.49462162876633237,-0.6668097251678243,0.5574174690285115,0
156,31.240000000000002,-0.8336930928695069,-0.5037872146389648,0.22617309580935896,-0.5929288530299854,-0.5930913062917702,0.544681629620155,0
157,31.44,-0.8733115741656086,-0.449353652498852,0.18817063908678167,-0.6704975497351781,-0.528333822563963,0.5208612173449598,0
158,31.64,-0.9220773505127549,-0.3833665189094708,0.052947821962874904,-0.7582981589880885,-0.4265545348440151,0.49298593375397837,0
159,31.84,-0.9850667034951354,-0.1675172157361429,0.03976898411121434,-0.8503722139982657,-0.2142755594046364,0.4805757820588947,0
160,32.04,-0.9846643488160922,0.16476746776640167,0.05733935591222389,-0.8943711953032707,-0.010934405800125804,0.4471919093427309,0
161,32.24,-0.9803099060045429,0.18413367065671477,0.07132516750662748,-0.8836208889492647,0.1688318784538631,0.4367034708245986,0
162,32.44,-0.763806813694508,0.41053053318798904,0.4980600693432759,-0.8265438703169214,0.2746540045999801,0.49131497860203543,0
163,32.64,-0.5627187737279005,0.21966510962038366,0.7969283664857421,-0.7356631960174826,0.28869660572013695,0.6127429574226166,0
164,32.84,-0.32842496894257156,-0.07025236767137497,0.9419138201617157,-0.6541114603697735,0.23159431912238987,0.7200710164720969,0
165,33.04,-0.3652492017105628,-0.03539863597841021,0.9302365060674974,-0.6070984663070673,0.16122974428793752,0.7780979512660686,0
166,33.24,-0.4411710204153126,-0.08399786714766845,0.8934833457095629,-0.5745591558913071,0.0709433614419218,0.8153826192952544,0
167,33.44,-0.3995131929849951,0.0412283646672906,0.9157998856615974,-0.5598989463132525,0.0019816688522639593,0.8285585331802876,0
168,33.64,-0.5025669359562354,0.047265397869245045,0.8632453052567522,-0.5267756013395499,-0.03918161528679987,0.8491008578825443,0
169,33.84,-0.4813545257207121,0.051662080294722856,0.8750022000131256,-0.4880092065146187,-0.045457360043105695,0.8716539696318051,1
170,34.04,-0.183933257340989,0.05404992733848211,0.981451558763161,-0.45835184746848884,-0.03139967775755385,0.8882159895875246,1
171,34.24,-0.5429727067031447,0.052212504948544354,0.8381255837298245,-0.4300279837898483,-0.01842962279735312,0.9026274326438265,1
172,34.44,-0.3848771048918742,0.34297011210105716,0.856878705731119,-0.3983328125599097,0.01035616108769873,0.917182490219715,1
173,34.64,-0.4981787558785498,0.2237511336673515,0.8377072026513058,-0.3778836610211162,0.03803835897043213,0.9250713604798902,1
174,34.84,-0.5767609569490015,0.07642338989015993,0.813330353556886,-0.39174084727949204,0.05539843688864544,0.9184062944922801,1
175,35.04,-0.5868335211411523,0.05591259454088956,0.8077748450136234,-0.40595932477761904,0.05964029879197732,0.9119430143304481,1
176,35.24,-0.4776261322489007,0.2817669991589855,0.8321542140600481,-0.4364372881450212,0.055434091116463254,0.8980253643738083,1
177,35.44,-0.46540599711485603,0.31161471982219663,0.8284283458692494,-0.4623230886575739,0.05505477603668715,0.8850007532932791,1
178,35.64,-0.19379831617724033,0.29070586776843843,0.9369804219362674,-0.48089816912922406,0.05544636650242115,0.8750215148039733,1
179,35.84,-0.6373482773936059,0.09653041322561597,0.7645057570914003,-0.4984691531468911,0.05020357444610312,0.8654525431667853,1
180,36.04,-0.6858838472572588,0.07718827825794689,0.7236057751090406,-0.5380684637342454,0.042571087434108444,0.8418254158965183,0
181,36.24,-0.7036149466711152,0.05822443291459247,0.7081920094386678,-0.5915918455566114,0.030773921470509044,0.8056500816286494,0
182,36.44,-0.8991129697996766,-0.024935026676115673,0.43700584891127875,-0.6808718177726398,0.009209478659177628,0.7323446956630517,0
183,36.64,-0.9909191465146909,-0.07750466512345945,0.10987389114205848,-0.786078818397269,-0.022201132845429922,0.6177274487729465,0
184,36.84,-0.9946083462047691,-0.09971988575429591,-0.028463696965868184,-0.8749235694330105,-0.06115072398379981,0.4803845715745432,0
185,37.04,-0.992479354880181,-0.12236602117428615,0.0033596128637258366,-0.9155494264719368,-0.12471226361097854,0.38238213738606236,0
186,37.24,-0.9091408122071072,-0.4164559882986734,-0.00523386946501492,-0.9126725198954622,-0.2553820570388478,0.3190750325084587,0
187,37.44,-0.6369347536525992,-0.7663837102283098,-0.08348729416020899,-0.8041766054756379,-0.4795248052282903,0.35122065482606657,0
188,37.64,-0.5155572788647113,-0.856759237894946,0.012817975319282988,-0.5687399028931968,-0.7689077974458166,0.29208855144298324,0
189,37.84,0.01732640226749904,-0.998481198902628,-0.052298099606346585,-0.27048332468329905,-0.9420641006786822,0.19837842947441353,0
190,38.04,-0.005140245229251605,-0.9998633950292801,0.015708887914342815,-0.1303421341277764,-0.9801858994672247,0.1491527088478269,0
191,38.24,0.12711906781066362,-0.9899297945682616,-0.062287594471026775,-0.10886269897718714,-0.9839177776788236,0.1416146868759285,0
192,38.440000000000005,-0.4708693334660181,-0.871232559775167,-0.13869353838185036,-0.3218542376327242,-0.930245038040141,0.17622150526980154,0
193,38.64,-0.9394332406869181,-0.33340054004404857,0.07943088939960367,-0.7391215551797177,-0.6457091769012564,0.19172632978862686,0
194,38.84,-0.9732225032431434,-0.2271974767480433,0.034917985916600065,-0.9526595062743655,-0.23524929417432577,0.19260746272033233,0
195,39.04,-0.9622643908659856,0.271417955679702,0.01948166845949257,-0.9826962485572245,0.03328010159120867,0.18221009277654338,0
196,39.24,-0.8527428664797115,0.5223028492650542,-0.0054163934099623195,-0.9544210604899813,0.2279327713751789,0.19268391480974756,0
197,39.440000000000005,-0.6784181992894597,0.7323174979537126,-0.05882031165899667,-0.8739647662579624,0.4482405849956748,0.1877923462295546,0
198,39.64,-0.49036858336443717,0.8701217119626954,-0.049263158853891875,-0.7187437169734318,0.6687756037385499,0.19012275286075989,0
199,39.84,-0.29251974172027156,0.9530594087822124,-0.07816625893315851,-0.5547904587854744,0.813317401759238,0.17527792455470614,0
200,40.04,-0.2403327156046426,0.9704650830724945,-0.020921480521096134,-0.41074302166759646,0.895475626222996,0.17150385707588645,0
201,40.24,0.10446988992048745,0.9928704119454634,-0.05739675237543869,-0.22470585794013753,0.9581186468484372,0.17752728232219978,0
202,40.440000000000005,0.12367719757971013,0.9908648766065876,-0.053765668472004764,-0.0013299012827890921,0.9817265005094862,0.1902926944472017,0
203,40.64,0.5628175014912333,0.8257234103199494,-0.03764717339665363,0.2551630561944537,0.9465404166458925,0.19736528167164202,0
204,40.84,0.5308303624526778,0.8474642971380402,-0.004836463034749879,0.3751240496633423,0.9028541203590179,0.21008661241240115,0
205,41.04,0.4175762147903027,0.9082908419035289,-0.025255719264785707,0.1861850616983639,0.9653973571107917,0.18260083702950305,0
206,41.24,0.32150245243530795,0.9461221321760416,0.03858865227944459,-0.01438676353458046,0.9882862736815629,0.15193176852656973,1
207,41.440000000000005,0.03900452905260715,0.969364371365669,-0.24251054047242102,-0.08200164841743351,0.9882316008016687,0.12912797076464483,1
208,41.64,0.12053044724096507,0.9580030218780612,-0.26019727392960157,-0.063858831015286,0.9930116522317832,0.09924670389118964,1
209,41.84,0.15422469076581724,0.9361917084558833,-0.31584779526956086,-0.029278064792702396,0.9975398612978323,0.06369474110078294,1
210,42.04,0.18160083834642193,0.9170548165518612,-0.35500929417539084,0.0024151146856226657,0.999419376378676,0.03398642876081532,1
211,42.24,0.1345629586074656,0.921566794907679,-0.3641530621790699,-0.0388429982343666,0.9987135507809461,0.0325954747576965,1
212,42.440000000000005,0.14365942323413972,0.9230282992865375,-0.35690436930953423,-0.0300703948839407,0.9987488841821012,0.03995544639385105,1
213,42.64,0.2670560479317105,0.9636090727871683,-0.011773788912252661,-0.0011267674830853225,0.9990559254139787,0.043427966683440414,1
214,42.84,0.3238527764693968,0.9291294092106269,-0.17843183604103469,0.009901739414803379,0.9988965258401891,0.04590954389842985,1
215,43.04,0.33132197331179164,0.9351046446273117,-0.12571815142297102,0.009295254699229427,0.9988137373951738,0.04779870532516052,1
216,43.24,0.10338512674398259,0.9796272133580666,-0.17216863366025725,0.0093743515131679,0.9988822856953643,0.046328186428051275,1
217,43.440000000000005,0.09622583772706728,0.9792680721787119,-0.178254399567341,0.00720762680758541,0.9990502811457549,0.04297191941711639,1
218,43.64,0.09717080585396909,0.9792240723087813,-0.17798328770055044,0.005353875041738065,0.9992817222202836,0.037515005777708665,1
219,43.84,0.09781311955002853,0.9802311333415615,-0.17198697297123847,0.0025104307262566183,0.9993662305170419,0.035508239040083996,1
220,44.04,0.09681271521491563,0.9827850715737128,-0.1573556521532289,-0.00032210232651730397,0.9993016700029753,0.037364001115463424,1
221,44.24,0.09295678054890794,0.9861377168078294,-0.13744613650089899,-0.0034397542516305113,0.9991818388477773,0.04029666248541096,1
222,44.440000000000005,0.32600719430072167,0.9130529820370697,-0.24505828134830787,0.010905043644487744,0.9991495046429755,0.03976615891444619,1
223,44.64,0.44616579685441704,0.8353966368878809,-0.3210117455696616,0.05531548860725016,0.9979840544164702,0.03111308166358838,1
224,44.84,0.4834462820828527,0.8326509763105915,-0.27013338184919994,0.10172166317738884,0.9941435233938675,0.03648778061834889,0
225,45.04,0.46702599176327664,0.8696195135081627,-0.16015188023671223,0.15675732225466327,0.9868772085023628,0.038736510660247886,0
226,45.24,0.5967554065197924,0.7801029145406002,-0.18794261761148998,0.22747656337801514,0.9723865857176512,0.05214154802167626,0
227,45.440000000000005,0.6097210866819477,0.7764754901216594,-0.15914147698106185,0.37198978309085723,0.9242649648354431,0.08577806277687536,0
228,45.64,0.8305318459014422,0.5465642283542852,0.10716527995124141,0.6098675092983716,0.7697878057471648,0.18838353225578394,1
229,45.84,0.8495301992791771,0.5152625466231365,0.11315011515735059,0.6861121595021904,0.6925753346615011,0.22268702342469562,1
230,46.04,0.8138926947375594,0.40818843365608437,0.4134741637420969,0.646300692473671,0.730539435896278,0.22047119428261244,1
231,46.24,0.7215407506309529,0.48323896605342165,0.4958417558723156,0.6121606654188712,0.7559577311693179,0.2319207373204519,1
232,46.440000000000005,0.6489006466736229,0.5295225277928604,0.5463825064059181,0.5999617768238552,0.7662282073115387,0.2300873761650308,1
233,46.64,0.6932233388803467,0.6627420936671174,0.28322132637446307,0.59502525606309,0.7695061487467729,0.23195954752491563,1
234,46.84,0.6662212840713342,0.679276377737449,0.30778694465203205,0.5789998685618158,0.7796553689489805,0.23853020327503424,1
235,47.04,0.6686237785493061,0.7158781304770567,0.20114856465588604,0.5663837677981509,0.78768898104604,0.2423953314596249,1
236,47.24,0.7725022359606161,0.6106406166023521,0.1742364278540747,0.5657521363978806,0.7875191717428321,0.2444137359043427,1
237,47.440000000000005,0.764734077183301,0.6202937653964415,0.1744059511740056,0.5638306960936725,0.7890942897021126,0.243772738635892,1
238,47.64,0.7531636415153379,0.6338095869852138,0.17615316217709118,0.5589043390257109,0.7923383911959225,0.24459315946136032,1
239,47.84,0.6879753890931727,0.6950917478524633,0.20865599936140233,0.5547530342432736,0.7949807682777597,0.2454682241480233,1
240,48.04,0.6769960344862093,0.7061609000010122,0.20739612484255354,0.550558767006085,0.7969561738795706,0.24848722499954712,1
241,48.24,0.66724198098434,0.7143167958076257,0.21104419925508683,0.5441659386590392,0.800447537684594,0.2513307991830633,1
242,48.440000000000005,0.6607496292345469,0.720095102125379,0.21183241338720793,0.5408687798756435,0.8030125915502843,0.25026334283615903,1
243,48.64,0.6575909381092738,0.7222963458869507,0.2141544929132331,0.5409542271303529,0.8028193457663262,0.25069826926632444,1
244,48.84,0.6537609365207757,0.7250874328820281,0.21643671720858454,0.5405309496771593,0.8036340859140443,0.248995077056168,1
245,49.04,0.4782802702035763,0.8733247947743955,0.09247586693972479,0.5355096947304283,0.8074197092073135,0.24759398222351936,1
246,49.24,0.47445888339657055,0.8754385225171557,0.09217462372616278,0.530192599684022,0.8106106970353001,0.2486083367311786,1
247,49.440000000000005,0.43636480321348314,0.8986800378636939,0.04427130065593489,0.5072383628174708,0.8319865943809565,0.2247388485701348,1
