,timeStamp,x_gaze,y_gaze,z_gaze,x_head,y_head,z_head,fixations_head
0,0.04,-0.9981284065346956,-0.010173231944408662,0.06030082437508756,-0.9938914341370111,0.005020240674634854,-0.11024796747625021,0
1,0.24000000000000002,-0.9979625698820515,0.013736770126927485,0.062305780316853354,-0.9951613321299991,0.02291299419128614,-0.09554537001046072,0
2,0.44,-0.9976102806293137,0.032656914960529866,0.06088722269871895,-0.9944526952413618,0.04400944628724419,-0.09553536290129182,0
3,0.6400000000000001,-0.9982520274314051,0.055244148855837914,-0.020999374902204247,-0.9805579052824663,0.0632336512713348,-0.1857624820434882,0
4,0.8400000000000001,-0.9968799888217912,-0.05875829104917609,0.05270437476762292,-0.9781430660903225,-0.048419655077124854,-0.20221691141354933,0
5,1.04,-0.893205399835195,0.4494045257730972,-0.014821805554913735,-0.9621065416145371,0.1521906131508799,-0.22624990574865278,0
6,1.2400000000000002,-0.6878068024181953,0.7147742719824265,-0.126568331976251,-0.8389357935669733,0.46389505592841684,-0.2845841024325206,0
7,1.4400000000000002,-0.4468088662359668,0.869761020459122,-0.20946981725976008,-0.7247272161862771,0.623872107908636,-0.2924962479973456,0
8,1.6400000000000001,-0.4154265901455566,0.893406815854199,-0.17101172353174374,-0.6075335195472499,0.7429041626273163,-0.2810630316806851,0
9,1.84,-0.157206674454402,0.9787794198736763,-0.1314416552647491,-0.4949851005856575,0.826477960365843,-0.2681863740530501,0
10,2.04,-0.1752237721137488,0.9804232613537901,-0.08981569062600833,-0.4087562573120524,0.8774288957794846,-0.2510714140626878,0
11,2.24,-0.06567436615293104,0.9975282038986722,0.024987197864112347,-0.31265824069369,0.9263577941935187,-0.21001443203562203,0
12,2.4400000000000004,-0.2719800577532156,0.9443035924956458,0.18525002937752894,-0.25509802748329097,0.9570441105384943,-0.13780989390358162,0
13,2.64,-0.21466336510955347,0.9116107673321421,0.3505502083353343,-0.1788570362681589,0.9832459091107969,0.035180147729264984,0
14,2.8400000000000003,-0.1841975140953116,0.8510253118679574,0.4917592849770644,-0.14612599579158742,0.9709489455020943,0.189487040671093,0
15,3.04,-0.17753624817534935,0.849833499652255,0.49624983975072656,-0.12009006904535008,0.9667416402235967,0.2258073877765585,0
16,3.24,0.3944705046576414,0.9065544999835938,-0.15017309850516514,0.010619376883505727,0.9986188959635122,0.05145414909628333,0
17,3.4400000000000004,0.4662330064388853,0.8694845888988241,-0.1631665816716189,0.2613088003483825,0.9617098242708008,-0.08265545814714757,0
18,3.64,0.1588805085957083,0.9430644271189575,-0.29220963415185686,0.34022829106208563,0.9252410000984362,-0.16785053380260237,0
19,3.8400000000000003,0.08418315811084653,0.909792674092789,-0.40643632472698216,0.2991427833679621,0.8975860930195935,-0.3238098219274552,0
20,4.04,0.09696572169308776,0.9808890315736816,-0.16868419177559033,0.26065151129052055,0.9060264952622433,-0.333431821433984,0
21,4.24,0.08739850907063035,0.9776553398541135,-0.19118456283646276,0.23666080506143045,0.9110855200592382,-0.33751272344322575,0
22,4.44,0.7496935429131648,0.6596171829791203,0.053523486741768225,0.5078462372602883,0.8367986574433406,-0.2045976691010677,0
23,4.640000000000001,0.8323360261273032,0.5444822913140027,0.10371004799951816,0.7095944689583462,0.6840600244672994,-0.16893067379703577,0
24,4.840000000000001,0.8396137189571992,0.5350228941920749,0.09380461411464336,0.7615360427199044,0.6253232830190188,-0.1703926270494833,0
25,5.04,0.7350662172756883,0.6705898659220765,0.09993441820825329,0.6446621414851268,0.745780292397767,-0.16799547257861303,0
26,5.24,-0.3299710635435388,0.943703553157035,0.023295943482360398,0.11414074665498647,0.981392837252752,-0.15440203671595806,0
27,5.44,-0.38851633335804925,0.9211612662012161,-0.02273720221552181,-0.40447357204455126,0.9015093638813285,-0.1538895589434307,0
28,5.640000000000001,-0.9599949096874508,0.27909530943548383,0.022706422556069302,-0.779802414297748,0.6095510285682103,-0.14267353723392423,0
29,5.840000000000001,-0.9869243329783486,-0.15914276290133164,0.025572289521521754,-0.9484576751882003,0.3025491916579751,-0.09429753445186141,0
30,6.04,-0.9698623486980622,-0.24006703758063166,0.04165143509098095,-0.9954098697412579,0.07759854427492253,-0.05601479401109624,0
31,6.24,-0.8044482447594155,-0.5911895711173469,0.05794749783711906,-0.9826146142627066,-0.18279151469468935,-0.03249279909416605,0
32,6.44,-0.7388999797525551,-0.6389223979153381,0.21402100215583483,-0.9294166020508005,-0.3689659669629127,-0.006992499943993993,0
33,6.640000000000001,-0.7555526863724646,-0.6000344230720618,0.26286656166947203,-0.8840830053027132,-0.46708770168650865,0.015043891389468185,0
34,6.840000000000001,-0.7576082669241291,-0.5920352869922959,0.27481618009893055,-0.8658408705868943,-0.4989369188679626,0.03716904373095152,0
35,7.04,-0.780835813022219,-0.561307190845716,0.27428027746599126,-0.8719394259115794,-0.4876059363128157,0.044295467188957535,0
36,7.24,-0.7711606988641928,-0.574875989214799,0.27354848482782107,-0.8492566851441404,-0.5259969796095426,0.04571936328980371,0
37,7.44,-0.1756443801200357,-0.9843657713803082,0.0131559821792009,-0.5363895347064753,-0.8416498711774653,-0.0625440756932864,0
38,7.640000000000001,0.27764001001686434,-0.9604254684077594,-0.022337064972190155,-0.211648506370683,-0.9684145524433342,-0.13182626584651455,0
39,7.840000000000001,0.3770423518802372,-0.9261950476100391,0.0013411455017704108,0.1609183165547035,-0.9727270793961106,-0.16705485448412863,0
40,8.04,0.729293394807935,-0.6786722230639622,-0.08680528745956041,0.45748598595487755,-0.8635853192221522,-0.21195982892724619,0
41,8.24,0.9318243936998318,-0.3627385447905279,0.011137658155606802,0.6708043973107947,-0.7164881223833636,-0.19148428403413204,0
42,8.44,0.9970409307694641,-0.03445835849797232,0.06871683854766386,0.9168498421852284,-0.37529725365540123,-0.1361555664805343,0
43,8.639999999999999,0.9989633590612587,-0.019977901142039838,0.04090343162872409,0.9725383039683858,-0.19634234180935994,-0.12497572615157139,0
44,8.84,0.8310720242764846,-0.5554045063805269,0.029071029517195972,0.9481480293022232,-0.29593426416904345,-0.1159233618432336,0
45,9.04,0.7992843358198509,-0.6001534237757372,0.030990618633398095,0.7545500151935516,-0.647644447790759,-0.105881744494574,0
46,9.24,-0.3362465066193689,-0.9304646633952924,0.14551218835189034,0.03405188130790021,-0.9989724655405153,-0.029907899814214964,0
47,9.44,-0.7547606005876515,-0.6412679077837244,0.13824581819083046,-0.5340461455778598,-0.845427958303248,0.006803066413994759,0
48,9.64,-0.91436214344605,-0.37323900242242514,0.15695387125986393,-0.8445871477489731,-0.5333457592126518,0.04706220338163135,0
49,9.84,-0.9605731406004123,-0.19719985184502564,0.1959884179980056,-0.9608987426065432,-0.2706710539266438,0.058401943661186846,0
50,10.04,-0.9646907156871678,-0.15368250408235717,0.21390070361257968,-0.9837827611064094,-0.164133878326833,0.07232944722063094,0
51,10.24,-0.9310496027012558,-0.20876603250681405,0.2992714169131387,-0.9886263125775039,-0.11609211861170389,0.09560666334337865,0
52,10.44,-0.9271118787368227,-0.19830527389949032,0.3180229278664151,-0.9874005424234154,-0.09412933875298997,0.12719998587999393,0
53,10.64,-0.9381905169786613,-0.1583024903693329,0.3077968086159753,-0.9898421630532077,-0.0506922417200007,0.1328261603433155,0
54,10.84,-0.951570945703669,-0.1136875524447229,0.2856359146041571,-0.9934064513066574,0.0090982391145614,0.11428405202532778,1
55,11.04,-0.94090858709477,-0.14955074528471143,0.3038512881593745,-0.9863291738116552,0.10129032151546999,0.1299808895773167,1
56,11.24,-0.9409760394763236,-0.14260868144323322,0.3069639345403223,-0.9787662961968349,0.14475010827036702,0.14513422609724808,1
57,11.44,-0.9440759956798092,-0.19239601835794673,0.2677765607763048,-0.9889606075551316,0.10143622496563749,0.10801670689715573,1
58,11.64,-0.9751455951957484,-0.20144139764957109,0.09226283912451985,-0.991305248797103,0.07649217704247467,0.10706470267374314,1
59,11.84,-0.971778329428549,-0.2241719212864063,0.07344268622415659,-0.9953963651391589,0.036770495285235905,0.08850992568197635,1
60,12.04,-0.9527115656594085,-0.2333558038609396,0.19464259930244782,-0.9977161469575161,-0.013002300698392501,0.06628295615613984,1
61,12.24,-0.9529615458572828,-0.2257931947928924,0.20219229783183462,-0.9971302684640253,-0.023822141139704846,0.0718591212330157,1
62,12.44,-0.9468123822383616,-0.20165330205570542,0.25076335180833265,-0.9945814880798205,-0.005869260223398838,0.1037941007637722,1
63,12.64,-0.9431680310874415,-0.19611129491013013,0.2682804971355753,-0.9934049639034954,-0.002829391780373133,0.11462361115428224,1
64,12.84,-0.9440943147583312,-0.1915312414269954,0.26833134069361236,-0.9934714274960218,0.0020511783586751303,0.11406276963302976,1
65,13.04,-0.9456805489184679,-0.18222535928082373,0.2692252176751657,-0.9933170368712959,0.013058580424622176,0.11467666605950178,1
66,13.24,-0.9469450844486298,-0.16499984615253746,0.2758080089631497,-0.9922116045736519,0.032713601108379835,0.12019131437795798,1
67,13.44,-0.9526619458705756,-0.13240420914351309,0.27368657674641184,-0.9914685912040735,0.06808452807749442,0.11115093203511464,1
68,13.64,-0.9874646112897316,-0.14208697359760536,0.06873815086466092,-0.9925976418464741,0.08149489803419128,0.09004722647153575,1
69,13.84,-0.9848204182242443,-0.1607766701427475,0.06541869905795143,-0.9955456589025257,0.05004928022463189,0.07989937790328856,1
70,14.04,-0.9837012117061745,-0.16891348882286666,0.06164543277073548,-0.9973076889337957,0.020512390233846482,0.0704032345878082,1
71,14.24,-0.9857605049095798,-0.15881084435200313,0.055275154243241816,-0.998136667277896,0.010893361984600855,0.060037722308961115,1
72,14.44,-0.9956288369766585,-0.024009728779919456,0.09025935909600367,-0.998071919627418,0.02389044284232355,0.057286036623582885,1
73,14.64,-0.990374658398522,0.02735201687662592,0.13568309833870934,-0.9964742389237156,0.05238288887430744,0.06553719641992627,1
74,14.84,-0.9501190964968776,0.06136244892426217,0.305791354249878,-0.9937230667368653,0.08883930566657806,0.06798561909521708,1
75,15.04,-0.9485624643620916,0.07656080472221348,0.3071932525033765,-0.9919173604554486,0.10462671388674807,0.07178579781792892,1
76,15.24,-0.9473103748358488,0.09332055885139288,0.30642181225237164,-0.9899923083446716,0.11906849269117192,0.07574908228249924,1
77,15.44,-0.945011956659602,0.13400627650909852,0.298319827746259,-0.9846147294927503,0.15840919147355398,0.07375881318604133,1
78,15.64,-0.94043388690363,0.1692825440749893,0.2948347412277423,-0.9774745497949238,0.19702526837925918,0.07566074360784564,1
79,15.84,-0.9362812581288606,0.18765653893196205,0.2969215874144469,-0.97284160779751,0.21607321202528199,0.08301549965538634,1
80,16.04,-0.9337667029250248,0.20086712341909763,0.29619612292848313,-0.9706168371649199,0.22473657557950505,0.08600248257326787,1
81,16.24,-0.926769533152136,0.23567364807096192,0.2924998530356828,-0.9635707425989393,0.2534020285028446,0.08555019554607633,1
82,16.44,-0.9248397231292435,0.23791255653407373,0.2967643879673664,-0.9646063169891977,0.24644042463447544,0.09381775061530138,1
83,16.64,-0.9197530057101708,0.30590005665662917,0.24592593158220896,-0.9702469005118942,0.22071642911922146,0.09952492132085371,1
84,16.84,-0.9135200200493898,0.32290562571786696,0.24741287324776687,-0.9697407008308342,0.2238353605539559,0.0974715574811626,1
85,17.04,-0.8954295597263229,0.3745976628423523,0.240587810500389,-0.9577096409141136,0.2743736873613804,0.08666789130859977,1
86,17.24,-0.8695230966824601,0.4327316904339901,0.23806064023665666,-0.9360997790121488,0.34246628148134917,0.08021252883274323,1
87,17.44,-0.8521808637374082,0.46376144574758427,0.24230785566686716,-0.9189777969993316,0.385627960258609,0.08228538684991518,1
88,17.64,-0.8447574278922704,0.4746834722729848,0.24710420711047842,-0.9098261758066692,0.4065147590661722,0.08343908243972892,1
89,17.84,-0.8416041896345108,0.48224987716221374,0.24318191537749667,-0.905891711764512,0.4158507935345827,0.08017683002601302,1
90,18.04,-0.8427580319944912,0.4868389059413998,0.22966666969883334,-0.9065324485456756,0.41628492566437225,0.07004127639035752,1
91,18.24,-0.8309866882656555,0.5100613384120477,0.22203277907234575,-0.897481428430503,0.4360016379062522,0.06655567117390787,1
92,18.44,-0.7938695910355315,0.5728052163086325,0.2041206912556854,-0.8642361812627406,0.5004970554754798,0.050975684956362316,0
93,18.64,-0.4509626767385343,0.8691571116856239,-0.20297433186272645,-0.8047600508201979,0.5918183029515964,-0.04596038397756698,0
94,18.84,-0.3794095422910191,0.8894987690967757,-0.25463766216693223,-0.661915940332062,0.6877203778710996,-0.2981743949355047,0
95,19.04,-0.7537396672559853,0.6560420772166805,0.03853967989046566,-0.59338012776311,0.7424273522563294,-0.31096889007984657,0
96,19.240000000000002,-0.7657783878096456,0.6117106077541304,0.19847819307100792,-0.590694280802947,0.7541014973534529,-0.2870735068165807,0
97,19.44,-0.7321724704797976,0.6354146501513308,0.2452991965836256,-0.5679292504293736,0.786902371289008,-0.24133177280761528,1
98,19.64,-0.7175691060883461,0.6528486440773669,0.24265866132062047,-0.5581560368062538,0.8040367396774919,-0.20490671005490552,1
99,19.84,-0.6688286483964345,0.7175376730706325,0.19444260543559133,-0.5901502856372896,0.7901593234545953,-0.16544148185990684,1
100,20.04,-0.6358030061741733,0.7454666784884837,0.20008490348657482,-0.5738142133956182,0.809125651620813,-0.12670015151673297,1
101,20.240000000000002,-0.6196975957580265,0.7808812582313015,-0.0787359533810394,-0.5603095193417453,0.8216600090006303,-0.1045374198270977,1
102,20.44,-0.6114012015214574,0.7855757121140726,-0.09518072974392504,-0.5581637348229622,0.822640964118216,-0.10823626602546067,1
103,20.64,-0.6039976687360872,0.7920599801434671,-0.08847487788351253,-0.5577242025179773,0.8240476253541783,-0.09944458292851475,1
104,20.84,-0.5873853463784162,0.8038424667976423,-0.09389219047710735,-0.5480446495507698,0.8301913748353182,-0.1021241560445815,1
105,21.04,-0.5186578897675059,0.8547866030781117,0.018271742667313334,-0.5335408860409766,0.8402135501965559,-0.09682619990844048,1
106,21.240000000000002,-0.5054516252489754,0.8621076715533158,0.03590288542846366,-0.520684926911325,0.8484380085767281,-0.09507971649991512,1
107,21.44,-0.48908038581436497,0.8672472253288034,0.09318061156251153,-0.505901667792331,0.8573239929393475,-0.09517916607888266,1
108,21.64,-0.47680399947989033,0.871235871378194,0.11664477058085332,-0.4961221395065176,0.8635178749241431,-0.09055220802369907,0
109,21.84,-0.3199038418272983,0.9474265424052273,0.00666923760344635,-0.49292297328140977,0.865720945310874,-0.08691482762717606,0
110,22.04,-0.30596528031395254,0.9520277771916118,-0.00532528853707082,-0.48992649495850255,0.8674808777717157,-0.08630733594596897,0
111,22.240000000000002,-0.36812517209883105,0.9242289577696581,0.10141346699141103,-0.48240747192821465,0.8720006988685178,-0.08305306858055049,0
112,22.44,-0.2738055967491458,0.9573896248582746,0.09184553011756326,-0.38081523334673645,0.9195817448070158,-0.09669111990640784,0
113,22.64,-0.29529513550986014,0.9458508162103136,0.13478507491001054,-0.2985553915792794,0.949425724952912,-0.09723924596879954,0
114,22.84,-0.046670380722631355,0.9968441434011766,-0.06421549135512038,-0.23346627456932606,0.9643148584386844,-0.12486133281805056,0
115,23.04,0.1936738001588703,0.9650100156355451,-0.17676574570630751,-0.10122015941251217,0.9841126065213556,-0.1458658870821051,0
116,23.240000000000002,0.1997081179640786,0.953198242964939,-0.22700171194904886,-0.04922190738406357,0.9764454532098374,-0.2100749407695019,0
117,23.44,0.03338506901655797,0.964494485128291,-0.26198439900855286,-0.018992889855182604,0.9401521660144345,-0.3402251825972269,1
118,23.64,0.028551968256180837,0.9590333378822998,-0.2818507440810344,-0.010400305792681863,0.9098939010673205,-0.41471064905535304,1
119,23.84,0.009021734971360551,0.96486249154442,-0.26260042023728875,-0.02462692885782386,0.9034276442489342,-0.42803271601812576,1
120,24.04,0.001309339080213856,0.9665475850153363,-0.25648401808337834,-0.03157911273325281,0.8996327514105514,-0.43550392906202534,1
121,24.240000000000002,-0.0006806859181142655,0.9681368249311398,-0.2504208954519021,-0.0344321171467607,0.8991521745988993,-0.43627949324127335,1
122,24.44,0.0051176309667611,0.9697448555841207,-0.2440670500526873,-0.02938406342034483,0.9000863771346586,-0.43471955386607003,1
123,24.64,0.007021058969074956,0.971075666746782,-0.23866871220008246,-0.027273899563285908,0.9017044966951341,-0.431491755474409,1
124,24.84,0.09669531115742608,0.970065433556193,-0.2227623653573548,-0.012449446138385944,0.9036146762711897,-0.42816530466416913,1
125,25.04,0.10191386904768285,0.9694386613286212,-0.22316416651672172,-0.0015306261282976852,0.9039201540290113,-0.4276985063380793,1
126,25.240000000000002,0.23751739595020233,0.9654611735580454,-0.10709906149428562,0.03494243559691523,0.9252183887927485,-0.3778226557980687,1
127,25.44,0.2662155981748395,0.9514280876159534,0.1546410339588496,0.11408426263774474,0.9702539609081979,-0.21352290828001355,0
128,25.64,0.2541830648321941,0.9214596150678012,0.29377397323727006,0.14935879119466478,0.9880503810086114,-0.03805779922179742,0
129,25.84,0.24899894157260666,0.8673513769268929,0.4309305234475098,0.17401655437243385,0.9822363685795421,0.07021363858980431,1
130,26.04,0.2452142283197441,0.8550631582183147,0.45687742085517224,0.1863597981919103,0.9759394560440304,0.11319100562479477,1
131,26.240000000000002,0.41300529017438276,0.793929727670466,0.4462087155234349,0.2107578946671923,0.9678958465225828,0.13696255006309555,1
132,26.44,0.2997376335549677,0.8908535595248404,0.3413755798424802,0.2325519321044593,0.961565815776082,0.14598212495152002,1
133,26.64,0.15977297864487722,0.9565928473981868,0.24372673140542706,0.23059854103301902,0.9645104278904181,0.12862327691396205,1
134,26.84,0.16089282685176426,0.9632044895447617,0.2152919171461462,0.2326734661486195,0.9684925604417176,0.08879875291598131,1
135,27.04,0.39789640270269705,0.9120459417491057,-0.09925045518908204,0.2479497824507954,0.9685220739956839,0.022043084305568915,1
136,27.240000000000002,0.39420855904317803,0.910629415600279,-0.12390996497697707,0.25126360983323115,0.9676924849595581,-0.020924935516501684,1
137,27.44,0.37978712711319823,0.9146189509159941,-0.1386863825486482,0.23564566974008389,0.9703463992345365,-0.05384221229962041,0
138,27.64,0.3679301478654072,0.9123720034997502,-0.1794567734068339,0.21866092875851834,0.9683309744470938,-0.12050942768432632,0
139,27.84,0.5062662617044771,0.8398768871549225,-0.1957071452010168,0.2472097099688097,0.9311136777047604,-0.2681691229210639,0
140,28.04,0.559503534412302,0.8144886385130296,-0.15350587191808998,0.3191556712039841,0.9092882804764642,-0.267085155945608,0
141,28.240000000000002,0.5992293790471668,0.7915110501391508,0.12014328443307162,0.38676861294301046,0.8909528669490435,-0.23793492580413628,0
142,28.44,0.6379292384912151,0.7537920955709226,0.1576190449559175,0.45127056927358644,0.8759788505019611,-0.17034061987898405,0
143,28.64,0.6281273064369861,0.7303642678122517,0.26837310448569623,0.48686211859409434,0.8672982920678242,-0.10372535878128107,1
144,28.84,0.6107149456026049,0.7222302479218037,0.3246701775716662,0.48795056384693836,0.8718855771543874,-0.041470321817126406,1
145,29.04,0.6093251757162353,0.7109478409277836,0.3511068181031265,0.49016594349737647,0.8715383133734661,-0.012582374873629436,1
146,29.240000000000002,0.6217645456556073,0.6947932894701091,0.361484625776784,0.5060943325467107,0.8624734262260841,0.0028487923649765374,1
147,29.44,0.641926210459602,0.6719350748133025,0.369369727455589,0.5320315225068172,0.8465475467654549,0.017312138067506838,1
148,29.64,0.6435966902822233,0.6626906751088846,0.3829156165286275,0.5343324432792924,0.8443588000031094,0.03933264441263443,1
149,29.84,0.6225693325980423,0.70260044307613,0.34461579113217383,0.5222640406459265,0.8509067781872793,0.05655021382041678,1
150,30.04,0.6288678298965091,0.6837621510738767,0.3701277796654561,0.5173086182975388,0.8528770363061605,0.07065800999682817,1
151,30.240000000000002,0.6300137400543215,0.6795970068754673,0.3758065933278336,0.5107948760651192,0.8562223175921465,0.07727831159357104,1
152,30.44,0.636954243485905,0.6746628681070883,0.37298700527339596,0.5121905697341078,0.8555717997948272,0.07521778826375056,1
153,30.64,0.6554648015946752,0.6617498744725816,0.36394092584645604,0.5308648390703089,0.8448101599069785,0.06692022382509466,1
154,30.84,0.6564262846240165,0.6674757681904978,0.35154036999072324,0.5308244601246945,0.8441582801864425,0.07498126783400388,1
155,31.04,0.6439736744739604,0.6857778537656004,0.3391262919166729,0.5203041142720641,0.8512534468079993,0.0681996918546121,1
156,31.240000000000002,0.6266693300434036,0.7033122676460344,0.33561496534204915,0.49788309917165546,0.8640648109972787,0.07419179169870972,1
157,31.44,0.6472709100370575,0.6823768310282303,0.33970903652341905,0.5141009342193873,0.8539600870688631,0.08032682695148485,1
158,31.64,0.6508817215489783,0.6674752386712496,0.3617040092592242,0.5244106070724153,0.8450908162345078,0.10399532444314415,1
159,31.84,0.6767728658920582,0.627191685082225,0.3854984800955374,0.5556280601605073,0.8197893047997941,0.13864686977404805,1
160,32.04,0.8553731751836633,0.517705090559248,-0.017837331225802635,0.5743242140854483,0.8046841271608943,0.1504498341987849,1
161,32.24,0.6579465729931222,0.7042085704764743,0.26682690335512727,0.5494216573218937,0.8196061366738375,0.16242420753154474,1
162,32.44,0.6541907846175297,0.699502050214667,0.28763049050296874,0.5337333735749135,0.8205410436271001,0.20455092680232878,1
163,32.64,0.6444616772506018,0.7077947898640949,0.28930206013193727,0.5119692192540768,0.8317078147487205,0.21482464807903132,1
164,32.84,0.6154471493849093,0.7297950304984624,0.2976978665925204,0.4834692713818578,0.8514063434505558,0.20338314079994407,1
165,33.04,0.6491771469607892,0.7033629709801039,0.28956788999799493,0.5237589209835422,0.8284208133056632,0.19848311961509363,1
166,33.24,0.666795810269214,0.6957671147536992,0.26700462436957,0.548330945423522,0.8175014226607024,0.17613800906866736,1
167,33.44,0.6763250432411603,0.6779409228614286,0.2880634322412988,0.5676707630076747,0.7979654002847276,0.20248734472731636,1
168,33.64,0.6892459164827667,0.5988392388552135,0.40783775281248696,0.5749176142529904,0.7963995950947964,0.18766305378122294,1
169,33.84,0.6979412161002614,0.5754273008289896,0.42633493913723697,0.5925179688771498,0.7782190978844254,0.20808049463043968,1
170,34.04,0.6313867697213381,0.7185069207189113,0.29171656089410175,0.618684880382945,0.7605025010344728,0.19714199122929826,1
171,34.24,0.6226320057763612,0.7288563191626788,0.2847768449146396,0.6213235431651885,0.7614299568188292,0.18488232897584383,1
172,34.44,0.6115808273491364,0.7377043682476095,0.28593907862924395,0.6074597786872065,0.7732895978798825,0.1817025456290031,1
173,34.64,0.5886197459653473,0.7521333053461314,0.2963482506254984,0.5758345419272556,0.7946600285496971,0.19217184848156732,1
174,34.84,0.5668636327746146,0.7698034464327473,0.29337395197568433,0.5424752863543467,0.8176544354478444,0.19277392948019778,1
175,35.04,0.6237087374159228,0.731142153580237,0.27643907489551606,0.52800987366043,0.8268199481826484,0.19384103436666703,1
176,35.24,0.6362863531943104,0.7172332711129081,0.2841058104780032,0.5375419015042753,0.8174022975124355,0.20712843394512523,1
177,35.44,0.6474927266610022,0.7062423345166408,0.2863126505371109,0.5499292933545977,0.8073215307180843,0.21403204981853155,1
178,35.64,0.6484839310954891,0.7020762250827097,0.29420667104019427,0.5515151506669389,0.8026727103527128,0.22704087438136242,1
179,35.84,0.8047598641742287,0.5085250051512937,0.30620888319928596,0.5496530047307657,0.8014688837962761,0.23564635090913721,1
180,36.04,0.8154906550438115,0.49609180073422915,0.2981072236301654,0.5587048809945235,0.7974090043856814,0.22800819212811657,1
181,36.24,0.7247798532893497,0.6300000295660027,0.27891598558115066,0.5983198469637603,0.7669795276416705,0.2318528949739953,1
182,36.44,0.7490200282480957,0.6048722310668461,0.2703674931781511,0.6387875670096935,0.7369733579213958,0.2209540991878154,1
183,36.64,0.7592385592797786,0.594084942895361,0.2657440323465089,0.6668287031959559,0.7127675046808952,0.21749014889178372,1
184,36.84,0.736873984580843,0.6007092844458325,0.3101049603417014,0.7102050252441413,0.6723580455657254,0.20867074706581795,1
185,37.04,0.7842831408278391,0.40761086741092634,0.46771073943382185,0.7334975700308655,0.6437883484936956,0.21798595620492542,1
186,37.24,0.7838260367254208,0.37474925576420254,0.49515627781084964,0.7463879338096079,0.6291088385105325,0.2170878199516349,1
187,37.44,0.8023920526196677,0.35912672272505064,0.4766497570728017,0.7667746134023558,0.6091264297985457,0.20253810693927515,1
188,37.64,0.8092222204925081,0.3624180829595726,0.46239867106760035,0.774651050205756,0.6019848168785892,0.19372669063082462,1
189,37.84,0.7965348790135334,0.38643493701533194,0.4649733604937515,0.765800330291502,0.6114097686320308,0.1993187119834796,1
190,38.04,0.780923002947372,0.4053119004188684,0.47526995155017354,0.7523771285781944,0.6232498474557447,0.2132798256723368,1
191,38.24,0.7558667269337952,0.3966635655271793,0.520887230499709,0.7360817477816581,0.6235930321659493,0.26327816243808866,1
192,38.440000000000005,0.7374346137489063,0.4104979766450628,0.5363595823841603,0.7187731598337059,0.6363027071588687,0.28014997691408977,1
193,38.64,0.7320748083396081,0.41429824834751033,0.5407619036236843,0.7096798964367506,0.6424419464101472,0.28917605379122385,1
194,38.84,0.7141633257551117,0.419771713619872,0.5601450281766628,0.6913049380218558,0.6540567338681552,0.3070948901371037,1
195,39.04,0.7931512580307166,0.418419938803359,0.442533430032224,0.6820184227287219,0.6631524164119742,0.3083500343207154,1
196,39.24,0.8174652962443629,0.38992460567056897,0.423921326815209,0.7059191749201998,0.6440051459306965,0.294848249943538,1
197,39.440000000000005,0.8432027495603951,0.33840461132183025,0.41772172815154207,0.748068258975615,0.5939970399876571,0.29590774981249396,1
198,39.64,0.7592012557910846,0.296891529123111,0.5791967482127134,0.7672017812953286,0.5628666789695931,0.30754272627232804,1
199,39.84,0.7549543474765612,0.28396509702795364,0.5911072296090993,0.7697904057909356,0.5614528621959525,0.3036336850288513,1
200,40.04,0.7428157250321543,0.2962897670954279,0.600364199931585,0.7545169114318123,0.5824702298492829,0.30237834198686014,1
201,40.24,0.7392243262725902,0.3112610030909406,0.5972135157560126,0.7471791864159003,0.5976643876721077,0.2907241701259084,1
202,40.440000000000005,0.7233974308749576,0.3181624058328874,0.6127551228004058,0.7308517028631394,0.6104642403094324,0.3052690611992595,1
203,40.64,0.7129087344727356,0.320479918199989,0.6237417401000284,0.717856511614746,0.6198494054446144,0.31696804776233534,1
204,40.84,0.7225335187708845,0.2858811713380747,0.629457917677532,0.7377357747880476,0.5906018506827017,0.32700975607471877,1
205,41.04,0.739532240491374,0.20565071904713372,0.640936695024716,0.7846927517497067,0.5165124758117521,0.3427421008313502,1
206,41.24,0.7536233232821965,0.10465474679152978,0.6489216212911225,0.8434226397954081,0.40398502281213067,0.3541671244257823,0
207,41.440000000000005,0.6903695583449375,-0.010152635948754787,0.7233856488028416,0.8534445732882023,0.275435273648535,0.44245651803886377,0
208,41.64,0.6307799141359499,-0.049479917225863534,0.7743826171305535,0.8348375414140823,0.21546957678993578,0.5065758984828,1
209,41.84,0.5690308808730709,0.00285849755719338,0.8223111853821111,0.8124399020141997,0.19013136885035012,0.551172811552103,1
210,42.04,0.5353505529140248,0.008224909995164325,0.8445899220037019,0.7905041992138451,0.19647933612722568,0.5800853226037375,1
211,42.24,0.49635445902917896,0.00849301353397043,0.8680784064374388,0.763017070633855,0.2069148033616433,0.6123652619729038,1
212,42.440000000000005,0.46122293350343563,0.015426895773157154,0.8871501656976062,0.7356643213416121,0.21581149591661306,0.6420462635474324,1
213,42.64,0.7109482640596774,0.08944153512626775,0.6975333523386451,0.7431065749572878,0.2369911134885855,0.6258017500636198,1
214,42.84,0.7389685252358558,0.08117732761777244,0.6688316381508739,0.7679983072050953,0.22877627343974724,0.5981973059460655,1
215,43.04,0.8329927344917892,0.052566675932085465,0.5507811260976023,0.7989768248222212,0.25995745022654265,0.5422712950809,1
216,43.24,0.8491619606212426,0.24330132746897296,0.46875199059387773,0.8395876196317404,0.34976590490420273,0.4156397968525784,0
217,43.440000000000005,0.8772786253534678,0.33099276207981687,0.347600352342606,0.8561864648899331,0.4514604490687464,0.2512532592145333,0
218,43.64,0.8831789085829964,0.35184159420664607,0.31016529145001587,0.8630673638093227,0.5048498045722619,0.015537063769435672,1
219,43.84,0.8856093680901994,0.33512471805031663,0.3215392207842984,0.8706573367209479,0.48626438640490205,-0.074180513130136,1
220,44.04,0.882522701282776,0.32413793644562416,0.34071730199290606,0.8761136927809479,0.4740566545983211,-0.0877216367424791,1
221,44.24,0.8718327929843454,0.31530060233604923,0.3748241070737588,0.886692133249793,0.45817933996974186,-0.06203832088172192,1
222,44.440000000000005,0.8479540627019654,0.3379457465505749,0.40837064039375565,0.8815906767197152,0.4712413995471646,-0.02700781504869429,1
223,44.64,0.8174816773627991,0.39123647726133787,0.42267922356823145,0.8436456530297138,0.5368478669964069,-0.007508650043491526,1
224,44.84,0.03938023795225687,0.99688129327148,-0.06838774732512556,0.3724058170803948,0.9131030397780283,-0.16600224743300415,0
225,45.04,-0.4749631511224118,0.8302899447043716,-0.29159666115832183,-0.2008935569121873,0.9149728907364947,-0.3499519795750165,0
226,45.24,-0.7265197532577563,0.5343333593882711,-0.4320380876394281,-0.4478494036623543,0.7815936952865529,-0.4342144713474953,0
227,45.440000000000005,-0.7267503833522826,0.5258087277393659,-0.441994414139387,-0.5111692729996755,0.6374876384225867,-0.5764681129077103,0
228,45.64,-0.38454495453919735,0.5119332943958624,-0.7681467828660393,-0.42026870286674056,0.5915977425278942,-0.688030761250256,0
229,45.84,-0.24127752892948573,0.6423768401263987,-0.7274181392451695,-0.20324611561028905,0.7257803582688893,-0.6572167740102284,0
230,46.04,0.49708335125274616,0.7853247745157821,-0.36901645009277734,0.1929917878043988,0.8114883090251264,-0.551580360560094,0
231,46.24,0.5819045934620688,0.7662073778449754,-0.2726046555795987,0.34218348193880677,0.804170329545095,-0.48602525219124926,0
232,46.440000000000005,0.6477243442509093,0.7452000024549846,-0.1585248567443618,0.5437143340477346,0.7763614905386672,-0.31880646003430907,0
233,46.64,0.5701638079860674,0.7781428983859168,0.26345182055622995,0.5743718830241565,0.8185367778880817,0.009720248756204435,0
234,46.84,0.43332426809406777,0.7830826452172356,0.44610721742683984,0.48500281375392085,0.8491248368246799,0.2091871940111066,0
235,47.04,0.4032417017882904,0.8446015205596917,0.3521993773520057,0.3190822074993367,0.9154982327066737,0.24505005767864627,0
236,47.24,0.4377611513490488,0.8421038528867956,0.3150020243153519,0.3305724996121396,0.918986649197673,0.21490779673296043,0
237,47.440000000000005,0.38251527487919407,0.8858519012831646,0.26258041335388504,0.2208483966252372,0.9736862338051594,0.05622369435021778,0
238,47.64,0.35294481985417264,0.8954040399892575,0.27144347350603526,0.189917291367925,0.9793772853066435,0.06893152736491502,0
239,47.84,0.31940504180712304,0.9084841884460836,0.2695123348042742,0.15909945298435113,0.9840826080970418,0.07917565598720691,0
240,48.04,0.018918432122595807,0.9419766128061323,0.335144974380206,0.13138506685947415,0.983865284475072,0.12143749919657165,0
241,48.24,0.12295546332558749,0.8704887553494817,0.4765829212723644,0.0955034182478322,0.9768603142681673,0.19137142814662111,1
242,48.440000000000005,0.13170771002650322,0.8434504326596275,0.5208113350973284,0.08497834493524342,0.9631092334354767,0.2553415073257679,1
243,48.64,0.1327944193225321,0.8514941426659071,0.5072705069314042,0.08810953598405574,0.9573663486595906,0.2751115848576313,1
244,48.84,0.1308264196318698,0.8570636848390514,0.49832347732814447,0.093833714185588,0.9538586212999685,0.2852173989325703,1
245,49.04,0.124940003125113,0.8618360197106483,0.4915573931377743,0.09639794420648079,0.9520670120369534,0.29030301573320283,1
246,49.24,-0.26751788667515086,0.9397196762457343,0.21298147897287642,0.08653201603012023,0.9555657161016582,0.28179136326879883,1
247,49.440000000000005,-0.3171198251419661,0.9412316128581566,0.11626722435132852,0.031498944576019205,0.9896368176478338,0.14009563036178319,1
