,timeStamp,x_gaze,y_gaze,z_gaze,x_head,y_head,z_head,fixations_head
0,0.04,-0.9937007046044537,0.09602544763866774,-0.057775626992756686,-0.9942211551345985,0.09823446635035717,-0.0432930052512594,0
1,0.24000000000000002,-0.9955541982679227,0.052431748791389954,-0.07824800335977072,-0.9952248491785771,0.06880300604529284,-0.069236160614308,0
2,0.44,-0.9960471022449287,0.033323736432298065,-0.0823389257864793,-0.9956544592319516,0.05166419812404143,-0.07747908391127138,0
3,0.6400000000000001,-0.8803572861265003,0.45103932666943414,-0.14674663390199688,-0.9898645563299642,0.08476790719384591,-0.11394104629877051,0
4,0.8400000000000001,-0.8171986022427327,0.48042371844391685,-0.3184014686665941,-0.9714266755238785,0.1322714040893301,-0.19706468415437153,0
5,1.04,-0.771076406692886,0.02759185149158663,-0.6361445313549854,-0.9520470679028088,0.08284133552372565,-0.29452282360847726,0
6,1.2400000000000002,-0.7530872752717879,0.03564842862983175,-0.6569541425091544,-0.9251034386231036,0.03932436748721482,-0.3776734329674786,0
7,1.4400000000000002,-0.6494150474915685,0.024876043593247205,-0.7600271564534195,-0.8901502523687571,0.021899251380611884,-0.4551405837725384,0
8,1.6400000000000001,-0.6668756649851036,0.03496992053670981,-0.7443480047050118,-0.8888473038813722,0.030213627112232695,-0.457206306955119,0
9,1.84,-0.6734574808721367,0.5945415573269566,-0.4392896061467798,-0.8765624426164507,0.14424150004461567,-0.4591651923427569,0
10,2.04,-0.6214765170600351,0.6718816872338536,-0.4029167868216935,-0.845787148126671,0.3567741430040972,-0.39668162416154995,0
11,2.24,-0.5483384981426926,0.7852648208409659,-0.2875483482898521,-0.7847282197094654,0.533563152587007,-0.3154552002947925,0
12,2.4400000000000004,-0.4723126965771971,0.8638512674811163,-0.17516193742718666,-0.7354522261929392,0.6185813439683197,-0.2765269315676096,0
13,2.64,-0.44164920107532285,0.8818408201788336,-0.1652354412825863,-0.6988449796904179,0.670270519774613,-0.24970607658318997,0
14,2.8400000000000003,-0.4431848485998268,0.877006935533811,-0.18559640351349033,-0.6105137330002985,0.7580072077154291,-0.22956056906511357,0
15,3.04,-0.3320752623807065,0.92724320224998,-0.17304931087984057,-0.5583366607047688,0.8068212402854568,-0.19313119773171047,0
16,3.24,-0.4529341059684181,0.8774562759403502,0.1578644338142126,-0.5784916909516963,0.8001380330394601,-0.15851337982514774,1
17,3.4400000000000004,-0.5054235851578198,0.8412596227803508,0.19190947513262108,-0.664101627315076,0.7423357730063302,-0.08891922577577036,1
18,3.64,-0.3028276016404427,0.9343921427022717,0.1876346645504385,-0.6598433820839744,0.74955263885298,-0.05270249243172757,1
19,3.8400000000000003,-0.2987736820673751,0.9395591869589368,0.16722087520691012,-0.6519603441781139,0.7557278550043943,-0.06183137382924926,1
20,4.04,-0.29749591072209614,0.940560275793294,0.16383696378800833,-0.6484126892629137,0.75887503863092,-0.06057771987914352,1
21,4.24,-0.30852815535988887,0.9372772465729571,0.16223976210177624,-0.6564257776256888,0.7518584110819788,-0.06175862817284783,1
22,4.44,-0.6619216647900515,0.7305393756434596,-0.16784495916181347,-0.7429696144692294,0.6645930336839545,-0.07944967938389018,0
23,4.640000000000001,-0.9329138148075673,0.23265951063341897,-0.2748478965773796,-0.9038149339983852,0.4157221070139496,-0.10145784751007245,0
24,4.840000000000001,-0.9438397635511213,0.2453126545623543,-0.22133278620966793,-0.9887617927615623,0.105255063852815,-0.10616726759355394,0
25,5.04,-0.8754490664095609,-0.4831276107069524,0.013290744720282877,-0.9798689781081729,-0.1665275192227059,-0.11011526271492234,0
26,5.24,-0.650305750398207,-0.7433078529289668,-0.15683069461414242,-0.8970804896799284,-0.4306734251979257,-0.09882811272055618,0
27,5.44,-0.5116208853287632,-0.8488215265076441,-0.13321443552650625,-0.7302989381733336,-0.6736727164424244,-0.1132631097223908,0
28,5.640000000000001,-0.09629647418406678,-0.957704812519955,-0.2711613562730411,-0.5334206751790986,-0.8350869077680267,-0.1345073966959063,0
29,5.840000000000001,-0.049477002654227165,-0.9609235833414168,-0.2723561880821596,-0.3618667391132654,-0.9178339808914174,-0.1631969566031964,0
30,6.04,0.2880461051758683,-0.9370269976382034,-0.19750910609424305,-0.18589434628705354,-0.9724969857054779,-0.14033141064020033,0
31,6.24,0.43767644165311076,-0.8931885850923387,-0.10321571528898875,-0.006533726513900828,-0.9918540924862006,-0.127211515344395,0
32,6.44,0.4814692745921293,-0.8739440402535574,-0.06640144673888876,0.11181446218688029,-0.988125256405524,-0.10538502597322015,0
33,6.640000000000001,0.5556710546269358,-0.8241316604789036,-0.10971182819584425,0.2004283060102368,-0.975406221818137,-0.09171257595517888,0
34,6.840000000000001,0.5345934998758012,-0.7291852357681897,-0.42719864445973094,0.3199887856847674,-0.9411319116177518,-0.10898578792991506,1
35,7.04,0.6013158647767589,-0.7885616586193384,-0.1288011697279843,0.4124035639493708,-0.9066235329365181,-0.08920241009952543,1
36,7.24,0.6281122520732085,-0.7777774094412506,-0.02317973594282858,0.46388573556972196,-0.8850949893180706,-0.03764152253804514,1
37,7.44,0.2771827479745354,-0.9557501367961571,0.09854643696964531,0.42708475350610736,-0.9041983994084447,0.004885471301122342,1
38,7.640000000000001,0.2520881967785231,-0.9615044064519992,0.10936552207319095,0.3792388865466365,-0.9251028504472869,0.019041612987670372,1
39,7.840000000000001,0.3053784026875378,-0.9519734388308232,-0.022149558294128548,0.37103609926954956,-0.9285997407883261,0.005893593699148498,1
40,8.04,0.29939766287510056,-0.9538820627820539,-0.021680631161970488,0.36642944552596884,-0.9304414452638757,-0.0028597878944731244,1
41,8.24,0.27492977224893,-0.9217007467458778,0.2736445756437407,0.36585665593714745,-0.9305523583331131,0.014873321995084671,1
42,8.44,0.38309007505738,-0.602927965792946,0.6997998731475387,0.36446347060713674,-0.917432762993222,0.1596355348273806,0
43,8.639999999999999,0.36964386793761006,-0.6216111368646507,0.6906250831109157,0.33517621732833847,-0.9039007300054219,0.2657449409361012,0
44,8.84,0.22689178243550817,-0.7497388373306854,0.6216202979804234,0.30018922858977265,-0.9151669679133486,0.26899042339638346,0
45,9.04,0.26571310071777227,-0.6252509489173094,0.7337968376771268,0.3035629501881009,-0.8769734983032103,0.37251445414497136,0
46,9.24,0.2547586674565122,-0.6313927335109162,0.732421488915635,0.2994298297369963,-0.8498081962675645,0.4337831331669576,0
47,9.44,0.1914345041984384,-0.5320706714860168,0.8247748972578626,0.23559040054444264,-0.802555125656402,0.5480898041871843,1
48,9.64,0.2288766330671763,-0.5745097580825563,0.7858460566190785,0.2073187124462631,-0.7877938353002278,0.5799998487349645,1
49,9.84,0.24024074550069308,-0.5511902140377968,0.7990455131907314,0.2291082402283175,-0.7841635263975136,0.5767122143038935,1
50,10.04,0.2177803776563928,-0.5265373531577353,0.8217847180603238,0.2175131550604468,-0.7755804046079223,0.5925901310044422,1
51,10.24,0.19997783767660898,-0.48474012124206833,0.8514903870839723,0.20994490629561555,-0.7574204290813582,0.6182535320810847,1
52,10.44,-0.11970877274517011,-0.7814421459403128,0.6123871179866901,0.18457144584821417,-0.7783592333628313,0.6000752329636055,1
53,10.64,0.20440277323377276,-0.8378750897928877,0.5061470539269224,0.1642565698591424,-0.8054025069332181,0.5695143379088857,1
54,10.84,0.4557907597601534,-0.8527000489167572,0.25525949520952584,0.20807781349753623,-0.8330489869609758,0.5125748812157859,1
55,11.04,0.48789803401740234,-0.8644371031937352,-0.12126006359876829,0.32958598655556676,-0.8940444068307791,0.303410079069226,0
56,11.24,0.4935016791544211,-0.8452176101511794,-0.2050933547487481,0.45130372226389054,-0.8818438855180462,0.13666130339343546,0
57,11.44,0.5010570982848231,-0.7974880259073512,-0.3360872398541622,0.5350331509992399,-0.8437838040304564,-0.04205257884740375,0
58,11.64,0.672023186606227,-0.5694697613357133,-0.47338042586048956,0.5849328298026264,-0.8032205171933291,-0.112651610635503,0
59,11.84,0.6720820850953562,-0.5941603891902043,-0.44190395202037247,0.5838836373790962,-0.8074420030185384,-0.08436414974600719,0
60,12.04,0.38959370499324053,-0.9196109685152483,-0.05032307240309171,0.5491429092491548,-0.8328710623322375,-0.0690496832066952,0
61,12.24,0.34322934268588867,-0.9391272453064731,-0.015285137961060043,0.5287598539005728,-0.8481300631724976,-0.03299110252871611,0
62,12.44,0.5984343685490316,-0.712556986754966,0.36624970602855816,0.5471990554148409,-0.8345579223486234,0.06392392352050329,1
63,12.64,0.9041998177738342,-0.33661171366591647,0.2628977819622298,0.5994481607591218,-0.7968133350690554,0.07583146852485194,1
64,12.84,0.9018996918531348,-0.33344581280001045,0.2745739167535059,0.6476519434513857,-0.7564041486166069,0.09165000872465359,1
65,13.04,0.6128334282276504,-0.7892426560245441,-0.03913079552052044,0.6436751465053978,-0.7623176499958678,0.06748411869493973,1
66,13.24,0.4734349922083501,-0.868440447466482,-0.1472090260714206,0.6393500794243788,-0.7682572807288771,0.031815507965640935,1
67,13.44,0.3590882322717465,-0.9323917866886341,-0.0412455762419381,0.6323046080456884,-0.774364607718373,0.023459261654169616,1
68,13.64,0.5815302986577829,-0.7327771719952896,-0.3533555262700384,0.6332148608460124,-0.7739346449931377,0.008006577490485205,1
69,13.84,0.752985413701097,-0.5618054559403837,-0.3426187333305141,0.6378863853577682,-0.7679566323396494,-0.05782361300321591,1
70,14.04,0.9316048914040357,-0.2402798688003849,0.2727231397614533,0.6867399801942609,-0.7268724779977027,-0.006678348019247734,0
71,14.24,0.94860056426306,-0.1767304350337064,0.26253251762896096,0.7673702155396825,-0.6407373676808571,0.024465852938075808,0
72,14.44,0.9525710922048926,-0.11278451699650684,0.2826445948916116,0.8645559023833065,-0.4977605176286238,0.06911988674955664,0
73,14.64,0.9099183101786312,-0.09631801642901584,0.4034495117271111,0.9242045015260567,-0.34389785473352824,0.1660731913002527,0
74,14.84,0.9277243427339409,-0.13875558075425465,0.3465175792199105,0.9625248386788362,-0.18784118827113658,0.1956057844624438,0
75,15.04,0.9755679138752062,0.21150541695927044,0.05943655452718558,0.9821589836645188,-0.06622904532082907,0.17600410325606344,0
76,15.24,0.888183965569431,0.34377543496544055,-0.3048732418886282,0.9974668428340114,0.061823492272402795,0.03518171755320456,0
77,15.44,0.8840531539857656,0.40339378910455803,-0.23605819587484714,0.9706788885328075,0.24025944423800374,-0.0076088639861243805,0
78,15.64,0.6527720386609708,0.6720402222331995,-0.34964354025657596,0.8893086239748618,0.4521102117578477,-0.06874974725926063,0
79,15.84,0.5207691962912093,0.6951846897225444,-0.4954974181260459,0.787911032061946,0.5992506895426613,-0.14175618729961917,0
80,16.04,0.2883427681970482,0.88428843469249,-0.36727702391732814,0.6962470689900873,0.7079357056717451,-0.11860461861900992,0
81,16.24,0.23850426982832712,0.9709583868788478,-0.018855349990983532,0.6203784442743119,0.7824295430588538,-0.054171911803975036,0
82,16.44,0.2383130405699383,0.9702588335293492,-0.04248165077509935,0.5905995571503497,0.8062455012468349,-0.034063981168546455,0
83,16.64,0.2249559848627657,0.9734038914088308,-0.04335515038110991,0.5732375287992398,0.819081154114199,-0.022467722427791954,0
84,16.84,0.1687191536376027,0.9847356892760539,-0.042772297831967,0.5242513071280597,0.8515633109999831,0.0007030883779467962,0
85,17.04,0.02448769452003685,0.9987074232246659,-0.044540269566333834,0.38674371898132787,0.9221579562945939,-0.0073484332391530295,0
86,17.24,-0.17554136263643466,0.9832668200936173,-0.04869897849780666,0.1952995646644577,0.9807035883716447,-0.00886294515682794,0
87,17.44,-0.22158472348075642,0.9749644420925707,-0.01856197659408416,0.004307362844128748,0.9999035120781726,0.013206557426725557,0
88,17.64,-0.24138035002877267,0.9342900039859761,-0.26236942480379,-0.1740315999857589,0.9843230559694159,-0.02865525594768308,0
89,17.84,-0.1191704188683067,0.9277396125971646,-0.3536914226904791,-0.23897913361502615,0.9663523189667386,-0.09514288898398188,0
90,18.04,-0.055343044109531614,0.9339523544532493,-0.35308659997219216,-0.16856390096950474,0.9780616082213607,-0.12239976230936477,0
91,18.24,-0.05427531291643173,0.9759327726734062,-0.21120940705807043,-0.0542811509334028,0.9914755893856975,-0.11844708652233285,1
92,18.44,-0.16506335713931974,0.9862727125645291,0.004497174724563529,0.008327725612072734,0.9961426683014637,-0.08735235185941019,1
93,18.64,-0.24674717897421772,0.9671903922662033,0.0604861535908298,-0.058769676509258684,0.9962312755990494,-0.06379161889533638,1
94,18.84,-0.18608375035177677,0.9823512070915136,-0.018945811697139985,-0.07781143550434,0.9946322788973632,-0.0682056469816986,1
95,19.04,-0.07163928633574423,0.9968364683236025,-0.03442191269283498,-0.08502264231539497,0.9942795024583723,-0.0646484437928743,1
96,19.240000000000002,-0.07029385145917066,0.994518462590135,-0.07740673106642995,-0.09319642626175517,0.9919819939922884,-0.08535894638010187,1
97,19.44,-0.05599456176383133,0.9385158238126359,-0.34066502242843466,-0.09017559424853872,0.9850167623256378,-0.1470045582267472,1
98,19.64,-0.03361593585564926,0.919538642061155,-0.39155926066545255,-0.07446101423201562,0.9756182687659144,-0.2064571408543177,1
99,19.84,-0.028975354055645497,0.911124598173637,-0.4111111716558899,-0.0652797206934505,0.9679294522399602,-0.24259252575591828,0
100,20.04,-0.028177956417263117,0.9153215901131309,-0.40173671657556564,-0.06139309983829794,0.966377676884506,-0.24968995356551818,0
101,20.240000000000002,-0.02443943111760316,0.953161649413737,-0.3014723607456121,-0.050336097273696256,0.987589270819419,-0.1487740215011388,0
102,20.44,-0.13510287266762172,0.9892503194751718,-0.05595551103534564,-0.04565087213506336,0.9989007391692318,-0.010644771508603613,1
103,20.64,-0.16033370078182357,0.9869616340568134,0.014136381910160175,-0.03402314898013725,0.9971726423253402,0.06700109500130927,1
104,20.84,-0.16831891630347112,0.9857296535378693,-0.0024067718083511398,-0.024939097429187318,0.9978512170792634,0.06058869525621546,1
105,21.04,-0.17823137060395094,0.983984206630742,0.0029427255914466683,-0.022143192091388875,0.9975708746795546,0.06604565871480228,1
106,21.240000000000002,-0.20270343319842643,0.9791710506035708,-0.011634940028656535,-0.03486118849191022,0.9983217991267286,0.04624157139743037,1
107,21.44,-0.23863773205739958,0.9709091932686263,-0.019681749540279313,-0.06850304419656122,0.9972056335855035,0.029803645433714696,1
108,21.64,-0.31160131998484497,0.9491687925719859,-0.044533364920478956,-0.15275546063006457,0.9882616708510847,0.0021538742579312996,1
109,21.84,-0.26753438221268905,0.9635470590785996,0.0015554018956340594,-0.21271450269344494,0.9770557032651096,-0.010709484628258709,1
110,22.04,-0.25749327772365255,0.9662425365062598,0.008518953754975299,-0.21573044804800545,0.9764187022697323,-0.00817873113015054,1
111,22.240000000000002,-0.21599913844132995,0.9763883141969146,0.003198764184851325,-0.18348991429713973,0.9829987487132773,-0.006701595284642717,1
112,22.44,-0.18604325190178828,0.982522261238249,0.0061574826906307415,-0.15103829584530537,0.9885253822057809,0.002236497945621531,1
113,22.64,-0.16028738573755907,0.9869978217658769,0.011968868068177766,-0.1157959948893259,0.9932589903471882,0.005278793619339531,1
114,22.84,-0.13998749588338621,0.9901496170424896,0.0026901425445578614,-0.09392535241079364,0.9955759856205204,-0.0025465722525586706,1
115,23.04,-0.14189224797966105,0.9898611137200473,-0.006447131779810135,-0.09643227216638467,0.9952391971353903,-0.014133554759242674,1
116,23.240000000000002,-0.2876913670172246,0.9576656588244296,0.010495868336258101,-0.14211504802016123,0.989688737245975,-0.017875024327113506,1
117,23.44,-0.18864185001726924,0.9816851310940246,-0.026618711669994206,-0.1610275494327164,0.9869147831705574,-0.008327009253404226,1
118,23.64,-0.18519756642203106,0.9825606408085563,-0.016626741269320868,-0.1624057390213839,0.9867152067894087,0.004180505167183906,1
119,23.84,-0.1902962100684255,0.9816481413610174,-0.012420909630676477,-0.16849523564961627,0.9856387057425072,0.011211480973353335,1
120,24.04,-0.17996843438652693,0.9836507795568247,-0.006519701044830671,-0.1543199447996389,0.9879242862998232,0.01381879792243609,1
121,24.240000000000002,-0.04775002438485809,0.998641371702021,0.020864944197177496,-0.13063431380685342,0.9913147207011858,0.01515917469200047,1
122,24.44,-0.22246716151288087,0.9748048470014867,0.016244146970838366,-0.13515848530345576,0.9905581049513972,0.02295265922660216,1
123,24.64,-0.09971020350654058,0.9928965312072562,-0.06491805321543875,-0.14874749207390997,0.9874907808187741,0.05230813894271388,1
124,24.84,-0.07498441681847201,0.995140354823801,-0.06382014913452645,-0.12556292084042908,0.9904094509787521,0.057646095461766494,1
125,25.04,-0.23884864359630348,0.9705359435815494,0.03180106395197225,-0.11886555473082111,0.991526028541514,0.05241292420030677,1
126,25.240000000000002,-0.12078496264904343,0.9926618121134279,-0.005789608756613291,-0.1323867665076398,0.989750061605246,0.05355893581899937,1
127,25.44,-0.06527566975102311,0.9978419947882291,-0.007102138804856896,-0.14433207455632863,0.9880285722479691,0.05447745107754578,1
128,25.64,-0.2069535789115058,0.9775636585428736,-0.03923658588602488,-0.1587190957239995,0.9863829052400097,0.04309307256199787,1
129,25.84,-0.21327259606908028,0.9769403621768566,-0.010115755814901338,-0.17618639660238566,0.982011168915516,0.06791478320254857,1
130,26.04,-0.10053788289333715,0.9864362973352176,0.1297519379543576,-0.18308626317335946,0.9763429696402243,0.11503836695348205,1
131,26.240000000000002,-0.06926911767471805,0.9829711332009937,0.17020440837451972,-0.1698619554459953,0.9763762315858935,0.13355287524494766,1
132,26.44,-0.28553909482467904,0.9494510497828885,0.13042288676790542,-0.1765472145258265,0.97630915507514,0.1251060140826085,1
133,26.64,-0.2866753103467942,0.9480818625730492,0.13768822860937485,-0.17736225132576044,0.976188440657317,0.12489499642377057,1
134,26.84,-0.24939837662394415,0.9683790075492856,0.006522842570682643,-0.15737062429083637,0.979737277624003,0.12389250761938829,1
135,27.04,-0.10890853629106118,0.9938891891800368,0.017978052007587366,-0.14796862585142695,0.9760073182725386,0.1597341555275156,1
136,27.240000000000002,-0.1063551703429711,0.9941820641207054,0.017047026779208857,-0.14682225529452642,0.974032410526359,0.17234874120352434,1
137,27.44,0.1376749244128994,0.9777723455993192,0.15813556010305688,-0.12734607201804882,0.9752496326162752,0.18075157543820836,1
138,27.64,-0.2153380883445361,0.9536912127797896,0.21000613889773562,-0.14985509592435853,0.9703658759030522,0.18956138084642649,1
139,27.84,-0.3329037537248209,0.915844173340621,0.22450955639784792,-0.13712292120676345,0.9734710086211295,0.1831706850287044,1
140,28.04,-0.20539877723909888,0.9745855500985702,0.08941111702551643,-0.15531356913215927,0.971197537078123,0.18070151968596695,1
141,28.240000000000002,-0.1133160447191014,0.99330562855082,0.022436628500714092,-0.15576961700837982,0.9744458384120265,0.1618367523727102,1
142,28.44,-0.09846117655767372,0.9949695225021477,0.01846743086428017,-0.13995342086054996,0.9776694272861682,0.15676584749034428,1
