,timeStamp,x_gaze,y_gaze,z_gaze,x_head,y_head,z_head,fixations_head
0,0.04,-0.9992185417035362,0.026006719160128422,-0.02976502098748087,-0.9942116815719926,-0.054078202997718094,0.09283684713694801,1
1,0.24000000000000002,-0.9992200328017825,0.03235702528735452,-0.022635126731656952,-0.9939907630772404,-0.04696054152189562,0.09887906986362488,1
2,0.44,-0.999000768591163,0.042385740331881805,-0.01417439137262082,-0.9935026020667216,-0.035617929422252774,0.10809228830182697,1
3,0.6400000000000001,-0.9982139523905651,0.05922525124930261,-0.007827826471240376,-0.9930447527686953,-0.01643879851939369,0.11658423950860435,1
4,0.8400000000000001,-0.9979310011544148,0.06395923189179868,-0.006552372910537064,-0.9927684715825441,-0.01510836875073809,0.11909029778009315,1
5,1.04,-0.9533857095663282,0.30104193579216554,0.020722974912272416,-0.9917162144301479,-0.008802334910412428,0.12814627944837903,1
6,1.2400000000000002,-0.9534597370566942,0.300877561311512,0.01967798035920361,-0.9896808343273474,0.03681528570921746,0.13847917136982862,1
7,1.4400000000000002,-0.8150705005306537,0.47661810356419515,0.3293861905417104,-0.9637793322301174,0.20077604157303178,0.1755516445275677,0
8,1.6400000000000001,-0.6656529866240841,0.6523938062625362,0.3623374434815116,-0.8867393379172666,0.4038261082826238,0.22498404578849102,0
9,1.84,-0.49567826839673684,0.8680328302680382,0.028671585517225786,-0.8015397347824971,0.5518004891512096,0.2303264503640224,0
10,2.04,-0.5363379484928548,0.8438061953410074,0.018240331976410437,-0.6978418930214867,0.6953916614022262,0.17160165965525934,0
11,2.24,-0.4429223119848837,0.8965163887441739,0.008842525604776334,-0.600140208472788,0.7898527960499303,0.1263498743424214,0
12,2.4400000000000004,-0.509436216102384,0.8596692342354414,0.037994071015559794,-0.41698471365832274,0.903883810305749,0.09548720355339407,0
13,2.64,0.049210505381753034,0.991306517926255,-0.12202341446212811,-0.20731707722523446,0.9780462349283705,0.021099569503307207,0
14,2.8400000000000003,0.19689331143399275,0.9684263141117764,-0.15291663757889737,-0.18438518478920635,0.982850411227831,-0.0026782045354795643,0
15,3.04,0.265534066597253,0.9639651427871964,-0.016213049299434425,-0.2315246445866933,0.9722728973756021,-0.032889998143160466,0
16,3.24,-0.5437092403054897,0.8346447643164627,0.08802487946906827,-0.36494020631045637,0.9303304410004479,-0.036109782137166674,0
17,3.4400000000000004,-0.6746169181642785,0.7380374452830684,0.013883194393699994,-0.5817565642700266,0.8110181485304859,-0.06171598401481672,0
18,3.64,-0.9526109738361616,0.29442605868445576,-0.0764567099374367,-0.7381006028441235,0.6732926635872156,-0.04341070421882248,0
19,3.8400000000000003,-0.9669736194580717,0.2548686442198378,-0.001998365756878186,-0.8843043501623655,0.46580402533916837,-0.032131390597730576,0
20,4.04,-0.9940569273186471,-0.09974724395589492,-0.04360404308104151,-0.9684535142809295,0.24763788828947586,-0.027807678084423422,0
21,4.24,-0.9712208572431169,-0.23817925067879558,-0.0008312653204053302,-0.9973483812815225,0.07012168169590895,-0.019471931369653937,0
22,4.44,-0.9821630856,-0.18794161801833553,-0.005798405068391976,-0.9992776001923622,-0.03136334074359379,-0.021462027192116713,0
23,4.640000000000001,-0.9391235142526877,-0.18407202928228378,0.2901112080109694,-0.9881193248928507,-0.15368839972210246,0.00027488935372732266,0
24,4.840000000000001,-0.9455438151090308,-0.21056575706046907,0.24821151396059404,-0.9398186121958007,-0.33808672589725697,0.04937957009161096,0
25,5.04,-0.5279195007807393,-0.8208178509814664,0.21808038931912813,-0.8118184897876995,-0.5757860135618083,0.09706289829497061,0
26,5.24,-0.5473472415549125,-0.7857537545545639,0.28810073648922646,-0.716243727702268,-0.6841458541282689,0.1376203938602892,0
27,5.44,-0.35798013033616216,-0.9310771139558421,0.07032520282348508,-0.6092647926316833,-0.7826957340930353,0.1272155662332123,0
28,5.640000000000001,-0.3458525452642549,-0.9290236090228562,0.1315338390391754,-0.42050338688793126,-0.9026317401230352,0.09183051420002115,0
29,5.840000000000001,0.05276611104442952,-0.9943962038766903,0.09160746280121025,-0.18263309531791877,-0.9816120842075152,0.05552358627083196,0
30,6.04,0.3092093575205544,-0.9498186103075174,-0.047267121080325186,0.08023125074446696,-0.9956607158740791,0.04714536317704163,0
31,6.24,0.35452612049129695,-0.9348600643150538,-0.018651810588902046,0.23333067740493924,-0.97022700779659,0.06493341454003425,0
32,6.44,0.5369170790680847,-0.798411729648501,0.2725046057678376,0.3462762413408582,-0.9336912194090092,0.09117824017475379,0
33,6.640000000000001,0.7889060946700889,-0.5773489287481571,-0.21046469600801093,0.5201479381236113,-0.8483340129486208,0.09887125436771503,0
34,6.840000000000001,0.7960273728089321,-0.4943980424824343,-0.34915755373247576,0.6959324482720086,-0.7167611091680576,0.04394928698288487,0
35,7.04,0.8257113785606516,-0.4667543550926142,-0.3167666196390441,0.804838596286211,-0.588634680239393,-0.07578949232914087,0
36,7.24,0.8571155183990933,-0.5083699269229347,-0.08314448580527847,0.8660542051581335,-0.484658383090024,-0.122704382270875,0
37,7.44,0.8881932610506451,-0.458500954793053,-0.02982625484500907,0.9204353848134132,-0.3811165062687507,-0.08688446945735295,0
38,7.640000000000001,0.8516280500825804,-0.521258064366803,-0.05495174833539016,0.9351565453096756,-0.34765307831750886,-0.0679674400049964,0
39,7.840000000000001,0.82437618214882,-0.48707011662755656,-0.288386219840952,0.944246667861115,-0.30721828107610516,-0.11838563259882696,0
40,8.04,0.8614751107279726,-0.4218953214344777,-0.2826039124780944,0.9747268290741173,-0.19276467198186842,-0.1129131963892598,0
41,8.24,0.8479905487183197,0.5211294011983426,0.09662389192668476,0.9865935566936869,0.15689467038699215,-0.04491343111652031,0
42,8.44,0.8763776039392913,0.4704936550707541,0.10294666508337715,0.9123229669595091,0.4065621704331953,0.04872376761754315,0
43,8.639999999999999,0.9739215628127538,0.036395118569943305,0.22394683483506464,0.8651126037783214,0.477491380304018,0.1535648544402557,0
44,8.84,0.9621935970510797,0.08918974302875364,0.25734931811133577,0.8425375983517399,0.47935000897401536,0.2456704383117627,0
45,9.04,0.5698832856775112,0.8166990381323899,-0.09075087778657287,0.7448372057771819,0.6248912597282521,0.23394112593829672,0
46,9.24,0.4848953937735084,0.8688023181819106,-0.10029451141000831,0.673124690218302,0.7145317055681796,0.19065044756397226,0
47,9.44,0.47057446878086806,0.8769194389937259,-0.09783642903608648,0.6373256959458449,0.7492120048826396,0.18027015567442098,0
48,9.64,0.22517452463424625,0.9639004027820521,-0.14210013009261896,0.5509079636458745,0.8302209064843985,0.08505093784185701,0
49,9.84,0.40481802023974045,0.8016230280181234,-0.43991236791005556,0.5377567742402434,0.8418064180200938,-0.04668625428224998,0
50,10.04,0.5919785531839565,0.7457907907557927,-0.30554457775270494,0.5692082467015518,0.8126943105622519,-0.12461913764222392,0
51,10.24,0.5799788839413222,0.7508175405137417,-0.3160656815269163,0.5998190314642222,0.7877529314096137,-0.14022285316196795,0
52,10.44,0.19318256943935574,0.8795470252958402,-0.4348304556468503,0.5438220727660806,0.8252004227097296,-0.1526493220819783,0
53,10.64,0.15657571410517723,0.8984615645868801,-0.41018393765791195,0.33676971536107003,0.9243699494671629,-0.17923826415611913,0
54,10.84,-0.27633644740369695,0.9557180446377503,0.10119874994336038,0.043228704068965174,0.9967025812414197,-0.06866763204894429,0
55,11.04,-0.262563587475041,0.9600647095209756,0.09662357923737695,-0.003481890414873179,0.9979431336975475,-0.06401076741500521,0
56,11.24,0.05597567721316332,0.9612795334967115,0.26983028377273083,0.18547325855648295,0.9824733395191544,-0.018595899938446542,0
57,11.44,0.46814143089365334,0.837039067725098,0.2832122874854507,0.5137100351743531,0.8568524135766908,0.04365708543827694,0
58,11.64,0.7764292957753267,0.06495966750992263,0.6268475015973428,0.8850598680617401,0.41244250186403825,0.21577815599051786,0
59,11.84,0.8323634449291673,-0.10180019838905167,0.5448007114106944,0.9383253138018778,-0.013936977988604403,0.34547267058792475,0
60,12.04,0.6796153670131188,-0.3635650937722369,0.6371368577550737,0.8171988076295074,-0.3648987925874431,0.4461333656846774,0
61,12.24,0.43891415026716113,-0.5500097607334206,0.7105234913732419,0.6063399172074068,-0.6100282795006294,0.5101150880050673,0
62,12.44,0.07652243200826772,-0.718586959272077,0.6912142210369014,0.23810976167723819,-0.800234732632511,0.5503890570156552,0
63,12.64,-0.17470319722722977,-0.7250915625086991,0.6661238765104258,-0.06625092900566504,-0.8148692918159136,0.575846204868381,0
64,12.84,-0.48442987121283027,-0.7557780917353526,0.4405986562957156,-0.2817819040869235,-0.7764588391862304,0.5636582560193012,0
65,13.04,-0.6248156519980675,-0.724797544206335,0.29029970880229283,-0.4541034336336211,-0.7211225485708614,0.5232325883436745,0
66,13.24,-0.7634014900487371,-0.5249543192017795,0.37635239834862794,-0.5427400402108828,-0.6727812672544862,0.5027908264709464,0
67,13.44,-0.7860604137125851,-0.50103906508099,0.36203436474562367,-0.6015772752850487,-0.6469434383552634,0.4685818705729947,0
68,13.64,-0.43988800905507197,-0.8030720099923954,0.4019625433499237,-0.6311996075239286,-0.619340897612209,0.46690888619359366,0
69,13.84,-0.7581942904065575,-0.4294082518474636,0.4906627877067935,-0.7067728590652509,-0.5373120665372931,0.460182429958114,0
70,14.04,-0.9077626911688739,0.02526110014274745,0.4187227881802253,-0.8292746738439369,-0.3451859184968529,0.4394885629826065,0
71,14.24,-0.9410954459949012,0.21864831133694404,0.2579385149161729,-0.9216449903022834,-0.17018575584614423,0.3487224116081169,0
72,14.44,-0.9754936037464468,0.1871343208104937,0.11572802177764145,-0.959103062537846,0.0786350954165416,0.27191512866950945,0
73,14.64,-0.8044953876392242,0.5789162733276105,0.13282740584565111,-0.9143909422316807,0.3289920340202469,0.23590982666239266,0
74,14.84,-0.5931979788910198,0.7097515966906789,0.37995898309507214,-0.84155302244063,0.4893037844054909,0.2288456182396879,0
75,15.04,-0.23391290525623665,0.908884735221401,0.3452727774327288,-0.7229785786280531,0.6511088425636229,0.2309962120477726,0
76,15.24,-0.2912850587328165,0.8928968622628594,0.34334852252508663,-0.5995568736909656,0.7629884630535457,0.24161986767876445,0
77,15.44,-0.49012206540088016,0.8428775043514348,0.22212130394330096,-0.572761413172951,0.7800348083307818,0.2519723424752904,0
78,15.64,-0.5188641387704442,0.8239439280752873,0.2278078332408053,-0.6513229916163497,0.71405408030716,0.2567199466123044,0
79,15.84,-0.9942418586712845,0.04231587850261744,0.09845045907674459,-0.840557342798185,0.48775366923299185,0.23571107657004098,0
80,16.04,-0.9961132268847662,-0.0034861457761819867,0.0880129877509308,-0.9242925242850282,0.3153813402013949,0.2149835803115739,1
81,16.24,-0.9196742679051915,0.3511712083506617,0.17572143687833452,-0.9450941231818257,0.2637371883403181,0.19297614830211407,1
82,16.44,-0.9283161351758847,0.3276705276394064,0.1756734996765935,-0.9447076877254668,0.26881980017695944,0.18778524911510475,1
83,16.64,-0.9246118603782517,0.33602301173146865,0.17939187059279504,-0.9388098514811433,0.28702799238720866,0.19039693891478893,1
84,16.84,-0.9343443861021832,0.3096879822100455,0.1763346869847364,-0.9450748574250459,0.2672099693435465,0.1882348165097257,1
85,17.04,-0.9476103994017463,0.2752830272627351,0.16203020041562347,-0.9575909350890346,0.22975152401189772,0.17387880333588426,1
86,17.24,-0.9620724575687856,0.22366023972464008,0.1561815723889155,-0.9689976399609905,0.17705281176355608,0.17232491287289078,1
87,17.44,-0.9728177629805637,0.18266755550797611,0.14233117787130456,-0.9778266053408724,0.13043733870631352,0.16383293490248083,0
88,17.64,-0.9803061480050732,0.15739312989640933,0.11927807361316652,-0.985074798031558,0.09606782323405942,0.14282372219682318,0
89,17.84,-0.9920739328297576,0.10134676860605973,0.07428421294466098,-0.9946520323363148,0.02879174210394963,0.09918855859351108,0
90,18.04,-0.9015519076314583,-0.4276048847202392,-0.06601681914080466,-0.9931245210124042,-0.09005020031420453,0.0747973742002654,1
91,18.24,-0.9243623284926386,-0.3812262244761005,-0.014861071137885413,-0.9854203324304391,-0.15205890153822063,0.07632076320158622,1
92,18.44,-0.9849147919432046,0.16862371548126562,0.03884450010963413,-0.9909239590912342,-0.11108828745374826,0.0756908164148574,1
93,18.64,-0.9987607371647551,-0.04120000226273671,0.02792041746940618,-0.994514143866436,-0.07168029256616629,0.0761810560916484,1
94,18.84,-0.9993895283207038,0.0033230440551540725,0.03477826995594566,-0.995008386877534,-0.06142761706899711,0.07864450333362458,1
95,19.04,-0.9906900056330592,-0.1344689417526116,-0.021246563079762977,-0.9947054447028347,-0.065820584925557,0.07892229646046361,1
96,19.240000000000002,-0.9904885973684894,-0.13681851450596597,-0.014595635353869072,-0.9945181291645697,-0.06506827374489464,0.08185237024585361,1
97,19.44,-0.9898297743436473,-0.14189473740973335,-0.010144028698063965,-0.9944442047964384,-0.06462796282265765,0.08309001124186095,1
98,19.64,-0.9662251520665711,0.2470609714200852,0.07327913696882309,-0.9945721372727458,-0.05332442365516845,0.08934634633026095,1
99,19.84,-0.9684691631250295,0.2406187370664839,0.06457633814668895,-0.994960945640247,-0.020991355174813413,0.09804121408158203,1
100,20.04,-0.9611542265542816,0.0696710536246447,0.26707395429669434,-0.992475690345202,0.011222619538885271,0.12192644046514431,1
101,20.240000000000002,-0.9157997552346607,0.16280254683367354,0.36715955531159117,-0.9636388577510316,0.12904642039738629,0.23398113858793873,0
102,20.44,-0.5544732835795831,0.5586142934794067,0.616854479530609,-0.8317409114883059,0.3750019784037864,0.40936606155108757,0
103,20.64,-0.39225175974941123,0.6358373806841247,0.6647175206794554,-0.691319306690243,0.5410974370093516,0.47884358600615357,0
104,20.84,-0.35566070507966663,0.6703627866024074,0.65124434523525,-0.5538845271329554,0.6689261380544497,0.495731532616457,1
105,21.04,-0.17699968925306664,0.9360133179473744,0.30422060848907934,-0.46415668546117994,0.7296507602406982,0.5021636580058962,1
106,21.240000000000002,-0.5556363160739006,0.8127647752803873,0.1751619374271876,-0.4317394591367502,0.7310952834510073,0.5282998447283492,1
107,21.44,-0.5284108683377221,0.8354405002684034,0.15106662349392272,-0.4482782380029312,0.7444024238658837,0.4948854945091688,1
108,21.64,-0.5383558014810346,0.8329008594333978,0.12825439316772125,-0.47497444257660537,0.7482373088998405,0.46318485345417765,1
109,21.84,-0.5602844327157446,0.8178454053417868,0.1311878325826183,-0.5085330934053678,0.7309221936363449,0.4551338701540474,1
110,22.04,-0.5683941000351841,0.8122702544335021,0.13093960748271424,-0.52740982625416,0.7227620806538217,0.44660256374041957,1
111,22.240000000000002,-0.5401439463926354,0.8312280115538065,0.13154660764799378,-0.5059614525036531,0.740541525560817,0.44226830940103756,1
112,22.44,-0.538153133595654,0.8309086452035089,0.1413578017912257,-0.5067826134901592,0.7369013679235142,0.44737876191940285,1
113,22.64,-0.5611096481623776,0.815189325862992,0.14360475527688402,-0.5338051937009387,0.7180976204250421,0.4465286359437603,1
114,22.84,-0.6100221221570502,0.7812717574288633,0.13224012826303647,-0.5906023049853208,0.6817676309114156,0.4317196020421843,0
115,23.04,-0.706369600847312,0.699874437558773,0.10591392094809982,-0.6897351664900353,0.6034934206714252,0.4000763568536204,0
116,23.240000000000002,-0.9105931746889098,0.1815458163433387,0.37129662909620337,-0.8802008700736221,0.32724829293489016,0.34373679333588814,0
117,23.44,-0.9356270730778697,-0.17312691162173444,0.3076183554277255,-0.9351158895691727,0.060516793816129344,0.3491360633642299,0
118,23.64,-0.9395024038875099,-0.12173581040272095,0.32018061395903225,-0.9363771916282907,-0.11737573577493919,0.3307879859511333,0
119,23.84,-0.7862147137926873,-0.6038665986191746,0.13119281568741484,-0.9140341401287625,-0.3079225576504219,0.2640554660844884,0
120,24.04,-0.4948361018919407,-0.8542791451997507,0.15919916564219933,-0.786718933262403,-0.5747022158629075,0.22536788397802185,0
121,24.240000000000002,-0.42274699731081705,-0.8774788780871455,0.2265298981936214,-0.6074927012932217,-0.7683829477860584,0.2013461284134172,0
122,24.44,-0.28125959358192204,-0.9586184701670937,-0.04408706922254174,-0.4446733850493071,-0.8761610291190131,0.18603072778953225,0
123,24.64,-0.006881586958915775,-0.9955650742292701,-0.09382338053915514,-0.3450633723235697,-0.9253137347300868,0.15724427302939867,0
124,24.84,0.04036820845818728,-0.9974983535098894,-0.05802966905761832,-0.15788129625177044,-0.9779323338078441,0.13682779975942083,0
125,25.04,0.3960408938392622,-0.916128128758119,-0.06213583591733463,0.12171420144231365,-0.9821061145668919,0.14371232688111085,0
126,25.240000000000002,0.6057697224743117,-0.7123909549075305,0.3543193061340753,0.4269665700374465,-0.8954556653223144,0.12593132855897948,0
127,25.44,0.5199843030502809,-0.8038651509643636,0.2888202618348565,0.5722517528011618,-0.8082519592628807,0.1387685186334166,0
128,25.64,0.7806597248465453,-0.5976822374539619,-0.18260979446498063,0.5868454977595903,-0.7963456219837735,0.14644457008225312,0
129,25.84,0.7626336341390517,-0.562951564472183,-0.3185521560721017,0.6024159275044703,-0.7981736025663155,0.0037350308215685713,0
130,26.04,-0.46521762602614025,-0.8849906127835453,-0.019083388577706,0.11808729991133154,-0.9924466221745994,0.03324292005644768,0
131,26.240000000000002,-0.9132919950211839,-0.38028204897263096,0.14588795378441352,-0.5752743417451529,-0.8133562773121958,0.08666601344545441,0
132,26.44,-0.99652899193458,0.015087938977224465,0.08186771238570738,-0.8616027756100412,-0.49281729930715534,0.12153915650799538,0
133,26.64,-0.994412259027711,0.018667071126075404,0.10390283706895985,-0.9866809774537161,-0.10701647558594107,0.12250764337029488,0
134,26.84,-0.9210789413836723,0.3829860341306898,0.07025155799254289,-0.9687928567189822,0.2077624316419686,0.13518569735179115,0
135,27.04,-0.9142124341896098,0.4051280740648982,0.009320342138273444,-0.9459125907353739,0.3077353272579042,0.1027051072038978,0
136,27.240000000000002,-0.9361029213197835,0.35106660101568893,0.021530498086635343,-0.9527544353089286,0.2852203228588859,0.1044430630891167,1
137,27.44,-0.9616394660853462,-0.0786435388344163,0.2628016953268948,-0.9681625083801959,0.21151630120534906,0.13387386485559943,1
138,27.64,-0.9511672840563746,-0.0928117270288978,0.2943922231763836,-0.9752791424770947,0.13645469185870954,0.17381228759465667,1
139,27.84,-0.9287232170089353,0.3707545720546516,-0.0037727296677872654,-0.9757534852970111,0.13007842830680597,0.17602482330616492,1
140,28.04,-0.9409711842998659,0.3384659579105134,-0.003745083847747704,-0.9778068592460433,0.13749808788509,0.15807600020032386,1
141,28.240000000000002,-0.9450803867369444,0.3267165115293834,-0.008909753039130108,-0.9779850831478012,0.14618842158036977,0.14890977985420706,1
142,28.44,-0.9673464975446585,0.25322952236658697,0.010750008840560921,-0.9821410421474883,0.1345808049235059,0.13147996149827335,1
143,28.64,-0.7543073342650892,0.6542156602831798,-0.054975588347358995,-0.963547234454372,0.24856526238140475,0.09895472354867588,1
144,28.84,-0.7816727041350129,0.6215585159895467,-0.05150528915683302,-0.9302391197045804,0.36089943278933373,0.06638357917124557,0
145,29.04,-0.8601797079901004,0.509591218706782,0.020190586395703505,-0.9213834293718184,0.38185028995548675,0.07240809443658991,0
146,29.240000000000002,-0.8648854708502914,0.5019687216177169,0.0007244512025485604,-0.9220772512897902,0.382546572412749,0.0585803942383674,0
147,29.44,-0.9523701228969088,0.2991374136408494,0.05922800666568433,-0.9349902336963599,0.3494175327308709,0.06083297389325218,0
148,29.64,-0.9700718711002619,0.23785870690684316,0.048824178934635545,-0.962837895808152,0.26085604284040814,0.06998079243173479,0
149,29.84,-0.9988344615546204,0.02242616706006938,-0.04274091063472307,-0.9815239720119606,0.1743089059458521,0.07891196153831337,1
150,30.04,-0.9981086424531737,-0.0441404504996561,-0.042787363671651445,-0.9913853647254508,0.1021620819485361,0.08196320894233869,1
151,30.240000000000002,-0.9968597849730827,-0.06905763693481716,-0.038750637212803876,-0.9942502220269476,0.06380173338555552,0.0859990396246631,1
152,30.44,-0.9971404042674334,-0.067663922549366,-0.03365423840488402,-0.9944298683205803,0.053860713471212296,0.09059945108159002,1
153,30.64,-0.8632253041256653,0.5025689612847528,0.047607913946294204,-0.9915438331857335,0.0904577690451363,0.09304955072819719,1
154,30.84,-0.8588070185341247,0.5100640535132764,0.04780341232729559,-0.9805494229042082,0.17501554252607163,0.08883911929172329,1
155,31.04,-0.8683970998936954,0.4935266485347423,0.048144824044591555,-0.9783760159050114,0.1870977826384104,0.0881747766293033,1
156,31.240000000000002,-0.8832909307994334,0.46709099065364534,0.04028818707346323,-0.9779167853854136,0.18963917691273116,0.08783930464957476,1
157,31.44,-0.8940407032347196,0.4462193916283571,0.03974261559568924,-0.97807615454775,0.1885882071065711,0.08832623644996349,1
158,31.64,-0.9707076711046978,0.23505533484315386,0.049755470254703484,-0.9796859744221078,0.1808033404738236,0.08674989103227822,1
159,31.84,-0.9203687815463113,0.39080107525462643,0.013993767712323142,-0.9801162313072623,0.17739910008985524,0.08889168923672529,1
160,32.04,-0.930413467415674,0.36601535354797193,0.019066741166116927,-0.9798924089391896,0.1759301875506054,0.09412457708675782,1
161,32.24,-0.9365212654277998,0.34999171026481907,0.020825996912986165,-0.9806962183088812,0.1688580748468202,0.09859958394276028,1
162,32.44,-0.9392372172426259,0.34263081124446426,0.020918339615964916,-0.9802249300361225,0.1698475731187052,0.10154254498172101,1
163,32.64,-0.9428783378614021,0.3203929071381263,-0.09126239667738155,-0.9791188128857652,0.17714550473726348,0.09972873409680119,1
164,32.84,-0.9452038142507866,0.3164556690100015,-0.08028423928266983,-0.9781900792855834,0.1813752225523047,0.10122844181042157,1
165,33.04,-0.9483468557003923,0.3065556370071697,-0.08162035715621273,-0.9791217080683075,0.17662764091076466,0.10061489579430316,1
166,33.24,-0.9510496382159779,0.2973589703054062,-0.0841559767821999,-0.9803078015658652,0.17112347034066727,0.09855644112724084,1
167,33.44,-0.9507713573995183,0.2975152766703379,-0.08670920421990963,-0.9801546031373805,0.17387895576648613,0.09520011917093837,1
168,33.64,-0.9505945539996694,0.29710456688476294,-0.0899937233499486,-0.9799590876652883,0.1772434807277307,0.09091168814698333,1
169,33.84,-0.9503666456612979,0.2967816558615789,-0.09340175350898208,-0.9797986127653859,0.18024297967935954,0.0866437920415032,1
170,34.04,-0.9511077916573677,0.29316948339728977,-0.09718859322580961,-0.9803353634684661,0.17967951944670235,0.08159562135649881,1
171,34.24,-0.9517391269941554,0.29056249781403265,-0.0988234233998883,-0.9806610368012716,0.17953096260510132,0.07792666017442881,1
172,34.44,-0.9512593807346605,0.29176126713290707,-0.09990472243748223,-0.9803706994309125,0.18267682406104924,0.07417863336778469,1
173,34.64,-0.9501882939628941,0.2953609927401275,-0.09951929452850507,-0.9795760585043405,0.18759587951528756,0.07237770094433019,1
174,34.84,-0.9503227488303366,0.29568633986495596,-0.09724331068417437,-0.9794506657396524,0.18828522033461761,0.07228464003988698,1
175,35.04,-0.9521421368441068,0.2914345400017047,-0.09214803383650473,-0.9799401140229821,0.184361274069779,0.07568549102696469,1
176,35.24,-0.9539499272877807,0.28784726046790443,-0.08440077528530515,-0.9801012374353026,0.1806889478220711,0.08217705587778935,1
177,35.44,-0.9543183557284705,0.28749465836802407,-0.08138364288701777,-0.9802932472136402,0.17907534452979743,0.08340965441045367,1
178,35.64,-0.9543717711790282,0.28809558859171785,-0.07858405824718172,-0.980100478350736,0.17893704117638334,0.08593362340609127,1
179,35.84,-0.9543194727917347,0.2889043620281495,-0.07621426015919734,-0.9797558765585381,0.17987046699193024,0.0878921922193065,1
180,36.04,-0.9532004369152783,0.29257482312066624,-0.07621613963219152,-0.9789310949702732,0.1842166588402657,0.08808026967506033,1
181,36.24,-0.9519024384276069,0.2963031499827728,-0.07801404377330148,-0.9783416107077474,0.18821608286567565,0.08615334531213574,1
182,36.44,-0.9514555881366374,0.2973323386662497,-0.07953454712779796,-0.9785212859494933,0.18866638316532955,0.08307279221901442,1
183,36.64,-0.9531629986397447,0.29279074049451376,-0.07585433609731597,-0.9796593461139922,0.18162918858117916,0.08531355945480316,1
184,36.84,-0.9936947530135418,-0.11138436876488914,-0.01281640465198728,-0.9806727758827396,0.1751195794605478,0.08725846395624236,1
185,37.04,-0.9952644142342,-0.09559968645435239,-0.01759106900914598,-0.9827641714099534,0.162663762622043,0.08783554930976334,1
186,37.24,-0.9947817329834936,-0.10067739769386466,-0.016533762909540336,-0.9848129300767539,0.1502887018321615,0.0869298501968262,1
187,37.44,-0.99511006094599,-0.09721123991407513,-0.017491181733561827,-0.9856413688024191,0.14627317635098633,0.08435194120757634,1
188,37.64,-0.9954008489526905,-0.0947272937575192,-0.014278995820422725,-0.986124800411496,0.1430030115363872,0.08430905470298908,1
189,37.84,-0.9955752955886857,-0.09379212560102332,-0.00573306102737352,-0.9862632043004682,0.1398217238982775,0.08794758307700787,1
190,38.04,-0.9957751268437484,-0.09182487917035767,-0.00029719466065442334,-0.9864619786925546,0.13726422544034864,0.08972901987780527,1
191,38.24,-0.9962038304237563,-0.08695604494941937,0.004071178673414379,-0.9862365414877057,0.13824998669127786,0.09068861788686998,1
192,38.440000000000005,-0.9963177926023266,-0.08550530312869084,0.006300736536176614,-0.9865618443352273,0.13602216728575364,0.09051904390105653,1
193,38.64,-0.9967507659644605,-0.07983689378494858,0.010676185649943468,-0.9860231063330729,0.13862122620424855,0.09242612954629581,1
194,38.84,-0.9971875450596375,-0.07398441411679135,0.011971067025484708,-0.9856312009607835,0.1420608452742683,0.09137752421993339,1
195,39.04,-0.9976105831826901,-0.06823361437792569,0.010830428930454293,-0.9853770421933669,0.1460384300722587,0.08777734138308092,1
196,39.24,-0.9977523829837893,-0.06650705071094608,0.008185014105146415,-0.985623988060898,0.1461940139390916,0.08469158427676172,1
197,39.440000000000005,-0.9976159915449812,-0.06850730219100787,0.008311615982121488,-0.9861877841127313,0.14220115583216905,0.08492635484239369,1
198,39.64,-0.9974378561074443,-0.07085480656111283,0.009865069233044317,-0.9866540317573909,0.1376075631879257,0.08705159487549342,1
199,39.84,-0.9973367032706981,-0.07206892369421962,0.011205826461809424,-0.9870110619547768,0.13398853664902913,0.08863540841873506,1
200,40.04,-0.9973881221099551,-0.07116431094990708,0.012352114029689703,-0.9871326567666581,0.13274003632532758,0.08915829014259047,1
201,40.24,-0.9975674733710603,-0.06784528583232487,0.016004788733662473,-0.9867456454296772,0.13375614067398198,0.09188213132906811,1
202,40.440000000000005,-0.9977307710345791,-0.06531813046536288,0.01633555518660359,-0.9868205275173789,0.13467882084450597,0.08970430138101294,1
203,40.64,-0.9985742237596184,-0.05337791674474223,0.0005636016922161766,-0.9865738074531476,0.14576794360527215,0.07364665005613015,1
204,40.84,-0.959444368186768,0.2803761314732513,-0.02925285037031139,-0.9826525845565294,0.17168420520365452,0.0701315317668361,1
205,41.04,-0.9511114097491636,0.30804541701598154,-0.02225100672799164,-0.9716725807132915,0.22360296575823435,0.07651215324439452,1
206,41.24,-0.9518629401686222,0.3064448872732811,-0.006962341388673261,-0.9679165111446257,0.23282520478710728,0.09449894956801154,1
207,41.440000000000005,-0.9567245415737421,0.2890242482277031,-0.03381028670278239,-0.9729659173954627,0.22041120780164994,0.06896537582166772,1
208,41.64,-0.9472353829460828,0.3187390677757044,-0.03391955141895217,-0.9645012846079903,0.25562002551725804,0.06629988343951429,1
209,41.84,-0.9497363594323567,0.31140626563659374,-0.032046611278647934,-0.966205279577284,0.24873432927328587,0.06766528768838034,1
210,42.04,-0.9590902916167119,0.2822968685757349,-0.021314092026286605,-0.9723763086588033,0.22083845179985045,0.07559558562326779,1
211,42.24,-0.9568480772441219,0.28829937900164304,-0.036403641871310684,-0.9720899119997772,0.22620797316590202,0.06221861348857131,1
212,42.440000000000005,-0.9493487875989881,0.3125606452170637,-0.03229121468486928,-0.9662069195162534,0.24918857336942116,0.06594879514460335,1
213,42.64,-0.9496501098750132,0.31131851173789066,-0.035290977085940596,-0.9663520998928388,0.24954529002022674,0.06237601511335795,1
214,42.84,-0.9538642418599736,0.2979949248151698,-0.03663376700939848,-0.9697842729270199,0.23622681970357123,0.06095370075842731,1
215,43.04,-0.9554334815667516,0.29318009595060335,-0.034529605263184354,-0.9709829492687968,0.2308771079871985,0.06235281258080594,1
216,43.24,-0.9552132340508377,0.2940209581100927,-0.03345674350803972,-0.9710502254700485,0.23066943170620477,0.06207312535151351,1
217,43.440000000000005,-0.9548381409957686,0.2956212329367904,-0.02986990352641248,-0.9706874752487265,0.23127859139339776,0.06539142572493131,1
218,43.64,-0.9561678854301302,0.2917569631609311,-0.024916848098921397,-0.9717782484602145,0.22546486711493394,0.069373118111002,1
219,43.84,-0.9988758174543853,-0.04177246099145124,-0.022408989436201083,-0.9744997577035417,0.2129091518855937,0.07085136046044568,1
220,44.04,-0.9997462452079648,-0.008054430131674494,-0.021037379775776344,-0.9780080900729601,0.1963240154508145,0.07040636838460973,1
221,44.24,-0.9997370832633636,-0.0008436101294860204,-0.022914027799847848,-0.9788105712812873,0.1938217843735668,0.06605286859968203,1
222,44.440000000000005,-0.9997452114670469,0.009579709425215086,-0.020438720998111358,-0.9779863359363958,0.19766946191334428,0.06685439812452375,1
223,44.64,-0.9997144930310335,0.01811123245015379,-0.01558575255931093,-0.9766221819205785,0.2030276689693144,0.07063199992620592,1
224,44.84,-0.9998102258176402,0.018224194776765016,-0.006884117606362589,-0.9762786809219158,0.2015283642124569,0.07915968415307968,1
225,45.04,-0.9904348638722029,0.1250634873134108,-0.05829154799333662,-0.9763318854940188,0.19944430718816172,0.08365415529385405,1
226,45.24,-0.9915482549695386,0.11644028839455166,-0.0572164076594862,-0.9770225890438613,0.19550169550750854,0.08488785279249317,1
227,45.440000000000005,-0.9911921505274621,0.11853367763945008,-0.059058344016845524,-0.9772580959082394,0.1947717446204939,0.08384856277415732,1
228,45.64,-0.991012596501142,0.11927585074207465,-0.060558277764637736,-0.9774253124783532,0.19422343778188877,0.08316859228566244,1
229,45.84,-0.9910644927092936,0.11844893495460866,-0.06132716444602491,-0.9779978332814689,0.19114156875418523,0.08357714275411471,1
230,46.04,-0.9922979492066899,0.11189640971557477,-0.05314107162038019,-0.9791259447129191,0.1811955964187501,0.09208984867230174,1
231,46.24,-0.9922531040840571,0.11099804112097829,-0.05579616745673123,-0.9802440540180999,0.17571678039528765,0.090803125770396,1
232,46.440000000000005,-0.9915611321366886,0.11697364755316461,-0.05588995449914616,-0.9798138561224128,0.1780571975925752,0.09088697231180431,1
233,46.64,-0.9906391408513154,0.12380263334392984,-0.05750652650331182,-0.979037241596215,0.18297580482654077,0.08947588734264962,1
234,46.84,-0.990572596656984,0.1249942522673905,-0.05605682520760856,-0.9788936801294563,0.18295088372787935,0.09108313315756014,1
235,47.04,-0.9903713551349356,0.1266533348192805,-0.05588838615800688,-0.9787729850057036,0.18362916224432924,0.09101524375878141,1
236,47.24,-0.9895744010806572,0.132910129059808,-0.055474339285510994,-0.9775271882686021,0.19021948525605484,0.0908688264731226,1
237,47.440000000000005,-0.9883134546973011,0.1421679153878445,-0.054998173592952095,-0.9754937153863583,0.20075803841074855,0.09004566205646347,1
238,47.64,-0.9882061758269858,0.1430886669064249,-0.05453611152572986,-0.9753303646756579,0.20139139035916206,0.09040015282538029,1
239,47.84,-0.9890356208330778,0.13681350226335806,-0.05559322190486078,-0.9768221153716414,0.19457956169753618,0.0892039746337928,1
240,48.04,-0.9890781596650506,0.13683268699796772,-0.05478329893784675,-0.9768201667152023,0.19437753952770626,0.08966456393492259,1
241,48.24,-0.9881893149965462,0.14361558513385733,-0.053445686760642465,-0.9754018363683132,0.20103875452120337,0.09041391922644293,1
242,48.440000000000005,-0.9872568665799076,0.15140885672118504,-0.04898201197589229,-0.9734603198241373,0.20856954888114798,0.09420057859378195,1
243,48.64,-0.9871470405049327,0.15255141946017767,-0.047631762963784276,-0.9732275236002526,0.2090665645693962,0.09549533436807466,1
244,48.84,-0.9878471708066292,0.14847492190289127,-0.04596917113967623,-0.9741662295046631,0.2038890752615041,0.0971051094519581,1
245,49.04,-0.9886889107531065,0.14212491361304136,-0.04790351432120211,-0.9760615221968088,0.19560408254172235,0.09509441508237894,1
246,49.24,-0.9895056598529219,0.13631337614843353,-0.04792924579053385,-0.9776702655540579,0.18728503645224148,0.09531614224537575,1
247,49.440000000000005,-0.9892436049387444,0.13858278760697923,-0.0468177430775627,-0.9776993560752771,0.18650803685728753,0.09653352431994448,1
248,49.64,-0.9895814092990409,0.13820156908547482,-0.04036038493420267,-0.9775949500072375,0.18348572539329638,0.10315571868414775,1
249,49.84,-0.9898937937280865,0.13544799068881383,-0.042001416130646965,-0.9786669488020405,0.17873377995695483,0.10131751687049532,1
250,50.04,-0.9903423831290202,0.13198845337694926,-0.04243833589449613,-0.9796581089539065,0.17359342818358794,0.10067428297398436,1
251,50.24,-0.9898128925439598,0.13588107449434778,-0.042506133063604366,-0.9791326905278939,0.17654323250226736,0.10065615429400207,1
252,50.440000000000005,-0.9882713983341164,0.14757810098365626,-0.039247259073571024,-0.976678267469173,0.18804181874386014,0.10363318125444067,1
253,50.64,-0.9868373144798728,0.1585244270478033,-0.03197062369298791,-0.9737139544655407,0.19897835122573204,0.11085463735256271,1
254,50.84,-0.9859936152318527,0.16463836971227847,-0.026660794071152103,-0.9719831814018911,0.20448422176721723,0.11590900793343904,1
255,51.04,-0.9878473279872473,0.1547434947051488,-0.01456390864067679,-0.9728741769495135,0.19159960625843217,0.12963574625241625,1
256,51.24,-0.9917082804191489,0.12792323504972924,-0.012261014742114081,-0.9778232132836765,0.16267927179383485,0.13189851436697025,1
257,51.440000000000005,-0.9999026966887539,0.006586745782638104,-0.012296826198373228,-0.9807459381046548,0.1502349860549677,0.12476719863924263,1
258,51.64,-0.9992208473518498,0.03546398696689947,-0.017320619095837618,-0.9803938969584273,0.16390090183941075,0.10938144807460029,1
259,51.84,-0.9986522177584307,0.047709664161436544,-0.020433695499616294,-0.9797309724863845,0.17444899222889587,0.09846202649349685,1
260,52.04,-0.9990661995588365,0.038903865002801505,-0.018794099789757837,-0.9820861241401521,0.16277533341263625,0.094926474725334,1
261,52.24,-0.9997764676236747,0.015389693804083225,-0.014497313907907173,-0.986169232723165,0.1354661017564318,0.09549439619747487,1
262,52.440000000000005,-0.9998687880668591,0.01245416798472919,-0.010358588201044157,-0.9871043115470812,0.1273053958941504,0.09704851519418686,1
263,52.64,-0.9997597481236986,0.021096369397239335,-0.005948884760537453,-0.986379343656163,0.13056784460328685,0.10003913416303213,1
264,52.84,-0.999139240332995,0.041482249567390814,-3.738495256910862e-05,-0.9833511515440113,0.14883044560612457,0.10425934594917509,1
265,53.04,-0.9986459291895818,0.05193141519982031,0.0030718444655553306,-0.9815747437088685,0.15838138118618617,0.10689415609108599,1
266,53.24,-0.9986085129588201,0.052435941326533723,0.0056133682735675415,-0.9813242994887383,0.15788803555801373,0.10988169756865229,1
267,53.440000000000005,-0.9987438493033924,0.05006977181512765,0.0019342773906530395,-0.9822325727473282,0.15387091444553164,0.1074379575469511,1
268,53.64,-0.9987918550656386,0.049140470261645836,0.0002108008654946591,-0.9827589449109022,0.15208320124234348,0.10514540454765911,1
269,53.84,-0.9985803694140454,0.053258065134835775,-0.0009079201521512325,-0.9823810337216456,0.15535344103694113,0.10388846395039532,1
270,54.04,-0.9979933512737984,0.06322785052975849,-0.0033925993985935796,-0.98132002867377,0.16398411110907196,0.1005992675295336,1
271,54.24,-0.9975454944385156,0.06993083403471893,-0.0035587886459476346,-0.9805039219637717,0.1695025110665658,0.09940300677439824,1
272,54.440000000000005,-0.9977020373459867,0.06766109946148693,-0.0035525055003587064,-0.9810982779088437,0.16661466433640026,0.09841606938082002,1
273,54.64,-0.9982404502903307,0.059141222595552365,-0.004280092763167891,-0.9828154164745091,0.15707903386662597,0.09695377382837987,1
274,54.84,-0.9982467657785374,0.059106349397706835,-0.0031359326469583017,-0.9829248240288679,0.15620043457969465,0.09726363423671514,1
275,55.04,-0.9971538520034173,0.07539258558716837,-0.00039175659388191814,-0.9800907224877604,0.17211249982546906,0.09899223756056841,1
276,55.24,-0.9966407284198419,0.08180667246618804,0.0038635210336556793,-0.9788232816188933,0.1772520971381899,0.10240447949642885,1
277,55.440000000000005,-0.9971389908348954,0.07557104359449933,0.001688291090007848,-0.9803692341779864,0.16965305602286956,0.100468926834966,1
278,55.64,-0.9978673557135285,0.06526662454255283,-0.0010040528433857014,-0.9826339141864955,0.15753444379222556,0.09804840493144899,1
279,55.84,-0.9979082562096189,0.06452630545215811,-0.00393294970375267,-0.983229783798913,0.15560671178511304,0.09510911364410998,1
280,56.04,-0.99812285619938,0.06120567152191655,-0.0021516751481694915,-0.9838390934440258,0.15062593051986872,0.09681150379093247,1
281,56.24,-0.9979870041490402,0.06340121181251926,-0.0014919417977058806,-0.9838319974290171,0.1507387229710924,0.09670800500410921,1
282,56.440000000000005,-0.9979690361946595,0.06365127401675895,-0.002513585635276448,-0.9842234796221796,0.14935089434949722,0.09486017350508451,1
283,56.64,-0.9979177613823227,0.06445892013263005,-0.002277966863001169,-0.9842414203457037,0.1499198932618085,0.09377020891647891,1
284,56.84,-0.9973628753582626,0.07257226041002261,-0.000749583936950903,-0.9831587127704815,0.1564618119604541,0.09443858798998064,1
285,57.04,-0.9963000351733022,0.085793864392625,0.005064854021298443,-0.9805329032940597,0.16953543923103725,0.09906038765551736,1
286,57.24,-0.9950117239146542,0.09926970133947322,0.009858786353288877,-0.9777783285341872,0.18253706878862566,0.10310072146666843,1
287,57.440000000000005,-0.9950433876179968,0.09853161924235841,0.013422993972296335,-0.977715149503319,0.18122806645828185,0.1059692142062722,1
288,57.64,-0.9959786953304836,0.08855653138560426,0.013571263638237534,-0.9797347313475673,0.169982030107623,0.10595265750230883,1
289,57.84,-0.9966703795074907,0.08006049836977804,0.015442513175568866,-0.9811700967537677,0.1599294793633599,0.1082949808013608,1
290,58.04,-0.9964671651537086,0.08242970991753194,0.016078920779817936,-0.9808969752103707,0.16084426875454624,0.10940861589455014,1
291,58.24,-0.9961996208585449,0.08566099607064553,0.015764173098400027,-0.980637291312391,0.16265421859125617,0.10906011214905503,1
