,timeStamp,x_gaze,y_gaze,z_gaze,x_head,y_head,z_head,fixations_head
0,0.04,-0.983941675896377,-0.028836878653121286,-0.1761454310045387,-0.9852616229287595,0.05997832410281094,0.16019405426421185,1
1,0.24000000000000002,-0.9768980253449501,-0.04956286903884023,-0.2078792199566287,-0.9904334536756947,-0.005463294640950962,0.1378830165455556,1
2,0.44,-0.9773856207291372,-0.046756454950125904,-0.20623089563015506,-0.9904309127617223,-0.03125386754718673,0.13442396664778283,1
3,0.6400000000000001,-0.9992666631747074,0.025909959710125222,-0.028192372292978093,-0.9901982522973555,-0.013071094555637746,0.13905598740931854,1
4,0.8400000000000001,-0.9983705292165275,0.05705359185546966,-0.0010835350942024658,-0.9880710662047135,0.015343019911847638,0.15323237213156335,1
5,1.04,-0.9905743327556301,0.13697624277910014,1.4137166940688072e-05,-0.9855208410300453,0.07333737198697172,0.15287348287220143,1
6,1.2400000000000002,-0.9441675736512339,0.32870724351097474,0.022341462104316003,-0.9756655390171728,0.1737978434154924,0.1336827049339356,1
7,1.4400000000000002,-0.9823399014960702,0.18498723010892656,0.028072096917013924,-0.965872966744161,0.23142991509191302,0.1163168367579814,1
8,1.6400000000000001,-0.8910024889390524,0.11446510334066777,0.43933165697639415,-0.9664490046446463,0.22929546847792132,0.11575797837239143,1
9,1.84,-0.9931891703281525,0.11640650476744344,-0.004979717934141036,-0.9673833798305603,0.23225334425946084,0.10113248987292996,1
10,2.04,-0.9604562111410251,0.27726509694975504,-0.025454518146486266,-0.9683688382970324,0.22903062061431195,0.09902912620173708,1
11,2.24,-0.9601372980045029,0.27872980094368394,-0.021120299394352147,-0.96947688603722,0.2224525361612914,0.1030991590411121,1
12,2.4400000000000004,-0.9607911845187709,0.27687725449332345,-0.014808298189084825,-0.9707132981614841,0.21532595768206197,0.10653837205794285,1
13,2.64,-0.960604446875215,0.2778657226145033,-0.005453149501167771,-0.9692564140164964,0.21766756005661542,0.11472940855282987,1
14,2.8400000000000003,-0.9666876300906161,0.25474064942969077,0.024944485521410275,-0.9691579871059435,0.21721565191653547,0.11640513988321242,1
15,3.04,-0.9650743285794321,0.26057304832716344,0.02707816098719504,-0.9687916419428827,0.21770258073597346,0.11852569697120859,1
16,3.24,-0.9644700961748112,0.26375862621211177,0.015126819997941262,-0.9698698984126096,0.21375504853967248,0.11688096242295741,1
17,3.4400000000000004,-0.9623430509826694,0.2716066049927992,0.011211795112872748,-0.9692464684691515,0.2160557501989531,0.11781848821830114,1
18,3.64,-0.9624184764105821,0.27122511343809824,0.013697229793837164,-0.9686555242738202,0.2158620530124384,0.1229229407517818,1
19,3.8400000000000003,-0.9622337748127437,0.2719184884721077,0.012903419572423707,-0.9686867319356114,0.21494283444640253,0.12428030130334851,1
20,4.04,-0.9053232771624161,0.4246871941717653,0.005527289970359964,-0.9688128692267826,0.21525122697392118,0.12275395597206094,1
21,4.24,-0.9052745522015293,0.42481285584299644,0.003467368863904404,-0.9696924510520286,0.21477990555493842,0.11647378478662539,1
22,4.44,-0.9046669092519269,0.4260302929275024,0.008716238447419842,-0.9703209454210358,0.21428026035241537,0.11207690618735207,1
23,4.640000000000001,-0.9076191101411538,0.41966828638880393,0.010299529409895562,-0.9704737883691629,0.21707128993250632,0.10516977310730992,1
24,4.840000000000001,-0.9068142167155363,0.42151055462456105,0.004102280180961657,-0.9695905517083345,0.22238563281627124,0.10217040841082313,1
25,5.04,-0.9069553887204157,0.42122142134160745,-0.0021064363164931335,-0.9698427609872389,0.22372028581015987,0.09671738560191756,1
26,5.24,-0.9079941063832301,0.41897085211913293,-0.0031824279862040184,-0.9702360651162574,0.2226748636021917,0.09517291141636512,1
27,5.44,-0.9070271397255287,0.42103929456280564,-0.0052612009447843295,-0.9696352084876276,0.22660930943851107,0.09195533337961428,1
28,5.640000000000001,-0.9093752619394505,0.41597525594826074,-0.001104269593310376,-0.970258839978382,0.22312678834575495,0.09387342417485979,1
29,5.840000000000001,-0.9098153416501666,0.4150116480338379,-0.0011730704278074195,-0.9703793990946075,0.22279890024296156,0.09340488136770661,1
30,6.04,-0.9104716246029723,0.41357070143096986,0.0008340927528137754,-0.9703403387658657,0.22258455815245623,0.09431723827499021,1
31,6.24,-0.9105541684324207,0.4133859834628216,0.0017706006944150847,-0.9701151967283159,0.22324842880130358,0.09506126505854326,1
32,6.44,-0.8804333178468015,0.47400662096882357,0.01244572629424564,-0.9700272428522375,0.22210666937032364,0.09856863368084319,1
33,6.640000000000001,-0.8827534246226171,0.4697698179612238,0.007918929834279647,-0.969924275487073,0.222140817169903,0.09950053853102687,1
34,6.840000000000001,-0.8785256058194534,0.4776813600385729,0.003643925254727786,-0.9678699064472998,0.2328030580001901,0.09502936587947715,1
35,7.04,-0.8796000559415685,0.47569019697206505,0.0047516410078747625,-0.9664068018415717,0.23771912424041564,0.09771136742833422,1
36,7.24,-0.8844271656582113,0.46654332369379176,0.011221219297948951,-0.9664492964200743,0.2346131032915776,0.10455835314808193,1
37,7.44,-0.9891000933839497,0.14723300979404982,-0.0018563660328024284,-0.9655806725557913,0.23714598787420896,0.10684449083538007,1
38,7.640000000000001,-0.8636088004740323,0.08592597814098046,0.4967862377565615,-0.9672920969710748,0.23028912922240943,0.1063621929977274,1
39,7.840000000000001,-0.9213338472390528,0.3873834608740955,-0.03283285203716138,-0.9677867106564103,0.226685907583232,0.10955538316309316,1
40,8.04,-0.9249072021636182,0.3781103561059627,-0.039739476484854444,-0.9674687943979077,0.22874521820074828,0.10807292453039054,1
41,8.24,-0.9655461600473464,0.25991041685895333,-0.01293012088223676,-0.9658673259077752,0.23676214353261615,0.10509041884779453,1
42,8.44,-0.9722965698093516,0.23350270558455427,-0.010764145189539047,-0.9662324367267424,0.23823902211450432,0.09816846010316461,1
43,8.639999999999999,-0.9774438492118462,0.2111920593846703,-0.0011982031513706765,-0.9673250536907714,0.23433790318234454,0.09678836518016457,1
44,8.84,-0.9788329441596253,0.2046481852496074,-0.0022776527045507027,-0.9664315968917254,0.2384929755259122,0.09555662799673331,1
45,9.04,-0.998683316393234,-0.035118206426385724,-0.037394453267908516,-0.9689826985855103,0.22714138195140937,0.09736181205763488,1
46,9.24,-0.9095712376525698,-0.2027492824214749,0.3627297783650373,-0.9811090430605671,0.14625711130652896,0.12662504893206528,1
47,9.44,-0.8919345497017956,-0.2702288293384412,0.36253156944276077,-0.9894348038186225,0.050562301094957636,0.13587576200480908,0
48,9.64,-0.8380569987549736,-0.398079689806181,0.3730858177438815,-0.9839038883012298,-0.07207272682464054,0.16351960320946882,0
49,9.84,-0.6907616985160958,-0.47318318170322665,0.5467595014413283,-0.9569204767576234,-0.1930324413086952,0.21689093518256575,0
50,10.04,-0.7230629977383127,-0.5865822593635718,0.36483030891307755,-0.9104742512237571,-0.2883844981643896,0.29643046246465976,1
51,10.24,-0.7185754204369073,-0.6156095609911969,0.32353397589766086,-0.8919676997623864,-0.3278104976103842,0.311342095189568,1
52,10.44,-0.9271710501324291,-0.3729840863038972,0.03516696120474129,-0.8993925957035773,-0.3112169752256106,0.30698037905541037,1
53,10.64,-0.9343367898896692,-0.3524179145812885,0.05306954438134873,-0.9064020811455603,-0.2985220071266614,0.29886431462465796,1
54,10.84,-0.9295384818027216,-0.36871217260222805,-0.0030894373009332826,-0.9160700673251474,-0.2885800798922967,0.27845496806531483,1
55,11.04,-0.9251142665142971,-0.37889395365560835,-0.024555361429549998,-0.9217781446864126,-0.28386827768209283,0.26409061494925906,1
56,11.24,-0.9236497822498928,-0.38198124097427644,-0.03100663305613299,-0.9275472093488987,-0.2739988457660244,0.2541275407112672,1
57,11.44,-0.9819770517709674,-0.16766861356636886,-0.08722560300697657,-0.9331798393290387,-0.2671640784157361,0.2404136906960585,1
58,11.64,-0.9828431278923777,-0.16095159596066463,-0.0900775760799691,-0.9356199342953005,-0.26252530557015125,0.23599958153470557,1
59,11.84,-0.9322987170962254,-0.35702846762773505,-0.057877244268570424,-0.9381738066182356,-0.25711091669204567,0.23178413468834722,1
60,12.04,-0.9307246086741403,-0.36217682500070814,-0.050790257341093104,-0.940102581698069,-0.25386101961228064,0.22751201859690676,1
61,12.24,-0.929825708489016,-0.36489996946968734,-0.0476672226369539,-0.9380551933059429,-0.25894867328114735,0.2302130294264066,1
62,12.44,-0.9311138923827983,-0.3626462965583304,-0.038917643868591395,-0.9416612730795644,-0.24747955710353145,0.22809628580495256,1
63,12.64,-0.9343160012188783,-0.3529231498839825,-0.04998860012375779,-0.9426174649141215,-0.24328794950600555,0.22865539237909607,1
64,12.84,-0.9348714771991472,-0.34902441971337134,-0.06478638408824362,-0.9417217948587213,-0.2472601613274745,0.2280843565621724,1
65,13.04,-0.935743141206978,-0.34632378791321516,-0.06666789039365487,-0.9410856696466449,-0.24849873631479302,0.22936028521886062,1
66,13.24,-0.9369553459642338,-0.3445492397428066,-0.058313815358774744,-0.942131840078477,-0.24470824153189932,0.22914072627254334,1
67,13.44,-0.8693680588336189,-0.494154346048819,0.0032650514436347237,-0.9422463318998742,-0.24354392062235358,0.22990913150443812,1
68,13.64,-0.9746103859508641,-0.22211227047249976,-0.028297259624546205,-0.9424625352324731,-0.24388915594918192,0.22865355736042015,1
69,13.84,-0.9774072721411093,-0.20945438794866278,-0.02835284350337085,-0.9454795275345386,-0.2356923164267233,0.2247611954730424,1
70,14.04,-0.9443176504710412,-0.3055894055329125,-0.1219806961567849,-0.9482786487669841,-0.2273591049720213,0.22152977605501395,1
71,14.24,-0.9407608471795796,-0.31816618071754976,-0.11721480222892892,-0.9463673822626069,-0.23679298284632155,0.2198132413303682,1
72,14.44,-0.9736190989729818,-0.2281404439611998,-0.0042175756336775986,-0.9465770595080515,-0.24117545228216106,0.21407071642236855,1
73,14.64,-0.973636380085815,-0.2279709028484489,-0.007840078306619827,-0.949111187328897,-0.23688711436579268,0.20753903038845337,1
74,14.84,-0.9720098009338095,-0.23484830131823928,-0.006574363585441015,-0.94970909952867,-0.2362840562683598,0.20548107218382403,1
75,15.04,-0.9705229308076048,-0.24100793343957402,0.0006455972454660109,-0.9498226629318182,-0.2360949518894364,0.20517329912401996,1
76,15.24,-0.9700947442210409,-0.24172166120689167,0.02206412785709348,-0.9496363143648996,-0.23525559446922853,0.2069919701591813,1
77,15.44,-0.9711600248121877,-0.23510802633880085,0.03965377860765553,-0.9507843400929434,-0.22980661823982756,0.20784142235656586,1
78,15.64,-0.9546840342901144,-0.2809719111684134,-0.09814876364947656,-0.9498182873103418,-0.23107573525744862,0.21082985003570737,1
79,15.84,-0.9547285462404722,-0.2815274202279882,-0.09610262563181315,-0.9485336005464666,-0.23235077953797237,0.21516766458381453,1
80,16.04,-0.962579623154809,-0.2701368913393627,-0.021599282966138493,-0.9493343277348443,-0.2270036067036858,0.21733314686846444,1
81,16.24,-0.9862374192462927,0.12572853994784056,0.10736892996112396,-0.9614778506669865,-0.17102249769679653,0.21520141253797845,0
82,16.44,-0.9204197270850644,0.36246462400955315,0.14644767780428944,-0.9789689384574738,-0.02224600030742734,0.2027928327278084,0
83,16.64,-0.9073511471976704,0.3915944990902125,0.152864789802481,-0.9758089247070427,0.12598515520782225,0.1786747971297197,1
84,16.84,-0.8990355198036196,0.4016778556396908,0.17432737713892027,-0.9681565755574851,0.18261742838528988,0.17124170068866798,1
85,17.04,-0.9136895331023999,0.3547027136273244,0.19838705110094876,-0.9694801207313792,0.16907457532438716,0.1775445957655401,1
86,17.24,-0.921334066129397,0.33213952439226496,0.20205661317054618,-0.9691533646958297,0.16069749576538575,0.1868637753912903,1
87,17.44,-0.9276278199300853,0.3206628907372782,0.19152529387986866,-0.9673883668314448,0.15588343052718687,0.1996499531837309,1
88,17.64,-0.9358298450776201,0.30399349191707525,0.17835486518192042,-0.9675498737786933,0.1550245311530603,0.19953605311223532,1
89,17.84,-0.9671802572799998,0.25076803645952567,-0.040960246801348944,-0.9674534118611645,0.16345763765658639,0.1931721940909724,1
90,18.04,-0.968399279770067,0.24361727598855254,-0.05341776652699588,-0.969066958309261,0.1684981345521446,0.1803263956432465,1
91,18.24,-0.9920281637806626,0.11459503022386924,0.05242233602156398,-0.9715691441992146,0.15966202690054676,0.1748182919663018,1
92,18.44,-0.9944449980901866,0.09127185244001804,0.05242704193044601,-0.9732763108513929,0.15129083620325187,0.17275504512582016,1
93,18.64,-0.8687245197198201,0.0651663336736311,0.4909898754486747,-0.9737096316323262,0.15159693064077862,0.17002330395194346,1
94,18.84,-0.9986224808581128,-0.0431799611736887,-0.029809925827270437,-0.9754467077703213,0.14276766474977046,0.16769351270081634,1
95,19.04,-0.9976072178347957,-0.0599894065510734,-0.03436728132350278,-0.9776498376277671,0.1252668187681646,0.16884614032338666,1
96,19.240000000000002,-0.9966832613947758,-0.07334631002018158,-0.03525330143258423,-0.9796407654645607,0.10731918922211786,0.1696660315582266,1
97,19.44,-0.9727138943116937,-0.21887611743979765,-0.07694754724784317,-0.981342831361225,0.0944752807522851,0.16745348208595606,1
98,19.64,-0.9721255137993253,-0.22226057711931896,-0.07464731260390525,-0.9817742533602706,0.08917900510822147,0.1678285449105461,1
99,19.84,-0.8632168005673155,-0.38577405142697974,0.32563036784664584,-0.9856174011075923,0.029520071325164158,0.16639382206942885,1
100,20.04,-0.8399703065893933,-0.43114546730702386,0.32948971162803925,-0.9853181537356767,-0.03676892892112493,0.16672186954599255,1
101,20.240000000000002,-0.8434772679971801,-0.45544961649885596,0.28480123806447627,-0.9834218745163954,-0.06347232250146387,0.16986076945230585,1
102,20.44,-0.8330909344269521,-0.46053598065060475,0.3063757586719507,-0.9809201613111449,-0.07659547588581914,0.17868623396093586,1
103,20.64,-0.9929672929855758,-0.11558492566746209,0.025614059017357145,-0.9814066134677927,-0.06357074284510936,0.1811072049803645,1
104,20.84,-0.99651818219366,-0.0029929144144204465,0.08332199601997026,-0.9820311176388057,-0.05935187218451766,0.17914306924151802,1
105,21.04,-0.9947872444455689,-0.06543929505255262,0.07820509543128697,-0.9843179888676029,-0.04862302739164181,0.16956974376022863,1
106,21.240000000000002,-0.9864514470301166,-0.14927938806052551,-0.06803827564293652,-0.985362367486399,-0.0501779025630557,0.16292078699776386,1
107,21.44,-0.985569628631173,-0.14951082013255826,-0.07936637690547328,-0.9864552970713625,-0.0507965768941538,0.15596683832047917,1
108,21.64,-0.9822142680708112,-0.15600399828204048,-0.10448867937789942,-0.9871712841526279,-0.0582769114958615,0.14864944443540745,1
109,21.84,-0.8230919248739782,-0.481951552655924,0.3004037018743179,-0.9872902887682958,-0.06348840861183175,0.14569525618822451,1
110,22.04,-0.8273716317485345,-0.46673181674704856,0.3124381446202872,-0.9875815368661194,-0.060003707271397685,0.14519732488872447,1
111,22.240000000000002,-0.8322282863997428,-0.45377513775545725,0.31856585452801406,-0.9878407579142199,-0.05620090331647661,0.1449554947901999,1
112,22.44,-0.9339640899396189,-0.35564767706333694,-0.03501154813361059,-0.988096175903252,-0.05123216056255161,0.14505589574182312,1
113,22.64,-0.9807649812251777,-0.18932397204150886,-0.047502475859718216,-0.9881353929348481,-0.04727381707396009,0.14612881799546376,1
114,22.84,-0.9883586178384769,-0.14554815110886277,-0.044305510415835817,-0.9885423309680876,-0.03873853561095564,0.14588826458251677,1
115,23.04,-0.9945376978431882,0.07808633371442593,-0.06926248664183629,-0.9889602693476929,-0.019158983929065985,0.1469371259639477,1
116,23.240000000000002,-0.9913860426289298,0.11194056376431194,-0.06799282803853679,-0.9893858438385099,0.01409623353186534,0.1446269276869817,1
117,23.44,-0.9900737800087542,0.11629930047706989,-0.07892010420495874,-0.9884746036309192,0.03218252691390518,0.14792647815091498,1
118,23.64,-0.9905044109936292,0.10390381148049459,-0.09002782770893575,-0.9878974000575376,0.028259513114496173,0.15251271054600607,1
119,23.84,-0.9654636540040575,0.23025320213401737,-0.1219155269199345,-0.9875709447820303,0.03138971075662132,0.1540075163131468,1
120,24.04,-0.9736998404761084,0.18279771644650564,-0.13599123324223603,-0.9880441572035575,0.04011183310654566,0.14886162789901475,1
121,24.240000000000002,-0.9802333719166045,0.1324826490829723,-0.14693836896114568,-0.9894965229843714,0.033173668568449825,0.1406987516488694,1
122,24.44,-0.9845137612756084,0.09390345342090045,-0.1480364660973211,-0.9903224434665275,0.016550580930909817,0.13779526928503905,1
123,24.64,-0.9849293023822732,0.08952611651975155,-0.1479842686560334,-0.9906470362101164,0.014208210249122902,0.13570768736379213,1
124,24.84,-0.9837060989183335,0.10002231555279231,-0.1493915906011164,-0.9910505785947233,0.017157596033172632,0.13237963425477106,1
125,25.04,-0.9838889585135189,0.10178694267835461,-0.14697596951670894,-0.9909743938736145,0.01350294825316811,0.13336949079641564,1
126,25.240000000000002,-0.9992225091625874,-0.00743929533997297,-0.038717361321088266,-0.9911129938369495,0.015423268653599153,0.13212553209579975,1
127,25.44,-0.9990816015958996,-0.02677330300496803,-0.03345360367399056,-0.9913585149596971,0.026747732128719663,0.12842450561662586,1
128,25.64,-0.984781557079083,0.1655504755364396,-0.05289919551898632,-0.9907357947969969,0.03749286438184035,0.13052536162910175,1
129,25.84,-0.9304860202853602,0.3636904334654324,-0.04387521691385792,-0.9880443317084671,0.06711965073221988,0.13879247481169132,1
130,26.04,-0.9215831632196382,0.38482261787404176,-0.05095121237669293,-0.9833863818802878,0.10996550380594092,0.1444258006905341,1
131,26.240000000000002,-0.8513629876638255,0.521216428416585,-0.05928320153959558,-0.9779531116441381,0.15105385671453092,0.1441889170401605,1
132,26.44,-0.8607658059602887,0.5045399006105897,-0.06724370588680417,-0.9770251987633107,0.15748857011203185,0.1435935627581579,1
133,26.64,-0.88245941919935,0.46531964211747584,-0.06886947165479487,-0.9764806365722254,0.16142265868448538,0.14292757488579344,1
134,26.84,-0.898136726202745,0.43355843661445337,-0.07333146041261508,-0.9772013429447606,0.15983981912576722,0.13974536689564582,1
135,27.04,-0.9405874356711995,0.3315879644269863,-0.07310743946169261,-0.9782954504522505,0.1547508220976319,0.13780491531340863,1
136,27.240000000000002,-0.9436904594464397,0.3220637334914765,-0.07565228561847313,-0.9809198624989477,0.13953137073162358,0.1353780629821527,1
137,27.44,-0.9452147331788431,0.31732081009186375,-0.07665906120147843,-0.9826810481006298,0.1271122040689635,0.13483488154249032,1
138,27.64,-0.9406476435782609,0.3306825279351164,-0.07636148472303363,-0.9826136657260822,0.12892808880296042,0.13359615206272665,1
139,27.84,-0.8957661243059909,0.43971867847718105,-0.06519612215543001,-0.9818962073238766,0.13576806127313276,0.13208660636537514,1
140,28.04,-0.8907116751449596,0.45306298664216976,-0.03696811998651149,-0.981623692185428,0.1388519302524444,0.13090098702996425,1
141,28.240000000000002,-0.892296724450697,0.4504434190817723,-0.03012111784911108,-0.9812390653206604,0.13789961661508304,0.13473526793697996,1
142,28.44,-0.9418554375850284,0.31837019376221654,-0.10746513116040789,-0.9807364383704793,0.14029185030759198,0.13591995876124835,1
143,28.64,-0.9777111555704789,0.19087763224912266,-0.08744498716340211,-0.981047975873929,0.13766470607370357,0.13635724306140792,1
144,28.84,-0.9860783956836485,0.15503710936063922,-0.06010733971038207,-0.9801589444868651,0.13826848343003711,0.14202207586270513,1
145,29.04,-0.9970274027236093,0.025445062358325346,0.07272487208510155,-0.9791122770624681,0.1384929223433678,0.14885852130913838,1
146,29.240000000000002,-0.9048053117309375,0.4195657666858842,0.07274555167683815,-0.9783163167040085,0.13913782443059672,0.15342050150948702,1
147,29.44,-0.9152807261870728,0.39649936792486273,0.07105943642929806,-0.9778960842338693,0.14531779065360168,0.15033957615884666,1
148,29.64,-0.9730264573301101,0.22813250146958164,0.034279368559633656,-0.9776855656322596,0.15125028498129178,0.14578849765124263,1
149,29.84,-0.9994867029393371,-0.01936668039154953,-0.025519842046243028,-0.9796417062331292,0.14341119987081172,0.14048257956151558,1
150,30.04,-0.9976845605066167,-0.050179433838086415,-0.04590797475829228,-0.9815472492947517,0.13512465516048566,0.1353008683256194,1
151,30.240000000000002,-0.9971928707574779,-0.06153983597382837,-0.04265239851138872,-0.9823860550802281,0.13123402245546786,0.1330235698440881,1
152,30.44,-0.997359983460425,-0.06042674947760745,-0.040269980623182454,-0.9819847983550076,0.13628275349330052,0.13089257771149526,1
153,30.64,-0.9975098510240445,-0.054676891763482366,-0.04454811575222134,-0.9809306470067009,0.14476852591108502,0.12968091481998004,1
154,30.84,-0.91935168687956,0.3933090721336154,0.010022455243210486,-0.9791943840687387,0.1608336055051153,0.12373726014611944,1
155,31.04,-0.9233539316198505,0.3839442269790303,0.002085073533364004,-0.9780535565083502,0.1695377940005613,0.12111224961493697,1
156,31.240000000000002,-0.9304152988575491,0.3665062605953514,-0.0007297919086480248,-0.9783189989456043,0.16755901101470366,0.12172063970356446,1
157,31.44,-0.9354061483953303,0.35355120516008814,-0.00410887746993205,-0.9786961020998919,0.1656190254796131,0.1213436365602306,1
158,31.64,-0.9412696997843112,0.3375670955298322,-0.007733581544560902,-0.9788328455133003,0.16294963557675143,0.12382922437671948,1
159,31.84,-0.9442389440560728,0.32919912704622656,-0.006383672914159119,-0.9784841701062048,0.16340152668703825,0.12597090905410377,1
160,32.04,-0.9477199336253098,0.31896376655085645,-0.009436261809074647,-0.9791508826947497,0.1602161866380554,0.12487722953866545,1
161,32.24,-0.9518905648001724,0.3062603886387666,-0.010436809629415511,-0.9800270881318747,0.15585926567054378,0.12351030658369411,1
162,32.44,-0.9703675334841607,0.24025161441337212,-0.025807203095937294,-0.9799296751767319,0.15862453287963693,0.12073147591552753,1
163,32.64,-0.9727367384466042,0.2310125922250122,-0.020406369342513574,-0.9799534207589575,0.15850579888029068,0.12069467620462258,1
164,32.84,-0.9754231783073691,0.21964544420176305,-0.01747861728400088,-0.9805525302080784,0.15623720719533563,0.11877150580142296,1
165,33.04,-0.9758872307750251,0.21722712501843774,-0.02136560241315852,-0.9799063837522922,0.16080512571755287,0.11800504491108695,1
166,33.24,-0.9792652467923145,0.20198577711381666,-0.015534550798634361,-0.9801241220606269,0.15742960271366127,0.12071713028524404,1
167,33.44,-0.9817492913901473,0.18980640217616918,-0.011910438609989266,-0.9804449379250784,0.15365398940937716,0.12295598901913016,1
168,33.64,-0.9835560313443401,0.180081391654648,-0.013719533005775497,-0.981615683677374,0.1508221105567123,0.11697581171259731,1
169,33.84,-0.9849342795569269,0.17289608819578883,-0.0033775198402526685,-0.9800885911813555,0.15008008901280834,0.1300089239939076,1
170,34.04,-0.9853218699705834,0.1707039581058887,0.0009855174559012057,-0.9796960316331249,0.15035389120101028,0.13262500896520965,1
171,34.24,-0.9901802833213706,0.1373320038959624,-0.026132876373062042,-0.9872741177515967,0.12209456171914898,0.10189570362098578,1
172,34.44,-0.987158530006575,0.1586530145958518,-0.01863484893705411,-0.9823749566159334,0.14882918247184526,0.11308987160044648,1
173,34.64,-0.9860019446281311,0.16514860358653222,-0.022936955398718623,-0.9821159669962788,0.15617122593604438,0.10516071300917268,1
174,34.84,-0.9874296839313799,0.15692776912427886,-0.01887576670901149,-0.982904079040845,0.14697863928083996,0.110891167367022,1
175,35.04,-0.9890004521491443,0.1477149219884085,-0.007642478050130134,-0.9839812057895361,0.13066562115216865,0.12127440827268049,1
176,35.24,-0.9891445776280583,0.14490518114814918,-0.02440272577873735,-0.9859614434248103,0.12739103555482337,0.1079423741629509,1
177,35.44,-0.9878311398710423,0.15485160787977753,-0.014512706092433316,-0.9829700234344605,0.14101726756418917,0.11783065508595929,1
178,35.64,-0.8316970483450279,0.5551705782933019,-0.008102392958229896,-0.9635842986058097,0.24683921456481342,0.10283823040764674,1
179,35.84,-0.6695972553142286,0.7427021900749727,-0.005742171496106331,-0.8982152984066892,0.4252365654969157,0.11127956269041417,0
180,36.04,-0.5299729723998532,0.8478434642241625,0.0170325775511502,-0.7911505241872843,0.60235501910763,0.10606261845736216,0
181,36.24,-0.4532822133654351,0.8700913989236079,0.19358768701984008,-0.7216693966923611,0.6717034981723405,0.16735498923164654,1
182,36.44,-0.44810143892541665,0.8761186666842434,0.17782345829612667,-0.679951738996963,0.7067631972985218,0.19532387355204903,1
183,36.64,-0.47414704389163276,0.854877840591825,0.21063821693577964,-0.6879400951517028,0.6876090747435365,0.23223304203537457,1
184,36.84,-0.47282638596570553,0.8432430388567554,0.25568806416067685,-0.6759286834342035,0.6761028322585287,0.29326673033758904,1
185,37.04,-0.4412262013461722,0.8618907515097649,0.2499275329121625,-0.6418790876593543,0.704318973020267,0.30319304258058244,1
186,37.24,-0.4518008057076498,0.8613668133845436,0.23221379106692985,-0.6419867882368895,0.7051194039774948,0.3010973096254862,1
187,37.44,-0.7402992477714558,0.6529534549226159,0.16002752717465965,-0.683865641980961,0.6769237620771686,0.27221683278824066,1
188,37.64,-0.7268911711717323,0.6807850132057364,0.090338203806878,-0.7176609861964132,0.6533708274237745,0.2409756642550533,1
189,37.84,-0.7126518323584782,0.6925047608761048,0.11209157863119036,-0.7206157253561082,0.643952849110399,0.25697802336404196,1
190,38.04,-0.5915235828051102,0.8054222799032306,0.037347048355767076,-0.7162417191919276,0.6593140895365149,0.22869790341764953,1
191,38.24,-0.5940795674378377,0.8028586701241249,0.049874075022935074,-0.7115849788745398,0.6641035487243179,0.22937588018771443,1
192,38.440000000000005,-0.7204271613509008,0.6637683605147282,0.2009882304202747,-0.7043423224614209,0.6644092425448116,0.24992449101814998,1
193,38.64,-0.6181033856035157,0.7802658933541139,0.09556851141342737,-0.698489133708963,0.6641218318730079,0.26656166738700976,1
194,38.84,-0.6039850128117723,0.7937331471517622,0.07204023467009366,-0.6960416461869128,0.6700277692297775,0.25804808705816934,1
195,39.04,-0.6187561829824615,0.7715736332279366,0.14769872893297503,-0.7005590723934786,0.6684539907097273,0.2497723931731222,1
196,39.24,-0.659289850247736,0.7454367539345421,0.09829007703655174,-0.6949969311030373,0.672602738280874,0.2541354406894684,1
197,39.440000000000005,-0.7936737506033842,0.5958572022042953,0.12262207054371078,-0.6740515770649775,0.6976535688878769,0.24276319588072934,1
198,39.64,-0.5804482150419998,0.8140224533814155,0.021149823768951505,-0.6676315563199745,0.7062659167005418,0.23549216528987096,1
199,39.84,-0.550499030325157,0.8344508840686224,0.025348366577688734,-0.6632019624095223,0.7169217118695891,0.2149102512821021,1
200,40.04,-0.6954343627449913,0.7153599341343083,0.06805300690510346,-0.6893209658103935,0.6880799151967645,0.2266773839557892,1
201,40.24,-0.688168862954338,0.7229159520169487,0.06177493326230536,-0.7161557083318478,0.6607843934439718,0.22468864413804185,1
202,40.440000000000005,-0.925254702567983,0.37797425616355534,-0.03223657943145585,-0.7813140370035355,0.5836823946249856,0.22105030600766132,0
203,40.64,-0.7561365890989133,0.5231873805753311,-0.39310612235449205,-0.8731508342675348,0.45004627147434134,0.18725910965811854,1
204,40.84,-0.9859696259031058,0.16410524962648088,-0.03055100393637308,-0.9080799534638256,0.37908027129997557,0.1780138927956841,1
205,41.04,-0.9841308150509129,0.17603954349195192,-0.02228492751549921,-0.9142890741491289,0.3687620158794334,0.16760090851801962,1
206,41.24,-0.986819859015786,0.1591628138075632,-0.029219249698162097,-0.922178691233474,0.3550205078741133,0.15344999323468275,1
207,41.440000000000005,-0.9896430602684627,0.14098029266961765,-0.027040161635261763,-0.9278449312208352,0.338857457863642,0.15581850614735668,1
208,41.64,-0.8762362490152058,0.17135428352592885,0.4503862180718652,-0.928646920763526,0.3350890058577863,0.1591548136553288,1
209,41.84,-0.8748800387645554,0.1777545373287691,0.4505421647641483,-0.9258177029859459,0.34273432650818253,0.15935734143995228,1
210,42.04,-0.8746058637155725,0.2094843970162897,0.43724234763007513,-0.9189736787349316,0.3685109519076928,0.1403105702236054,1
211,42.24,-0.863384248433094,0.2296847035293058,0.44923554681511635,-0.9078736679594072,0.3890756887750845,0.15615860984949292,1
212,42.440000000000005,-0.859204749481547,0.22421164434907948,0.45988730902976,-0.9086657250615822,0.3835238843475918,0.16503342156437345,1
213,42.64,-0.862894706393942,0.2216843177102982,0.45416823860617217,-0.9111636757607608,0.3799434475046309,0.1594482131365379,1
214,42.84,-0.8651458841741813,0.21087359831398714,0.45503288302119993,-0.9145693918190001,0.37063809332400177,0.16183396221119103,1
215,43.04,-0.9792160252668122,0.19938942095346582,-0.03714612594211887,-0.9173817053479378,0.36042427277373856,0.168834683310128,1
216,43.24,-0.7866206231040609,0.6174366216834654,-0.00011623892792120042,-0.9206373975769894,0.3515807293825643,0.16975798334538716,1
217,43.440000000000005,-0.9396007517891709,0.3367393724633501,-0.06129455334868029,-0.9168491902752532,0.36342882459821163,0.1652484545851331,1
218,43.64,-0.9414164143801369,0.3305374626584433,-0.06693370238500837,-0.9162634862405412,0.369823452238842,0.15392153181564536,1
219,43.84,-0.9410652852083496,0.3319498837238618,-0.06484908381343416,-0.9122783471257592,0.3815768829311768,0.1488196888117299,1
220,44.04,-0.9374892559323036,0.34120780742153045,-0.06849180364165981,-0.9044214515959749,0.40297696296625773,0.14011211657640957,1
221,44.24,-0.9391690613277871,0.3375125362715894,-0.06361416590825059,-0.9011698694345873,0.4095251478844118,0.14206343538539098,1
222,44.440000000000005,-0.9935908606686117,0.11064013808129707,-0.023150841046480415,-0.9069722758517561,0.3958823700971314,0.14379999959166928,1
223,44.64,-0.9961035606469759,0.08565651905500181,-0.020991836741854446,-0.9128661285943056,0.3846887340463129,0.13671140831360712,1
224,44.84,-0.9982989957252333,0.05152217756771905,-0.027286999700796826,-0.9268487272558269,0.3522508900117083,0.1298874407716669,1
225,45.04,-0.9040510819853651,0.044520230067364365,0.4250995063227428,-0.9441894445664758,0.30303453051128687,0.12913700510331563,1
226,45.24,-0.8939695202325132,0.029552120271088743,0.4471522884686307,-0.9560222624012871,0.2641347295880429,0.12749226807369995,1
227,45.440000000000005,-0.8898383981485415,0.022461657995142995,0.45572261201365427,-0.9612791144846012,0.24563735095510303,0.12491899724005429,1
228,45.64,-0.8873896731906602,0.015192855930677592,0.4607697310406179,-0.9643881900982758,0.22942874905469404,0.13159737043790232,1
229,45.84,-0.8852826682269085,0.024446818937026465,0.46441032544605,-0.9625295383591806,0.2349216271644799,0.13545743566322324,1
230,46.04,-0.8846911981555395,0.045278222356692474,0.463973454506111,-0.9580877618502179,0.25399693058514633,0.1324892442659586,1
231,46.24,-0.8793880514526958,0.06402013963894355,0.4717818104620409,-0.9523852739814904,0.27081043770536584,0.1400856764020857,1
232,46.440000000000005,-0.8751270121912811,0.06631406091058774,0.4793278187824155,-0.9513758324213311,0.27040646312803324,0.1475275234768324,1
233,46.64,-0.8740114141914218,0.04533951398350022,0.48378546519593885,-0.9585331505036111,0.24260228362345201,0.1495270255382221,1
234,46.84,-0.8826386673141283,0.01788093854986904,0.46971188509395373,-0.967956080871854,0.21241383283437715,0.1339454707103244,1
235,47.04,-0.8890723458204279,0.006496873566103365,0.4577206075011564,-0.9707819769262414,0.20261418630175707,0.1285684439684005,1
236,47.24,-0.8906096702721581,0.006770008590129545,0.45471813489392277,-0.9711401529682098,0.20237949372305936,0.1262115042826136,1
237,47.440000000000005,-0.8971888527108847,0.0073950514295379344,0.441585185197241,-0.9695828451022518,0.2116383186210041,0.12295661257003404,1
238,47.64,-0.8949124983199525,0.022686516254900674,0.44566460744707725,-0.9655725978845934,0.2253009426529813,0.13003477786375273,1
239,47.84,-0.8945071492469823,0.027160273091728204,0.44622783363615925,-0.9643841835393312,0.23022439620549903,0.13023008074554557,1
240,48.04,-0.8980752290825924,0.03397157632249863,0.438528009265559,-0.963647073384073,0.23717769620130064,0.12300836712579666,1
241,48.24,-0.9014349812936214,0.02508047885437405,0.432187394634092,-0.9661023453998149,0.22968134078722058,0.11786746755217052,1
242,48.440000000000005,-0.9289085743512596,-0.05615473165504152,0.3660266474035199,-0.9681132584609298,0.22104050313180232,0.11788899341075376,1
243,48.64,-0.9291427727147484,-0.05324505206301329,0.3658670145596028,-0.9674447043277478,0.22448761587097907,0.11685912197496802,1
244,48.84,-0.9287252858057169,-0.04274551363492443,0.3682962999667197,-0.9648914185349733,0.23427150985366477,0.11874935834964073,1
245,49.04,-0.9257946173600942,-0.030657742976544777,0.3767816732043386,-0.9608414152061389,0.24753373778861287,0.12454245654017913,1
246,49.24,-0.9230815787074166,-0.02457472846474755,0.383818292648888,-0.95839004803833,0.25489897684650276,0.12851080664167466,1
247,49.440000000000005,-0.9150857128278066,-0.019272236047709074,0.4027986086075109,-0.9583369754788966,0.2525265694771087,0.13349371947055652,1
248,49.64,-0.9287171140538815,-0.03473973570758418,0.3691580594086997,-0.9621119828976508,0.23709673765843647,0.1346316060829591,1
249,49.84,-0.8560392718833894,-0.02882110141978152,0.5161066838419237,-0.9653758233084838,0.22334860906840212,0.1347772925929195,1
250,50.04,-0.8674263512801842,-0.0020302033953406903,0.4975614568864033,-0.9613092394178189,0.23357959247522914,0.14603123018396047,1
251,50.24,-0.8636354749627312,0.012552104650036568,0.503960525294147,-0.9567523742199074,0.24764607063292032,0.1526313143645344,1
252,50.440000000000005,-0.8629856861584857,0.008606558268027325,0.5051550580171863,-0.9566044275076782,0.2418468126818931,0.16253642197463553,1
253,50.64,-0.8633863583331174,0.004540613255207751,0.504522922249866,-0.9563618184537729,0.24177013342523151,0.16407094437266784,1
254,50.84,-0.8655119538055743,0.005461084783824464,0.5008584973549329,-0.9572360899150274,0.24173009393833753,0.15895165884240584,1
255,51.04,-0.8689668540732003,0.01563004512050631,0.49462340038827207,-0.9564392155341177,0.2504840489462388,0.1499392150572352,1
256,51.24,-0.870557708797092,0.029922147507425202,0.4911557194439475,-0.9536306682737957,0.26360037664263164,0.14527005872352655,1
257,51.440000000000005,-0.8719341299559665,0.03587935952117879,0.4883068139789592,-0.9518262603613441,0.27138271459460817,0.14275220595773846,1
258,51.64,-0.8717315041862504,0.0436814283281571,0.4880329060917815,-0.9491031032140537,0.2803191584843209,0.14361221694582996,1
259,51.84,-0.9995520866945041,-0.0022753823381573644,-0.029840385719318557,-0.9488753071087623,0.2787519303970081,0.14809798398085589,1
260,52.04,-0.9995328328498164,-0.0005909715947477766,-0.03055759820069914,-0.9511942542266802,0.27160516925733197,0.14649273961137274,1
261,52.24,-0.9992959720681536,0.01453824270788036,-0.03458612015434507,-0.9509791233860784,0.2736918188978405,0.14398435731786247,1
262,52.440000000000005,-0.9989167719411702,0.02701321400130805,-0.0378889034408704,-0.9518087504511021,0.27092382744678695,0.14373719868668464,1
263,52.64,-0.9991976037771677,0.01380902831446357,-0.037596001688697256,-0.9550921317450748,0.25871243833178453,0.14445377852819172,1
264,52.84,-0.9995061613042349,-9.231721194110202e-05,-0.031423319245516626,-0.9546925344484095,0.25582666680860416,0.1520357892671076,1
265,53.04,-0.999276055376028,-0.024031718044012825,-0.029493078509684516,-0.9585277275077309,0.2376954499115928,0.15724334227620232,1
266,53.24,-0.9984594486186711,-0.04530129132505354,-0.03203938932598697,-0.9639098747300991,0.213507366103815,0.1590357130245169,1
267,53.440000000000005,-0.9980167683577076,-0.0469226149949668,-0.041961866961229714,-0.9672191202276041,0.20309107299687748,0.1524506134297818,1
268,53.64,-0.9983610553471853,-0.032446636086032224,-0.047142538887459146,-0.966586807741894,0.20942285552288623,0.14782425607448646,1
269,53.84,-0.998077849907139,-0.023559910649692782,-0.057319596430204255,-0.9672551334902366,0.2131163147563954,0.13783665376610724,1
270,54.04,-0.99821037888961,-0.023968436078227837,-0.054786435812397116,-0.9680243462243174,0.2071434172032434,0.14149370949390574,1
271,54.24,-0.9244073026342202,0.3792231166716827,-0.04075495820560626,-0.969297532431,0.20850714792181974,0.1303344271045945,1
272,54.440000000000005,-0.9971089591620981,0.07227666956572004,-0.02344795503162661,-0.9698345111711587,0.20914169101372693,0.12522289735235523,1
273,54.64,-0.998335901386591,0.05285879352593075,-0.023051593211881813,-0.9708736289148182,0.20766381170471668,0.11949953132142602,1
274,54.84,-0.9556261729586469,0.2935368600802935,-0.02479373571313368,-0.9697587136991095,0.2118528976419753,0.12118740431805633,1
275,55.04,-0.999494043930556,0.003356047974606971,-0.03162899127915186,-0.9661254771274961,0.22377211780697007,0.12855972050899866,1
276,55.24,-0.999817027647474,0.010315468546819664,-0.01610907616315599,-0.9567504124168319,0.2539190674452587,0.1419639233324881,1
277,55.440000000000005,-0.9996540200534635,-0.0044608039408483655,-0.02592183286635377,-0.959107819162942,0.2442712247010341,0.14298167716026636,1
278,55.64,-0.9996134328631925,-0.003867709112851722,-0.027532265901703913,-0.9582581537674963,0.24501934285026097,0.14733238736725887,1
279,55.84,-0.9995634003000101,-0.004538906680789107,-0.029196011830817846,-0.9579078941802133,0.24668878815066367,0.14682339073862402,1
280,56.04,-0.9995876732647867,0.0032276087726412885,-0.028531841838567166,-0.9574149819632565,0.24864447596109004,0.1467394864592768,1
281,56.24,-0.9993583899382612,0.008635307421965372,-0.03475974576625105,-0.9581099921386381,0.24977432322196502,0.1401357571182618,1
282,56.440000000000005,-0.9991209101292201,0.01315246117720388,-0.039804769909409614,-0.9587370669690957,0.24882386307946025,0.13751335055808273,1
283,56.64,-0.9990720008350442,0.016201388751707166,-0.03990804618091036,-0.9591588207078582,0.24631509539883117,0.13907994261206502,1
284,56.84,-0.9986891737282122,0.01925016255173565,-0.04742747642234986,-0.9599891505615293,0.24625251717438681,0.13334364847802865,1
285,57.04,-0.9986297061493399,0.034824823918287916,-0.03906330292158807,-0.9550627463056929,0.26024969652456276,0.14186347689909887,1
286,57.24,-0.998726839695445,0.04168953991026779,-0.02840214664455734,-0.9523622625752821,0.2628343639646425,0.15467455492675802,1
287,57.440000000000005,-0.9987919288700426,0.04105481966258478,-0.027003418423094613,-0.9538452705233189,0.25419916746672083,0.1598811532342791,1
288,57.64,-0.9987456228637418,0.04178273202877407,-0.027593189643977865,-0.955937981322959,0.2453714524007941,0.16116893686722247,1
289,57.84,-0.9980592843549725,0.05186506735047786,-0.03446272916601863,-0.9558501482833438,0.24974136189038737,0.1548539511534787,1
290,58.04,-0.9972057162744887,0.06385486669783692,-0.03877261183471939,-0.9538573811653697,0.26034363954980394,0.14959039321528927,1
291,58.24,-0.9968965235120726,0.06883424007300398,-0.038199068092242605,-0.9525563677584207,0.2648231598591208,0.15001686653545093,1
