,timeStamp,x_gaze,y_gaze,z_gaze,x_head,y_head,z_head,fixations_head
0,0.04,-0.9983362354415909,-0.054521489553951766,0.018766144546255532,-0.995183637817029,0.08856209861240921,0.04202715444364901,1
1,0.24000000000000002,-0.9990908074805517,-0.04141295418084829,0.010125494253349358,-0.9959282373755849,0.08505206023366929,0.029884662420193175,1
2,0.44,-0.9998264875849143,-0.01810697723264118,0.0043740255040914675,-0.9954444173698711,0.0937835817436807,0.01717706967105965,1
3,0.6400000000000001,-0.9999874191945972,-0.004002988379531946,-0.0030228358477156613,-0.9951954381987131,0.0979007626926888,0.0012167385345144982,1
4,0.8400000000000001,-0.9982739086925922,0.05844204255442822,0.005807829687656023,-0.9987720529962131,0.049525749906033555,0.0012594641618532555,1
5,1.04,-0.9863930884412984,-0.15343514166248648,0.05904517235345875,-0.9997196112936925,-0.02229395417750882,0.007979874806009049,1
6,1.2400000000000002,-0.6288627499862542,-0.7742209852185844,0.07150879475204952,-0.9843470006599563,-0.1728797038049895,0.03425770430206099,0
7,1.4400000000000002,-0.7335767568968365,-0.6795959099494323,0.003813255921491677,-0.9345307978679916,-0.35180712160619293,0.05370229998222003,0
8,1.6400000000000001,-0.6920922722106201,-0.7217095689296894,0.011982690084575148,-0.8949922232322025,-0.44212312821309174,0.05929637301681758,0
9,1.84,-0.6932353486657851,-0.7165290826063535,0.0775295114103344,-0.873001299384324,-0.4664145460360967,0.14256999165049977,0
10,2.04,-0.6490547192175908,-0.7601920369125428,-0.028914329944400772,-0.8374902136543685,-0.528199722202137,0.1400542591239055,0
11,2.24,-0.6293562801799815,-0.7770328754544648,-0.011427294560966745,-0.8178578361754301,-0.5589183246266229,0.13681690759190754,0
12,2.4400000000000004,-0.724555466320324,-0.6882818074830459,-0.035882164277111446,-0.8924562360834267,-0.4413127165806781,0.09362132695057072,0
13,2.64,-0.9942636284075652,0.07161827945953564,0.07943965806244944,-0.9887079303663956,-0.13788768512254312,0.058682320354135044,0
14,2.8400000000000003,-0.9955139124089638,0.09112333410023447,0.02546739450072196,-0.9915290759396157,0.12924244481918784,0.01290279130619912,0
15,3.04,-0.844400548712737,0.5353386801933347,0.020005269867897576,-0.938248700705938,0.345878379062506,-0.007584360270494269,0
16,3.24,-0.8556156024607788,0.5174178076906657,0.014168737073716176,-0.8778636392616871,0.4788533269109952,-0.0074109492305745,0
17,3.4400000000000004,-0.8363838029209667,0.5479860463754335,0.01316917572528345,-0.8312524610187663,0.5557878382320297,-0.010919016604620689,0
18,3.64,-0.8067052733565311,0.590435699487756,0.024744427840812912,-0.7909237170253895,0.6118780032473377,-0.006706935872127156,0
19,3.8400000000000003,-0.804739895979356,0.5933123582951126,0.019342836230170676,-0.7731506687616595,0.634043475561962,-0.015063681180457271,0
20,4.04,-0.794295262409777,0.6069794786571233,0.025902675585938284,-0.7469796301363695,0.6647441503410373,-0.01168960002332998,0
21,4.24,-0.6280950751633132,0.7764108676346434,0.05179518485740176,-0.6924879407016991,0.7213288200706631,-0.012049287040530503,1
22,4.44,-0.5840718937521157,0.8098178974408128,0.05527201745330813,-0.6169528670592296,0.7868671698364496,-0.014464330643790642,1
23,4.640000000000001,-0.5881174414954422,0.8075786474158974,0.043984124940315,-0.5943402804635994,0.803973520148057,-0.01965222428103644,1
24,4.840000000000001,-0.8513699907497859,0.5148627715864668,0.10042641726662895,-0.6249889432054969,0.7803337474414112,-0.021634774667651183,1
25,5.04,-0.850156191086195,0.5221512577825075,0.06776809539863538,-0.6463240721835097,0.7621778650647063,-0.036743648723713995,1
26,5.24,-0.4137009334561288,0.8356064925568821,-0.3614046585952007,-0.5805665918194649,0.8109256387097319,-0.07308926697090666,1
27,5.44,-0.12492971369723588,0.9427249712934248,-0.30929305704354004,-0.4088183934278018,0.9038420151905652,-0.1262423572790415,0
28,5.640000000000001,-0.11683335873605732,0.9477573539078734,-0.2968264887101514,-0.2404647277367698,0.9523765606243545,-0.1874982706261768,0
29,5.840000000000001,0.06111910943244936,0.8625871263114305,-0.502203050552237,-0.12565839450944627,0.9592780077248279,-0.2529736582824256,0
30,6.04,0.08624488518332646,0.8535408267488931,-0.5138383761967674,-0.04638723325796751,0.9572048289657014,-0.28566963436006504,0
31,6.24,0.09406125841030644,0.8594915389841882,-0.5024209132598496,0.004328046637659566,0.9569676574192278,-0.2901623177910215,0
32,6.44,-0.43973521953824835,0.8965074472540422,0.05391969691763527,-0.020274128614849507,0.9616817321523925,-0.2734176397990494,0
33,6.640000000000001,-0.3938429768974579,0.9191731717033655,-0.0028965443762750016,-0.16821106525200796,0.9701968823463738,-0.17442203706000398,0
34,6.840000000000001,-0.5368524912461328,0.8393012804288191,0.08580654586548549,-0.2569290851383324,0.9634538899513931,-0.0757894923291406,0
35,7.04,-0.561506600952181,0.7961188505889786,0.22562161426603575,-0.2429099418647812,0.9700456370719026,-0.002494421980168734,0
36,7.24,-0.4794807162957338,0.8577843180653828,0.1852142175472402,-0.13313497839096844,0.9905220205989989,0.033781714540753426,0
37,7.44,0.4383284816721685,0.8976487873933883,-0.04576894849295615,0.11635493332609753,0.9929434199074723,0.022910572955135856,0
38,7.640000000000001,0.4706323149076659,0.8810449841736324,-0.047591596181847176,0.31909784028757504,0.9475569982167963,0.017672109500000706,0
39,7.840000000000001,0.4661569283813469,0.8832226133379187,-0.05114228593449073,0.4705997776716585,0.8823309284997874,0.0052897890401073,0
40,8.04,0.7374748462999658,0.6753505832839262,-0.005695676685187854,0.6622895618667408,0.7492182136827426,-0.006678662171507238,0
41,8.24,0.9563648178561722,0.29217507349315575,-0.0002481858170855389,0.8326917994391623,0.5534666386383188,-0.01729297722113696,0
42,8.44,0.9561346803154016,0.2929181117685931,-0.0023351436971921517,0.9177230524426994,0.39562421558521327,-0.03557919417073927,0
43,8.639999999999999,0.9446756158956993,0.32668356845843977,0.029424935536738115,0.9610381088971769,0.27563372816065707,0.02077982549482341,0
44,8.84,0.99897196865303,-0.04033441400921505,0.020691565721893315,0.9814100396891308,0.18710533671305538,0.042730866722695264,0
45,9.04,0.9800403393172601,-0.19878980400617846,0.0018833836823895988,0.9980179362922967,0.02804444617845096,0.056335671447217836,0
46,9.24,0.9232954091149563,-0.3823975074588367,0.03602407245876768,0.992184965875403,-0.11725962622090579,0.04265177076463734,0
47,9.44,0.9050988561298121,-0.4235753880244707,0.03714769565430643,0.9763623448818322,-0.21284821580721933,0.03757936301394484,0
48,9.64,0.8633188265373933,-0.5038638373266622,0.028316729693761054,0.9513255914978082,-0.30743718736054937,0.02149406404522255,1
49,9.84,0.8898753062420238,-0.45434099036465453,0.041184995024031,0.9350543284529725,-0.3542677254140052,0.012953052588011424,1
50,10.04,0.878282883520795,-0.47265400170814403,0.0722313725722819,0.9230154738924259,-0.3819728042437103,0.046251613737650715,1
51,10.24,0.898664627313504,-0.4363497147168761,0.04473046033724391,0.9335274710279675,-0.3569843995517946,0.03299392842284678,1
52,10.44,0.916126513132406,-0.3962361501916791,0.0609025879346421,0.9479424133725115,-0.31257162288292506,0.06086182299137295,1
53,10.64,0.877693262525595,-0.4754426119136154,0.06007378541374348,0.9551401495147676,-0.2843885003336168,0.08264669178439243,1
54,10.84,0.922633292355654,-0.37547225846730253,0.08813847603872871,0.9593455912222293,-0.2517509683036292,0.12758325344909832,1
55,11.04,0.9537828709366164,-0.2871894738711966,0.08843325848057114,0.9789566462176971,-0.13096247246914827,0.1565014876318002,0
56,11.24,0.9611046425296342,0.19541855760850507,0.19516519528388154,0.9816999182933228,0.050220216598086766,0.18369322324932072,0
57,11.44,0.9696490576017831,0.19971650795296722,0.1410461681260646,0.9685169760926837,0.1710004522382255,0.18092460406093483,0
58,11.64,0.9205760293659407,0.38877035831345363,0.0373815817437907,0.9531296075580439,0.2535396363560119,0.16511088393170975,0
59,11.84,0.7794085244750623,0.6253885979089424,0.037569317016597,0.9295713355735534,0.33262307223089393,0.15893087774149534,0
60,12.04,0.7426256736830545,0.6663612734571244,0.06685627886286521,0.871770462609423,0.4604992408435849,0.16720260076994908,0
61,12.24,0.7198500852338322,0.6918701279168574,0.05596052970760548,0.8270469155641229,0.5359050557749762,0.16970318397334422,0
62,12.44,0.6928506190995836,0.7190033673136077,0.05470079894313443,0.8103951866173098,0.5587340259570066,0.17628366272962234,0
63,12.64,0.7339121402882584,0.6751559372515316,0.07441391490517232,0.8420827444020487,0.49872219035263377,0.20536024062652755,0
64,12.84,0.9614406698320476,0.1250668034650625,0.24492883265131393,0.9112218774880773,0.34075882614989883,0.23142625691145494,0
65,13.04,0.971948345995819,0.01541396591089612,0.2346887776841697,0.9643369907422481,0.179850949510671,0.19418497430619094,0
66,13.24,0.7930801945022569,-0.6071282654472019,-0.04918408668802142,0.9853221258154012,-0.03474641061369014,0.16713167063152237,0
67,13.44,0.8909564745615909,-0.45396189557478694,0.010731160371914976,0.9729447278057182,-0.20030233651523469,0.1151413506156439,0
68,13.64,0.8243596701062182,-0.5649662427532631,0.03527433701188724,0.9183343962126399,-0.38547653046431785,0.08983196087116424,0
69,13.84,0.8530811934330125,-0.5194387489395431,0.04935446799459909,0.8733249592834444,-0.48032799416915506,0.08116978200048655,0
70,14.04,0.6954976907711652,-0.7179813314427815,0.028031586320211216,0.8354902899005894,-0.5426236948942111,0.08669199052498111,0
71,14.24,0.6505741568998031,-0.7589315153290258,0.027860750429582578,0.7781862668102439,-0.6217791328585904,0.08841291811469387,0
72,14.44,0.882701330284697,-0.4625924577181019,0.08274406066874145,0.7501660441473448,-0.6545330219936282,0.0940076025022069,0
73,14.64,0.9119057806229983,-0.3967984707703993,0.10477986858473044,0.7873239774296433,-0.6067992355829911,0.1091587937834809,0
74,14.84,0.9158762973858733,-0.3942742359053519,0.07562033316505815,0.8750236251620342,-0.4659949161192849,0.13108162937373186,0
75,15.04,0.9801032524732552,-0.17471586401905415,0.0941911957213757,0.9636435561237428,-0.2163908528067397,0.15673575074870277,0
76,15.24,0.960548720539542,0.27441072413656814,0.04522068054212782,0.981840865509047,-0.08688973736945758,0.16863774297680845,0
77,15.44,0.9857088232280192,0.16838802361370195,0.004856883147157218,0.9718946698769628,-0.19077122928750692,0.1379387137133115,0
78,15.64,0.8498516524814916,-0.51021702983377,0.1320255704099925,0.8949513685079769,-0.43306244455132303,0.10732645118949793,0
79,15.84,0.8054237785661925,-0.5750571657389769,0.14353324720221267,0.8513054182389509,-0.5078284674263825,0.13186861851243004,0
80,16.04,0.8298818169486709,-0.5424437578265087,0.13057924602718754,0.7880180682913395,-0.5920254521720593,0.1689182880177718,0
81,16.24,0.2115440138418741,-0.9374472593847114,-0.2764810410855739,0.6835070538186112,-0.7119747908123669,0.16096584925967627,0
82,16.44,0.27539386961866913,-0.9612957123542588,0.008292767075827195,0.45962262264443604,-0.8813550006420883,0.10936364842412027,0
83,16.64,0.09049180444110344,-0.99515112270332,-0.03854187737144252,0.21416945362744205,-0.97453484840527,0.06643247983208037,0
84,16.84,0.04382723390819998,-0.9962307996282654,-0.07485564400887441,-0.001536035867563068,-0.9994583344836504,0.03287367069526758,0
85,17.04,-0.1710666365432582,-0.9841247033658833,-0.04727339724188855,-0.24344188272195644,-0.9690736649146512,0.040401506230284524,0
86,17.24,-0.7082924039708594,-0.7059092593586761,0.0037400573347053383,-0.5100449442191037,-0.8595828461848088,0.031168660884851603,0
87,17.44,-0.7677526761224798,-0.6389848496731851,-0.04747831289028909,-0.6896858387605312,-0.7241076463966402,0.001249096914251324,0
88,17.64,-0.8960297193043777,-0.4439110613642878,-0.00858555308351355,-0.7989396080029951,-0.6013795695957341,0.006173818661912129,0
89,17.84,-0.9423598592670777,-0.3344858517087061,0.008781266926533023,-0.8669716936099001,-0.498114452858697,0.015558738138519044,0
90,18.04,-0.9329340425332671,-0.36001817085368776,0.00458136854023528,-0.9083969542354113,-0.4173657522705076,0.0249159059137282,0
91,18.24,-0.9818730148912568,-0.18946491396112816,-0.005331885787980351,-0.9413525621202719,-0.33708689871277475,0.01509226642369017,0
92,18.44,-0.9953712444131276,-0.09608019865457039,0.002163613172464887,-0.9718146953924434,-0.23540937367135148,0.012594626114133985,0
93,18.64,-0.9978623661719893,0.06377919022499638,0.014244755943246147,-0.9913390840017474,-0.1306945572043218,0.012874519320845535,0
94,18.84,-0.9995857800680246,-0.020590661695278373,-0.020107036995774086,-0.9993421246408349,-0.03485595449932,0.01001899966480008,0
95,19.04,-0.9996179677860322,0.020958281008443103,-0.018018571988215125,-0.9987553622592232,0.04864928134281399,0.01099880826616844,0
96,19.240000000000002,-0.9996921715642431,0.022816836846694506,0.009744437873976759,-0.9968791854663183,0.07139933772750623,0.03367527514488618,0
97,19.44,-0.9999400443859858,-0.006250847692288265,-0.00899080288299983,-0.9989629121294206,0.04423420154952365,0.010790533035206938,0
98,19.64,-0.9804016923988725,-0.19700893599405525,2.6075219021717904e-05,-0.9994748330020793,-0.010508519746396699,-0.030653371889659425,0
99,19.84,-0.9128701193864769,-0.4067510030966668,0.03495377821030332,-0.9903256667366293,-0.12958996862682956,-0.049613645642590076,0
100,20.04,-0.8507522652205854,-0.5254969290702834,-0.00857675694795814,-0.9634005426008141,-0.2592315790163851,-0.06825234763089884,0
101,20.240000000000002,-0.8050761790559617,-0.5894189288281652,-0.06661585588815722,-0.9332800375596159,-0.3449395523142838,-0.10002538048887359,0
102,20.44,-0.7615245885991327,-0.62170530474597,-0.18320156934273898,-0.910576556638059,-0.3900985960335793,-0.13665072218545285,1
103,20.64,-0.7191857718550494,-0.6762018911455345,-0.15975865539137282,-0.8775860108057314,-0.4677878867812884,-0.1049632631865996,1
104,20.84,-0.7020197697573838,-0.7105000524266798,-0.048558401656923836,-0.8551312484723,-0.5157383141739563,-0.05257888529829316,1
105,21.04,-0.7300463909816519,-0.6833948967473611,0.0019188836152192956,-0.8690898906222959,-0.49442620713227137,-0.015016248496952503,1
106,21.240000000000002,-0.973359080317644,-0.223721260383981,-0.05020854922613676,-0.8905654451469804,-0.45481151737391545,-0.006298537464955661,1
107,21.44,-0.982677629636395,-0.13852681202920014,-0.12310563984327721,-0.913503385731495,-0.4068309366676975,0.0003914424346408604,1
108,21.64,-0.8545704438624003,-0.5189859828598121,0.0190500937492414,-0.9122742819235832,-0.4087065332113103,0.026732082807051975,1
109,21.84,-0.8327379879473172,-0.5527960383600263,0.031048082113301293,-0.9096486086996571,-0.4135402652815359,0.039036619751906525,0
110,22.04,-0.8572136728212205,-0.5136608700381374,0.036568151717271576,-0.9286652585418266,-0.3688926391256421,0.03871767524479694,0
111,22.240000000000002,-0.9160760051703243,-0.39463232071566223,-0.0712045237169041,-0.9565478111084569,-0.29028965550081387,0.027353262562970024,0
112,22.44,-0.9847831243500069,-0.15986230909245502,-0.06816333418391135,-0.9862932438089439,-0.16200469134872134,0.031306823502823454,0
113,22.64,-0.9968206657187433,-0.03030447265590962,-0.07368988623338292,-0.9997766777414153,0.005570742045293981,0.02038532505021647,0
114,22.84,-0.9947631151330365,0.08923785625882127,-0.04982920610593068,-0.9863805305369925,0.15951993403061682,0.040085404132041716,0
115,23.04,-0.977719365074842,0.2065834931334534,-0.03725726133827664,-0.9552110380083355,0.2936044264078593,0.03699072398251813,0
116,23.240000000000002,-0.9480473977463598,0.3176104266817536,-0.018158978203353635,-0.9090656845849202,0.414108138949212,0.04597858595227505,0
117,23.44,-0.9115470583653379,0.41082932782872217,-0.017355799644489217,-0.8567495109781821,0.5140523801507103,0.04159838819035797,1
118,23.64,-0.9291044587502064,0.3697472159273018,-0.007204237953844053,-0.8185278496432801,0.5736175968061545,0.031225182027973426,1
119,23.84,-0.9640451582978239,0.2610784420473174,-0.04954775333624441,-0.8189780701962993,0.5737428396381087,0.009699201077670467,1
120,24.04,-0.9690843655097092,0.22728405224496853,-0.096007562825805,-0.8378530376951508,0.5456672311691995,-0.01579746983373721,1
121,24.240000000000002,-0.9682302079266685,0.21571810326380217,-0.12647515322207867,-0.8454152099392696,0.5336651054881051,-0.021787105996682234,1
122,24.44,-0.6829389233599364,0.7300307929633022,0.025484667652205004,-0.8126861609926611,0.5825927446374973,-0.01126488467578109,1
123,24.64,-0.6211827013592237,0.782512296161388,0.04250362206082976,-0.7564106070276946,0.6540629020811431,-0.006686830130013494,0
124,24.84,-0.6015826079868011,0.7957865893255885,0.06944112626783995,-0.7255211487858634,0.6879825929440387,0.017292034884266515,0
125,25.04,-0.5765971630790144,0.8135220522558724,0.07561469448874689,-0.6858441469307943,0.7265934435739364,0.04098504454236866,1
126,25.240000000000002,-0.5234714180143791,0.8429848940333173,0.12391183540587303,-0.6333906265394906,0.7705676371030363,0.0710058508952279,1
127,25.44,-0.520519347954845,0.7927308027198786,0.3172341135876787,-0.6031705243763323,0.7900215839863156,0.10977802767099235,1
128,25.64,-0.5354256208494484,0.8018619302821122,0.26521095245526294,-0.5823250354724863,0.8014179930658875,0.1364798646402205,1
129,25.84,-0.5792735413885741,0.8126105283203308,0.06408036758705886,-0.5785150784139982,0.8023694116672528,0.14670934281221545,1
130,26.04,-0.6022868557154928,0.7967181835748492,0.04990670689935689,-0.5887989993930275,0.796747903100314,0.13604601140431274,1
131,26.240000000000002,-0.649989376836686,0.7589448731842594,0.03894212971557965,-0.6296607959939163,0.7679077921909115,0.11766437303104083,1
132,26.44,-0.6874688558505314,0.7254612551196362,0.033053586126216825,-0.6757058818364322,0.7298936316684734,0.10332883286603389,1
133,26.64,-0.7147846130573412,0.6984709065628913,0.03494781283113157,-0.7160821957097347,0.6908804901133043,0.09955117964306368,0
134,26.84,-0.7087156105289911,0.7032497657570975,0.056231222244473016,-0.7812421510252824,0.617545278103801,0.09109627299231066,0
135,27.04,-0.9412192252023932,0.3367869657999893,0.026094247960872362,-0.8469728832737184,0.5242703350559003,0.0881904233994734,1
136,27.240000000000002,-0.9615371748638099,0.2746519395343489,0.00354590819733911,-0.8905367953872222,0.4493710397879298,0.07078053871913953,1
137,27.44,-0.9622259345951795,0.27210496058096406,-0.008952162848482204,-0.9008225364296266,0.43025800411643705,0.058282139238660255,1
138,27.64,-0.9133419531330091,0.4043448685570659,0.04808018218298966,-0.8942786965263084,0.4428434437300311,0.06446159542342728,1
139,27.84,-0.8931571394716844,0.44707597077770544,0.04892239327680679,-0.872247254728109,0.4840968543529448,0.06953389263417477,1
140,28.04,-0.8756530660381324,0.4809838890801269,0.043430477586304986,-0.8506128462157364,0.5212782775345989,0.06875131433889993,1
141,28.240000000000002,-0.7947850905591778,0.6068706357203305,-0.004969036651272421,-0.8239466179310787,0.5619332823425288,0.07309553334978121,1
142,28.44,-0.7656655511206844,0.6352844816192724,-0.10084587865049889,-0.7971067923874855,0.5995011088891551,0.07224390611261253,0
143,28.64,-0.7401752155174747,0.6651260146425574,-0.09873213752051004,-0.7664936564083165,0.6388138293890956,0.06636539811565352,0
144,28.84,-0.28381070897893057,0.8651999858676176,-0.41337690540661703,-0.7279956627876369,0.6809252931442774,0.07976879163413014,0
145,29.04,-0.5891240356577883,0.7974088902874155,0.1306596047019646,-0.6825706464263517,0.7266708297538762,0.07776128742456628,0
146,29.240000000000002,-0.5175487050181808,0.8427942059678472,0.1477879031620315,-0.6021351951643876,0.7931434249463224,0.09141506554590617,0
147,29.44,-0.16992920184854798,0.9851144416673732,0.02595386633037026,-0.5076032705508645,0.8560793723798447,0.097298653185937,1
148,29.64,-0.14558143499879578,0.9891969443221375,0.017188691847765714,-0.4395123412839531,0.8919981608513148,0.10567962384949113,1
149,29.84,-0.5135344172759835,0.842489815881624,0.16276766389170602,-0.3959305440547632,0.9132486261807559,0.09599974512185754,1
150,30.04,-0.5825420372452629,0.7952700421769524,0.1678997762297709,-0.4297027308593376,0.8982156387794077,0.09254312153870864,1
151,30.240000000000002,-0.6196592460023946,0.7824975888407778,0.06099132972901056,-0.45806537579732465,0.8854741292856994,0.078177220859971,1
152,30.44,-0.6034242760949584,0.796837676466027,0.030477210887790703,-0.44859912069432456,0.8931947451862833,0.03101573929296306,1
153,30.64,0.09397707538777256,0.9174296367961761,-0.3866408809600941,-0.32397123310986176,0.9389500100589561,-0.11582538032556591,0
154,30.84,0.1423055626010708,0.9088945974904299,-0.39199456310706926,-0.15225418272083757,0.9602992465681625,-0.23376060592971942,0
155,31.04,0.14540354015364193,0.9200883642600691,-0.3637240883747166,-0.09734107572969974,0.9653273831495874,-0.2422142818195381,0
156,31.240000000000002,-0.5584050147346772,0.8223591703215681,0.10912943923244248,-0.255918792433617,0.9539406451339923,-0.15653375751147647,0
157,31.44,-0.5899170610726574,0.8030148378295404,0.08464650778972435,-0.39720183268751463,0.9144360468956702,-0.07770083813897515,0
158,31.64,-0.6067509471285173,0.7915924527194179,0.07235106741647584,-0.5133747220622329,0.8580806814238615,-0.011997454508651598,0
159,31.84,-0.5802895621662109,0.7936261104456631,0.18281581129605737,-0.616335632658954,0.7864197761903126,0.04091849864872349,0
160,32.04,-0.8791177847564413,0.4711119267021825,0.07214896426065148,-0.7463581875740696,0.6638861446008755,0.046953624440888075,0
161,32.24,-0.9609485181806245,0.266934497867682,0.0729651920753386,-0.8461658990534263,0.5302214115600344,0.053558622110647706,0
162,32.44,-0.9656115718319416,0.25831047689567627,0.029495590690401346,-0.9170207527065076,0.3944683563095279,0.058886797977559,0
163,32.64,-0.9814394493459415,0.19154981021472342,0.009234580349909365,-0.9634767962451998,0.2629210065997659,0.05084296790758305,0
164,32.84,-0.9754062526276381,0.22039066048631967,-0.003255626715765843,-0.9866126282082642,0.15718372898857025,0.04346029453684408,0
165,33.04,-0.9981435778482611,0.060892822555155324,0.001209198717692715,-0.9987627839076443,0.032540730754541634,0.03760322224242394,1
166,33.24,-0.9997495505180243,0.008296943188447136,-0.020784536866053437,-0.9989608638601778,-0.04291413382773404,0.015348276565876938,1
167,33.44,-0.99972971763253,0.0036734301722780045,-0.022956428144451365,-0.9985278560888949,-0.04728304706835255,0.02657882755968211,1
168,33.64,-0.9979066754103776,-0.03358054012326208,-0.05526856698375049,-0.996780783825959,-0.08014248645089912,0.002291475676153729,1
169,33.84,-0.9947816069101414,-0.062016591661548555,-0.08101541157064923,-0.9945224451017161,-0.10212982885531592,-0.022239699793128582,1
170,34.04,-0.9999919292427599,0.003453852821934317,-0.0020524010396770643,-0.9947251785282786,-0.09633136668950132,-0.03524325458321924,1
171,34.24,-0.9999006835900611,0.012798276173437593,-0.005901447544195218,-0.9970357863378123,-0.06790604652137777,-0.03617194503447662,1
172,34.44,-0.8832450901889243,-0.128794532463124,-0.45087701101826416,-0.99911229403646,-0.028443988167726118,-0.031073516735588058,1
173,34.64,-0.9999339177687487,0.00444634570489305,0.010601419976306849,-0.9995329693507389,-0.01132942968813007,-0.02838110645899186,1
174,34.84,-0.9997295290141182,-0.006914769929527446,0.022204836726064447,-0.9998217010494453,-0.018280961371667882,-0.004729964262164188,1
175,35.04,-0.9986841618028823,-0.031583398631636,0.040403389646788065,-0.9984992872704271,-0.04608393117756346,0.029587913202371353,1
176,35.24,-0.9992895657310212,-0.011663254783544645,0.035837582353737164,-0.9990171049011665,-0.029183209681212127,0.03336411826489564,1
177,35.44,-0.9977561069507425,0.06693802206401235,-0.0014325657600405446,-0.997905655890771,-0.018182579615858556,0.06207814220579888,1
178,35.64,-0.9986832308797742,0.05128971702040184,0.0010813359806335862,-0.9971454451629784,-0.014443663442674346,0.07411033515698721,1
179,35.84,-0.9995030620705699,0.031515001484655664,0.0006584777726069705,-0.9966057672630212,-0.029640476503028642,0.07680095579326134,1
180,36.04,-0.9901805545659887,0.13895003365403108,0.015341365875790478,-0.996630411506213,-0.020595562615893757,0.07939550151924075,1
181,36.24,-0.9942704986027351,0.10164059868846961,-0.03309628841000756,-0.9943924423772345,0.008883574452926543,0.10537909018385741,1
182,36.44,-0.9971843712087282,0.07350161711176804,-0.01486075701331219,-0.9951250244215644,0.007802723199063026,0.09831227431333242,1
183,36.64,-0.9992244548102482,0.027257773211243,-0.028416592137809404,-0.9957826647041206,-0.030855962610692168,0.0863990407708859,1
184,36.84,-0.9993348523378933,0.014586538936606322,-0.033422833282832895,-0.9958763771537134,-0.05114305495982659,0.07493083048099113,1
185,37.04,-0.933337658141466,0.35310654321315177,-0.06478105459980472,-0.9966691920509247,-0.05207162904332176,0.06276198742337098,1
186,37.24,-0.9985892433954533,0.0528942289130587,0.004660849985687295,-0.9957811596734263,-0.083269446389819,0.038549725516267556,1
187,37.44,-0.9956637024277691,0.09300905542908396,-0.0017627467250377123,-0.9986050951306313,-0.04313080615489803,0.030456486001697296,1
188,37.64,-0.9952975972419785,0.09680216620532697,-0.0034689396507844193,-0.999112913326275,-0.03205254652905938,0.027313379243247206,1
189,37.84,-0.9978699464237613,-0.007481894672007159,0.06480425353599317,-0.999229206618327,-0.026251391251949537,0.029186591069290727,1
190,38.04,-0.9975066869577648,0.013976856005070109,0.06917410621582196,-0.9988204780168677,0.002704865271598337,0.04848026813064356,1
191,38.24,-0.9818062989866347,0.11515179961092238,0.15098494731771417,-0.9940544477890932,0.03052108128456893,0.10451898596877716,1
192,38.440000000000005,-0.9611302320827636,0.08040408875665024,0.26412849048852355,-0.9829039840965657,0.048044304923668034,0.17773998652948136,0
193,38.64,-0.9913164396356602,0.09302393571704809,0.09294226106453954,-0.9747659228623303,0.05263104665715469,0.21693632373146357,0
194,38.84,-0.9094626816061883,0.23696834053790927,-0.3416484104286026,-0.9619232571010897,0.10039179098736009,0.2542147433772898,0
195,39.04,-0.8758514067363292,0.3046851624136609,0.3742342383093166,-0.9305101745323192,0.22966127308238127,0.2853182691977729,0
196,39.24,-0.9329556229746259,0.247100191445744,0.26179247687339025,-0.8866994511600987,0.3216678793149889,0.33210519226500773,0
197,39.440000000000005,-0.9570749777857457,0.2757320865519361,0.08932694633832734,-0.8758947731144946,0.35946373952265115,0.32186047660298317,0
198,39.64,-0.7662330093683483,0.6386284185455027,0.07099801673564676,-0.8744727451089619,0.3813762399266479,0.29974919796558014,0
199,39.84,-0.5946708021242773,0.7933593716558615,0.1301827350560961,-0.844175956230993,0.46806851403699523,0.2613021643398458,0
200,40.04,-0.5320497446751735,0.8347940054596807,0.141569903721326,-0.7713230783694764,0.6020560075623018,0.2063716853950085,0
201,40.24,-0.5021679785903889,0.8573648858765665,0.11292817958466035,-0.7093306130482684,0.6869485670973692,0.15796122168253623,0
202,40.440000000000005,-0.5306522231396922,0.840824871626485,0.10687260327702064,-0.7190966672065806,0.683208902117734,0.1269865318822,0
203,40.64,-0.9817254084410246,0.18511104018091126,0.044148898337839554,-0.8227429328337145,0.5599565888974157,0.0976866675782767,0
204,40.84,-0.9840660048128309,0.17750807049558204,-0.010246125152915897,-0.8787533696994934,0.4726450554921799,0.06632621473127936,0
205,41.04,-0.9892214773379008,0.14640938571900342,0.0022716836939511735,-0.9098015055658426,0.4127699023730973,0.04338465356586354,0
206,41.24,-0.9849648959621523,0.16799089208623283,0.04028912878604516,-0.9338915614857369,0.35642720296936464,0.028393667765321203,0
207,41.440000000000005,-0.9950422768028173,0.09936620150730013,0.0041503461393542634,-0.9500033648379971,0.312059134492755,0.01061618463085293,0
208,41.64,-0.9986271791085255,0.05205878817283428,-0.0057999758383048714,-0.9680806240334671,0.2506282530277503,0.0023203782517233393,0
209,41.84,-0.9999671873528808,-0.00804427171237598,-0.000955986498872521,-0.9828861257015262,0.18408375952212883,0.0069306120684271486,0
210,42.04,-0.980945624868989,0.18179434989947535,-0.06853098127866293,-0.9903492096280327,0.13843504351722669,0.006646932790009586,0
211,42.24,-0.9856644847999181,0.14550765857235712,-0.08539932494406836,-0.9978059182555742,0.06599866973646963,-0.005246435663097056,0
212,42.440000000000005,-0.9851879330650022,0.09489730862727798,-0.142825898766323,-0.9996983282045027,0.0031004546093104618,-0.024364723810011053,0
213,42.64,-0.9868127778173362,0.036642782189534095,-0.15766371824184214,-0.9984586650688552,-0.0476419408095462,-0.028469977604835918,0
214,42.84,-0.9882917146346463,-0.01550358785358222,-0.15178644718214207,-0.9953890417608428,-0.09369949365604888,-0.020519757089969157,0
215,43.04,-0.9890953782374104,-0.06052359696948698,-0.1342655091945414,-0.9914535879911178,-0.1303059589462773,-0.006335607518596159,0
216,43.24,-0.9854600186126785,-0.11253643345962236,-0.12729533714982452,-0.985073961815821,-0.1719867082281586,-0.007061299124471687,0
217,43.440000000000005,-0.9812264810650428,-0.15229618954671367,-0.11832355431723912,-0.9784179810076418,-0.20658597091573694,-0.004526705394914779,0
218,43.64,-0.8717778379252075,-0.48974706672720153,0.012296826198377436,-0.9628895187673021,-0.2698832080193024,0.002613173795160263,0
219,43.84,-0.5696004406930832,-0.8217311747052672,0.01769786653094531,-0.8823691296705202,-0.47053042892722496,0.005082760868926563,0
220,44.04,-0.5003348998842994,-0.8658317979784312,-0.0005343848849419657,-0.7684633472095491,-0.6396368090519521,0.018133849600476447,0
221,44.24,-0.5239508726419018,-0.8516481396371918,-0.013073993663006614,-0.6710829606699735,-0.7413278401097319,0.008982949218536766,0
222,44.440000000000005,-0.4799684333209959,-0.8764596128124873,-0.03806376392283867,-0.6329871710189972,-0.7741494917473095,-0.00445036546247194,0
223,44.64,-0.5639774212254235,-0.8197746897214385,-0.09949334872261925,-0.6445610923923507,-0.7643815824632204,-0.016180066903536055,0
224,44.84,-0.6212305530013575,-0.7825059363017787,-0.041917295596261166,-0.7116105963486749,-0.7024572954214382,-0.01281043611597363,0
225,45.04,-0.7066567795053825,-0.7075560186473219,-0.000822468863982055,-0.8036771415733418,-0.5950384897957813,0.005678712359214049,0
226,45.24,-0.6433915068117548,-0.7650503699869453,-0.02730018947439871,-0.8652584960416051,-0.5003452363224211,0.03134293408856823,0
227,45.440000000000005,-0.9740539486487205,0.2253441227798878,0.020950690928918537,-0.9265117389408898,-0.372875104122501,0.05039994375356629,0
228,45.64,-0.9985014452756151,0.05429769319940139,0.006828198571472394,-0.9772600458990568,-0.20443020685387547,0.05631246056651734,0
229,45.84,-0.9878266175406952,0.15555112486923406,0.001556030213404474,-0.9955413401098258,-0.07869257145521674,0.05200883896126018,0
230,46.04,-0.975741868240222,0.21841829931975246,-0.014874578493132893,-0.9990358241409826,0.015002833981929453,0.041259387482833844,1
231,46.24,-0.9892099458273355,0.14579735049089917,-0.014381087097779431,-0.9975937374471547,0.06364684723343594,0.027492068737390216,1
232,46.440000000000005,-0.9891712025518768,0.1437576502294991,-0.02956467558704338,-0.9958266209958273,0.09091220608765893,0.008019457606837966,1
233,46.64,-0.9993748246677625,0.034924993679725,-0.0054958745209978755,-0.99386024300984,0.11019158177846292,-0.009981616581634356,1
234,46.84,-0.9998416119795381,-0.017617712320734207,-0.0025233245416175247,-0.9956154104674964,0.09254265568964888,-0.01363126250741542,1
235,47.04,-0.9960766708063226,-0.08847314655374047,-0.0019411888815148869,-0.9991904775502805,0.0379838287335544,-0.01325210653378192,1
236,47.24,-0.983617825223519,-0.18022556739587595,0.003836503537072991,-0.998728405379325,-0.04980352228225486,-0.007821857627937625,1
237,47.440000000000005,-0.8345676219399312,-0.548057596214157,-0.05594421901759172,-0.9782834747098016,-0.20716762058963142,-0.006558970113341346,0
238,47.64,-0.77507924154326,-0.6251917861721018,-0.09158274854830378,-0.9466616302990939,-0.3220905600901616,-0.009456681250188503,1
239,47.84,-0.7550591513381698,-0.6474662236685412,-0.10331102162345109,-0.9258782859626226,-0.3775265949128101,-0.014935518620230941,1
240,48.04,-0.7519738905716579,-0.6507171579392387,-0.10536815582520491,-0.912337741499848,-0.4089793325416787,-0.019384297478108062,1
241,48.24,-0.749617533667883,-0.6536978086941571,-0.1036953621245319,-0.900622895658753,-0.43395506700451814,-0.023693873392657258,1
242,48.440000000000005,-0.7442719729768464,-0.6610652758622299,-0.09514163804742114,-0.8910263102017415,-0.4532159797009885,-0.025833897730373062,1
243,48.64,-0.7578247534032599,-0.6463702604345734,-0.0889220420088883,-0.8950771963700234,-0.4449615223358598,-0.02908704486422012,1
244,48.84,-0.8817940623943316,-0.463566979440125,-0.08686130956220085,-0.9154602221098969,-0.4010096876150579,-0.033523307912141066,1
245,49.04,-0.9200405980678046,-0.3834346620946825,-0.0806421590197933,-0.9425874016051099,-0.33287108624248174,-0.026941237519417464,1
246,49.24,-0.9573100119031571,-0.28527444353562903,-0.046647968609735135,-0.9653619510131928,-0.2604008264608093,-0.01636194103796061,0
247,49.440000000000005,-0.9721873839635895,-0.23406384552795828,-0.008112131575390199,-0.9798669405033215,-0.19965084483599976,0.0005648583290784696,0
248,49.64,-0.9852944109151184,-0.17026753682892704,0.014278995820422871,-0.9924867596257332,-0.12178960837874842,0.01171850069606206,0
249,49.84,-0.7268513567290745,0.21205909083611782,-0.6532365935974982,-0.9995367467350798,-0.019226919485154436,0.023592742387531816,1
250,50.04,-0.997529580654849,0.06930493791156368,-0.01147001742089738,-0.9974741966298699,0.06584705798335333,0.02663441406400699,1
251,50.24,-0.9983243193787475,-0.05629895281924476,0.013378387362352454,-0.9955571761608432,0.09057981487318433,0.02571392875831202,1
252,50.440000000000005,-0.9967209810661695,-0.07414563957222291,0.032399228924755205,-0.9963449672756547,0.07916745408447873,0.032081465026660816,1
253,50.64,-0.99300697537937,-0.10587229300028148,0.05223221633032686,-0.9975303767507534,0.06365098593684242,0.029693424335500776,1
254,50.84,-0.997398015207246,0.06615422504824611,0.02864991743290389,-0.9962109666988505,0.07956750816145179,0.03511013349332633,1
255,51.04,-0.995686722672143,0.08946954463972003,0.024559130203824633,-0.9926756466077852,0.11390322842450386,0.04026307472475076,1
256,51.24,-0.9995846887276082,-0.020926794940165666,0.019812100213337874,-0.9885543614658168,0.1447197432972384,0.04262006953177483,1
257,51.440000000000005,-0.9997635183661657,0.0031377191769561747,0.02151887688687336,-0.9838142265018599,0.17502873277020173,0.03839935464828278,1
258,51.64,-0.9994195187414479,0.02391641664087248,0.02426171003192007,-0.9807885984314649,0.19139015652158547,0.03772973858226832,1
259,51.84,-0.9845740690331766,0.1688474792586399,-0.04587408130368394,-0.9775843051165749,0.2057042695974362,0.04488518529680922,1
260,52.04,-0.9755109040144038,0.2144334329629437,-0.04895690938700964,-0.9740654270362171,0.22179236527413543,0.0447737708804709,1
261,52.24,-0.9930153979509384,0.0908612899204447,-0.07526383876957649,-0.9749676892280962,0.2193929113154647,0.03612139844678153,1
262,52.440000000000005,-0.9334618684665832,0.28615307677983226,-0.21625299250718158,-0.9826353621136323,0.18467593448910088,0.017959519603501437,1
263,52.64,-0.9382895517634294,0.26978570444251293,-0.2163986846772403,-0.9911220827402398,0.13238646372748963,0.012281747692396996,1
264,52.84,-0.9083725629016826,-0.41815249147053934,-0.0027894164997734378,-0.9999493398018189,0.00411969920027404,0.009184002853091915,0
265,53.04,-0.867971962753487,-0.4961223804499458,-0.022073864422401827,-0.9917980145688576,-0.1264779524596375,0.01843978955655867,0
266,53.24,-0.8146949266505865,-0.5798867138486151,0.0018909234913322723,-0.9728651414768607,-0.22908736113152478,0.0324406761489723,1
267,53.440000000000005,-0.785500370552561,-0.6188337265010273,0.00582982046393078,-0.9569383628814223,-0.28839675911737733,0.03311010384183267,1
268,53.64,-0.767942150368903,-0.6403939815925408,-0.012664992176769809,-0.9458731944848482,-0.32359979054087495,0.024638902510671416,1
269,53.84,-0.7707477583582161,-0.636936366552345,-0.016123211494055177,-0.9436012297660828,-0.3302320685028348,0.023738157390060303,1
270,54.04,-0.7720093396193937,-0.6355003771846339,-0.011868030106790271,-0.9414822080160538,-0.33605185642289126,0.026084512338642427,1
271,54.24,-0.7868537480858724,-0.617124382300892,-0.004321561402661837,-0.9468766061827275,-0.3199044022786638,0.03295248194918286,1
272,54.440000000000005,-0.8070263880424102,-0.59031026383039,0.01556282171448603,-0.9558919549708629,-0.2905813161406741,0.042814356610085244,1
273,54.64,-0.8350489663429058,-0.5483586746255895,0.04467647896278071,-0.9680889926315204,-0.24257706054334496,0.06292910331348006,1
274,54.84,-0.9424997112751338,-0.3305633092283209,0.049215778347101176,-0.9817515514455692,-0.17665368840021964,0.07040856204195715,1
275,55.04,-0.9900710717238872,0.13278305171743013,-0.04612953622267972,-0.9943400908673152,-0.08660891685534,0.061535999342858985,0
276,55.24,-0.9938566890880212,0.10106325087459196,-0.045112092366192846,-0.9970772050524952,-0.044501597817692556,0.062101972242241656,0
277,55.440000000000005,-0.7172180356072541,0.13713006655605128,-0.6832229754962905,-0.9941895078113068,-0.08636481309329845,0.06425217208212332,0
278,55.64,-0.8694491887233364,-0.4939215023380557,-0.009982873156085401,-0.9811716988808323,-0.18166599673869907,0.06557105263938261,0
279,55.84,-0.8306595143385257,-0.5567760520011832,0.0022801659721473767,-0.957760900020217,-0.277401902403916,0.07577758860740162,0
280,56.04,-0.7312428519181574,-0.6805652452434784,-0.04598737310701549,-0.9289901921315811,-0.3646138438149489,0.06351352471573714,0
281,56.24,-0.729531646379506,-0.6484879980174394,-0.2173635051202047,-0.9087567014579653,-0.4168300402834596,0.020346377380947585,1
282,56.440000000000005,-0.7226702877572136,-0.639524327082852,-0.2622142068274174,-0.8988730228982059,-0.4379307074909787,-0.015619991750717608,1
283,56.64,-0.7161646821575136,-0.6262648434221433,-0.30805923768597837,-0.8916071824305998,-0.45103771784463675,-0.040020111439987974,1
284,56.84,-0.6946057026204617,-0.6451823110981832,-0.3182180122701132,-0.8717168137734875,-0.487460596334093,-0.04991957137446037,1
285,57.04,-0.6828795413220403,-0.6594704826953295,-0.3142836529273978,-0.8580716011000715,-0.5111790414636576,-0.049082735802482985,1
286,57.24,-0.6780654571265078,-0.6661085720519558,-0.31068731240706393,-0.8476406484367247,-0.5285338721751414,-0.04644649697576905,1
287,57.440000000000005,-0.7611563806798745,-0.556276588105518,-0.33346262410650734,-0.8540696981601067,-0.5182471230041209,-0.044551881920472276,1
288,57.64,-0.7651596698761034,-0.5513979711828045,-0.3324018004923856,-0.8737487092219968,-0.48465014172545967,-0.040956480053669926,1
289,57.84,-0.7668326328920352,-0.5513929638398956,-0.3285323615105901,-0.8911362203610893,-0.4522483160515411,-0.03671099820350414,1
290,58.04,-0.7736044451581354,-0.5449380764174957,-0.32338623239398057,-0.912071519561477,-0.4089597891507301,-0.02962151350976581,1
291,58.24,-0.8069308523347432,-0.5018594235765098,-0.31144777815514796,-0.9372434088351469,-0.3478897544958521,-0.023398959632636673,1
