,timeStamp,x_gaze,y_gaze,z_gaze,x_head,y_head,z_head,fixations_head
0,0.03333333333333333,-0.9924574899222451,0.11545858824348917,0.04120006186958142,-0.9982814843316266,0.05848213762235801,-0.0037306326224960393,1
1,0.23333333333333334,-0.9957041919379475,0.05345225321294944,0.07560435690923008,-0.9878859382018821,0.15479151507751085,0.010998179985642233,1
2,0.43333333333333335,-0.9946978422972336,-0.09975852843028538,0.024988768169960644,-0.9919562738452986,0.1260934122396019,0.011099647234258098,1
3,0.6333333333333334,-0.9803924918339346,0.195089677630211,0.027759316234181645,-0.9902644743911452,0.13745085702858087,0.02198937609250516,1
4,0.8333333333333334,-0.9991849940500468,0.01096507974354387,0.038847325408911886,-0.9931664773678768,0.11670497183097063,0.0005456946168456128,1
5,1.0333333333333334,-0.9791296054639519,-0.2023593350610548,0.018865715402658054,-0.9989418506958615,0.04184312780649747,-0.019087471904268998,1
6,1.2333333333333336,-0.9809891319022083,-0.19057267681633303,0.036638476234819584,-0.9995931536529212,0.027137097090407163,-0.008780952779378915,1
7,1.4333333333333336,-0.8902332017636154,0.45266050163688204,0.05082633899415452,-0.9868365425683466,0.16112809228402655,0.013833876125734303,1
8,1.6333333333333335,-0.8771319831157092,0.4610162004268505,0.13454942266503156,-0.9362150875943405,0.34757364980515376,0.05190248281003234,0
9,1.8333333333333335,-0.8727629496276972,0.46725124571223947,0.14128378228771546,-0.9084082924678382,0.41076277323871285,0.07789941140283736,1
10,2.033333333333333,-0.8559553176026395,0.49787706070480897,0.1394952568788791,-0.8814380848257394,0.4649155864978111,0.08318894187407942,1
11,2.2333333333333334,-0.7158560212458631,0.6839209043683881,0.1407208350386278,-0.8393202846274133,0.5349901549696501,0.09657636304245479,1
12,2.4333333333333336,-0.7304388155002515,0.6693183224548873,0.13591217766177335,-0.8312590247076579,0.5455410510741676,0.10673984932988156,1
13,2.6333333333333333,-0.866060028394996,0.48950379326013554,0.10161724066514409,-0.8327202375212095,0.5449047321891287,0.0982641280453595,1
14,2.8333333333333335,-0.9112696371417295,0.399167895072181,0.10125532068600333,-0.8927498133500288,0.43987712450541494,0.09749813383001861,1
15,3.033333333333333,-0.9486674971764049,-0.3127261863187913,0.0472473511592042,-0.9919853358644091,0.06313069833710984,0.10945139723843081,0
16,3.2333333333333334,-0.9263483293705305,-0.3593845884324304,0.11278958404781887,-0.9817289962649737,-0.13768667922971364,0.13134137297615528,0
17,3.4333333333333336,-0.8525051684447766,-0.5105038938440853,0.11234194294639023,-0.947532522938173,-0.2864188865462189,0.14193780118081714,0
18,3.6333333333333333,-0.8203419110516489,-0.5583194432773654,0.12376812283694626,-0.8858991045163305,-0.44013097834490883,0.1465179119367928,0
19,3.8333333333333335,-0.13961178755398906,-0.989088275786106,-0.04704180564612615,-0.6226946104092487,-0.7759531759707089,0.10073773309065807,0
20,4.033333333333333,0.21508156846629217,-0.9719741821350126,-0.09490051722226274,-0.18878063855313054,-0.9817083856095642,0.024708624634644988,0
21,4.233333333333333,0.6213704157795344,-0.7698397360985193,-0.1457586605239317,0.2450199969458468,-0.9691172501642157,-0.02787393999430759,0
22,4.433333333333334,0.6488839781766146,-0.7573671044960886,-0.07310712614309146,0.5044371285475723,-0.8623121446101145,-0.044282599297977635,0
23,4.633333333333334,0.8781629605209353,-0.46051399051308456,-0.12944759291242544,0.7179076330919983,-0.6951386997522049,-0.03729367848656323,0
24,4.833333333333334,0.9457068749605931,-0.09479581573337471,-0.31088946584230426,0.8824703813695202,-0.46484599311890074,-0.07186256805066805,0
25,5.033333333333333,0.8950007425966476,-0.132001535906241,-0.42608598342334963,0.9386601316847866,-0.2877008621565969,-0.19011936013949218,0
26,5.233333333333333,0.9846047738769454,0.08464466111716645,-0.15293371310175333,0.9692247245318822,-0.15464665975941366,-0.1915407110286311,0
27,5.433333333333334,0.8956047942450125,0.42399449088361846,-0.1346132394145924,0.9880242869831981,0.0004631123342753251,-0.15429774417764053,0
28,5.633333333333334,0.7556663819060013,0.6477768542180802,-0.09671332067725533,0.9676267980589912,0.23676037523546972,-0.0874237061469272,0
29,5.833333333333334,0.7840342574439736,0.6168368447877951,-0.06930072197686614,0.9698558092236556,0.24268497495443433,-0.021993459175260948,0
30,6.033333333333333,0.8894104651961565,-0.45683131252993076,-0.015942907254865312,0.9952273391392019,-0.09753494087652059,-0.003078755936710155,0
31,6.233333333333333,0.8732215602560354,-0.48713572310773606,0.013523829942667973,0.8859696155551964,-0.4636342887476022,0.010054183730283968,0
32,6.433333333333334,0.16631592449193944,-0.9814198795420593,-0.09567671242283059,0.479463558553685,-0.8770059905897084,0.031228008082510025,0
33,6.633333333333334,-0.16296076118333763,-0.9866016397032139,-0.007809919940496275,-0.13988072393934892,-0.9894841119724186,0.03680455439694517,0
34,6.833333333333334,-0.9227747668237118,-0.3850682868585874,0.01446181763254648,-0.7232868613023165,-0.6859916576349437,0.07919319366401273,0
35,7.033333333333333,-0.872256541584905,-0.48426905267851833,0.0682056469816988,-0.9250136870694753,-0.3663766582367718,0.10058739003170798,0
36,7.233333333333333,-0.9898802181195098,-0.11983684041634914,0.07600187796823321,-0.9848252261093295,-0.11616835257605071,0.12893482027161723,0
37,7.433333333333334,-0.9934540203236033,-0.07395345242242084,0.08706317463585933,-0.988838335952783,0.01728461377322304,0.14798644355765134,1
38,7.633333333333334,-0.9896605011594591,0.1098461762789173,0.09222749048797362,-0.9830113249412127,0.09205517994982719,0.1587909911856666,1
39,7.833333333333334,-0.9750313549083222,-0.2196962557498671,0.03236374754460451,-0.9804946214245949,0.10234744204752776,0.16779540656337447,1
40,8.033333333333333,-0.9621714231369783,-0.2688449022861848,0.04414262127800508,-0.9817053985045592,0.030078328020688806,0.18801543747917393,1
41,8.233333333333334,-0.9609190040064998,-0.27366579665038626,0.041733673249139146,-0.9860048637333992,0.0027426448117727456,0.16669399087404924,1
42,8.433333333333334,-0.961367752727462,-0.24108036285618112,0.13286196845177972,-0.9830975151659311,-0.017113208924448314,0.18228113932845677,1
43,8.633333333333333,-0.8948053649390106,0.44221338517710945,0.06140586980546187,-0.9735602906141805,0.15169585606163005,0.17078854701929586,1
44,8.833333333333334,-0.8895219739601636,0.4519029147881024,0.06733805349155247,-0.9308855284549171,0.31195591860735555,0.190093760442185,0
45,9.033333333333333,-0.9066363277885088,0.4109197485906912,0.09568453037106361,-0.8896731033132356,0.40596762956941657,0.20897859455644097,0
46,9.233333333333334,-0.9955728401874274,0.0921708724795207,0.018418744460547053,-0.8810473913113902,0.4319433347464264,0.19282232710848357,0
47,9.433333333333334,-0.9987213390650649,0.026167090719494714,0.043254713724192866,-0.9069587255333064,0.36130115247904043,0.21653486415891074,0
48,9.633333333333335,-0.9952028449617953,-0.04938762914680333,0.08445211345613039,-0.9243851880470138,0.26073180127528456,0.2784438038869469,1
49,9.833333333333334,-0.996189086164202,0.06667005068116222,0.05623529985252712,-0.9410994998584203,0.19981604318616747,0.2727733129388858,1
50,10.033333333333333,-0.9963719123651694,0.08508805816983271,-0.0017420122453607166,-0.9563828804735891,0.18917526136686819,0.22258595288970512,1
51,10.233333333333334,-0.9977456767266889,0.06679185755469133,-0.006512475535127785,-0.9614925622112553,0.1614067984313376,0.2224407746627877,1
52,10.433333333333334,-0.9984625402980294,0.05495312315288442,-0.0072601568406033745,-0.9639663985607267,0.14294819661217692,0.22435372858766803,1
53,10.633333333333335,-0.9978650615235668,0.0584086704925189,0.029218935673032572,-0.9596991279900009,0.14324360930530347,0.24178265473027952,1
54,10.833333333333334,-0.9982784853109012,0.058641198962631244,0.0011294023188641359,-0.9640974982702817,0.138241185098992,0.22672756464843505,1
55,11.033333333333333,-0.9976411094612971,0.06158700411976623,-0.03031926180473871,-0.9684029617752202,0.13784029181573748,0.20783589097442645,1
56,11.233333333333334,-0.9918898158064962,-0.11542665691631931,0.0532097751590611,-0.972017723657063,0.10265986849327255,0.21128770976440142,1
57,11.433333333333334,-0.9861615319354471,-0.09713156138943266,0.13435361071732715,-0.9766634816233037,0.06299298546864253,0.2053298016489432,1
58,11.633333333333335,-0.9859618788764544,-0.1024960608164952,0.1318094492800626,-0.9774313059998471,0.04127432715570343,0.20718221924015914,1
59,11.833333333333334,-0.993603015541877,0.04967936452125433,0.10141502968915833,-0.9779803850243165,0.02723540250327191,0.20691205706332017,1
60,12.033333333333333,-0.993988492134988,0.05174933824719726,0.09648255538795915,-0.9772585842106294,0.014826269893464371,0.21153212831076593,1
61,12.233333333333334,-0.9936681768390161,0.05069350417116281,0.10026825505749136,-0.9756398864657561,0.007792782139656682,0.21923978763812627,1
62,12.433333333333334,-0.9920572585568339,0.07819137611061282,0.09853174334511951,-0.9744398636660978,0.03542802438638162,0.22183734398535032,1
63,12.633333333333335,-0.9703602149578293,0.24153851782133567,-0.007758713531760282,-0.9696250524512131,0.08247623896724622,0.23027142172835938,1
64,12.833333333333334,-0.9563560516739396,0.2921231225685783,0.006869038318167607,-0.954270918898831,0.1634272787787454,0.25031687497041705,1
65,13.033333333333333,-0.8805892878715511,0.4701648989760243,0.059223929764405374,-0.9385209159722618,0.2458102887388209,0.24239594104011805,0
66,13.233333333333334,-0.8651807177360407,0.4983863551874029,0.055437952891186706,-0.9094091657967822,0.3355675673056219,0.24570180491275959,0
67,13.433333333333334,-0.7823162584732697,0.6227894667735506,0.010702887661798834,-0.8835338088686586,0.41083572565504567,0.22490445774046589,1
68,13.633333333333335,-0.8289852262748856,0.5517572844897567,-0.09136407187985157,-0.8553102458371247,0.4784765992281866,0.19875745861996413,1
69,13.833333333333334,-0.8971437510557035,0.4370882066903761,-0.06392956682077965,-0.8345665149965982,0.5256729012719625,0.16482333850141126,1
70,14.033333333333333,-0.9136645535306469,0.39900646780286586,0.07753013783764746,-0.8364846948023216,0.5248293776134432,0.15763083377103762,1
71,14.233333333333334,-0.9255127611873504,0.3737291119092504,0.06125912006297237,-0.8533272827390839,0.49676111610464213,0.1583064814200664,1
72,14.433333333333334,-0.9513600474744724,0.3065185193433516,0.030991246650125898,-0.8880920129606295,0.4325843042742039,0.15544579830648453,1
73,14.633333333333335,-0.9955864204497703,0.08060996589503,0.04805947164103468,-0.9363041704234389,0.3054254191961625,0.17334882104163435,0
74,14.833333333333334,-0.9941485914051805,-0.04745443942450451,0.09703944757675463,-0.9704237115604486,0.14601514840044855,0.19224306613981768,0
75,15.033333333333333,-0.9875491772532297,-0.12168698226050517,0.09969403620478572,-0.9796402877383953,-0.004474906206792696,0.2007109410427714,1
76,15.233333333333334,-0.9873694097913461,-0.13536107329794259,0.08233485558327186,-0.9788646107078979,-0.06087487918225536,0.19523914307387794,1
77,15.433333333333334,-0.9905756052392307,-0.11553930739277464,0.0735570442046831,-0.978743390921972,-0.07031798099257527,0.1926570950567046,1
78,15.633333333333335,-0.9925459129607748,-0.09649802585908086,0.07443615835171966,-0.979139274435062,-0.06443465211785114,0.19270302764936545,1
79,15.833333333333334,-0.992756736214954,-0.10322259923329413,0.0614748542686788,-0.980464531690591,-0.07458428106202923,0.1820068326058413,1
80,16.033333333333335,-0.9933031719103761,-0.10709889656291352,0.04334322355100776,-0.9817770935920843,-0.0781893250009573,0.17320556559699385,1
81,16.233333333333334,-0.9940471057360784,-0.10188220226089205,0.03860529031358665,-0.9815851164519024,-0.07537362250971372,0.17552628347307117,1
82,16.433333333333337,-0.993953042839117,-0.1007329640304236,0.04370604750496276,-0.9816910911332093,-0.07453800096400116,0.17529029637141944,1
83,16.633333333333336,-0.9933127856246025,-0.1037409676813163,0.05067071678234505,-0.9812925462937212,-0.07845973958382953,0.17580957838759337,1
84,16.833333333333336,-0.9944584300075215,-0.09028895704985716,0.05385476043791074,-0.9821464345346513,-0.06685414588124532,0.1758377215200457,1
85,17.033333333333335,-0.9965113493743025,-0.06407131606847662,0.05347894001810805,-0.9838849928531652,-0.04255200943933865,0.17366533140210083,1
86,17.233333333333334,-0.9514498520219699,0.30441482592302516,0.045549894024317986,-0.9831584163729185,0.06096269351751646,0.17228777761113664,1
87,17.433333333333337,-0.9517005018583381,0.29427305971837603,0.08757580194650195,-0.965919919357757,0.18435028432835554,0.18169667596287645,0
88,17.633333333333336,-0.9519482046734915,0.2932248533150542,0.08839570700707827,-0.9561376384411385,0.22602678714174038,0.18631346663777565,0
89,17.833333333333336,-0.9607787313705587,0.2626511598323171,0.08898650226140414,-0.9593174645865599,0.21242690881387696,0.1859699184034762,0
90,18.033333333333335,-0.9705410249460437,0.22796797997697615,0.07797896512457693,-0.9667457535668555,0.1822802336054805,0.17937827180900204,0
91,18.233333333333334,-0.9816224247516772,-0.1393173246628745,0.13041509986737632,-0.9796970656734764,0.07880052970947724,0.18434786689377772,0
92,18.433333333333337,-0.9722718076782112,-0.1526735540461272,0.177139261286334,-0.9799581508094395,-0.04598224512521629,0.19382377510354248,1
93,18.633333333333336,-0.9702215995504982,-0.1654794828168142,0.1768801530199267,-0.9755253408210338,-0.09890254817974087,0.1963888881264929,1
94,18.833333333333336,-0.9709481185211699,-0.1624559752772603,0.17569236533473553,-0.9734165615573107,-0.11772394778061389,0.19647205858566688,1
95,19.033333333333335,-0.9749713958866318,-0.14116794076487915,0.1717625969269092,-0.9744004348857196,-0.11252772712346304,0.1946311977123602,1
96,19.233333333333338,-0.9781297712451578,-0.12338545850919726,0.16744604872128413,-0.9748682253580163,-0.10773433423542533,0.19500065747110065,1
97,19.433333333333337,-0.9789740107936038,-0.12689724280087844,0.1597090353117824,-0.9737214632563258,-0.11622411911507878,0.1958531749292902,1
98,19.633333333333336,-0.9775103488509994,-0.14005036462177972,0.15766868192036243,-0.9709186361900799,-0.13408853743399457,0.19833624486615611,1
99,19.833333333333336,-0.9749944216885698,-0.15757042159329257,0.15670813608451808,-0.9669713902481522,-0.1600404323803706,0.19837688989663116,1
100,20.033333333333335,-0.9722431295153586,-0.1750884545521759,0.15520093489638764,-0.963368777007938,-0.18489872120861153,0.19424999969536677,1
101,20.233333333333338,-0.9685566890261172,-0.19493643904953142,0.15458888987716332,-0.9574878558868589,-0.21462279214076146,0.19275389210827826,1
102,20.433333333333337,-0.9798407137003449,-0.12858679670841658,0.152897388752938,-0.9486129742715343,-0.2512146269630845,0.19241786882592735,1
103,20.633333333333336,-0.9773403186889484,-0.16643834581407485,0.1307829442536737,-0.9376318280160696,-0.3028785634023116,0.17061984328499366,1
104,20.833333333333336,-0.8025043236443148,-0.5965161156585682,0.012463317848588744,-0.9275665001670284,-0.3387029300077642,0.1577995975028011,1
105,21.033333333333335,-0.983104815289353,-0.12475923789101567,0.13394048945610176,-0.9445906413984296,-0.29021011140573505,0.15338386949211505,1
106,21.233333333333338,-0.9868700140336373,-0.08152780986400121,0.13943023925973955,-0.9637853977626643,-0.21596126088274445,0.1564558751130762,1
107,21.433333333333337,-0.9836793997371915,-0.08287615416771836,0.15970717455094813,-0.9683751150018365,-0.18986169490460986,0.16187085424229009,1
108,21.633333333333336,-0.9827119751163794,-0.07818859392437895,0.16782049261932797,-0.9713061516966974,-0.16828709333464392,0.16805895957409925,1
109,21.833333333333336,-0.9829954448064249,-0.08273144822643635,0.16393737512896683,-0.9729270389561389,-0.15938547420527155,0.16735963515854352,1
110,22.033333333333335,-0.9823937532249186,-0.1580449053889338,0.0996208889001757,-0.9717709824213192,-0.16137244812649582,0.17210488287542977,1
111,22.233333333333338,-0.9831926269286464,-0.14158073081585845,-0.11526992242035786,-0.9715181774282144,-0.16712505661837868,0.16799299502319748,1
112,22.433333333333337,-0.9795154198644893,-0.1297757422455781,-0.153973370984409,-0.9742720396323776,-0.1610248523860566,0.1576863649927133,1
113,22.633333333333336,-0.9661364885193657,-0.10481767917229921,-0.23578282313265037,-0.9775597834861722,-0.14502675566934564,0.15278779352583244,1
114,22.833333333333336,-0.9769335755542423,-0.13979859809354844,0.16142224421027698,-0.9771903563522184,-0.1268826799986635,0.1702932557930045,1
115,23.033333333333335,-0.9712267227289051,-0.14445519480644603,0.18934452659293408,-0.9762172800886832,-0.13182493656395056,0.17211045336110045,1
116,23.233333333333338,-0.9721393327270472,-0.14080714724607094,0.18739921304379883,-0.9755332944502093,-0.13453658412200983,0.17388127832490402,1
117,23.433333333333337,-0.9715966931404352,-0.14612047283376575,0.18614154103103353,-0.9735846213777333,-0.1458608661877946,0.17566329363791944,1
118,23.633333333333336,-0.9732909995606407,-0.14933773664619118,0.1743641895219376,-0.9728106502002792,-0.15256840199166952,0.1742478739342846,1
119,23.833333333333336,-0.9729693114796547,-0.15114043491244392,0.17460609340250566,-0.9712914518269887,-0.1587434391402753,0.177181929489828,1
120,24.033333333333335,-0.9731711518314772,-0.1551795911708323,0.16987408197559087,-0.9701651008102607,-0.16508909691681925,0.17755356163424477,1
121,24.233333333333338,-0.9739897678198823,-0.1511115612643342,0.16884675962075046,-0.9698437611303456,-0.16598638096179102,0.17847016650340233,1
122,24.433333333333337,-0.9731686442812503,-0.1570570167651673,0.1681543436031891,-0.9676826834506185,-0.1760881983657635,0.18050808997413412,1
123,24.633333333333336,-0.9731338541868491,-0.1568688447069524,0.16853090931860035,-0.9660547401845954,-0.18086985527554145,0.1844568633027221,1
124,24.833333333333336,-0.972218133690496,-0.16478797478449286,0.16624326720139418,-0.9632353875789101,-0.19389567543207287,0.18596251010471843,1
125,25.033333333333335,-0.971066937590606,-0.17446091674799336,0.1630717365022275,-0.9602169759195996,-0.2086928059367748,0.18555503740414883,1
126,25.233333333333338,-0.9108575866456191,-0.3942740356040353,0.12201000655121014,-0.9555287468475082,-0.2311452663628506,0.18313022630379142,1
127,25.433333333333337,-0.9029500588938616,-0.41158948477930685,0.12359323267346352,-0.9473516779681727,-0.26189550747263585,0.1842160183494862,1
128,25.633333333333336,-0.8883677148569653,-0.4411180475629525,0.1273486211706369,-0.9366880383033958,-0.29676583801883216,0.18586434914828848,1
129,25.833333333333336,-0.8705276923026243,-0.4737189492320087,0.13331126761376613,-0.923037347419134,-0.33599650590271324,0.1873723653333571,1
130,26.033333333333335,-0.8495144717817146,-0.5077960756880642,0.1430674936847521,-0.9080346839165887,-0.3732319265797221,0.1901865972830103,1
131,26.233333333333338,-0.8268687149789482,-0.5418759199095569,0.150527790162597,-0.8904465224794599,-0.4123168906647561,0.1926130117016615,1
132,26.433333333333337,-0.8122347490361632,-0.5631107294619658,0.15225314060134884,-0.8781551108705449,-0.4385982567200334,0.19098473879891273,1
133,26.633333333333336,-0.8049262248347149,-0.5739666204932347,0.15051940450622756,-0.8715953089600279,-0.4532151897404754,0.18686254088869386,1
134,26.833333333333336,-0.8109073257857374,-0.5646578321968453,0.15359310377026444,-0.8762991707806947,-0.4439793347756449,0.18703505976485404,1
135,27.033333333333335,-0.8211285362691596,-0.548838177858132,0.1566032613001185,-0.8846567005970891,-0.42722119611322285,0.18672057112235765,1
136,27.233333333333338,-0.8262951667590641,-0.5413197307699054,0.15559320830231524,-0.8882314827862073,-0.4199785995838507,0.18617950714029374,1
137,27.433333333333337,-0.8308113748845406,-0.5344849705440448,0.15517176168681915,-0.8914118115115137,-0.4140501110938504,0.18424844043012037,1
138,27.633333333333336,-0.8351353204146882,-0.5282281291369544,0.15337548756020036,-0.8949173566686749,-0.4072334158493542,0.1824386739395429,1
139,27.833333333333336,-0.8399821251849262,-0.5413762762598975,-0.03662999962847628,-0.8972019801412845,-0.40295824135421004,0.18070213766107068,1
140,28.033333333333335,-0.8408829057706978,-0.5387885629083532,-0.051213506634281675,-0.8968567112428192,-0.4056344216569638,0.17637674298425765,1
141,28.233333333333338,-0.8415939084232988,-0.5370255489089542,-0.05764766364591553,-0.8936692011289862,-0.41179243929455056,0.17827603847214968,1
142,28.433333333333337,-0.8463812678864389,-0.5293940695558171,-0.058143516320180534,-0.894632813332107,-0.4074432387212843,0.1833634001915059,1
143,28.633333333333336,-0.6219414426139482,0.14935006078897164,0.7686894049625059,-0.9305392298339522,-0.31515559717820674,0.18647705303141984,1
144,28.833333333333336,-0.9518877223713714,0.30558839152446987,-0.022923764178922095,-0.9828255755984587,-0.06853528486328983,0.17133826974224553,0
145,29.033333333333335,-0.9389988374526269,0.3355093710449635,0.0755952723629465,-0.9788322650619906,0.12969524428462623,0.15832416266496932,1
146,29.233333333333338,-0.9952652343201336,0.009948297124876087,0.09668580422174121,-0.9689835935113379,0.18903471442277833,0.15917497368918596,1
147,29.433333333333337,-0.9960428629467815,0.009669411044713616,0.08834657697289419,-0.96522649160316,0.20258782394018954,0.165214991749035,1
148,29.633333333333336,-0.9955519126202228,-0.013228102867853156,0.09328133024745092,-0.9671799377401872,0.18494349470080457,0.17423797462304658,1
149,29.833333333333336,-0.9941207006457944,-0.05803155623402596,0.09141318848269246,-0.9747615626040568,0.14211504306970293,0.1721720378081013,1
150,30.033333333333335,-0.9917073030843223,-0.08245380904213934,0.09857988833257379,-0.9779694636440712,0.11042254343778178,0.17715131972542306,1
151,30.233333333333338,-0.9906020918319705,-0.08639433411793597,0.10603544072829266,-0.9785324963384949,0.09565758968188381,0.18254801873974455,1
152,30.433333333333337,-0.9908941200479121,-0.09551984363773064,0.09489363690942475,-0.9816908725494051,0.07636771665151738,0.17450215645263806,1
153,30.633333333333336,-0.9970297230783374,-0.04483216463954177,0.06262434280746769,-0.9851300742671427,0.04097626261677111,0.16685227800774957,1
154,30.833333333333336,-0.9947241664615412,-0.06917031756648699,0.07575816672243167,-0.9857392364596219,0.006147829487784668,0.16816766007943013,1
155,31.033333333333335,-0.9948851596610303,-0.06884547224966074,0.07391765713933084,-0.9866132987143712,0.0018231497921863424,0.16306708719046364,1
156,31.233333333333338,-0.9942064403484305,-0.07446613642048193,0.0775135375035163,-0.9861801304696765,-0.007707799825091019,0.16549725100033763,1
157,31.433333333333337,-0.9945380225400142,-0.06628149357750435,0.08062806788788644,-0.9858747192751942,-0.0037829591358599078,0.1674417125874956,1
158,31.633333333333336,-0.9949752884597145,-0.05809398843522257,0.08154301847611523,-0.9857626186084646,0.0027246284141010566,0.1681208974345189,1
159,31.833333333333336,-0.9961016291773461,-0.03441019264186168,0.08122489145937359,-0.9855000682629207,0.027270064085965502,0.16746927795427502,1
160,32.03333333333333,-0.9957132093306839,-0.031355425127352156,0.08701748145903092,-0.9845531893355228,0.029581072739969447,0.17256876167140717,1
161,32.233333333333334,-0.9205025959109853,-0.38928263243015854,0.033674961163801094,-0.9833615450908773,-0.044064645121652195,0.17623387496955695,1
162,32.43333333333333,-0.9016419914632168,-0.4291551789842288,0.05354952456613667,-0.9771896145855556,-0.10740920279231406,0.18320404008005137,1
163,32.63333333333333,-0.9924152139811113,0.016489502164277938,0.12182011072560765,-0.9791214142539632,-0.09069556390089503,0.18192188114137933,1
164,32.833333333333336,-0.9898025110737967,-0.11654360042110377,0.08190591109860662,-0.9776516536956031,-0.10132420418188547,0.18420274067765674,1
165,33.03333333333333,-0.9871704283461837,-0.1243185790706625,0.10019698746301606,-0.9768940900560137,-0.0922192047685453,0.19280444778451217,1
166,33.233333333333334,-0.98426551623947,-0.1433730925422574,0.10327414912125588,-0.9775804913588841,-0.09216811766688851,0.1893183060358013,1
167,33.43333333333333,-0.9767334043935247,-0.18203145631628934,0.11338609109236582,-0.9742346781668123,-0.1186049082020143,0.19183239457296894,1
168,33.63333333333333,-0.9661678055028107,-0.2288081448222403,0.11902354587596538,-0.9693043238263933,-0.1539329212261932,0.19171276320117306,1
