,timeStamp,x_gaze,y_gaze,z_gaze,x_head,y_head,z_head,fixations_head
0,0.033366700033366704,-0.999502720094023,-0.030404239152936014,0.008360308976363038,-0.9884841323887625,-0.1100324999319415,0.10388440197817307,0
1,0.2333667000333667,-0.9992127366564282,-0.03896560823801471,0.007455754704477327,-0.9875816738842473,-0.11875327062212065,0.10285960394896175,0
2,0.43336670003336675,-0.9764398065964772,-0.06687666792266939,-0.20516533669554302,-0.9899501353313318,-0.12071062763686236,0.07367274891703883,0
3,0.6333667000333668,-0.8022192972024581,-0.07051817965874832,-0.5928502218382067,-0.98671996663635,-0.10312264801563212,-0.12549672070378856,0
4,0.8333667000333668,-0.7529014449063722,-0.05486400596242749,-0.6558424773584373,-0.9378140167414184,-0.05663036134981103,-0.34248776938266945,0
5,1.0333667000333666,-0.7668113066290883,-0.07710734519168004,-0.6372243540098586,-0.9073271968866837,-0.07579692623859838,-0.41353619401756575,1
6,1.2333667000333668,-0.786310118521974,-0.10648366141688127,-0.6085865816473565,-0.8876550927754626,-0.09599377920642076,-0.4503927515218846,1
7,1.4333667000333667,-0.7826060088790218,-0.15181884784883515,-0.6037208562773868,-0.8642913404146717,-0.12949021366556904,-0.4860378210068179,1
8,1.6333667000333667,-0.9055828491334948,-0.024893264613743086,-0.4234383411219769,-0.8584518116417681,-0.12332979521887899,-0.49784560729229704,1
9,1.8333667000333667,-0.9010656228109075,0.0004051613941127799,-0.43368257888994827,-0.8571494884418165,-0.08721780513282963,-0.5076295981636061,1
10,2.033366700033367,-0.9016847414323231,0.045487353446141666,-0.4299947996715668,-0.8587518644742855,-0.048369893371122026,-0.5101035078071945,1
11,2.233366700033367,-0.9024051954132186,0.07447007646663598,-0.42440437203483655,-0.8616493138820838,-0.01826142474534141,-0.5071754925593358,1
12,2.433366700033367,-0.9045502574342148,-0.04263583910917668,-0.4242299105428001,-0.8655072489350162,-0.002191806141800205,-0.5008916030707411,1
13,2.633366700033367,-0.9025080060556986,-0.039918201561294366,-0.4288191182648918,-0.8659800117220331,-0.0036197082593161273,-0.5000655127181087,1
14,2.833366700033367,-0.6849439035888395,-0.03037597821567259,-0.7279623265553814,-0.8473779363561263,-0.0064583199343617465,-0.5309509610881765,1
15,3.033366700033367,-0.6185098907363261,-0.04558064202286793,-0.7844538993045553,-0.7907040220659888,-0.022909036699948787,-0.6117698305131997,0
16,3.233366700033367,-0.4522922836427683,-0.045818987670674084,-0.8906920402282961,-0.7181727108692901,-0.044569699845684804,-0.6944361016092989,0
17,3.433366700033367,-0.30303212638071114,-0.016495320024244295,-0.9528375699973646,-0.604327400354723,-0.04462263028925576,-0.7954855209534433,1
18,3.633366700033367,-0.23263933959955624,0.014878261762706995,-0.9724492660275923,-0.5291326497971021,-0.023508144489857673,-0.8482134201139132,1
19,3.833366700033367,-0.2273965466818493,0.01236972673755456,-0.973723677650702,-0.5012115314259818,-0.025420526720342007,-0.8649513267154879,1
20,4.033366700033366,-0.23935902071282456,0.0155435806957797,-0.9708067038821638,-0.49078204386130553,-0.019295102579359128,-0.8710687024797595,1
21,4.233366700033367,-0.26254488203563725,0.021498545628447514,-0.9646802565890705,-0.4969099818059761,-0.009086810388526882,-0.8677545158963724,1
22,4.433366700033367,-0.2818476166349732,0.027150808242805642,-0.9590749473367282,-0.503386613675052,0.003456594044510714,-0.8640543785725383,1
23,4.633366700033367,-0.2930537906936263,0.026923409093155708,-0.9557168020930151,-0.50667492071528,0.00689922788663621,-0.8621095785181447,1
24,4.833366700033367,-0.305269478962023,0.027847721630289732,-0.9518587340641769,-0.5135524466680825,0.010232736595374088,-0.8579971885868836,1
25,5.033366700033366,-0.3114285507757582,0.02653036556829051,-0.9498991512073918,-0.5162713388316829,0.009539698261049669,-0.8563719395554888,1
26,5.233366700033367,-0.2846416123202437,0.17484684898720715,-0.9425538350327674,-0.5170737227670301,0.00955130532735037,-0.855887573101975,1
27,5.433366700033367,-0.28776563670642796,0.2256599420757475,-0.930735477390496,-0.5130005023570591,0.0321203612128381,-0.8577871338373887,1
28,5.633366700033367,-0.32327213300199287,0.2798105523525196,-0.9039918046180065,-0.5215240806636946,0.1101248388886464,-0.8460999664032839,0
29,5.833366700033367,-0.349113617056208,0.3287855066876426,-0.8775077053667859,-0.5385304244151803,0.19718216985605846,-0.8192094810669993,0
30,6.033366700033366,-0.3105965463696139,0.6173338694326966,-0.7227922793130281,-0.5453554592060362,0.2886301169511772,-0.786943504136684,0
31,6.233366700033367,-0.32879163528983024,0.6752082948899613,-0.6602952514407707,-0.5353698847361719,0.4220009121263785,-0.7316381049959624,0
32,6.433366700033367,-0.31901515016759596,0.7181719711895796,-0.6184321739376272,-0.5240804831837759,0.526098076343776,-0.6697465649133548,0
33,6.633366700033367,-0.3890812016346712,0.6717076534739668,-0.6304162488380343,-0.5121791866628815,0.6009900263806309,-0.6135824874785444,0
34,6.833366700033367,-0.39237075750264916,0.6850943948657608,-0.6137514633630737,-0.4950287744673064,0.6529843165942659,-0.5731997860530974,0
35,7.033366700033366,-0.1546865631451058,0.7459610162824162,-0.6477763729631238,-0.4318697688685055,0.7210888469955734,-0.5417742864662906,0
36,7.233366700033367,-0.06874110841339609,0.8788560069385435,-0.4721088635920077,-0.34658702923883855,0.7940592040773716,-0.49934698515501996,0
37,7.433366700033367,-0.260438596079944,0.9123407250814036,-0.3159210962089214,-0.30384929006729144,0.8574416540549117,-0.41529437609625824,0
38,7.633366700033367,-0.35509790309763084,0.8749083380811499,-0.3293036276322293,-0.3101023491569508,0.8802916691695835,-0.35905864456655145,0
39,7.833366700033367,-0.38665319954884925,0.8707188943525402,-0.3038879897201066,-0.3296680166365244,0.891506237135719,-0.31070183127083667,0
40,8.033366700033367,-0.3981401421010761,0.9140018336128768,-0.0780068932853644,-0.38615440321704475,0.9000237894528432,-0.20209392691279005,0
41,8.233366700033368,-0.42610876413984716,0.8877875358311887,0.17396727377871513,-0.4453187552630765,0.8942264175198495,-0.04528046400557073,0
42,8.433366700033368,-0.4508541615307078,0.8536757622952404,0.2607071496911485,-0.5198662427181684,0.852352601539158,0.05686943231230643,0
43,8.633366700033367,-0.8930794969731314,0.43250645657915754,0.12388372412693993,-0.7014814832971386,0.7068138439453053,0.09131220399545754,0
44,8.833366700033368,-0.9950333055902807,-0.025005398259029792,0.09635066592394026,-0.883586651712321,0.456961297510482,0.10227903740917216,0
45,9.033366700033367,-0.9846370684029804,-0.1643894967984135,0.05887220795204964,-0.982347120916504,0.167592807918171,0.08310706805776975,0
46,9.233366700033368,-0.8092036003214832,-0.5849378039899878,-0.05511169286204106,-0.9731899978515822,-0.2219539784591132,0.06031301292265973,0
47,9.433366700033368,-0.5709316778063522,-0.7856572024017058,-0.23828508050557654,-0.8059157692538921,-0.5911203774730891,0.03280963584041355,0
48,9.633366700033369,-0.2769164656590551,-0.9330301230907896,-0.22972170217914484,-0.5516713826219299,-0.8340599817020176,0.001622504002642226,0
49,9.833366700033368,0.047852769194533906,-0.9863873707059333,-0.1573215414120093,-0.28235429159813896,-0.9593090276853466,-0.001497804228948569,0
50,10.033366700033367,0.021197402668353238,-0.9993137918772018,0.030374586155604563,-0.07805507616131774,-0.9964780174844835,0.03064254812583984,0
51,10.233366700033368,-0.009931819037833689,-0.9853349077789826,0.17034223927958617,0.054553497151438146,-0.9948595666785703,0.08531329636507856,0
52,10.433366700033368,0.06786396230851027,-0.9724099438994455,0.22318912075920447,0.16359192798560157,-0.9767712435538115,0.13840382532391987,0
53,10.633366700033369,0.6689215350649825,-0.743310499668008,0.005786277698485266,0.34046334535581063,-0.9314197642665791,0.12861544698332456,0
54,10.833366700033368,0.8680809869941067,-0.4948600838306664,-0.03935603448574498,0.6234115138435382,-0.7688373616539563,0.1422926411740661,0
55,11.033366700033367,0.9409042498629945,-0.337832904466324,-0.02383529420005395,0.7573718161887468,-0.6436523559447672,0.10999807602730947,0
56,11.233366700033368,0.9803422304760103,-0.195448128244686,0.027002598226277135,0.8118754431751705,-0.5730534236523883,0.11166037080986775,1
57,11.433366700033368,0.9870670435494648,-0.12068199416897049,0.10552017732130305,0.8513696531019088,-0.5069020572281813,0.13498154746102414,1
58,11.633366700033369,0.9870437614188798,-0.09956893178706769,0.12581987468938344,0.8652486795191403,-0.48217232598520676,0.137311946473712,1
59,11.833366700033368,0.9855554841032885,-0.09069791413961156,0.14301844679850495,0.8713834284487503,-0.46927368642004913,0.14308433827166053,1
60,12.033366700033367,0.9541459990423442,-0.2801071805718358,0.10557168135245386,0.8529254166377027,-0.5031957314491913,0.13896866375091446,1
61,12.233366700033368,0.9344087432907369,-0.3442139869702509,0.09163531871429119,0.8186401665317675,-0.5588096240223299,0.13251445898792333,1
62,12.433366700033368,0.9227659330972466,-0.37806523709746065,0.07463048447925702,0.8010317552121368,-0.5860993111065723,0.12180198956570902,1
63,12.633366700033369,0.6955972443307913,-0.7180891720315464,0.02219041888874114,0.8113788425637273,-0.5709998099372335,0.12499436343927652,1
64,12.833366700033368,0.8518143434102108,-0.523059799679716,-0.02864908933364078,0.8121325921502911,-0.5749910385028452,0.09912597242230921,1
65,13.033366700033367,0.9375872898418025,-0.3402000701951002,-0.0720693150123752,0.8037304940021922,-0.5904868463349944,0.07309293615900805,1
66,13.233366700033368,0.7577689065969786,-0.5239166040474168,-0.38897001966506617,0.8077310904678568,-0.5892826408568229,0.01778917301101964,0
67,13.433366700033368,0.6105989585152635,-0.5512817882340787,-0.5685572106846523,0.7562384384898515,-0.6374441848763905,-0.14754096149105564,0
68,13.633366700033369,0.42921814430954,-0.4538754806582375,-0.7808769638379207,0.6036301284239177,-0.6731472641491313,-0.4272042003860268,0
69,13.833366700033368,0.23229960755464837,-0.4117082718216524,-0.881211206943934,0.38596464105586104,-0.6964315018833147,-0.6049912883994043,0
70,14.033366700033367,0.12751938579466365,-0.41625314206718916,-0.9002622551044472,0.2548911649354678,-0.7143973068183931,-0.6516647773575514,0
71,14.233366700033368,-0.19501062036914021,-0.611599901181061,-0.7667570794055704,0.10706539511299679,-0.7486155543045496,-0.6543024935170201,0
72,14.433366700033368,-0.2277475592424349,-0.6200347592169311,-0.7507915467171407,-0.10920273979357287,-0.766996764437083,-0.632290063945831,0
73,14.633366700033369,-0.5014677063296646,-0.451966953234605,-0.7377370891396839,-0.4080898230228408,-0.6798353526144023,-0.609332905463703,0
74,14.833366700033368,-0.6997255267695175,0.015475094350323048,-0.7142441519830389,-0.6963812039503479,-0.40274580290703893,-0.5940109738257606,0
75,15.033366700033367,-0.6484280782792995,0.21990832811013886,-0.728821894928259,-0.8096771279943492,-0.1316593244166873,-0.5719167515442821,0
76,15.233366700033368,-0.6855283264090405,0.28779852128831496,-0.6687472802449963,-0.8390535303382495,0.07905789386767152,-0.5382741147817981,1
